age,ast_pct,blk_pct,bpm,bpm-dum,dbpm,drb_pct,dws,fg3a_per_fga_pct,fta_per_fga_pct,g,lg_id,mp,obpm,orb_pct,ows,per,pos,season,stl_pct,team_id,tov_pct,trb_pct,ts_pct,usg_pct,vorp,ws,ws-dum,ws_per_48
23.0,6.5,1.7,-3.8,0.0,0.5,15.0,0.5,0.1,0.356,49.0,NBA,372.0,-4.4,10.1,-0.1,9.0,SF,1996,1.5,DET,14.0,12.7,0.432,15.5,-0.2,0.4,0.0,0.053
24.0,9.0,0.7,-12.4,0.0,-4.4,7.8,0.0,0.229,0.396,17.0,NBA,107.0,-8.0,7.8,-0.4,3.0,SF,1997,1.5,GSW,16.3,7.8,0.355,28.0,-0.3,-0.4,0.0,-0.187
