age,ast,blk,drb,efg_pct,fg,fg2,fg2_pct,fg2a,fg3,fg3_pct,fg3a,fg_pct,fga,ft,ft_pct,fta,g,gs,lg_id,mp,orb,pf,pos,pts,season,stl,team_id,tov,trb
23.0,15.0,8.0,48.0,0.367,32.0,30.0,0.37,81.0,2.0,0.222,9.0,0.356,90.0,24.0,0.75,32.0,49.0,2.0,NBA,372.0,30.0,42.0,SF,90.0,1996,10.0,DET,17.0,78.0
24.0,6.0,1.0,7.0,0.323,14.0,11.0,0.297,37.0,3.0,0.273,11.0,0.292,48.0,9.0,0.474,19.0,17.0,0.0,NBA,107.0,7.0,10.0,SF,40.0,1997,3.0,GSW,11.0,14.0
