age,ast_per_g,blk_per_g,drb_per_g,efg_pct,fg2_pct,fg2_per_g,fg2a_per_g,fg3_pct,fg3_per_g,fg3a_per_g,fg_pct,fg_per_g,fga_per_g,ft_pct,ft_per_g,fta_per_g,g,gs,lg_id,mp_per_g,orb_per_g,pf_per_g,pos,pts_per_g,season,stl_per_g,team_id,tov_per_g,trb_per_g
22.0,1.8,0.0,0.9,0.387,0.381,0.9,2.4,0.3,0.1,0.2,0.374,1.0,2.7,0.571,0.3,0.5,43.0,3.0,NBA,10.3,0.2,0.9,PG,2.3,2011,0.4,TOT,0.8,1.1
22.0,2.3,0.1,1.3,0.404,0.387,1.0,2.7,0.375,0.1,0.3,0.386,1.1,3.0,0.7,0.3,0.4,28.0,3.0,NBA,11.8,0.2,0.9,PG,2.6,2011,0.5,HOU,0.9,1.5
22.0,1.0,0.0,0.3,0.344,0.367,0.7,2.0,0.0,0.0,0.1,0.344,0.7,2.1,0.455,0.3,0.7,15.0,0.0,NBA,7.5,0.1,0.7,PG,1.8,2011,0.3,MEM,0.5,0.3
23.0,1.6,0.1,1.1,0.401,0.389,1.1,2.8,0.333,0.1,0.3,0.383,1.2,3.1,0.7,0.3,0.4,26.0,1.0,NBA,9.0,0.3,0.6,PG,2.8,2012,0.6,TOT,0.5,1.3
23.0,1.5,0.0,1.2,0.433,0.4,1.7,4.2,0.4,0.3,0.8,0.4,2.0,5.0,0.5,0.2,0.3,6.0,1.0,NBA,10.5,0.3,0.7,PG,4.5,2012,0.7,GSW,0.2,1.5
23.0,1.6,0.1,1.1,0.382,0.383,0.9,2.4,0.25,0.1,0.2,0.373,1.0,2.6,0.75,0.3,0.4,20.0,0.0,NBA,8.6,0.3,0.6,PG,2.3,2012,0.6,ORL,0.6,1.3
24.0,1.7,0.2,0.9,0.377,0.364,0.9,2.5,0.296,0.2,0.5,0.352,1.1,3.1,0.429,0.1,0.1,52.0,3.0,NBA,9.9,0.2,0.5,PG,2.4,2013,0.4,TOT,0.7,1.2
24.0,1.6,0.2,1.0,0.353,0.354,1.0,2.8,0.235,0.1,0.5,0.336,1.1,3.2,0.429,0.1,0.2,36.0,3.0,NBA,10.5,0.3,0.4,PG,2.4,2013,0.4,ORL,0.8,1.3
24.0,1.9,0.2,0.9,0.442,0.394,0.8,2.1,0.4,0.3,0.6,0.395,1.1,2.7,0.0,0.0,0.0,16.0,0.0,NBA,8.6,0.1,0.8,PG,2.4,2013,0.5,MIL,0.6,0.9
25.0,2.6,0.2,1.4,0.425,0.457,1.7,3.7,0.043,0.0,0.3,0.423,1.7,4.0,0.564,0.3,0.6,70.0,1.0,NBA,14.4,0.4,0.9,PG,3.7,2014,0.7,PHO,0.9,1.8
26.0,3.3,0.1,1.5,0.414,0.407,2.3,5.6,0.3,0.3,1.1,0.39,2.6,6.7,0.596,0.6,1.0,55.0,14.0,NBA,15.1,0.3,0.9,PG,6.1,2015,0.7,TOT,1.4,1.8
26.0,0.9,0.0,0.7,0.344,0.35,0.5,1.3,0.2,0.0,0.2,0.333,0.5,1.5,0.667,0.2,0.3,30.0,0.0,NBA,5.2,0.2,0.4,PG,1.2,2015,0.1,OKC,0.3,0.9
26.0,6.1,0.2,2.5,0.424,0.416,4.4,10.7,0.309,0.7,2.2,0.398,5.1,12.9,0.583,1.1,1.9,25.0,14.0,NBA,27.1,0.4,1.5,PG,12.0,2015,1.3,PHI,2.8,2.9
27.0,6.5,0.3,3.4,0.44,0.428,4.4,10.4,0.329,0.7,2.2,0.411,5.2,12.6,0.693,1.6,2.3,77.0,53.0,NBA,29.1,0.6,1.7,PG,12.6,2016,1.1,TOT,2.3,4.0
27.0,5.7,0.2,2.9,0.452,0.451,3.3,7.2,0.303,0.4,1.2,0.43,3.6,8.4,0.767,1.2,1.6,27.0,3.0,NBA,22.9,0.5,1.4,PG,8.9,2016,0.9,NOP,1.7,3.4
27.0,7.0,0.4,3.7,0.436,0.42,5.1,12.0,0.336,0.9,2.7,0.405,6.0,14.8,0.669,1.8,2.7,50.0,50.0,NBA,32.4,0.6,1.9,PG,14.7,2016,1.3,PHI,2.6,4.3
28.0,5.2,0.4,2.6,0.458,0.467,3.7,8.0,0.267,0.3,1.3,0.439,4.1,9.2,0.706,0.9,1.3,81.0,32.0,NBA,24.1,0.3,1.6,PG,9.4,2017,0.8,DET,1.4,2.9
29.0,4.4,0.2,2.4,0.507,0.506,4.3,8.5,0.347,0.4,1.2,0.486,4.7,9.8,0.698,1.0,1.4,82.0,35.0,NBA,24.9,0.3,1.7,PG,10.9,2018,0.8,DET,1.3,2.7
30.0,3.6,0.2,2.2,0.464,0.455,2.9,6.3,0.326,0.8,2.4,0.419,3.7,8.7,0.758,0.8,1.1,56.0,0.0,NBA,22.3,0.4,1.9,PG,8.9,2019,0.5,DET,1.1,2.6
31.0,4.1,0.4,2.0,0.455,0.479,2.6,5.3,0.263,0.6,2.1,0.418,3.1,7.4,0.571,0.4,0.8,9.0,5.0,NBA,25.2,0.8,2.1,PG,7.2,2020,0.4,WAS,1.1,2.8
