age,ast,blk,drb,fg,fg2,fg2a,fg3,fg3a,fga,ft,fta,game_score,lg_id,mp,orb,pf,pts,season,stl,team_id,tov,trb
22.0,1.0,0.0,1.0,2.0,2.0,2.0,0.0,0.0,2.0,0.0,0.0,4.0,NBA,5,0.0,1.0,4.0,2011,1.0,TOT,1.0,1.0
22.0,1.0,0.0,1.0,2.0,2.0,2.0,0.0,0.0,2.0,0.0,0.0,4.0,NBA,5,0.0,1.0,4.0,2011,1.0,MEM,1.0,1.0
23.0,0.0,1.0,1.0,0.0,0.0,0.0,0.0,0.0,0.0,0.0,0.0,1.0,NBA,5,0.0,0.0,0.0,2012,0.0,TOT,0.0,1.0
23.0,0.0,1.0,1.0,0.0,0.0,0.0,0.0,0.0,0.0,0.0,0.0,1.0,NBA,5,0.0,0.0,0.0,2012,0.0,ORL,0.0,1.0
24.0,2.0,0.0,1.0,0.0,0.0,1.0,0.0,0.0,1.0,0.0,0.0,1.4,NBA,5,0.0,1.0,0.0,2013,0.0,TOT,1.0,1.0
24.0,2.0,0.0,1.0,0.0,0.0,1.0,0.0,0.0,1.0,0.0,0.0,1.4,NBA,5,0.0,1.0,0.0,2013,0.0,MIL,1.0,1.0
30.0,6.0,1.0,5.0,4.0,3.0,10.0,1.0,4.0,13.0,2.0,2.0,5.0,NBA,25,1.0,3.0,11.0,2019,2.0,DET,2.0,6.0
