age,ast,blk,drb,fg,fg2,fg2a,fg3,fg3a,fga,ft,fta,game_score,lg_id,mp,orb,pf,pts,season,stl,team_id,tov,trb
22.0,5.0,2.0,6.0,8.0,7.0,10.0,1.0,3.0,13.0,4.0,5.0,12.9,NBA,0.0,3.0,5.0,17.0,2000,3.0,MIA,2.0,6.0
23.0,4.0,2.0,6.0,7.0,6.0,13.0,3.0,5.0,13.0,3.0,4.0,12.4,NBA,0.0,2.0,5.0,16.0,2001,3.0,PHI,4.0,8.0
24.0,4.0,2.0,8.0,10.0,9.0,15.0,2.0,5.0,20.0,4.0,5.0,17.6,NBA,0.0,3.0,6.0,21.0,2002,5.0,MEM,3.0,9.0
26.0,1.0,1.0,2.0,3.0,3.0,6.0,0.0,1.0,6.0,2.0,2.0,8.4,NBA,0.0,2.0,3.0,6.0,2004,3.0,SAC,1.0,2.0
27.0,4.0,1.0,8.0,10.0,8.0,16.0,4.0,5.0,18.0,4.0,4.0,18.4,NBA,0.0,3.0,6.0,22.0,2005,3.0,NJN,3.0,9.0
