age,ast_per_g,blk_per_g,drb_per_g,efg_pct,fg2_pct,fg2_per_g,fg2a_per_g,fg3_pct,fg3_per_g,fg3a_per_g,fg_pct,fg_per_g,fga_per_g,ft_pct,ft_per_g,fta_per_g,g,gs,lg_id,mp_per_g,orb_per_g,pf_per_g,pos,pts_per_g,season,stl_per_g,team_id,tov_per_g,trb_per_g
22.0,0.9,0.1,0.7,0.452,0.459,1.8,4.0,0.283,0.3,0.9,0.426,2.1,4.9,0.789,0.4,0.6,67.0,0.0,NBA,9.5,0.4,1.3,SG,4.9,1987,0.4,UTA,0.7,1.2
23.0,1.9,0.3,1.6,0.477,0.472,3.9,8.4,0.346,0.4,1.0,0.458,4.3,9.4,0.782,1.0,1.3,79.0,8.0,NBA,19.0,0.5,1.6,SG,10.0,1988,1.2,CLE,1.4,2.1
24.0,1.0,0.1,1.6,0.51,0.509,4.9,9.7,0.345,0.4,1.1,0.491,5.3,10.9,0.87,0.8,1.0,48.0,0.0,NBA,16.9,0.5,1.4,SG,11.9,1989,0.9,CHH,0.9,2.2
25.0,2.4,0.4,2.0,0.492,0.485,6.1,12.6,0.354,0.8,2.2,0.466,6.9,14.8,0.923,1.4,1.6,67.0,13.0,NBA,27.8,0.5,2.2,SG,16.0,1990,1.5,CHH,1.5,2.5
26.0,2.2,0.3,2.0,0.494,0.485,4.0,8.3,0.372,0.4,1.1,0.471,4.4,9.4,0.842,1.3,1.5,76.0,14.0,NBA,19.9,0.6,1.6,SG,10.6,1991,1.0,CHH,1.1,2.6
27.0,2.3,0.3,2.6,0.521,0.503,5.6,11.1,0.404,1.0,2.4,0.486,6.5,13.5,0.836,1.6,2.0,77.0,0.0,NBA,26.2,0.7,2.0,SG,15.7,1992,1.2,CHH,1.7,3.4
28.0,2.3,0.3,2.9,0.495,0.466,5.0,10.8,0.401,1.2,3.0,0.452,6.2,13.8,0.866,1.7,2.0,80.0,0.0,NBA,26.2,0.6,1.9,SG,15.3,1993,1.1,CHH,1.6,3.6
29.0,2.7,0.3,2.3,0.52,0.48,4.6,9.7,0.402,1.9,4.6,0.455,6.5,14.3,0.873,1.4,1.6,82.0,0.0,NBA,26.5,0.9,2.0,SG,16.3,1994,1.2,CHH,1.5,3.2
30.0,1.6,0.3,1.8,0.54,0.453,2.7,6.0,0.427,2.2,5.2,0.441,5.0,11.3,0.856,1.4,1.6,69.0,0.0,NBA,24.9,0.6,2.1,SG,13.6,1995,0.8,CHH,1.4,2.4
31.0,2.1,0.3,2.4,0.537,0.488,3.4,6.9,0.404,2.0,5.0,0.453,5.4,11.9,0.854,1.8,2.1,82.0,29.0,NBA,28.9,0.8,2.1,SG,14.5,1996,1.3,CHH,1.6,3.2
32.0,1.7,0.2,2.5,0.535,0.478,3.8,7.9,0.426,1.9,4.4,0.459,5.6,12.3,0.803,1.7,2.1,68.0,20.0,NBA,30.6,0.6,2.2,SG,14.8,1997,0.9,CHH,1.4,3.1
33.0,1.3,0.1,1.4,0.517,0.46,2.6,5.6,0.421,1.2,2.8,0.447,3.7,8.3,0.788,0.8,1.0,52.0,1.0,NBA,18.7,0.5,1.6,SG,9.4,1998,0.6,CHH,1.0,1.9
34.0,1.1,0.1,1.6,0.588,0.492,2.2,4.5,0.476,1.6,3.5,0.485,3.9,8.0,0.824,0.7,0.8,42.0,0.0,NBA,20.6,0.4,1.0,SG,10.1,1999,0.9,MIL,1.1,2.0
35.0,1.3,0.1,1.3,0.532,0.467,1.5,3.2,0.393,1.4,3.6,0.427,2.9,6.8,0.75,0.4,0.5,67.0,9.0,NBA,16.3,0.2,1.0,SG,7.6,2000,0.5,TOR,0.6,1.5
36.0,1.1,0.1,1.0,0.505,0.422,1.4,3.3,0.428,0.9,2.0,0.424,2.3,5.4,0.843,0.6,0.7,71.0,1.0,NBA,13.5,0.2,0.9,SG,6.0,2001,0.4,TOR,0.5,1.2
37.0,1.1,0.1,1.0,0.471,0.444,1.7,3.9,0.344,0.8,2.3,0.406,2.5,6.2,0.892,0.6,0.7,56.0,4.0,NBA,15.8,0.4,0.9,SG,6.4,2002,0.4,TOR,0.7,1.4
