age,and1s,astd_pts,drawn_offensive,drawn_shooting,fouls_offensive,fouls_shooting,g,lg_id,mp,own_shots_blk,pct_1,pct_2,pct_3,pct_4,pct_5,plus_minus_net,plus_minus_on,pos,season,team_id,tov_bad_pass,tov_lost_ball
25.0,6.0,166.0,0.0,20.0,4.0,46.0,55.0,NBA,961.0,16.0,0.0,14.0,78.0,7.0,0.0,-2.8,-6.9,SF,2001,CLE,36.0,12.0
26.0,1.0,8.0,0.0,3.0,2.0,1.0,12.0,NBA,70.0,2.0,0.0,6.0,78.0,16.0,0.0,19.0,12.7,SF,2002,GSW,2.0,3.0
