age,ast_per_g,blk_per_g,drb_per_g,efg_pct,fg2_pct,fg2_per_g,fg2a_per_g,fg3_pct,fg3_per_g,fg3a_per_g,fg_pct,fg_per_g,fga_per_g,ft_pct,ft_per_g,fta_per_g,g,gs,lg_id,mp_per_g,orb_per_g,pf_per_g,pos,pts_per_g,season,stl_per_g,team_id,tov_per_g,trb_per_g
22.0,2.0,0.5,3.1,0.48,0.483,4.2,8.8,0.0,0.0,0.0,0.48,4.2,8.8,0.716,1.7,2.3,82.0,71.0,NBA,30.8,0.9,2.9,SF,10.1,1998,1.2,CLE,2.0,4.0
23.0,2.3,0.5,3.0,0.419,0.424,3.7,8.8,0.167,0.0,0.2,0.417,3.8,9.1,0.813,1.5,1.8,50.0,48.0,NBA,30.3,0.9,2.7,SF,9.1,1999,1.2,CLE,1.9,3.9
24.0,0.9,0.3,1.7,0.397,0.412,2.1,5.1,0.067,0.0,0.2,0.396,2.1,5.3,0.663,1.1,1.7,61.0,7.0,NBA,18.1,0.6,1.6,SF,5.4,2000,0.6,CLE,1.1,2.3
25.0,1.4,0.4,1.3,0.391,0.398,1.8,4.6,0.125,0.0,0.1,0.389,1.9,4.8,0.652,0.5,0.8,55.0,10.0,NBA,17.5,0.3,1.8,SF,4.3,2001,0.5,CLE,1.1,1.6
26.0,0.3,0.2,0.2,0.516,0.481,1.1,2.3,0.5,0.2,0.3,0.484,1.3,2.6,0.571,0.3,0.6,12.0,0.0,NBA,5.8,0.1,0.3,SF,3.0,2002,0.5,GSW,0.7,0.3
