age,ast,blk,drb,efg_pct,fg,fg2,fg2_pct,fg2a,fg3,fg3_pct,fg3a,fg_pct,fga,ft,ft_pct,fta,g,gs,lg_id,mp,orb,pf,pos,pts,season,stl,team_id,tov,trb
22.0,168.0,45.0,254.0,0.48,348.0,348.0,0.483,721.0,0.0,0.0,4.0,0.48,725.0,136.0,0.716,190.0,82.0,71.0,NBA,2527.0,71.0,238.0,SF,832.0,1998,96.0,CLE,165.0,325.0
23.0,113.0,24.0,152.0,0.419,189.0,187.0,0.424,441.0,2.0,0.167,12.0,0.417,453.0,74.0,0.813,91.0,50.0,48.0,NBA,1517.0,45.0,136.0,SF,454.0,1999,58.0,CLE,97.0,197.0
24.0,55.0,17.0,106.0,0.397,129.0,128.0,0.412,311.0,1.0,0.067,15.0,0.396,326.0,69.0,0.663,104.0,61.0,7.0,NBA,1107.0,34.0,99.0,SF,328.0,2000,39.0,CLE,68.0,140.0
25.0,79.0,23.0,71.0,0.391,102.0,101.0,0.398,254.0,1.0,0.125,8.0,0.389,262.0,30.0,0.652,46.0,55.0,10.0,NBA,961.0,19.0,101.0,SF,235.0,2001,29.0,CLE,63.0,90.0
26.0,4.0,2.0,2.0,0.516,15.0,13.0,0.481,27.0,2.0,0.5,4.0,0.484,31.0,4.0,0.571,7.0,12.0,0.0,NBA,70.0,1.0,4.0,SF,36.0,2002,6.0,GSW,8.0,3.0
