age,ast,ast_per_g,blk,college_id,fg,fg3,fg3_pct,fg3a,fg_pct,fga,ft,ft_pct,fta,g,mp,mp_per_g,orb,pf,pts,pts_per_g,season,stl,tov,trb,trb_per_g
18.0,52.0,1.9,29.0,MEMPHIS,160.0,18.0,0.269,67.0,0.465,344.0,45.0,0.6,75.0,28.0,902.0,32.2,0.0,76.0,383.0,13.7,1994,30.0,77.0,142.0,5.1
19.0,48.0,1.4,37.0,MEMPHIS,174.0,23.0,0.299,77.0,0.441,395.0,67.0,0.583,115.0,34.0,1061.0,31.2,0.0,84.0,438.0,12.9,1995,40.0,81.0,172.0,5.1
20.0,38.0,1.3,16.0,MEMPHIS,146.0,30.0,0.39,77.0,0.492,297.0,57.0,0.613,93.0,30.0,877.0,29.2,0.0,74.0,379.0,12.6,1996,45.0,68.0,120.0,4.0
21.0,43.0,1.4,32.0,MEMPHIS,184.0,25.0,0.263,95.0,0.417,441.0,104.0,0.689,151.0,31.0,1069.0,34.5,0.0,90.0,497.0,16.0,1997,60.0,101.0,203.0,6.5
