age,avg_dist,fg2_dunk,fg2_pct,fg2_pct_ast,fg2a_pct_fga,fg3_heave,fg3_pct,fg3_pct_ast,fg3_pct_corner,fg3a_heave,fg3a_pct_fga,fg_pct,fg_pct_00_03,fg_pct_03_10,fg_pct_10_16,fg_pct_16_xx,g,lg_id,mp,pct_fg2_dunk,pct_fg3a_corner,pct_fga_00_03,pct_fga_03_10,pct_fga_10_16,pct_fga_16_xx,pos,season,team_id
19.0,3.8,71.0,0.501,0.688,1.0,0.0,0.0,0.0,0.0,0.0,0.0,0.501,0.615,0.303,0.293,0.333,72.0,NBA,1150.0,0.212,0.0,0.634,0.202,0.109,0.056,C,2002,CHI
20.0,3.6,98.0,0.585,0.776,1.0,0.0,0.0,0.0,0.0,0.0,0.0,0.585,0.673,0.511,0.346,0.273,81.0,NBA,1571.0,0.185,0.0,0.576,0.314,0.091,0.019,C,2003,CHI
21.0,4.3,99.0,0.496,0.726,0.999,0.0,1.0,1.0,0.0,0.0,0.001,0.496,0.604,0.423,0.317,0.136,73.0,NBA,2154.0,0.127,0.0,0.514,0.338,0.12,0.026,PF,2004,CHI
22.0,4.0,137.0,0.538,0.723,1.0,0.0,0.0,0.0,0.0,0.0,0.0,0.538,0.677,0.411,0.225,0.364,63.0,NBA,1808.0,0.199,0.0,0.56,0.3,0.11,0.03,C,2005,CHI
23.0,2.0,131.0,0.563,0.688,1.0,0.0,0.0,0.0,0.0,0.0,0.0,0.563,0.652,0.331,0.6,0.0,72.0,NBA,1865.0,0.246,0.0,0.709,0.273,0.017,0.002,C,2006,NYK
24.0,2.6,129.0,0.575,0.646,0.999,0.0,1.0,1.0,1.0,0.0,0.001,0.576,0.667,0.432,0.29,0.333,81.0,NBA,2849.0,0.136,1.0,0.63,0.333,0.031,0.006,C,2007,NYK
25.0,2.9,78.0,0.546,0.646,1.0,0.0,0.0,0.0,0.0,0.0,0.0,0.546,0.642,0.416,0.261,0.0,59.0,NBA,1530.0,0.149,0.0,0.621,0.327,0.042,0.009,C,2008,NYK
26.0,0.0,0.0,1.0,0.5,1.0,0.0,0.0,0.0,0.0,0.0,0.0,1.0,1.0,0.0,0.0,0.0,3.0,NBA,12.0,0.0,0.0,1.0,0.0,0.0,0.0,C,2009,NYK
27.0,3.5,0.0,0.381,0.375,1.0,0.0,0.0,0.0,0.0,0.0,0.0,0.381,0.3,0.455,0.0,0.0,7.0,NBA,62.0,0.0,0.0,0.476,0.524,0.0,0.0,C,2010,NYK
29.0,2.5,5.0,0.462,0.667,1.0,0.0,0.0,0.0,0.0,0.0,0.0,0.462,0.5,0.4,0.0,0.0,14.0,NBA,83.0,0.192,0.0,0.769,0.192,0.038,0.0,C,2012,MIA
30.0,3.9,0.0,0.5,0.75,1.0,0.0,0.0,0.0,0.0,0.0,0.0,0.5,0.75,0.333,0.0,0.0,2.0,NBA,25.0,0.0,0.0,0.5,0.375,0.125,0.0,C,2013,DAL
