age,ast_per_mp,blk_per_mp,drb_per_mp,fg2_pct,fg2_per_mp,fg2a_per_mp,fg3_pct,fg3_per_mp,fg3a_per_mp,fg_pct,fg_per_mp,fga_per_mp,ft_pct,ft_per_mp,fta_per_mp,g,gs,lg_id,mp,orb_per_mp,pf_per_mp,pos,pts_per_mp,season,stl_per_mp,team_id,tov_per_mp,trb_per_mp
25.0,0.3,0.5,6.4,0.575,5.6,9.7,0.0,0.0,0.1,0.568,5.6,9.8,0.6,1.2,2.0,38.0,0.0,NBA,271.0,3.5,3.5,PF,12.4,2007,0.8,SEA,3.9,9.8
26.0,1.0,0.5,6.9,0.5,4.9,9.8,0.0,0.0,0.0,0.5,4.9,9.8,0.449,2.8,6.2,33.0,1.0,NBA,286.0,4.7,4.8,PF,12.6,2008,0.9,MEM,1.8,11.6
27.0,0.9,0.0,4.4,0.143,0.9,6.1,0.0,0.0,0.0,0.143,0.9,6.1,1.0,1.8,1.8,4.0,0.0,NBA,41.0,6.1,7.9,PF,3.5,2009,0.9,CHA,4.4,10.5
