age,ast_pct,blk_pct,bpm,bpm-dum,dbpm,drb_pct,dws,fg3a_per_fga_pct,fta_per_fga_pct,g,lg_id,mp,obpm,orb_pct,ows,per,pos,season,stl_pct,team_id,tov_pct,trb_pct,ts_pct,usg_pct,vorp,ws,ws-dum,ws_per_48
25.0,1.2,1.1,-8.5,0.0,-3.1,21.4,0.2,0.014,0.203,38.0,NBA,271.0,-5.4,11.4,-0.2,11.1,PF,2007,1.2,SEA,26.5,16.4,0.577,18.4,-0.4,0.0,0.0,-0.002
26.0,4.4,1.0,-5.1,0.0,-2.0,21.8,0.2,0.0,0.628,33.0,NBA,286.0,-3.1,14.4,0.2,13.5,PF,2008,1.2,MEM,12.3,18.0,0.502,17.7,-0.2,0.4,0.0,0.068
27.0,3.5,0.0,-9.3,0.0,-0.4,15.0,0.0,0.0,0.286,4.0,NBA,41.0,-8.9,21.3,-0.2,-1.5,PF,2009,1.3,CHA,38.8,18.1,0.254,14.8,-0.1,-0.1,0.0,-0.122
