age,ast,blk,drb,fg,fg2,fg2a,fg3,fg3a,fga,ft,fta,game_score,lg_id,mp,orb,pf,pts,season,stl,team_id,tov,trb
22.0,3.0,2.0,10.0,6.0,6.0,14.0,0.0,0.0,14.0,10.0,10.0,17.2,NBA,0.0,5.0,5.0,18.0,1997,2.0,GSW,3.0,13.0
23.0,1.0,3.0,12.0,7.0,7.0,14.0,0.0,1.0,14.0,4.0,8.0,14.0,NBA,0.0,6.0,5.0,17.0,1998,3.0,GSW,3.0,15.0
24.0,1.0,2.0,6.0,5.0,5.0,8.0,0.0,0.0,8.0,4.0,6.0,10.3,NBA,0.0,5.0,5.0,12.0,1999,1.0,UTA,5.0,7.0
25.0,2.0,2.0,9.0,5.0,5.0,9.0,0.0,0.0,9.0,4.0,6.0,11.0,NBA,0.0,6.0,3.0,11.0,2000,3.0,CHH,3.0,15.0
26.0,1.0,1.0,3.0,3.0,3.0,10.0,0.0,0.0,10.0,6.0,6.0,11.3,NBA,0.0,3.0,3.0,12.0,2001,2.0,MIA,1.0,5.0
