age,ast_per_poss,blk_per_poss,def_rtg,drb_per_poss,fg2_pct,fg2_per_poss,fg2a_per_poss,fg3_pct,fg3_per_poss,fg3a_per_poss,fg_pct,fg_per_poss,fga_per_poss,ft_pct,ft_per_poss,fta_per_poss,g,gs,lg_id,mp,off_rtg,orb_per_poss,pf_per_poss,pos,pts_per_poss,season,stl_per_poss,team_id,tov_per_poss,trb_per_poss
22.0,1.3,1.1,113.0,7.8,0.429,6.3,14.6,0.0,0.0,0.0,0.429,6.3,14.6,0.691,4.2,6.1,75.0,18.0,NBA,949.0,102.0,5.9,8.0,C,16.7,1997,0.6,GSW,2.9,13.7
23.0,0.9,1.4,104.0,11.6,0.428,7.4,17.2,0.0,0.0,0.3,0.42,7.4,17.6,0.688,4.7,6.9,57.0,1.0,NBA,613.0,96.0,5.2,7.6,C,19.4,1998,0.5,GSW,3.2,16.8
24.0,0.7,1.7,99.0,8.7,0.452,6.7,14.8,0.0,0.0,0.0,0.452,6.7,14.8,0.6,3.6,6.0,42.0,2.0,NBA,462.0,92.0,3.3,7.2,C,17.0,1999,0.7,UTA,3.2,12.1
25.0,0.6,1.0,101.0,9.5,0.418,6.5,15.6,0.0,0.0,0.0,0.418,6.5,15.6,0.604,4.1,6.8,41.0,2.0,NBA,399.0,89.0,4.6,5.9,C,17.2,2000,1.2,CHH,3.5,14.1
26.0,0.7,1.4,96.0,7.9,0.286,7.2,25.1,0.0,0.0,0.0,0.286,7.2,25.1,1.0,5.7,5.7,10.0,0.0,NBA,77.0,83.0,5.0,7.2,C,20.0,2001,2.1,MIA,2.1,12.9
