age,ast_pct,blk_pct,bpm,bpm-dum,dbpm,drb_pct,dws,fg3a_per_fga_pct,fta_per_fga_pct,g,lg_id,mp,obpm,orb_pct,ows,per,pos,season,stl_pct,team_id,tov_pct,trb_pct,ts_pct,usg_pct,vorp,ws,ws-dum,ws_per_48
22.0,4.0,1.6,-6.2,0.0,-2.6,17.7,0.3,0.0,0.414,75.0,NBA,949.0,-3.6,13.5,0.4,10.4,C,1997,0.6,GSW,14.2,15.6,0.483,17.2,-1.0,0.7,0.0,0.034
23.0,2.8,1.8,-8.0,0.0,-2.3,24.2,0.7,0.02,0.39,57.0,NBA,613.0,-5.7,10.3,0.0,11.8,C,1998,0.5,GSW,13.3,17.1,0.473,19.7,-0.9,0.7,0.0,0.053
24.0,2.3,2.3,-6.2,0.0,-0.9,18.0,0.7,0.0,0.403,42.0,NBA,462.0,-5.2,8.0,-0.1,9.1,C,1999,0.7,UTA,15.6,13.3,0.486,17.9,-0.5,0.6,0.0,0.059
25.0,2.0,1.4,-8.6,0.0,-2.3,20.4,0.5,0.0,0.434,41.0,NBA,399.0,-6.3,10.4,-0.3,9.6,C,2000,1.2,CHH,15.7,15.5,0.461,19.4,-0.7,0.2,0.0,0.029
26.0,2.4,2.0,-10.3,0.0,-2.2,17.0,0.1,0.0,0.229,10.0,NBA,77.0,-8.1,10.8,-0.1,9.3,C,2001,2.1,MIA,7.2,13.9,0.363,26.1,-0.2,0.0,0.0,-0.002
