age,ast,blk,drb,fg,fg2,fg2a,fg3,fg3a,fga,ft,fta,game_score,lg_id,mp,orb,pf,pts,season,stl,team_id,tov,trb
23.0,7.0,0.0,10.0,8.0,8.0,16.0,1.0,1.0,16.0,8.0,9.0,0.0,NBA,0.0,6.0,6.0,17.0,1984,0.0,SAS,5.0,15.0
24.0,6.0,2.0,5.0,10.0,10.0,17.0,1.0,1.0,17.0,9.0,12.0,20.6,NBA,0.0,5.0,5.0,25.0,1985,3.0,TOT,4.0,10.0
24.0,3.0,2.0,4.0,5.0,5.0,8.0,0.0,0.0,8.0,4.0,4.0,9.4,NBA,0.0,2.0,5.0,12.0,1985,3.0,SAS,4.0,4.0
24.0,6.0,2.0,5.0,10.0,10.0,17.0,1.0,1.0,17.0,9.0,12.0,20.6,NBA,0.0,5.0,5.0,25.0,1985,2.0,UTA,4.0,10.0
25.0,4.0,1.0,5.0,7.0,6.0,10.0,1.0,1.0,10.0,6.0,8.0,18.6,NBA,0.0,3.0,5.0,21.0,1986,3.0,UTA,4.0,6.0
26.0,7.0,3.0,9.0,8.0,8.0,11.0,0.0,1.0,11.0,9.0,10.0,20.6,NBA,0.0,3.0,6.0,23.0,1987,4.0,BOS,7.0,12.0
27.0,5.0,2.0,5.0,7.0,7.0,15.0,0.0,1.0,15.0,7.0,9.0,17.7,NBA,0.0,3.0,5.0,20.0,1988,3.0,BOS,3.0,6.0
28.0,4.0,2.0,7.0,7.0,7.0,13.0,2.0,3.0,13.0,8.0,9.0,16.5,NBA,0.0,3.0,5.0,19.0,1989,4.0,MIL,4.0,8.0
29.0,5.0,3.0,8.0,11.0,11.0,17.0,1.0,2.0,17.0,13.0,14.0,20.8,NBA,0.0,4.0,6.0,27.0,1990,2.0,MIL,7.0,10.0
30.0,8.0,3.0,5.0,14.0,14.0,18.0,1.0,3.0,20.0,9.0,10.0,31.2,NBA,0.0,4.0,6.0,34.0,1991,5.0,MIL,5.0,8.0
31.0,5.0,2.0,6.0,9.0,9.0,17.0,2.0,3.0,18.0,8.0,8.0,21.6,NBA,0.0,5.0,5.0,25.0,1992,5.0,MIL,4.0,8.0
32.0,9.0,2.0,8.0,8.0,8.0,13.0,2.0,3.0,14.0,11.0,12.0,21.3,NBA,0.0,6.0,5.0,22.0,1993,4.0,MIL,6.0,9.0
34.0,2.0,1.0,4.0,4.0,4.0,10.0,2.0,3.0,10.0,6.0,8.0,10.2,NBA,0.0,3.0,6.0,14.0,1995,2.0,CLE,3.0,6.0
35.0,3.0,1.0,4.0,6.0,6.0,8.0,1.0,3.0,11.0,6.0,8.0,14.8,NBA,0.0,3.0,3.0,19.0,1996,2.0,LAL,3.0,5.0
36.0,0.0,1.0,2.0,3.0,3.0,3.0,0.0,0.0,3.0,3.0,4.0,5.6,NBA,0.0,1.0,2.0,6.0,1997,0.0,DAL,2.0,3.0
