age,ast_per_mp,blk_per_mp,drb_per_mp,fg2_pct,fg2_per_mp,fg2a_per_mp,fg3_pct,fg3_per_mp,fg3a_per_mp,fg_pct,fg_per_mp,fga_per_mp,ft_pct,ft_per_mp,fta_per_mp,g,gs,lg_id,mp,orb_per_mp,pf_per_mp,pos,pts_per_mp,season,stl_per_mp,team_id,tov_per_mp,trb_per_mp
24.0,2.5,0.8,3.0,0.442,5.3,11.9,0.0,0.0,0.0,0.442,5.3,11.9,0.8,4.4,5.5,10.0,0.0,NBA,130.0,1.7,4.4,PF,15.0,1985,1.9,UTA,3.9,4.7
25.0,3.5,0.0,3.5,0.467,8.1,17.4,0.0,0.0,0.0,0.467,8.1,17.4,0.889,9.3,10.5,4.0,0.0,NBA,31.0,4.6,5.8,PF,25.5,1986,0.0,UTA,7.0,8.1
26.0,1.6,0.4,2.4,0.508,4.1,8.0,0.0,0.0,0.0,0.508,4.1,8.0,0.705,4.2,6.0,20.0,4.0,NBA,265.0,2.0,6.4,PF,12.4,1987,0.8,BOS,1.6,4.5
27.0,1.1,0.0,2.9,0.524,4.0,7.6,0.0,0.0,0.0,0.524,4.0,7.6,0.636,2.5,4.0,15.0,0.0,NBA,100.0,2.9,7.2,PF,10.4,1988,1.1,BOS,2.2,5.8
28.0,2.1,0.4,2.9,0.505,5.1,10.1,0.0,0.0,0.3,0.49,5.1,10.4,0.85,3.5,4.2,9.0,5.0,NBA,345.0,1.1,3.0,PF,13.8,1989,0.5,MIL,1.4,4.1
29.0,1.4,0.5,1.4,0.684,5.9,8.7,0.0,0.0,0.5,0.65,5.9,9.1,0.813,5.9,7.3,4.0,4.0,NBA,79.0,2.3,4.1,PF,17.8,1990,0.0,MIL,2.3,3.6
30.0,2.4,0.3,3.8,0.471,5.6,11.9,0.0,0.0,0.3,0.457,5.6,12.2,1.0,0.7,0.7,3.0,3.0,NBA,103.0,1.4,1.7,PF,11.9,1991,0.7,MIL,1.7,5.2
34.0,0.0,0.0,5.1,0.75,15.4,20.6,0.0,0.0,0.0,0.75,15.4,20.6,0.0,0.0,10.3,1.0,0.0,NBA,7.0,5.1,0.0,SF,30.9,1995,0.0,CLE,5.1,10.3
35.0,0.0,0.0,12.0,0.0,0.0,24.0,0.0,0.0,0.0,0.0,0.0,24.0,0.0,0.0,0.0,1.0,0.0,NBA,3.0,24.0,0.0,C,0.0,1996,0.0,LAL,12.0,36.0
