age,ast,ast_per_g,blk,college_id,fg,fg3,fg3_pct,fg3a,fg_pct,fga,ft,ft_pct,fta,g,mp,mp_per_g,orb,pf,pts,pts_per_g,season,stl,tov,trb,trb_per_g
18.0,22.0,0.8,20.0,NEBRASKA,56.0,0.0,0.0,0.0,0.519,108.0,24.0,0.706,34.0,29.0,420.0,14.5,0.0,72.0,136.0,4.7,1988,6.0,39.0,84.0,2.9
19.0,53.0,1.6,50.0,NEBRASKA,136.0,0.0,0.0,0.0,0.579,235.0,91.0,0.655,139.0,33.0,771.0,23.4,0.0,124.0,363.0,11.0,1989,24.0,79.0,195.0,5.9
20.0,58.0,2.1,45.0,NEBRASKA,170.0,0.0,0.0,0.0,0.557,305.0,110.0,0.696,158.0,28.0,809.0,28.9,0.0,76.0,450.0,16.1,1990,13.0,68.0,208.0,7.4
21.0,90.0,2.6,68.0,NEBRASKA,202.0,2.0,0.4,5.0,0.572,353.0,120.0,0.67,179.0,34.0,928.0,27.3,0.0,87.0,526.0,15.5,1991,23.0,87.0,274.0,8.1
