age,ast,blk,drb,fg,fg2,fg2a,fg3,fg3a,fga,ft,fta,game_score,lg_id,mp,orb,pf,pts,season,stl,team_id,tov,trb
22.0,4.0,2.0,7.0,5.0,5.0,10.0,0.0,1.0,11.0,4.0,5.0,14.5,NBA,0.0,4.0,6.0,12.0,1991,2.0,WSB,5.0,9.0
23.0,3.0,2.0,8.0,7.0,7.0,12.0,0.0,1.0,12.0,5.0,6.0,12.6,NBA,0.0,4.0,5.0,17.0,1992,2.0,WSB,5.0,10.0
24.0,4.0,3.0,7.0,6.0,6.0,8.0,0.0,1.0,8.0,6.0,6.0,12.3,NBA,0.0,5.0,5.0,12.0,1993,1.0,TOT,3.0,11.0
24.0,4.0,2.0,6.0,3.0,3.0,5.0,0.0,0.0,5.0,2.0,2.0,6.6,NBA,0.0,5.0,5.0,6.0,1993,0.0,WSB,2.0,11.0
24.0,2.0,3.0,7.0,6.0,6.0,8.0,0.0,1.0,8.0,6.0,6.0,12.3,NBA,0.0,3.0,4.0,12.0,1993,1.0,ATL,3.0,8.0
25.0,0.0,1.0,2.0,4.0,4.0,5.0,0.0,0.0,5.0,2.0,2.0,6.3,NBA,0.0,0.0,2.0,8.0,1994,0.0,MIL,1.0,2.0
26.0,4.0,2.0,8.0,7.0,7.0,12.0,2.0,2.0,12.0,6.0,6.0,11.9,NBA,0.0,5.0,5.0,16.0,1995,1.0,TOT,5.0,9.0
26.0,4.0,2.0,8.0,7.0,7.0,11.0,0.0,0.0,11.0,5.0,6.0,11.4,NBA,0.0,5.0,5.0,16.0,1995,1.0,CHI,2.0,8.0
26.0,2.0,2.0,6.0,6.0,6.0,12.0,2.0,2.0,12.0,6.0,6.0,11.9,NBA,0.0,5.0,5.0,15.0,1995,1.0,MIN,5.0,9.0
27.0,2.0,3.0,6.0,8.0,8.0,9.0,1.0,2.0,10.0,7.0,8.0,11.9,NBA,0.0,4.0,5.0,16.0,1996,2.0,UTA,4.0,9.0
28.0,4.0,3.0,8.0,6.0,6.0,10.0,1.0,1.0,11.0,4.0,4.0,8.4,NBA,0.0,4.0,5.0,13.0,1997,1.0,UTA,4.0,8.0
29.0,4.0,2.0,11.0,8.0,8.0,14.0,1.0,2.0,14.0,5.0,6.0,15.1,NBA,0.0,5.0,6.0,18.0,1998,1.0,UTA,4.0,15.0
30.0,3.0,1.0,6.0,5.0,5.0,10.0,1.0,3.0,10.0,2.0,4.0,8.5,NBA,0.0,3.0,6.0,12.0,1999,2.0,UTA,2.0,8.0
31.0,4.0,2.0,7.0,7.0,7.0,14.0,1.0,3.0,14.0,3.0,6.0,11.0,NBA,0.0,3.0,5.0,17.0,2000,1.0,SEA,3.0,7.0
32.0,4.0,2.0,7.0,6.0,5.0,8.0,1.0,3.0,8.0,2.0,2.0,14.0,NBA,0.0,2.0,4.0,13.0,2001,1.0,LAL,3.0,9.0
33.0,1.0,0.0,2.0,1.0,1.0,2.0,0.0,2.0,3.0,3.0,4.0,1.4,NBA,0.0,0.0,2.0,3.0,2002,0.0,MIL,0.0,2.0
34.0,2.0,2.0,7.0,4.0,4.0,9.0,1.0,1.0,9.0,6.0,6.0,6.4,NBA,0.0,4.0,6.0,11.0,2003,1.0,TOR,3.0,9.0
