age,ast_per_mp,blk_per_mp,drb_per_mp,fg2_pct,fg2_per_mp,fg2a_per_mp,fg3_pct,fg3_per_mp,fg3a_per_mp,fg_pct,fg_per_mp,fga_per_mp,ft_pct,ft_per_mp,fta_per_mp,g,gs,lg_id,mp,orb_per_mp,pf_per_mp,pos,pts_per_mp,season,stl_per_mp,team_id,tov_per_mp,trb_per_mp
24.0,0.0,0.0,7.2,0.333,7.2,21.6,0.0,0.0,0.0,0.333,7.2,21.6,0.75,21.6,28.8,1.0,0.0,NBA,5.0,0.0,0.0,PF,36.0,1993,0.0,ATL,0.0,7.2
27.0,0.9,0.9,2.8,0.5,5.2,10.4,0.0,0.0,0.0,0.5,5.2,10.4,0.6,2.8,4.7,12.0,0.0,NBA,76.0,2.8,7.6,C,13.3,1996,0.5,UTA,2.4,5.7
28.0,1.3,0.8,4.8,0.406,3.0,7.5,0.25,0.2,0.9,0.389,3.3,8.4,0.867,3.0,3.5,20.0,0.0,NBA,309.0,1.7,6.2,C,9.8,1997,0.5,UTA,1.3,6.5
29.0,0.5,0.5,5.1,0.452,4.1,9.0,0.5,0.1,0.2,0.453,4.2,9.2,0.6,0.3,0.5,20.0,16.0,NBA,335.0,2.1,5.9,C,8.8,1998,0.2,UTA,1.9,7.2
30.0,0.5,0.0,3.6,0.421,4.1,9.8,0.0,0.0,0.0,0.421,4.1,9.8,0.0,0.0,0.0,8.0,0.0,NBA,70.0,0.5,5.7,PF,8.2,1999,0.5,UTA,1.5,4.1
31.0,0.5,0.5,5.3,0.357,2.6,7.4,0.4,1.1,2.6,0.368,3.7,10.1,1.0,1.1,1.1,5.0,0.0,NBA,68.0,0.5,7.4,PF,9.5,2000,0.0,SEA,1.6,5.8
32.0,0.0,0.0,12.0,0.0,0.0,0.0,0.0,0.0,0.0,0.0,0.0,0.0,0.0,0.0,0.0,1.0,0.0,NBA,3.0,0.0,12.0,C,0.0,2001,0.0,LAL,0.0,12.0
