age,and1s,astd_pts,drawn_offensive,drawn_shooting,fouls_offensive,fouls_shooting,g,lg_id,mp,own_shots_blk,pct_1,pct_2,pct_3,pct_4,pct_5,plus_minus_net,plus_minus_on,pos,season,team_id,tov_bad_pass,tov_lost_ball
23.0,1.0,149.0,4.0,9.0,5.0,28.0,44.0,NBA,541.0,15.0,79.0,21.0,0.0,0.0,0.0,-15.9,-14.4,PG,2012,POR,23.0,10.0
24.0,2.0,78.0,0.0,10.0,1.0,7.0,40.0,NBA,288.0,7.0,100.0,0.0,0.0,0.0,0.0,1.3,-2.4,PG,2013,POR,17.0,11.0
