age,ast,blk,drb,efg_pct,fg,fg2,fg2_pct,fg2a,fg3,fg3_pct,fg3a,fg_pct,fga,ft,ft_pct,fta,g,gs,lg_id,mp,orb,pf,pos,pts,season,stl,team_id,tov,trb
23.0,62.0,3.0,39.0,0.408,67.0,54.0,0.4,135.0,13.0,0.289,45.0,0.372,180.0,20.0,0.714,28.0,44.0,4.0,NBA,541.0,17.0,55.0,PG,167.0,2012,18.0,POR,42.0,56.0
24.0,35.0,1.0,20.0,0.395,42.0,36.0,0.419,86.0,6.0,0.214,28.0,0.368,114.0,20.0,0.714,28.0,40.0,0.0,NBA,288.0,7.0,26.0,PG,110.0,2013,7.0,POR,29.0,27.0
