age,ast_per_mp,blk_per_mp,drb_per_mp,fg2_pct,fg2_per_mp,fg2a_per_mp,fg3_pct,fg3_per_mp,fg3a_per_mp,fg_pct,fg_per_mp,fga_per_mp,ft_pct,ft_per_mp,fta_per_mp,g,gs,lg_id,mp,orb_per_mp,pf_per_mp,pos,pts_per_mp,season,stl_per_mp,team_id,tov_per_mp,trb_per_mp
23.0,2.0,0.0,2.0,0.0,0.0,6.0,0.333,2.0,6.0,0.167,2.0,12.0,0.0,0.0,0.0,2.0,0.0,NBA,18.0,0.0,2.0,SG,6.0,2004,2.0,MIA,6.0,2.0
24.0,3.0,0.0,3.0,0.5,3.0,6.0,0.0,0.0,3.0,0.333,3.0,9.0,0.0,0.0,0.0,4.0,0.0,NBA,12.0,0.0,0.0,SG,6.0,2005,0.0,LAC,6.0,3.0
