age,avg_dist,fg2_dunk,fg2_pct,fg2_pct_ast,fg2a_pct_fga,fg3_heave,fg3_pct,fg3_pct_ast,fg3_pct_corner,fg3a_heave,fg3a_pct_fga,fg_pct,fg_pct_00_03,fg_pct_03_10,fg_pct_10_16,fg_pct_16_xx,g,lg_id,mp,pct_fg2_dunk,pct_fg3a_corner,pct_fga_00_03,pct_fga_03_10,pct_fga_10_16,pct_fga_16_xx,pos,season,team_id
23.0,22.0,0.0,0.0,0.0,0.5,0.0,0.333,1.0,0.5,0.0,0.5,0.167,0.0,0.0,0.0,0.0,2.0,NBA,18.0,0.0,0.667,0.0,0.0,0.0,0.5,SG,2004,MIA
24.0,20.7,0.0,0.5,1.0,0.667,0.0,0.0,0.0,0.0,0.0,0.333,0.333,0.0,0.0,0.0,0.5,4.0,NBA,12.0,0.0,0.0,0.0,0.0,0.0,0.667,SG,2005,LAC
