age,ast_per_poss,blk_per_poss,def_rtg,drb_per_poss,fg2_pct,fg2_per_poss,fg2a_per_poss,fg3_pct,fg3_per_poss,fg3a_per_poss,fg_pct,fg_per_poss,fga_per_poss,ft_pct,ft_per_poss,fta_per_poss,g,gs,lg_id,mp,off_rtg,orb_per_poss,pf_per_poss,pos,pts_per_poss,season,stl_per_poss,team_id,tov_per_poss,trb_per_poss
23.0,3.0,0.0,102.0,3.0,0.0,0.0,9.1,0.333,3.0,9.1,0.167,3.0,18.2,0.0,0.0,0.0,2.0,0.0,NBA,18.0,40.0,0.0,3.0,SG,9.1,2004,3.0,MIA,9.1,3.0
24.0,4.5,0.0,113.0,4.5,0.5,4.5,9.0,0.0,0.0,4.5,0.333,4.5,13.5,0.0,0.0,0.0,4.0,0.0,NBA,12.0,48.0,0.0,0.0,SG,9.0,2005,0.0,LAC,9.0,4.5
