age,ast,blk,drb,fg,fg2,fg2a,fg3,fg3a,fga,ft,fta,game_score,lg_id,mp,orb,pf,pts,season,stl,team_id,tov,trb
23.0,7.0,0.0,3.0,3.0,2.0,4.0,1.0,3.0,5.0,1.0,3.0,12.0,NBA,0.0,1.0,2.0,8.0,1997,1.0,VAN,2.0,4.0
25.0,5.0,0.0,3.0,4.0,4.0,6.0,4.0,4.0,8.0,2.0,4.0,8.8,NBA,0.0,1.0,3.0,12.0,1999,2.0,SEA,3.0,3.0
26.0,10.0,1.0,4.0,7.0,7.0,9.0,2.0,3.0,11.0,6.0,7.0,16.7,NBA,0.0,3.0,4.0,19.0,2000,3.0,HOU,4.0,6.0
27.0,9.0,1.0,8.0,10.0,8.0,16.0,2.0,5.0,20.0,8.0,9.0,22.5,NBA,0.0,4.0,4.0,28.0,2001,4.0,HOU,6.0,8.0
28.0,17.0,1.0,8.0,11.0,9.0,18.0,3.0,8.0,21.0,8.0,8.0,23.8,NBA,0.0,3.0,5.0,28.0,2002,4.0,HOU,4.0,9.0
29.0,9.0,1.0,6.0,7.0,7.0,9.0,2.0,4.0,12.0,7.0,8.0,16.2,NBA,0.0,3.0,3.0,16.0,2003,4.0,HOU,4.0,7.0
30.0,9.0,2.0,5.0,9.0,7.0,14.0,4.0,5.0,18.0,9.0,9.0,14.5,NBA,0.0,2.0,4.0,21.0,2004,2.0,TOT,5.0,5.0
30.0,5.0,1.0,5.0,2.0,2.0,6.0,1.0,3.0,7.0,3.0,4.0,5.9,NBA,0.0,1.0,2.0,8.0,2004,2.0,HOU,5.0,5.0
30.0,9.0,2.0,2.0,9.0,7.0,14.0,4.0,5.0,18.0,9.0,9.0,14.5,NBA,0.0,2.0,4.0,21.0,2004,2.0,NYK,5.0,3.0
31.0,5.0,1.0,5.0,4.0,4.0,6.0,0.0,2.0,7.0,6.0,6.0,7.2,NBA,0.0,1.0,4.0,10.0,2005,2.0,TOT,2.0,6.0
31.0,5.0,1.0,5.0,4.0,4.0,6.0,0.0,2.0,7.0,6.0,6.0,7.2,NBA,0.0,1.0,4.0,10.0,2005,2.0,NYK,2.0,6.0
31.0,3.0,0.0,2.0,1.0,1.0,5.0,0.0,0.0,5.0,2.0,2.0,3.6,NBA,0.0,1.0,1.0,4.0,2005,1.0,HOU,1.0,2.0
32.0,5.0,1.0,3.0,5.0,4.0,8.0,2.0,2.0,10.0,4.0,9.0,14.1,NBA,28.0,3.0,4.0,13.0,2006,3.0,TOT,4.0,4.0
32.0,3.0,1.0,3.0,4.0,4.0,7.0,0.0,1.0,7.0,4.0,4.0,8.0,NBA,20.0,3.0,4.0,8.0,2006,3.0,HOU,2.0,4.0
32.0,5.0,0.0,3.0,5.0,3.0,8.0,2.0,2.0,10.0,4.0,9.0,14.1,NBA,28.0,1.0,4.0,13.0,2006,2.0,NOK,4.0,3.0
