age,ast_per_mp,blk_per_mp,drb_per_mp,fg2_pct,fg2_per_mp,fg2a_per_mp,fg3_pct,fg3_per_mp,fg3a_per_mp,fg_pct,fg_per_mp,fga_per_mp,ft_pct,ft_per_mp,fta_per_mp,g,gs,lg_id,mp,orb_per_mp,pf_per_mp,pos,pts_per_mp,season,stl_per_mp,team_id,tov_per_mp,trb_per_mp
23.0,9.3,0.0,3.6,0.167,0.8,4.9,0.2,0.8,4.0,0.182,1.6,8.9,0.4,0.8,2.0,8.0,0.0,NBA,89.0,1.2,2.0,PG,4.9,1997,1.6,VAN,2.0,4.9
25.0,6.2,0.0,4.1,0.28,1.8,6.4,0.4,1.5,3.9,0.325,3.3,10.3,0.375,1.5,4.1,12.0,0.0,NBA,140.0,1.0,4.4,PG,9.8,1999,1.8,SEA,4.1,5.1
26.0,6.7,0.1,3.7,0.438,4.1,9.3,0.414,0.9,2.1,0.434,4.9,11.4,0.781,4.1,5.2,30.0,0.0,NBA,502.0,1.1,2.3,PG,14.8,2000,1.6,HOU,2.2,4.9
27.0,6.2,0.0,3.4,0.491,3.5,7.1,0.281,0.5,1.9,0.446,4.0,9.0,0.778,3.3,4.2,82.0,6.0,NBA,1654.0,1.0,1.8,PG,11.8,2001,1.5,HOU,2.3,4.3
28.0,6.5,0.1,2.8,0.433,3.4,8.0,0.269,0.6,2.1,0.398,4.0,10.1,0.751,2.0,2.7,82.0,26.0,NBA,2249.0,1.2,2.1,PG,10.6,2002,1.3,HOU,2.5,3.9
29.0,5.1,0.1,3.2,0.432,3.2,7.5,0.244,0.3,1.2,0.406,3.5,8.6,0.684,2.0,3.0,82.0,3.0,NBA,1375.0,1.0,1.9,PG,9.3,2003,1.4,HOU,2.3,4.2
30.0,5.1,0.2,2.3,0.377,2.6,6.8,0.345,0.9,2.5,0.369,3.4,9.2,0.761,2.3,3.0,66.0,0.0,NBA,847.0,0.4,2.2,PG,9.9,2004,1.9,TOT,2.7,2.8
30.0,4.3,0.2,2.5,0.297,1.7,5.7,0.348,0.7,2.1,0.31,2.4,7.8,0.75,1.6,2.2,30.0,0.0,NBA,401.0,0.2,1.4,PG,7.2,2004,1.4,HOU,2.7,2.7
30.0,5.9,0.2,2.2,0.432,3.3,7.7,0.343,1.0,2.8,0.408,4.3,10.5,0.766,2.9,3.8,36.0,0.0,NBA,446.0,0.6,2.8,PG,12.4,2004,2.3,NYK,2.7,2.8
31.0,3.9,0.2,3.6,0.361,3.5,9.7,0.0,0.0,1.2,0.321,3.5,10.9,0.833,2.0,2.4,38.0,0.0,NBA,360.0,1.0,4.4,PG,9.0,2005,1.8,TOT,2.7,4.6
31.0,3.8,0.2,3.7,0.395,3.6,9.1,0.0,0.0,1.3,0.344,3.6,10.4,0.818,2.0,2.5,32.0,0.0,NBA,321.0,1.0,4.7,PG,9.2,2005,1.9,NYK,2.8,4.7
31.0,4.6,0.0,2.8,0.188,2.8,14.8,0.0,0.0,0.0,0.188,2.8,14.8,1.0,1.8,1.8,6.0,0.0,NBA,39.0,0.9,1.8,PG,7.4,2005,0.9,HOU,1.8,3.7
32.0,4.2,0.1,3.6,0.429,3.6,8.3,0.286,0.3,1.2,0.411,3.9,9.5,0.69,2.5,3.6,45.0,0.0,NBA,424.0,1.0,4.2,PG,10.6,2006,1.7,TOT,2.8,4.6
32.0,4.3,0.1,3.7,0.433,3.9,9.0,0.0,0.0,0.7,0.4,3.9,9.7,0.765,1.9,2.5,29.0,0.0,NBA,241.0,1.3,4.6,PG,9.7,2006,2.1,HOU,2.4,5.1
32.0,4.1,0.0,3.3,0.421,3.1,7.5,0.444,0.8,1.8,0.426,3.9,9.2,0.64,3.1,4.9,16.0,0.0,NBA,183.0,0.6,3.5,PG,11.8,2006,1.2,NOK,3.3,3.9
