age,ast_per_mp,blk_per_mp,drb_per_mp,fg2_pct,fg2_per_mp,fg2a_per_mp,fg3_pct,fg3_per_mp,fg3a_per_mp,fg_pct,fg_per_mp,fga_per_mp,ft_pct,ft_per_mp,fta_per_mp,g,gs,lg_id,mp,orb_per_mp,pf_per_mp,pos,pts_per_mp,season,stl_per_mp,team_id,tov_per_mp,trb_per_mp
23.0,3.4,0.0,2.1,0.409,4.1,10.1,0.298,1.2,4.1,0.377,5.4,14.2,0.833,0.9,1.1,43.0,1.0,NBA,410.0,0.6,2.3,PG,12.8,2015,1.1,DEN,1.2,2.7
24.0,2.6,0.0,2.6,0.5,3.4,6.9,0.2,0.9,4.3,0.385,4.3,11.1,1.0,1.7,1.7,9.0,0.0,NBA,42.0,2.6,3.4,PG,11.1,2016,0.9,TOT,0.0,5.1
24.0,5.1,0.0,5.1,0.0,0.0,0.0,0.0,0.0,5.1,0.0,0.0,5.1,0.0,0.0,0.0,3.0,0.0,NBA,7.0,0.0,0.0,PG,0.0,2016,0.0,DEN,0.0,5.1
24.0,2.1,0.0,2.1,0.5,4.1,8.2,0.25,1.0,4.1,0.417,5.1,12.3,1.0,2.1,2.1,6.0,0.0,NBA,35.0,3.1,4.1,PG,13.4,2016,1.0,UTA,0.0,5.1
