age,ast,blk,drb,fg,fg2,fg2a,fg3,fg3a,fga,ft,fta,game_score,lg_id,mp,orb,pf,pts,season,stl,team_id,tov,trb
22.0,7.0,1.0,13.0,14.0,14.0,24.0,2.0,3.0,27.0,12.0,15.0,27.6,NBA,0.0,4.0,5.0,40.0,1987,3.0,IND,5.0,17.0
25.0,5.0,0.0,8.0,7.0,7.0,15.0,1.0,4.0,18.0,2.0,4.0,10.2,NBA,0.0,4.0,5.0,16.0,1990,1.0,IND,2.0,12.0
26.0,7.0,0.0,6.0,16.0,9.0,15.0,7.0,10.0,24.0,8.0,9.0,28.0,NBA,0.0,2.0,6.0,39.0,1991,2.0,IND,3.0,8.0
27.0,4.0,0.0,4.0,12.0,10.0,18.0,2.0,6.0,23.0,6.0,6.0,19.8,NBA,0.0,1.0,5.0,32.0,1992,1.0,IND,2.0,4.0
30.0,3.0,2.0,4.0,4.0,4.0,5.0,3.0,6.0,7.0,2.0,3.0,8.7,NBA,0.0,1.0,3.0,11.0,1995,2.0,SAS,2.0,4.0
31.0,5.0,1.0,6.0,6.0,4.0,5.0,4.0,7.0,11.0,3.0,4.0,15.2,NBA,0.0,2.0,5.0,18.0,1996,1.0,SAS,2.0,7.0
33.0,1.0,0.0,6.0,6.0,2.0,3.0,6.0,8.0,11.0,2.0,2.0,13.5,NBA,0.0,0.0,6.0,18.0,1998,2.0,SAS,1.0,6.0
35.0,0.0,0.0,0.0,0.0,0.0,0.0,0.0,1.0,1.0,0.0,0.0,0.0,NBA,0.0,0.0,0.0,0.0,2000,0.0,SEA,0.0,0.0
