age,ast_per_mp,blk_per_mp,drb_per_mp,fg2_pct,fg2_per_mp,fg2a_per_mp,fg3_pct,fg3_per_mp,fg3a_per_mp,fg_pct,fg_per_mp,fga_per_mp,ft_pct,ft_per_mp,fta_per_mp,g,gs,lg_id,mp,orb_per_mp,pf_per_mp,pos,pts_per_mp,season,stl_per_mp,team_id,tov_per_mp,trb_per_mp
22.0,4.5,0.5,6.1,0.545,8.2,14.9,0.25,0.5,1.8,0.514,8.6,16.8,0.769,6.8,8.8,4.0,4.0,NBA,159.0,1.4,3.2,SF,24.5,1987,1.1,IND,3.4,7.5
25.0,3.5,0.0,4.1,0.457,4.7,10.2,0.1,0.3,2.9,0.378,5.0,13.2,0.417,1.5,3.5,3.0,3.0,NBA,123.0,1.8,3.2,SF,11.7,1990,0.3,IND,1.2,5.9
26.0,3.0,0.0,4.7,0.525,5.8,11.1,0.548,3.2,5.8,0.533,9.0,16.9,0.81,3.2,3.9,5.0,5.0,NBA,192.0,0.6,2.8,SF,24.4,1991,0.9,IND,2.3,5.2
27.0,2.1,0.0,2.4,0.438,4.3,9.8,0.333,1.5,4.6,0.404,5.8,14.3,0.667,2.4,3.7,3.0,3.0,NBA,118.0,0.3,3.4,SF,15.6,1992,0.6,IND,1.8,2.7
30.0,1.1,1.0,3.5,0.438,2.0,4.5,0.289,1.8,6.3,0.351,3.8,10.7,0.727,1.1,1.5,15.0,0.0,NBA,258.0,0.3,3.1,SF,10.5,1995,0.6,SAS,0.8,3.8
31.0,2.0,0.4,4.4,0.533,2.0,3.8,0.532,3.2,6.0,0.532,5.2,9.8,0.824,1.8,2.2,10.0,0.0,NBA,284.0,0.6,4.1,SF,15.3,1996,0.3,SAS,1.4,5.1
33.0,1.3,0.0,5.0,0.308,0.7,2.4,0.35,2.6,7.3,0.34,3.3,9.7,1.0,0.4,0.4,9.0,0.0,NBA,196.0,0.0,2.8,PF,9.6,1998,0.7,SAS,1.1,5.0
35.0,0.0,0.0,0.0,0.0,0.0,0.0,0.0,0.0,18.0,0.0,0.0,18.0,0.0,0.0,0.0,2.0,0.0,NBA,2.0,0.0,0.0,SF,0.0,2000,0.0,SEA,0.0,0.0
