age,and1s,astd_pts,drawn_offensive,drawn_shooting,fouls_offensive,fouls_shooting,g,lg_id,mp,own_shots_blk,pct_1,pct_2,pct_3,pct_4,pct_5,plus_minus_net,plus_minus_on,pos,season,team_id,tov_bad_pass,tov_lost_ball
19.0,19.0,146.0,6.0,121.0,17.0,55.0,62.0,NBA,1567.0,46.0,0.0,0.0,0.0,45.0,54.0,-3.6,-3.1,PF,2019,SAC,27.0,32.0
20.0,0.0,0.0,0.0,2.0,0.0,1.0,1.0,NBA,28.0,3.0,0.0,0.0,0.0,41.0,59.0,-24.5,-31.4,PF,2020,SAC,1.0,0.0
