age,ast,blk,drb,efg_pct,fg,fg2,fg2_pct,fg2a,fg3,fg3_pct,fg3a,fg_pct,fga,ft,ft_pct,fta,g,gs,lg_id,mp,orb,pf,pos,pts,season,stl,team_id,tov,trb
25.0,10.0,0.0,50.0,0.474,37.0,37.0,0.474,78.0,0.0,0.0,0.0,0.474,78.0,36.0,0.783,46.0,51.0,1.0,NBA,289.0,21.0,56.0,PF,110.0,1989,11.0,CHI,26.0,71.0
26.0,26.0,12.0,185.0,0.398,138.0,138.0,0.399,346.0,0.0,0.0,1.0,0.398,347.0,85.0,0.68,125.0,67.0,26.0,NBA,1084.0,115.0,170.0,PF,361.0,1990,18.0,TOT,72.0,300.0
26.0,4.0,1.0,11.0,0.45,9.0,9.0,0.45,20.0,0.0,0.0,0.0,0.45,20.0,7.0,1.0,7.0,11.0,0.0,NBA,58.0,7.0,7.0,PF,25.0,1990,0.0,CHI,7.0,18.0
26.0,22.0,11.0,174.0,0.394,129.0,129.0,0.396,326.0,0.0,0.0,1.0,0.394,327.0,78.0,0.661,118.0,56.0,26.0,NBA,1026.0,108.0,163.0,PF,336.0,1990,18.0,NJN,65.0,282.0
27.0,31.0,21.0,216.0,0.469,161.0,161.0,0.469,343.0,0.0,0.0,0.0,0.469,343.0,112.0,0.619,181.0,78.0,18.0,NBA,1178.0,140.0,199.0,PF,434.0,1991,20.0,NJN,63.0,356.0
28.0,7.0,8.0,64.0,0.369,31.0,31.0,0.369,84.0,0.0,0.0,0.0,0.369,84.0,14.0,0.483,29.0,49.0,9.0,NBA,394.0,31.0,75.0,C,76.0,1992,7.0,LAL,25.0,95.0
30.0,1.0,0.0,18.0,0.438,21.0,21.0,0.438,48.0,0.0,0.0,0.0,0.438,48.0,17.0,0.81,21.0,28.0,0.0,NBA,94.0,6.0,18.0,PF,59.0,1994,0.0,SAS,10.0,24.0
31.0,2.0,5.0,19.0,0.426,26.0,26.0,0.433,60.0,0.0,0.0,1.0,0.426,61.0,21.0,0.656,32.0,31.0,0.0,NBA,117.0,8.0,31.0,PF,73.0,1995,3.0,SAS,13.0,27.0
32.0,0.0,0.0,1.0,0.333,2.0,2.0,0.333,6.0,0.0,0.0,0.0,0.333,6.0,1.0,0.5,2.0,1.0,0.0,NBA,7.0,1.0,2.0,C,5.0,1996,0.0,CHI,1.0,2.0
33.0,5.0,1.0,19.0,0.351,13.0,13.0,0.351,37.0,0.0,0.0,0.0,0.351,37.0,14.0,0.737,19.0,20.0,0.0,NBA,74.0,13.0,14.0,C,40.0,1997,1.0,NJN,2.0,32.0
34.0,0.0,1.0,10.0,0.278,5.0,5.0,0.294,17.0,0.0,0.0,1.0,0.278,18.0,12.0,0.571,21.0,16.0,0.0,NBA,51.0,5.0,9.0,C,22.0,1998,0.0,NJN,4.0,15.0
