age,ast,blk,drb,fg,fg2,fg2a,fg3,fg3a,fga,ft,fta,game_score,lg_id,mp,orb,pf,pts,season,stl,team_id,tov,trb
25.0,1.0,0.0,1.0,1.0,1.0,2.0,0.0,0.0,2.0,1.0,2.0,2.7,NBA,0.0,0.0,2.0,3.0,1989,0.0,CHI,0.0,1.0
28.0,1.0,0.0,0.0,1.0,1.0,2.0,0.0,0.0,2.0,0.0,0.0,0.2,NBA,0.0,1.0,2.0,2.0,1992,0.0,LAL,0.0,1.0
30.0,1.0,0.0,2.0,2.0,2.0,4.0,0.0,0.0,4.0,2.0,2.0,5.7,NBA,0.0,1.0,2.0,5.0,1994,0.0,SAS,0.0,3.0
31.0,0.0,1.0,2.0,1.0,1.0,3.0,0.0,0.0,3.0,1.0,2.0,0.7,NBA,0.0,2.0,1.0,2.0,1995,0.0,SAS,1.0,2.0
