age,ast,blk,drb,fg,fg2,fg2a,fg3,fg3a,fga,ft,fta,game_score,lg_id,mp,orb,pf,pts,season,stl,team_id,tov,trb
25.0,3.0,0.0,7.0,4.0,4.0,6.0,0.0,0.0,6.0,6.0,8.0,12.3,NBA,0.0,2.0,5.0,12.0,1989,2.0,CHI,3.0,8.0
26.0,2.0,1.0,12.0,8.0,8.0,15.0,0.0,1.0,15.0,7.0,10.0,14.9,NBA,0.0,6.0,6.0,19.0,1990,3.0,TOT,4.0,15.0
26.0,2.0,1.0,4.0,3.0,3.0,6.0,0.0,0.0,6.0,2.0,2.0,6.1,NBA,0.0,4.0,3.0,7.0,1990,0.0,CHI,2.0,6.0
26.0,2.0,1.0,12.0,8.0,8.0,15.0,0.0,1.0,15.0,7.0,10.0,14.9,NBA,0.0,6.0,6.0,19.0,1990,3.0,NJN,4.0,15.0
27.0,2.0,2.0,12.0,8.0,8.0,16.0,0.0,0.0,16.0,7.0,11.0,18.9,NBA,0.0,9.0,5.0,18.0,1991,2.0,NJN,3.0,18.0
28.0,2.0,3.0,7.0,4.0,4.0,7.0,0.0,0.0,7.0,4.0,5.0,10.4,NBA,0.0,4.0,5.0,11.0,1992,2.0,LAL,4.0,10.0
30.0,1.0,0.0,3.0,3.0,3.0,5.0,0.0,0.0,5.0,4.0,5.0,4.9,NBA,0.0,2.0,3.0,8.0,1994,0.0,SAS,2.0,4.0
31.0,1.0,2.0,3.0,5.0,5.0,6.0,0.0,1.0,6.0,4.0,5.0,9.8,NBA,0.0,2.0,5.0,10.0,1995,1.0,SAS,2.0,4.0
32.0,0.0,0.0,1.0,2.0,2.0,6.0,0.0,0.0,6.0,1.0,2.0,0.4,NBA,0.0,1.0,2.0,5.0,1996,0.0,CHI,1.0,2.0
33.0,1.0,1.0,3.0,3.0,3.0,6.0,0.0,0.0,6.0,4.0,5.0,7.2,NBA,0.0,4.0,2.0,10.0,1997,1.0,NJN,1.0,5.0
34.0,0.0,1.0,2.0,3.0,3.0,5.0,0.0,1.0,5.0,4.0,6.0,5.1,NBA,0.0,1.0,3.0,10.0,1998,0.0,NJN,2.0,3.0
