age,and1s,astd_pts,drawn_offensive,drawn_shooting,fouls_offensive,fouls_shooting,g,lg_id,mp,own_shots_blk,pct_1,pct_2,pct_3,pct_4,pct_5,plus_minus_net,plus_minus_on,pos,season,team_id,tov_bad_pass,tov_lost_ball
24.0,35.0,43.0,0.0,136.0,30.0,94.0,68.0,NBA,1609.0,64.0,0.0,0.0,0.0,0.0,100.0,-1.8,-8.3,C,2001,WAS,23.0,47.0
25.0,20.0,38.0,0.0,73.0,12.0,87.0,71.0,NBA,1346.0,28.0,0.0,0.0,0.0,3.0,97.0,-2.7,-3.2,C,2002,WAS,13.0,24.0
26.0,3.0,5.0,0.0,13.0,2.0,23.0,16.0,NBA,230.0,8.0,0.0,0.0,0.0,32.0,69.0,-2.6,-3.5,C,2003,WAS,2.0,4.0
27.0,10.0,15.0,0.0,65.0,25.0,95.0,62.0,NBA,865.0,28.0,0.0,0.0,0.0,4.0,97.0,-1.4,-6.3,C,2004,TOT,17.0,15.0
27.0,0.0,0.0,0.0,0.0,0.0,0.0,1.0,NBA,4.0,0.0,0.0,0.0,0.0,0.0,100.0,6.0,0.0,C,2004,WAS,0.0,1.0
27.0,10.0,15.0,0.0,65.0,25.0,95.0,61.0,NBA,861.0,28.0,0.0,0.0,0.0,4.0,97.0,-2.8,-6.3,C,2004,PHO,17.0,14.0
28.0,6.0,3.0,0.0,19.0,7.0,15.0,17.0,NBA,135.0,3.0,0.0,0.0,0.0,17.0,83.0,8.1,1.5,C,2005,CHA,3.0,1.0
