age,avg_dist,fg2_dunk,fg2_pct,fg2_pct_ast,fg2a_pct_fga,fg3_heave,fg3_pct,fg3_pct_ast,fg3_pct_corner,fg3a_heave,fg3a_pct_fga,fg_pct,fg_pct_00_03,fg_pct_03_10,fg_pct_10_16,fg_pct_16_xx,g,lg_id,mp,pct_fg2_dunk,pct_fg3a_corner,pct_fga_00_03,pct_fga_03_10,pct_fga_10_16,pct_fga_16_xx,pos,season,team_id
20.0,11.2,27.0,0.487,0.522,0.712,0.0,0.331,0.96,0.455,1.0,0.288,0.442,0.65,0.303,0.243,0.366,76.0,NBA,1358.0,0.053,0.146,0.375,0.189,0.07,0.078,SG,2001,LAC
21.0,13.8,45.0,0.463,0.513,0.623,0.0,0.381,0.94,0.467,3.0,0.377,0.432,0.642,0.336,0.297,0.273,81.0,NBA,2152.0,0.054,0.086,0.293,0.145,0.08,0.107,SG,2002,LAC
22.0,12.9,24.0,0.408,0.43,0.637,0.0,0.308,0.885,0.333,3.0,0.363,0.372,0.471,0.352,0.156,0.375,59.0,NBA,1368.0,0.049,0.121,0.377,0.099,0.059,0.103,SG,2003,LAC
23.0,12.8,44.0,0.42,0.449,0.681,0.0,0.352,0.85,0.347,1.0,0.319,0.398,0.532,0.339,0.266,0.292,65.0,NBA,2338.0,0.047,0.144,0.348,0.108,0.074,0.151,SG,2004,LAC
24.0,18.1,39.0,0.437,0.486,0.396,0.0,0.358,0.894,0.378,5.0,0.604,0.389,0.527,0.377,0.139,0.379,79.0,NBA,2839.0,0.04,0.176,0.212,0.058,0.034,0.091,SG,2005,PHO
25.0,14.7,8.0,0.365,0.394,0.59,0.0,0.34,0.922,0.343,1.0,0.41,0.355,0.484,0.286,0.212,0.267,55.0,NBA,1442.0,0.017,0.356,0.279,0.076,0.072,0.163,SF,2006,NYK
26.0,15.4,7.0,0.456,0.435,0.527,0.0,0.376,0.979,0.412,0.0,0.473,0.418,0.563,0.273,0.333,0.378,49.0,NBA,1621.0,0.013,0.264,0.277,0.081,0.033,0.136,SF,2007,NYK
27.0,15.8,7.0,0.381,0.508,0.614,0.0,0.322,0.913,0.296,2.0,0.386,0.359,0.417,0.4,0.234,0.394,65.0,NBA,1841.0,0.016,0.252,0.229,0.072,0.085,0.229,SF,2008,NYK
28.0,15.7,8.0,0.42,0.415,0.507,0.0,0.365,0.983,0.368,1.0,0.493,0.393,0.508,0.297,0.333,0.298,72.0,NBA,1894.0,0.013,0.231,0.289,0.055,0.036,0.126,SG,2009,NYK
29.0,18.0,18.0,0.493,0.35,0.362,0.0,0.397,0.951,0.494,0.0,0.638,0.431,0.625,0.314,0.316,0.351,76.0,NBA,2082.0,0.036,0.215,0.2,0.062,0.034,0.066,SF,2010,MIA
30.0,16.9,5.0,0.413,0.289,0.427,0.0,0.288,1.0,0.237,1.0,0.573,0.341,0.55,0.259,0.429,0.133,57.0,NBA,955.0,0.02,0.26,0.235,0.106,0.027,0.059,SF,2011,ORL
31.0,19.2,4.0,0.421,0.531,0.386,0.0,0.347,1.0,0.345,0.0,0.614,0.376,0.759,0.083,0.111,0.308,48.0,NBA,866.0,0.02,0.24,0.147,0.061,0.046,0.132,SF,2012,ORL
32.0,10.5,0.0,0.0,0.0,0.636,0.0,0.25,1.0,0.0,0.0,0.364,0.091,0.0,0.0,0.0,0.0,1.0,NBA,29.0,0.0,0.0,0.545,0.091,0.0,0.0,SF,2013,NYK
