age,ast,blk,drb,fg,fg2,fg2a,fg3,fg3a,fga,ft,fta,game_score,lg_id,mp,orb,pf,pts,season,stl,team_id,tov,trb
24.0,4.0,1.0,10.0,7.0,4.0,9.0,4.0,11.0,20.0,4.0,6.0,17.1,NBA,0.0,5.0,5.0,22.0,2005,4.0,PHO,4.0,13.0
29.0,3.0,1.0,7.0,7.0,3.0,8.0,4.0,6.0,14.0,2.0,3.0,16.6,NBA,39.0,1.0,4.0,20.0,2010,3.0,MIA,3.0,7.0
30.0,1.0,1.0,5.0,3.0,2.0,2.0,3.0,4.0,6.0,2.0,2.0,9.3,NBA,30.0,1.0,4.0,9.0,2011,1.0,ORL,2.0,6.0
31.0,1.0,0.0,10.0,2.0,1.0,5.0,1.0,3.0,5.0,0.0,0.0,4.2,NBA,27.0,0.0,3.0,5.0,2012,1.0,ORL,3.0,10.0
32.0,0.0,0.0,1.0,2.0,0.0,1.0,2.0,3.0,3.0,0.0,0.0,5.0,NBA,5.0,1.0,1.0,6.0,2013,0.0,NYK,0.0,1.0
