age,ast_per_poss,blk_per_poss,def_rtg,drb_per_poss,fg2_pct,fg2_per_poss,fg2a_per_poss,fg3_pct,fg3_per_poss,fg3a_per_poss,fg_pct,fg_per_poss,fga_per_poss,ft_pct,ft_per_poss,fta_per_poss,g,gs,lg_id,mp,off_rtg,orb_per_poss,pf_per_poss,pos,pts_per_poss,season,stl_per_poss,team_id,tov_per_poss,trb_per_poss
20.0,2.4,0.3,106.0,6.0,0.487,7.2,14.7,0.331,2.0,6.0,0.442,9.1,20.7,0.627,3.9,6.2,76.0,28.0,NBA,1358.0,106.0,4.1,3.9,SG,24.2,2001,1.7,LAC,2.5,10.1
21.0,3.2,0.5,107.0,5.5,0.463,6.6,14.3,0.381,3.3,8.6,0.432,9.9,22.9,0.765,3.5,4.6,81.0,0.0,NBA,2152.0,110.0,2.8,3.5,SG,26.6,2002,1.9,LAC,2.5,8.3
22.0,2.0,0.4,108.0,7.0,0.408,5.5,13.4,0.308,2.3,7.6,0.372,7.8,21.0,0.685,3.3,4.8,59.0,13.0,NBA,1368.0,97.0,3.8,3.5,SG,21.2,2003,1.3,LAC,2.5,10.8
23.0,3.1,0.4,110.0,6.0,0.42,6.9,16.4,0.352,2.7,7.7,0.398,9.6,24.1,0.74,3.4,4.6,65.0,64.0,NBA,2338.0,101.0,3.3,2.9,SG,25.3,2004,1.5,LAC,3.2,9.3
24.0,2.8,0.5,107.0,6.8,0.437,3.2,7.3,0.358,4.0,11.1,0.389,7.2,18.4,0.739,2.4,3.2,79.0,78.0,NBA,2839.0,108.0,1.6,3.5,SG,20.7,2005,1.7,PHO,1.8,8.4
25.0,3.2,0.2,112.0,6.1,0.365,3.6,9.9,0.34,2.3,6.9,0.355,6.0,16.8,0.67,2.2,3.3,55.0,43.0,NBA,1442.0,99.0,2.4,4.9,SF,16.5,2006,1.4,NYK,2.1,8.4
26.0,3.5,0.2,108.0,9.4,0.456,4.3,9.4,0.376,3.2,8.4,0.418,7.4,17.8,0.692,2.7,3.9,49.0,47.0,NBA,1621.0,110.0,2.1,4.3,SF,20.8,2007,1.2,NYK,2.3,11.5
27.0,3.3,0.4,112.0,7.4,0.381,3.7,9.7,0.322,2.0,6.1,0.359,5.7,15.8,0.682,1.7,2.5,65.0,65.0,NBA,1841.0,95.0,1.6,4.4,SF,15.0,2008,1.3,NYK,2.0,9.0
28.0,3.1,0.2,112.0,6.5,0.42,3.7,8.9,0.365,3.1,8.6,0.393,6.9,17.5,0.761,2.3,3.1,72.0,51.0,NBA,1894.0,105.0,1.9,3.5,SG,19.2,2009,1.2,NYK,1.9,8.4
29.0,2.4,0.5,104.0,8.0,0.493,2.6,5.2,0.397,3.7,9.2,0.431,6.2,14.4,0.732,1.3,1.8,76.0,75.0,NBA,2082.0,114.0,1.6,4.3,SF,17.4,2010,1.8,MIA,1.6,9.6
30.0,2.1,0.3,103.0,7.7,0.413,2.5,6.0,0.288,2.3,8.0,0.341,4.8,14.0,0.75,1.8,2.4,57.0,19.0,NBA,955.0,97.0,2.1,4.1,SF,13.7,2011,1.4,ORL,1.8,9.8
31.0,2.4,0.4,105.0,6.7,0.421,2.0,4.7,0.347,2.6,7.5,0.376,4.6,12.3,0.833,1.6,1.9,48.0,3.0,NBA,866.0,102.0,0.9,4.6,SF,13.4,2012,1.7,ORL,1.8,7.7
32.0,1.8,0.0,110.0,9.2,0.0,0.0,12.9,0.25,1.8,7.4,0.091,1.8,20.3,1.0,3.7,3.7,1.0,0.0,NBA,29.0,67.0,9.2,1.8,SF,9.2,2013,0.0,NYK,3.7,18.4
