age,ast_per_mp,blk_per_mp,drb_per_mp,fg2_pct,fg2_per_mp,fg2a_per_mp,fg3_pct,fg3_per_mp,fg3a_per_mp,fg_pct,fg_per_mp,fga_per_mp,ft_pct,ft_per_mp,fta_per_mp,g,gs,lg_id,mp,orb_per_mp,pf_per_mp,pos,pts_per_mp,season,stl_per_mp,team_id,tov_per_mp,trb_per_mp
24.0,4.9,1.1,4.7,0.464,5.0,10.8,0.111,0.0,0.2,0.457,5.0,11.0,0.597,2.5,4.1,79.0,18.0,NBA,1528.0,2.0,4.1,SG,12.5,1983,2.3,MIL,3.8,6.6
25.0,5.2,1.0,3.7,0.528,5.7,10.8,0.222,0.0,0.2,0.523,5.7,11.0,0.6,2.5,4.2,81.0,18.0,NBA,1730.0,2.1,5.0,SG,14.0,1984,1.8,MIL,3.3,5.9
26.0,6.8,0.7,3.5,0.521,5.9,11.4,0.35,0.1,0.3,0.517,6.0,11.6,0.758,4.0,5.2,80.0,80.0,NBA,2876.0,1.9,3.2,SF,16.1,1985,1.6,MIL,3.1,5.4
27.0,8.3,0.9,3.6,0.504,5.4,10.6,0.182,0.1,0.6,0.488,5.5,11.2,0.806,4.2,5.2,80.0,80.0,NBA,2704.0,1.7,3.3,SF,15.3,1986,2.2,MIL,3.2,5.3
28.0,7.7,0.8,3.5,0.496,4.9,9.8,0.291,0.3,1.0,0.477,5.1,10.8,0.738,4.2,5.7,61.0,60.0,NBA,2057.0,1.7,3.7,SF,14.8,1987,1.9,MIL,3.3,5.2
29.0,7.6,0.5,3.6,0.508,4.9,9.6,0.205,0.1,0.6,0.491,5.0,10.2,0.798,4.1,5.2,75.0,75.0,NBA,2484.0,1.9,3.4,SG,14.2,1988,1.6,MIL,2.9,5.4
30.0,7.3,0.7,3.1,0.497,4.9,9.8,0.218,0.2,0.9,0.474,5.1,10.8,0.776,3.1,4.0,67.0,62.0,NBA,2170.0,1.2,3.7,SG,13.5,1989,2.0,MIL,3.1,4.3
31.0,6.3,0.6,2.9,0.503,6.0,11.9,0.14,0.2,1.1,0.472,6.1,13.0,0.758,3.7,4.9,57.0,2.0,NBA,1400.0,1.5,3.8,SG,16.1,1990,1.8,MIL,2.8,4.4
32.0,5.8,0.7,2.7,0.501,4.0,7.9,0.281,0.3,1.2,0.472,4.3,9.1,0.827,2.4,2.8,70.0,18.0,NBA,1683.0,1.1,3.7,SG,11.3,1991,1.3,SAS,2.8,3.8
33.0,6.7,0.9,3.5,0.407,2.7,6.6,0.143,0.1,1.0,0.373,2.8,7.6,0.683,1.3,1.9,56.0,7.0,NBA,759.0,1.0,4.1,SG,7.2,1992,1.4,SAS,3.0,4.5
34.0,4.0,0.7,3.1,0.468,3.9,8.3,0.0,0.0,0.5,0.439,3.9,8.9,0.778,2.8,3.6,18.0,0.0,NBA,268.0,1.1,4.8,SG,10.6,1993,1.5,GSW,3.1,4.2
