age,ast_per_g,blk_per_g,drb_per_g,efg_pct,fg2_pct,fg2_per_g,fg2a_per_g,fg3_pct,fg3_per_g,fg3a_per_g,fg_pct,fg_per_g,fga_per_g,ft_pct,ft_per_g,fta_per_g,g,gs,lg_id,mp_per_g,orb_per_g,pf_per_g,pos,pts_per_g,season,stl_per_g,team_id,tov_per_g,trb_per_g
24.0,0.0,0.1,0.8,0.477,0.467,0.4,0.8,0.321,0.5,1.6,0.372,0.9,2.4,0.6,0.2,0.3,18.0,0.0,NBA,6.2,0.3,0.8,SF,2.4,2010,0.1,TOT,0.3,1.1
24.0,0.0,0.1,0.8,0.5,0.467,0.4,0.9,0.346,0.5,1.5,0.39,0.9,2.4,0.6,0.2,0.3,17.0,0.0,NBA,6.4,0.3,0.8,SF,2.6,2010,0.1,NYK,0.4,1.1
24.0,0.0,0.0,0.0,0.0,0.0,0.0,0.0,0.0,0.0,2.0,0.0,0.0,2.0,0.0,0.0,0.0,1.0,0.0,NBA,3.0,0.0,0.0,SF,0.0,2010,0.0,BOS,0.0,0.0
