age,avg_dist,fg2_dunk,fg2_pct,fg2_pct_ast,fg2a_pct_fga,fg3_heave,fg3_pct,fg3_pct_ast,fg3_pct_corner,fg3a_heave,fg3a_pct_fga,fg_pct,fg_pct_00_03,fg_pct_03_10,fg_pct_10_16,fg_pct_16_xx,g,lg_id,mp,pct_fg2_dunk,pct_fg3a_corner,pct_fga_00_03,pct_fga_03_10,pct_fga_10_16,pct_fga_16_xx,pos,season,team_id
24.0,18.1,1.0,0.467,0.286,0.349,0.0,0.321,1.0,0.462,0.0,0.651,0.372,0.556,0.0,0.0,0.5,18.0,NBA,111.0,0.023,0.464,0.209,0.047,0.0,0.093,SF,2010,TOT
24.0,17.8,1.0,0.467,0.286,0.366,0.0,0.346,1.0,0.5,0.0,0.634,0.39,0.556,0.0,0.0,0.5,17.0,NBA,108.0,0.024,0.462,0.22,0.049,0.0,0.098,SF,2010,NYK
24.0,25.0,0.0,0.0,0.0,0.0,0.0,0.0,0.0,0.0,0.0,1.0,0.0,0.0,0.0,0.0,0.0,1.0,NBA,3.0,0.0,0.5,0.0,0.0,0.0,0.0,SF,2010,BOS
