age,ast,ast_per_g,blk,college_id,fg,fg3,fg3_pct,fg3a,fg_pct,fga,ft,ft_pct,fta,g,mp,mp_per_g,orb,pf,pts,pts_per_g,season,stl,tov,trb,trb_per_g
20.0,20.0,1.3,6.0,WISCONSIN,36.0,4.0,0.364,11.0,0.474,76.0,20.0,0.714,28.0,16.0,0.0,0.0,0.0,0.0,96.0,6.0,2006,7.0,0.0,50.0,3.1
21.0,30.0,0.8,31.0,WISCONSIN,81.0,13.0,0.361,36.0,0.519,156.0,36.0,0.563,64.0,36.0,0.0,0.0,0.0,0.0,211.0,5.9,2007,20.0,0.0,116.0,3.2
22.0,50.0,1.4,27.0,WISCONSIN,146.0,19.0,0.352,54.0,0.466,313.0,78.0,0.765,102.0,36.0,0.0,0.0,0.0,0.0,389.0,10.8,2008,16.0,65.0,194.0,5.4
23.0,51.0,1.5,35.0,WISCONSIN,166.0,29.0,0.367,79.0,0.502,331.0,57.0,0.626,91.0,33.0,0.0,0.0,0.0,0.0,418.0,12.7,2009,25.0,54.0,151.0,4.6
