age,ast_per_mp,blk_per_mp,drb_per_mp,fg2_pct,fg2_per_mp,fg2a_per_mp,fg3_pct,fg3_per_mp,fg3a_per_mp,fg_pct,fg_per_mp,fga_per_mp,ft_pct,ft_per_mp,fta_per_mp,g,gs,lg_id,mp,orb_per_mp,pf_per_mp,pos,pts_per_mp,season,stl_per_mp,team_id,tov_per_mp,trb_per_mp
23.0,1.2,0.4,2.2,0.421,4.5,10.6,0.133,0.1,0.4,0.411,4.5,11.0,0.705,2.4,3.4,69.0,23.0,NBA,1351.0,2.1,2.6,SG,11.5,1990,1.1,LAC,1.3,4.2
24.0,1.8,0.8,2.1,0.446,5.0,11.3,0.307,0.7,2.4,0.422,5.8,13.7,0.68,1.8,2.7,74.0,26.0,NBA,1334.0,1.4,2.8,PG,14.1,1991,1.0,LAC,1.3,3.5
