age,ast_per_mp,blk_per_mp,drb_per_mp,fg2_pct,fg2_per_mp,fg2a_per_mp,fg3_pct,fg3_per_mp,fg3a_per_mp,fg_pct,fg_per_mp,fga_per_mp,ft_pct,ft_per_mp,fta_per_mp,g,gs,lg_id,mp,orb_per_mp,pf_per_mp,pos,pts_per_mp,season,stl_per_mp,team_id,tov_per_mp,trb_per_mp
26.0,2.2,0.2,2.3,0.415,4.6,11.1,0.357,1.4,3.9,0.4,6.0,15.0,0.833,3.0,3.6,42.0,2.0,NBA,782.0,1.4,4.5,SF,16.3,1992,1.5,DAL,2.0,3.8
27.0,3.3,0.3,2.0,0.44,5.6,12.8,0.343,1.6,4.7,0.414,7.3,17.6,0.869,3.7,4.3,39.0,1.0,NBA,510.0,1.6,3.8,SG,19.9,1993,1.5,DAL,2.3,3.7
28.0,0.0,0.0,3.6,0.667,7.2,10.8,0.0,0.0,0.0,0.667,7.2,10.8,1.0,7.2,7.2,3.0,0.0,NBA,10.0,0.0,0.0,SG,21.6,1994,7.2,DET,0.0,3.6
30.0,1.1,0.0,2.3,0.37,3.2,8.7,0.433,2.5,5.7,0.395,5.7,14.4,0.947,3.4,3.6,8.0,2.0,NBA,190.0,1.9,3.0,SG,17.2,1996,0.4,HOU,1.5,4.2
31.0,3.0,0.0,2.3,0.524,3.3,6.4,0.256,1.7,6.5,0.388,5.0,12.9,0.71,3.3,4.7,27.0,1.0,NBA,237.0,1.7,2.9,SG,15.0,1997,0.8,HOU,2.1,3.9
