age,avg_dist,fg2_dunk,fg2_pct,fg2_pct_ast,fg2a_pct_fga,fg3_heave,fg3_pct,fg3_pct_ast,fg3_pct_corner,fg3a_heave,fg3a_pct_fga,fg_pct,fg_pct_00_03,fg_pct_03_10,fg_pct_10_16,fg_pct_16_xx,g,lg_id,mp,pct_fg2_dunk,pct_fg3a_corner,pct_fga_00_03,pct_fga_03_10,pct_fga_10_16,pct_fga_16_xx,pos,season,team_id
22.0,16.3,16.0,0.389,0.569,0.593,0.0,0.346,0.977,0.378,0.0,0.407,0.372,0.587,0.207,0.25,0.329,66.0,NBA,1431.0,0.054,0.291,0.202,0.093,0.064,0.234,SF,2012,WAS
23.0,13.4,9.0,0.415,0.565,0.851,0.0,0.194,1.0,0.273,0.0,0.149,0.382,0.586,0.281,0.448,0.337,57.0,NBA,924.0,0.046,0.306,0.241,0.133,0.12,0.357,PF,2013,WAS
24.0,14.0,2.0,0.375,0.444,0.716,0.0,0.368,1.0,0.0,0.0,0.284,0.373,0.625,0.111,0.25,0.333,25.0,NBA,250.0,0.03,0.263,0.239,0.134,0.119,0.224,SF,2014,WAS
