age,and1s,astd_pts,drawn_offensive,drawn_shooting,fouls_offensive,fouls_shooting,g,lg_id,mp,own_shots_blk,pct_1,pct_2,pct_3,pct_4,pct_5,plus_minus_net,plus_minus_on,pos,season,team_id,tov_bad_pass,tov_lost_ball
22.0,4.0,105.0,10.0,15.0,11.0,91.0,66.0,NBA,1431.0,13.0,0.0,0.0,93.0,7.0,0.0,2.3,-4.8,SF,2012,WAS,13.0,9.0
23.0,9.0,87.0,4.0,32.0,13.0,56.0,57.0,NBA,924.0,13.0,0.0,0.0,12.0,87.0,2.0,-1.7,-4.3,PF,2013,WAS,15.0,11.0
24.0,3.0,12.0,3.0,13.0,4.0,11.0,25.0,NBA,250.0,5.0,0.0,0.0,49.0,51.0,0.0,-15.1,-12.9,SF,2014,WAS,2.0,4.0
