age,ast_per_poss,blk_per_poss,def_rtg,drb_per_poss,fg2_pct,fg2_per_poss,fg2a_per_poss,fg3_pct,fg3_per_poss,fg3a_per_poss,fg_pct,fg_per_poss,fga_per_poss,ft_pct,ft_per_poss,fta_per_poss,g,gs,lg_id,mp,off_rtg,orb_per_poss,pf_per_poss,pos,pts_per_poss,season,stl_per_poss,team_id,tov_per_poss,trb_per_poss
23.0,3.3,0.6,105.0,6.6,0.424,6.1,14.5,0.377,2.9,7.7,0.407,9.0,22.2,0.621,3.6,5.8,38.0,0.0,NBA,530.0,94.0,2.7,8.3,PF,24.6,1998,2.0,MIL,4.9,9.3
24.0,1.6,1.1,99.0,4.8,0.267,2.1,8.0,0.294,2.7,9.0,0.281,4.8,17.0,0.7,3.7,5.3,16.0,0.0,NBA,102.0,77.0,1.6,8.5,PF,16.0,1999,2.7,TOT,4.8,6.4
24.0,0.0,0.0,98.0,4.6,1.0,9.2,9.2,0.0,0.0,13.8,0.4,9.2,23.0,0.5,4.6,9.2,3.0,0.0,NBA,12.0,75.0,0.0,27.6,PF,23.0,1999,4.6,MIL,4.6,4.6
24.0,1.8,1.2,99.0,4.8,0.154,1.2,7.8,0.357,3.0,8.4,0.259,4.2,16.2,0.75,3.6,4.8,13.0,0.0,NBA,90.0,78.0,1.8,6.0,PF,15.0,1999,2.4,PHI,4.8,6.6
