age,ast,ast_per_g,blk,college_id,fg,fg3,fg3_pct,fg3a,fg_pct,fga,ft,ft_pct,fta,g,mp,mp_per_g,orb,pf,pts,pts_per_g,season,stl,tov,trb,trb_per_g
18.0,24.0,0.8,21.0,FLORIDA,117.0,0.0,0.0,2.0,0.603,194.0,93.0,0.592,157.0,31.0,660.0,21.3,0.0,0.0,327.0,10.5,1999,22.0,0.0,154.0,5.0
19.0,33.0,0.9,29.0,FLORIDA,169.0,0.0,0.0,0.0,0.579,292.0,99.0,0.639,155.0,37.0,830.0,22.4,0.0,0.0,437.0,11.8,2000,31.0,0.0,189.0,5.1
20.0,31.0,1.0,31.0,FLORIDA,188.0,0.0,0.0,0.0,0.597,315.0,146.0,0.709,206.0,31.0,870.0,28.1,0.0,0.0,522.0,16.8,2001,26.0,0.0,232.0,7.5
21.0,51.0,1.6,39.0,FLORIDA,159.0,0.0,0.0,1.0,0.562,283.0,177.0,0.694,255.0,31.0,876.0,28.3,0.0,0.0,495.0,16.0,2002,28.0,0.0,256.0,8.3
