age,ast_pct,blk_pct,bpm,bpm-dum,dbpm,drb_pct,dws,fg3a_per_fga_pct,fta_per_fga_pct,g,lg_id,mp,obpm,orb_pct,ows,per,pos,season,stl_pct,team_id,tov_pct,trb_pct,ts_pct,usg_pct,vorp,ws,ws-dum,ws_per_48
22.0,13.2,0.5,-3.5,0.0,-0.4,7.1,1.0,0.306,0.18,66.0,NBA,971.0,-3.1,2.9,-0.7,7.6,SG,2006,2.0,LAC,17.2,5.1,0.458,15.8,-0.4,0.3,0.0,0.017
23.0,19.8,0.4,-4.0,0.0,-0.7,10.7,0.7,0.273,0.28,61.0,NBA,712.0,-3.3,1.5,-0.3,9.3,PG,2007,2.4,LAC,21.7,6.1,0.495,15.0,-0.4,0.5,0.0,0.033
