age,avg_dist,fg2_dunk,fg2_pct,fg2_pct_ast,fg2a_pct_fga,fg3_heave,fg3_pct,fg3_pct_ast,fg3_pct_corner,fg3a_heave,fg3a_pct_fga,fg_pct,fg_pct_00_03,fg_pct_03_10,fg_pct_10_16,fg_pct_16_xx,g,lg_id,mp,pct_fg2_dunk,pct_fg3a_corner,pct_fga_00_03,pct_fga_03_10,pct_fga_10_16,pct_fga_16_xx,pos,season,team_id
21.0,9.7,52.0,0.444,0.582,0.899,0.0,0.276,1.0,0.356,1.0,0.101,0.427,0.601,0.405,0.253,0.346,80.0,NBA,2253.0,0.077,0.592,0.344,0.211,0.127,0.216,SF,2008,SEA
22.0,12.2,61.0,0.463,0.516,0.769,0.0,0.389,0.917,0.397,1.0,0.231,0.446,0.614,0.358,0.385,0.338,78.0,NBA,2873.0,0.066,0.235,0.32,0.125,0.11,0.213,PF,2009,OKC
23.0,12.3,58.0,0.503,0.451,0.708,0.0,0.333,1.0,0.345,2.0,0.292,0.453,0.648,0.47,0.354,0.333,82.0,NBA,3043.0,0.058,0.372,0.31,0.155,0.077,0.165,PF,2010,OKC
24.0,12.2,39.0,0.499,0.559,0.743,0.0,0.303,1.0,0.444,3.0,0.257,0.449,0.698,0.359,0.299,0.467,75.0,NBA,2427.0,0.049,0.299,0.274,0.238,0.082,0.149,PF-SF,2011,TOT
24.0,13.1,30.0,0.493,0.57,0.702,0.0,0.304,1.0,0.444,3.0,0.298,0.437,0.743,0.361,0.24,0.42,49.0,NBA,1815.0,0.049,0.245,0.246,0.233,0.081,0.142,PF,2011,OKC
24.0,9.5,9.0,0.514,0.533,0.866,0.0,0.296,1.0,0.444,0.0,0.134,0.485,0.603,0.353,0.471,0.588,26.0,NBA,612.0,0.05,0.667,0.361,0.252,0.084,0.168,SF,2011,BOS
26.0,11.5,50.0,0.49,0.497,0.774,0.0,0.385,0.957,0.457,7.0,0.226,0.467,0.659,0.258,0.389,0.385,81.0,NBA,2252.0,0.067,0.577,0.371,0.159,0.067,0.177,PF,2013,BOS
27.0,14.6,46.0,0.448,0.458,0.662,0.0,0.341,0.867,0.393,5.0,0.338,0.412,0.646,0.376,0.252,0.336,82.0,NBA,2805.0,0.044,0.27,0.243,0.148,0.088,0.183,SF,2014,BOS
28.0,13.0,55.0,0.473,0.498,0.698,0.0,0.332,0.856,0.423,5.0,0.302,0.43,0.628,0.429,0.361,0.308,78.0,NBA,2454.0,0.069,0.267,0.262,0.212,0.1,0.124,SF,2015,TOT
28.0,13.8,27.0,0.495,0.503,0.676,0.0,0.305,0.894,0.394,2.0,0.324,0.434,0.655,0.474,0.364,0.361,33.0,NBA,1093.0,0.061,0.214,0.232,0.2,0.116,0.128,SF,2015,BOS
28.0,12.3,28.0,0.452,0.494,0.72,0.0,0.362,0.82,0.444,3.0,0.28,0.427,0.608,0.391,0.357,0.254,45.0,NBA,1361.0,0.077,0.326,0.291,0.224,0.085,0.12,SF,2015,MEM
29.0,11.3,47.0,0.47,0.401,0.742,0.0,0.315,0.896,0.329,4.0,0.258,0.43,0.602,0.344,0.486,0.35,80.0,NBA,2253.0,0.063,0.343,0.308,0.218,0.09,0.125,SF,2016,TOT
29.0,11.3,35.0,0.47,0.399,0.756,0.0,0.309,0.833,0.333,4.0,0.244,0.431,0.583,0.383,0.491,0.324,53.0,NBA,1544.0,0.072,0.287,0.314,0.206,0.102,0.133,SF,2016,MEM
29.0,11.3,12.0,0.468,0.404,0.712,0.0,0.325,1.0,0.324,0.0,0.288,0.427,0.646,0.277,0.471,0.414,27.0,NBA,709.0,0.045,0.442,0.296,0.243,0.064,0.109,SF,2016,LAC
30.0,14.8,10.0,0.458,0.437,0.654,0.0,0.275,0.943,0.324,7.0,0.346,0.394,0.562,0.433,0.419,0.342,69.0,NBA,1534.0,0.02,0.176,0.233,0.174,0.111,0.136,PF,2017,ORL
31.0,11.2,63.0,0.54,0.583,0.725,0.0,0.312,0.962,0.338,8.0,0.275,0.477,0.699,0.367,0.259,0.39,78.0,NBA,1828.0,0.115,0.4,0.398,0.146,0.087,0.095,PF,2018,CLE
32.0,15.9,39.0,0.586,0.614,0.534,0.0,0.347,0.973,0.389,4.0,0.466,0.475,0.771,0.471,0.364,0.443,77.0,NBA,2097.0,0.063,0.281,0.242,0.124,0.08,0.089,PF,2019,WAS
33.0,20.1,2.0,0.308,0.375,0.388,0.0,0.39,0.938,0.471,3.0,0.612,0.358,0.5,0.2,0.333,0.0,11.0,NBA,209.0,0.045,0.415,0.119,0.149,0.09,0.03,PF,2020,UTA
