age,ast_per_mp,blk_per_mp,drb_per_mp,fg2_pct,fg2_per_mp,fg2a_per_mp,fg3_pct,fg3_per_mp,fg3a_per_mp,fg_pct,fg_per_mp,fga_per_mp,ft_pct,ft_per_mp,fta_per_mp,g,gs,lg_id,mp,orb_per_mp,pf_per_mp,pos,pts_per_mp,season,stl_per_mp,team_id,tov_per_mp,trb_per_mp
22.0,7.5,0.2,2.7,0.43,4.3,9.9,0.111,0.1,0.9,0.404,4.4,10.8,0.867,2.6,3.0,33.0,0.0,NBA,362.0,1.3,3.0,PG,11.4,1990,1.9,HOU,3.7,4.0
23.0,4.6,0.0,2.9,0.412,3.4,8.2,0.0,0.0,0.0,0.412,3.4,8.2,0.889,1.9,2.2,12.0,0.0,NBA,149.0,0.0,3.6,PG,8.7,1991,0.5,TOT,3.1,2.9
23.0,4.7,0.0,2.7,0.394,3.2,8.2,0.0,0.0,0.0,0.394,3.2,8.2,0.889,2.0,2.3,10.0,0.0,NBA,144.0,0.0,3.0,PG,8.5,1991,0.5,SAS,3.2,2.7
23.0,0.0,0.0,7.2,1.0,7.2,7.2,0.0,0.0,0.0,1.0,7.2,7.2,0.0,0.0,0.0,2.0,0.0,NBA,5.0,0.0,21.6,PG,14.4,1991,0.0,IND,0.0,7.2
