age,ast_pct,blk_pct,bpm,bpm-dum,dbpm,drb_pct,dws,fg3a_per_fga_pct,fta_per_fga_pct,g,lg_id,mp,obpm,orb_pct,ows,per,pos,season,stl_pct,team_id,tov_pct,trb_pct,ts_pct,usg_pct,vorp,ws,ws-dum,ws_per_48
23.0,38.7,0.6,1.0,0.0,-0.7,10.5,1.8,0.065,0.387,82.0,NBA,2093.0,1.8,4.5,3.5,17.9,PG,2000,2.0,CLE,15.8,7.5,0.517,21.8,1.6,5.3,0.0,0.122
24.0,40.5,0.7,2.9,0.0,-0.6,10.8,1.9,0.064,0.45,82.0,NBA,2848.0,3.6,3.8,6.1,20.1,PG,2001,2.2,CLE,18.1,7.3,0.541,23.2,3.5,8.0,0.0,0.136
25.0,49.8,0.8,3.4,0.0,-1.3,10.4,1.5,0.083,0.428,81.0,NBA,3023.0,4.7,4.2,8.7,21.8,PG,2002,2.2,CLE,16.5,7.4,0.538,22.6,4.1,10.3,0.0,0.163
26.0,31.3,0.3,-0.5,0.0,-1.4,9.0,1.0,0.116,0.421,80.0,NBA,2913.0,0.9,3.3,3.6,15.2,PG,2003,1.8,LAC,15.8,6.1,0.495,20.3,1.1,4.6,0.0,0.076
27.0,29.1,0.6,2.8,0.0,0.2,9.7,2.6,0.069,0.437,82.0,NBA,2838.0,2.6,5.0,6.1,18.8,PG,2004,2.6,DEN,16.1,7.3,0.541,20.7,3.4,8.8,0.0,0.148
28.0,32.2,0.2,1.0,0.0,-0.2,9.6,2.9,0.044,0.337,82.0,NBA,2852.0,1.2,4.1,4.1,16.5,PG,2005,2.2,DEN,17.6,6.8,0.541,19.5,2.2,7.0,0.0,0.119
29.0,36.2,0.5,0.5,0.0,-0.2,10.2,2.6,0.031,0.486,82.0,NBA,2937.0,0.7,3.7,3.6,16.4,PG,2006,1.8,DEN,19.5,7.0,0.532,20.0,1.8,6.2,0.0,0.101
30.0,34.3,0.3,0.5,0.0,-0.3,10.1,2.4,0.039,0.311,80.0,NBA,2966.0,0.8,3.9,3.5,16.1,PG,2007,1.9,TOT,17.7,7.0,0.52,19.2,1.9,5.9,0.0,0.095
30.0,38.7,0.3,0.4,0.0,-0.2,10.7,0.8,0.065,0.343,23.0,NBA,822.0,0.7,3.5,1.1,16.6,PG,2007,2.2,DEN,19.7,7.1,0.526,18.5,0.5,1.9,0.0,0.113
30.0,32.7,0.2,0.6,0.0,-0.3,9.8,1.6,0.029,0.3,57.0,NBA,2144.0,0.9,4.0,2.3,15.9,PG,2007,1.8,PHI,16.9,6.9,0.518,19.4,1.4,3.9,0.0,0.088
31.0,32.0,0.2,1.7,0.0,-0.6,9.1,2.6,0.029,0.288,82.0,NBA,3016.0,2.3,3.7,5.7,18.4,PG,2008,1.8,PHI,13.7,6.4,0.537,22.6,2.9,8.3,0.0,0.131
32.0,30.2,0.4,2.8,0.0,0.1,9.9,2.5,0.051,0.393,82.0,NBA,2976.0,2.8,4.9,6.2,18.6,PG,2009,2.0,PHI,14.0,7.4,0.548,21.8,3.6,8.8,0.0,0.141
33.0,30.3,0.3,1.6,0.0,-0.3,9.2,2.4,0.088,0.432,82.0,NBA,2500.0,1.9,4.0,4.6,18.1,PG,2010,2.0,POR,13.8,6.6,0.53,23.8,2.3,7.0,0.0,0.134
34.0,35.7,0.4,1.1,0.0,-0.2,9.9,2.4,0.044,0.346,81.0,NBA,2650.0,1.3,4.3,4.6,17.8,PG,2011,2.3,POR,16.8,7.0,0.529,20.6,2.1,7.0,0.0,0.127
35.0,36.5,0.4,-0.8,0.0,-1.0,10.5,1.0,0.15,0.306,66.0,NBA,1809.0,0.2,3.5,1.9,14.8,SG,2012,1.8,DEN,22.0,7.1,0.51,19.8,0.6,2.9,0.0,0.078
36.0,32.2,0.4,-0.1,0.0,-1.0,9.1,1.5,0.101,0.307,82.0,NBA,2151.0,0.9,3.2,3.9,15.7,PG,2013,1.7,DEN,19.3,6.2,0.548,17.9,1.0,5.4,0.0,0.12
37.0,29.2,0.7,-1.8,0.0,-0.4,11.7,0.8,0.091,0.333,58.0,NBA,982.0,-1.3,3.1,1.4,13.9,SG,2014,1.7,TOT,18.7,7.4,0.534,14.5,0.1,2.2,0.0,0.108
37.0,25.8,0.9,-1.7,0.0,-0.6,10.8,0.3,0.125,0.326,30.0,NBA,570.0,-1.0,3.0,0.8,13.4,SG,2014,1.3,DEN,16.7,6.9,0.534,14.7,0.1,1.1,0.0,0.091
37.0,33.9,0.4,-2.0,0.0,-0.2,12.9,0.5,0.034,0.345,28.0,NBA,412.0,-1.8,3.3,0.6,14.6,SG,2014,2.4,WAS,21.8,8.0,0.534,14.1,0.0,1.1,0.0,0.132
38.0,34.5,0.4,-3.0,0.0,-1.8,10.2,0.8,0.117,0.266,81.0,NBA,1253.0,-1.2,3.4,1.4,13.3,PG,2015,1.3,TOT,24.3,6.9,0.548,15.3,-0.3,2.2,0.0,0.084
38.0,34.1,0.3,-2.6,0.0,-1.6,9.8,0.6,0.056,0.275,51.0,NBA,631.0,-1.1,3.8,1.0,14.3,PG,2015,1.1,WAS,22.4,6.9,0.575,14.8,-0.1,1.6,0.0,0.124
38.0,34.9,0.5,-3.4,0.0,-2.0,10.6,0.2,0.176,0.257,30.0,NBA,622.0,-1.4,3.0,0.3,12.3,PG,2015,1.5,SAC,26.0,6.9,0.522,15.8,-0.2,0.6,0.0,0.043
39.0,28.3,0.0,-2.9,0.0,-1.8,9.5,0.4,0.075,0.302,39.0,NBA,461.0,-1.1,3.1,0.6,13.4,PG,2016,1.8,TOT,23.6,6.4,0.6,15.4,-0.1,1.0,0.0,0.1
39.0,31.9,0.0,-4.4,0.0,-3.7,7.4,0.1,0.069,0.328,26.0,NBA,280.0,-0.8,2.5,0.5,13.7,PG,2016,1.6,MIN,27.4,5.0,0.663,14.6,-0.2,0.5,0.0,0.088
39.0,22.6,0.0,-0.5,0.0,1.0,12.8,0.3,0.083,0.271,13.0,NBA,181.0,-1.5,3.9,0.1,12.9,PG,2016,2.0,SAS,18.3,8.5,0.521,16.6,0.1,0.4,0.0,0.118
