age,ast,ast_per_g,blk,college_id,fg,fg3,fg3_pct,fg3a,fg_pct,fga,ft,ft_pct,fta,g,mp,mp_per_g,orb,pf,pts,pts_per_g,season,stl,tov,trb,trb_per_g
18.0,0.0,0.0,8.0,BOSTONUNIV,37.0,0.0,0.0,0.0,0.493,75.0,30.0,0.732,41.0,26.0,311.0,12.0,0.0,43.0,104.0,4.0,1981,7.0,0.0,47.0,1.8
19.0,0.0,0.0,12.0,BOSTONUNIV,55.0,0.0,0.0,0.0,0.519,106.0,15.0,0.536,28.0,10.0,254.0,25.4,0.0,32.0,125.0,12.5,1982,14.0,0.0,61.0,6.1
20.0,0.0,0.0,17.0,BOSTONUNIV,176.0,0.0,0.0,0.0,0.464,379.0,89.0,0.824,108.0,27.0,800.0,29.6,0.0,105.0,441.0,16.3,1983,26.0,82.0,213.0,7.9
21.0,0.0,0.0,33.0,BOSTONUNIV,174.0,0.0,0.0,0.0,0.5,348.0,111.0,0.766,145.0,27.0,840.0,31.1,0.0,98.0,459.0,17.0,1984,27.0,86.0,282.0,10.4
