age,ast,blk,drb,efg_pct,fg,fg2,fg2_pct,fg2a,fg3,fg3_pct,fg3a,fg_pct,fga,ft,ft_pct,fta,g,gs,lg_id,mp,orb,pf,pos,pts,season,stl,team_id,tov,trb
21.0,446.0,8.0,188.0,0.446,345.0,248.0,0.405,612.0,97.0,0.358,271.0,0.391,883.0,161.0,0.725,222.0,80.0,54.0,NBA,2406.0,77.0,181.0,PG,948.0,2006,102.0,CHA,182.0,265.0
22.0,545.0,10.0,216.0,0.434,393.0,290.0,0.407,712.0,103.0,0.33,312.0,0.384,1024.0,204.0,0.797,256.0,78.0,75.0,NBA,2832.0,51.0,180.0,PG,1093.0,2007,118.0,CHA,230.0,267.0
23.0,583.0,12.0,199.0,0.441,412.0,356.0,0.447,797.0,56.0,0.28,200.0,0.413,997.0,260.0,0.8,325.0,79.0,79.0,NBA,2972.0,37.0,184.0,PG,1140.0,2008,96.0,CHA,213.0,236.0
24.0,553.0,30.0,256.0,0.435,442.0,383.0,0.437,876.0,59.0,0.285,207.0,0.408,1083.0,219.0,0.805,272.0,82.0,81.0,NBA,3086.0,54.0,191.0,PG,1162.0,2009,126.0,CHA,228.0,310.0
25.0,446.0,22.0,235.0,0.494,388.0,328.0,0.475,690.0,60.0,0.385,156.0,0.459,846.0,132.0,0.763,173.0,80.0,80.0,NBA,2643.0,53.0,172.0,PG,968.0,2010,123.0,CHA,168.0,288.0
26.0,625.0,11.0,221.0,0.483,427.0,311.0,0.46,676.0,116.0,0.353,329.0,0.425,1005.0,194.0,0.805,241.0,75.0,54.0,NBA,2737.0,48.0,150.0,PG-SG,1164.0,2011,125.0,TOT,221.0,269.0
26.0,488.0,11.0,154.0,0.478,339.0,251.0,0.471,533.0,88.0,0.328,268.0,0.423,801.0,157.0,0.867,181.0,54.0,54.0,NBA,2074.0,40.0,113.0,PG,923.0,2011,97.0,NYK,176.0,194.0
26.0,137.0,0.0,67.0,0.5,88.0,60.0,0.42,143.0,28.0,0.459,61.0,0.431,204.0,37.0,0.617,60.0,21.0,0.0,NBA,663.0,8.0,37.0,SG,241.0,2011,28.0,DEN,45.0,75.0
27.0,390.0,10.0,122.0,0.455,261.0,199.0,0.453,439.0,62.0,0.305,203.0,0.407,642.0,100.0,0.806,124.0,60.0,56.0,NBA,1906.0,27.0,122.0,PG,684.0,2012,78.0,POR,170.0,149.0
28.0,372.0,14.0,143.0,0.48,377.0,284.0,0.455,624.0,93.0,0.36,258.0,0.427,882.0,101.0,0.789,128.0,68.0,68.0,NBA,2313.0,51.0,130.0,PG,948.0,2013,94.0,NYK,155.0,194.0
29.0,365.0,27.0,143.0,0.446,240.0,178.0,0.431,413.0,62.0,0.318,195.0,0.395,608.0,88.0,0.721,122.0,65.0,65.0,NBA,2017.0,54.0,157.0,PG,630.0,2014,78.0,NYK,129.0,197.0
30.0,41.0,4.0,24.0,0.453,43.0,33.0,0.458,72.0,10.0,0.294,34.0,0.406,106.0,12.0,0.8,15.0,29.0,3.0,NBA,281.0,2.0,17.0,PG,108.0,2015,11.0,DAL,18.0,26.0
31.0,284.0,15.0,222.0,0.45,277.0,217.0,0.463,469.0,60.0,0.282,213.0,0.406,682.0,149.0,0.847,176.0,80.0,31.0,NBA,2192.0,36.0,141.0,PG,763.0,2016,68.0,DAL,121.0,258.0
32.0,191.0,22.0,185.0,0.475,221.0,175.0,0.473,370.0,46.0,0.319,144.0,0.43,514.0,50.0,0.781,64.0,80.0,11.0,NBA,1700.0,33.0,125.0,PG,538.0,2017,66.0,LAC,83.0,218.0
33.0,203.0,16.0,131.0,0.479,224.0,143.0,0.444,322.0,81.0,0.352,230.0,0.406,552.0,36.0,0.818,44.0,82.0,2.0,NBA,1365.0,25.0,91.0,PG,565.0,2018,49.0,OKC,76.0,156.0
34.0,52.0,6.0,30.0,0.481,55.0,35.0,0.473,74.0,20.0,0.328,61.0,0.407,135.0,12.0,0.923,13.0,33.0,0.0,NBA,379.0,4.0,29.0,PG,142.0,2019,10.0,OKC,14.0,34.0
