age,ast_per_mp,blk_per_mp,drb_per_mp,fg2_pct,fg2_per_mp,fg2a_per_mp,fg3_pct,fg3_per_mp,fg3a_per_mp,fg_pct,fg_per_mp,fga_per_mp,ft_pct,ft_per_mp,fta_per_mp,g,gs,lg_id,mp,orb_per_mp,pf_per_mp,pos,pts_per_mp,season,stl_per_mp,team_id,tov_per_mp,trb_per_mp
25.0,5.5,0.0,1.9,0.448,3.6,8.0,0.308,1.1,3.6,0.405,4.7,11.6,0.75,2.5,3.3,4.0,4.0,NBA,130.0,0.8,2.2,PG,13.0,2010,0.6,CHA,1.7,2.8
26.0,5.0,0.0,2.1,0.412,3.3,8.1,0.25,0.9,3.8,0.36,4.3,11.8,0.75,4.3,5.7,5.0,0.0,NBA,152.0,0.0,2.4,SG,13.7,2011,1.4,DEN,2.4,2.1
28.0,4.4,0.4,1.9,0.47,5.0,10.6,0.321,0.7,2.2,0.444,5.7,12.8,0.667,1.3,1.9,12.0,12.0,NBA,454.0,1.3,2.1,PG,13.4,2013,1.6,NYK,1.6,3.3
30.0,4.0,0.0,6.0,0.364,4.0,11.0,0.0,0.0,4.0,0.267,4.0,15.0,1.0,3.0,3.0,3.0,1.0,NBA,36.0,1.0,1.0,PG,11.0,2015,0.0,DAL,0.0,7.0
31.0,4.8,0.0,4.4,0.509,5.9,11.5,0.286,0.8,2.9,0.464,6.7,14.4,0.636,1.5,2.3,5.0,4.0,NBA,172.0,0.4,2.9,PG,15.7,2016,1.3,DAL,2.5,4.8
32.0,2.8,0.0,2.3,0.478,3.1,6.5,0.444,1.1,2.6,0.469,4.3,9.1,1.0,1.4,1.4,7.0,0.0,NBA,127.0,0.6,2.8,PG,11.1,2017,1.7,LAC,0.9,2.8
33.0,4.1,0.9,5.0,0.294,2.3,7.7,0.5,3.2,6.4,0.387,5.5,14.1,0.0,0.0,0.9,6.0,0.0,NBA,79.0,0.9,3.2,PG,14.1,2018,1.8,OKC,2.3,5.9
34.0,1.9,0.6,1.9,0.4,1.3,3.2,0.25,1.3,5.1,0.308,2.5,8.2,0.5,0.6,1.3,5.0,0.0,NBA,57.0,0.0,4.4,PG,6.9,2019,2.5,OKC,1.3,1.9
