lg_id,salary,season,team_name
NBA,2847360.0,2006,Charlotte Bobcats
NBA,3060840.0,2007,Charlotte Bobcats
NBA,3274440.0,2008,Charlotte Bobcats
NBA,4148716.0,2009,Charlotte Bobcats
NBA,5501196.0,2010,Charlotte Bobcats
NBA,7500000.0,2011,Denver Nuggets
NBA,7560000.0,2012,Portland Trail Blazers
NBA,3480453.0,2013,New York Knicks
NBA,3637073.0,2014,New York Knicks
NBA,3793693.0,2015,Dallas Mavericks
NBA,3950313.0,2016,Dallas Mavericks
NBA,1551659.0,2017,Los Angeles Clippers
NBA,1471382.0,2018,Oklahoma City Thunder
NBA,2393887.0,2019,Oklahoma City Thunder
