age,ast,blk,drb,efg_pct,fg,fg2,fg2_pct,fg2a,fg3,fg3_pct,fg3a,fg_pct,fga,ft,ft_pct,fta,g,gs,lg_id,mp,orb,pf,pos,pts,season,stl,team_id,tov,trb
26.0,71.0,2.0,53.0,0.538,92.0,37.0,0.446,83.0,55.0,0.396,139.0,0.414,222.0,28.0,0.903,31.0,53.0,0.0,NBA,851.0,10.0,57.0,PG,267.0,2001,22.0,LAL,34.0,63.0
27.0,2.0,0.0,2.0,0.5,1.0,1.0,0.5,2.0,0.0,0.0,0.0,0.5,2.0,3.0,0.75,4.0,3.0,0.0,NBA,12.0,0.0,0.0,PG,5.0,2002,2.0,LAL,0.0,2.0
