age,ast,blk,drb,efg_pct,fg,fg2,fg2_pct,fg2a,fg3,fg3_pct,fg3a,fg_pct,fga,ft,ft_pct,fta,g,gs,lg_id,mp,orb,pf,pos,pts,season,stl,team_id,tov,trb
35.0,35.0,1.0,15.0,0.547,17.0,4.0,0.308,13.0,13.0,0.433,30.0,0.395,43.0,2.0,0.5,4.0,11.0,10.0,NBA,230.0,2.0,21.0,PG,49.0,2013,14.0,NYK,6.0,17.0
37.0,39.0,0.0,13.0,0.439,19.0,7.0,0.438,16.0,12.0,0.293,41.0,0.333,57.0,3.0,0.75,4.0,17.0,0.0,NBA,293.0,6.0,40.0,PG,53.0,2015,15.0,HOU,12.0,19.0
38.0,7.0,0.0,1.0,0.0,0.0,0.0,0.0,3.0,0.0,0.0,2.0,0.0,5.0,0.0,0.0,0.0,5.0,0.0,NBA,26.0,2.0,8.0,PG,0.0,2016,0.0,LAC,3.0,3.0
