age,ast,blk,drb,fg,fg2,fg2a,fg3,fg3a,fga,ft,fta,game_score,lg_id,mp,orb,pf,pts,season,stl,team_id,tov,trb
22.0,1.0,0.0,1.0,6.0,5.0,10.0,1.0,1.0,11.0,0.0,0.0,9.5,NBA,0.0,0.0,3.0,13.0,1995,2.0,POR,0.0,1.0
23.0,4.0,2.0,7.0,5.0,5.0,8.0,1.0,3.0,10.0,7.0,9.0,12.1,NBA,0.0,3.0,4.0,16.0,1996,2.0,POR,5.0,10.0
24.0,3.0,1.0,3.0,3.0,2.0,4.0,1.0,2.0,5.0,0.0,0.0,8.3,NBA,0.0,1.0,3.0,7.0,1997,2.0,TOT,2.0,3.0
24.0,3.0,1.0,3.0,3.0,2.0,4.0,1.0,2.0,5.0,0.0,0.0,8.3,NBA,0.0,1.0,3.0,7.0,1997,2.0,DET,2.0,3.0
26.0,5.0,0.0,3.0,4.0,4.0,8.0,0.0,1.0,8.0,3.0,3.0,10.4,NBA,0.0,2.0,5.0,11.0,1999,2.0,PHI,1.0,5.0
27.0,11.0,1.0,9.0,9.0,7.0,11.0,4.0,7.0,16.0,7.0,8.0,25.2,NBA,0.0,2.0,5.0,25.0,2000,2.0,PHI,5.0,10.0
28.0,13.0,2.0,8.0,9.0,8.0,15.0,4.0,6.0,20.0,9.0,9.0,21.8,NBA,0.0,4.0,5.0,23.0,2001,4.0,PHI,5.0,8.0
29.0,4.0,0.0,6.0,5.0,4.0,8.0,2.0,5.0,11.0,4.0,4.0,10.9,NBA,0.0,1.0,4.0,16.0,2002,5.0,PHI,3.0,6.0
30.0,4.0,1.0,6.0,6.0,6.0,9.0,2.0,3.0,11.0,3.0,4.0,13.2,NBA,0.0,1.0,5.0,12.0,2003,3.0,PHI,3.0,6.0
32.0,2.0,0.0,3.0,2.0,1.0,2.0,1.0,2.0,4.0,0.0,0.0,5.2,NBA,0.0,1.0,5.0,5.0,2005,2.0,PHI,1.0,4.0
33.0,0.0,0.0,0.0,0.0,0.0,0.0,0.0,0.0,0.0,0.0,0.0,0.0,NBA,9.0,0.0,0.0,0.0,2006,0.0,LAL,0.0,0.0
