age,ast,blk,fg,fg3,fg3_pct,fg3a,fg_pct,fga,ft,ft_pct,fta,g,gs,lg_id,mp,orb,pf,pos,pts,season,stl,team_id,tov,trb
24.0,4.0,0.0,3.0,0.0,0.0,0.0,0.6,5.0,0.0,0.0,0.0,1.0,0.0,NBA,13,0.0,0.0,SG,6.0,1986,1.0,WSB,0.0,1.0
25.0,2.0,0.0,3.0,0.0,0.0,1.0,0.6,5.0,0.0,0.0,0.0,1.0,0.0,NBA,14,1.0,1.0,SG,6.0,1987,0.0,WSB,1.0,2.0
