age,ast_per_poss,blk_per_poss,def_rtg,drb_per_poss,fg2_pct,fg2_per_poss,fg2a_per_poss,fg3_pct,fg3_per_poss,fg3a_per_poss,fg_pct,fg_per_poss,fga_per_poss,ft_pct,ft_per_poss,fta_per_poss,g,gs,lg_id,mp,off_rtg,orb_per_poss,pf_per_poss,pos,pts_per_poss,season,stl_per_poss,team_id,tov_per_poss,trb_per_poss
25.0,14.7,0.0,114.0,1.6,0.429,4.9,11.4,0.25,3.3,13.1,0.333,8.2,24.5,1.0,1.6,1.6,8.0,0.0,NBA,32.0,108.0,0.0,3.3,SG,21.2,2007,1.6,SEA,1.6,1.6
27.0,2.0,0.0,109.0,6.0,0.5,1.0,2.0,0.25,3.0,12.1,0.286,4.0,14.1,1.0,2.0,2.0,3.0,0.0,NBA,54.0,74.0,0.0,6.0,SG,13.1,2009,0.0,SAS,4.0,6.0
