age,ast,blk,drb,fg,fg2,fg2a,fg3,fg3a,fga,ft,fta,game_score,lg_id,mp,orb,pf,pts,season,stl,team_id,tov,trb
25.0,4.0,0.0,1.0,3.0,2.0,3.0,1.0,3.0,4.0,1.0,1.0,6.0,NBA,12,0.0,1.0,8.0,2007,1.0,SEA,1.0,1.0
27.0,2.0,0.0,5.0,2.0,1.0,2.0,1.0,7.0,9.0,2.0,2.0,1.5,NBA,29,0.0,4.0,5.0,2009,0.0,SAS,2.0,5.0
