age,ast,blk,drb,fg,fg2,fg2a,fg3,fg3a,fga,ft,fta,game_score,lg_id,mp,orb,pf,pts,season,stl,team_id,tov,trb
25.0,0.0,0.0,0.0,3.0,1.0,2.0,2.0,2.0,4.0,0.0,0.0,8.1,NBA,5,1.0,0.0,8.0,2009,2.0,TOT,1.0,1.0
25.0,0.0,0.0,0.0,3.0,1.0,2.0,2.0,2.0,4.0,0.0,0.0,8.1,NBA,5,1.0,0.0,8.0,2009,2.0,CHI,1.0,1.0
