age,ast_per_g,blk_per_g,drb_per_g,efg_pct,fg2_pct,fg2_per_g,fg2a_per_g,fg3_pct,fg3_per_g,fg3a_per_g,fg_pct,fg_per_g,fga_per_g,ft_pct,ft_per_g,fta_per_g,g,gs,lg_id,mp_per_g,orb_per_g,pf_per_g,pos,pts_per_g,season,stl_per_g,team_id,tov_per_g,trb_per_g
22.0,0.3,0.0,0.4,0.532,0.429,0.6,1.3,0.5,0.3,0.6,0.452,0.9,1.9,1.0,0.1,0.1,16.0,0.0,NBA,5.5,0.0,0.4,PG,2.2,2006,0.1,MEM,0.2,0.4
23.0,0.5,0.0,1.0,0.524,0.469,1.2,2.5,0.382,1.1,2.8,0.423,2.2,5.2,0.667,0.1,0.2,20.0,1.0,NBA,11.4,0.1,1.4,PG,5.6,2007,0.6,GSW,0.7,1.1
25.0,0.7,0.0,0.6,0.475,0.462,0.6,1.3,0.321,0.9,2.8,0.367,1.5,4.1,1.0,0.2,0.2,29.0,0.0,NBA,9.5,0.2,0.6,PG,4.1,2009,0.3,TOT,0.3,0.8
25.0,0.8,0.0,0.5,0.495,0.469,0.7,1.4,0.338,1.0,3.1,0.379,1.7,4.5,1.0,0.2,0.2,23.0,0.0,NBA,11.0,0.2,0.8,PG,4.7,2009,0.4,NYK,0.3,0.7
25.0,0.2,0.0,0.8,0.353,0.429,0.5,1.2,0.2,0.3,1.7,0.294,0.8,2.8,0.0,0.0,0.0,6.0,0.0,NBA,3.8,0.3,0.0,PG,2.0,2009,0.0,CHI,0.2,1.2
