age,ast_per_g,blk_per_g,drb_per_g,efg_pct,fg2_pct,fg2_per_g,fg2a_per_g,fg3_pct,fg3_per_g,fg3a_per_g,fg_pct,fg_per_g,fga_per_g,ft_pct,ft_per_g,fta_per_g,g,gs,lg_id,mp_per_g,orb_per_g,pf_per_g,pos,pts_per_g,season,stl_per_g,team_id,tov_per_g,trb_per_g
23.0,2.7,0.1,1.4,0.458,0.458,3.3,7.2,0.311,0.2,0.6,0.446,3.5,7.8,0.814,1.3,1.6,74.0,59.0,NBA,23.8,0.4,1.9,SG,8.4,1985,0.8,PHO,1.7,1.8
24.0,2.0,0.0,0.8,0.443,0.466,2.7,5.8,0.083,0.0,0.4,0.44,2.8,6.3,0.636,1.0,1.6,28.0,0.0,NBA,18.3,0.4,1.7,PG-SG,6.5,1986,0.9,TOT,1.0,1.2
24.0,1.8,0.0,0.5,0.2,0.222,1.0,4.5,0.0,0.0,0.5,0.2,1.0,5.0,0.667,1.0,1.5,4.0,0.0,NBA,16.3,0.3,1.8,SG,3.0,1986,0.5,PHO,1.0,0.8
24.0,2.0,0.0,0.8,0.474,0.497,3.0,6.0,0.1,0.0,0.4,0.471,3.0,6.5,0.632,1.0,1.6,24.0,0.0,NBA,18.6,0.4,1.7,PG,7.1,1986,1.0,CHI,1.0,1.3
25.0,1.3,0.0,0.5,0.43,0.426,1.1,2.6,0.304,0.1,0.4,0.409,1.2,2.9,0.8,0.8,0.9,58.0,1.0,NBA,8.3,0.2,0.9,PG,3.3,1987,0.3,POR,0.7,0.7
26.0,2.6,0.1,1.2,0.466,0.473,2.0,4.1,0.2,0.0,0.2,0.462,2.0,4.3,0.829,1.3,1.6,82.0,2.0,NBA,15.6,0.6,1.9,PG,5.3,1988,0.5,POR,1.0,1.8
27.0,6.3,0.2,1.1,0.43,0.433,3.2,7.3,0.214,0.0,0.2,0.427,3.2,7.5,0.839,1.8,2.1,67.0,60.0,NBA,25.3,0.4,2.5,PG,8.3,1989,1.0,CHH,1.8,1.6
28.0,1.0,0.0,0.1,0.538,0.538,0.9,1.6,0.0,0.0,0.0,0.538,0.9,1.6,0.5,0.1,0.1,16.0,0.0,NBA,6.8,0.1,1.2,PG,1.8,1990,0.1,CHH,0.8,0.1
