age,ast,blk,drb,fg,fg2,fg2a,fg3,fg3a,fga,ft,fta,game_score,lg_id,mp,orb,pf,pts,season,stl,team_id,tov,trb
23.0,5.0,0.0,2.0,5.0,5.0,7.0,0.0,2.0,7.0,4.0,4.0,6.4,NBA,0.0,0.0,4.0,10.0,1985,0.0,PHO,2.0,2.0
25.0,0.0,0.0,1.0,1.0,1.0,1.0,0.0,0.0,1.0,0.0,0.0,1.6,NBA,0.0,0.0,1.0,2.0,1987,0.0,POR,0.0,1.0
26.0,3.0,0.0,2.0,2.0,2.0,5.0,0.0,1.0,5.0,0.0,0.0,2.9,NBA,0.0,1.0,3.0,4.0,1988,1.0,POR,1.0,3.0
