article_url,date,headline
https://section215.com/2019/11/01/philadelphia-76ers-embiid-towns-rivals/,2019/11/01,Section 215: Philadelphia 76ers: Joel Embiid and Karl-Anthony Towns can't be rivals
https://pippenainteasy.com/2019/10/25/chicago-bulls-5-best-wing-options-amid-chandler-hutchison-injury/,2019/10/25,Pippen Ain't Easy: Chicago Bulls: 5 best wing options amid Chandler Hutchison injury
https://sircharlesincharge.com/2019/10/24/new-orleans-pelicans-jahlil-okafor-bounce-back/,2019/10/24,Sir Charles In Charge: New Orleans Pelicans: Why Jahlil Okafor's career has been disappointing
https://kingjamesgospel.com/2019/10/20/cleveland-cavaliers-predicting-top-three-cutters-2019-20-season/,2019/10/20,Right Down Euclid: Cleveland Cavaliers: Predicting the top three cutters in 2019-20
