age,ast_pct,blk_pct,bpm,bpm-dum,dbpm,drb_pct,dws,fg3a_per_fga_pct,fta_per_fga_pct,g,lg_id,mp,obpm,orb_pct,ows,per,pos,season,stl_pct,team_id,tov_pct,trb_pct,ts_pct,usg_pct,vorp,ws,ws-dum,ws_per_48
22.0,7.6,0.9,-0.1,0.0,0.2,16.0,1.5,0.525,0.251,63.0,NBA,1461.0,-0.3,3.1,1.9,12.2,SG,2018,1.5,LAL,10.1,9.6,0.596,13.5,0.7,3.4,0.0,0.111
23.0,7.0,1.9,-0.7,0.0,1.1,12.6,1.9,0.591,0.172,67.0,NBA,1715.0,-1.8,2.2,0.2,9.3,SG,2019,1.7,LAL,10.4,7.5,0.526,13.5,0.6,2.1,0.0,0.059
24.0,6.8,1.3,0.6,0.0,-0.7,20.5,0.2,0.613,0.237,10.0,NBA,277.0,1.3,4.7,0.5,15.5,SF,2020,2.3,NOP,12.0,12.4,0.614,16.7,0.2,0.6,0.0,0.107
