age,ast,blk,drb,fg,fg2,fg2a,fg3,fg3a,fga,ft,fta,game_score,lg_id,mp,orb,pf,pts,season,stl,team_id,tov,trb
22.0,5.0,2.0,11.0,10.0,8.0,10.0,7.0,9.0,18.0,5.0,8.0,26.7,NBA,42,4.0,6.0,30.0,2018,3.0,LAL,3.0,14.0
23.0,6.0,3.0,14.0,8.0,5.0,8.0,5.0,9.0,16.0,6.0,6.0,18.9,NBA,44,3.0,6.0,22.0,2019,5.0,LAL,3.0,15.0
24.0,4.0,1.0,12.0,8.0,4.0,6.0,5.0,12.0,17.0,5.0,8.0,17.2,NBA,34,4.0,5.0,23.0,2020,4.0,NOP,3.0,15.0
