age,ast_per_poss,blk_per_poss,def_rtg,drb_per_poss,fg2_pct,fg2_per_poss,fg2a_per_poss,fg3_pct,fg3_per_poss,fg3a_per_poss,fg_pct,fg_per_poss,fga_per_poss,ft_pct,ft_per_poss,fta_per_poss,g,gs,lg_id,mp,off_rtg,orb_per_poss,pf_per_poss,pos,pts_per_poss,season,stl_per_poss,team_id,tov_per_poss,trb_per_poss
22.0,1.2,0.0,114.0,4.8,0.4,4.8,11.9,0.111,1.2,10.7,0.263,6.0,22.6,0.75,3.6,4.8,12.0,0.0,NBA,42.0,63.0,0.0,1.2,SG,16.7,2016,0.0,POR,4.8,4.8
24.0,0.0,0.0,109.0,12.5,0.0,0.0,6.2,0.0,0.0,0.0,0.0,0.0,6.2,0.0,0.0,0.0,2.0,0.0,NBA,8.0,0.0,0.0,0.0,SG,0.0,2018,0.0,DET,12.5,12.5
