age,ast,blk,drb,efg_pct,fg,fg2,fg2_pct,fg2a,fg3,fg3_pct,fg3a,fg_pct,fga,ft,ft_pct,fta,g,gs,lg_id,mp,orb,pf,pos,pts,season,stl,team_id,tov,trb
21.0,11.0,0.0,10.0,0.32,7.0,5.0,0.357,14.0,2.0,0.182,11.0,0.28,25.0,11.0,0.917,12.0,17.0,0.0,NBA,74.0,0.0,5.0,SG-PG,27.0,2008,2.0,TOT,9.0,10.0
21.0,8.0,0.0,4.0,0.281,4.0,3.0,0.375,8.0,1.0,0.125,8.0,0.25,16.0,8.0,1.0,8.0,8.0,0.0,NBA,44.0,0.0,3.0,PG,17.0,2008,1.0,POR,7.0,4.0
21.0,3.0,0.0,6.0,0.389,3.0,2.0,0.333,6.0,1.0,0.333,3.0,0.333,9.0,3.0,0.75,4.0,9.0,0.0,NBA,30.0,0.0,2.0,SG,10.0,2008,1.0,DEN,2.0,6.0
