age,ast,blk,drb,fg,fg2,fg2a,fg3,fg3a,fga,ft,fta,game_score,lg_id,mp,orb,pf,pts,season,stl,team_id,tov,trb
25.0,1.0,3.0,5.0,2.0,2.0,8.0,0.0,0.0,8.0,6.0,8.0,7.9,NBA,41,8.0,4.0,8.0,2011,1.0,TOT,2.0,13.0
25.0,1.0,3.0,5.0,2.0,2.0,8.0,0.0,0.0,8.0,6.0,8.0,7.9,NBA,41,8.0,4.0,8.0,2011,1.0,POR,2.0,13.0
25.0,1.0,3.0,1.0,2.0,2.0,3.0,0.0,0.0,3.0,2.0,2.0,4.9,NBA,17,1.0,3.0,6.0,2011,0.0,BOS,1.0,2.0
26.0,1.0,2.0,4.0,4.0,4.0,7.0,0.0,0.0,7.0,4.0,5.0,8.4,NBA,27,4.0,4.0,11.0,2012,4.0,TOT,2.0,8.0
26.0,1.0,2.0,2.0,2.0,2.0,3.0,0.0,0.0,3.0,4.0,4.0,5.3,NBA,10,3.0,3.0,4.0,2012,1.0,POR,2.0,3.0
26.0,1.0,1.0,4.0,4.0,4.0,7.0,0.0,0.0,7.0,3.0,5.0,8.4,NBA,27,4.0,4.0,11.0,2012,4.0,NOH,2.0,8.0
27.0,2.0,6.0,7.0,6.0,6.0,10.0,0.0,0.0,10.0,7.0,8.0,15.5,NBA,25,3.0,5.0,15.0,2013,1.0,MIN,4.0,8.0
