age,ast_pct,blk_pct,bpm,bpm-dum,dbpm,drb_pct,dws,fg3a_per_fga_pct,fta_per_fga_pct,g,lg_id,mp,obpm,orb_pct,ows,per,pos,season,stl_pct,team_id,tov_pct,trb_pct,ts_pct,usg_pct,vorp,ws,ws-dum,ws_per_48
23.0,9.6,0.9,-1.0,0.0,-0.2,17.8,0.6,0.038,0.576,46.0,NBA,527.0,-0.8,14.1,0.6,14.7,PF,1995,1.9,LAL,18.7,15.9,0.571,16.6,0.1,1.2,0.0,0.111
24.0,4.7,0.6,-6.2,0.0,-1.5,13.0,0.1,0.057,0.286,27.0,NBA,123.0,-4.7,10.6,-0.1,7.8,PF,1996,1.7,LAL,16.9,11.8,0.457,17.3,-0.1,0.0,0.0,0.014
25.0,0.0,0.0,-26.2,0.0,-7.7,41.7,0.0,0.0,0.0,1.0,NBA,14.0,-18.5,17.4,-0.1,-4.6,PF,1997,0.0,ATL,0.0,29.8,0.0,16.9,-0.1,-0.1,0.0,-0.195
26.0,2.2,0.9,-1.4,0.0,-0.6,19.9,0.4,0.0,0.75,37.0,NBA,228.0,-0.8,16.1,0.3,16.4,PF,1998,3.6,ATL,16.8,18.1,0.571,16.9,0.0,0.8,0.0,0.159
27.0,4.6,1.4,-2.9,0.0,-0.9,18.0,0.3,0.017,0.367,29.0,NBA,249.0,-2.0,13.1,0.3,13.1,PF,1999,1.5,HOU,11.4,15.7,0.502,14.9,-0.1,0.6,0.0,0.118
28.0,5.2,1.4,-2.3,0.0,-0.1,26.5,0.6,0.0,0.526,35.0,NBA,476.0,-2.2,11.8,0.6,13.5,PF,2000,1.2,HOU,13.7,19.3,0.544,12.8,0.0,1.2,0.0,0.12
29.0,0.0,0.0,-14.1,0.0,-3.4,20.4,0.0,0.0,0.0,4.0,NBA,11.0,-10.7,0.0,0.0,0.9,PF,2001,0.0,TOT,33.3,10.1,0.5,12.2,0.0,0.0,0.0,-0.082
29.0,0.0,0.0,-21.5,0.0,-6.5,37.4,0.0,0.0,0.0,2.0,NBA,6.0,-15.0,0.0,0.0,4.7,PF,2001,0.0,ATL,33.3,18.6,0.5,22.3,0.0,0.0,0.0,-0.15
29.0,0.0,0.0,-5.5,0.0,-0.1,0.0,0.0,0.0,0.0,1.0,NBA,3.0,-5.4,0.0,0.0,-6.2,PF,2001,0.0,HOU,0.0,0.0,0.0,0.0,0.0,0.0,0.0,-0.007
29.0,0.0,0.0,-4.9,0.0,0.9,0.0,0.0,0.0,0.0,1.0,NBA,2.0,-5.8,0.0,0.0,0.0,PF,2001,0.0,PHI,0.0,0.0,0.0,0.0,0.0,0.0,0.0,0.012
33.0,21.4,0.0,-0.8,0.0,0.4,13.6,0.0,0.0,0.0,2.0,NBA,9.0,-1.3,0.0,0.0,16.9,PF,2005,5.8,ATL,25.0,6.5,0.667,19.9,0.0,0.0,0.0,0.091
