age,ast_per_mp,blk_per_mp,drb_per_mp,fg2_pct,fg2_per_mp,fg2a_per_mp,fg3_pct,fg3_per_mp,fg3a_per_mp,fg_pct,fg_per_mp,fga_per_mp,ft_pct,ft_per_mp,fta_per_mp,g,gs,lg_id,mp,orb_per_mp,pf_per_mp,pos,pts_per_mp,season,stl_per_mp,team_id,tov_per_mp,trb_per_mp
23.0,2.4,0.5,5.8,0.535,4.6,8.7,0.4,0.1,0.3,0.53,4.8,9.0,0.618,3.2,5.2,46.0,1.0,NBA,527.0,4.6,5.3,PF,12.9,1995,1.4,LAL,2.6,10.4
24.0,1.2,0.3,4.1,0.455,4.4,9.7,0.0,0.0,0.6,0.429,4.4,10.2,0.6,1.8,2.9,27.0,0.0,NBA,123.0,3.2,5.6,PF,10.5,1996,1.2,LAL,2.3,7.3
25.0,0.0,0.0,12.9,0.0,0.0,12.9,0.0,0.0,0.0,0.0,0.0,12.9,0.0,0.0,0.0,1.0,0.0,NBA,14.0,5.1,5.1,PF,0.0,1997,0.0,ATL,0.0,18.0
26.0,0.5,0.5,6.3,0.558,4.6,8.2,0.0,0.0,0.0,0.558,4.6,8.2,0.538,3.3,6.2,37.0,0.0,NBA,228.0,4.7,6.5,PF,12.5,1998,2.4,ATL,2.2,11.1
27.0,1.0,0.7,5.9,0.475,4.0,8.5,0.0,0.0,0.1,0.467,4.0,8.7,0.636,2.0,3.2,29.0,0.0,NBA,249.0,3.8,4.9,PF,10.1,1999,1.0,HOU,1.3,9.7
28.0,1.2,0.8,8.7,0.536,3.9,7.3,0.0,0.0,0.0,0.536,3.9,7.3,0.51,2.0,3.9,35.0,14.0,NBA,476.0,3.7,5.1,PF,9.8,2000,0.8,HOU,1.4,12.4
29.0,0.0,0.0,6.5,0.5,3.3,6.5,0.0,0.0,0.0,0.5,3.3,6.5,0.0,0.0,0.0,4.0,0.0,NBA,11.0,0.0,3.3,PF,6.5,2001,0.0,TOT,3.3,6.5
29.0,0.0,0.0,12.0,0.5,6.0,12.0,0.0,0.0,0.0,0.5,6.0,12.0,0.0,0.0,0.0,2.0,0.0,NBA,6.0,0.0,0.0,PF,12.0,2001,0.0,ATL,6.0,12.0
29.0,0.0,0.0,0.0,0.0,0.0,0.0,0.0,0.0,0.0,0.0,0.0,0.0,0.0,0.0,0.0,1.0,0.0,NBA,3.0,0.0,12.0,PF,0.0,2001,0.0,HOU,0.0,0.0
29.0,0.0,0.0,0.0,0.0,0.0,0.0,0.0,0.0,0.0,0.0,0.0,0.0,0.0,0.0,0.0,1.0,0.0,NBA,2.0,0.0,0.0,PF,0.0,2001,0.0,PHI,0.0,0.0
33.0,4.0,0.0,4.0,0.667,8.0,12.0,0.0,0.0,0.0,0.667,8.0,12.0,0.0,0.0,0.0,2.0,0.0,NBA,9.0,0.0,8.0,PF,16.0,2005,4.0,ATL,4.0,4.0
