age,ast,blk,drb,fg,fg2,fg2a,fg3,fg3a,fga,ft,fta,game_score,lg_id,mp,orb,pf,pts,season,stl,team_id,tov,trb
23.0,1.0,0.0,3.0,0.0,0.0,2.0,0.0,0.0,2.0,0.0,0.0,1.5,NBA,0.0,1.0,2.0,0.0,1995,1.0,LAL,1.0,4.0
26.0,1.0,1.0,2.0,2.0,2.0,5.0,0.0,0.0,5.0,2.0,2.0,3.3,NBA,0.0,3.0,2.0,4.0,1998,1.0,ATL,2.0,4.0
