age,ast,blk,drb,efg_pct,fg,fg2,fg2_pct,fg2a,fg3,fg3_pct,fg3a,fg_pct,fga,ft,ft_pct,fta,g,gs,lg_id,mp,orb,pf,pos,pts,season,stl,team_id,tov,trb
28.0,24.0,7.0,43.0,0.448,73.0,73.0,0.453,161.0,0.0,0.0,2.0,0.448,163.0,41.0,0.759,54.0,20.0,1.0,NBA,422.0,38.0,64.0,SF,187.0,1993,17.0,TOT,26.0,81.0
28.0,0.0,0.0,1.0,0.0,0.0,0.0,0.0,3.0,0.0,0.0,0.0,0.0,3.0,0.0,0.0,0.0,3.0,0.0,NBA,15.0,0.0,3.0,SF,0.0,1993,2.0,ATL,2.0,1.0
28.0,24.0,7.0,42.0,0.456,73.0,73.0,0.462,158.0,0.0,0.0,2.0,0.456,160.0,41.0,0.759,54.0,17.0,1.0,NBA,407.0,38.0,61.0,SF,187.0,1993,15.0,GSW,24.0,80.0
29.0,22.0,7.0,43.0,0.441,52.0,52.0,0.441,118.0,0.0,0.0,0.0,0.441,118.0,55.0,0.714,77.0,28.0,1.0,NBA,349.0,30.0,43.0,SF,159.0,1994,19.0,TOT,21.0,73.0
29.0,3.0,2.0,8.0,0.5,9.0,9.0,0.5,18.0,0.0,0.0,0.0,0.5,18.0,3.0,0.75,4.0,5.0,1.0,NBA,63.0,4.0,6.0,SF,21.0,1994,1.0,GSW,2.0,12.0
29.0,19.0,5.0,35.0,0.43,43.0,43.0,0.43,100.0,0.0,0.0,0.0,0.43,100.0,52.0,0.712,73.0,23.0,0.0,NBA,286.0,26.0,37.0,SF,138.0,1994,18.0,SAC,19.0,61.0
