age,ast_per_poss,blk_per_poss,def_rtg,drb_per_poss,fg2_pct,fg2_per_poss,fg2a_per_poss,fg3_pct,fg3_per_poss,fg3a_per_poss,fg_pct,fg_per_poss,fga_per_poss,ft_pct,ft_per_poss,fta_per_poss,g,gs,lg_id,mp,off_rtg,orb_per_poss,pf_per_poss,pos,pts_per_poss,season,stl_per_poss,team_id,tov_per_poss,trb_per_poss
23.0,0.0,0.0,120.0,0.0,0.0,0.0,0.0,0.0,0.0,0.0,0.0,0.0,0.0,0.0,0.0,0.0,1.0,0.0,NBA,1.0,0.0,0.0,0.0,PF,0.0,1991,0.0,SAS,0.0,0.0
35.0,1.5,3.1,114.0,10.8,0.476,7.7,16.1,0.0,0.0,0.0,0.476,7.7,16.1,0.556,3.8,6.9,5.0,0.0,NBA,70.0,97.0,5.4,6.9,C,19.2,2003,0.0,UTA,3.8,16.1
37.0,0.0,0.0,104.0,13.7,0.167,2.0,11.8,0.0,0.0,0.0,0.167,2.0,11.8,0.5,2.0,3.9,9.0,0.0,NBA,28.0,84.0,7.9,3.9,PF,5.9,2005,0.0,SAS,0.0,21.6
