age,ast,blk,drb,fg,fg2,fg2a,fg3,fg3a,fga,ft,fta,game_score,lg_id,mp,orb,pf,pts,season,stl,team_id,tov,trb
20.0,1.0,3.0,6.0,4.0,4.0,6.0,0.0,0.0,6.0,2.0,4.0,9.8,NBA,20,3.0,5.0,10.0,2015,1.0,HOU,2.0,9.0
21.0,4.0,4.0,12.0,7.0,7.0,14.0,0.0,1.0,14.0,5.0,10.0,18.7,NBA,37,7.0,6.0,18.0,2016,4.0,HOU,5.0,17.0
22.0,5.0,5.0,10.0,11.0,11.0,19.0,0.0,0.0,19.0,8.0,10.0,23.9,NBA,36,7.0,6.0,24.0,2017,3.0,HOU,4.0,14.0
23.0,3.0,6.0,18.0,13.0,13.0,16.0,0.0,1.0,16.0,6.0,11.0,27.9,NBA,36,8.0,6.0,28.0,2018,4.0,HOU,6.0,25.0
24.0,5.0,5.0,15.0,14.0,14.0,21.0,0.0,0.0,21.0,10.0,12.0,32.4,NBA,46,12.0,6.0,31.0,2019,4.0,HOU,5.0,23.0
25.0,3.0,6.0,12.0,9.0,9.0,14.0,0.0,0.0,14.0,3.0,7.0,23.6,NBA,36,6.0,5.0,21.0,2020,2.0,HOU,5.0,16.0
