age,ast,blk,fg,fg3,fg3_pct,fg3a,fg_pct,fga,ft,ft_pct,fta,g,gs,lg_id,mp,orb,pf,pos,pts,season,stl,team_id,tov,trb
25.0,1.0,0.0,1.0,0.0,0.0,0.0,0.333,3.0,1.0,1.0,1.0,1.0,0.0,NBA,11,1.0,0.0,C,3.0,2012,0.0,IND,0.0,3.0
27.0,2.0,0.0,4.0,0.0,0.0,1.0,0.8,5.0,0.0,0.0,0.0,1.0,0.0,NBA,13,1.0,0.0,C,8.0,2014,0.0,IND,1.0,5.0
