age,ast_per_poss,blk_per_poss,def_rtg,drb_per_poss,fg2_pct,fg2_per_poss,fg2a_per_poss,fg3_pct,fg3_per_poss,fg3a_per_poss,fg_pct,fg_per_poss,fga_per_poss,ft_pct,ft_per_poss,fta_per_poss,g,gs,lg_id,mp,off_rtg,orb_per_poss,pf_per_poss,pos,pts_per_poss,season,stl_per_poss,team_id,tov_per_poss,trb_per_poss
23.0,4.3,2.6,101.0,9.2,0.548,4.9,8.9,0.0,0.0,0.3,0.531,4.9,9.2,0.5,2.0,4.0,17.0,0.0,NBA,173.0,119.0,4.3,5.2,C,11.8,2018,1.7,GSW,1.7,13.5
24.0,5.1,3.2,109.0,5.5,0.548,7.8,14.3,0.0,0.0,0.0,0.548,7.8,14.3,0.7,3.2,4.6,15.0,2.0,NBA,106.0,129.0,3.2,6.0,C,18.9,2019,1.8,GSW,0.9,8.8
