article_url,date,headline
https://spacecityscoop.com/2019/09/21/houston-rockets-nene-nba-voided-deals/,2019/09/21,Space City Scoop: Houston Rockets Nene ordeal: 4 times the NBA voided deals
https://lastwordonprobasketball.com/2019/07/08/oklahoma-city-thunder-are-trading-jerami-grant-to-denver-nuggets/,2019/07/08,Last Word on Sports: Oklahoma City Thunder Trade Jerami Grant to the Denver Nuggets
