age,and1s,astd_pts,drawn_offensive,drawn_shooting,fouls_offensive,fouls_shooting,g,lg_id,mp,own_shots_blk,pct_1,pct_2,pct_3,pct_4,pct_5,plus_minus_net,plus_minus_on,pos,season,team_id,tov_bad_pass,tov_lost_ball
24.0,3.0,2.0,0.0,10.0,1.0,3.0,14.0,NBA,73.0,3.0,0.0,57.0,43.0,0.0,0.0,-1.3,4.4,SG,2010,UTA,3.0,1.0
25.0,2.0,46.0,9.0,19.0,2.0,8.0,17.0,NBA,322.0,11.0,0.0,74.0,26.0,0.0,0.0,5.6,4.4,SG,2011,TOT,7.0,2.0
25.0,0.0,3.0,0.0,0.0,0.0,0.0,1.0,NBA,8.0,0.0,0.0,85.0,15.0,0.0,0.0,1.2,7.7,SG,2011,SAS,1.0,0.0
25.0,2.0,43.0,9.0,19.0,2.0,8.0,16.0,NBA,314.0,11.0,0.0,74.0,26.0,0.0,0.0,13.6,4.4,SG,2011,WAS,6.0,2.0
28.0,0.0,2.0,0.0,2.0,1.0,0.0,6.0,NBA,47.0,0.0,28.0,63.0,10.0,0.0,0.0,29.4,34.5,SG,2014,TOT,0.0,0.0
28.0,0.0,2.0,0.0,1.0,0.0,0.0,4.0,NBA,34.0,0.0,0.0,87.0,13.0,0.0,0.0,28.2,36.2,SG,2014,SAS,0.0,0.0
28.0,0.0,0.0,0.0,1.0,1.0,0.0,2.0,NBA,13.0,0.0,100.0,0.0,0.0,0.0,0.0,27.4,29.9,SG,2014,MIN,0.0,0.0
