age,ast_per_poss,blk_per_poss,def_rtg,drb_per_poss,fg2_pct,fg2_per_poss,fg2a_per_poss,fg3_pct,fg3_per_poss,fg3a_per_poss,fg_pct,fg_per_poss,fga_per_poss,ft_pct,ft_per_poss,fta_per_poss,g,gs,lg_id,mp,off_rtg,orb_per_poss,pf_per_poss,pos,pts_per_poss,season,stl_per_poss,team_id,tov_per_poss,trb_per_poss
24.0,2.8,0.0,104.0,6.8,0.519,5.6,10.8,0.2,0.4,2.0,0.469,6.0,12.8,0.65,5.2,8.0,10.0,0.0,NBA,136.0,104.0,5.2,8.8,SF,17.6,1995,3.2,LAL,3.6,12.0
25.0,3.4,0.0,106.0,10.3,0.667,6.9,10.3,0.0,0.0,3.4,0.5,6.9,13.7,0.0,0.0,0.0,2.0,0.0,NBA,15.0,69.0,0.0,13.7,SF,13.7,1996,0.0,LAL,6.9,10.3
28.0,3.6,0.4,101.0,5.6,0.458,6.1,13.2,0.333,0.4,1.3,0.446,6.5,14.6,0.706,2.7,3.8,8.0,6.0,NBA,249.0,107.0,6.3,6.7,SF,16.2,1999,4.0,PHI,2.9,11.9
29.0,2.6,0.9,107.0,8.4,0.362,3.9,10.9,0.143,0.2,1.3,0.338,4.1,12.2,0.778,2.6,3.4,10.0,10.0,NBA,293.0,99.0,4.9,6.2,SF,11.0,2000,1.7,PHI,1.5,13.3
30.0,3.0,0.5,103.0,7.7,0.49,6.0,12.2,0.0,0.0,0.2,0.48,6.0,12.4,0.643,2.2,3.5,10.0,8.0,NBA,222.0,100.0,5.0,7.5,SF,14.2,2001,3.2,PHI,3.2,12.7
31.0,2.6,1.1,104.0,8.2,0.509,5.0,9.8,0.333,0.4,1.1,0.492,5.4,11.0,0.692,1.7,2.4,9.0,7.0,NBA,286.0,115.0,5.9,4.8,SF,12.8,2002,1.9,CHH,1.9,14.1
32.0,3.4,1.7,105.0,9.1,0.542,4.4,8.1,0.278,1.7,6.1,0.429,6.1,14.2,0.25,0.3,1.4,6.0,3.0,NBA,163.0,98.0,3.4,4.7,SG,14.2,2003,2.0,NOH,2.7,12.5
33.0,4.5,1.1,95.0,9.0,0.489,8.2,16.9,0.25,1.1,4.5,0.439,9.4,21.4,0.625,1.9,3.0,7.0,7.0,NBA,147.0,100.0,4.9,5.6,SF,21.7,2004,1.1,NOH,2.6,13.9
