age,ast_pct,blk_pct,bpm,bpm-dum,dbpm,drb_pct,dws,fg3a_per_fga_pct,fta_per_fga_pct,g,lg_id,mp,obpm,orb_pct,ows,per,pos,season,stl_pct,team_id,tov_pct,trb_pct,ts_pct,usg_pct,vorp,ws,ws-dum,ws_per_48
23.0,17.7,1.3,-1.1,0.0,0.5,13.0,0.7,0.088,0.151,67.0,NBA,913.0,-1.6,8.1,0.0,11.8,SF,1987,2.1,SAC,15.7,10.5,0.458,17.5,0.2,0.7,0.0,0.035
24.0,12.7,1.5,0.1,0.0,0.4,12.4,1.3,0.157,0.185,80.0,NBA,2029.0,-0.3,7.4,0.9,12.7,SF,1988,2.0,SAC,15.1,9.9,0.51,17.8,1.1,2.2,0.0,0.052
25.0,11.3,1.9,2.7,0.0,0.8,13.0,2.1,0.338,0.141,80.0,NBA,2257.0,1.9,10.1,2.7,15.7,PF,1989,2.0,SAC,11.8,11.5,0.529,19.1,2.7,4.8,0.0,0.102
26.0,13.5,1.3,-0.3,0.0,0.1,15.1,1.5,0.261,0.249,72.0,NBA,1603.0,-0.5,6.7,0.8,13.7,SF,1990,1.8,SAC,12.3,10.9,0.506,19.3,0.7,2.3,0.0,0.069
