age,ast_per_mp,blk_per_mp,drb_per_mp,fg2_pct,fg2_per_mp,fg2a_per_mp,fg3_pct,fg3_per_mp,fg3a_per_mp,fg_pct,fg_per_mp,fga_per_mp,ft_pct,ft_per_mp,fta_per_mp,g,gs,lg_id,mp,orb_per_mp,pf_per_mp,pos,pts_per_mp,season,stl_per_mp,team_id,tov_per_mp,trb_per_mp
21.0,3.0,0.0,0.0,0.143,3.0,21.0,0.5,3.0,6.0,0.222,6.0,27.0,0.5,3.0,6.0,4.0,0.0,NBA,12.0,0.0,6.0,SG,18.0,2012,0.0,IND,6.0,0.0
22.0,3.4,0.1,7.0,0.486,2.7,5.6,0.281,1.0,3.4,0.408,3.7,9.0,0.622,1.2,2.0,19.0,19.0,NBA,673.0,0.7,2.5,SG,9.6,2013,1.2,IND,1.9,7.7
23.0,4.1,0.2,5.5,0.497,3.9,7.8,0.358,1.2,3.4,0.455,5.1,11.2,0.714,1.8,2.5,19.0,19.0,NBA,705.0,1.2,2.8,SG,13.2,2014,0.8,IND,2.3,6.7
25.0,2.7,0.0,1.9,0.538,8.0,14.8,0.4,0.8,1.9,0.523,8.7,16.7,0.8,1.5,1.9,4.0,0.0,NBA,95.0,0.4,3.8,SF,19.7,2016,0.4,MEM,1.1,2.3
26.0,3.7,0.0,6.7,0.571,6.7,11.8,0.389,2.4,6.1,0.509,9.1,17.8,0.75,1.0,1.3,4.0,0.0,NBA,107.0,0.3,3.7,SG,21.5,2017,0.7,IND,1.3,7.1
27.0,4.8,0.2,3.9,0.564,5.3,9.4,0.308,1.9,6.3,0.462,7.2,15.7,0.556,1.2,2.2,7.0,0.0,NBA,149.0,0.7,4.8,SG,17.6,2018,0.5,IND,2.2,4.6
