age,avg_dist,fg2_dunk,fg2_pct,fg2_pct_ast,fg2a_pct_fga,fg3_heave,fg3_pct,fg3_pct_ast,fg3_pct_corner,fg3a_heave,fg3a_pct_fga,fg_pct,fg_pct_00_03,fg_pct_03_10,fg_pct_10_16,fg_pct_16_xx,g,lg_id,mp,pct_fg2_dunk,pct_fg3a_corner,pct_fga_00_03,pct_fga_03_10,pct_fga_10_16,pct_fga_16_xx,pos,season,team_id
20.0,12.7,0.0,0.382,0.077,0.872,0.0,0.0,0.0,0.0,1.0,0.128,0.333,0.385,0.333,0.5,0.385,12.0,NBA,115.0,0.0,0.2,0.333,0.154,0.051,0.333,SG,2011,IND
21.0,12.9,2.0,0.453,0.209,0.76,0.0,0.133,0.75,0.143,1.0,0.24,0.376,0.575,0.316,0.4,0.385,42.0,NBA,442.0,0.016,0.233,0.32,0.152,0.08,0.208,SG,2012,IND
22.0,12.9,20.0,0.52,0.493,0.686,0.0,0.33,0.919,0.373,3.0,0.314,0.46,0.695,0.321,0.375,0.271,78.0,NBA,2278.0,0.038,0.314,0.378,0.094,0.054,0.161,SG,2013,IND
23.0,12.2,19.0,0.545,0.328,0.72,0.0,0.352,0.791,0.489,4.0,0.28,0.491,0.693,0.432,0.299,0.387,78.0,NBA,2752.0,0.023,0.193,0.371,0.144,0.077,0.128,SG,2014,IND
24.0,13.0,2.0,0.425,0.28,0.809,0.0,0.171,0.833,0.111,2.0,0.191,0.376,0.569,0.329,0.418,0.318,61.0,NBA,1573.0,0.005,0.086,0.291,0.127,0.122,0.269,SG,2015,CHO
25.0,10.1,11.0,0.5,0.253,0.835,0.0,0.385,0.733,0.28,1.0,0.165,0.481,0.661,0.315,0.396,0.38,69.0,NBA,1372.0,0.027,0.321,0.386,0.154,0.101,0.194,SF,2016,TOT
25.0,12.3,5.0,0.529,0.27,0.717,0.0,0.404,0.789,0.333,1.0,0.283,0.494,0.705,0.308,0.357,0.355,43.0,NBA,680.0,0.036,0.447,0.367,0.078,0.084,0.187,SF,2016,LAC
25.0,8.9,6.0,0.487,0.244,0.899,0.0,0.355,0.636,0.0,0.0,0.101,0.474,0.639,0.317,0.412,0.393,26.0,NBA,692.0,0.023,0.129,0.396,0.195,0.11,0.198,SF,2016,MEM
26.0,13.1,2.0,0.48,0.396,0.833,0.0,0.3,0.667,1.0,1.0,0.167,0.45,0.733,0.438,0.222,0.417,18.0,NBA,361.0,0.017,0.1,0.25,0.133,0.15,0.3,SG,2017,TOT
26.0,12.1,2.0,0.556,0.48,0.818,0.0,0.1,0.0,1.0,1.0,0.182,0.473,0.737,0.429,0.333,0.462,6.0,NBA,162.0,0.036,0.1,0.345,0.127,0.109,0.236,SG,2017,NOP
26.0,14.2,0.0,0.526,0.4,0.905,0.0,0.0,0.0,0.0,0.0,0.095,0.476,0.75,1.0,0.0,0.667,6.0,NBA,67.0,0.0,0.0,0.19,0.048,0.238,0.429,SG,2017,MIN
26.0,14.0,0.0,0.361,0.231,0.818,0.0,0.625,0.8,1.0,0.0,0.182,0.409,0.714,0.375,0.286,0.214,6.0,NBA,132.0,0.0,0.125,0.159,0.182,0.159,0.318,SG,2017,IND
27.0,14.7,14.0,0.495,0.237,0.673,0.0,0.289,0.716,0.356,9.0,0.327,0.427,0.623,0.311,0.49,0.399,82.0,NBA,1850.0,0.025,0.194,0.292,0.086,0.072,0.223,SG,2018,IND
28.0,16.6,5.0,0.472,0.324,0.544,0.0,0.371,0.781,0.472,4.0,0.456,0.426,0.6,0.278,0.474,0.387,68.0,NBA,1123.0,0.014,0.269,0.243,0.083,0.044,0.174,SG,2019,LAL
