age,ast_per_mp,blk_per_mp,drb_per_mp,fg2_pct,fg2_per_mp,fg2a_per_mp,fg3_pct,fg3_per_mp,fg3a_per_mp,fg_pct,fg_per_mp,fga_per_mp,ft_pct,ft_per_mp,fta_per_mp,g,gs,lg_id,mp,orb_per_mp,pf_per_mp,pos,pts_per_mp,season,stl_per_mp,team_id,tov_per_mp,trb_per_mp
22.0,2.1,1.3,4.5,0.392,2.0,5.0,0.167,0.1,0.3,0.379,2.0,5.3,0.438,0.7,1.7,70.0,1.0,NBA,695.0,2.7,3.9,SG,4.8,2008,1.0,WAS,2.1,7.2
23.0,3.4,1.3,5.5,0.431,2.4,5.6,0.5,0.0,0.1,0.432,2.4,5.6,0.725,1.3,1.8,79.0,57.0,NBA,2072.0,2.0,2.7,SF,6.2,2009,1.1,WAS,1.6,7.4
24.0,1.3,0.5,6.6,0.365,2.2,6.1,0.0,0.0,0.0,0.365,2.2,6.1,0.0,0.0,0.8,51.0,2.0,NBA,307.0,2.7,4.1,SF,4.5,2010,0.6,TOT,2.0,9.3
24.0,1.2,0.5,6.6,0.375,2.3,6.0,0.0,0.0,0.0,0.375,2.3,6.0,0.0,0.0,0.7,41.0,0.0,NBA,240.0,2.5,4.8,SF,4.5,2010,0.6,WAS,1.5,9.1
24.0,1.6,0.5,6.4,0.333,2.1,6.4,0.0,0.0,0.0,0.333,2.1,6.4,0.0,0.0,1.1,10.0,2.0,NBA,67.0,3.2,1.6,SF,4.3,2010,0.5,SAC,3.8,9.7
25.0,2.0,1.6,6.4,0.4,3.4,8.5,0.0,0.0,0.1,0.396,3.4,8.6,0.769,1.4,1.8,52.0,8.0,NBA,760.0,3.0,4.5,SF,8.2,2011,0.5,CHA,1.2,9.4
26.0,3.5,1.1,5.5,0.456,3.0,6.6,0.0,0.0,0.1,0.448,3.0,6.7,0.736,1.2,1.7,64.0,6.0,NBA,1127.0,2.3,3.3,PF,7.3,2012,1.4,GSW,1.8,7.9
27.0,1.9,1.0,5.5,0.429,2.2,5.2,0.0,0.0,0.0,0.429,2.2,5.2,0.3,0.3,0.9,26.0,10.0,NBA,387.0,1.8,3.6,SF,4.7,2013,1.2,TOT,1.1,7.3
27.0,1.6,1.3,5.8,0.469,2.3,5.0,0.0,0.0,0.0,0.469,2.3,5.0,0.333,0.3,0.9,15.0,9.0,NBA,230.0,1.7,4.1,SF,5.0,2013,0.8,TOR,1.1,7.5
27.0,2.2,0.7,5.2,0.429,2.2,5.2,0.0,0.0,0.0,0.429,2.2,5.2,0.5,0.2,0.5,9.0,0.0,NBA,145.0,1.7,3.2,SF,4.7,2013,2.0,NOH,1.2,7.0
27.0,3.0,0.0,3.0,0.0,0.0,9.0,0.0,0.0,0.0,0.0,0.0,9.0,0.0,0.0,6.0,2.0,1.0,NBA,12.0,3.0,0.0,SF,0.0,2013,0.0,IND,0.0,6.0
