age,ast_pct,blk_pct,bpm,bpm-dum,dbpm,drb_pct,dws,fg3a_per_fga_pct,fta_per_fga_pct,g,lg_id,mp,obpm,orb_pct,ows,per,pos,season,stl_pct,team_id,tov_pct,trb_pct,ts_pct,usg_pct,vorp,ws,ws-dum,ws_per_48
25.0,8.8,0.6,-8.1,0.0,0.3,8.7,0.1,0.031,0.125,7.0,NBA,104.0,-8.4,4.5,-0.4,0.6,SG,1990,2.8,LAC,17.2,6.6,0.267,16.4,-0.2,-0.3,0.0,-0.121
27.0,0.0,0.0,-33.7,0.0,-12.2,12.6,0.0,0.0,0.0,2.0,NBA,9.0,-21.5,0.0,-0.1,-9.0,SG,1992,0.0,NYK,0.0,6.4,0.222,43.7,-0.1,-0.1,0.0,-0.402
