age,ast,ast_per_g,blk,college_id,fg,fg3,fg3_pct,fg3a,fg_pct,fga,ft,ft_pct,fta,g,mp,mp_per_g,orb,pf,pts,pts_per_g,season,stl,tov,trb,trb_per_g
19.0,16.0,0.8,0.0,TULSA,43.0,0.0,0.0,0.0,0.43,100.0,24.0,0.8,30.0,21.0,309.0,14.7,0.0,0.0,110.0,5.2,1984,0.0,0.0,47.0,2.2
20.0,29.0,0.9,0.0,TULSA,81.0,0.0,0.0,0.0,0.468,173.0,18.0,0.643,28.0,31.0,470.0,15.2,0.0,0.0,180.0,5.8,1985,0.0,0.0,52.0,1.7
22.0,110.0,3.8,0.0,SMETHODIST,193.0,29.0,0.382,76.0,0.463,417.0,29.0,0.707,41.0,29.0,1011.0,34.9,0.0,0.0,444.0,15.3,1987,0.0,0.0,164.0,5.7
23.0,126.0,3.6,0.0,SMETHODIST,243.0,35.0,0.417,84.0,0.503,483.0,40.0,0.702,57.0,35.0,1197.0,34.2,0.0,0.0,561.0,16.0,1988,0.0,0.0,128.0,3.7
