age,ast_per_mp,blk_per_mp,drb_per_mp,fg2_pct,fg2_per_mp,fg2a_per_mp,fg3_pct,fg3_per_mp,fg3a_per_mp,fg_pct,fg_per_mp,fga_per_mp,ft_pct,ft_per_mp,fta_per_mp,g,gs,lg_id,mp,orb_per_mp,pf_per_mp,pos,pts_per_mp,season,stl_per_mp,team_id,tov_per_mp,trb_per_mp
24.0,1.1,2.2,5.5,0.455,2.7,5.9,0.0,0.0,0.0,0.455,2.7,5.9,0.608,2.1,3.4,53.0,1.0,NBA,535.0,2.4,7.1,C,7.5,1994,0.5,LAC,2.0,7.9
25.0,2.6,2.6,0.0,0.2,2.6,12.9,0.0,0.0,0.0,0.2,2.6,12.9,0.0,0.0,0.0,1.0,0.0,NBA,14.0,5.1,5.1,C,5.1,1995,0.0,LAC,0.0,5.1
