age,ast_pct,blk_pct,bpm,bpm-dum,dbpm,drb_pct,dws,fg3a_per_fga_pct,fta_per_fga_pct,g,lg_id,mp,obpm,orb_pct,ows,per,pos,season,stl_pct,team_id,tov_pct,trb_pct,ts_pct,usg_pct,vorp,ws,ws-dum,ws_per_48
24.0,4.1,3.7,-4.5,0.0,0.7,15.9,0.4,0.0,0.58,53.0,NBA,535.0,-5.2,7.2,-0.1,6.9,C,1994,0.7,LAC,20.8,11.6,0.503,10.8,-0.3,0.3,0.0,0.03
25.0,10.2,5.2,-7.1,0.0,-0.7,0.0,0.0,0.0,0.0,1.0,NBA,14.0,-6.3,15.8,0.0,3.3,C,1995,0.0,LAC,0.0,8.4,0.2,15.5,0.0,0.0,0.0,-0.107
