lg_id,salary,season,team_name
NBA,1619280.0,2006,Charlotte Bobcats
NBA,1740720.0,2007,Charlotte Bobcats
NBA,1862160.0,2008,Charlotte Bobcats
NBA,2661027.0,2009,Charlotte Bobcats
NBA,884881.0,2010,Sacramento Kings
