age,ast_pct,blk_pct,bpm,bpm-dum,dbpm,drb_pct,dws,fg3a_per_fga_pct,fta_per_fga_pct,g,lg_id,mp,obpm,orb_pct,ows,per,pos,season,stl_pct,team_id,tov_pct,trb_pct,ts_pct,usg_pct,vorp,ws,ws-dum,ws_per_48
21.0,24.6,0.5,1.0,0.0,-0.7,12.0,1.6,0.332,0.175,80.0,NBA,2896.0,1.8,1.8,3.0,16.3,PG,2010,2.5,GSW,16.5,6.8,0.568,21.8,2.2,4.7,0.0,0.077
22.0,28.1,0.6,1.9,0.0,-1.6,10.9,1.3,0.325,0.216,74.0,NBA,2489.0,3.5,2.3,5.4,19.4,PG,2011,2.2,GSW,16.4,6.5,0.595,24.4,2.4,6.6,0.0,0.128
23.0,32.3,0.8,3.4,0.0,-1.3,11.3,0.4,0.409,0.159,26.0,NBA,732.0,4.7,2.3,1.8,21.2,PG,2012,2.8,GSW,17.0,6.8,0.605,24.0,1.0,2.2,0.0,0.144
24.0,31.1,0.3,5.4,0.0,-0.9,9.1,2.8,0.432,0.21,78.0,NBA,2983.0,6.3,2.3,8.4,21.3,PG,2013,2.1,GSW,13.7,5.8,0.589,26.4,5.6,11.2,0.0,0.18
25.0,39.9,0.4,7.4,0.0,0.0,10.9,4.0,0.445,0.252,78.0,NBA,2846.0,7.4,1.8,9.3,24.1,PG,2014,2.2,GSW,16.1,6.4,0.61,28.3,6.7,13.4,0.0,0.225
26.0,38.6,0.5,9.9,0.0,0.3,11.4,4.1,0.482,0.251,80.0,NBA,2613.0,9.6,2.4,11.5,28.0,PG,2015,3.0,GSW,14.3,7.0,0.638,28.9,7.9,15.7,0.0,0.288
27.0,33.7,0.4,12.5,0.0,0.1,13.6,4.1,0.554,0.25,79.0,NBA,2700.0,12.4,2.9,13.8,31.5,PG,2016,3.0,GSW,12.9,8.6,0.669,32.6,9.8,17.9,0.0,0.318
28.0,31.2,0.5,7.3,0.0,-0.4,11.4,3.9,0.547,0.251,79.0,NBA,2638.0,7.8,2.7,8.7,24.6,PG,2017,2.6,GSW,13.0,7.3,0.624,30.1,6.2,12.6,0.0,0.229
29.0,30.3,0.4,8.6,0.0,-1.3,14.4,1.9,0.58,0.35,51.0,NBA,1631.0,9.9,2.7,7.2,28.2,PG,2018,2.4,GSW,13.3,9.0,0.675,31.0,4.4,9.1,0.0,0.267
30.0,24.2,0.9,6.3,0.0,-1.4,14.2,2.5,0.604,0.214,69.0,NBA,2331.0,7.7,2.2,7.2,24.4,PG,2019,1.9,GSW,11.6,8.4,0.641,30.4,4.9,9.7,0.0,0.199
31.0,41.2,1.6,3.2,0.0,-2.1,14.9,0.0,0.561,0.273,4.0,NBA,112.0,5.3,3.8,0.2,21.5,PG,2020,2.1,GSW,16.9,9.4,0.548,32.8,0.1,0.2,0.0,0.064
