age,ast,ast_per_g,blk,college_id,fg,fg3,fg3_pct,fg3a,fg_pct,fga,ft,ft_pct,fta,g,mp,mp_per_g,orb,pf,pts,pts_per_g,season,stl,tov,trb,trb_per_g
18.0,95.0,2.8,6.0,DAVIDSON,242.0,122.0,0.408,299.0,0.463,523.0,124.0,0.855,145.0,34.0,0.0,0.0,0.0,0.0,730.0,21.5,2007,62.0,0.0,157.0,4.6
19.0,104.0,2.9,14.0,DAVIDSON,317.0,162.0,0.439,369.0,0.483,656.0,135.0,0.894,151.0,36.0,0.0,0.0,0.0,0.0,931.0,25.9,2008,73.0,93.0,165.0,4.6
20.0,189.0,5.6,8.0,DAVIDSON,312.0,130.0,0.387,336.0,0.454,687.0,220.0,0.876,251.0,34.0,0.0,0.0,0.0,0.0,974.0,28.6,2009,86.0,126.0,151.0,4.4
