age,ast,blk,drb,fg,fg2,fg2a,fg3,fg3a,fga,ft,fta,game_score,lg_id,mp,orb,pf,pts,season,stl,team_id,tov,trb
24.0,13.0,1.0,6.0,18.0,12.0,21.0,6.0,14.0,35.0,9.0,9.0,30.4,NBA,58,2.0,5.0,44.0,2013,4.0,GSW,7.0,6.0
25.0,15.0,1.0,6.0,10.0,8.0,16.0,7.0,14.0,24.0,16.0,16.0,31.5,NBA,46,1.0,4.0,33.0,2014,3.0,GSW,8.0,7.0
26.0,10.0,1.0,7.0,13.0,9.0,14.0,8.0,18.0,29.0,13.0,14.0,36.6,NBA,44,3.0,4.0,40.0,2015,6.0,GSW,6.0,8.0
27.0,11.0,3.0,9.0,16.0,11.0,16.0,7.0,16.0,32.0,10.0,10.0,29.2,NBA,42,3.0,6.0,40.0,2016,5.0,GSW,7.0,10.0
28.0,11.0,1.0,8.0,14.0,9.0,11.0,7.0,16.0,26.0,14.0,15.0,32.9,NBA,41,5.0,5.0,40.0,2017,6.0,GSW,8.0,13.0
29.0,10.0,3.0,9.0,13.0,8.0,13.0,9.0,17.0,27.0,7.0,7.0,29.8,NBA,47,2.0,5.0,37.0,2018,4.0,GSW,6.0,9.0
30.0,11.0,1.0,12.0,14.0,8.0,17.0,9.0,16.0,31.0,14.0,14.0,37.2,NBA,48,4.0,5.0,47.0,2019,3.0,GSW,6.0,15.0
