age,ast_per_g,blk_per_g,drb_per_g,efg_pct,fg2_pct,fg2_per_g,fg2a_per_g,fg3_pct,fg3_per_g,fg3a_per_g,fg_pct,fg_per_g,fga_per_g,ft_pct,ft_per_g,fta_per_g,g,gs,lg_id,mp_per_g,orb_per_g,pf_per_g,pos,pts_per_g,season,stl_per_g,team_id,tov_per_g,trb_per_g
23.0,1.6,0.0,1.5,0.351,0.217,0.4,1.9,0.294,0.8,2.8,0.263,1.3,4.8,0.968,2.5,2.6,12.0,0.0,NBA,14.8,0.1,1.7,PG,5.8,2008,0.5,MIA,1.3,1.6
24.0,0.7,0.0,0.3,0.5,0.0,0.0,0.7,0.5,0.7,1.3,0.333,0.7,2.0,1.0,0.7,0.7,3.0,0.0,NBA,6.3,0.0,1.0,PG,2.7,2009,0.3,SAS,0.3,0.3
27.0,0.3,0.0,0.5,0.357,0.4,0.5,1.3,0.222,0.5,2.3,0.286,1.0,3.5,0.0,0.0,0.0,4.0,0.0,NBA,7.5,0.0,1.0,PG,2.5,2012,0.0,UTA,1.3,0.5
