age,ast_per_poss,blk_per_poss,def_rtg,drb_per_poss,fg2_pct,fg2_per_poss,fg2a_per_poss,fg3_pct,fg3_per_poss,fg3a_per_poss,fg_pct,fg_per_poss,fga_per_poss,ft_pct,ft_per_poss,fta_per_poss,g,gs,lg_id,mp,off_rtg,orb_per_poss,pf_per_poss,pos,pts_per_poss,season,stl_per_poss,team_id,tov_per_poss,trb_per_poss
20.0,1.0,0.0,105.0,6.7,0.368,6.7,18.1,0.0,0.0,0.0,0.368,6.7,18.1,0.0,0.0,0.0,13.0,0.0,NBA,54.0,72.0,2.9,12.4,PF,13.4,2010,1.9,OKC,3.8,9.5
21.0,0.0,1.8,105.0,11.0,0.321,5.5,17.1,0.0,0.0,0.0,0.321,5.5,17.1,0.5,4.3,8.5,13.0,0.0,NBA,85.0,71.0,3.7,6.7,PF,15.2,2011,1.2,OKC,4.9,14.6
22.0,2.1,1.9,110.0,8.3,0.443,8.6,19.4,0.235,0.4,1.8,0.425,9.0,21.3,0.821,3.3,4.0,65.0,25.0,NBA,1465.0,94.0,3.5,4.9,C,21.8,2012,0.8,CHA,2.7,11.8
23.0,3.0,1.2,110.0,9.8,0.425,5.5,13.0,0.317,2.4,7.6,0.385,8.0,20.7,0.646,2.4,3.6,53.0,41.0,NBA,1428.0,94.0,2.6,4.0,PF,20.7,2013,1.2,CHA,2.7,12.4
24.0,1.7,1.3,106.0,8.1,0.526,4.7,9.0,0.371,3.9,10.5,0.442,8.6,19.5,0.5,1.2,2.4,45.0,0.0,NBA,414.0,99.0,2.8,7.6,C,22.4,2014,1.8,TOT,3.2,10.9
24.0,1.8,0.9,104.0,7.5,0.52,3.9,7.5,0.333,3.9,11.7,0.406,7.8,19.2,0.333,0.6,1.8,27.0,0.0,NBA,167.0,89.0,2.1,9.9,C,20.1,2014,1.8,LAC,3.9,9.6
24.0,1.6,1.6,108.0,8.4,0.529,5.3,10.0,0.4,3.9,9.8,0.465,9.2,19.8,0.571,1.6,2.7,18.0,0.0,NBA,247.0,106.0,3.3,6.1,C,23.9,2014,1.8,PHI,2.7,11.8
