age,ast,blk,drb,efg_pct,fg,fg2,fg2_pct,fg2a,fg3,fg3_pct,fg3a,fg_pct,fga,ft,ft_pct,fta,g,gs,lg_id,mp,orb,pf,pos,pts,season,stl,team_id,tov,trb
25.0,2.0,0.0,2.0,0.25,2.0,2.0,0.333,6.0,0.0,0.0,2.0,0.25,8.0,0.0,0.0,0.0,2.0,0.0,NBA,27.0,1.0,2.0,SG,4.0,1993,4.0,ATL,2.0,3.0
26.0,0.0,0.0,0.0,0.5,1.0,1.0,1.0,1.0,0.0,0.0,1.0,0.5,2.0,0.0,0.0,0.0,1.0,0.0,NBA,2.0,0.0,0.0,SG,2.0,1994,0.0,ATL,0.0,0.0
