age,ast_per_poss,blk_per_poss,def_rtg,drb_per_poss,fg2_pct,fg2_per_poss,fg2a_per_poss,fg3_pct,fg3_per_poss,fg3a_per_poss,fg_pct,fg_per_poss,fga_per_poss,ft_pct,ft_per_poss,fta_per_poss,g,gs,lg_id,mp,off_rtg,orb_per_poss,pf_per_poss,pos,pts_per_poss,season,stl_per_poss,team_id,tov_per_poss,trb_per_poss
24.0,5.0,0.6,109.0,4.5,0.462,7.1,15.4,0.39,1.6,4.0,0.447,8.7,19.5,0.741,3.6,4.9,78.0,9.0,NBA,1718.0,109.0,2.1,5.5,SG,22.6,1992,2.7,ATL,2.6,6.6
25.0,5.4,0.2,110.0,4.2,0.511,7.0,13.7,0.298,1.4,4.6,0.457,8.4,18.3,0.733,3.1,4.3,80.0,11.0,NBA,1508.0,103.0,2.0,6.0,SG,21.2,1993,2.8,ATL,3.9,6.2
26.0,5.2,2.0,105.0,3.2,0.409,7.2,17.5,0.231,1.2,5.2,0.368,8.4,22.7,0.765,5.2,6.8,21.0,0.0,NBA,128.0,103.0,1.6,4.4,SG,23.1,1994,1.6,ATL,2.0,4.8
