age,ast_per_mp,blk_per_mp,drb_per_mp,fg2_pct,fg2_per_mp,fg2a_per_mp,fg3_pct,fg3_per_mp,fg3a_per_mp,fg_pct,fg_per_mp,fga_per_mp,ft_pct,ft_per_mp,fta_per_mp,g,gs,lg_id,mp,orb_per_mp,pf_per_mp,pos,pts_per_mp,season,stl_per_mp,team_id,tov_per_mp,trb_per_mp
25.0,2.7,0.0,2.7,0.333,2.7,8.0,0.0,0.0,2.7,0.25,2.7,10.7,0.0,0.0,0.0,2.0,0.0,NBA,27.0,1.3,2.7,SG,5.3,1993,5.3,ATL,2.7,4.0
26.0,0.0,0.0,0.0,1.0,18.0,18.0,0.0,0.0,18.0,0.5,18.0,36.0,0.0,0.0,0.0,1.0,0.0,NBA,2.0,0.0,0.0,SG,36.0,1994,0.0,ATL,0.0,0.0
