age,ast,ast_per_g,blk,college_id,fg,fg3,fg3_pct,fg3a,fg_pct,fga,ft,ft_pct,fta,g,mp,mp_per_g,orb,pf,pts,pts_per_g,season,stl,tov,trb,trb_per_g
19.0,3.0,0.1,3.0,KANSAS,17.0,0.0,0.0,0.0,0.548,31.0,14.0,0.583,24.0,24.0,168.0,7.0,0.0,0.0,48.0,2.0,2005,4.0,0.0,40.0,1.7
20.0,8.0,0.3,3.0,KANSAS,52.0,0.0,0.0,0.0,0.505,103.0,40.0,0.769,52.0,23.0,351.0,15.3,0.0,0.0,144.0,6.3,2006,13.0,0.0,112.0,4.9
21.0,13.0,0.3,21.0,KANSAS,71.0,0.0,0.0,0.0,0.55,129.0,67.0,0.657,102.0,38.0,583.0,15.3,0.0,0.0,209.0,5.5,2007,16.0,0.0,193.0,5.1
22.0,43.0,1.1,19.0,KANSAS,171.0,2.0,0.333,6.0,0.626,273.0,103.0,0.691,149.0,40.0,971.0,24.3,0.0,0.0,447.0,11.2,2008,31.0,51.0,267.0,6.7
