age,avg_dist,fg2_dunk,fg2_pct,fg2_pct_ast,fg2a_pct_fga,fg3_heave,fg3_pct,fg3_pct_ast,fg3_pct_corner,fg3a_heave,fg3a_pct_fga,fg_pct,fg_pct_00_03,fg_pct_03_10,fg_pct_10_16,fg_pct_16_xx,g,lg_id,mp,pct_fg2_dunk,pct_fg3a_corner,pct_fga_00_03,pct_fga_03_10,pct_fga_10_16,pct_fga_16_xx,pos,season,team_id
23.0,10.1,8.0,0.44,0.838,0.977,0.0,0.0,0.0,0.0,0.0,0.023,0.43,0.576,0.222,0.6,0.313,51.0,NBA,430.0,0.105,1.0,0.384,0.105,0.116,0.372,PF,2009,CLE
24.0,8.7,3.0,0.308,0.5,0.867,0.0,0.25,1.0,0.0,0.0,0.133,0.3,0.4,0.25,0.5,0.0,28.0,NBA,123.0,0.1,0.0,0.5,0.133,0.067,0.167,PF,2010,TOT
24.0,8.4,3.0,0.318,0.571,0.88,0.0,0.333,1.0,0.0,0.0,0.12,0.32,0.385,0.333,0.5,0.0,27.0,NBA,114.0,0.12,0.0,0.52,0.12,0.08,0.16,PF,2010,CLE
24.0,10.2,0.0,0.25,0.0,0.8,0.0,0.0,0.0,0.0,0.0,0.2,0.2,0.5,0.0,0.0,0.0,1.0,NBA,9.0,0.0,0.0,0.4,0.2,0.0,0.2,PF,2010,MIL
25.0,10.5,16.0,0.503,0.743,0.93,0.0,0.273,0.333,0.2,2.0,0.07,0.487,0.661,0.458,0.414,0.368,59.0,NBA,486.0,0.114,0.455,0.354,0.152,0.184,0.241,PF,2011,SAC
