age,ast_per_poss,blk_per_poss,def_rtg,drb_per_poss,fg2_pct,fg2_per_poss,fg2a_per_poss,fg3_pct,fg3_per_poss,fg3a_per_poss,fg_pct,fg_per_poss,fga_per_poss,ft_pct,ft_per_poss,fta_per_poss,g,gs,lg_id,mp,off_rtg,orb_per_poss,pf_per_poss,pos,pts_per_poss,season,stl_per_poss,team_id,tov_per_poss,trb_per_poss
21.0,4.0,0.3,114.0,5.7,0.393,3.6,9.2,0.362,3.6,10.0,0.377,7.2,19.2,0.714,2.3,3.2,56.0,5.0,NBA,974.0,100.0,0.9,3.2,SG,20.3,2018,0.9,ATL,1.9,6.5
22.0,3.9,0.1,114.0,6.0,0.477,4.4,9.2,0.333,3.1,9.2,0.405,7.4,18.3,0.623,2.6,4.2,48.0,11.0,NBA,698.0,104.0,1.9,3.7,SG,20.5,2019,1.0,TOT,1.9,7.8
22.0,3.1,0.2,116.0,6.3,0.44,4.1,9.2,0.256,1.8,7.2,0.36,5.9,16.4,0.615,2.9,4.8,27.0,0.0,NBA,251.0,96.0,1.7,3.7,SG,16.6,2019,1.3,ATL,1.8,7.9
22.0,4.3,0.1,113.0,5.8,0.5,4.6,9.1,0.366,3.8,10.3,0.429,8.3,19.5,0.629,2.4,3.9,21.0,11.0,NBA,447.0,108.0,2.0,3.7,SG,22.9,2019,0.8,MEM,1.9,7.8
