age,ast_per_poss,blk_per_poss,def_rtg,drb_per_poss,fg2_pct,fg2_per_poss,fg2a_per_poss,fg3_pct,fg3_per_poss,fg3a_per_poss,fg_pct,fg_per_poss,fga_per_poss,ft_pct,ft_per_poss,fta_per_poss,g,gs,lg_id,mp,off_rtg,orb_per_poss,pf_per_poss,pos,pts_per_poss,season,stl_per_poss,team_id,tov_per_poss,trb_per_poss
26.0,1.3,4.0,95.0,12.6,0.415,7.9,19.1,0.0,0.0,0.0,0.415,7.9,19.1,0.63,5.2,8.3,45.0,3.0,NBA,280.0,98.0,8.6,8.1,C,21.1,1994,1.8,SEA,4.3,21.3
27.0,0.9,3.7,103.0,10.4,0.445,4.7,10.6,0.0,0.0,0.1,0.443,4.7,10.6,0.63,1.6,2.5,64.0,30.0,NBA,907.0,96.0,5.6,9.0,C,11.0,1995,0.9,SEA,3.0,16.0
28.0,1.6,4.3,98.0,10.2,0.513,6.0,11.8,0.333,0.0,0.1,0.511,6.1,11.9,0.669,2.9,4.3,81.0,60.0,NBA,1519.0,103.0,4.3,8.2,C,15.0,1996,1.3,SEA,3.3,14.6
29.0,1.4,4.5,103.0,13.6,0.523,4.9,9.3,0.0,0.0,0.0,0.52,4.9,9.3,0.615,1.9,3.1,82.0,82.0,NBA,2599.0,106.0,4.6,5.8,C,11.6,1997,1.3,DEN,2.4,18.2
30.0,1.4,3.7,100.0,10.4,0.537,6.0,11.1,0.0,0.0,0.0,0.537,6.0,11.1,0.601,3.4,5.6,81.0,81.0,NBA,2261.0,110.0,5.7,7.6,C,15.3,1998,1.9,MIL,2.8,16.1
31.0,1.0,3.1,98.0,10.7,0.508,5.2,10.2,0.0,0.0,0.0,0.508,5.2,10.2,0.61,3.4,5.6,50.0,7.0,NBA,1027.0,110.0,6.4,8.1,C,13.8,1999,1.6,MIL,2.5,17.2
32.0,1.1,3.1,103.0,10.1,0.518,3.5,6.8,0.0,0.0,0.0,0.516,3.5,6.8,0.605,2.3,3.8,80.0,74.0,NBA,2129.0,113.0,5.7,7.2,C,9.3,2000,2.0,MIL,1.9,15.8
33.0,1.1,2.6,101.0,10.7,0.545,2.8,5.2,0.0,0.0,0.0,0.545,2.8,5.2,0.538,1.3,2.4,82.0,19.0,NBA,1981.0,122.0,5.4,6.8,C,7.0,2001,1.2,MIL,1.2,16.1
34.0,0.9,2.6,104.0,10.4,0.464,2.9,6.2,0.0,0.0,0.0,0.461,2.9,6.2,0.455,1.0,2.1,81.0,9.0,NBA,1660.0,101.0,4.6,7.0,C,6.7,2002,1.2,MIL,1.7,14.9
35.0,1.1,2.9,106.0,8.0,0.452,2.8,6.1,0.0,0.0,0.0,0.452,2.8,6.1,0.682,1.4,2.0,69.0,17.0,NBA,1170.0,111.0,5.3,8.1,C,6.9,2003,1.5,MIL,1.5,13.3
36.0,1.3,2.4,97.0,9.6,0.539,3.1,5.7,0.0,0.0,0.1,0.534,3.1,5.8,0.607,1.0,1.6,66.0,47.0,NBA,965.0,107.0,3.4,8.7,C,7.1,2004,1.5,MIN,1.7,13.0
37.0,0.8,1.7,105.0,9.2,0.509,3.5,7.0,1.0,0.1,0.1,0.519,3.7,7.1,0.64,2.1,3.3,46.0,23.0,NBA,410.0,109.0,5.7,11.3,C,9.6,2005,0.9,MIN,2.4,14.9
38.0,1.3,1.3,105.0,12.3,0.412,4.5,11.0,0.0,0.0,0.0,0.412,4.5,11.0,0.5,0.6,1.3,18.0,0.0,NBA,81.0,80.0,3.2,14.9,C,9.7,2006,0.6,MIL,3.2,15.6
