age,avg_dist,fg2_dunk,fg2_pct,fg2_pct_ast,fg2a_pct_fga,fg3_heave,fg3_pct,fg3_pct_ast,fg3_pct_corner,fg3a_heave,fg3a_pct_fga,fg_pct,fg_pct_00_03,fg_pct_03_10,fg_pct_10_16,fg_pct_16_xx,g,lg_id,mp,pct_fg2_dunk,pct_fg3a_corner,pct_fga_00_03,pct_fga_03_10,pct_fga_10_16,pct_fga_16_xx,pos,season,team_id
23.0,12.8,0.0,0.421,0.25,0.594,0.0,0.231,1.0,0.0,0.0,0.406,0.344,0.444,0.333,0.0,1.0,10.0,NBA,95.0,0.0,0.0,0.281,0.281,0.0,0.031,PG,2012,TOT
23.0,13.3,0.0,0.5,0.5,0.667,0.0,0.25,1.0,0.0,0.0,0.333,0.417,0.0,0.5,0.0,1.0,4.0,NBA,46.0,0.0,0.0,0.083,0.5,0.0,0.083,PG,2012,LAC
23.0,12.6,0.0,0.364,0.0,0.55,0.0,0.222,1.0,0.0,0.0,0.45,0.3,0.5,0.0,0.0,0.0,6.0,NBA,49.0,0.0,0.0,0.4,0.15,0.0,0.0,PG,2012,HOU
