article_url,date,headline
https://pistonpowered.com/2019/11/15/detroit-pistons-must-step-up-after-struggles/,2019/11/15,Piston Powered: 3 Detroit Pistons who must step up after recent struggles
https://pistonpowered.com/2019/11/12/3-takeaways-from-detroit-pistons-120-114-loss-minnesota-timberwolves/,2019/11/12,Piston Powered: 3 takeaways from Pistons 120-114 loss to the Minnesota Timberwolves
https://pistonpowered.com/2019/11/11/rapid-reaction-minnesota-timberwolves-120-detroit-pistons-114/,2019/11/11,Piston Powered: Rapid reaction: Minnesota Timberwolves 120 Detroit Pistons 114
