age,ast_per_mp,blk_per_mp,drb_per_mp,fg2_pct,fg2_per_mp,fg2a_per_mp,fg3_pct,fg3_per_mp,fg3a_per_mp,fg_pct,fg_per_mp,fga_per_mp,ft_pct,ft_per_mp,fta_per_mp,g,gs,lg_id,mp,orb_per_mp,pf_per_mp,pos,pts_per_mp,season,stl_per_mp,team_id,tov_per_mp,trb_per_mp
20.0,0.7,1.7,6.2,0.429,4.5,10.4,0.364,1.0,2.7,0.415,5.5,13.2,0.619,3.2,5.2,17.0,0.0,NBA,145.0,3.2,2.7,PF,15.1,2016,1.2,PHI,0.5,9.4
21.0,0.7,2.0,5.0,0.667,4.0,6.1,0.0,0.0,1.7,0.522,4.0,7.7,0.733,3.7,5.0,13.0,0.0,NBA,107.0,4.7,3.7,PF,11.8,2017,1.0,CHO,2.4,9.8
23.0,1.1,1.4,9.5,0.571,7.5,13.1,0.346,1.3,3.7,0.521,8.7,16.8,0.732,5.9,8.0,21.0,2.0,NBA,251.0,2.4,2.4,PF,24.7,2019,1.0,TOT,2.4,11.9
23.0,1.2,0.0,9.3,0.45,5.2,11.6,0.6,1.7,2.9,0.48,7.0,14.5,0.667,5.8,8.7,13.0,0.0,NBA,62.0,2.3,1.7,PF,21.5,2019,0.0,MIL,1.7,11.6
23.0,1.1,1.9,9.5,0.606,8.2,13.5,0.286,1.1,4.0,0.533,9.3,17.5,0.756,5.9,7.8,8.0,2.0,NBA,189.0,2.5,2.7,PF,25.7,2019,1.3,NOP,2.7,12.0
24.0,0.7,2.1,6.8,0.636,4.8,7.5,0.529,2.1,3.9,0.6,6.8,11.4,0.63,3.9,6.2,10.0,0.0,NBA,158.0,2.1,1.6,PF,19.6,2020,0.7,DET,2.1,8.9
