age,ast,ast_per_g,blk,college_id,fg,fg3,fg3_pct,fg3a,fg_pct,fga,ft,ft_pct,fta,g,mp,mp_per_g,orb,pf,pts,pts_per_g,season,stl,tov,trb,trb_per_g
19.0,2.0,0.1,4.0,DUKE,7.0,4.0,0.571,7.0,0.5,14.0,10.0,0.909,11.0,17.0,80.0,4.7,7.0,6.0,28.0,1.6,2014,4.0,5.0,15.0,0.9
20.0,1.0,0.2,0.0,DUKE,5.0,4.0,0.25,16.0,0.278,18.0,4.0,0.571,7.0,6.0,63.0,10.5,3.0,11.0,18.0,3.0,2015,3.0,0.0,14.0,2.3
22.0,53.0,1.5,14.0,SMETHODIST,210.0,73.0,0.424,172.0,0.487,431.0,172.0,0.785,219.0,35.0,1195.0,34.1,80.0,62.0,665.0,19.0,2017,15.0,50.0,240.0,6.9
