age,ast_per_mp,blk_per_mp,drb_per_mp,fg2_pct,fg2_per_mp,fg2a_per_mp,fg3_pct,fg3_per_mp,fg3a_per_mp,fg_pct,fg_per_mp,fga_per_mp,ft_pct,ft_per_mp,fta_per_mp,g,gs,lg_id,mp,orb_per_mp,pf_per_mp,pos,pts_per_mp,season,stl_per_mp,team_id,tov_per_mp,trb_per_mp
23.0,0.3,0.0,3.8,0.364,0.6,1.7,0.273,0.9,3.4,0.303,1.6,5.2,0.857,0.9,1.1,17.0,3.0,NBA,230.0,0.6,3.3,PF,5.0,2018,0.5,BOS,0.3,4.4
24.0,2.1,0.0,1.1,0.25,1.1,4.2,0.6,3.2,5.3,0.444,4.2,9.5,1.0,2.1,2.1,6.0,0.0,NBA,34.0,1.1,5.3,PF,13.8,2019,0.0,BOS,1.1,2.1
