age,avg_dist,fg2_dunk,fg2_pct,fg2_pct_ast,fg2a_pct_fga,fg3_heave,fg3_pct,fg3_pct_ast,fg3_pct_corner,fg3a_heave,fg3a_pct_fga,fg_pct,fg_pct_00_03,fg_pct_03_10,fg_pct_10_16,fg_pct_16_xx,g,lg_id,mp,pct_fg2_dunk,pct_fg3a_corner,pct_fga_00_03,pct_fga_03_10,pct_fga_10_16,pct_fga_16_xx,pos,season,team_id
23.0,17.5,6.0,0.443,0.4,0.444,0.0,0.323,0.938,0.4,1.0,0.556,0.376,0.571,0.36,0.286,0.5,38.0,NBA,416.0,0.045,0.303,0.157,0.14,0.079,0.067,SG,2019,UTA
24.0,16.5,1.0,0.375,0.667,0.457,0.0,0.263,1.0,0.333,0.0,0.543,0.314,0.4,0.286,0.5,0.0,5.0,NBA,84.0,0.057,0.316,0.143,0.2,0.114,0.0,SG,2020,MEM
