age,ast_per_poss,blk_per_poss,def_rtg,drb_per_poss,fg2_pct,fg2_per_poss,fg2a_per_poss,fg3_pct,fg3_per_poss,fg3a_per_poss,fg_pct,fg_per_poss,fga_per_poss,ft_pct,ft_per_poss,fta_per_poss,g,gs,lg_id,mp,off_rtg,orb_per_poss,pf_per_poss,pos,pts_per_poss,season,stl_per_poss,team_id,tov_per_poss,trb_per_poss
22.0,7.5,0.3,112.0,3.6,0.509,5.4,10.6,0.0,0.0,0.4,0.49,5.4,11.0,0.803,3.1,3.9,71.0,20.0,NBA,1499.0,103.0,1.1,4.3,SG,13.9,1989,2.4,LAC,3.6,4.8
23.0,8.1,0.2,109.0,3.6,0.51,5.7,11.3,0.19,0.1,0.6,0.494,5.9,11.8,0.772,2.5,3.2,73.0,22.0,NBA,1721.0,105.0,1.0,4.2,SG,14.3,1990,2.5,LAC,3.3,4.6
24.0,11.3,0.1,106.0,4.4,0.467,5.1,10.8,0.0,0.0,1.1,0.424,5.1,12.0,0.759,3.0,4.0,67.0,0.0,NBA,949.0,105.0,2.0,5.1,SG,13.2,1991,3.1,LAC,3.3,6.4
25.0,8.9,0.4,106.0,4.0,0.417,5.3,12.7,0.25,0.1,0.4,0.413,5.4,13.1,0.692,1.6,2.4,40.0,5.0,NBA,549.0,91.0,1.1,4.9,SG,12.5,1992,3.3,TOT,4.0,5.1
25.0,8.4,0.1,105.0,4.4,0.478,5.9,12.3,0.0,0.0,0.1,0.473,5.9,12.4,0.625,1.3,2.1,19.0,5.0,NBA,374.0,96.0,1.1,4.4,SG,13.1,1992,2.8,SAS,4.0,5.5
25.0,8.1,1.4,111.0,3.2,0.323,4.5,14.0,0.5,0.5,0.9,0.333,5.0,14.9,0.75,2.7,3.6,15.0,0.0,NBA,112.0,82.0,0.9,6.3,SG,13.1,1992,3.2,MIN,4.5,4.1
25.0,13.7,0.0,104.0,3.2,0.25,3.2,12.9,0.0,0.0,0.8,0.235,3.2,13.7,1.0,1.6,1.6,6.0,0.0,NBA,63.0,83.0,1.6,5.6,SG,8.1,1992,6.5,DAL,3.2,4.8
