age,ast,blk,drb,efg_pct,fg,fg2,fg2_pct,fg2a,fg3,fg3_pct,fg3a,fg_pct,fga,ft,ft_pct,fta,g,gs,lg_id,mp,orb,pf,pos,pts,season,stl,team_id,tov,trb
22.0,233.0,21.0,101.0,0.449,148.0,121.0,0.429,282.0,27.0,0.346,78.0,0.411,360.0,99.0,0.702,141.0,79.0,3.0,NBA,1150.0,34.0,126.0,SG,422.0,1996,56.0,CLE,115.0,135.0
23.0,390.0,33.0,232.0,0.476,253.0,200.0,0.473,423.0,53.0,0.323,164.0,0.431,587.0,196.0,0.614,319.0,82.0,23.0,NBA,2269.0,76.0,218.0,SG,755.0,1997,90.0,CLE,181.0,308.0
24.0,171.0,7.0,69.0,0.418,87.0,68.0,0.398,171.0,19.0,0.317,60.0,0.377,231.0,74.0,0.565,131.0,46.0,4.0,NBA,942.0,25.0,113.0,SG,267.0,1998,44.0,CLE,93.0,94.0
25.0,152.0,14.0,81.0,0.355,70.0,61.0,0.37,165.0,9.0,0.2,45.0,0.333,210.0,65.0,0.631,103.0,50.0,6.0,NBA,841.0,21.0,98.0,PG,214.0,1999,46.0,CLE,67.0,102.0
26.0,284.0,19.0,238.0,0.512,356.0,234.0,0.484,483.0,122.0,0.367,332.0,0.437,815.0,175.0,0.697,251.0,73.0,45.0,NBA,2216.0,50.0,201.0,SG,1009.0,2000,91.0,CLE,148.0,288.0
27.0,242.0,8.0,173.0,0.435,202.0,155.0,0.448,346.0,47.0,0.273,172.0,0.39,518.0,135.0,0.714,189.0,53.0,42.0,NBA,1684.0,54.0,127.0,SG,586.0,2001,54.0,GSW,160.0,227.0
28.0,275.0,17.0,167.0,0.459,250.0,208.0,0.455,457.0,42.0,0.316,133.0,0.424,590.0,236.0,0.72,328.0,78.0,5.0,NBA,1780.0,89.0,160.0,PG,778.0,2002,88.0,GSW,133.0,256.0
29.0,177.0,2.0,109.0,0.454,135.0,107.0,0.44,243.0,28.0,0.329,85.0,0.412,328.0,103.0,0.696,148.0,55.0,0.0,NBA,1130.0,58.0,108.0,SG,401.0,2003,45.0,GSW,82.0,167.0
30.0,233.0,14.0,226.0,0.438,202.0,181.0,0.446,406.0,21.0,0.266,79.0,0.416,485.0,171.0,0.757,226.0,80.0,18.0,NBA,1663.0,100.0,158.0,SG,596.0,2004,62.0,TOT,105.0,326.0
30.0,89.0,9.0,73.0,0.436,71.0,62.0,0.453,137.0,9.0,0.25,36.0,0.41,173.0,48.0,0.696,69.0,53.0,0.0,NBA,707.0,30.0,86.0,SG,199.0,2004,37.0,DET,39.0,103.0
30.0,144.0,5.0,153.0,0.439,131.0,119.0,0.442,269.0,12.0,0.279,43.0,0.42,312.0,123.0,0.783,157.0,27.0,18.0,NBA,956.0,70.0,72.0,SG,397.0,2004,25.0,ATL,66.0,223.0
31.0,317.0,7.0,258.0,0.481,215.0,160.0,0.458,349.0,55.0,0.355,155.0,0.427,504.0,141.0,0.75,188.0,61.0,59.0,NBA,1922.0,79.0,168.0,PG,626.0,2005,65.0,HOU,147.0,337.0
