age,ast_per_mp,blk_per_mp,drb_per_mp,fg2_pct,fg2_per_mp,fg2a_per_mp,fg3_pct,fg3_per_mp,fg3a_per_mp,fg_pct,fg_per_mp,fga_per_mp,ft_pct,ft_per_mp,fta_per_mp,g,gs,lg_id,mp,orb_per_mp,pf_per_mp,pos,pts_per_mp,season,stl_per_mp,team_id,tov_per_mp,trb_per_mp
21.0,1.2,1.0,3.3,0.439,5.4,12.2,0.5,0.0,0.1,0.44,5.4,12.3,0.736,2.7,3.6,80.0,3.0,NBA,1238.0,3.1,6.3,C,13.5,1997,0.8,CLE,3.2,6.3
22.0,1.5,0.7,5.2,0.48,6.0,12.4,0.0,0.0,0.0,0.48,6.0,12.4,0.708,2.6,3.7,80.0,0.0,NBA,1412.0,2.8,5.0,C,14.5,1998,0.7,CLE,3.4,8.0
23.0,1.9,0.9,5.6,0.496,5.3,10.6,0.0,0.0,0.0,0.495,5.3,10.6,0.587,2.4,4.0,50.0,44.0,NBA,1394.0,2.9,4.4,C,12.9,1999,0.9,TOT,2.6,8.6
23.0,1.2,1.2,5.5,0.44,4.2,9.6,0.0,0.0,0.1,0.437,4.2,9.7,0.673,2.5,3.8,17.0,12.0,NBA,467.0,1.8,4.1,C,11.0,1999,0.8,CLE,2.2,7.2
23.0,2.3,0.8,5.7,0.521,5.8,11.1,0.0,0.0,0.0,0.521,5.8,11.1,0.547,2.3,4.1,33.0,32.0,NBA,927.0,3.5,4.5,C,13.8,1999,0.9,BOS,2.8,9.2
24.0,1.5,0.6,6.4,0.5,6.2,12.3,0.0,0.0,0.0,0.499,6.2,12.3,0.681,2.2,3.2,79.0,72.0,NBA,1797.0,3.6,4.8,C,14.5,2000,0.8,BOS,2.9,10.0
25.0,1.2,0.4,5.5,0.476,4.7,9.9,0.0,0.0,0.0,0.476,4.7,9.9,0.728,2.2,3.0,82.0,7.0,NBA,1901.0,3.9,4.3,C,11.6,2001,1.0,BOS,2.0,9.4
26.0,0.8,0.5,4.8,0.455,3.7,8.1,0.0,0.0,0.0,0.455,3.7,8.1,0.742,2.4,3.2,79.0,9.0,NBA,1343.0,4.5,4.7,C,9.7,2002,1.0,BOS,1.7,9.3
27.0,0.4,0.7,5.7,0.441,3.7,8.3,0.0,0.0,0.0,0.441,3.7,8.3,0.759,2.0,2.6,26.0,2.0,NBA,403.0,2.2,4.1,C,9.3,2003,0.8,SEA,2.2,8.0
28.0,1.3,0.7,4.8,0.489,5.1,10.4,0.0,0.0,0.0,0.489,5.1,10.4,0.641,1.5,2.3,65.0,39.0,NBA,1419.0,2.6,4.1,C,11.6,2004,0.6,SEA,2.0,7.3
29.0,1.0,0.3,5.2,0.523,4.8,9.2,0.0,0.0,0.1,0.517,4.8,9.3,0.871,2.9,3.3,33.0,1.0,NBA,335.0,3.2,5.7,C,12.6,2005,0.8,SEA,1.3,8.4
30.0,0.9,0.2,3.8,0.521,3.8,7.2,0.0,0.0,0.0,0.521,3.8,7.2,0.588,1.0,1.7,33.0,12.0,NBA,353.0,2.8,5.1,C,8.6,2006,0.2,TOT,1.6,6.5
30.0,0.8,0.2,4.0,0.5,3.6,7.2,0.0,0.0,0.0,0.5,3.6,7.2,0.588,1.1,1.9,24.0,12.0,NBA,321.0,2.9,4.9,C,8.3,2006,0.2,SEA,1.6,7.0
30.0,2.3,0.0,1.1,0.714,5.6,7.9,0.0,0.0,0.0,0.714,5.6,7.9,0.0,0.0,0.0,9.0,0.0,NBA,32.0,1.1,6.8,C,11.3,2006,0.0,SAC,2.3,2.3
31.0,0.0,0.0,5.5,0.0,0.0,11.1,0.0,0.0,0.0,0.0,0.0,11.1,0.0,0.0,0.0,3.0,0.0,NBA,13.0,0.0,8.3,C,0.0,2007,0.0,SAC,5.5,5.5
