age,avg_dist,fg2_dunk,fg2_pct,fg2_pct_ast,fg2a_pct_fga,fg3_heave,fg3_pct,fg3_pct_ast,fg3_pct_corner,fg3a_heave,fg3a_pct_fga,fg_pct,fg_pct_00_03,fg_pct_03_10,fg_pct_10_16,fg_pct_16_xx,g,lg_id,mp,pct_fg2_dunk,pct_fg3a_corner,pct_fga_00_03,pct_fga_03_10,pct_fga_10_16,pct_fga_16_xx,pos,season,team_id
20.0,9.7,0.0,0.333,0.0,1.0,0.0,0.0,0.0,0.0,0.0,0.0,0.333,0.0,1.0,0.0,0.0,1.0,NBA,14.0,0.0,0.0,0.333,0.333,0.0,0.333,PF,2015,LAL
21.0,6.7,60.0,0.436,0.451,0.957,0.0,0.278,0.7,0.0,0.0,0.043,0.429,0.568,0.362,0.227,0.254,81.0,NBA,2286.0,0.077,0.111,0.474,0.248,0.079,0.156,PF,2016,LAL
22.0,7.1,50.0,0.507,0.489,0.918,0.0,0.27,0.941,0.5,0.0,0.082,0.488,0.651,0.368,0.5,0.318,74.0,NBA,2132.0,0.067,0.063,0.437,0.334,0.062,0.085,PF,2017,LAL
23.0,4.9,99.0,0.575,0.534,0.95,0.0,0.222,1.0,0.4,2.0,0.05,0.558,0.728,0.389,0.351,0.256,82.0,NBA,2190.0,0.116,0.111,0.545,0.315,0.041,0.048,C,2018,LAL
24.0,8.3,78.0,0.564,0.49,0.821,0.0,0.344,0.91,0.344,0.0,0.179,0.524,0.689,0.426,0.412,0.333,73.0,NBA,2232.0,0.075,0.164,0.446,0.274,0.062,0.039,PF,2019,NOP
25.0,10.3,5.0,0.5,0.333,0.746,0.0,0.209,0.778,0.333,0.0,0.254,0.426,0.619,0.419,0.455,0.111,12.0,NBA,407.0,0.03,0.14,0.373,0.254,0.065,0.053,PF,2020,NYK
