age,ast,blk,drb,fg,fg2,fg2a,fg3,fg3a,fga,ft,fta,game_score,lg_id,mp,orb,pf,pts,season,stl,team_id,tov,trb
22.0,3.0,0.0,4.0,6.0,3.0,6.0,3.0,8.0,11.0,5.0,6.0,12.0,NBA,32,2.0,4.0,16.0,2007,2.0,ORL,3.0,4.0
23.0,3.0,0.0,3.0,7.0,3.0,6.0,4.0,8.0,14.0,3.0,3.0,12.9,NBA,27,1.0,3.0,18.0,2008,2.0,ORL,3.0,4.0
24.0,4.0,1.0,5.0,5.0,4.0,5.0,4.0,8.0,11.0,8.0,10.0,14.6,NBA,35,1.0,4.0,17.0,2009,3.0,ORL,5.0,5.0
25.0,8.0,1.0,6.0,8.0,5.0,8.0,5.0,8.0,15.0,10.0,11.0,24.1,NBA,47,2.0,5.0,27.0,2010,2.0,ORL,4.0,7.0
26.0,5.0,1.0,6.0,9.0,4.0,8.0,6.0,9.0,15.0,7.0,7.0,25.1,NBA,43,1.0,4.0,29.0,2011,3.0,ORL,4.0,7.0
27.0,9.0,2.0,4.0,9.0,6.0,12.0,6.0,10.0,19.0,8.0,9.0,22.5,NBA,44,2.0,5.0,31.0,2012,3.0,ORL,4.0,5.0
28.0,10.0,2.0,5.0,11.0,7.0,11.0,8.0,12.0,18.0,8.0,8.0,24.2,NBA,43,2.0,4.0,31.0,2013,3.0,TOT,7.0,6.0
28.0,10.0,2.0,5.0,11.0,7.0,10.0,8.0,12.0,18.0,8.0,8.0,24.2,NBA,40,2.0,4.0,31.0,2013,3.0,ORL,7.0,6.0
28.0,7.0,1.0,4.0,8.0,6.0,11.0,5.0,11.0,16.0,7.0,7.0,18.3,NBA,43,2.0,4.0,20.0,2013,2.0,MIL,4.0,4.0
29.0,8.0,1.0,5.0,10.0,7.0,11.0,7.0,9.0,17.0,8.0,9.0,31.4,NBA,37,3.0,5.0,33.0,2014,4.0,LAC,4.0,5.0
30.0,7.0,2.0,8.0,11.0,10.0,15.0,7.0,12.0,27.0,10.0,10.0,25.6,NBA,48,2.0,4.0,30.0,2015,3.0,LAC,5.0,8.0
31.0,4.0,1.0,5.0,11.0,8.0,13.0,9.0,12.0,19.0,11.0,11.0,30.6,NBA,39,1.0,5.0,40.0,2016,2.0,LAC,3.0,5.0
32.0,5.0,2.0,6.0,10.0,6.0,11.0,7.0,12.0,19.0,9.0,9.0,23.1,NBA,40,1.0,5.0,31.0,2017,3.0,LAC,5.0,7.0
33.0,7.0,1.0,8.0,11.0,7.0,12.0,8.0,13.0,19.0,11.0,11.0,25.4,NBA,51,2.0,5.0,31.0,2018,3.0,PHI,5.0,8.0
34.0,8.0,1.0,9.0,11.0,8.0,11.0,8.0,15.0,22.0,9.0,10.0,27.5,NBA,39,2.0,6.0,34.0,2019,3.0,PHI,4.0,10.0
35.0,3.0,2.0,5.0,7.0,2.0,6.0,7.0,15.0,16.0,6.0,7.0,15.1,NBA,37,1.0,5.0,24.0,2020,2.0,NOP,5.0,5.0
