lg_id,salary,season,team_name
NBA,1860720.0,2007,Orlando Magic
NBA,2000160.0,2008,Orlando Magic
NBA,2139720.0,2009,Orlando Magic
NBA,2839408.0,2010,Orlando Magic
NBA,7250000.0,2011,Orlando Magic
NBA,6750000.0,2012,Orlando Magic
NBA,6190000.0,2013,Milwaukee Bucks
NBA,6300000.0,2014,Los Angeles Clippers
NBA,6583500.0,2015,Los Angeles Clippers
NBA,6867000.0,2016,Los Angeles Clippers
NBA,7377500.0,2017,Los Angeles Clippers
NBA,23000000.0,2018,Philadelphia 76ers
NBA,12250000.0,2019,Philadelphia 76ers
