age,ast_per_mp,blk_per_mp,drb_per_mp,fg2_pct,fg2_per_mp,fg2a_per_mp,fg3_pct,fg3_per_mp,fg3a_per_mp,fg_pct,fg_per_mp,fga_per_mp,ft_pct,ft_per_mp,fta_per_mp,g,gs,lg_id,mp,orb_per_mp,pf_per_mp,pos,pts_per_mp,season,stl_per_mp,team_id,tov_per_mp,trb_per_mp
22.0,6.5,0.0,0.0,0.0,0.0,3.3,1.0,3.3,3.3,0.5,3.3,6.5,0.0,0.0,0.0,1.0,0.0,NBA,11.0,0.0,6.5,PG,9.8,2007,0.0,ORL,3.3,0.0
23.0,0.0,0.0,3.6,0.0,0.0,3.6,0.0,0.0,10.8,0.0,0.0,14.4,0.0,0.0,0.0,2.0,0.0,NBA,10.0,0.0,3.6,SG,0.0,2008,0.0,ORL,0.0,3.6
24.0,3.4,0.1,1.9,0.323,1.1,3.4,0.404,2.3,5.7,0.373,3.4,9.1,0.929,1.4,1.5,16.0,8.0,NBA,327.0,0.2,2.9,SG,10.6,2009,0.9,ORL,0.8,2.1
25.0,2.5,0.0,2.7,0.417,2.0,4.8,0.429,2.0,4.7,0.423,4.0,9.5,0.857,4.0,4.7,14.0,0.0,NBA,269.0,0.5,2.9,SG,14.1,2010,1.3,ORL,2.7,3.2
26.0,1.8,0.3,3.3,0.519,4.2,8.1,0.067,0.3,4.5,0.357,4.5,12.6,0.75,2.7,3.6,6.0,0.0,NBA,120.0,0.0,2.4,SG,12.0,2011,0.3,ORL,2.1,3.3
27.0,4.7,0.0,1.5,0.6,4.4,7.3,0.211,1.2,5.6,0.432,5.6,12.9,0.857,3.5,4.1,5.0,0.0,NBA,123.0,0.0,1.2,SG,15.8,2012,0.3,ORL,1.8,1.5
28.0,2.6,0.0,1.6,0.538,3.7,6.8,0.333,2.1,6.3,0.44,5.7,13.0,1.0,1.6,1.6,4.0,0.0,NBA,69.0,0.0,4.7,SG,15.1,2013,0.5,MIL,3.1,1.6
29.0,1.9,0.0,1.8,0.515,3.6,7.0,0.4,2.7,6.7,0.459,6.3,13.6,0.962,2.6,2.7,13.0,13.0,NBA,351.0,0.4,2.4,SG,17.7,2014,1.1,LAC,1.3,2.3
30.0,1.6,0.3,2.0,0.479,2.3,4.9,0.398,2.3,5.9,0.435,4.7,10.7,0.943,2.2,2.3,14.0,14.0,NBA,540.0,0.0,2.4,SG,13.9,2015,0.7,LAC,1.7,2.0
31.0,1.1,0.2,2.4,0.479,5.0,10.4,0.355,2.4,6.7,0.43,7.4,17.1,0.667,0.4,0.7,6.0,6.0,NBA,166.0,0.2,2.4,SG,17.6,2016,0.2,LAC,1.1,2.6
32.0,1.0,0.0,2.1,0.417,1.7,4.2,0.346,1.6,4.5,0.38,3.3,8.7,0.85,3.0,3.5,7.0,7.0,NBA,206.0,0.0,3.0,SG,11.2,2017,0.3,LAC,2.3,2.1
33.0,2.7,0.1,1.3,0.567,3.6,6.3,0.347,2.7,7.9,0.444,6.3,14.2,0.857,3.8,4.4,10.0,10.0,NBA,342.0,0.3,2.2,SG,19.2,2018,0.8,PHI,1.2,1.6
34.0,1.8,0.3,1.5,0.486,1.7,3.5,0.414,3.4,8.3,0.435,5.2,11.9,0.85,1.6,1.9,12.0,12.0,NBA,376.0,0.1,3.1,SG,15.4,2019,0.1,PHI,2.1,1.6
