age,and1s,astd_pts,drawn_offensive,drawn_shooting,fouls_offensive,fouls_shooting,g,lg_id,mp,own_shots_blk,pct_1,pct_2,pct_3,pct_4,pct_5,plus_minus_net,plus_minus_on,pos,season,team_id,tov_bad_pass,tov_lost_ball
20.0,25.0,319.0,0.0,137.0,42.0,103.0,80.0,NBA,2258.0,79.0,0.0,0.0,0.0,3.0,97.0,7.0,-6.4,C,2003,DEN,64.0,41.0
21.0,49.0,361.0,0.0,167.0,49.0,104.0,77.0,NBA,2504.0,68.0,0.0,0.0,0.0,78.0,22.0,11.7,5.2,PF,2004,DEN,56.0,52.0
22.0,26.0,179.0,0.0,93.0,16.0,69.0,55.0,NBA,1317.0,48.0,0.0,0.0,0.0,14.0,86.0,0.9,2.7,C,2005,DEN,25.0,35.0
23.0,0.0,0.0,0.0,0.0,0.0,1.0,1.0,NBA,3.0,0.0,0.0,0.0,0.0,100.0,0.0,-93.6,-93.3,PF,2006,DEN,1.0,0.0
24.0,31.0,180.0,21.0,124.0,26.0,99.0,64.0,NBA,1715.0,42.0,0.0,0.0,0.0,0.0,100.0,4.1,4.2,C,2007,DEN,31.0,32.0
25.0,3.0,35.0,4.0,19.0,3.0,21.0,16.0,NBA,266.0,7.0,0.0,0.0,1.0,43.0,56.0,-3.4,0.4,PF,2008,DEN,3.0,8.0
26.0,54.0,243.0,41.0,175.0,33.0,141.0,77.0,NBA,2510.0,59.0,0.0,0.0,0.0,2.0,98.0,7.9,6.5,C,2009,DEN,40.0,45.0
27.0,48.0,467.0,25.0,193.0,26.0,148.0,82.0,NBA,2755.0,58.0,0.0,0.0,0.0,9.0,91.0,4.3,5.5,C,2010,DEN,39.0,39.0
28.0,62.0,341.0,13.0,194.0,30.0,105.0,75.0,NBA,2291.0,56.0,0.0,0.0,0.0,0.0,100.0,5.2,7.3,C,2011,DEN,41.0,40.0
29.0,17.0,179.0,10.0,76.0,20.0,33.0,39.0,NBA,1110.0,32.0,0.0,0.0,0.0,26.0,74.0,5.6,3.3,C,2012,TOT,36.0,28.0
29.0,10.0,137.0,9.0,57.0,15.0,23.0,28.0,NBA,826.0,28.0,0.0,0.0,0.0,35.0,66.0,-2.9,1.2,C,2012,DEN,29.0,22.0
29.0,7.0,42.0,1.0,19.0,5.0,10.0,11.0,NBA,284.0,4.0,0.0,0.0,0.0,0.0,100.0,17.5,10.0,C,2012,WAS,7.0,6.0
30.0,25.0,402.0,13.0,119.0,28.0,72.0,61.0,NBA,1659.0,32.0,0.0,0.0,0.0,77.0,23.0,10.1,2.9,PF,2013,WAS,53.0,44.0
31.0,26.0,341.0,19.0,118.0,18.0,75.0,53.0,NBA,1560.0,31.0,0.0,0.0,0.0,73.0,27.0,3.2,3.3,PF,2014,WAS,46.0,31.0
32.0,25.0,269.0,16.0,99.0,23.0,70.0,67.0,NBA,1693.0,39.0,0.0,0.0,0.0,85.0,15.0,6.5,4.7,PF,2015,WAS,45.0,32.0
33.0,16.0,214.0,8.0,86.0,16.0,69.0,57.0,NBA,1094.0,22.0,0.0,0.0,0.0,11.0,89.0,3.5,2.1,PF,2016,WAS,24.0,31.0
34.0,24.0,166.0,6.0,86.0,16.0,59.0,67.0,NBA,1198.0,38.0,0.0,0.0,0.0,0.0,100.0,2.2,7.7,C,2017,HOU,30.0,20.0
35.0,14.0,117.0,3.0,48.0,13.0,45.0,52.0,NBA,758.0,23.0,0.0,0.0,0.0,1.0,100.0,9.6,16.4,C,2018,HOU,15.0,8.0
36.0,7.0,70.0,7.0,26.0,3.0,41.0,42.0,NBA,546.0,9.0,0.0,0.0,0.0,0.0,100.0,3.5,8.0,C,2019,HOU,4.0,2.0
