age,ast,blk,drb,efg_pct,fg,fg2,fg2_pct,fg2a,fg3,fg3_pct,fg3a,fg_pct,fga,ft,ft_pct,fta,g,gs,lg_id,mp,orb,pf,pos,pts,season,stl,team_id,tov,trb
21.0,15.0,3.0,13.0,0.444,16.0,16.0,0.444,36.0,0.0,0.0,0.0,0.444,36.0,7.0,0.538,13.0,5.0,5.0,NBA,132.0,12.0,22.0,PF,39.0,2004,5.0,DEN,9.0,25.0
22.0,2.0,2.0,16.0,0.429,9.0,9.0,0.429,21.0,0.0,0.0,0.0,0.429,21.0,15.0,0.652,23.0,5.0,0.0,NBA,101.0,9.0,16.0,C,33.0,2005,2.0,DEN,5.0,25.0
24.0,12.0,3.0,17.0,0.585,31.0,31.0,0.585,53.0,0.0,0.0,0.0,0.585,53.0,14.0,0.778,18.0,5.0,5.0,NBA,179.0,22.0,21.0,C,76.0,2007,3.0,DEN,13.0,39.0
25.0,1.0,1.0,4.0,0.556,5.0,5.0,0.556,9.0,0.0,0.0,0.0,0.556,9.0,3.0,1.0,3.0,3.0,0.0,NBA,30.0,3.0,8.0,PF,13.0,2008,2.0,DEN,2.0,7.0
26.0,42.0,10.0,83.0,0.548,69.0,69.0,0.548,126.0,0.0,0.0,0.0,0.548,126.0,46.0,0.657,70.0,16.0,16.0,NBA,525.0,37.0,65.0,C,184.0,2009,20.0,DEN,31.0,120.0
27.0,11.0,1.0,21.0,0.621,18.0,18.0,0.621,29.0,0.0,0.0,0.0,0.621,29.0,21.0,0.583,36.0,5.0,5.0,NBA,169.0,8.0,17.0,C,57.0,2010,6.0,DEN,4.0,29.0
28.0,8.0,4.0,31.0,0.478,22.0,22.0,0.478,46.0,0.0,0.0,0.0,0.478,46.0,27.0,0.563,48.0,5.0,5.0,NBA,162.0,14.0,17.0,C,71.0,2011,5.0,DEN,8.0,45.0
31.0,26.0,11.0,45.0,0.464,64.0,64.0,0.464,138.0,0.0,0.0,0.0,0.464,138.0,9.0,0.346,26.0,10.0,10.0,NBA,325.0,8.0,36.0,PF,137.0,2014,9.0,WAS,17.0,53.0
32.0,15.0,3.0,41.0,0.447,34.0,34.0,0.447,76.0,0.0,0.0,0.0,0.447,76.0,11.0,0.478,23.0,10.0,10.0,NBA,257.0,25.0,32.0,PF,79.0,2015,9.0,WAS,14.0,66.0
34.0,5.0,4.0,31.0,0.706,36.0,36.0,0.72,50.0,0.0,0.0,1.0,0.706,51.0,18.0,0.581,31.0,9.0,0.0,NBA,161.0,11.0,24.0,C,90.0,2017,6.0,HOU,9.0,42.0
35.0,5.0,5.0,22.0,0.6,12.0,12.0,0.6,20.0,0.0,0.0,0.0,0.6,20.0,7.0,0.636,11.0,11.0,0.0,NBA,107.0,6.0,18.0,C,31.0,2018,2.0,HOU,8.0,28.0
36.0,3.0,2.0,5.0,1.0,10.0,10.0,1.0,10.0,0.0,0.0,0.0,1.0,10.0,7.0,0.778,9.0,7.0,0.0,NBA,53.0,9.0,7.0,C,27.0,2019,3.0,HOU,3.0,14.0
