lg_id,salary,season,team_name
NBA,1156320.0,2012,Oklahoma City Thunder
NBA,1243080.0,2013,Oklahoma City Thunder
NBA,1260360.0,2014,Oklahoma City Thunder
NBA,2204370.0,2015,Detroit Pistons
NBA,14000000.0,2016,Detroit Pistons
NBA,14956522.0,2017,Detroit Pistons
NBA,16000000.0,2018,Detroit Pistons
NBA,17043478.0,2019,Detroit Pistons
