age,ast,blk,drb,efg_pct,fg,fg2,fg2_pct,fg2a,fg3,fg3_pct,fg3a,fg_pct,fga,ft,ft_pct,fta,g,gs,lg_id,mp,orb,pf,pos,pts,season,stl,team_id,tov,trb
22.0,40.0,6.0,50.0,0.534,57.0,44.0,0.579,76.0,13.0,0.302,43.0,0.479,119.0,26.0,0.897,29.0,11.0,9.0,NBA,368.0,4.0,34.0,PG,153.0,2013,5.0,OKC,21.0,54.0
23.0,46.0,4.0,59.0,0.531,75.0,54.0,0.5,108.0,21.0,0.396,53.0,0.466,161.0,39.0,0.886,44.0,19.0,4.0,NBA,531.0,13.0,49.0,PG,210.0,2014,5.0,OKC,38.0,72.0
25.0,37.0,2.0,11.0,0.482,25.0,22.0,0.595,37.0,3.0,0.167,18.0,0.455,55.0,4.0,1.0,4.0,4.0,4.0,NBA,147.0,2.0,10.0,PG,57.0,2016,6.0,DET,10.0,13.0
28.0,28.0,0.0,8.0,0.5,28.0,19.0,0.432,44.0,9.0,0.429,21.0,0.431,65.0,6.0,0.857,7.0,4.0,4.0,NBA,108.0,5.0,12.0,PG,71.0,2019,3.0,DET,5.0,13.0
