age,ast_per_mp,blk_per_mp,drb_per_mp,fg2_pct,fg2_per_mp,fg2a_per_mp,fg3_pct,fg3_per_mp,fg3a_per_mp,fg_pct,fg_per_mp,fga_per_mp,ft_pct,ft_per_mp,fta_per_mp,g,gs,lg_id,mp,orb_per_mp,pf_per_mp,pos,pts_per_mp,season,stl_per_mp,team_id,tov_per_mp,trb_per_mp
21.0,5.1,0.1,2.8,0.392,2.7,7.0,0.21,0.9,4.5,0.321,3.7,11.4,0.862,1.8,2.1,45.0,0.0,NBA,501.0,1.0,2.2,PG,10.1,2012,1.8,OKC,2.6,3.8
22.0,4.4,0.5,5.3,0.566,4.5,8.0,0.231,0.9,3.8,0.458,5.4,11.8,0.839,1.9,2.2,70.0,0.0,NBA,993.0,0.8,3.0,PG,13.6,2013,1.1,OKC,1.9,6.0
23.0,5.2,0.1,4.3,0.477,5.1,10.6,0.339,1.3,3.9,0.44,6.4,14.5,0.893,2.5,2.8,80.0,36.0,NBA,2277.0,0.7,2.2,PG,16.6,2014,1.3,OKC,2.7,4.9
24.0,7.3,0.1,4.3,0.477,5.7,12.0,0.299,1.1,3.8,0.434,6.9,15.8,0.83,2.9,3.5,77.0,40.0,NBA,2268.0,0.9,2.7,PG,17.7,2015,1.0,TOT,3.0,5.2
24.0,5.5,0.1,4.5,0.49,5.3,10.8,0.278,1.1,4.1,0.432,6.4,14.8,0.861,2.5,3.0,50.0,13.0,NBA,1398.0,0.7,2.4,PG,16.5,2015,1.1,OKC,2.3,5.2
24.0,10.3,0.2,4.1,0.46,6.4,13.9,0.337,1.2,3.4,0.436,7.6,17.4,0.796,3.4,4.3,27.0,27.0,NBA,870.0,1.2,3.0,PG,19.7,2015,0.8,DET,3.9,5.2
25.0,7.3,0.2,2.9,0.464,6.3,13.5,0.353,1.8,5.0,0.434,8.0,18.5,0.864,4.3,5.0,79.0,79.0,NBA,2424.0,0.9,2.8,PG,22.1,2016,0.9,DET,3.3,3.8
26.0,6.8,0.1,2.4,0.442,5.5,12.5,0.359,1.7,4.7,0.419,7.2,17.1,0.868,3.0,3.4,52.0,50.0,NBA,1424.0,0.5,3.3,PG,19.0,2017,0.9,DET,2.9,2.9
27.0,7.1,0.1,2.9,0.475,5.8,12.2,0.308,1.6,5.1,0.426,7.4,17.3,0.836,3.4,4.0,45.0,45.0,NBA,1201.0,0.9,2.6,PG,19.7,2018,0.8,DET,3.0,3.7
28.0,5.4,0.1,2.7,0.464,4.2,9.1,0.369,2.7,7.4,0.421,6.9,16.5,0.864,3.2,3.7,82.0,82.0,NBA,2289.0,0.7,3.3,PG,19.8,2019,0.9,DET,2.3,3.4
29.0,8.0,0.0,4.0,0.5,3.0,6.0,0.2,1.0,5.0,0.364,4.0,11.0,1.0,1.0,1.0,2.0,2.0,NBA,36.0,1.0,2.0,PG,10.0,2020,0.0,DET,1.0,5.0
