age,ast_per_g,blk_per_g,drb_per_g,efg_pct,fg2_pct,fg2_per_g,fg2a_per_g,fg3_pct,fg3_per_g,fg3a_per_g,fg_pct,fg_per_g,fga_per_g,ft_pct,ft_per_g,fta_per_g,g,gs,lg_id,mp_per_g,orb_per_g,pf_per_g,pos,pts_per_g,season,stl_per_g,team_id,tov_per_g,trb_per_g
24.0,0.0,0.0,1.2,0.667,0.667,0.4,0.6,0.0,0.0,0.0,0.667,0.4,0.6,0.667,0.8,1.2,5.0,0.0,NBA,4.8,0.6,0.4,C,1.6,2000,0.0,PHI,0.0,1.8
25.0,0.2,0.2,0.7,0.632,0.632,1.3,2.1,0.0,0.0,0.0,0.632,1.3,2.1,0.8,0.4,0.6,18.0,0.0,NBA,6.1,0.9,0.8,C,3.1,2001,0.0,PHI,0.2,1.6
26.0,0.7,1.4,3.0,0.491,0.491,2.6,5.3,0.0,0.0,0.0,0.491,2.6,5.3,0.613,1.0,1.6,20.0,20.0,NBA,19.2,2.2,2.6,C,6.2,2002,0.3,NJN,1.2,5.2
