lg_id,salary,season,team_name
NBA,301875.0,2000,Philadelphia 76ers
NBA,423500.0,2001,Philadelphia 76ers
NBA,4538000.0,2002,New Jersey Nets
NBA,4991800.0,2003,Philadelphia 76ers
NBA,5445600.0,2004,Philadelphia 76ers
NBA,5899400.0,2005,Philadelphia 76ers
NBA,6353200.0,2006,Philadelphia 76ers
