age,ast,blk,drb,fg,fg2,fg2a,fg3,fg3a,fga,ft,fta,game_score,lg_id,mp,orb,pf,pts,season,stl,team_id,tov,trb
22.0,8.0,3.0,11.0,12.0,10.0,16.0,4.0,8.0,20.0,9.0,10.0,25.2,NBA,41,6.0,6.0,32.0,2017,3.0,PHI,6.0,15.0
23.0,9.0,3.0,10.0,10.0,7.0,14.0,5.0,9.0,19.0,8.0,10.0,25.2,NBA,50,7.0,5.0,27.0,2018,3.0,PHI,6.0,14.0
24.0,5.0,1.0,10.0,9.0,7.0,10.0,5.0,11.0,16.0,8.0,8.0,20.3,NBA,41,9.0,5.0,23.0,2019,2.0,TOT,5.0,14.0
24.0,5.0,1.0,7.0,6.0,4.0,7.0,4.0,11.0,16.0,8.0,8.0,13.8,NBA,41,4.0,5.0,18.0,2019,1.0,PHI,5.0,10.0
24.0,5.0,1.0,10.0,9.0,7.0,10.0,5.0,9.0,15.0,7.0,8.0,20.3,NBA,35,9.0,5.0,23.0,2019,2.0,MIN,3.0,14.0
25.0,5.0,1.0,9.0,9.0,6.0,10.0,4.0,7.0,15.0,4.0,4.0,19.7,NBA,35,6.0,4.0,23.0,2020,5.0,PHO,5.0,10.0
