article_url,date,headline
https://hoopshabit.com/2019/10/26/brooklyn-nets-early-trends-sign-come/,2019/10/26,Hoops Habit: Are early trends sign of what's to come for Brooklyn Nets?
https://empirewritesback.com/2019/10/24/brooklyn-nets-kyrie-irving-scoring-50-debut/,2019/10/24,Empire Writes Back: Brooklyn Nets: Irving breaks record scores 50 in debut
https://sircharlesincharge.com/2019/10/24/nba-thoughts-kyrie-50-piece-sixers-knicks/,2019/10/24,"Sir Charles In Charge: NBA: Thoughts on Kyrie's 50-piece, Sixers' statement and Knicks"
https://clipperholics.com/2019/07/16/la-clippers-free-agents-kawhi/,2019/07/16,Fully Clips: Appreciating the best LA Clippers free agent not named Kawhi Leonard
https://thesmokingcuban.com/2019/06/20/dallas-mavericks-the-5-best-draft-day-trades-in-franchise-history/,2019/06/20,The Smoking Cuban: Dallas Mavericks: The 3 best draft day trades in franchise history
