lg_id,salary,season,team_name
NBA,755000.0,1985,Portland Trail Blazers
NBA,751750.0,1986,Portland Trail Blazers
NBA,961000.0,1988,Portland Trail Blazers
NBA,1054000.0,1989,Portland Trail Blazers
NBA,1025000.0,1991,New York Knicks
NBA,1020000.0,1992,New York Knicks
NBA,140000.0,1993,Los Angeles Clippers
NBA,150000.0,1994,Los Angeles Clippers
