age,ast,blk,drb,fg,fg2,fg2a,fg3,fg3a,fga,ft,fta,game_score,lg_id,mp,orb,pf,pts,season,stl,team_id,tov,trb
23.0,0.0,0.0,0.0,3.0,0.0,0.0,0.0,0.0,0.0,2.0,2.0,0.0,NBA,0.0,0.0,0.0,6.0,1980,0.0,HOU,0.0,0.0
24.0,0.0,0.0,0.0,8.0,0.0,0.0,0.0,0.0,0.0,6.0,9.0,0.0,NBA,0.0,0.0,0.0,18.0,1981,0.0,DET,0.0,0.0
25.0,0.0,0.0,0.0,4.0,0.0,0.0,0.0,0.0,0.0,9.0,10.0,0.0,NBA,0.0,0.0,0.0,11.0,1982,0.0,TOT,0.0,0.0
25.0,0.0,0.0,0.0,4.0,0.0,0.0,0.0,0.0,0.0,4.0,4.0,0.0,NBA,0.0,0.0,0.0,9.0,1982,0.0,DET,0.0,0.0
25.0,2.0,4.0,0.0,4.0,4.0,0.0,0.0,0.0,7.0,9.0,10.0,0.0,NBA,0.0,0.0,5.0,11.0,1982,0.0,CLE,0.0,8.0
26.0,4.0,3.0,0.0,5.0,5.0,10.0,0.0,1.0,10.0,4.0,5.0,0.0,NBA,0.0,0.0,6.0,13.0,1983,4.0,TOT,5.0,13.0
26.0,4.0,3.0,9.0,5.0,5.0,10.0,0.0,0.0,10.0,3.0,5.0,15.3,NBA,0.0,5.0,6.0,13.0,1983,2.0,CLE,5.0,13.0
26.0,3.0,2.0,0.0,4.0,4.0,8.0,0.0,1.0,8.0,4.0,4.0,0.0,NBA,0.0,0.0,6.0,10.0,1983,4.0,MIL,4.0,7.0
27.0,6.0,4.0,9.0,7.0,7.0,11.0,1.0,1.0,11.0,4.0,5.0,12.6,NBA,0.0,4.0,6.0,14.0,1984,2.0,MIL,4.0,11.0
28.0,5.0,3.0,10.0,9.0,9.0,15.0,0.0,1.0,15.0,5.0,6.0,15.8,NBA,0.0,4.0,6.0,21.0,1985,2.0,MIL,4.0,13.0
29.0,3.0,3.0,6.0,5.0,5.0,9.0,0.0,0.0,9.0,4.0,5.0,12.5,NBA,0.0,5.0,6.0,12.0,1986,1.0,MIL,3.0,9.0
30.0,3.0,2.0,8.0,4.0,4.0,8.0,0.0,0.0,8.0,7.0,8.0,14.3,NBA,0.0,4.0,5.0,11.0,1987,2.0,MIL,3.0,10.0
31.0,3.0,5.0,10.0,6.0,6.0,9.0,0.0,2.0,9.0,6.0,6.0,12.3,NBA,0.0,4.0,6.0,14.0,1988,3.0,MIL,3.0,12.0
32.0,3.0,2.0,6.0,3.0,3.0,7.0,1.0,2.0,9.0,4.0,4.0,9.3,NBA,0.0,5.0,5.0,8.0,1989,3.0,MIL,4.0,8.0
33.0,2.0,1.0,5.0,6.0,6.0,11.0,0.0,1.0,12.0,5.0,7.0,10.0,NBA,0.0,5.0,5.0,14.0,1990,2.0,CLE,3.0,7.0
34.0,2.0,1.0,4.0,3.0,3.0,7.0,1.0,2.0,7.0,4.0,4.0,8.6,NBA,0.0,3.0,5.0,8.0,1991,2.0,GSW,1.0,7.0
