age,ast,ast_per_g,blk,college_id,fg,fg3,fg3_pct,fg3a,fg_pct,fga,ft,ft_pct,fta,g,mp,mp_per_g,orb,pf,pts,pts_per_g,season,stl,tov,trb,trb_per_g
19.0,0.0,0.0,0.0,KANSAS,82.0,0.0,0.0,0.0,0.482,170.0,27.0,0.73,37.0,18.0,474.0,26.3,0.0,0.0,191.0,10.6,1976,0.0,0.0,115.0,6.4
20.0,0.0,0.0,0.0,KANSAS,38.0,0.0,0.0,0.0,0.396,96.0,10.0,0.625,16.0,14.0,250.0,17.9,0.0,0.0,86.0,6.1,1977,0.0,0.0,86.0,6.1
21.0,0.0,0.0,0.0,KANSAS,114.0,0.0,0.0,0.0,0.518,220.0,31.0,0.574,54.0,28.0,653.0,23.3,0.0,0.0,259.0,9.3,1978,0.0,0.0,237.0,8.5
22.0,0.0,0.0,0.0,KANSAS,161.0,0.0,0.0,0.0,0.498,323.0,87.0,0.725,120.0,29.0,974.0,33.6,0.0,0.0,409.0,14.1,1979,0.0,0.0,242.0,8.3
