age,ast_per_mp,blk_per_mp,drb_per_mp,fg2_pct,fg2_per_mp,fg2a_per_mp,fg3_pct,fg3_per_mp,fg3a_per_mp,fg_pct,fg_per_mp,fga_per_mp,ft_pct,ft_per_mp,fta_per_mp,g,gs,lg_id,mp,orb_per_mp,pf_per_mp,pos,pts_per_mp,season,stl_per_mp,team_id,tov_per_mp,trb_per_mp
23.0,0.6,1.9,4.8,0.333,3.5,10.5,0.0,0.0,0.0,0.333,3.5,10.5,0.778,2.2,2.9,12.0,0.0,NBA,113.0,4.5,7.6,C,9.2,1980,0.3,HOU,3.2,9.2
24.0,2.7,1.4,5.5,0.49,4.4,9.1,0.0,0.0,0.0,0.489,4.4,9.1,0.6,2.4,4.0,80.0,0.0,NBA,1815.0,2.8,5.3,C,11.3,1981,0.8,DET,3.2,8.3
25.0,1.5,1.7,6.2,0.442,3.5,7.9,0.0,0.0,0.1,0.435,3.5,8.0,0.762,2.0,2.6,67.0,4.0,NBA,868.0,2.4,7.1,C,9.0,1982,1.4,TOT,2.3,8.6
25.0,1.7,1.6,6.0,0.445,3.4,7.6,0.0,0.0,0.1,0.441,3.4,7.6,0.758,1.7,2.3,39.0,3.0,NBA,523.0,2.4,7.1,C,8.5,1982,0.9,DET,2.7,8.4
25.0,1.1,1.8,6.5,0.438,3.7,8.3,0.0,0.0,0.2,0.427,3.7,8.6,0.767,2.4,3.1,28.0,1.0,NBA,345.0,2.5,7.1,C,9.7,1982,2.1,CLE,1.7,9.0
26.0,1.6,1.4,5.9,0.459,3.8,8.3,0.0,0.0,0.0,0.458,3.8,8.3,0.735,1.6,2.2,73.0,19.0,NBA,1128.0,2.4,7.1,C,9.2,1983,0.7,TOT,2.1,8.3
26.0,1.7,1.5,6.1,0.455,3.7,8.1,0.0,0.0,0.0,0.455,3.7,8.1,0.615,1.1,1.7,23.0,18.0,NBA,539.0,3.1,5.7,C,8.4,1983,0.8,CLE,1.8,9.2
26.0,1.4,1.3,5.7,0.464,3.9,8.4,0.0,0.0,0.1,0.46,3.9,8.5,0.81,2.1,2.6,50.0,1.0,NBA,589.0,1.8,8.4,C,9.9,1983,0.6,MIL,2.4,7.5
27.0,1.9,1.2,4.9,0.481,4.3,9.0,0.333,0.0,0.1,0.479,4.4,9.2,0.694,2.1,3.1,68.0,4.0,NBA,838.0,2.2,7.2,C,11.0,1984,0.5,MIL,1.9,7.1
28.0,2.2,0.8,6.9,0.48,4.7,9.7,0.0,0.0,0.0,0.478,4.7,9.7,0.698,1.8,2.6,79.0,6.0,NBA,1586.0,2.4,6.0,C,11.1,1985,0.6,MIL,1.9,9.3
29.0,2.1,0.4,7.1,0.424,4.1,9.6,0.0,0.0,0.0,0.424,4.1,9.6,0.735,1.7,2.3,45.0,0.0,NBA,521.0,2.5,6.4,C,9.9,1986,0.4,MIL,1.7,9.6
30.0,1.3,0.7,5.3,0.406,3.0,7.4,0.0,0.0,0.1,0.403,3.0,7.4,0.719,2.6,3.7,62.0,3.0,NBA,626.0,2.6,7.2,C,8.6,1987,1.0,MIL,1.3,7.9
31.0,0.9,1.1,6.4,0.485,4.2,8.7,0.0,0.0,0.2,0.476,4.2,8.9,0.708,2.2,3.1,60.0,0.0,NBA,848.0,3.0,8.2,C,10.7,1988,1.1,MIL,2.1,9.4
32.0,1.9,1.1,6.5,0.377,2.7,7.2,0.269,0.4,1.4,0.36,3.1,8.6,0.784,2.1,2.7,74.0,0.0,NBA,690.0,3.3,8.0,C,8.6,1989,1.5,MIL,1.8,9.8
33.0,1.4,0.8,5.8,0.423,5.1,11.9,0.0,0.0,0.1,0.42,5.1,12.0,0.694,2.0,2.9,38.0,1.0,NBA,449.0,2.2,6.1,C,12.1,1990,0.6,CLE,2.1,7.9
34.0,1.3,0.4,6.6,0.36,2.5,7.0,0.333,0.4,1.3,0.356,2.9,8.3,0.8,1.7,2.1,36.0,1.0,NBA,257.0,2.8,8.1,C,8.0,1991,1.1,GSW,1.0,9.4
