age,ast,blk,drb,efg_pct,fg,fg2,fg2_pct,fg2a,fg3,fg3_pct,fg3a,fg_pct,fga,ft,ft_pct,fta,g,gs,lg_id,mp,orb,pf,pos,pts,season,stl,team_id,tov,trb
26.0,9.0,12.0,18.0,0.393,22.0,22.0,0.393,56.0,0.0,0.0,0.0,0.393,56.0,14.0,0.933,15.0,5.0,5.0,NBA,148.0,10.0,24.0,SF,58.0,1992,4.0,LAC,10.0,28.0
27.0,20.0,14.0,33.0,0.471,65.0,65.0,0.471,138.0,0.0,0.0,0.0,0.471,138.0,37.0,0.74,50.0,15.0,15.0,NBA,388.0,27.0,52.0,SF,167.0,1993,9.0,NYK,29.0,60.0
28.0,25.0,24.0,61.0,0.48,85.0,85.0,0.489,174.0,0.0,0.0,3.0,0.48,177.0,51.0,0.729,70.0,25.0,18.0,NBA,612.0,34.0,92.0,SF,221.0,1994,12.0,NYK,32.0,95.0
29.0,13.0,17.0,22.0,0.537,51.0,51.0,0.548,93.0,0.0,0.0,2.0,0.537,95.0,17.0,0.567,30.0,11.0,11.0,NBA,303.0,20.0,44.0,SF,119.0,1995,13.0,NYK,24.0,42.0
30.0,10.0,10.0,26.0,0.5,24.0,24.0,0.5,48.0,0.0,0.0,0.0,0.5,48.0,3.0,0.375,8.0,10.0,8.0,NBA,165.0,11.0,28.0,PF,51.0,1996,7.0,SAS,8.0,37.0
