age,ast_per_mp,blk_per_mp,drb_per_mp,fg2_pct,fg2_per_mp,fg2a_per_mp,fg3_pct,fg3_per_mp,fg3a_per_mp,fg_pct,fg_per_mp,fga_per_mp,ft_pct,ft_per_mp,fta_per_mp,g,gs,lg_id,mp,orb_per_mp,pf_per_mp,pos,pts_per_mp,season,stl_per_mp,team_id,tov_per_mp,trb_per_mp
24.0,2.4,0.0,1.9,0.505,5.3,10.5,0.4,0.1,0.2,0.503,5.4,10.7,0.609,0.9,1.5,78.0,1.0,NBA,1071.0,0.5,2.8,SG,11.8,1984,0.6,ATL,1.1,2.4
25.0,3.9,0.2,1.8,0.536,5.7,10.6,0.286,0.1,0.2,0.531,5.8,10.8,0.732,0.9,1.3,41.0,22.0,NBA,1168.0,0.5,1.8,SG,12.5,1985,0.9,ATL,1.8,2.3
26.0,4.0,0.2,1.6,0.534,6.0,11.3,0.313,0.1,0.2,0.53,6.1,11.5,0.77,1.4,1.8,81.0,79.0,NBA,2760.0,0.7,1.5,SG,13.6,1986,1.1,ATL,1.5,2.2
27.0,3.7,0.3,1.7,0.505,6.9,13.7,0.333,0.1,0.2,0.503,7.0,13.9,0.787,1.8,2.2,71.0,65.0,NBA,2049.0,0.5,1.9,SG,15.8,1987,0.7,ATL,1.5,2.2
28.0,4.5,0.3,2.0,0.478,5.6,11.7,0.0,0.0,0.0,0.478,5.6,11.7,0.798,1.1,1.3,82.0,82.0,NBA,2412.0,0.6,1.7,SG,12.3,1988,0.7,ATL,1.2,2.5
29.0,3.6,0.1,1.7,0.454,4.1,9.0,0.5,0.1,0.2,0.455,4.2,9.2,0.683,0.9,1.3,64.0,13.0,NBA,1120.0,0.8,1.4,SF,9.4,1989,0.7,TOT,1.0,2.6
29.0,2.8,0.0,1.7,0.425,4.2,9.8,0.5,0.2,0.3,0.427,4.3,10.1,0.727,1.4,1.9,31.0,2.0,NBA,416.0,0.5,1.0,SF,10.2,1989,0.9,SAC,1.0,2.3
29.0,4.0,0.1,1.7,0.473,4.0,8.5,0.5,0.1,0.1,0.473,4.1,8.6,0.632,0.6,1.0,33.0,11.0,NBA,704.0,1.0,1.6,SF,8.8,1989,0.7,IND,1.0,2.8
30.0,2.6,0.3,1.7,0.508,4.0,7.9,0.5,0.1,0.1,0.508,4.1,8.1,0.833,0.3,0.4,61.0,0.0,NBA,544.0,0.3,1.4,SF,8.6,1990,0.5,IND,1.5,2.0
31.0,2.5,0.4,2.7,0.473,3.5,7.5,0.0,0.0,0.5,0.443,3.5,8.0,0.667,0.4,0.6,41.0,0.0,NBA,355.0,0.6,0.9,SF,7.5,1991,1.0,IND,1.0,3.3
32.0,3.4,0.0,2.5,0.421,2.5,5.9,0.0,0.0,0.0,0.421,2.5,5.9,0.5,0.3,0.6,24.0,0.0,NBA,115.0,0.3,1.3,SG,5.3,1992,0.6,IND,0.9,2.8
