age,ast_per_g,blk_per_g,drb_per_g,efg_pct,fg2_pct,fg2_per_g,fg2a_per_g,fg3_pct,fg3_per_g,fg3a_per_g,fg_pct,fg_per_g,fga_per_g,ft_pct,ft_per_g,fta_per_g,g,gs,lg_id,mp_per_g,orb_per_g,pf_per_g,pos,pts_per_g,season,stl_per_g,team_id,tov_per_g,trb_per_g
24.0,0.9,0.0,0.7,0.506,0.505,2.0,4.0,0.4,0.0,0.1,0.503,2.1,4.1,0.609,0.4,0.6,78.0,1.0,NBA,13.7,0.2,1.1,SG,4.5,1984,0.2,ATL,0.4,0.9
25.0,3.0,0.2,1.4,0.534,0.536,4.5,8.4,0.286,0.0,0.2,0.531,4.6,8.6,0.732,0.7,1.0,41.0,22.0,NBA,28.5,0.4,1.4,SG,9.9,1985,0.7,ATL,1.4,1.8
26.0,3.8,0.2,1.5,0.533,0.534,5.7,10.7,0.313,0.1,0.2,0.53,5.8,10.9,0.77,1.3,1.7,81.0,79.0,NBA,34.1,0.6,1.5,SG,12.9,1986,1.0,ATL,1.4,2.1
27.0,3.0,0.2,1.3,0.505,0.505,5.5,11.0,0.333,0.1,0.2,0.503,5.6,11.2,0.787,1.4,1.8,71.0,65.0,NBA,28.9,0.4,1.5,SG,12.7,1987,0.5,ATL,1.2,1.7
28.0,3.7,0.2,1.6,0.478,0.478,4.6,9.6,0.0,0.0,0.0,0.478,4.6,9.6,0.798,0.9,1.1,82.0,82.0,NBA,29.4,0.5,1.4,SG,10.0,1988,0.6,ATL,1.0,2.1
29.0,1.7,0.0,0.8,0.46,0.454,2.0,4.4,0.5,0.0,0.1,0.455,2.0,4.5,0.683,0.4,0.6,64.0,13.0,NBA,17.5,0.4,0.7,SF,4.5,1989,0.4,TOT,0.5,1.3
29.0,1.0,0.0,0.6,0.436,0.425,1.5,3.6,0.5,0.1,0.1,0.427,1.6,3.8,0.727,0.5,0.7,31.0,2.0,NBA,13.4,0.2,0.4,SF,3.8,1989,0.3,SAC,0.4,0.8
29.0,2.4,0.1,1.0,0.476,0.473,2.4,5.1,0.5,0.0,0.1,0.473,2.4,5.1,0.632,0.4,0.6,33.0,11.0,NBA,21.3,0.6,0.9,SF,5.2,1989,0.4,IND,0.6,1.6
30.0,0.6,0.1,0.4,0.512,0.508,1.0,2.0,0.5,0.0,0.0,0.508,1.0,2.0,0.833,0.1,0.1,61.0,0.0,NBA,8.9,0.1,0.3,SF,2.1,1990,0.1,IND,0.4,0.5
31.0,0.6,0.1,0.7,0.443,0.473,0.9,1.8,0.0,0.0,0.1,0.443,0.9,1.9,0.667,0.1,0.1,41.0,0.0,NBA,8.7,0.1,0.2,SF,1.8,1991,0.2,IND,0.2,0.8
32.0,0.5,0.0,0.3,0.421,0.421,0.3,0.8,0.0,0.0,0.0,0.421,0.3,0.8,0.5,0.0,0.1,24.0,0.0,NBA,4.8,0.0,0.2,SG,0.7,1992,0.1,IND,0.1,0.4
