age,ast_per_g,blk_per_g,drb_per_g,efg_pct,fg2_pct,fg2_per_g,fg2a_per_g,fg3_pct,fg3_per_g,fg3a_per_g,fg_pct,fg_per_g,fga_per_g,ft_pct,ft_per_g,fta_per_g,g,gs,lg_id,mp_per_g,orb_per_g,pf_per_g,pos,pts_per_g,season,stl_per_g,team_id,tov_per_g,trb_per_g
22.0,1.0,0.2,1.0,0.516,0.534,1.2,2.2,0.263,0.1,0.3,0.5,1.3,2.5,0.679,0.6,0.9,60.0,1.0,NBA,11.2,0.3,1.4,SF,3.3,1995,0.6,UTA,0.9,1.2
23.0,1.5,0.1,1.4,0.453,0.417,0.9,2.3,0.429,0.2,0.4,0.419,1.1,2.7,0.692,0.6,0.8,16.0,0.0,NBA,13.6,0.3,1.9,SF,3.0,1996,0.5,UTA,1.1,1.7
24.0,1.4,0.2,1.3,0.458,0.45,1.2,2.6,0.333,0.2,0.5,0.431,1.3,3.1,0.75,0.5,0.7,23.0,6.0,NBA,14.8,0.8,1.5,SF,3.4,1997,1.0,TOT,1.0,2.0
24.0,0.8,0.2,1.1,0.46,0.455,0.8,1.7,0.333,0.1,0.2,0.44,0.8,1.9,0.833,0.8,0.9,13.0,0.0,NBA,9.9,0.3,1.2,SF,2.5,1997,0.8,UTA,0.7,1.4
24.0,2.3,0.2,1.5,0.457,0.447,1.7,3.8,0.333,0.3,0.9,0.426,2.0,4.7,0.5,0.2,0.4,10.0,6.0,NBA,21.1,1.4,1.8,SF,4.5,1997,1.1,DAL,1.5,2.9
26.0,0.3,0.0,0.3,0.5,0.5,0.3,0.7,0.0,0.0,0.0,0.5,0.3,0.7,0.0,0.0,0.0,3.0,0.0,NBA,6.0,0.0,0.3,SF,0.7,1999,0.0,MIA,0.3,0.3
