age,ast_pct,blk_pct,bpm,bpm-dum,dbpm,drb_pct,dws,fg3a_per_fga_pct,fta_per_fga_pct,g,lg_id,mp,obpm,orb_pct,ows,per,pos,season,stl_pct,team_id,tov_pct,trb_pct,ts_pct,usg_pct,vorp,ws,ws-dum,ws_per_48
22.0,12.4,1.3,-0.6,0.0,1.6,10.2,0.9,0.125,0.368,60.0,NBA,673.0,-2.2,3.1,-0.1,9.6,SF,1995,2.7,UTA,22.4,6.9,0.552,15.3,0.2,0.8,0.0,0.055
23.0,15.6,0.8,-2.5,0.0,1.0,12.1,0.2,0.163,0.302,16.0,NBA,217.0,-3.5,2.9,-0.2,6.9,SF,1996,2.0,UTA,25.9,7.6,0.493,13.9,0.0,0.1,0.0,0.02
24.0,15.2,1.0,-0.6,0.0,1.8,10.1,0.4,0.167,0.222,23.0,NBA,340.0,-2.4,6.3,-0.1,10.4,SF,1997,3.5,TOT,23.3,8.3,0.493,14.0,0.1,0.3,0.0,0.046
24.0,11.0,1.3,1.3,0.0,3.2,12.8,0.2,0.12,0.48,13.0,NBA,129.0,-1.9,4.1,0.0,11.5,SF,1997,4.5,UTA,22.9,8.7,0.545,14.1,0.1,0.3,0.0,0.098
24.0,17.7,0.7,-1.7,0.0,1.0,8.4,0.2,0.191,0.085,10.0,NBA,211.0,-2.7,7.6,-0.1,9.7,SF,1997,2.8,DAL,23.5,8.0,0.461,13.9,0.0,0.1,0.0,0.014
26.0,9.0,0.0,-7.5,0.0,-1.4,6.3,0.0,0.0,0.0,3.0,NBA,18.0,-6.1,0.0,0.0,1.9,SF,1999,0.0,MIA,33.3,3.4,0.5,8.2,0.0,0.0,0.0,-0.024
