age,ast_per_mp,blk_per_mp,drb_per_mp,fg2_pct,fg2_per_mp,fg2a_per_mp,fg3_pct,fg3_per_mp,fg3a_per_mp,fg_pct,fg_per_mp,fga_per_mp,ft_pct,ft_per_mp,fta_per_mp,g,gs,lg_id,mp,orb_per_mp,pf_per_mp,pos,pts_per_mp,season,stl_per_mp,team_id,tov_per_mp,trb_per_mp
25.0,0.9,0.0,2.6,0.8,3.4,4.3,0.0,0.0,0.9,0.667,3.4,5.1,1.0,0.9,0.9,7.0,0.0,NBA,42.0,1.7,6.9,SF,7.7,1998,0.9,IND,0.9,4.3
28.0,1.6,0.0,5.5,0.556,3.9,7.0,0.0,0.0,0.8,0.5,3.9,7.8,0.0,0.0,0.0,6.0,3.0,NBA,46.0,3.9,4.7,PF,7.8,2001,1.6,MIL,0.0,9.4
