age,and1s,astd_pts,drawn_offensive,drawn_shooting,fouls_offensive,fouls_shooting,g,lg_id,mp,own_shots_blk,pct_1,pct_2,pct_3,pct_4,pct_5,plus_minus_net,plus_minus_on,pos,season,team_id,tov_bad_pass,tov_lost_ball
25.0,20.0,195.0,0.0,96.0,35.0,108.0,71.0,NBA,1988.0,58.0,0.0,0.0,0.0,45.0,55.0,-4.2,-7.9,C,2001,ATL,34.0,39.0
26.0,19.0,100.0,0.0,53.0,14.0,56.0,43.0,NBA,1251.0,47.0,0.0,0.0,0.0,71.0,29.0,2.6,-6.4,C,2002,MEM,30.0,15.0
27.0,25.0,179.0,0.0,100.0,15.0,87.0,70.0,NBA,1982.0,62.0,0.0,0.0,0.0,1.0,99.0,-3.6,-5.3,C,2003,MEM,47.0,33.0
28.0,11.0,160.0,0.0,59.0,18.0,86.0,65.0,NBA,1674.0,47.0,0.0,0.0,0.0,0.0,100.0,-4.3,0.3,C,2004,MEM,24.0,24.0
29.0,22.0,205.0,0.0,94.0,23.0,114.0,80.0,NBA,2287.0,60.0,0.0,0.0,0.0,1.0,99.0,-3.6,1.4,C,2005,MEM,34.0,35.0
30.0,17.0,114.0,9.0,60.0,16.0,94.0,78.0,NBA,1689.0,44.0,0.0,0.0,0.0,1.0,99.0,0.6,4.9,C,2006,MEM,23.0,20.0
31.0,4.0,90.0,8.0,15.0,17.0,109.0,67.0,NBA,1035.0,20.0,0.0,0.0,0.0,7.0,93.0,-2.5,-7.2,C,2007,ATL,9.0,9.0
32.0,0.0,10.0,1.0,3.0,3.0,17.0,18.0,NBA,161.0,1.0,0.0,0.0,0.0,6.0,94.0,-2.8,-4.9,C,2008,TOT,0.0,0.0
32.0,0.0,7.0,0.0,3.0,2.0,14.0,13.0,NBA,148.0,1.0,0.0,0.0,0.0,5.0,95.0,-1.2,-3.2,C,2008,ATL,0.0,0.0
32.0,0.0,3.0,1.0,0.0,1.0,3.0,5.0,NBA,13.0,0.0,0.0,0.0,0.0,17.0,83.0,-21.7,-24.0,C,2008,SAC,0.0,0.0
33.0,0.0,6.0,0.0,2.0,4.0,10.0,17.0,NBA,125.0,5.0,0.0,0.0,0.0,0.0,100.0,-8.4,2.2,C,2009,CLE,2.0,3.0
