age,ast_per_g,blk_per_g,drb_per_g,efg_pct,fg2_pct,fg2_per_g,fg2a_per_g,fg3_pct,fg3_per_g,fg3a_per_g,fg_pct,fg_per_g,fga_per_g,ft_pct,ft_per_g,fta_per_g,g,gs,lg_id,mp_per_g,orb_per_g,pf_per_g,pos,pts_per_g,season,stl_per_g,team_id,tov_per_g,trb_per_g
19.0,1.1,0.2,1.9,0.446,0.449,2.1,4.7,0.231,0.0,0.2,0.442,2.2,4.9,0.695,1.5,2.2,80.0,12.0,NBA,17.3,1.1,1.9,SF,5.9,2005,0.9,NYK,0.9,3.0
20.0,1.1,0.2,2.5,0.414,0.416,1.6,3.9,0.2,0.0,0.1,0.412,1.6,4.0,0.606,1.4,2.2,57.0,10.0,NBA,17.5,1.4,1.8,SF,4.6,2006,1.0,TOT,1.1,3.8
20.0,1.3,0.3,2.4,0.421,0.42,1.7,4.0,0.333,0.0,0.1,0.418,1.7,4.1,0.545,1.2,2.1,36.0,10.0,NBA,19.7,1.4,2.2,SF,4.6,2006,1.2,NYK,1.3,3.8
20.0,0.7,0.1,2.5,0.4,0.41,1.5,3.7,0.0,0.0,0.1,0.4,1.5,3.8,0.7,1.7,2.4,21.0,0.0,NBA,13.8,1.4,1.0,SF,4.7,2006,0.7,ORL,0.8,3.9
21.0,1.1,0.3,2.6,0.539,0.549,3.5,6.4,0.0,0.0,0.1,0.539,3.5,6.5,0.62,1.9,3.0,57.0,7.0,NBA,22.4,1.7,2.4,SG,8.9,2007,1.0,ORL,1.5,4.4
22.0,1.3,0.3,2.2,0.526,0.542,1.8,3.4,0.278,0.1,0.5,0.507,2.0,3.9,0.653,1.4,2.1,35.0,3.0,NBA,15.6,0.9,1.3,SF,5.5,2008,0.9,TOT,0.7,3.1
22.0,0.7,0.3,1.7,0.452,0.5,1.3,2.5,0.0,0.0,0.3,0.452,1.3,2.8,0.533,0.7,1.4,11.0,0.0,NBA,10.5,0.5,0.8,SF,3.3,2008,0.5,ORL,0.5,2.2
22.0,1.5,0.3,2.5,0.548,0.556,2.1,3.8,0.333,0.2,0.6,0.524,2.3,4.4,0.683,1.7,2.5,24.0,3.0,NBA,18.0,1.0,1.5,SF,6.5,2008,1.1,LAL,0.8,3.5
23.0,1.8,0.3,2.9,0.511,0.526,2.6,4.9,0.319,0.7,2.3,0.46,3.3,7.3,0.71,1.5,2.1,82.0,20.0,NBA,24.4,1.4,2.0,SF,8.9,2009,1.7,LAL,1.1,4.3
24.0,3.8,0.6,4.5,0.462,0.436,3.6,8.2,0.334,1.9,5.7,0.394,5.5,13.9,0.649,2.1,3.2,72.0,71.0,NBA,36.5,1.1,2.3,SF,14.9,2010,1.8,HOU,2.2,5.6
25.0,2.2,0.4,4.6,0.451,0.45,2.9,6.5,0.303,1.1,3.6,0.398,4.0,10.2,0.701,1.8,2.6,75.0,75.0,NBA,34.7,0.8,2.4,SF,11.0,2011,1.6,NOH,1.6,5.4
26.0,3.3,0.6,4.2,0.453,0.44,3.4,7.7,0.333,0.7,2.1,0.417,4.1,9.8,0.775,1.9,2.5,41.0,41.0,NBA,32.9,1.0,1.8,SF,10.8,2012,1.7,NOH,1.9,5.2
27.0,2.0,0.4,4.0,0.501,0.463,2.0,4.3,0.364,1.4,3.7,0.417,3.4,8.1,0.821,1.4,1.7,56.0,15.0,NBA,26.3,0.8,1.3,SF,9.5,2013,1.3,WAS,1.5,4.8
28.0,2.5,0.3,4.9,0.562,0.509,2.7,5.3,0.407,2.3,5.7,0.456,5.1,11.1,0.772,1.9,2.5,77.0,77.0,NBA,35.4,1.3,2.3,SF,14.4,2014,1.6,WAS,1.7,6.2
29.0,2.5,0.2,4.7,0.509,0.485,2.1,4.3,0.35,2.4,6.8,0.402,4.5,11.1,0.853,1.5,1.7,82.0,82.0,NBA,35.7,0.9,2.3,SF,12.8,2015,1.9,HOU,1.7,5.6
30.0,2.3,0.3,3.7,0.523,0.478,2.1,4.4,0.371,2.3,6.2,0.416,4.4,10.6,0.783,1.6,2.0,81.0,81.0,NBA,35.3,0.8,2.2,SF,12.7,2016,2.0,HOU,1.4,4.5
31.0,2.2,0.3,5.1,0.528,0.556,1.7,3.0,0.344,2.4,6.9,0.409,4.1,10.0,0.738,1.2,1.6,80.0,80.0,NBA,34.7,0.7,1.7,SF,11.7,2017,1.8,HOU,0.9,5.7
32.0,1.6,0.2,3.9,0.542,0.519,1.5,2.8,0.368,2.5,6.9,0.412,4.0,9.7,0.854,1.1,1.3,67.0,67.0,NBA,33.9,0.5,2.0,SF,11.7,2018,1.5,HOU,0.8,4.4
33.0,3.7,0.3,4.7,0.498,0.493,2.2,4.4,0.334,2.1,6.3,0.399,4.3,10.7,0.793,1.9,2.4,69.0,69.0,NBA,34.0,0.7,1.9,SF,12.5,2019,1.3,TOT,1.5,5.4
33.0,3.3,0.3,5.0,0.489,0.409,1.4,3.4,0.36,1.9,5.3,0.379,3.3,8.7,0.837,1.4,1.7,26.0,26.0,NBA,34.0,0.6,1.7,SF,9.9,2019,1.5,PHO,1.5,5.6
33.0,3.8,0.3,4.5,0.502,0.528,2.6,5.0,0.322,2.2,6.9,0.409,4.8,11.8,0.777,2.2,2.8,43.0,43.0,NBA,34.1,0.8,2.0,SF,14.1,2019,1.2,WAS,1.6,5.3
34.0,1.1,0.0,3.8,0.438,0.25,0.3,1.0,0.333,1.0,3.0,0.313,1.3,4.0,1.0,0.5,0.5,8.0,0.0,NBA,23.0,0.5,1.6,SF,4.0,2020,0.6,SAC,0.4,4.3
