age,ast_per_g,blk_per_g,drb_per_g,efg_pct,fg2_pct,fg2_per_g,fg2a_per_g,fg3_pct,fg3_per_g,fg3a_per_g,fg_pct,fg_per_g,fga_per_g,ft_pct,ft_per_g,fta_per_g,g,gs,lg_id,mp_per_g,orb_per_g,pf_per_g,pos,pts_per_g,season,stl_per_g,team_id,tov_per_g,trb_per_g
22.0,7.0,0.4,2.4,0.545,0.545,7.3,13.4,0.0,0.0,0.0,0.545,7.3,13.4,0.661,4.1,6.2,9.0,0.0,NBA,36.7,1.4,3.2,PG,18.8,1979,4.1,PHI,3.2,3.9
23.0,6.2,0.2,2.9,0.514,0.521,4.9,9.4,0.2,0.1,0.3,0.511,4.9,9.7,0.707,1.6,2.3,18.0,0.0,NBA,37.5,1.2,2.4,PG,11.6,1980,2.5,PHI,2.5,4.1
24.0,7.3,0.8,2.9,0.544,0.557,4.3,7.6,0.0,0.0,0.2,0.544,4.3,7.8,0.762,2.0,2.6,16.0,0.0,NBA,32.1,0.3,3.4,PG,10.5,1981,2.5,PHI,2.3,3.2
25.0,8.2,0.3,2.2,0.474,0.484,5.9,12.2,0.111,0.0,0.4,0.472,6.0,12.6,0.769,2.4,3.1,21.0,0.0,NBA,36.4,0.7,2.8,PG,14.3,1982,2.3,PHI,2.3,3.0
26.0,7.0,0.2,2.2,0.506,0.503,6.3,12.5,0.5,0.1,0.2,0.503,6.4,12.7,0.703,3.5,4.9,13.0,0.0,NBA,37.2,0.8,1.8,PG,16.3,1983,2.0,PHI,2.6,3.0
27.0,3.8,0.0,2.0,0.522,0.53,7.0,13.2,0.0,0.0,0.2,0.522,7.0,13.4,0.867,2.6,3.0,5.0,0.0,NBA,34.2,0.4,3.6,PG,16.6,1984,2.6,PHI,2.0,2.4
28.0,5.2,0.4,2.6,0.529,0.547,6.2,11.4,0.0,0.0,0.4,0.529,6.2,11.8,0.857,2.8,3.2,13.0,13.0,NBA,37.2,0.9,2.2,PG,15.2,1985,2.4,PHI,2.6,3.5
29.0,7.1,0.3,3.6,0.516,0.537,7.8,14.6,0.0,0.0,0.6,0.516,7.8,15.2,0.849,5.2,6.1,12.0,12.0,NBA,43.3,1.1,1.5,PG,20.8,1986,1.1,PHI,2.7,4.7
30.0,8.8,0.8,2.4,0.53,0.538,7.0,13.0,0.0,0.0,0.2,0.53,7.0,13.2,0.857,3.6,4.2,5.0,5.0,NBA,42.0,0.2,2.8,PG,17.6,1987,1.8,PHI,2.4,2.6
32.0,13.0,0.3,2.7,0.512,0.525,7.0,13.3,0.0,0.0,0.3,0.512,7.0,13.7,0.846,3.7,4.3,3.0,3.0,NBA,42.7,1.0,1.3,PG,17.7,1989,2.3,PHI,1.0,3.7
33.0,8.5,0.2,2.7,0.481,0.5,5.0,10.0,0.0,0.0,0.4,0.481,5.0,10.4,0.903,2.8,3.1,10.0,10.0,NBA,38.8,1.2,2.1,PG,12.8,1990,1.7,NYK,1.9,3.9
34.0,5.3,0.3,2.0,0.63,0.65,4.3,6.7,0.333,0.3,1.0,0.609,4.7,7.7,0.5,0.3,0.7,3.0,3.0,NBA,33.7,1.0,3.0,PG,10.0,1991,1.0,NYK,2.7,3.0
36.0,2.8,0.2,0.6,0.478,0.478,2.2,4.6,0.0,0.0,0.0,0.478,2.2,4.6,0.0,0.0,0.2,5.0,0.0,NBA,16.4,0.6,0.6,PG,4.4,1993,1.2,NJN,1.4,1.2
