age,ast,blk,drb,efg_pct,fg,fg2,fg2_pct,fg2a,fg3,fg3_pct,fg3a,fg_pct,fga,ft,ft_pct,fta,g,gs,lg_id,mp,orb,pf,pos,pts,season,stl,team_id,tov,trb
22.0,63.0,4.0,22.0,0.545,66.0,66.0,0.545,121.0,0.0,0.0,0.0,0.545,121.0,37.0,0.661,56.0,9.0,0.0,NBA,330.0,13.0,29.0,PG,169.0,1979,37.0,PHI,29.0,35.0
23.0,111.0,4.0,52.0,0.514,89.0,88.0,0.521,169.0,1.0,0.2,5.0,0.511,174.0,29.0,0.707,41.0,18.0,0.0,NBA,675.0,22.0,43.0,PG,208.0,1980,45.0,PHI,45.0,74.0
24.0,116.0,12.0,47.0,0.544,68.0,68.0,0.557,122.0,0.0,0.0,3.0,0.544,125.0,32.0,0.762,42.0,16.0,0.0,NBA,513.0,4.0,55.0,PG,168.0,1981,40.0,PHI,36.0,51.0
25.0,172.0,6.0,47.0,0.474,125.0,124.0,0.484,256.0,1.0,0.111,9.0,0.472,265.0,50.0,0.769,65.0,21.0,0.0,NBA,765.0,15.0,58.0,PG,301.0,1982,48.0,PHI,49.0,62.0
26.0,91.0,2.0,28.0,0.506,83.0,82.0,0.503,163.0,1.0,0.5,2.0,0.503,165.0,45.0,0.703,64.0,13.0,0.0,NBA,483.0,11.0,23.0,PG,212.0,1983,26.0,PHI,34.0,39.0
27.0,19.0,0.0,10.0,0.522,35.0,35.0,0.53,66.0,0.0,0.0,1.0,0.522,67.0,13.0,0.867,15.0,5.0,0.0,NBA,171.0,2.0,18.0,PG,83.0,1984,13.0,PHI,10.0,12.0
28.0,67.0,5.0,34.0,0.529,81.0,81.0,0.547,148.0,0.0,0.0,5.0,0.529,153.0,36.0,0.857,42.0,13.0,13.0,NBA,483.0,12.0,29.0,PG,198.0,1985,31.0,PHI,34.0,46.0
29.0,85.0,3.0,43.0,0.516,94.0,94.0,0.537,175.0,0.0,0.0,7.0,0.516,182.0,62.0,0.849,73.0,12.0,12.0,NBA,519.0,13.0,18.0,PG,250.0,1986,13.0,PHI,32.0,56.0
30.0,44.0,4.0,12.0,0.53,35.0,35.0,0.538,65.0,0.0,0.0,1.0,0.53,66.0,18.0,0.857,21.0,5.0,5.0,NBA,210.0,1.0,14.0,PG,88.0,1987,9.0,PHI,12.0,13.0
32.0,39.0,1.0,8.0,0.512,21.0,21.0,0.525,40.0,0.0,0.0,1.0,0.512,41.0,11.0,0.846,13.0,3.0,3.0,NBA,128.0,3.0,4.0,PG,53.0,1989,7.0,PHI,3.0,11.0
33.0,85.0,2.0,27.0,0.481,50.0,50.0,0.5,100.0,0.0,0.0,4.0,0.481,104.0,28.0,0.903,31.0,10.0,10.0,NBA,388.0,12.0,21.0,PG,128.0,1990,17.0,NYK,19.0,39.0
34.0,16.0,1.0,6.0,0.63,14.0,13.0,0.65,20.0,1.0,0.333,3.0,0.609,23.0,1.0,0.5,2.0,3.0,3.0,NBA,101.0,3.0,9.0,PG,30.0,1991,3.0,NYK,8.0,9.0
36.0,14.0,1.0,3.0,0.478,11.0,11.0,0.478,23.0,0.0,0.0,0.0,0.478,23.0,0.0,0.0,1.0,5.0,0.0,NBA,82.0,3.0,3.0,PG,22.0,1993,6.0,NJN,7.0,6.0
