age,ast_per_poss,blk_per_poss,def_rtg,drb_per_poss,fg2_pct,fg2_per_poss,fg2a_per_poss,fg3_pct,fg3_per_poss,fg3a_per_poss,fg_pct,fg_per_poss,fga_per_poss,ft_pct,ft_per_poss,fta_per_poss,g,gs,lg_id,mp,off_rtg,orb_per_poss,pf_per_poss,pos,pts_per_poss,season,stl_per_poss,team_id,tov_per_poss,trb_per_poss
23.0,1.7,1.2,107.0,10.3,0.512,5.6,11.0,0.0,0.0,0.0,0.512,5.6,11.0,0.588,3.3,5.6,82.0,0.0,NBA,2578.0,113.0,8.0,5.8,PF,14.5,1981,1.3,GSW,2.7,18.3
24.0,1.8,1.2,104.0,11.4,0.535,4.7,8.8,0.0,0.0,0.0,0.534,4.7,8.8,0.553,1.9,3.4,74.0,55.0,NBA,2213.0,113.0,6.0,6.2,PF,11.3,1982,1.4,GSW,2.2,17.4
25.0,1.5,0.6,107.0,8.9,0.588,5.8,9.9,0.0,0.0,0.0,0.588,5.8,9.9,0.535,1.7,3.2,49.0,41.0,NBA,1433.0,113.0,6.7,6.0,PF,13.3,1983,1.2,GSW,2.7,15.6
26.0,1.6,0.5,108.0,8.7,0.56,5.4,9.7,0.0,0.0,0.0,0.56,5.4,9.7,0.56,2.1,3.7,75.0,63.0,NBA,2091.0,110.0,6.3,6.1,PF,12.9,1984,1.4,GSW,2.8,14.9
27.0,1.8,1.0,111.0,8.6,0.53,6.8,12.8,0.0,0.0,0.0,0.53,6.8,12.8,0.605,2.9,4.8,80.0,78.0,NBA,2497.0,112.0,7.5,5.3,PF,16.5,1985,1.5,GSW,3.0,16.2
28.0,1.8,0.9,110.0,8.9,0.537,5.9,11.0,0.0,0.0,0.0,0.536,5.9,11.1,0.493,2.1,4.3,77.0,74.0,NBA,2441.0,111.0,7.2,5.4,PF,14.0,1986,1.2,GSW,2.5,16.2
29.0,1.9,1.1,108.0,11.0,0.547,5.9,10.8,0.0,0.0,0.0,0.546,5.9,10.8,0.574,2.2,3.9,80.0,78.0,NBA,2374.0,113.0,7.3,5.9,PF,14.1,1987,1.4,GSW,2.7,18.2
30.0,2.4,1.0,111.0,9.8,0.475,5.5,11.5,0.0,0.0,0.1,0.472,5.5,11.6,0.407,1.0,2.6,20.0,10.0,NBA,499.0,97.0,7.5,6.0,PF,12.0,1988,1.1,GSW,3.4,17.2
31.0,2.8,1.3,106.0,9.0,0.552,5.2,9.4,0.0,0.0,0.0,0.552,5.2,9.4,0.31,0.4,1.4,80.0,78.0,NBA,1897.0,109.0,6.4,5.8,PF,10.8,1989,1.4,GSW,2.6,15.4
32.0,2.5,1.0,101.0,9.9,0.479,3.7,7.7,0.0,0.0,0.1,0.474,3.7,7.8,0.364,0.7,2.0,74.0,0.0,NBA,1300.0,100.0,6.6,7.4,PF,8.1,1990,2.0,HOU,2.6,16.5
33.0,2.2,0.6,101.0,10.3,0.487,3.2,6.7,0.0,0.0,0.0,0.487,3.2,6.7,0.24,0.3,1.3,81.0,28.0,NBA,1923.0,106.0,7.7,6.7,PF,6.8,1991,2.1,HOU,2.4,18.0
34.0,2.1,0.4,107.0,9.4,0.549,3.2,5.7,0.0,0.0,0.1,0.543,3.2,5.8,0.364,0.3,0.7,45.0,7.0,NBA,800.0,104.0,6.7,7.6,PF,6.6,1992,1.3,HOU,2.8,16.1
35.0,1.7,1.0,105.0,10.0,0.437,2.3,5.3,0.0,0.0,0.0,0.437,2.3,5.3,0.409,0.5,1.3,66.0,13.0,NBA,833.0,100.0,6.2,8.0,PF,5.1,1993,1.4,SAS,2.4,16.2
