age,ast_pct,blk_pct,bpm,bpm-dum,dbpm,drb_pct,dws,fg3a_per_fga_pct,fta_per_fga_pct,g,lg_id,mp,obpm,orb_pct,ows,per,pos,season,stl_pct,team_id,tov_pct,trb_pct,ts_pct,usg_pct,vorp,ws,ws-dum,ws_per_48
23.0,4.6,1.4,1.4,0.0,1.5,24.5,2.4,0.0,0.507,82.0,NBA,2578.0,-0.1,18.3,3.7,14.8,PF,1981,1.3,GSW,16.7,21.4,0.54,13.4,2.2,6.1,0.0,0.113
24.0,4.6,1.4,1.4,0.0,2.1,26.8,3.0,0.002,0.386,74.0,NBA,2213.0,-0.7,13.5,2.3,12.8,PF,1982,1.4,GSW,17.9,20.0,0.548,10.7,1.9,5.2,0.0,0.113
25.0,4.1,0.8,0.4,0.0,0.6,21.6,1.1,0.0,0.324,49.0,NBA,1433.0,-0.2,15.3,1.9,13.2,PF,1983,1.2,GSW,19.2,18.3,0.591,11.8,0.9,3.1,0.0,0.102
26.0,4.5,0.6,-0.6,0.0,0.7,21.9,2.1,0.0,0.385,75.0,NBA,2091.0,-1.3,13.7,1.8,12.1,PF,1984,1.4,GSW,19.6,17.5,0.571,11.8,0.7,4.0,0.0,0.091
27.0,5.2,1.2,0.5,0.0,1.3,22.8,1.6,0.0,0.371,80.0,NBA,2497.0,-0.8,16.7,3.1,15.1,PF,1985,1.5,GSW,16.6,19.5,0.553,15.1,1.6,4.7,0.0,0.09
28.0,4.9,1.1,0.8,0.0,0.4,21.8,1.6,0.002,0.387,77.0,NBA,2441.0,0.4,16.4,2.7,13.4,PF,1986,1.2,GSW,16.4,19.0,0.539,13.2,1.7,4.3,0.0,0.085
29.0,5.2,1.4,1.3,0.0,1.3,25.7,2.7,0.002,0.362,80.0,NBA,2374.0,0.0,16.7,2.7,14.2,PF,1987,1.4,GSW,17.6,21.1,0.561,13.0,2.0,5.4,0.0,0.109
30.0,6.6,1.3,-2.4,0.0,0.1,23.6,0.4,0.008,0.22,20.0,NBA,499.0,-2.5,17.2,-0.1,10.8,PF,1988,1.1,GSW,21.1,20.3,0.471,13.9,-0.1,0.3,0.0,0.025
31.0,7.6,1.6,0.6,0.0,1.6,19.9,2.3,0.0,0.146,80.0,NBA,1897.0,-1.0,14.4,1.4,11.9,PF,1989,1.4,GSW,20.7,17.2,0.54,10.6,1.2,3.7,0.0,0.094
32.0,6.6,1.3,0.3,0.0,3.0,21.7,2.5,0.009,0.258,74.0,NBA,1300.0,-2.7,14.9,0.1,9.8,PF,1990,2.0,HOU,22.8,18.4,0.468,9.6,0.8,2.6,0.0,0.095
33.0,5.8,0.7,1.6,0.0,3.5,22.4,3.6,0.0,0.19,81.0,NBA,1923.0,-1.8,16.8,0.7,10.3,PF,1991,2.1,HOU,24.6,19.6,0.47,8.1,1.8,4.4,0.0,0.109
34.0,5.4,0.5,-1.4,0.0,1.2,20.2,0.9,0.011,0.12,45.0,NBA,800.0,-2.6,15.3,0.2,8.1,PF,1992,1.3,HOU,31.2,17.8,0.537,7.6,0.1,1.2,0.0,0.069
35.0,4.3,1.2,-1.1,0.0,1.9,21.7,1.2,0.0,0.253,66.0,NBA,833.0,-3.0,14.8,0.0,7.1,PF,1993,1.4,SAS,28.7,18.4,0.44,7.2,0.2,1.2,0.0,0.069
