age,ast,blk,drb,fg,fg2,fg2a,fg3,fg3a,fga,ft,fta,game_score,lg_id,mp,orb,pf,pts,season,stl,team_id,tov,trb
22.0,2.0,0.0,0.0,5.0,5.0,7.0,0.0,0.0,7.0,0.0,0.0,0.0,NBA,0.0,0.0,3.0,10.0,1983,0.0,SAS,0.0,6.0
23.0,2.0,2.0,0.0,5.0,5.0,7.0,0.0,0.0,7.0,6.0,6.0,0.0,NBA,0.0,0.0,4.0,12.0,1984,2.0,PHO,3.0,3.0
24.0,4.0,0.0,6.0,8.0,8.0,17.0,0.0,0.0,17.0,4.0,6.0,18.1,NBA,0.0,3.0,3.0,20.0,1985,3.0,PHO,4.0,8.0
27.0,3.0,1.0,6.0,7.0,7.0,12.0,0.0,1.0,12.0,4.0,5.0,11.5,NBA,0.0,5.0,5.0,18.0,1988,1.0,TOT,5.0,7.0
27.0,3.0,1.0,6.0,7.0,7.0,12.0,0.0,1.0,12.0,4.0,5.0,11.5,NBA,0.0,5.0,5.0,18.0,1988,1.0,CLE,5.0,7.0
28.0,3.0,1.0,4.0,6.0,6.0,11.0,0.0,0.0,11.0,2.0,3.0,9.0,NBA,0.0,4.0,5.0,14.0,1989,2.0,CLE,4.0,7.0
29.0,2.0,0.0,1.0,2.0,2.0,6.0,1.0,1.0,6.0,0.0,0.0,6.1,NBA,0.0,4.0,2.0,5.0,1990,0.0,IND,1.0,4.0
30.0,1.0,1.0,2.0,3.0,2.0,3.0,1.0,1.0,4.0,2.0,2.0,5.1,NBA,0.0,0.0,5.0,7.0,1991,2.0,IND,3.0,2.0
31.0,6.0,2.0,4.0,7.0,7.0,11.0,1.0,2.0,11.0,4.0,4.0,16.0,NBA,0.0,3.0,5.0,16.0,1992,4.0,TOT,3.0,6.0
31.0,6.0,2.0,4.0,7.0,7.0,11.0,1.0,2.0,11.0,4.0,4.0,16.0,NBA,0.0,3.0,5.0,16.0,1992,4.0,CLE,3.0,6.0
32.0,3.0,1.0,3.0,6.0,6.0,9.0,0.0,1.0,9.0,4.0,6.0,10.2,NBA,0.0,3.0,4.0,12.0,1993,3.0,CLE,1.0,4.0
