age,ast_pct,blk_pct,bpm,bpm-dum,dbpm,drb_pct,dws,fg3a_per_fga_pct,fta_per_fga_pct,g,lg_id,mp,obpm,orb_pct,ows,per,pos,season,stl_pct,team_id,tov_pct,trb_pct,ts_pct,usg_pct,vorp,ws,ws-dum,ws_per_48
20.0,5.6,0.5,-7.5,0.0,-1.6,11.8,0.1,0.543,0.286,22.0,NBA,156.0,-5.9,0.0,-0.2,2.3,SF,2014,1.0,CLE,21.8,5.8,0.47,14.4,-0.2,-0.1,0.0,-0.041
21.0,12.3,0.1,-1.2,0.0,-0.5,8.9,0.4,0.403,0.284,33.0,NBA,555.0,-0.7,4.5,0.3,10.5,SG,2015,2.1,BRK,13.7,6.7,0.508,14.4,0.1,0.7,0.0,0.061
22.0,12.2,0.4,-4.2,0.0,-1.7,14.3,0.1,0.5,0.378,40.0,NBA,399.0,-2.4,2.2,0.2,8.5,SF,2016,0.8,BRK,20.3,8.2,0.562,12.1,-0.2,0.3,0.0,0.031
