age,ast,blk,drb,fg,fg2,fg2a,fg3,fg3a,fga,ft,fta,game_score,lg_id,mp,orb,pf,pts,season,stl,team_id,tov,trb
25.0,4.0,1.0,5.0,4.0,4.0,8.0,0.0,1.0,8.0,4.0,6.0,11.0,NBA,0.0,5.0,6.0,10.0,1995,3.0,LAC,4.0,9.0
26.0,2.0,2.0,2.0,5.0,5.0,8.0,0.0,0.0,8.0,2.0,4.0,8.7,NBA,0.0,3.0,4.0,10.0,1996,1.0,TOT,1.0,3.0
26.0,1.0,1.0,0.0,5.0,5.0,8.0,0.0,0.0,8.0,0.0,1.0,8.7,NBA,0.0,3.0,2.0,10.0,1996,0.0,NYK,0.0,3.0
26.0,2.0,2.0,2.0,2.0,2.0,4.0,0.0,0.0,4.0,2.0,4.0,4.9,NBA,0.0,2.0,4.0,6.0,1996,1.0,DEN,1.0,3.0
27.0,0.0,0.0,2.0,1.0,1.0,2.0,0.0,0.0,2.0,0.0,0.0,1.3,NBA,0.0,1.0,1.0,2.0,1997,0.0,TOT,1.0,2.0
27.0,0.0,0.0,2.0,1.0,1.0,2.0,0.0,0.0,2.0,0.0,0.0,1.3,NBA,0.0,1.0,1.0,2.0,1997,0.0,WSB,1.0,2.0
27.0,0.0,0.0,0.0,0.0,0.0,0.0,0.0,0.0,0.0,0.0,0.0,0.0,NBA,0.0,0.0,0.0,0.0,1997,0.0,MIA,0.0,0.0
