article_url,date,headline
https://dailyknicks.com/2019/10/06/new-york-knicks-kenny-smith-theory-players-signing-elsewhere/,2019/10/06,Daily Knicks: New York Knicks: Kenny Smith's theory for players signing elsewhere
https://sircharlesincharge.com/2019/09/14/carmelo-anthony-victim-controversial-nba/,2019/09/14,Sir Charles In Charge: Carmelo Anthony is the latest victim of controversial players fading out of NBA
https://hooplifetv.com/2019/09/12/how-joe-johnson-benefit-detroit-pistons/,2019/09/12,HoopLifeTV: How Joe Johnson will Benefit the Detroit Pistons
https://lakeshowlife.com/2019/08/31/los-angeles-lakers-6-reasons-kobe-bryant-wrong-winning-12-rings/,2019/08/31,Lake Show Life: Los Angeles Lakers: 6 reasons why Kobe Bryant was wrong about winning 12 rings
https://thunderousintentions.com/2019/07/22/okc-thunder-russell-westbrook-big3/,2019/07/22,Thunderous Intentions: Thunder fans continue to process trades while BIG3 stars revel over Westbrook
