age,ast,blk,drb,fg,fg2,fg2a,fg3,fg3a,fga,ft,fta,game_score,lg_id,mp,orb,pf,pts,season,stl,team_id,tov,trb
24.0,5.0,4.0,9.0,15.0,15.0,28.0,1.0,3.0,28.0,10.0,12.0,24.2,NBA,0.0,4.0,6.0,35.0,2002,3.0,NJN,6.0,13.0
25.0,5.0,3.0,10.0,12.0,12.0,23.0,1.0,2.0,24.0,10.0,14.0,25.1,NBA,0.0,7.0,6.0,30.0,2003,4.0,NJN,8.0,15.0
26.0,3.0,3.0,14.0,13.0,13.0,19.0,0.0,2.0,19.0,10.0,13.0,31.5,NBA,0.0,5.0,6.0,36.0,2004,3.0,NJN,5.0,16.0
27.0,2.0,2.0,5.0,8.0,8.0,15.0,0.0,1.0,16.0,3.0,4.0,13.0,NBA,0.0,4.0,6.0,18.0,2005,3.0,DEN,2.0,9.0
28.0,1.0,2.0,3.0,4.0,4.0,11.0,0.0,0.0,11.0,1.0,2.0,9.4,NBA,28.0,5.0,4.0,9.0,2006,4.0,DEN,2.0,8.0
30.0,3.0,1.0,4.0,6.0,6.0,11.0,0.0,0.0,11.0,3.0,4.0,8.1,NBA,34.0,5.0,6.0,12.0,2008,2.0,DEN,4.0,8.0
31.0,6.0,3.0,12.0,7.0,7.0,15.0,1.0,2.0,15.0,5.0,9.0,15.8,NBA,40.0,3.0,6.0,16.0,2009,4.0,DEN,6.0,15.0
32.0,2.0,3.0,12.0,7.0,7.0,11.0,0.0,1.0,11.0,6.0,8.0,15.6,NBA,38.0,4.0,5.0,18.0,2010,2.0,DEN,3.0,13.0
33.0,5.0,1.0,8.0,7.0,7.0,14.0,0.0,0.0,14.0,5.0,8.0,12.6,NBA,34.0,2.0,5.0,15.0,2011,2.0,DEN,5.0,10.0
34.0,1.0,3.0,6.0,5.0,5.0,7.0,0.0,0.0,7.0,3.0,4.0,10.7,NBA,25.0,4.0,5.0,11.0,2012,1.0,LAC,2.0,10.0
35.0,3.0,4.0,8.0,5.0,5.0,8.0,0.0,0.0,8.0,3.0,4.0,11.6,NBA,29.0,5.0,6.0,12.0,2013,2.0,NYK,3.0,11.0
