age,avg_dist,fg2_dunk,fg2_pct,fg2_pct_ast,fg2a_pct_fga,fg3_heave,fg3_pct,fg3_pct_ast,fg3_pct_corner,fg3a_heave,fg3a_pct_fga,fg_pct,fg_pct_00_03,fg_pct_03_10,fg_pct_10_16,fg_pct_16_xx,g,lg_id,mp,pct_fg2_dunk,pct_fg3a_corner,pct_fga_00_03,pct_fga_03_10,pct_fga_10_16,pct_fga_16_xx,pos,season,team_id
21.0,0.0,0.0,0.0,0.0,0.0,0.0,0.0,0.0,0.0,0.0,0.0,0.0,0.0,0.0,0.0,0.0,1.0,NBA,2.0,0.0,0.0,0.0,0.0,0.0,0.0,PF,2018,DEN
22.0,14.5,2.0,0.625,0.4,0.444,0.0,0.4,1.0,0.5,0.0,0.556,0.5,0.714,0.0,0.0,0.0,25.0,NBA,94.0,0.111,0.4,0.389,0.056,0.0,0.0,PF,2019,DEN
