age,ast_per_poss,blk_per_poss,def_rtg,drb_per_poss,fg2_pct,fg2_per_poss,fg2a_per_poss,fg3_pct,fg3_per_poss,fg3a_per_poss,fg_pct,fg_per_poss,fga_per_poss,ft_pct,ft_per_poss,fta_per_poss,g,gs,lg_id,mp,off_rtg,orb_per_poss,pf_per_poss,pos,pts_per_poss,season,stl_per_poss,team_id,tov_per_poss,trb_per_poss
23.0,1.8,2.0,104.0,9.0,0.516,5.5,10.7,0.0,0.0,0.0,0.516,5.5,10.7,0.615,2.7,4.3,14.0,0.0,NBA,279.0,108.0,5.3,7.8,PF,13.7,1982,1.3,LAL,2.8,14.3
24.0,2.4,2.0,106.0,8.0,0.57,5.7,10.0,0.0,0.0,0.0,0.57,5.7,10.0,0.657,2.9,4.4,15.0,0.0,NBA,377.0,109.0,3.4,6.4,PF,14.3,1983,1.6,LAL,2.9,11.4
25.0,1.6,1.1,106.0,9.9,0.652,6.7,10.3,0.0,0.0,0.0,0.652,6.7,10.3,0.636,2.4,3.7,21.0,0.0,NBA,428.0,119.0,3.7,6.4,PF,15.8,1984,1.1,LAL,2.5,13.6
26.0,2.0,1.1,104.0,10.3,0.593,5.7,9.6,0.0,0.0,0.0,0.593,5.7,9.6,0.679,2.3,3.3,19.0,19.0,NBA,375.0,120.0,5.0,6.2,PF,13.6,1985,2.1,LAL,2.3,15.3
27.0,2.5,1.3,105.0,10.3,0.6,4.9,8.1,0.0,0.0,0.0,0.6,4.9,8.1,0.722,2.3,3.2,14.0,14.0,NBA,267.0,112.0,4.7,7.0,PF,12.1,1986,1.8,LAL,3.2,14.9
28.0,2.0,0.7,105.0,11.3,0.585,5.3,9.1,0.0,0.0,0.0,0.585,5.3,9.1,0.912,6.9,7.5,17.0,0.0,NBA,215.0,129.0,3.6,9.3,PF,17.5,1987,1.8,LAL,2.9,14.9
29.0,2.5,0.6,108.0,10.6,0.618,5.9,9.5,0.0,0.0,0.0,0.618,5.9,9.5,0.692,2.5,3.6,19.0,6.0,NBA,186.0,121.0,3.6,7.8,PF,14.2,1988,1.4,LAL,2.2,14.2
31.0,2.8,1.0,105.0,10.7,0.453,3.1,6.8,0.0,0.0,0.1,0.444,3.1,6.9,0.679,2.4,3.6,16.0,16.0,NBA,385.0,109.0,5.0,6.5,PF,8.5,1990,1.0,PHO,2.2,15.7
32.0,3.8,0.9,105.0,5.6,0.4,1.9,4.7,0.0,0.0,0.0,0.4,1.9,4.7,0.0,0.0,0.0,4.0,0.0,NBA,53.0,89.0,7.5,5.6,PF,3.8,1991,4.7,PHO,3.8,13.2
