age,ast_per_g,blk_per_g,drb_per_g,efg_pct,fg2_pct,fg2_per_g,fg2a_per_g,fg3_pct,fg3_per_g,fg3a_per_g,fg_pct,fg_per_g,fga_per_g,ft_pct,ft_per_g,fta_per_g,g,gs,lg_id,mp_per_g,orb_per_g,pf_per_g,pos,pts_per_g,season,stl_per_g,team_id,tov_per_g,trb_per_g
23.0,0.8,0.9,3.9,0.516,0.516,2.4,4.6,0.0,0.0,0.0,0.516,2.4,4.6,0.615,1.1,1.9,14.0,0.0,NBA,19.9,2.3,3.4,PF,5.9,1982,0.6,LAL,1.2,6.1
24.0,1.3,1.1,4.2,0.57,0.57,3.0,5.3,0.0,0.0,0.0,0.57,3.0,5.3,0.657,1.5,2.3,15.0,0.0,NBA,25.1,1.8,3.4,PF,7.5,1983,0.9,LAL,1.5,6.0
25.0,0.7,0.5,4.2,0.652,0.652,2.9,4.4,0.0,0.0,0.0,0.652,2.9,4.4,0.636,1.0,1.6,21.0,0.0,NBA,20.4,1.6,2.7,PF,6.7,1984,0.5,LAL,1.0,5.8
26.0,0.9,0.5,4.6,0.593,0.593,2.5,4.3,0.0,0.0,0.0,0.593,2.5,4.3,0.679,1.0,1.5,19.0,19.0,NBA,19.7,2.2,2.7,PF,6.1,1985,0.9,LAL,1.0,6.8
27.0,1.0,0.5,4.1,0.6,0.6,1.9,3.2,0.0,0.0,0.0,0.6,1.9,3.2,0.722,0.9,1.3,14.0,14.0,NBA,19.1,1.9,2.8,PF,4.8,1986,0.7,LAL,1.3,5.9
28.0,0.5,0.2,3.0,0.585,0.585,1.4,2.4,0.0,0.0,0.0,0.585,1.4,2.4,0.912,1.8,2.0,17.0,0.0,NBA,12.6,0.9,2.5,PF,4.6,1987,0.5,LAL,0.8,3.9
29.0,0.5,0.1,2.0,0.618,0.618,1.1,1.8,0.0,0.0,0.0,0.618,1.1,1.8,0.692,0.5,0.7,19.0,6.0,NBA,9.8,0.7,1.5,PF,2.7,1988,0.3,LAL,0.4,2.7
31.0,1.4,0.5,5.3,0.444,0.453,1.5,3.3,0.0,0.0,0.1,0.444,1.5,3.4,0.679,1.2,1.8,16.0,16.0,NBA,24.1,2.4,3.2,PF,4.2,1990,0.5,PHO,1.1,7.7
32.0,1.0,0.3,1.5,0.4,0.4,0.5,1.3,0.0,0.0,0.0,0.4,0.5,1.3,0.0,0.0,0.0,4.0,0.0,NBA,13.3,2.0,1.5,PF,1.0,1991,1.3,PHO,1.0,3.5
