age,ast,blk,drb,fg,fg2,fg2a,fg3,fg3a,fga,ft,fta,game_score,lg_id,mp,orb,pf,pts,season,stl,team_id,tov,trb
23.0,3.0,2.0,9.0,7.0,7.0,13.0,0.0,1.0,13.0,4.0,6.0,12.1,NBA,0.0,4.0,6.0,14.0,1994,2.0,SAC,3.0,11.0
24.0,1.0,0.0,2.0,2.0,2.0,2.0,0.0,0.0,2.0,1.0,2.0,2.9,NBA,0.0,1.0,3.0,5.0,1995,1.0,DET,2.0,3.0
25.0,1.0,1.0,1.0,1.0,1.0,3.0,0.0,0.0,3.0,1.0,2.0,3.4,NBA,0.0,1.0,4.0,3.0,1996,1.0,TOT,1.0,2.0
25.0,0.0,0.0,0.0,0.0,0.0,0.0,0.0,0.0,0.0,0.0,0.0,0.0,NBA,0.0,0.0,4.0,0.0,1996,0.0,WSB,0.0,0.0
25.0,1.0,1.0,1.0,1.0,1.0,3.0,0.0,0.0,3.0,1.0,2.0,3.4,NBA,0.0,1.0,4.0,3.0,1996,1.0,MIL,1.0,2.0
