lg_id,salary,season,team_name
NBA,887500.0,1988,Cleveland Cavaliers
NBA,987500.0,1989,Cleveland Cavaliers
NBA,1100000.0,1990,Cleveland Cavaliers
NBA,1320000.0,1991,Cleveland Cavaliers
NBA,2245000.0,1992,Cleveland Cavaliers
NBA,2923000.0,1993,Cleveland Cavaliers
NBA,3541000.0,1994,Cleveland Cavaliers
NBA,3800000.0,1995,Cleveland Cavaliers
NBA,4700000.0,1996,Cleveland Cavaliers
