age,ast_per_mp,blk_per_mp,drb_per_mp,fg2_pct,fg2_per_mp,fg2a_per_mp,fg3_pct,fg3_per_mp,fg3a_per_mp,fg_pct,fg_per_mp,fga_per_mp,ft_pct,ft_per_mp,fta_per_mp,g,gs,lg_id,mp,orb_per_mp,pf_per_mp,pos,pts_per_mp,season,stl_per_mp,team_id,tov_per_mp,trb_per_mp
22.0,2.8,1.2,6.4,0.46,5.1,11.1,0.0,0.0,0.0,0.46,5.1,11.1,0.677,3.7,5.5,5.0,5.0,NBA,204.0,1.8,1.9,C,13.9,1988,0.4,CLE,2.8,8.1
23.0,2.6,1.1,7.3,0.37,3.7,9.9,0.0,0.0,0.2,0.362,3.7,10.1,0.6,4.5,7.5,5.0,5.0,NBA,167.0,2.6,3.9,C,11.9,1989,1.3,CLE,1.3,9.9
24.0,3.9,0.8,8.5,0.586,7.9,13.5,0.0,0.0,0.0,0.586,7.9,13.5,0.696,6.2,8.9,5.0,5.0,NBA,186.0,0.8,2.3,C,22.1,1990,0.4,CLE,2.5,9.3
26.0,3.0,0.9,7.2,0.53,6.5,12.3,0.0,0.0,0.1,0.528,6.5,12.3,0.814,6.2,7.6,17.0,17.0,NBA,687.0,1.9,2.5,C,19.2,1992,0.6,CLE,1.9,9.1
27.0,3.1,0.7,8.0,0.557,6.5,11.6,0.0,0.0,0.0,0.557,6.5,11.6,0.8,4.0,5.1,9.0,9.0,NBA,356.0,2.6,2.5,C,17.0,1993,0.6,CLE,2.6,10.6
