age,ast_pct,blk_pct,bpm,bpm-dum,dbpm,drb_pct,dws,fg3a_per_fga_pct,fta_per_fga_pct,g,lg_id,mp,obpm,orb_pct,ows,per,pos,season,stl_pct,team_id,tov_pct,trb_pct,ts_pct,usg_pct,vorp,ws,ws-dum,ws_per_48
20.0,9.8,2.2,-1.2,0.0,2.6,17.9,0.5,0.386,0.286,29.0,NBA,245.0,-3.8,4.8,-0.1,11.9,SF,2002,3.8,BOS,8.2,11.2,0.4,16.0,0.1,0.4,0.0,0.075
21.0,5.1,1.5,-4.4,0.0,1.0,16.6,1.1,0.228,0.187,51.0,NBA,666.0,-5.4,7.4,-0.5,8.8,SF,2003,2.7,BOS,11.1,11.9,0.392,14.5,-0.4,0.5,0.0,0.037
22.0,10.8,0.5,-0.9,0.0,-1.1,12.1,0.6,0.39,0.106,55.0,NBA,969.0,0.2,4.8,1.4,12.5,SF,2004,1.6,TOT,9.8,8.5,0.543,13.7,0.3,2.0,0.0,0.1
22.0,10.0,0.4,-0.8,0.0,-0.1,13.8,0.4,0.323,0.131,21.0,NBA,408.0,-0.8,5.2,0.5,11.7,SF,2004,2.1,BOS,10.3,9.5,0.525,13.0,0.1,0.8,0.0,0.097
22.0,11.4,0.6,-0.9,0.0,-1.8,10.8,0.3,0.432,0.09,34.0,NBA,561.0,0.9,4.5,0.9,13.0,SF,2004,1.2,CLE,9.5,7.7,0.555,14.2,0.2,1.2,0.0,0.103
23.0,10.3,1.4,-3.2,0.0,2.0,20.7,0.1,0.5,1.667,8.0,NBA,55.0,-5.2,2.0,0.0,9.7,SF,2005,2.8,PHI,32.5,11.2,0.577,12.4,0.0,0.1,0.0,0.06
