age,ast,blk,drb,fg,fg2,fg2a,fg3,fg3a,fga,ft,fta,game_score,lg_id,mp,orb,pf,pts,season,stl,team_id,tov,trb
20.0,0.0,1.0,0.0,2.0,1.0,1.0,1.0,1.0,2.0,0.0,0.0,5.1,NBA,0.0,0.0,0.0,5.0,2002,0.0,BOS,0.0,0.0
21.0,0.0,0.0,0.0,1.0,1.0,3.0,0.0,0.0,3.0,1.0,2.0,1.7,NBA,0.0,1.0,0.0,3.0,2003,1.0,BOS,0.0,1.0
