age,ast_per_poss,blk_per_poss,def_rtg,drb_per_poss,fg2_pct,fg2_per_poss,fg2a_per_poss,fg3_pct,fg3_per_poss,fg3a_per_poss,fg_pct,fg_per_poss,fga_per_poss,ft_pct,ft_per_poss,fta_per_poss,g,gs,lg_id,mp,off_rtg,orb_per_poss,pf_per_poss,pos,pts_per_poss,season,stl_per_poss,team_id,tov_per_poss,trb_per_poss
20.0,0.0,17.8,90.0,0.0,1.0,17.8,17.8,1.0,17.8,17.8,1.0,35.6,35.6,0.0,0.0,0.0,2.0,0.0,NBA,3.0,250.0,0.0,0.0,SF,89.0,2002,0.0,BOS,0.0,0.0
21.0,0.0,0.0,102.0,0.0,0.25,4.8,19.3,0.0,0.0,0.0,0.25,4.8,19.3,0.5,4.8,9.6,3.0,0.0,NBA,11.0,87.0,9.6,0.0,SF,14.5,2003,4.8,BOS,0.0,9.6
