age,avg_dist,fg2_dunk,fg2_pct,fg2_pct_ast,fg2a_pct_fga,fg3_heave,fg3_pct,fg3_pct_ast,fg3_pct_corner,fg3a_heave,fg3a_pct_fga,fg_pct,fg_pct_00_03,fg_pct_03_10,fg_pct_10_16,fg_pct_16_xx,g,lg_id,mp,pct_fg2_dunk,pct_fg3a_corner,pct_fga_00_03,pct_fga_03_10,pct_fga_10_16,pct_fga_16_xx,pos,season,team_id
21.0,8.1,11.0,0.56,0.62,0.902,0.0,0.238,1.0,0.143,1.0,0.098,0.528,0.725,0.464,0.333,0.368,40.0,NBA,614.0,0.051,0.333,0.425,0.262,0.126,0.089,SF,2015,PHO
22.0,10.8,19.0,0.52,0.653,0.841,0.0,0.4,0.929,0.447,2.0,0.159,0.501,0.678,0.438,0.489,0.394,47.0,NBA,1070.0,0.043,0.543,0.274,0.202,0.204,0.161,SF,2016,PHO
23.0,10.7,23.0,0.527,0.536,0.88,0.0,0.265,0.923,0.255,3.0,0.12,0.495,0.746,0.456,0.399,0.397,66.0,NBA,2048.0,0.032,0.52,0.29,0.221,0.2,0.167,SF,2017,PHO
24.0,8.8,44.0,0.523,0.617,0.915,0.0,0.222,1.0,0.216,0.0,0.085,0.498,0.682,0.415,0.425,0.393,65.0,NBA,2142.0,0.041,0.411,0.378,0.182,0.188,0.167,SF,2018,PHO
25.0,12.1,19.0,0.51,0.55,0.705,0.0,0.428,0.896,0.481,0.0,0.295,0.486,0.672,0.395,0.438,0.257,43.0,NBA,1360.0,0.033,0.3,0.3,0.203,0.146,0.057,SF,2019,PHO
26.0,11.9,8.0,0.579,0.617,0.833,0.0,0.286,0.875,0.286,0.0,0.167,0.53,0.737,0.375,0.66,0.435,11.0,NBA,379.0,0.048,0.5,0.226,0.19,0.28,0.137,SF,2020,IND
