age,ast_per_g,blk_per_g,drb_per_g,efg_pct,fg2_pct,fg2_per_g,fg2a_per_g,fg3_pct,fg3_per_g,fg3a_per_g,fg_pct,fg_per_g,fga_per_g,ft_pct,ft_per_g,fta_per_g,g,gs,lg_id,mp_per_g,orb_per_g,pf_per_g,pos,pts_per_g,season,stl_per_g,team_id,tov_per_g,trb_per_g
21.0,0.4,0.4,1.0,0.52,0.528,1.2,2.3,0.0,0.0,0.0,0.52,1.2,2.4,0.68,0.5,0.7,75.0,0.0,NBA,7.0,0.7,1.1,PF,2.9,1991,0.1,IND,0.5,1.7
22.0,0.7,0.7,1.1,0.518,0.528,1.9,3.6,0.0,0.0,0.1,0.518,1.9,3.6,0.605,0.4,0.7,60.0,6.0,NBA,9.4,1.1,1.7,SF,4.2,1992,0.3,IND,0.4,2.2
23.0,0.7,0.8,2.2,0.532,0.538,2.6,4.9,0.0,0.0,0.1,0.532,2.6,4.9,0.706,0.8,1.2,57.0,0.0,NBA,14.8,1.8,1.5,SF,6.1,1993,0.4,IND,0.5,4.0
24.0,0.8,0.7,1.6,0.488,0.494,2.8,5.7,0.0,0.0,0.1,0.488,2.8,5.8,0.703,0.7,0.9,68.0,1.0,NBA,14.4,1.4,1.5,SF,6.3,1994,0.4,IND,0.7,3.0
