age,ast_per_g,blk_per_g,drb_per_g,efg_pct,fg2_pct,fg2_per_g,fg2a_per_g,fg3_pct,fg3_per_g,fg3a_per_g,fg_pct,fg_per_g,fga_per_g,ft_pct,ft_per_g,fta_per_g,g,gs,lg_id,mp_per_g,orb_per_g,pf_per_g,pos,pts_per_g,season,stl_per_g,team_id,tov_per_g,trb_per_g
24.0,0.5,0.8,2.3,0.444,0.444,1.0,2.3,0.0,0.0,0.0,0.444,1.0,2.3,1.0,0.5,0.5,4.0,2.0,NBA,13.0,0.8,2.0,C,2.5,2001,0.0,IND,1.0,3.0
25.0,1.4,0.2,3.8,0.615,0.556,1.0,1.8,0.5,0.4,0.8,0.538,1.4,2.6,0.444,0.8,1.8,5.0,0.0,NBA,15.6,1.0,2.6,C,4.0,2002,0.6,IND,1.8,4.8
26.0,0.3,0.5,0.7,0.545,0.545,1.0,1.8,0.0,0.0,0.0,0.545,1.0,1.8,1.0,0.3,0.3,6.0,0.0,NBA,6.3,0.7,0.5,C,2.3,2003,0.0,IND,0.0,1.3
27.0,0.8,0.3,3.8,0.581,0.595,1.6,2.6,0.0,0.0,0.1,0.581,1.6,2.7,0.8,0.5,0.6,16.0,13.0,NBA,19.2,2.8,2.3,C,3.6,2004,0.8,IND,0.8,6.6
28.0,0.4,0.9,3.8,0.596,0.596,2.4,4.0,0.0,0.0,0.0,0.596,2.4,4.0,0.714,1.2,1.6,13.0,0.0,NBA,18.8,3.5,2.1,C,5.9,2005,0.5,IND,0.6,7.4
29.0,0.8,0.3,3.3,0.364,0.364,1.0,2.8,0.0,0.0,0.0,0.364,1.0,2.8,0.75,0.8,1.0,4.0,4.0,NBA,20.0,2.8,2.3,C,2.8,2006,1.0,IND,0.0,6.0
34.0,0.8,0.8,2.8,0.583,0.583,1.4,2.4,0.0,0.0,0.0,0.583,1.4,2.4,0.375,0.6,1.6,5.0,0.0,NBA,18.6,2.0,2.8,C,3.4,2011,0.4,IND,1.0,4.8
