lg_id,salary,season,team_name
NBA,1400000.0,1990,Golden State Warriors
NBA,1270000.0,1991,Golden State Warriors
NBA,1267000.0,1992,Golden State Warriors
NBA,1500000.0,1993,Golden State Warriors
NBA,1900000.0,1994,Golden State Warriors
NBA,2100000.0,1995,Seattle SuperSonics
NBA,2400000.0,1996,Sacramento Kings
NBA,2500000.0,1997,Denver Nuggets
