age,avg_dist,fg2_dunk,fg2_pct,fg2_pct_ast,fg2a_pct_fga,fg3_heave,fg3_pct,fg3_pct_ast,fg3_pct_corner,fg3a_heave,fg3a_pct_fga,fg_pct,fg_pct_00_03,fg_pct_03_10,fg_pct_10_16,fg_pct_16_xx,g,lg_id,mp,pct_fg2_dunk,pct_fg3a_corner,pct_fga_00_03,pct_fga_03_10,pct_fga_10_16,pct_fga_16_xx,pos,season,team_id
21.0,18.0,0.0,0.545,0.5,0.423,0.0,0.067,1.0,0.0,0.0,0.577,0.269,1.0,0.667,1.0,0.0,8.0,NBA,51.0,0.0,0.267,0.038,0.231,0.038,0.115,PF,2015,TOT
21.0,21.3,0.0,0.5,0.5,0.235,0.0,0.077,1.0,0.0,0.0,0.765,0.176,1.0,1.0,0.0,0.0,5.0,NBA,25.0,0.0,0.308,0.059,0.059,0.0,0.118,PF,2015,OKC
21.0,11.7,0.0,0.571,0.5,0.778,0.0,0.0,0.0,0.0,0.0,0.222,0.444,0.0,0.6,1.0,0.0,3.0,NBA,26.0,0.0,0.0,0.0,0.556,0.111,0.111,PF,2015,UTA
