age,ast,blk,drb,fg,fg2,fg2a,fg3,fg3a,fga,ft,fta,game_score,lg_id,mp,orb,pf,pts,season,stl,team_id,tov,trb
22.0,5.0,0.0,1.0,1.0,1.0,7.0,0.0,1.0,7.0,0.0,0.0,4.8,NBA,0.0,1.0,3.0,2.0,2004,2.0,POR,2.0,2.0
23.0,10.0,1.0,3.0,9.0,9.0,13.0,0.0,2.0,14.0,1.0,2.0,20.7,NBA,0.0,1.0,4.0,19.0,2005,3.0,TOR,4.0,4.0
