article_url,date,headline
https://lakeshowlife.com/2019/08/31/los-angeles-lakers-6-reasons-kobe-bryant-wrong-winning-12-rings/,2019/08/31,Lake Show Life: Los Angeles Lakers: 6 reasons why Kobe Bryant was wrong about winning 12 rings
https://hoopshabit.com/2019/06/26/nba-free-agency-teams-worst-free-agent-signing-franchise-history/,2019/06/26,Hoops Habit: NBA free agency: Each team's worst free agent signing in franchise history
