age,ast_per_g,blk_per_g,drb_per_g,efg_pct,fg2_pct,fg2_per_g,fg2a_per_g,fg3_pct,fg3_per_g,fg3a_per_g,fg_pct,fg_per_g,fga_per_g,ft_pct,ft_per_g,fta_per_g,g,gs,lg_id,mp_per_g,orb_per_g,pf_per_g,pos,pts_per_g,season,stl_per_g,team_id,tov_per_g,trb_per_g
22.0,0.3,0.2,1.3,0.395,0.384,1.1,2.8,0.308,0.2,0.5,0.372,1.2,3.3,0.571,0.3,0.5,26.0,0.0,NBA,9.3,0.4,1.2,PF,2.9,1998,0.3,IND,0.5,1.7
23.0,0.4,0.3,1.1,0.48,0.522,0.9,1.7,0.276,0.3,1.1,0.427,1.2,2.8,0.87,0.7,0.9,27.0,0.0,NBA,9.2,0.6,1.2,PF,3.4,1999,0.3,IND,0.9,1.7
24.0,1.1,0.7,4.7,0.489,0.47,2.8,5.9,0.362,0.8,2.1,0.441,3.6,8.1,0.848,2.4,2.9,81.0,14.0,NBA,23.3,1.7,2.5,PF,10.3,2000,0.5,IND,1.5,6.4
25.0,1.1,0.6,3.3,0.444,0.417,2.5,6.1,0.338,0.9,2.6,0.394,3.4,8.7,0.866,2.5,2.9,81.0,23.0,NBA,23.1,1.5,2.2,PF,10.1,2001,0.4,IND,1.7,4.8
26.0,1.0,0.4,2.9,0.468,0.449,1.8,4.0,0.338,0.6,1.9,0.413,2.4,5.9,0.851,1.3,1.5,76.0,1.0,NBA,16.9,1.0,1.4,PF,6.8,2002,0.3,IND,0.9,3.9
27.0,1.1,0.3,2.3,0.476,0.421,1.2,2.9,0.391,0.6,1.4,0.411,1.8,4.3,0.815,1.1,1.3,49.0,0.0,NBA,12.9,0.8,1.0,PF,5.1,2003,0.1,IND,0.6,3.2
28.0,0.7,0.2,2.4,0.479,0.387,0.8,2.1,0.389,0.7,1.9,0.388,1.5,4.0,0.894,1.2,1.4,77.0,0.0,NBA,13.6,0.8,1.3,PF,5.0,2004,0.3,IND,0.7,3.2
29.0,1.3,0.2,3.7,0.424,0.443,2.0,4.4,0.259,0.6,2.4,0.378,2.6,6.8,0.883,3.1,3.5,73.0,22.0,NBA,25.0,1.4,2.1,PF,8.9,2005,0.7,IND,1.4,5.1
30.0,1.2,0.1,4.1,0.558,0.538,1.6,2.9,0.386,1.1,2.8,0.463,2.6,5.7,0.882,1.8,2.0,50.0,26.0,NBA,23.0,1.2,2.1,PF,8.2,2006,0.4,IND,1.0,5.3
31.0,0.7,0.1,2.5,0.41,0.397,0.9,2.1,0.286,0.4,1.5,0.351,1.3,3.6,0.865,0.7,0.9,61.0,2.0,NBA,11.9,0.5,1.1,PF,3.7,2007,0.2,DAL,0.5,3.0
32.0,0.7,0.1,1.6,0.526,0.513,0.9,1.7,0.361,0.5,1.4,0.445,1.4,3.1,0.906,0.7,0.7,44.0,0.0,NBA,10.4,0.8,1.4,PF,3.9,2008,0.2,GSW,0.5,2.4
33.0,0.6,0.1,1.6,0.423,0.375,0.6,1.7,0.333,0.4,1.1,0.359,1.0,2.8,0.583,0.5,0.9,14.0,0.0,NBA,7.1,0.8,0.4,PF,2.9,2009,0.1,TOT,0.4,2.4
33.0,0.5,0.1,1.5,0.483,0.368,0.6,1.7,0.455,0.5,1.0,0.4,1.1,2.7,0.636,0.6,1.0,11.0,0.0,NBA,7.0,0.6,0.4,PF,3.3,2009,0.1,MIL,0.4,2.2
33.0,1.0,0.0,2.0,0.222,0.4,0.7,1.7,0.0,0.0,1.3,0.222,0.7,3.0,0.0,0.0,0.3,3.0,0.0,NBA,7.7,1.3,0.3,PF,1.3,2009,0.0,SAS,0.7,3.3
