age,ast_per_mp,blk_per_mp,drb_per_mp,fg2_pct,fg2_per_mp,fg2a_per_mp,fg3_pct,fg3_per_mp,fg3a_per_mp,fg_pct,fg_per_mp,fga_per_mp,ft_pct,ft_per_mp,fta_per_mp,g,gs,lg_id,mp,orb_per_mp,pf_per_mp,pos,pts_per_mp,season,stl_per_mp,team_id,tov_per_mp,trb_per_mp
24.0,1.4,0.5,3.4,0.483,5.8,12.0,0.196,0.3,1.5,0.451,6.1,13.5,0.777,3.7,4.8,80.0,1.0,NBA,1321.0,2.1,2.9,SF,16.2,2010,0.9,MEM,2.6,5.5
25.0,1.6,0.5,3.4,0.486,4.9,10.1,0.34,0.4,1.1,0.472,5.3,11.3,0.767,2.0,2.6,78.0,46.0,NBA,1577.0,0.9,2.7,SF,13.1,2011,1.6,MEM,1.4,4.3
26.0,1.4,0.6,4.0,0.364,3.8,10.6,0.294,0.5,1.6,0.354,4.3,12.2,0.731,1.8,2.5,35.0,2.0,NBA,375.0,1.9,2.2,SF,10.9,2012,1.6,TOT,1.5,6.0
26.0,1.4,0.3,4.1,0.432,4.8,11.1,0.0,0.0,1.4,0.386,4.8,12.4,0.833,1.5,1.8,21.0,2.0,NBA,240.0,2.1,1.8,SF,11.1,2012,1.6,MEM,1.4,6.1
26.0,1.6,1.1,4.0,0.222,2.1,9.6,0.625,1.3,2.1,0.295,3.5,11.7,0.643,2.4,3.7,14.0,0.0,NBA,135.0,1.6,2.9,SF,10.7,2012,1.6,PHI,1.9,5.6
27.0,2.2,0.4,5.0,0.438,2.2,5.0,0.308,0.8,2.7,0.392,3.0,7.7,0.535,1.2,2.2,56.0,3.0,NBA,693.0,1.4,3.2,SG,8.1,2013,0.8,IND,1.7,6.4
