age,ast_per_g,blk_per_g,drb_per_g,efg_pct,fg2_pct,fg2_per_g,fg2a_per_g,fg3_pct,fg3_per_g,fg3a_per_g,fg_pct,fg_per_g,fga_per_g,ft_pct,ft_per_g,fta_per_g,g,gs,lg_id,mp_per_g,orb_per_g,pf_per_g,pos,pts_per_g,season,stl_per_g,team_id,tov_per_g,trb_per_g
25.0,0.2,0.2,1.8,0.464,0.476,3.1,6.5,0.25,0.2,0.9,0.448,3.3,7.4,0.6,0.7,1.2,13.0,11.0,NBA,19.7,0.5,1.4,SF,7.5,2011,0.5,MEM,0.6,2.3
26.0,0.0,0.0,0.0,0.0,0.0,0.0,0.5,0.0,0.0,0.5,0.0,0.0,1.0,0.0,0.0,0.0,2.0,0.0,NBA,2.0,0.0,0.0,SF,0.0,2012,0.0,PHI,0.0,0.0
27.0,0.3,0.1,1.2,0.417,0.5,0.5,0.9,0.2,0.1,0.7,0.375,0.6,1.6,0.75,0.4,0.5,15.0,0.0,NBA,8.7,0.7,1.1,SG,1.7,2013,0.3,IND,0.5,1.9
