age,ast_pct,blk_pct,bpm,bpm-dum,dbpm,drb_pct,dws,fg3a_per_fga_pct,fta_per_fga_pct,g,lg_id,mp,obpm,orb_pct,ows,per,pos,season,stl_pct,team_id,tov_pct,trb_pct,ts_pct,usg_pct,vorp,ws,ws-dum,ws_per_48
19.0,15.8,0.8,-3.1,0.0,-2.4,8.4,0.7,0.333,0.295,76.0,NBA,2108.0,-0.6,1.4,1.2,11.9,SG,2016,1.0,PHO,14.0,4.8,0.535,23.0,-0.6,1.9,0.0,0.043
20.0,16.3,0.6,-2.3,0.0,-2.7,8.3,0.6,0.283,0.308,78.0,NBA,2730.0,0.4,1.8,1.3,14.6,SG,2017,1.3,PHO,12.9,5.0,0.531,28.6,-0.2,2.0,0.0,0.035
21.0,24.4,0.6,0.4,0.0,-2.4,12.7,0.6,0.364,0.312,54.0,NBA,1865.0,2.9,1.5,1.9,18.1,SG,2018,1.2,PHO,13.9,7.0,0.561,31.7,1.2,2.4,0.0,0.063
22.0,34.1,0.5,0.8,0.0,-3.0,11.3,0.3,0.33,0.362,64.0,NBA,2242.0,3.8,1.9,3.3,20.2,SG,2019,1.2,PHO,15.4,6.5,0.584,32.9,1.6,3.5,0.0,0.076
23.0,25.5,1.0,2.6,0.0,-1.4,10.4,0.3,0.3,0.279,8.0,NBA,276.0,4.0,0.8,0.7,20.5,SG,2020,0.7,PHO,16.0,5.7,0.652,28.8,0.3,1.0,0.0,0.171
