age,ast_per_poss,blk_per_poss,def_rtg,drb_per_poss,fg2_pct,fg2_per_poss,fg2a_per_poss,fg3_pct,fg3_per_poss,fg3a_per_poss,fg_pct,fg_per_poss,fga_per_poss,ft_pct,ft_per_poss,fta_per_poss,g,gs,lg_id,mp,off_rtg,orb_per_poss,pf_per_poss,pos,pts_per_poss,season,stl_per_poss,team_id,tov_per_poss,trb_per_poss
22.0,2.6,0.5,109.0,4.6,0.5,2.1,4.1,0.429,1.5,3.6,0.467,3.6,7.7,0.714,2.6,3.6,13.0,0.0,NBA,103.0,102.0,1.0,5.2,SF,11.4,2007,1.0,NOK,3.1,5.7
23.0,1.5,0.8,109.0,5.4,0.5,3.1,6.2,0.417,3.9,9.3,0.45,7.0,15.5,0.455,3.9,8.5,13.0,0.0,NBA,69.0,105.0,0.8,3.1,SF,21.7,2008,0.8,NOH,2.3,6.2
