age,ast,blk,drb,fg,fg2,fg2a,fg3,fg3a,fga,ft,fta,game_score,lg_id,mp,orb,pf,pts,season,stl,team_id,tov,trb
20.0,1.0,3.0,6.0,3.0,3.0,6.0,0.0,0.0,6.0,2.0,4.0,6.0,NBA,0.0,5.0,5.0,6.0,2002,2.0,PHI,2.0,8.0
22.0,2.0,9.0,15.0,10.0,10.0,19.0,0.0,1.0,19.0,5.0,8.0,22.4,NBA,0.0,10.0,6.0,24.0,2004,3.0,PHI,4.0,19.0
23.0,2.0,6.0,14.0,11.0,11.0,17.0,0.0,0.0,17.0,5.0,6.0,25.3,NBA,0.0,9.0,6.0,24.0,2005,4.0,PHI,5.0,17.0
24.0,3.0,7.0,18.0,8.0,8.0,11.0,0.0,1.0,11.0,8.0,8.0,22.8,NBA,46.0,8.0,6.0,20.0,2006,2.0,PHI,5.0,22.0
25.0,5.0,7.0,14.0,12.0,12.0,16.0,0.0,1.0,16.0,7.0,9.0,20.0,NBA,44.0,9.0,6.0,24.0,2007,3.0,PHI,8.0,20.0
26.0,3.0,9.0,14.0,10.0,10.0,16.0,0.0,1.0,16.0,9.0,14.0,22.0,NBA,45.0,9.0,6.0,22.0,2008,2.0,PHI,8.0,20.0
27.0,3.0,5.0,14.0,9.0,9.0,13.0,0.0,1.0,13.0,6.0,7.0,19.3,NBA,37.0,11.0,6.0,19.0,2009,4.0,PHI,5.0,23.0
28.0,4.0,7.0,15.0,12.0,12.0,22.0,0.0,0.0,22.0,6.0,8.0,23.4,NBA,41.0,9.0,6.0,24.0,2010,4.0,PHI,4.0,21.0
29.0,4.0,6.0,17.0,13.0,13.0,20.0,0.0,1.0,20.0,7.0,10.0,23.2,NBA,45.0,9.0,6.0,27.0,2011,3.0,SAC,5.0,19.0
30.0,2.0,7.0,13.0,9.0,9.0,14.0,0.0,1.0,14.0,5.0,8.0,25.7,NBA,44.0,9.0,6.0,21.0,2012,3.0,HOU,4.0,17.0
31.0,2.0,5.0,9.0,17.0,17.0,21.0,1.0,1.0,21.0,4.0,4.0,34.4,NBA,34.0,7.0,6.0,35.0,2013,4.0,MIL,4.0,14.0
32.0,2.0,7.0,10.0,9.0,9.0,13.0,0.0,1.0,13.0,6.0,6.0,20.6,NBA,35.0,7.0,5.0,20.0,2014,3.0,DAL,4.0,15.0
33.0,4.0,5.0,10.0,5.0,5.0,10.0,0.0,0.0,10.0,3.0,4.0,12.1,NBA,28.0,7.0,5.0,13.0,2015,2.0,NYK,3.0,13.0
