age,ast_per_mp,blk_per_mp,drb_per_mp,fg2_pct,fg2_per_mp,fg2a_per_mp,fg3_pct,fg3_per_mp,fg3a_per_mp,fg_pct,fg_per_mp,fga_per_mp,ft_pct,ft_per_mp,fta_per_mp,g,gs,lg_id,mp,orb_per_mp,pf_per_mp,pos,pts_per_mp,season,stl_per_mp,team_id,tov_per_mp,trb_per_mp
20.0,1.0,2.6,8.7,0.44,4.5,10.2,0.0,0.0,0.0,0.44,4.5,10.2,0.389,1.4,3.7,34.0,0.0,NBA,177.0,5.1,6.1,C,10.4,2002,1.2,PHI,2.8,13.8
22.0,0.3,3.1,7.1,0.542,4.4,8.2,0.0,0.0,0.0,0.541,4.4,8.2,0.644,1.8,2.9,82.0,53.0,NBA,2197.0,3.2,4.5,C,10.7,2004,0.7,PHI,1.4,10.3
23.0,0.7,2.4,7.2,0.524,5.0,9.6,0.0,0.0,0.0,0.524,5.0,9.6,0.601,1.8,3.0,72.0,60.0,NBA,1785.0,3.8,4.9,C,11.9,2005,0.9,PHI,2.3,10.9
24.0,0.5,3.3,7.8,0.533,4.0,7.5,0.0,0.0,0.0,0.531,4.0,7.5,0.705,1.9,2.7,66.0,52.0,NBA,1761.0,3.3,5.0,C,9.9,2006,0.7,PHI,2.2,11.1
25.0,0.9,2.3,7.0,0.543,5.1,9.3,0.0,0.0,0.0,0.541,5.1,9.3,0.746,2.4,3.2,82.0,82.0,NBA,2535.0,3.4,4.1,C,12.5,2007,0.7,PHI,2.3,10.4
26.0,0.6,2.5,7.2,0.514,4.5,8.7,0.0,0.0,0.0,0.513,4.5,8.7,0.707,2.5,3.5,82.0,82.0,NBA,2724.0,4.0,3.6,C,11.4,2008,0.5,PHI,2.0,11.2
27.0,0.3,2.6,8.6,0.5,3.8,7.6,0.0,0.0,0.0,0.498,3.8,7.7,0.734,1.6,2.2,82.0,82.0,NBA,2036.0,3.8,4.4,C,9.2,2009,0.6,PHI,2.1,12.4
28.0,1.1,2.6,9.2,0.545,4.8,8.9,0.0,0.0,0.0,0.545,4.8,8.9,0.729,1.6,2.3,82.0,80.0,NBA,2124.0,4.1,4.3,C,11.3,2010,0.7,PHI,2.1,13.3
29.0,1.2,2.2,8.3,0.474,5.0,10.5,0.0,0.0,0.0,0.473,5.0,10.5,0.73,2.0,2.7,80.0,46.0,NBA,1938.0,3.9,4.2,C,12.0,2011,0.7,SAC,2.5,12.2
30.0,0.8,2.8,7.4,0.508,5.0,9.8,0.0,0.0,0.0,0.506,5.0,9.8,0.796,2.2,2.8,65.0,45.0,NBA,1446.0,3.9,4.0,C,12.2,2012,0.9,HOU,2.0,11.4
31.0,1.0,2.5,8.0,0.54,6.4,11.9,1.0,0.0,0.0,0.542,6.4,11.9,0.691,1.8,2.6,47.0,23.0,NBA,765.0,4.9,4.2,C,14.7,2013,0.8,MIL,2.4,13.0
32.0,0.8,2.1,7.6,0.569,4.8,8.4,0.0,0.0,0.0,0.568,4.8,8.4,0.737,2.3,3.1,80.0,68.0,NBA,1614.0,4.5,4.7,C,11.8,2014,0.9,DAL,2.0,12.1
33.0,1.9,2.7,7.6,0.438,3.8,8.6,0.0,0.0,0.0,0.438,3.8,8.6,0.7,0.9,1.3,32.0,21.0,NBA,544.0,3.5,4.6,C,8.5,2015,0.9,NYK,2.6,11.1
