age,avg_dist,fg2_dunk,fg2_pct,fg2_pct_ast,fg2a_pct_fga,fg3_heave,fg3_pct,fg3_pct_ast,fg3_pct_corner,fg3a_heave,fg3a_pct_fga,fg_pct,fg_pct_00_03,fg_pct_03_10,fg_pct_10_16,fg_pct_16_xx,g,lg_id,mp,pct_fg2_dunk,pct_fg3a_corner,pct_fga_00_03,pct_fga_03_10,pct_fga_10_16,pct_fga_16_xx,pos,season,team_id
20.0,2.8,13.0,0.44,0.682,1.0,0.0,0.0,0.0,0.0,0.0,0.0,0.44,0.514,0.364,0.0,0.0,34.0,NBA,177.0,0.32,0.0,0.7,0.22,0.08,0.0,C,2002,PHI
22.0,4.1,123.0,0.542,0.741,0.998,0.0,0.0,0.0,0.0,0.0,0.002,0.541,0.634,0.404,0.394,0.8,82.0,NBA,2197.0,0.287,0.0,0.591,0.208,0.188,0.01,C,2004,PHI
23.0,5.4,100.0,0.524,0.752,1.0,0.0,0.0,0.0,0.0,0.0,0.0,0.524,0.731,0.306,0.327,0.242,72.0,NBA,1785.0,0.216,0.0,0.514,0.205,0.212,0.069,C,2005,PHI
24.0,5.4,81.0,0.533,0.724,0.997,0.0,0.0,0.0,0.0,0.0,0.003,0.531,0.658,0.357,0.451,0.391,66.0,NBA,1761.0,0.23,0.0,0.515,0.228,0.192,0.062,C,2006,PHI
25.0,6.4,89.0,0.543,0.677,0.997,0.0,0.0,0.0,0.0,0.0,0.003,0.541,0.643,0.452,0.465,0.431,82.0,NBA,2535.0,0.155,0.0,0.468,0.188,0.242,0.099,C,2007,PHI
26.0,6.0,136.0,0.514,0.664,0.998,0.0,0.0,0.0,0.0,0.0,0.002,0.513,0.642,0.33,0.425,0.313,82.0,NBA,2724.0,0.23,1.0,0.533,0.138,0.203,0.126,C,2008,PHI
27.0,5.8,87.0,0.5,0.671,0.995,0.0,0.0,0.0,0.0,0.0,0.005,0.498,0.597,0.368,0.396,0.405,82.0,NBA,2036.0,0.212,0.5,0.532,0.157,0.21,0.097,C,2009,PHI
28.0,5.0,108.0,0.545,0.663,1.0,0.0,0.0,0.0,0.0,0.0,0.0,0.545,0.662,0.417,0.369,0.432,82.0,NBA,2124.0,0.22,0.0,0.549,0.207,0.161,0.084,C,2010,PHI
29.0,7.5,57.0,0.474,0.575,0.996,0.0,0.0,0.0,0.0,0.0,0.004,0.473,0.59,0.371,0.478,0.39,80.0,NBA,1938.0,0.113,0.0,0.362,0.3,0.199,0.136,C,2011,SAC
30.0,6.8,59.0,0.508,0.6,0.997,0.0,0.0,0.0,0.0,1.0,0.003,0.506,0.651,0.444,0.32,0.444,65.0,NBA,1446.0,0.17,0.0,0.42,0.273,0.19,0.114,C,2012,HOU
31.0,6.4,41.0,0.54,0.662,0.996,0.0,1.0,1.0,0.0,0.0,0.004,0.542,0.641,0.41,0.482,0.346,47.0,NBA,765.0,0.17,0.0,0.518,0.154,0.221,0.103,C,2013,MIL
32.0,4.2,85.0,0.569,0.752,0.997,0.0,0.0,0.0,0.0,1.0,0.003,0.568,0.641,0.431,0.267,0.545,80.0,NBA,1614.0,0.236,0.0,0.687,0.172,0.08,0.058,C,2014,DAL
33.0,7.2,19.0,0.438,0.667,1.0,0.0,0.0,0.0,0.0,0.0,0.0,0.438,0.612,0.294,0.323,0.438,32.0,NBA,544.0,0.154,0.0,0.377,0.262,0.238,0.123,C,2015,NYK
