age,ast,ast_per_g,blk,college_id,fg,fg3,fg3_pct,fg3a,fg_pct,fga,ft,ft_pct,fta,g,mp,mp_per_g,orb,pf,pts,pts_per_g,season,stl,tov,trb,trb_per_g
18.0,11.0,0.5,0.0,MISSOURI,15.0,9.0,0.321,28.0,0.366,41.0,2.0,0.286,7.0,22.0,129.0,5.9,0.0,0.0,41.0,1.9,1996,0.0,0.0,13.0,0.6
20.0,36.0,1.2,0.0,DETROIT,88.0,70.0,0.407,172.0,0.381,231.0,30.0,0.882,34.0,31.0,629.0,20.3,0.0,0.0,276.0,8.9,1998,0.0,0.0,88.0,2.8
21.0,50.0,1.6,0.0,DETROIT,128.0,83.0,0.388,214.0,0.389,329.0,51.0,0.761,67.0,31.0,1078.0,34.8,0.0,0.0,390.0,12.6,1999,0.0,0.0,140.0,4.5
22.0,57.0,1.8,0.0,DETROIT,160.0,82.0,0.402,204.0,0.431,371.0,45.0,0.726,62.0,32.0,1068.0,33.4,0.0,0.0,447.0,14.0,2000,0.0,0.0,163.0,5.1
