age,ast_per_poss,blk_per_poss,def_rtg,drb_per_poss,fg2_pct,fg2_per_poss,fg2a_per_poss,fg3_pct,fg3_per_poss,fg3a_per_poss,fg_pct,fg_per_poss,fga_per_poss,ft_pct,ft_per_poss,fta_per_poss,g,gs,lg_id,mp,off_rtg,orb_per_poss,pf_per_poss,pos,pts_per_poss,season,stl_per_poss,team_id,tov_per_poss,trb_per_poss
23.0,10.0,0.0,125.0,0.0,0.333,6.0,17.9,0.0,0.0,0.0,0.333,6.0,17.9,0.75,6.0,8.0,3.0,0.0,NBA,27.0,119.0,4.0,4.0,PG,17.9,2003,0.0,UTA,0.0,4.0
25.0,14.6,0.8,103.0,3.4,0.364,6.0,16.5,0.0,0.0,0.4,0.356,6.0,16.9,0.667,3.0,4.5,19.0,0.0,NBA,150.0,95.0,0.4,7.1,PG,15.0,2005,1.5,DET,3.8,3.8
27.0,8.4,0.0,116.0,4.2,0.417,7.0,16.8,0.0,0.0,2.8,0.357,7.0,19.7,1.0,2.8,2.8,3.0,0.0,NBA,40.0,101.0,2.8,5.6,PG,16.8,2007,1.4,ORL,1.4,7.0
28.0,7.3,0.0,115.0,3.7,0.667,3.7,5.5,0.0,0.0,1.8,0.5,3.7,7.3,1.0,3.7,3.7,4.0,0.0,NBA,30.0,95.0,0.0,7.3,PG,11.0,2008,0.0,ORL,5.5,3.7
30.0,5.0,0.0,109.0,3.2,0.48,5.5,11.5,0.0,0.0,0.5,0.462,5.5,11.9,1.0,0.9,0.9,5.0,5.0,NBA,115.0,104.0,0.9,4.1,PG,11.9,2010,1.4,MIA,1.4,4.1
