age,ast_per_g,blk_per_g,drb_per_g,efg_pct,fg2_pct,fg2_per_g,fg2a_per_g,fg3_pct,fg3_per_g,fg3a_per_g,fg_pct,fg_per_g,fga_per_g,ft_pct,ft_per_g,fta_per_g,g,gs,lg_id,mp_per_g,orb_per_g,pf_per_g,pos,pts_per_g,season,stl_per_g,team_id,tov_per_g,trb_per_g
23.0,1.7,0.0,0.0,0.333,0.333,1.0,3.0,0.0,0.0,0.0,0.333,1.0,3.0,0.75,1.0,1.3,3.0,0.0,NBA,9.0,0.7,0.7,PG,3.0,2003,0.0,UTA,0.0,0.7
25.0,2.1,0.1,0.5,0.356,0.364,0.8,2.3,0.0,0.0,0.1,0.356,0.8,2.4,0.667,0.4,0.6,19.0,0.0,NBA,7.9,0.1,1.0,PG,2.1,2005,0.2,DET,0.5,0.5
27.0,2.0,0.0,1.0,0.357,0.417,1.7,4.0,0.0,0.0,0.7,0.357,1.7,4.7,1.0,0.7,0.7,3.0,0.0,NBA,13.3,0.7,1.3,PG,4.0,2007,0.3,ORL,0.3,1.7
28.0,1.0,0.0,0.5,0.5,0.667,0.5,0.8,0.0,0.0,0.3,0.5,0.5,1.0,1.0,0.5,0.5,4.0,0.0,NBA,7.5,0.0,1.0,PG,1.5,2008,0.0,ORL,0.8,0.5
30.0,2.2,0.0,1.4,0.462,0.48,2.4,5.0,0.0,0.0,0.2,0.462,2.4,5.2,1.0,0.4,0.4,5.0,5.0,NBA,23.0,0.4,1.8,PG,5.2,2010,0.6,MIA,0.6,1.8
