article_url,date,headline
https://allucanheat.com/2019/09/26/miami-heat-salute-slams-wadewednesday/,2019/09/26,All U Can Heat: Miami Heat: AUCH's Weekly salute to Slam's #WadeWednesday
https://elitesportsny.com/2019/07/14/new-york-knicks-nostalgic-fan-favorite-nate-robinson-captures-post-nba-peace/,2019/07/14,ESNY: Knicks’ nostalgic fan-favorite Nate Robinson captures post-NBA peace
https://thescorecrow.com/2019/07/11/big3-releases-four-former-nba-stars-fines-big-baby/,2019/07/11,"The Scorecrow: BIG3 Releases Four Former NBA Stars, Fines “Big Baby”"
