age,avg_dist,fg2_dunk,fg2_pct,fg2_pct_ast,fg2a_pct_fga,fg3_heave,fg3_pct,fg3_pct_ast,fg3_pct_corner,fg3a_heave,fg3a_pct_fga,fg_pct,fg_pct_00_03,fg_pct_03_10,fg_pct_10_16,fg_pct_16_xx,g,lg_id,mp,pct_fg2_dunk,pct_fg3a_corner,pct_fga_00_03,pct_fga_03_10,pct_fga_10_16,pct_fga_16_xx,pos,season,team_id
22.0,11.7,0.0,0.45,0.51,0.982,0.0,0.0,0.0,0.0,0.0,0.018,0.441,0.514,0.2,0.571,0.439,37.0,NBA,371.0,0.0,0.5,0.315,0.09,0.063,0.514,PG,2002,TOT
22.0,9.2,0.0,0.448,0.538,1.0,0.0,0.0,0.0,0.0,0.0,0.0,0.448,0.667,0.0,0.5,0.333,17.0,NBA,96.0,0.0,0.0,0.414,0.103,0.069,0.414,PG,2002,TOR
22.0,12.6,0.0,0.45,0.5,0.976,0.0,0.0,0.0,0.0,0.0,0.024,0.439,0.435,0.286,0.6,0.467,20.0,NBA,275.0,0.0,0.5,0.28,0.085,0.061,0.549,PG,2002,DEN
23.0,11.2,0.0,0.461,0.255,0.936,0.0,0.429,0.333,1.0,0.0,0.064,0.459,0.71,0.3,0.462,0.342,44.0,NBA,287.0,0.0,0.143,0.284,0.183,0.119,0.349,PG,2003,UTA
24.0,14.5,0.0,0.462,0.352,0.848,0.0,0.325,0.737,0.429,2.0,0.152,0.441,0.515,0.275,0.486,0.45,71.0,NBA,2008.0,0.0,0.179,0.22,0.052,0.145,0.431,PG,2004,UTA
25.0,12.8,0.0,0.398,0.377,0.93,0.0,0.267,0.5,0.4,1.0,0.07,0.389,0.518,0.269,0.367,0.357,70.0,NBA,1448.0,0.0,0.167,0.261,0.061,0.184,0.424,PG,2005,TOT
25.0,13.3,0.0,0.402,0.395,0.922,0.0,0.389,0.429,0.5,1.0,0.078,0.401,0.574,0.25,0.367,0.347,30.0,NBA,742.0,0.0,0.111,0.233,0.069,0.211,0.409,PG,2005,UTA
25.0,12.2,0.0,0.395,0.356,0.939,0.0,0.083,1.0,0.333,0.0,0.061,0.376,0.466,0.3,0.367,0.368,40.0,NBA,706.0,0.0,0.25,0.294,0.051,0.152,0.442,PG,2005,DET
26.0,12.3,0.0,0.45,0.273,0.947,0.0,0.35,0.429,0.0,0.0,0.053,0.444,0.516,0.333,0.455,0.434,77.0,NBA,1194.0,0.0,0.1,0.246,0.095,0.204,0.402,PG-SG,2006,TOT
26.0,12.4,0.0,0.364,0.327,0.962,0.0,0.333,0.5,0.0,0.0,0.038,0.363,0.436,0.091,0.457,0.318,50.0,NBA,600.0,0.0,0.167,0.248,0.07,0.223,0.42,PG,2006,DET
26.0,12.3,0.0,0.512,0.245,0.937,0.0,0.357,0.4,0.0,0.0,0.063,0.502,0.574,0.44,0.452,0.523,27.0,NBA,594.0,0.0,0.071,0.244,0.113,0.19,0.389,SG,2006,ORL
27.0,13.8,0.0,0.443,0.196,0.893,0.0,0.275,0.929,0.462,0.0,0.107,0.425,0.435,0.5,0.409,0.449,72.0,NBA,1304.0,0.0,0.255,0.192,0.092,0.195,0.414,PG,2007,ORL
28.0,15.0,0.0,0.485,0.164,0.759,0.0,0.345,0.586,0.333,0.0,0.241,0.451,0.519,0.563,0.439,0.468,62.0,NBA,1269.0,0.0,0.286,0.233,0.046,0.118,0.362,PG,2008,ORL
30.0,16.0,0.0,0.489,0.368,0.933,0.0,0.28,0.714,0.2,0.0,0.067,0.475,0.488,0.417,0.554,0.474,72.0,NBA,1585.0,0.0,0.6,0.115,0.032,0.173,0.613,PG,2010,MIA
31.0,18.4,0.0,0.436,0.629,0.747,0.0,0.449,0.935,0.491,0.0,0.253,0.44,0.5,0.417,0.393,0.44,64.0,NBA,1185.0,0.0,0.768,0.051,0.044,0.103,0.549,PG,2011,TOT
31.0,18.7,0.0,0.466,0.642,0.731,0.0,0.438,0.964,0.49,0.0,0.269,0.458,0.5,0.455,0.409,0.473,49.0,NBA,995.0,0.0,0.797,0.042,0.046,0.092,0.55,PG,2011,MIA
31.0,16.4,0.0,0.267,0.5,0.857,0.0,0.6,0.667,0.5,0.0,0.143,0.314,0.5,0.0,0.333,0.211,15.0,NBA,190.0,0.0,0.4,0.114,0.029,0.171,0.543,PG,2011,BOS
