lg_id,salary,season,team_name
NBA,939480.0,2005,Boston Celtics
NBA,1010040.0,2006,Boston Celtics
NBA,1080480.0,2007,Boston Celtics
NBA,1889760.0,2008,Cleveland Cavaliers
NBA,3850000.0,2009,Cleveland Cavaliers
NBA,4254250.0,2010,Cleveland Cavaliers
NBA,1069509.0,2011,Boston Celtics
NBA,1146337.0,2012,Dallas Mavericks
NBA,992680.0,2013,Dallas Mavericks
