age,ast_per_g,blk_per_g,drb_per_g,efg_pct,fg2_pct,fg2_per_g,fg2a_per_g,fg3_pct,fg3_per_g,fg3a_per_g,fg_pct,fg_per_g,fga_per_g,ft_pct,ft_per_g,fta_per_g,g,gs,lg_id,mp_per_g,orb_per_g,pf_per_g,pos,pts_per_g,season,stl_per_g,team_id,tov_per_g,trb_per_g
24.0,0.2,0.3,0.3,0.5,0.571,0.7,1.2,0.25,0.2,0.7,0.455,0.8,1.8,1.0,0.3,0.3,6.0,0.0,NBA,6.8,0.0,0.8,SF,2.2,2006,0.3,SAC,0.0,0.3
31.0,1.5,0.8,2.8,0.61,0.385,0.8,2.2,0.459,2.8,6.2,0.44,3.7,8.3,0.6,0.5,0.8,6.0,3.0,NBA,27.3,0.5,3.5,SF,10.7,2013,0.7,HOU,0.7,3.3
32.0,0.0,0.0,0.5,0.333,0.667,1.0,1.5,0.0,0.0,1.5,0.333,1.0,3.0,0.75,1.5,2.0,2.0,0.0,NBA,11.0,0.5,1.5,SF,3.5,2014,0.0,HOU,0.0,1.0
