age,avg_dist,fg2_dunk,fg2_pct,fg2_pct_ast,fg2a_pct_fga,fg3_heave,fg3_pct,fg3_pct_ast,fg3_pct_corner,fg3a_heave,fg3a_pct_fga,fg_pct,fg_pct_00_03,fg_pct_03_10,fg_pct_10_16,fg_pct_16_xx,g,lg_id,mp,pct_fg2_dunk,pct_fg3a_corner,pct_fga_00_03,pct_fga_03_10,pct_fga_10_16,pct_fga_16_xx,pos,season,team_id
24.0,15.6,5.0,0.484,0.56,0.578,0.0,0.285,0.872,0.283,0.0,0.422,0.4,0.609,0.563,0.4,0.333,67.0,NBA,1301.0,0.018,0.336,0.268,0.049,0.031,0.231,SF,2006,SAC
25.0,15.3,3.0,0.476,0.5,0.608,0.0,0.356,0.925,0.412,0.0,0.392,0.429,0.602,0.409,0.435,0.364,79.0,NBA,1410.0,0.011,0.228,0.258,0.058,0.061,0.232,SF,2007,SAC
26.0,15.2,8.0,0.508,0.455,0.616,0.0,0.391,0.903,0.453,1.0,0.384,0.463,0.629,0.31,0.426,0.437,79.0,NBA,2096.0,0.012,0.26,0.269,0.056,0.081,0.21,SF,2008,SAC
27.0,15.4,14.0,0.466,0.469,0.668,0.0,0.398,0.818,0.455,0.0,0.332,0.444,0.621,0.349,0.418,0.373,65.0,NBA,1975.0,0.023,0.249,0.242,0.065,0.083,0.278,SF,2009,SAC
28.0,17.3,2.0,0.504,0.746,0.665,0.0,0.39,0.913,0.389,2.0,0.335,0.466,0.786,0.6,0.294,0.433,25.0,NBA,575.0,0.011,0.305,0.159,0.028,0.097,0.381,SG,2010,SAC
29.0,17.6,5.0,0.502,0.738,0.528,0.0,0.362,0.951,0.417,0.0,0.472,0.436,0.803,0.258,0.406,0.393,58.0,NBA,1386.0,0.011,0.429,0.16,0.065,0.067,0.236,SF,2011,SAC
30.0,19.2,1.0,0.49,0.729,0.428,0.0,0.29,0.947,0.318,0.0,0.572,0.376,0.778,0.778,0.133,0.383,49.0,NBA,798.0,0.004,0.504,0.118,0.039,0.066,0.205,SF,2012,SAC
31.0,19.7,2.0,0.421,0.784,0.403,0.0,0.374,0.985,0.41,0.0,0.597,0.393,0.645,0.429,0.154,0.365,58.0,NBA,1029.0,0.007,0.436,0.103,0.047,0.043,0.21,SG-SF,2013,TOT
31.0,19.1,0.0,0.385,0.811,0.468,0.0,0.367,0.975,0.439,0.0,0.532,0.376,0.609,0.455,0.182,0.314,40.0,NBA,710.0,0.0,0.376,0.112,0.054,0.054,0.249,SG,2013,SAC
31.0,21.0,2.0,0.56,0.714,0.263,0.0,0.386,1.0,0.378,0.0,0.737,0.432,0.75,0.333,0.0,0.583,18.0,NBA,319.0,0.021,0.529,0.084,0.032,0.021,0.126,SF,2013,HOU
32.0,18.6,1.0,0.485,0.388,0.344,0.0,0.358,0.957,0.419,0.0,0.656,0.401,0.667,0.389,0.25,0.25,55.0,NBA,1083.0,0.003,0.321,0.173,0.061,0.041,0.068,SF,2014,HOU
33.0,20.7,1.0,0.389,0.571,0.286,0.0,0.222,0.9,0.294,2.0,0.714,0.27,0.75,0.0,0.167,0.0,14.0,NBA,200.0,0.016,0.378,0.127,0.048,0.095,0.016,SF,2015,HOU
