age,ast_per_mp,blk_per_mp,drb_per_mp,fg2_pct,fg2_per_mp,fg2a_per_mp,fg3_pct,fg3_per_mp,fg3a_per_mp,fg_pct,fg_per_mp,fga_per_mp,ft_pct,ft_per_mp,fta_per_mp,g,gs,lg_id,mp,orb_per_mp,pf_per_mp,pos,pts_per_mp,season,stl_per_mp,team_id,tov_per_mp,trb_per_mp
24.0,2.6,1.3,4.0,0.484,2.5,5.2,0.285,1.1,3.8,0.4,3.6,9.0,0.772,2.2,2.8,67.0,11.0,NBA,1301.0,1.1,3.7,SF,10.4,2006,1.1,SAC,2.1,5.1
25.0,2.2,1.1,3.9,0.476,2.8,5.9,0.356,1.4,3.8,0.429,4.2,9.7,0.833,2.4,2.9,79.0,5.0,NBA,1410.0,1.4,4.9,SF,12.1,2007,1.1,SAC,1.8,5.2
26.0,2.2,0.9,3.6,0.508,4.0,8.0,0.391,1.9,5.0,0.463,6.0,12.9,0.779,2.8,3.6,79.0,20.0,NBA,2096.0,0.9,4.0,SF,16.7,2008,1.6,SAC,2.2,4.5
27.0,2.7,1.2,3.0,0.466,3.8,8.1,0.398,1.6,4.0,0.444,5.4,12.1,0.82,2.7,3.2,65.0,36.0,NBA,1975.0,1.0,3.6,SF,15.0,2009,1.5,SAC,2.0,4.0
28.0,2.8,1.2,3.4,0.504,3.7,7.3,0.39,1.4,3.7,0.466,5.1,11.0,0.882,0.9,1.1,25.0,4.0,NBA,575.0,0.7,3.1,SG,12.6,2010,0.6,SAC,1.3,4.1
29.0,1.8,1.3,2.8,0.502,3.3,6.5,0.362,2.1,5.8,0.436,5.4,12.3,0.855,1.7,2.0,58.0,34.0,NBA,1386.0,0.6,3.3,SF,14.5,2011,1.3,SAC,1.2,3.5
30.0,1.4,1.7,4.0,0.49,2.2,4.4,0.29,1.7,5.9,0.376,3.9,10.3,0.8,1.1,1.4,49.0,3.0,NBA,798.0,0.5,3.3,SF,10.6,2012,1.6,SAC,1.0,4.5
31.0,2.2,1.3,2.9,0.421,1.8,4.2,0.374,2.3,6.3,0.393,4.1,10.5,0.857,0.6,0.7,58.0,20.0,NBA,1029.0,0.3,3.1,SG-SF,11.2,2013,1.6,TOT,1.1,3.2
31.0,2.2,1.6,3.1,0.385,1.9,4.9,0.367,2.0,5.5,0.376,3.9,10.4,0.857,0.6,0.7,40.0,15.0,NBA,710.0,0.4,3.3,SG,10.4,2013,1.6,SAC,1.0,3.4
31.0,2.3,0.8,2.5,0.56,1.6,2.8,0.386,3.0,7.9,0.432,4.6,10.7,0.857,0.7,0.8,18.0,5.0,NBA,319.0,0.1,2.5,SF,13.0,2013,1.6,HOU,1.4,2.6
32.0,2.1,1.1,3.4,0.485,1.6,3.4,0.358,2.3,6.4,0.401,3.9,9.8,0.526,0.3,0.6,55.0,4.0,NBA,1083.0,0.7,4.0,SF,10.5,2014,0.9,HOU,1.0,4.1
33.0,2.7,0.9,2.5,0.389,1.3,3.2,0.222,1.8,8.1,0.27,3.1,11.3,0.25,0.2,0.7,14.0,0.0,NBA,200.0,0.5,3.6,SF,8.1,2015,1.6,HOU,1.8,3.1
