article_url,date,headline
https://pistonpowered.com/2019/07/20/detroit-pistons-backup-center-options/,2019/07/20,Piston Powered: Detroit Pistons backup center options for 2019-20
https://lastwordonprobasketball.com/2019/07/05/khyri-thomas-shines-in-pistons-las-vegas-summer-league-opener/,2019/07/05,Last Word on Sports: Detroit Pistons Game One Recap from Las Vegas Summer League
