age,and1s,astd_pts,drawn_offensive,drawn_shooting,fouls_offensive,fouls_shooting,g,lg_id,mp,own_shots_blk,pct_1,pct_2,pct_3,pct_4,pct_5,plus_minus_net,plus_minus_on,pos,season,team_id,tov_bad_pass,tov_lost_ball
25.0,0.0,10.0,0.0,1.0,0.0,3.0,4.0,NBA,72.0,1.0,0.0,87.0,13.0,0.0,0.0,19.7,9.8,SG,2015,MIN,1.0,1.0
26.0,5.0,70.0,5.0,31.0,6.0,18.0,31.0,NBA,616.0,14.0,0.0,41.0,56.0,3.0,0.0,-7.0,-11.8,SG,2016,TOT,2.0,22.0
26.0,0.0,7.0,1.0,4.0,1.0,6.0,8.0,NBA,82.0,0.0,0.0,94.0,6.0,0.0,0.0,-1.5,-4.6,SG,2016,DEN,1.0,2.0
26.0,5.0,63.0,4.0,27.0,5.0,12.0,23.0,NBA,534.0,14.0,0.0,33.0,64.0,3.0,1.0,-6.3,-13.0,SG,2016,BRK,1.0,20.0
27.0,22.0,389.0,9.0,90.0,17.0,52.0,70.0,NBA,1754.0,60.0,22.0,69.0,9.0,0.0,0.0,0.0,-6.4,SG,2017,BRK,57.0,52.0
28.0,7.0,116.0,2.0,32.0,4.0,21.0,52.0,NBA,640.0,16.0,16.0,49.0,30.0,6.0,0.0,-6.6,-9.2,SG,2018,TOT,16.0,12.0
28.0,3.0,39.0,0.0,7.0,1.0,5.0,16.0,NBA,183.0,7.0,46.0,49.0,5.0,0.0,0.0,-7.5,-11.1,SG,2018,BRK,6.0,6.0
28.0,2.0,38.0,0.0,10.0,1.0,11.0,23.0,NBA,205.0,1.0,8.0,69.0,22.0,1.0,0.0,-8.8,-8.4,SG,2018,MIL,4.0,3.0
28.0,0.0,8.0,1.0,0.0,0.0,1.0,4.0,NBA,38.0,1.0,0.0,74.0,25.0,0.0,0.0,-2.5,-2.1,SG,2018,LAC,1.0,0.0
28.0,2.0,31.0,1.0,15.0,2.0,4.0,9.0,NBA,214.0,7.0,0.0,25.0,58.0,16.0,0.0,-2.0,-9.6,SG,2018,CHI,5.0,3.0
