lg_id,salary,season,team_name
NBA,35000.0,2015,Golden State Warriors
NBA,29843.0,2015,Minnesota Timberwolves
NBA,320594.0,2016,Brooklyn Nets
NBA,99418.0,2016,Denver Nuggets
NBA,980431.0,2017,Brooklyn Nets
NBA,2163006.0,2018,Chicago Bulls
NBA,1524305.0,2018,Brooklyn Nets
NBA,789725.0,2018,Milwaukee Bucks
NBA,166258.0,2018,Los Angeles Clippers
