age,ast,blk,drb,fg,fg2,fg2a,fg3,fg3a,fga,ft,fta,game_score,lg_id,mp,orb,pf,pts,season,stl,team_id,tov,trb
20.0,3.0,0.0,2.0,5.0,4.0,8.0,1.0,2.0,10.0,2.0,2.0,7.7,NBA,0.0,1.0,3.0,11.0,2000,1.0,CHH,2.0,2.0
21.0,8.0,3.0,7.0,10.0,9.0,12.0,5.0,8.0,16.0,7.0,9.0,25.8,NBA,0.0,2.0,5.0,29.0,2001,6.0,CHH,6.0,8.0
22.0,10.0,2.0,10.0,12.0,9.0,20.0,4.0,10.0,29.0,9.0,17.0,30.7,NBA,0.0,4.0,6.0,33.0,2002,7.0,CHH,4.0,14.0
23.0,11.0,1.0,4.0,12.0,7.0,14.0,5.0,12.0,26.0,5.0,6.0,30.7,NBA,0.0,2.0,5.0,34.0,2003,3.0,NOH,6.0,5.0
24.0,12.0,2.0,4.0,11.0,8.0,14.0,5.0,12.0,21.0,8.0,10.0,26.3,NBA,0.0,3.0,5.0,33.0,2004,4.0,NOH,6.0,6.0
27.0,9.0,2.0,12.0,13.0,10.0,15.0,4.0,10.0,22.0,10.0,12.0,32.7,NBA,46.0,2.0,6.0,36.0,2007,6.0,GSW,6.0,14.0
32.0,6.0,0.0,1.0,5.0,3.0,5.0,2.0,4.0,8.0,3.0,3.0,7.9,NBA,28.0,0.0,5.0,12.0,2012,0.0,NYK,4.0,1.0
