article_url,date,headline
https://lastwordonprobasketball.com/2019/08/15/charlotte-hornets-all-time-team/,2019/08/15,Last Word on Sports: Charlotte Hornets All-Time Team
https://sircharlesincharge.com/2019/08/15/memphis-grizzlies-projecting-ja-morant-career/,2019/08/15,Sir Charles In Charge: Memphis Grizzlies: Projecting Ja Morant's rookie season
https://swarmandsting.com/2019/07/24/charlotte-hornets-history-players-team-usa/,2019/07/24,Swarm and Sting: The Charlotte Hornets have a history of players that played for Team USA
https://clipperholics.com/2019/07/17/the-la-clippers-trading-the-kyrie-pick-brought-us-here/,2019/07/17,Fully Clips: The LA Clippers Trading the Kyrie Pick Brought Us Here
https://thescorecrow.com/2019/07/11/big3-releases-four-former-nba-stars-fines-big-baby/,2019/07/11,"The Scorecrow: BIG3 Releases Four Former NBA Stars, Fines “Big Baby”"
