age,ast,ast_per_g,blk,college_id,fg,fg3,fg3_pct,fg3a,fg_pct,fga,ft,ft_pct,fta,g,mp,mp_per_g,orb,pf,pts,pts_per_g,season,stl,tov,trb,trb_per_g
18.0,161.0,5.0,12.0,UCLA,137.0,24.0,0.308,78.0,0.529,259.0,75.0,0.676,111.0,32.0,0.0,0.0,0.0,0.0,373.0,11.7,1998,77.0,0.0,129.0,4.0
19.0,97.0,3.6,10.0,UCLA,150.0,35.0,0.343,102.0,0.481,312.0,94.0,0.599,157.0,27.0,828.0,30.7,0.0,94.0,429.0,15.9,1999,68.0,89.0,97.0,3.6
