age,ast,blk,drb,efg_pct,fg,fg2,fg2_pct,fg2a,fg3,fg3_pct,fg3a,fg_pct,fga,ft,ft_pct,fta,g,gs,lg_id,mp,orb,pf,pos,pts,season,stl,team_id,tov,trb
20.0,65.0,26.0,187.0,0.505,179.0,138.0,0.537,257.0,41.0,0.297,138.0,0.453,395.0,77.0,0.762,101.0,61.0,19.0,NBA,1265.0,37.0,127.0,SG,476.0,2011,62.0,IND,70.0,224.0
21.0,158.0,38.0,314.0,0.51,281.0,191.0,0.472,405.0,90.0,0.385,234.0,0.44,639.0,146.0,0.802,182.0,66.0,66.0,NBA,1958.0,56.0,191.0,SG,798.0,2012,108.0,IND,117.0,370.0
22.0,327.0,51.0,515.0,0.491,493.0,323.0,0.457,707.0,170.0,0.362,469.0,0.419,1176.0,221.0,0.807,274.0,79.0,79.0,NBA,2972.0,88.0,227.0,SF,1377.0,2013,143.0,IND,233.0,603.0
23.0,283.0,22.0,478.0,0.49,577.0,395.0,0.458,862.0,182.0,0.364,500.0,0.424,1362.0,401.0,0.864,464.0,80.0,80.0,NBA,2898.0,64.0,198.0,SF,1737.0,2014,151.0,IND,224.0,542.0
24.0,6.0,1.0,18.0,0.459,18.0,9.0,0.333,27.0,9.0,0.409,22.0,0.367,49.0,8.0,0.727,11.0,6.0,0.0,NBA,91.0,4.0,11.0,SF,53.0,2015,5.0,IND,12.0,22.0
25.0,329.0,29.0,484.0,0.49,605.0,395.0,0.447,883.0,210.0,0.371,566.0,0.418,1449.0,454.0,0.86,528.0,81.0,81.0,NBA,2819.0,79.0,230.0,SF,1874.0,2016,152.0,IND,265.0,563.0
26.0,251.0,27.0,434.0,0.534,622.0,427.0,0.501,852.0,195.0,0.393,496.0,0.461,1348.0,336.0,0.898,374.0,75.0,75.0,NBA,2689.0,58.0,206.0,SF,1775.0,2017,119.0,IND,220.0,492.0
27.0,263.0,39.0,375.0,0.521,576.0,332.0,0.454,731.0,244.0,0.401,609.0,0.43,1340.0,338.0,0.822,411.0,79.0,79.0,NBA,2891.0,72.0,233.0,SF,1734.0,2018,161.0,OKC,212.0,447.0
28.0,318.0,34.0,523.0,0.529,707.0,415.0,0.484,857.0,292.0,0.386,757.0,0.438,1614.0,453.0,0.839,540.0,77.0,77.0,NBA,2841.0,105.0,214.0,SF,2159.0,2019,170.0,OKC,205.0,628.0
29.0,4.0,0.0,9.0,0.676,10.0,7.0,0.583,12.0,3.0,0.6,5.0,0.588,17.0,10.0,1.0,10.0,1.0,1.0,NBA,24.0,0.0,5.0,,33.0,2020,0.0,LAC,5.0,9.0
