lg_id,salary,season,team_name
NBA,2238360.0,2011,Indiana Pacers
NBA,2406240.0,2012,Indiana Pacers
NBA,2574120.0,2013,Indiana Pacers
NBA,3282003.0,2014,Indiana Pacers
NBA,15925680.0,2015,Indiana Pacers
NBA,17120106.0,2016,Indiana Pacers
NBA,18314532.0,2017,Indiana Pacers
NBA,19508958.0,2018,Oklahoma City Thunder
NBA,30560700.0,2019,Oklahoma City Thunder
