age,ast_per_poss,blk_per_poss,def_rtg,drb_per_poss,fg2_pct,fg2_per_poss,fg2a_per_poss,fg3_pct,fg3_per_poss,fg3a_per_poss,fg_pct,fg_per_poss,fga_per_poss,ft_pct,ft_per_poss,fta_per_poss,g,gs,lg_id,mp,off_rtg,orb_per_poss,pf_per_poss,pos,pts_per_poss,season,stl_per_poss,team_id,tov_per_poss,trb_per_poss
20.0,2.0,4.0,103.0,8.0,0.35,2.8,8.0,0.231,1.2,5.2,0.303,4.0,13.2,0.875,2.8,3.2,5.0,5.0,NBA,133.0,84.0,2.0,4.4,SG,12.0,2011,2.8,IND,2.8,10.0
21.0,3.8,0.6,99.0,8.5,0.481,3.8,7.9,0.268,1.6,6.0,0.389,5.4,14.0,0.786,3.2,4.1,11.0,11.0,NBA,371.0,100.0,2.2,4.7,SG,15.7,2012,2.6,IND,3.1,10.7
22.0,6.8,0.6,103.0,8.8,0.491,6.0,12.2,0.327,2.4,7.3,0.43,8.4,19.5,0.727,6.6,9.0,19.0,19.0,NBA,780.0,104.0,1.1,5.1,SF,25.7,2013,1.8,IND,5.3,9.9
23.0,5.1,0.5,101.0,9.2,0.462,6.0,12.9,0.403,3.6,9.0,0.438,9.6,21.9,0.789,7.0,8.9,19.0,19.0,NBA,781.0,111.0,0.9,3.9,SF,29.8,2014,2.9,IND,3.4,10.1
25.0,5.9,1.0,101.0,8.6,0.475,7.5,15.7,0.419,3.5,8.4,0.455,11.0,24.2,0.953,12.0,12.6,7.0,7.0,NBA,275.0,121.0,1.8,4.7,SF,37.5,2016,2.8,IND,4.5,10.4
26.0,8.5,0.6,117.0,8.8,0.348,4.7,13.5,0.429,5.3,12.4,0.386,10.0,25.9,0.867,7.7,8.8,4.0,4.0,NBA,172.0,116.0,1.5,3.8,SF,33.0,2017,2.1,IND,3.8,10.3
27.0,3.1,0.8,109.0,6.3,0.441,5.9,13.3,0.365,3.7,10.2,0.408,9.6,23.5,0.861,6.1,7.0,6.0,6.0,NBA,251.0,100.0,0.8,3.3,SF,28.9,2018,1.6,OKC,4.7,7.0
28.0,4.2,0.2,110.0,8.7,0.537,6.8,12.7,0.319,3.5,11.1,0.436,10.4,23.8,0.816,9.4,11.5,5.0,5.0,NBA,204.0,108.0,1.4,4.9,SF,33.7,2019,1.6,OKC,4.7,10.1
