age,ast,blk,drb,efg_pct,fg,fg2,fg2_pct,fg2a,fg3,fg3_pct,fg3a,fg_pct,fga,ft,ft_pct,fta,g,gs,lg_id,mp,orb,pf,pos,pts,season,stl,team_id,tov,trb
20.0,5.0,10.0,20.0,0.348,10.0,7.0,0.35,20.0,3.0,0.231,13.0,0.303,33.0,7.0,0.875,8.0,5.0,5.0,NBA,133.0,5.0,11.0,SG,30.0,2011,7.0,IND,7.0,25.0
21.0,26.0,4.0,58.0,0.447,37.0,26.0,0.481,54.0,11.0,0.268,41.0,0.389,95.0,22.0,0.786,28.0,11.0,11.0,NBA,371.0,15.0,32.0,SG,107.0,2012,18.0,IND,21.0,73.0
22.0,96.0,9.0,125.0,0.491,119.0,85.0,0.491,173.0,34.0,0.327,104.0,0.43,277.0,93.0,0.727,128.0,19.0,19.0,NBA,780.0,16.0,72.0,SF,365.0,2013,25.0,IND,75.0,141.0
23.0,73.0,7.0,132.0,0.521,138.0,86.0,0.462,186.0,52.0,0.403,129.0,0.438,315.0,101.0,0.789,128.0,19.0,19.0,NBA,781.0,13.0,56.0,SF,429.0,2014,41.0,IND,49.0,145.0
25.0,30.0,5.0,44.0,0.528,56.0,38.0,0.475,80.0,18.0,0.419,43.0,0.455,123.0,61.0,0.953,64.0,7.0,7.0,NBA,275.0,9.0,24.0,SF,191.0,2016,14.0,IND,23.0,53.0
26.0,29.0,2.0,30.0,0.489,34.0,16.0,0.348,46.0,18.0,0.429,42.0,0.386,88.0,26.0,0.867,30.0,4.0,4.0,NBA,172.0,5.0,13.0,SF,112.0,2017,7.0,IND,13.0,35.0
27.0,16.0,4.0,32.0,0.488,49.0,30.0,0.441,68.0,19.0,0.365,52.0,0.408,120.0,31.0,0.861,36.0,6.0,6.0,NBA,251.0,4.0,17.0,SF,148.0,2018,8.0,OKC,24.0,36.0
28.0,18.0,1.0,37.0,0.51,44.0,29.0,0.537,54.0,15.0,0.319,47.0,0.436,101.0,40.0,0.816,49.0,5.0,5.0,NBA,204.0,6.0,21.0,SF,143.0,2019,7.0,OKC,20.0,43.0
