age,ast_per_mp,blk_per_mp,drb_per_mp,fg2_pct,fg2_per_mp,fg2a_per_mp,fg3_pct,fg3_per_mp,fg3a_per_mp,fg_pct,fg_per_mp,fga_per_mp,ft_pct,ft_per_mp,fta_per_mp,g,gs,lg_id,mp,orb_per_mp,pf_per_mp,pos,pts_per_mp,season,stl_per_mp,team_id,tov_per_mp,trb_per_mp
20.0,1.8,0.7,5.3,0.537,3.9,7.3,0.297,1.2,3.9,0.453,5.1,11.2,0.762,2.2,2.9,61.0,19.0,NBA,1265.0,1.1,3.6,SG,13.5,2011,1.8,IND,2.0,6.4
21.0,2.9,0.7,5.8,0.472,3.5,7.4,0.385,1.7,4.3,0.44,5.2,11.7,0.802,2.7,3.3,66.0,66.0,NBA,1958.0,1.0,3.5,SG,14.7,2012,2.0,IND,2.2,6.8
22.0,4.0,0.6,6.2,0.457,3.9,8.6,0.362,2.1,5.7,0.419,6.0,14.2,0.807,2.7,3.3,79.0,79.0,NBA,2972.0,1.1,2.7,SF,16.7,2013,1.7,IND,2.8,7.3
23.0,3.5,0.3,5.9,0.458,4.9,10.7,0.364,2.3,6.2,0.424,7.2,16.9,0.864,5.0,5.8,80.0,80.0,NBA,2898.0,0.8,2.5,SF,21.6,2014,1.9,IND,2.8,6.7
24.0,2.4,0.4,7.1,0.333,3.6,10.7,0.409,3.6,8.7,0.367,7.1,19.4,0.727,3.2,4.4,6.0,0.0,NBA,91.0,1.6,4.4,SF,21.0,2015,2.0,IND,4.7,8.7
25.0,4.2,0.4,6.2,0.447,5.0,11.3,0.371,2.7,7.2,0.418,7.7,18.5,0.86,5.8,6.7,81.0,81.0,NBA,2819.0,1.0,2.9,SF,23.9,2016,1.9,IND,3.4,7.2
26.0,3.4,0.4,5.8,0.501,5.7,11.4,0.393,2.6,6.6,0.461,8.3,18.0,0.898,4.5,5.0,75.0,75.0,NBA,2689.0,0.8,2.8,SF,23.8,2017,1.6,IND,2.9,6.6
27.0,3.3,0.5,4.7,0.454,4.1,9.1,0.401,3.0,7.6,0.43,7.2,16.7,0.822,4.2,5.1,79.0,79.0,NBA,2891.0,0.9,2.9,SF,21.6,2018,2.0,OKC,2.6,5.6
28.0,4.0,0.4,6.6,0.484,5.3,10.9,0.386,3.7,9.6,0.438,9.0,20.5,0.839,5.7,6.8,77.0,77.0,NBA,2841.0,1.3,2.7,SF,27.4,2019,2.2,OKC,2.6,8.0
29.0,6.0,0.0,13.5,0.583,10.5,18.0,0.6,4.5,7.5,0.588,15.0,25.5,1.0,15.0,15.0,1.0,1.0,NBA,24.0,0.0,7.5,,49.5,2020,0.0,LAC,7.5,13.5
