article_url,date,headline
https://orlandomagicdaily.com/2019/11/15/orlando-magic-biggest-room-growth-defense/,2019/11/15,Orlando Magic Daily: Orlando Magic's biggest room for growth is on defense
https://lakeshowlife.com/2019/11/15/lebron-james-kawhi-leonards-load-management-double-standard/,2019/11/15,"Lake Show Life: LeBron James: Kawhi Leonard's ""Load Management"" a double standard?"
https://thunderousintentions.com/2019/11/15/okc-thunder-alumni-carmelo-anthony-signs-blazers/,2019/11/15,Thunderous Intentions: OKC Thunder alumni Carmelo Anthony signs with the Portland Trail Blazers
https://thesixersense.com/2019/11/15/philadelphia-76ers-3-players-watch-oklahoma-city-thunder/,2019/11/15,The Sixer Sense: Philadelphia 76ers: 3 players to watch for against the Thunder
