age,ast_per_poss,blk_per_poss,def_rtg,drb_per_poss,fg2_pct,fg2_per_poss,fg2a_per_poss,fg3_pct,fg3_per_poss,fg3a_per_poss,fg_pct,fg_per_poss,fga_per_poss,ft_pct,ft_per_poss,fta_per_poss,g,gs,lg_id,mp,off_rtg,orb_per_poss,pf_per_poss,pos,pts_per_poss,season,stl_per_poss,team_id,tov_per_poss,trb_per_poss
23.0,0.0,0.0,118.0,0.0,0.5,8.9,17.9,1.0,3.0,3.0,0.571,11.9,20.9,0.0,0.0,0.0,4.0,0.0,NBA,17.0,112.0,6.0,0.0,SF,26.8,1991,0.0,SAC,3.0,6.0
27.0,3.9,0.0,110.0,11.8,0.4,7.9,19.6,0.333,3.9,11.8,0.375,11.8,31.4,1.0,3.9,3.9,2.0,0.0,NBA,13.0,85.0,0.0,15.7,SF,31.4,1995,0.0,BOS,7.9,11.8
