age,ast,blk,drb,efg_pct,fg,fg2,fg2_pct,fg2a,fg3,fg3_pct,fg3a,fg_pct,fga,ft,ft_pct,fta,g,gs,lg_id,mp,orb,pf,pos,pts,season,stl,team_id,tov,trb
23.0,0.0,0.0,0.0,0.643,4.0,3.0,0.5,6.0,1.0,1.0,1.0,0.571,7.0,0.0,0.0,0.0,4.0,0.0,NBA,17.0,2.0,0.0,SF,9.0,1991,0.0,SAC,1.0,2.0
27.0,1.0,0.0,3.0,0.438,3.0,2.0,0.4,5.0,1.0,0.333,3.0,0.375,8.0,1.0,1.0,1.0,2.0,0.0,NBA,13.0,0.0,4.0,SF,8.0,1995,0.0,BOS,2.0,3.0
