age,ast,ast_per_g,blk,college_id,fg,fg3,fg3_pct,fg3a,fg_pct,fga,ft,ft_pct,fta,g,mp,mp_per_g,orb,pf,pts,pts_per_g,season,stl,tov,trb,trb_per_g
20.0,25.0,0.8,0.0,FLORIDAST,212.0,1.0,0.2,5.0,0.539,393.0,111.0,0.725,153.0,30.0,904.0,30.1,0.0,0.0,536.0,17.9,1988,0.0,0.0,228.0,7.6
21.0,20.0,0.7,0.0,FLORIDAST,243.0,25.0,0.301,83.0,0.528,460.0,118.0,0.738,160.0,30.0,1036.0,34.5,0.0,0.0,629.0,21.0,1989,0.0,0.0,206.0,6.9
