article_url,date,headline
https://pistonpowered.com/2019/08/29/the-poetic-journey-of-the-detroit-pistons/,2019/08/29,Piston Powered: The poetic journey of the Detroit Pistons
https://hoopshabit.com/2019/08/27/indiana-pacers-3-candidates-breakout-season-2019-20/,2019/08/27,Hoops Habit: Indiana Pacers: 3 candidates for a breakout season in 2019-20
https://lakeshowlife.com/2019/05/30/lakers-rumors-jarrett-culver-answer-lakers-4/,2019/05/30,Lake Show Life: Lakers Rumors: Is Jarrett Culver the answer for the Lakers at No. 4?
