article_url,date,headline
https://fansided.com/2019/10/15/nba-season-preview-2019-20-celtics-big-questions/,2019/10/15,FanSided: NBA Season Preview 2019-20: 5 biggest questions for the Boston Celtics
https://8points9seconds.com/2019/09/24/ranking-best-indiana-pacers-free-agent-singings-last-five-years/,2019/09/24,"8 Points, 9 Seconds: Ranking the best Indiana Pacers free agent singings of the last five years"
https://allucanheat.com/2019/09/10/nba-2k20-simulations-say-miami-heat/,2019/09/10,All U Can Heat: What NBA 2K20 simulations have to say about the Miami Heat
