age,ast_pct,blk_pct,bpm,bpm-dum,dbpm,drb_pct,dws,fg3a_per_fga_pct,fta_per_fga_pct,g,lg_id,mp,obpm,orb_pct,ows,per,pos,season,stl_pct,team_id,tov_pct,trb_pct,ts_pct,usg_pct,vorp,ws,ws-dum,ws_per_48
20.0,3.9,3.9,-2.7,0.0,-0.9,21.0,1.4,0.008,0.366,71.0,NBA,1051.0,-1.7,13.5,1.3,16.6,PF,2005,1.1,BOS,13.3,17.3,0.554,21.2,-0.2,2.7,0.0,0.123
21.0,5.0,3.3,-3.1,0.0,-0.4,22.6,1.5,0.011,0.354,59.0,NBA,1062.0,-2.6,11.4,0.9,16.2,PF,2006,1.5,BOS,12.4,17.2,0.53,21.6,-0.3,2.3,0.0,0.105
22.0,7.2,3.5,0.6,0.0,1.0,27.4,3.3,0.001,0.334,69.0,NBA,2319.0,-0.5,12.0,3.3,19.8,C,2007,1.1,BOS,11.8,19.5,0.547,22.4,1.5,6.6,0.0,0.137
23.0,7.5,3.2,0.3,0.0,-0.3,24.7,2.9,0.003,0.273,82.0,NBA,2919.0,0.6,11.9,4.8,22.7,C,2008,1.3,MIN,9.4,18.1,0.535,27.5,1.7,7.7,0.0,0.127
24.0,8.8,3.5,0.7,0.0,0.1,24.9,2.0,0.004,0.258,50.0,NBA,1836.0,0.6,10.6,2.9,23.1,C,2009,1.1,MIN,7.8,17.5,0.532,28.9,1.2,4.9,0.0,0.128
25.0,10.0,3.0,-0.4,0.0,0.5,24.2,2.3,0.004,0.236,76.0,NBA,2463.0,-0.9,8.0,2.3,19.0,C,2010,1.3,MIN,9.9,16.0,0.524,24.3,1.0,4.6,0.0,0.09
26.0,9.2,4.2,0.1,0.0,0.1,23.2,2.7,0.0,0.219,82.0,NBA,2940.0,0.0,9.6,5.1,20.1,C,2011,0.8,UTA,6.8,16.3,0.528,24.2,1.5,7.8,0.0,0.128
27.0,12.1,3.9,3.0,0.0,1.3,25.3,2.5,0.004,0.169,61.0,NBA,2075.0,1.7,7.3,4.9,22.8,C,2012,1.2,UTA,5.2,16.2,0.52,25.7,2.6,7.5,0.0,0.173
28.0,12.0,2.7,1.5,0.0,1.0,25.9,3.3,0.014,0.176,78.0,NBA,2578.0,0.5,7.0,4.3,20.9,C,2013,1.6,UTA,7.3,16.3,0.522,25.3,2.2,7.7,0.0,0.143
29.0,12.8,2.4,1.8,0.0,1.5,28.3,4.7,0.011,0.201,73.0,NBA,2553.0,0.3,6.9,3.1,22.7,C,2014,1.4,CHA,7.6,17.5,0.532,29.3,2.5,7.8,0.0,0.146
30.0,11.6,3.3,0.2,0.0,1.6,25.5,3.4,0.005,0.163,65.0,NBA,1992.0,-1.3,5.3,1.3,19.7,C,2015,1.2,CHO,5.9,15.1,0.5,26.3,1.1,4.7,0.0,0.113
31.0,11.8,3.0,-1.1,0.0,1.2,24.6,1.8,0.0,0.22,47.0,NBA,1096.0,-2.3,5.6,1.0,18.2,C,2016,1.4,CHO,5.8,15.0,0.507,24.2,0.2,2.8,0.0,0.123
32.0,11.0,1.5,-3.1,0.0,-1.5,24.2,1.1,0.002,0.18,66.0,NBA,931.0,-1.5,9.2,1.2,18.9,C,2017,1.0,IND,6.1,16.8,0.526,26.1,-0.2,2.3,0.0,0.119
33.0,10.0,4.2,-0.5,0.0,1.3,26.2,0.8,0.014,0.173,36.0,NBA,484.0,-1.7,7.0,0.8,20.2,C,2018,1.7,IND,8.6,16.7,0.563,22.5,0.2,1.6,0.0,0.158
