age,avg_dist,fg2_dunk,fg2_pct,fg2_pct_ast,fg2a_pct_fga,fg3_heave,fg3_pct,fg3_pct_ast,fg3_pct_corner,fg3a_heave,fg3a_pct_fga,fg_pct,fg_pct_00_03,fg_pct_03_10,fg_pct_10_16,fg_pct_16_xx,g,lg_id,mp,pct_fg2_dunk,pct_fg3a_corner,pct_fga_00_03,pct_fga_03_10,pct_fga_10_16,pct_fga_16_xx,pos,season,team_id
20.0,4.4,49.0,0.533,0.585,0.992,0.0,0.0,0.0,0.0,1.0,0.008,0.528,0.585,0.504,0.406,0.273,71.0,NBA,1051.0,0.136,0.333,0.542,0.333,0.087,0.03,PF,2005,BOS
21.0,4.2,29.0,0.504,0.492,0.989,0.0,0.0,0.0,0.0,0.0,0.011,0.499,0.598,0.397,0.306,0.444,59.0,NBA,1062.0,0.079,0.0,0.565,0.306,0.095,0.024,PF,2006,BOS
22.0,5.5,65.0,0.514,0.521,0.999,0.0,0.0,0.0,0.0,0.0,0.001,0.514,0.645,0.452,0.321,0.383,69.0,NBA,2319.0,0.076,0.0,0.422,0.404,0.12,0.053,C,2007,BOS
23.0,6.9,97.0,0.502,0.51,0.997,0.0,0.0,0.0,0.0,3.0,0.003,0.5,0.669,0.456,0.38,0.298,82.0,NBA,2919.0,0.076,0.0,0.35,0.356,0.206,0.084,C,2008,MIN
24.0,7.1,37.0,0.499,0.522,0.996,0.0,0.0,0.0,0.0,2.0,0.004,0.497,0.628,0.445,0.41,0.38,50.0,NBA,1836.0,0.042,0.0,0.381,0.281,0.21,0.124,C,2009,MIN
25.0,7.8,39.0,0.5,0.448,0.996,0.0,0.0,0.0,0.0,2.0,0.004,0.498,0.679,0.503,0.358,0.33,76.0,NBA,2463.0,0.038,0.0,0.313,0.299,0.288,0.097,C,2010,MIN
26.0,8.1,74.0,0.496,0.584,1.0,0.0,0.0,0.0,0.0,0.0,0.0,0.496,0.655,0.441,0.394,0.419,82.0,NBA,2940.0,0.058,0.0,0.315,0.332,0.19,0.163,C,2011,UTA
27.0,9.2,52.0,0.493,0.522,0.996,0.0,0.25,1.0,0.0,0.0,0.004,0.492,0.68,0.491,0.394,0.402,61.0,NBA,2075.0,0.053,0.0,0.218,0.364,0.216,0.199,C,2012,UTA
28.0,10.2,65.0,0.5,0.547,0.986,0.0,0.118,1.0,0.0,3.0,0.014,0.494,0.718,0.464,0.416,0.401,78.0,NBA,2578.0,0.059,0.176,0.241,0.291,0.169,0.285,C,2013,UTA
29.0,9.0,28.0,0.512,0.611,0.989,0.0,0.2,1.0,0.0,4.0,0.011,0.509,0.681,0.514,0.428,0.348,73.0,NBA,2553.0,0.021,0.067,0.289,0.305,0.192,0.203,C,2014,CHA
30.0,8.2,15.0,0.482,0.597,0.995,0.0,0.4,0.5,1.0,0.0,0.005,0.481,0.639,0.445,0.391,0.391,65.0,NBA,1992.0,0.015,0.2,0.282,0.362,0.218,0.132,C,2015,CHO
31.0,7.9,13.0,0.485,0.555,1.0,0.0,0.0,0.0,0.0,0.0,0.0,0.485,0.642,0.407,0.405,0.514,47.0,NBA,1096.0,0.028,0.0,0.271,0.341,0.25,0.139,C,2016,CHO
32.0,7.6,10.0,0.5,0.536,0.998,0.0,0.0,0.0,0.0,0.0,0.002,0.499,0.662,0.522,0.327,0.353,66.0,NBA,931.0,0.021,0.0,0.289,0.382,0.214,0.108,C,2017,IND
33.0,8.3,9.0,0.541,0.595,0.986,0.0,0.0,0.0,0.0,0.0,0.014,0.534,0.576,0.571,0.617,0.333,36.0,NBA,484.0,0.043,0.0,0.284,0.303,0.226,0.173,C,2018,IND
