age,ast_per_poss,blk_per_poss,def_rtg,drb_per_poss,fg2_pct,fg2_per_poss,fg2a_per_poss,fg3_pct,fg3_per_poss,fg3a_per_poss,fg_pct,fg_per_poss,fga_per_poss,ft_pct,ft_per_poss,fta_per_poss,g,gs,lg_id,mp,off_rtg,orb_per_poss,pf_per_poss,pos,pts_per_poss,season,stl_per_poss,team_id,tov_per_poss,trb_per_poss
20.0,1.2,2.7,104.0,9.4,0.533,9.5,17.9,0.0,0.0,0.1,0.528,9.5,18.1,0.63,4.2,6.6,71.0,1.0,NBA,1051.0,108.0,5.8,9.5,PF,23.3,2005,1.1,BOS,3.2,15.3
21.0,1.5,2.3,103.0,9.9,0.504,9.3,18.4,0.0,0.0,0.2,0.499,9.3,18.6,0.642,4.2,6.6,59.0,7.0,NBA,1062.0,104.0,4.8,8.1,PF,22.8,2006,1.5,BOS,3.0,14.7
22.0,2.0,2.4,103.0,11.7,0.514,10.2,19.8,0.0,0.0,0.0,0.514,10.2,19.8,0.681,4.5,6.6,69.0,60.0,NBA,2319.0,109.0,5.3,5.2,C,24.9,2007,1.1,BOS,3.1,17.0
23.0,2.1,2.1,108.0,10.8,0.502,12.9,25.7,0.0,0.0,0.1,0.5,12.9,25.8,0.721,5.1,7.1,82.0,82.0,NBA,2919.0,109.0,5.5,4.0,C,30.9,2008,1.3,MIN,3.0,16.3
24.0,2.3,2.4,108.0,10.7,0.499,13.8,27.7,0.0,0.0,0.1,0.497,13.8,27.8,0.738,5.3,7.2,50.0,50.0,NBA,1836.0,109.0,4.9,4.0,C,33.0,2009,1.1,MIN,2.6,15.6
25.0,2.8,2.0,108.0,10.6,0.5,11.4,22.7,0.0,0.0,0.1,0.498,11.4,22.8,0.68,3.7,5.4,76.0,76.0,NBA,2463.0,106.0,3.7,4.2,C,26.4,2010,1.3,MIN,2.8,14.3
26.0,2.7,2.7,108.0,10.0,0.496,11.7,23.7,0.0,0.0,0.0,0.496,11.7,23.7,0.761,3.9,5.2,82.0,82.0,NBA,2940.0,111.0,4.2,4.3,C,27.4,2011,0.8,UTA,1.9,14.2
27.0,3.4,2.6,103.0,11.4,0.493,13.0,26.4,0.25,0.0,0.1,0.492,13.1,26.5,0.774,3.5,4.5,61.0,61.0,NBA,2075.0,112.0,3.4,3.9,C,29.6,2012,1.2,UTA,1.6,14.8
28.0,3.4,1.8,104.0,11.5,0.5,12.5,25.0,0.118,0.0,0.3,0.494,12.5,25.3,0.77,3.4,4.4,78.0,78.0,NBA,2578.0,109.0,3.2,3.5,C,28.5,2013,1.6,UTA,2.2,14.7
29.0,3.2,1.6,100.0,12.9,0.512,14.2,27.7,0.2,0.1,0.3,0.509,14.2,28.0,0.69,3.9,5.6,73.0,73.0,NBA,2553.0,105.0,3.2,3.6,C,32.4,2014,1.4,CHA,2.5,16.1
30.0,2.9,2.2,100.0,11.6,0.482,12.5,26.1,0.4,0.1,0.1,0.481,12.6,26.2,0.655,2.8,4.3,65.0,61.0,NBA,1992.0,101.0,2.6,3.6,C,28.0,2015,1.2,CHO,1.8,14.2
31.0,3.2,1.9,102.0,11.2,0.485,11.2,23.1,0.0,0.0,0.0,0.485,11.2,23.1,0.649,3.3,5.1,47.0,18.0,NBA,1096.0,105.0,2.6,5.4,C,25.7,2016,1.4,CHO,1.6,13.8
32.0,3.1,0.9,108.0,10.9,0.5,12.6,25.3,0.0,0.0,0.1,0.499,12.6,25.3,0.765,3.5,4.6,66.0,1.0,NBA,931.0,109.0,4.0,6.7,C,28.8,2017,1.0,IND,1.8,14.9
33.0,3.1,2.4,104.0,11.7,0.541,11.5,21.2,0.0,0.0,0.3,0.534,11.5,21.5,0.833,3.1,3.7,36.0,1.0,NBA,484.0,113.0,3.1,6.8,C,26.0,2018,1.7,IND,2.2,14.8
