age,ast_per_g,blk_per_g,drb_per_g,efg_pct,fg2_pct,fg2_per_g,fg2a_per_g,fg3_pct,fg3_per_g,fg3a_per_g,fg_pct,fg_per_g,fga_per_g,ft_pct,ft_per_g,fta_per_g,g,gs,lg_id,mp_per_g,orb_per_g,pf_per_g,pos,pts_per_g,season,stl_per_g,team_id,tov_per_g,trb_per_g
22.0,1.7,0.4,5.3,0.519,0.522,3.6,7.0,0.0,0.0,0.0,0.519,3.6,7.0,0.662,2.3,3.5,77.0,30.0,NBA,23.0,3.3,3.2,PF,9.6,1986,0.9,CHI,2.3,8.6
23.0,3.6,0.4,9.5,0.45,0.447,5.6,12.5,0.367,0.1,0.4,0.445,5.7,12.8,0.686,3.0,4.4,82.0,81.0,NBA,36.3,3.6,3.8,PF,14.5,1987,1.0,CHI,3.6,13.1
24.0,3.0,0.3,9.0,0.485,0.487,4.5,9.3,0.25,0.0,0.1,0.483,4.6,9.5,0.727,3.2,4.4,82.0,82.0,NBA,34.3,4.0,3.3,PF,12.4,1988,0.8,CHI,2.9,13.0
25.0,2.3,0.2,6.3,0.517,0.526,5.0,9.6,0.25,0.1,0.6,0.51,5.2,10.2,0.773,2.4,3.1,82.0,82.0,NBA,31.8,4.2,3.3,PF,12.9,1989,1.3,NYK,3.0,10.5
26.0,2.4,0.3,7.7,0.524,0.527,5.5,10.5,0.0,0.0,0.0,0.524,5.5,10.5,0.761,3.6,4.7,61.0,61.0,NBA,36.0,4.2,3.6,PF,14.6,1990,1.0,NYK,2.7,11.9
27.0,2.7,0.2,8.1,0.516,0.518,4.0,7.8,0.0,0.0,0.0,0.516,4.0,7.8,0.784,3.1,4.0,76.0,74.0,NBA,36.0,4.0,3.8,PF,11.2,1991,0.8,NYK,2.8,12.1
28.0,1.6,0.2,5.4,0.522,0.526,2.6,4.9,0.0,0.0,0.0,0.522,2.6,4.9,0.735,1.0,1.4,82.0,82.0,NBA,28.2,3.1,3.1,PF,6.2,1992,0.8,NYK,1.5,8.5
29.0,1.5,0.2,5.1,0.508,0.509,2.7,5.2,0.0,0.0,0.0,0.508,2.7,5.3,0.722,1.5,2.1,82.0,82.0,NBA,27.2,3.5,3.5,PF,6.9,1993,1.0,NYK,1.5,8.6
30.0,2.7,0.2,7.5,0.478,0.48,4.4,9.2,0.0,0.0,0.0,0.478,4.4,9.3,0.776,3.0,3.8,82.0,82.0,NBA,35.8,4.3,3.6,PF,11.8,1994,1.3,NYK,2.4,11.8
31.0,2.5,0.1,5.8,0.492,0.496,3.8,7.6,0.25,0.1,0.2,0.489,3.8,7.9,0.793,2.4,3.0,50.0,49.0,NBA,31.3,3.1,3.6,PF,10.1,1995,1.2,NYK,2.1,8.9
32.0,2.6,0.3,5.6,0.479,0.483,3.8,8.0,0.269,0.1,0.5,0.471,4.0,8.5,0.833,3.3,4.0,53.0,51.0,NBA,33.5,3.1,3.7,PF,11.4,1996,1.1,NYK,2.0,8.7
33.0,2.8,0.3,6.7,0.492,0.495,4.2,8.4,0.263,0.1,0.2,0.488,4.2,8.7,0.808,2.3,2.8,80.0,80.0,NBA,35.9,3.1,3.8,PF,10.8,1997,1.4,NYK,2.1,9.8
34.0,2.5,0.3,6.4,0.44,0.444,3.9,8.8,0.0,0.0,0.1,0.44,3.9,8.8,0.851,1.2,1.4,79.0,79.0,NBA,34.6,2.8,3.5,PF,9.0,1998,1.6,NYK,1.6,9.2
35.0,3.4,0.4,5.6,0.43,0.432,2.8,6.4,0.2,0.0,0.1,0.428,2.8,6.5,0.807,1.3,1.7,50.0,50.0,NBA,32.7,1.9,3.6,PF,7.0,1999,0.9,TOR,1.9,7.5
36.0,3.2,0.6,5.3,0.43,0.424,2.8,6.5,0.341,0.2,0.5,0.418,2.9,7.0,0.776,0.8,1.1,80.0,80.0,NBA,30.4,1.5,3.7,PF,6.9,2000,1.3,TOR,1.9,6.8
37.0,3.4,0.6,7.7,0.395,0.399,3.8,9.4,0.224,0.1,0.6,0.388,3.9,10.1,0.836,1.6,1.9,78.0,77.0,NBA,35.5,1.8,3.3,PF,9.6,2001,1.0,TOR,1.8,9.5
38.0,2.0,0.2,4.8,0.371,0.374,1.7,4.5,0.167,0.0,0.1,0.369,1.7,4.6,0.75,0.4,0.5,57.0,36.0,NBA,24.3,1.3,3.1,PF,3.8,2002,0.9,CHI,1.5,6.0
39.0,1.0,0.1,1.7,0.418,0.418,0.5,1.3,0.0,0.0,0.0,0.418,0.5,1.3,0.824,0.7,0.8,42.0,1.0,NBA,12.2,0.9,2.1,C,1.8,2003,0.3,WAS,0.5,2.5
40.0,0.3,0.0,0.7,0.333,0.333,0.3,0.9,0.0,0.0,0.0,0.333,0.3,0.9,0.833,0.7,0.9,7.0,0.0,NBA,3.6,0.0,1.1,PF,1.3,2004,0.0,HOU,0.1,0.7
