age,ast,blk,drb,efg_pct,fg,fg2,fg2_pct,fg2a,fg3,fg3_pct,fg3a,fg_pct,fga,ft,ft_pct,fta,g,gs,lg_id,mp,orb,pf,pos,pts,season,stl,team_id,tov,trb
22.0,3.0,2.0,20.0,0.524,11.0,11.0,0.524,21.0,0.0,0.0,0.0,0.524,21.0,8.0,0.615,13.0,3.0,3.0,NBA,88.0,10.0,13.0,PF,30.0,1986,6.0,CHI,5.0,30.0
23.0,6.0,1.0,29.0,0.4,19.0,17.0,0.37,46.0,2.0,0.5,4.0,0.38,50.0,20.0,0.833,24.0,3.0,3.0,NBA,129.0,17.0,13.0,PF,60.0,1987,4.0,CHI,8.0,46.0
24.0,32.0,4.0,89.0,0.44,40.0,40.0,0.449,89.0,0.0,0.0,2.0,0.44,91.0,21.0,0.875,24.0,10.0,10.0,NBA,373.0,39.0,33.0,PF,101.0,1988,6.0,CHI,18.0,128.0
25.0,11.0,1.0,58.0,0.486,35.0,34.0,0.479,71.0,1.0,0.5,2.0,0.479,73.0,16.0,0.667,24.0,9.0,9.0,NBA,299.0,43.0,31.0,PF,87.0,1989,12.0,NYK,22.0,101.0
26.0,27.0,2.0,71.0,0.518,43.0,42.0,0.506,83.0,1.0,1.0,1.0,0.512,84.0,34.0,0.654,52.0,10.0,8.0,NBA,336.0,39.0,33.0,PF,121.0,1990,11.0,NYK,22.0,110.0
27.0,3.0,1.0,16.0,0.476,10.0,10.0,0.476,21.0,0.0,0.0,0.0,0.476,21.0,3.0,0.5,6.0,3.0,3.0,NBA,100.0,15.0,13.0,PF,23.0,1991,2.0,NYK,7.0,31.0
28.0,8.0,5.0,64.0,0.379,22.0,22.0,0.379,58.0,0.0,0.0,0.0,0.379,58.0,20.0,0.741,27.0,12.0,12.0,NBA,354.0,44.0,36.0,PF,64.0,1992,8.0,NYK,15.0,108.0
29.0,17.0,2.0,94.0,0.481,63.0,63.0,0.481,131.0,0.0,0.0,0.0,0.481,131.0,40.0,0.727,55.0,15.0,15.0,NBA,507.0,71.0,51.0,PF,166.0,1993,16.0,NYK,36.0,165.0
30.0,59.0,5.0,176.0,0.477,125.0,125.0,0.477,262.0,0.0,0.0,0.0,0.477,262.0,79.0,0.775,102.0,25.0,25.0,NBA,992.0,116.0,87.0,PF,329.0,1994,35.0,NYK,65.0,292.0
31.0,41.0,6.0,62.0,0.468,49.0,45.0,0.455,99.0,4.0,0.4,10.0,0.45,109.0,42.0,0.824,51.0,11.0,11.0,NBA,421.0,31.0,42.0,PF,144.0,1995,19.0,NYK,24.0,93.0
32.0,14.0,0.0,41.0,0.513,39.0,37.0,0.514,72.0,2.0,0.333,6.0,0.5,78.0,25.0,0.694,36.0,8.0,8.0,NBA,308.0,28.0,33.0,PF,105.0,1996,8.0,NYK,28.0,69.0
33.0,16.0,3.0,65.0,0.442,38.0,38.0,0.447,85.0,0.0,0.0,1.0,0.442,86.0,22.0,0.759,29.0,10.0,10.0,NBA,358.0,23.0,37.0,PF,98.0,1997,22.0,NYK,18.0,88.0
34.0,14.0,2.0,64.0,0.408,29.0,29.0,0.408,71.0,0.0,0.0,0.0,0.408,71.0,23.0,0.92,25.0,10.0,10.0,NBA,342.0,21.0,38.0,PF,81.0,1998,11.0,NYK,13.0,85.0
36.0,11.0,1.0,21.0,0.517,14.0,12.0,0.545,22.0,2.0,0.286,7.0,0.483,29.0,0.0,0.0,1.0,3.0,3.0,NBA,110.0,2.0,14.0,PF,30.0,2000,6.0,TOR,5.0,23.0
37.0,21.0,7.0,56.0,0.449,47.0,44.0,0.44,100.0,3.0,0.375,8.0,0.435,108.0,14.0,0.824,17.0,12.0,12.0,NBA,391.0,20.0,29.0,PF,111.0,2001,12.0,TOR,22.0,76.0
