age,ast_per_g,blk_per_g,drb_per_g,efg_pct,fg2_pct,fg2_per_g,fg2a_per_g,fg3_pct,fg3_per_g,fg3a_per_g,fg_pct,fg_per_g,fga_per_g,ft_pct,ft_per_g,fta_per_g,g,gs,lg_id,mp_per_g,orb_per_g,pf_per_g,pos,pts_per_g,season,stl_per_g,team_id,tov_per_g,trb_per_g
23.0,0.0,0.0,0.5,1.0,1.0,1.0,1.0,0.0,0.0,0.0,1.0,1.0,1.0,0.0,0.0,0.0,2.0,0.0,NBA,1.0,0.0,0.0,C,2.0,1983,0.0,PHI,0.0,0.5
27.0,0.0,0.0,1.0,1.0,1.0,1.0,1.0,0.0,0.0,0.0,1.0,1.0,1.0,0.0,0.0,0.0,1.0,0.0,NBA,2.0,0.0,0.0,C,2.0,1987,0.0,PHI,0.0,1.0
29.0,0.0,0.0,0.3,0.5,0.5,0.3,0.7,0.0,0.0,0.0,0.5,0.3,0.7,0.5,0.3,0.7,3.0,0.0,NBA,2.3,0.0,0.0,C,1.0,1989,0.0,LAL,0.0,0.3
30.0,0.0,0.0,0.5,0.25,0.25,0.5,2.0,0.0,0.0,0.0,0.25,0.5,2.0,0.0,0.0,0.0,2.0,0.0,NBA,2.5,0.0,0.5,C,1.0,1990,0.0,LAL,0.0,0.5
