age,ast,blk,drb,efg_pct,fg,fg2,fg2_pct,fg2a,fg3,fg3_pct,fg3a,fg_pct,fga,ft,ft_pct,fta,g,gs,lg_id,mp,orb,pf,pos,pts,season,stl,team_id,tov,trb
23.0,0.0,0.0,1.0,1.0,2.0,2.0,1.0,2.0,0.0,0.0,0.0,1.0,2.0,0.0,0.0,0.0,2.0,0.0,NBA,2.0,0.0,0.0,C,4.0,1983,0.0,PHI,0.0,1.0
27.0,0.0,0.0,1.0,1.0,1.0,1.0,1.0,1.0,0.0,0.0,0.0,1.0,1.0,0.0,0.0,0.0,1.0,0.0,NBA,2.0,0.0,0.0,C,2.0,1987,0.0,PHI,0.0,1.0
29.0,0.0,0.0,1.0,0.5,1.0,1.0,0.5,2.0,0.0,0.0,0.0,0.5,2.0,1.0,0.5,2.0,3.0,0.0,NBA,7.0,0.0,0.0,C,3.0,1989,0.0,LAL,0.0,1.0
30.0,0.0,0.0,1.0,0.25,1.0,1.0,0.25,4.0,0.0,0.0,0.0,0.25,4.0,0.0,0.0,0.0,2.0,0.0,NBA,5.0,0.0,1.0,C,2.0,1990,0.0,LAL,0.0,1.0
