age,ast,blk,drb,fg,fg2,fg2a,fg3,fg3a,fga,ft,fta,game_score,lg_id,mp,orb,pf,pts,season,stl,team_id,tov,trb
23.0,7.0,3.0,8.0,9.0,9.0,16.0,1.0,2.0,16.0,5.0,6.0,23.3,NBA,0.0,5.0,6.0,23.0,1988,3.0,LAC,6.0,12.0
24.0,7.0,2.0,8.0,8.0,8.0,13.0,1.0,2.0,13.0,6.0,6.0,15.9,NBA,0.0,5.0,6.0,17.0,1989,3.0,LAC,4.0,10.0
25.0,5.0,3.0,10.0,8.0,8.0,13.0,3.0,6.0,13.0,5.0,7.0,16.8,NBA,0.0,4.0,5.0,19.0,1990,3.0,LAC,5.0,12.0
26.0,6.0,4.0,10.0,9.0,9.0,17.0,2.0,4.0,17.0,6.0,6.0,16.3,NBA,0.0,7.0,6.0,18.0,1991,4.0,DEN,4.0,16.0
27.0,4.0,2.0,6.0,6.0,6.0,12.0,1.0,2.0,12.0,6.0,6.0,11.5,NBA,0.0,8.0,6.0,15.0,1992,2.0,DEN,4.0,10.0
28.0,2.0,1.0,6.0,4.0,4.0,6.0,0.0,1.0,6.0,4.0,4.0,8.3,NBA,0.0,2.0,4.0,10.0,1993,3.0,TOT,2.0,7.0
28.0,0.0,1.0,1.0,0.0,0.0,1.0,0.0,0.0,1.0,1.0,2.0,0.2,NBA,0.0,1.0,1.0,1.0,1993,0.0,BOS,1.0,2.0
28.0,2.0,0.0,6.0,4.0,4.0,6.0,0.0,1.0,6.0,4.0,4.0,8.3,NBA,0.0,2.0,4.0,10.0,1993,3.0,POR,2.0,7.0
30.0,4.0,1.0,8.0,3.0,3.0,4.0,1.0,1.0,5.0,4.0,4.0,11.7,NBA,0.0,3.0,5.0,8.0,1995,2.0,CHH,2.0,10.0
31.0,4.0,1.0,7.0,8.0,8.0,9.0,0.0,1.0,10.0,4.0,4.0,12.7,NBA,0.0,3.0,6.0,16.0,1996,2.0,TOT,3.0,7.0
31.0,0.0,0.0,2.0,0.0,0.0,1.0,0.0,0.0,1.0,0.0,0.0,-0.9,NBA,0.0,0.0,2.0,0.0,1996,2.0,CHH,2.0,2.0
31.0,4.0,1.0,7.0,8.0,8.0,9.0,0.0,1.0,10.0,4.0,4.0,12.7,NBA,0.0,3.0,6.0,16.0,1996,1.0,ORL,3.0,7.0
32.0,4.0,2.0,8.0,3.0,3.0,6.0,1.0,2.0,6.0,2.0,2.0,5.4,NBA,0.0,4.0,5.0,6.0,1997,3.0,MIL,2.0,11.0
33.0,4.0,2.0,5.0,4.0,4.0,7.0,1.0,2.0,7.0,1.0,2.0,8.1,NBA,0.0,3.0,5.0,8.0,1998,2.0,DEN,5.0,8.0
34.0,0.0,0.0,1.0,0.0,0.0,1.0,0.0,0.0,1.0,0.0,2.0,0.0,NBA,0.0,0.0,4.0,0.0,1999,0.0,CHH,0.0,1.0
