age,avg_dist,fg2_dunk,fg2_pct,fg2_pct_ast,fg2a_pct_fga,fg3_heave,fg3_pct,fg3_pct_ast,fg3_pct_corner,fg3a_heave,fg3a_pct_fga,fg_pct,fg_pct_00_03,fg_pct_03_10,fg_pct_10_16,fg_pct_16_xx,g,lg_id,mp,pct_fg2_dunk,pct_fg3a_corner,pct_fga_00_03,pct_fga_03_10,pct_fga_10_16,pct_fga_16_xx,pos,season,team_id
23.0,10.2,24.0,0.527,0.664,1.0,0.0,0.0,0.0,0.0,0.0,0.0,0.527,0.698,0.497,0.466,0.453,75.0,NBA,1249.0,0.051,0.0,0.239,0.311,0.119,0.331,PF,2013,ORL
24.0,14.5,8.0,0.459,0.586,0.788,0.0,0.315,0.964,0.321,1.0,0.212,0.429,0.727,0.386,0.368,0.431,76.0,NBA,1174.0,0.019,0.91,0.131,0.24,0.09,0.326,PF,2014,ORL
25.0,14.5,7.0,0.47,0.743,0.784,0.0,0.317,0.923,0.231,0.0,0.216,0.437,0.75,0.357,0.364,0.456,40.0,NBA,492.0,0.037,0.317,0.147,0.221,0.116,0.3,PF,2015,ORL
26.0,12.7,17.0,0.536,0.362,0.632,0.0,0.36,0.976,0.421,0.0,0.368,0.471,0.708,0.484,0.37,0.385,56.0,NBA,823.0,0.061,0.167,0.21,0.294,0.087,0.042,PF,2016,ORL
27.0,12.1,2.0,0.452,0.658,0.757,0.0,0.185,1.0,0.0,1.0,0.243,0.387,0.708,0.364,0.25,0.571,38.0,NBA,342.0,0.018,0.222,0.216,0.297,0.18,0.063,PF,2017,TOT
27.0,11.1,2.0,0.443,0.63,0.792,0.0,0.188,1.0,0.0,1.0,0.208,0.39,0.667,0.357,0.333,0.333,28.0,NBA,231.0,0.026,0.25,0.234,0.364,0.156,0.039,PF,2017,WAS
27.0,14.5,0.0,0.478,0.727,0.676,0.0,0.182,1.0,0.0,0.0,0.324,0.382,0.833,0.4,0.125,0.75,10.0,NBA,111.0,0.0,0.182,0.176,0.147,0.235,0.118,PF,2017,BRK
