age,ast,blk,drb,efg_pct,fg,fg2,fg2_pct,fg2a,fg3,fg3_pct,fg3a,fg_pct,fga,ft,ft_pct,fta,g,gs,lg_id,mp,orb,pf,pos,pts,season,stl,team_id,tov,trb
23.0,23.0,397.0,354.0,0.46,128.0,128.0,0.462,277.0,0.0,0.0,1.0,0.46,278.0,42.0,0.488,86.0,80.0,60.0,NBA,2090.0,123.0,255.0,C,298.0,1986,28.0,WSB,65.0,477.0
24.0,11.0,302.0,278.0,0.446,103.0,103.0,0.448,230.0,0.0,0.0,1.0,0.446,231.0,45.0,0.672,67.0,82.0,12.0,NBA,1552.0,84.0,189.0,C,251.0,1987,20.0,WSB,61.0,362.0
25.0,13.0,208.0,203.0,0.455,75.0,75.0,0.457,164.0,0.0,0.0,1.0,0.455,165.0,26.0,0.531,49.0,77.0,4.0,NBA,1136.0,72.0,160.0,C,176.0,1988,11.0,WSB,35.0,275.0
26.0,27.0,345.0,346.0,0.398,127.0,107.0,0.423,253.0,20.0,0.22,91.0,0.369,344.0,40.0,0.606,66.0,80.0,4.0,NBA,1769.0,116.0,226.0,C,314.0,1989,11.0,GSW,79.0,462.0
27.0,36.0,238.0,243.0,0.358,56.0,47.0,0.388,121.0,9.0,0.188,48.0,0.331,169.0,25.0,0.51,49.0,75.0,20.0,NBA,1310.0,33.0,194.0,C,146.0,1990,13.0,GSW,51.0,276.0
28.0,20.0,247.0,284.0,0.399,65.0,64.0,0.427,150.0,1.0,0.071,14.0,0.396,164.0,24.0,0.585,41.0,82.0,6.0,NBA,1522.0,66.0,184.0,C,155.0,1991,16.0,PHI,63.0,350.0
29.0,22.0,205.0,168.0,0.383,49.0,49.0,0.412,119.0,0.0,0.0,9.0,0.383,128.0,12.0,0.462,26.0,71.0,2.0,NBA,1267.0,54.0,139.0,C,110.0,1992,11.0,PHI,41.0,222.0
30.0,18.0,119.0,149.0,0.449,52.0,42.0,0.442,95.0,10.0,0.313,32.0,0.409,127.0,12.0,0.632,19.0,58.0,23.0,NBA,855.0,44.0,87.0,C,126.0,1993,14.0,PHI,50.0,193.0
31.0,1.0,16.0,15.0,0.211,4.0,4.0,0.25,16.0,0.0,0.0,3.0,0.211,19.0,0.0,0.0,0.0,14.0,0.0,NBA,116.0,3.0,13.0,C,8.0,1994,2.0,TOT,5.0,18.0
31.0,0.0,6.0,10.0,0.083,1.0,1.0,0.111,9.0,0.0,0.0,3.0,0.083,12.0,0.0,0.0,0.0,8.0,0.0,NBA,61.0,1.0,4.0,C,2.0,1994,0.0,MIA,5.0,11.0
31.0,1.0,1.0,1.0,0.0,0.0,0.0,0.0,0.0,0.0,0.0,0.0,0.0,0.0,0.0,0.0,0.0,2.0,0.0,NBA,6.0,0.0,1.0,C,0.0,1994,0.0,WSB,0.0,1.0
31.0,0.0,9.0,4.0,0.429,3.0,3.0,0.429,7.0,0.0,0.0,0.0,0.429,7.0,0.0,0.0,0.0,4.0,0.0,NBA,49.0,2.0,8.0,C,6.0,1994,2.0,PHI,0.0,6.0
32.0,0.0,9.0,11.0,0.75,6.0,3.0,0.6,5.0,3.0,0.6,5.0,0.6,10.0,0.0,0.0,0.0,5.0,2.0,NBA,81.0,1.0,10.0,C,15.0,1995,0.0,GSW,1.0,12.0
