age,ast_per_poss,blk_per_poss,def_rtg,drb_per_poss,fg2_pct,fg2_per_poss,fg2a_per_poss,fg3_pct,fg3_per_poss,fg3a_per_poss,fg_pct,fg_per_poss,fga_per_poss,ft_pct,ft_per_poss,fta_per_poss,g,gs,lg_id,mp,off_rtg,orb_per_poss,pf_per_poss,pos,pts_per_poss,season,stl_per_poss,team_id,tov_per_poss,trb_per_poss
23.0,0.5,9.2,99.0,8.2,0.462,3.0,6.4,0.0,0.0,0.0,0.46,3.0,6.4,0.488,1.0,2.0,80.0,60.0,NBA,2090.0,95.0,2.9,5.9,C,6.9,1986,0.6,WSB,1.5,11.1
24.0,0.3,9.3,101.0,8.6,0.448,3.2,7.1,0.0,0.0,0.0,0.446,3.2,7.1,0.672,1.4,2.1,82.0,12.0,NBA,1552.0,94.0,2.6,5.8,C,7.7,1987,0.6,WSB,1.9,11.2
25.0,0.6,9.0,101.0,8.7,0.457,3.2,7.1,0.0,0.0,0.0,0.455,3.2,7.1,0.531,1.1,2.1,77.0,4.0,NBA,1136.0,98.0,3.1,6.9,C,7.6,1988,0.5,WSB,1.5,11.8
26.0,0.7,8.7,103.0,8.7,0.423,2.7,6.4,0.22,0.5,2.3,0.369,3.2,8.7,0.606,1.0,1.7,80.0,4.0,NBA,1769.0,88.0,2.9,5.7,C,7.9,1989,0.3,GSW,2.0,11.7
27.0,1.2,8.2,108.0,8.4,0.388,1.6,4.2,0.188,0.3,1.7,0.331,1.9,5.8,0.51,0.9,1.7,75.0,20.0,NBA,1310.0,76.0,1.1,6.7,C,5.1,1990,0.4,GSW,1.8,9.5
28.0,0.7,8.1,102.0,9.4,0.427,2.1,4.9,0.071,0.0,0.5,0.396,2.1,5.4,0.585,0.8,1.4,82.0,6.0,NBA,1522.0,80.0,2.2,6.1,C,5.1,1991,0.5,PHI,2.1,11.5
29.0,0.9,8.3,106.0,6.8,0.412,2.0,4.8,0.0,0.0,0.4,0.383,2.0,5.2,0.462,0.5,1.1,71.0,2.0,NBA,1267.0,82.0,2.2,5.6,C,4.4,1992,0.4,PHI,1.7,9.0
30.0,1.0,6.8,106.0,8.5,0.442,2.4,5.4,0.313,0.6,1.8,0.409,3.0,7.2,0.632,0.7,1.1,58.0,23.0,NBA,855.0,81.0,2.5,5.0,C,7.2,1993,0.8,PHI,2.9,11.0
31.0,0.4,7.0,104.0,6.6,0.25,1.7,7.0,0.0,0.0,1.3,0.211,1.7,8.3,0.0,0.0,0.0,14.0,0.0,NBA,116.0,46.0,1.3,5.7,C,3.5,1994,0.9,TOT,2.2,7.9
31.0,0.0,5.0,105.0,8.4,0.111,0.8,7.6,0.0,0.0,2.5,0.083,0.8,10.1,0.0,0.0,0.0,8.0,0.0,NBA,61.0,18.0,0.8,3.4,C,1.7,1994,0.0,MIA,4.2,9.2
31.0,8.3,8.3,107.0,8.3,0.0,0.0,0.0,0.0,0.0,0.0,0.0,0.0,0.0,0.0,0.0,0.0,2.0,0.0,NBA,6.0,207.0,0.0,8.3,C,0.0,1994,0.0,WSB,0.0,8.3
31.0,0.0,9.2,103.0,4.1,0.429,3.1,7.2,0.0,0.0,0.0,0.429,3.1,7.2,0.0,0.0,0.0,4.0,0.0,NBA,49.0,103.0,2.0,8.2,C,6.1,1994,2.0,PHI,0.0,6.1
32.0,0.0,5.4,111.0,6.7,0.6,1.8,3.0,0.6,1.8,3.0,0.6,3.6,6.1,0.0,0.0,0.0,5.0,2.0,NBA,81.0,134.0,0.6,6.1,C,9.1,1995,0.0,GSW,0.6,7.3
