age,ast,blk,drb,efg_pct,fg,fg2,fg2_pct,fg2a,fg3,fg3_pct,fg3a,fg_pct,fga,ft,ft_pct,fta,g,gs,lg_id,mp,orb,pf,pos,pts,season,stl,team_id,tov,trb
23.0,1.0,29.0,22.0,0.588,10.0,10.0,0.588,17.0,0.0,0.0,0.0,0.588,17.0,3.0,0.375,8.0,5.0,5.0,NBA,152.0,16.0,15.0,C,23.0,1986,3.0,WSB,4.0,38.0
24.0,0.0,5.0,4.0,0.4,4.0,4.0,0.444,9.0,0.0,0.0,1.0,0.4,10.0,0.0,0.0,2.0,3.0,0.0,NBA,43.0,5.0,6.0,C,8.0,1987,0.0,WSB,0.0,9.0
25.0,0.0,2.0,5.0,0.571,4.0,4.0,0.571,7.0,0.0,0.0,0.0,0.571,7.0,1.0,1.0,1.0,5.0,0.0,NBA,44.0,7.0,5.0,C,9.0,1988,0.0,WSB,1.0,12.0
26.0,1.0,29.0,26.0,0.222,7.0,5.0,0.357,14.0,2.0,0.091,22.0,0.194,36.0,2.0,0.286,7.0,8.0,0.0,NBA,148.0,5.0,21.0,C,18.0,1989,2.0,GSW,3.0,31.0
28.0,1.0,12.0,15.0,0.5,9.0,9.0,0.5,18.0,0.0,0.0,0.0,0.5,18.0,6.0,0.667,9.0,8.0,0.0,NBA,109.0,4.0,14.0,C,24.0,1991,1.0,PHI,5.0,19.0
