age,ast_per_mp,blk_per_mp,drb_per_mp,fg2_pct,fg2_per_mp,fg2a_per_mp,fg3_pct,fg3_per_mp,fg3a_per_mp,fg_pct,fg_per_mp,fga_per_mp,ft_pct,ft_per_mp,fta_per_mp,g,gs,lg_id,mp,orb_per_mp,pf_per_mp,pos,pts_per_mp,season,stl_per_mp,team_id,tov_per_mp,trb_per_mp
25.0,2.3,0.6,6.0,0.429,4.1,9.6,0.258,0.5,1.8,0.401,4.6,11.4,0.766,3.2,4.2,81.0,38.0,NBA,1892.0,1.3,4.0,SF,12.9,2005,0.7,CHI,2.6,7.3
26.0,1.9,0.8,6.6,0.489,4.7,9.5,0.391,1.5,3.8,0.461,6.2,13.4,0.843,3.3,3.9,82.0,43.0,NBA,2239.0,1.4,4.1,PF,17.1,2006,0.6,CHI,1.9,8.0
27.0,1.5,0.6,6.6,0.515,4.9,9.6,0.383,2.0,5.4,0.467,7.0,15.0,0.848,3.1,3.7,53.0,31.0,NBA,1406.0,1.1,4.2,PF,19.2,2007,0.7,CHI,2.7,7.7
28.0,1.7,0.8,5.2,0.476,4.5,9.5,0.364,2.2,6.2,0.432,6.8,15.6,0.807,3.5,4.3,82.0,27.0,NBA,2021.0,0.9,4.4,SF,19.2,2008,0.4,CHI,2.4,6.1
29.0,1.8,0.6,5.6,0.449,3.2,7.1,0.399,2.2,5.6,0.427,5.4,12.7,0.792,2.6,3.3,76.0,18.0,NBA,1991.0,1.0,4.7,PF-SF,15.7,2009,0.7,TOT,2.0,6.5
29.0,1.7,0.5,5.3,0.446,3.0,6.8,0.378,2.2,5.9,0.414,5.2,12.6,0.806,2.8,3.5,53.0,2.0,NBA,1278.0,1.0,5.0,PF,15.5,2009,0.7,CHI,2.1,6.3
29.0,2.1,0.9,6.0,0.453,3.4,7.6,0.441,2.3,5.2,0.448,5.7,12.7,0.763,2.3,3.0,23.0,16.0,NBA,713.0,1.0,4.3,SF,16.0,2009,0.7,SAC,2.0,7.0
30.0,1.8,0.6,4.6,0.408,3.4,8.2,0.386,2.3,6.1,0.399,5.7,14.3,0.717,1.7,2.4,75.0,28.0,NBA,1477.0,0.8,3.9,SF,15.5,2010,0.8,SAC,1.6,5.4
31.0,1.7,0.6,5.8,0.478,2.9,6.1,0.356,1.6,4.6,0.426,4.6,10.7,0.803,1.9,2.4,54.0,17.0,NBA,931.0,0.7,3.9,SF,12.6,2011,0.5,PHI,1.8,6.5
32.0,0.6,0.6,8.4,0.286,2.6,9.0,0.167,0.6,3.9,0.25,3.2,12.9,0.545,3.9,7.1,11.0,1.0,NBA,56.0,0.6,2.6,SF,10.9,2012,0.6,PHI,3.2,9.0
