age,ast,blk,drb,efg_pct,fg,fg2,fg2_pct,fg2a,fg3,fg3_pct,fg3a,fg_pct,fga,ft,ft_pct,fta,g,gs,lg_id,mp,orb,pf,pos,pts,season,stl,team_id,tov,trb
22.0,9.0,10.0,40.0,0.5,35.0,35.0,0.5,70.0,0.0,0.0,0.0,0.5,70.0,19.0,0.826,23.0,33.0,0.0,NBA,317.0,34.0,48.0,C,89.0,1998,8.0,DET,12.0,74.0
23.0,4.0,18.0,44.0,0.541,33.0,33.0,0.541,61.0,0.0,0.0,0.0,0.541,61.0,16.0,0.696,23.0,16.0,5.0,NBA,259.0,38.0,41.0,C,82.0,1999,8.0,SAC,5.0,82.0
24.0,43.0,59.0,236.0,0.527,149.0,149.0,0.527,283.0,0.0,0.0,0.0,0.527,283.0,114.0,0.717,159.0,76.0,5.0,NBA,1336.0,168.0,213.0,C,412.0,2000,55.0,SAC,50.0,404.0
25.0,47.0,97.0,292.0,0.468,185.0,185.0,0.471,393.0,0.0,0.0,2.0,0.468,395.0,128.0,0.749,171.0,77.0,8.0,NBA,1658.0,173.0,206.0,C,498.0,2001,48.0,SAC,66.0,465.0
26.0,53.0,76.0,377.0,0.55,197.0,197.0,0.55,358.0,0.0,0.0,0.0,0.55,358.0,115.0,0.693,166.0,80.0,29.0,NBA,1881.0,188.0,202.0,C,509.0,2002,70.0,SAC,68.0,565.0
27.0,6.0,15.0,60.0,0.46,40.0,40.0,0.46,87.0,0.0,0.0,0.0,0.46,87.0,23.0,0.605,38.0,23.0,0.0,NBA,325.0,46.0,50.0,C,103.0,2003,13.0,SAC,15.0,106.0
28.0,10.0,26.0,97.0,0.412,47.0,47.0,0.412,114.0,0.0,0.0,0.0,0.412,114.0,12.0,0.571,21.0,61.0,3.0,NBA,678.0,67.0,110.0,C,106.0,2004,23.0,IND,22.0,164.0
29.0,18.0,24.0,120.0,0.473,79.0,79.0,0.473,167.0,0.0,0.0,0.0,0.473,167.0,33.0,0.673,49.0,49.0,17.0,NBA,865.0,85.0,123.0,C,191.0,2005,30.0,IND,31.0,205.0
30.0,24.0,20.0,145.0,0.455,70.0,70.0,0.455,154.0,0.0,0.0,0.0,0.455,154.0,29.0,0.763,38.0,45.0,32.0,NBA,771.0,73.0,115.0,C,169.0,2006,37.0,IND,26.0,218.0
31.0,3.0,1.0,16.0,0.423,11.0,11.0,0.423,26.0,0.0,0.0,0.0,0.423,26.0,2.0,0.5,4.0,24.0,0.0,NBA,109.0,15.0,27.0,C,24.0,2007,4.0,CLE,4.0,31.0
32.0,3.0,6.0,23.0,0.522,12.0,12.0,0.522,23.0,0.0,0.0,0.0,0.522,23.0,15.0,0.682,22.0,22.0,0.0,NBA,173.0,14.0,43.0,C,39.0,2008,3.0,BOS,5.0,37.0
