age,ast,blk,drb,fg,fg2,fg2a,fg3,fg3a,fga,ft,fta,game_score,lg_id,mp,orb,pf,pts,season,stl,team_id,tov,trb
22.0,4.0,2.0,4.0,5.0,5.0,6.0,0.0,0.0,6.0,6.0,7.0,10.6,NBA,0.0,4.0,5.0,11.0,1998,2.0,DET,2.0,6.0
23.0,2.0,4.0,7.0,7.0,7.0,12.0,0.0,0.0,12.0,4.0,5.0,21.0,NBA,0.0,7.0,5.0,16.0,1999,2.0,SAC,1.0,12.0
24.0,3.0,4.0,11.0,6.0,6.0,12.0,0.0,0.0,12.0,6.0,8.0,21.1,NBA,0.0,6.0,6.0,17.0,2000,5.0,SAC,3.0,14.0
25.0,3.0,5.0,14.0,10.0,10.0,15.0,0.0,1.0,15.0,10.0,12.0,24.9,NBA,0.0,8.0,6.0,22.0,2001,5.0,SAC,5.0,18.0
26.0,3.0,7.0,11.0,9.0,9.0,12.0,0.0,0.0,12.0,6.0,6.0,24.7,NBA,0.0,8.0,6.0,23.0,2002,4.0,SAC,5.0,17.0
27.0,2.0,3.0,8.0,7.0,7.0,13.0,0.0,0.0,13.0,7.0,10.0,16.7,NBA,0.0,8.0,5.0,15.0,2003,3.0,SAC,4.0,16.0
28.0,1.0,3.0,6.0,4.0,4.0,7.0,0.0,0.0,7.0,2.0,3.0,9.9,NBA,0.0,6.0,5.0,8.0,2004,2.0,IND,1.0,9.0
29.0,2.0,3.0,7.0,6.0,6.0,13.0,0.0,0.0,13.0,4.0,4.0,12.1,NBA,0.0,8.0,6.0,13.0,2005,3.0,IND,3.0,11.0
30.0,2.0,2.0,11.0,4.0,4.0,9.0,0.0,0.0,9.0,5.0,6.0,11.1,NBA,33.0,6.0,6.0,9.0,2006,4.0,IND,3.0,16.0
31.0,2.0,1.0,3.0,2.0,2.0,4.0,0.0,0.0,4.0,1.0,2.0,4.7,NBA,12.0,4.0,5.0,4.0,2007,1.0,CLE,1.0,4.0
32.0,1.0,1.0,4.0,4.0,4.0,5.0,0.0,0.0,5.0,5.0,6.0,8.3,NBA,14.0,3.0,6.0,10.0,2008,1.0,BOS,1.0,5.0
