age,ast,blk,drb,efg_pct,fg,fg2,fg2_pct,fg2a,fg3,fg3_pct,fg3a,fg_pct,fga,ft,ft_pct,fta,g,gs,lg_id,mp,orb,pf,pos,pts,season,stl,team_id,tov,trb
22.0,8.0,15.0,47.0,0.338,27.0,27.0,0.342,79.0,0.0,0.0,1.0,0.338,80.0,10.0,0.556,18.0,33.0,0.0,NBA,266.0,33.0,68.0,PF,64.0,1996,6.0,ORL,18.0,80.0
23.0,7.0,15.0,60.0,0.431,31.0,31.0,0.431,72.0,0.0,0.0,0.0,0.431,72.0,19.0,0.633,30.0,35.0,6.0,NBA,298.0,35.0,43.0,PF,81.0,1997,8.0,ORL,29.0,95.0
24.0,20.0,10.0,99.0,0.446,66.0,66.0,0.449,147.0,0.0,0.0,1.0,0.446,148.0,30.0,0.638,47.0,40.0,2.0,NBA,489.0,53.0,83.0,PF,162.0,1998,15.0,TOT,40.0,152.0
24.0,18.0,6.0,68.0,0.404,46.0,46.0,0.407,113.0,0.0,0.0,1.0,0.404,114.0,22.0,0.647,34.0,22.0,0.0,NBA,322.0,34.0,48.0,PF,114.0,1998,10.0,GSW,31.0,102.0
24.0,0.0,0.0,1.0,1.0,1.0,1.0,1.0,1.0,0.0,0.0,0.0,1.0,1.0,2.0,0.5,4.0,3.0,0.0,NBA,6.0,0.0,1.0,PF,4.0,1998,0.0,CHI,0.0,1.0
24.0,2.0,4.0,30.0,0.576,19.0,19.0,0.576,33.0,0.0,0.0,0.0,0.576,33.0,6.0,0.667,9.0,15.0,2.0,NBA,161.0,19.0,34.0,PF,44.0,1998,5.0,NJN,9.0,49.0
25.0,1.0,8.0,21.0,0.542,13.0,13.0,0.542,24.0,0.0,0.0,0.0,0.542,24.0,8.0,0.8,10.0,10.0,0.0,NBA,103.0,13.0,22.0,PF,34.0,1999,2.0,NJN,11.0,34.0
