age,ast_per_poss,blk_per_poss,def_rtg,drb_per_poss,fg2_pct,fg2_per_poss,fg2a_per_poss,fg3_pct,fg3_per_poss,fg3a_per_poss,fg_pct,fg_per_poss,fga_per_poss,ft_pct,ft_per_poss,fta_per_poss,g,gs,lg_id,mp,off_rtg,orb_per_poss,pf_per_poss,pos,pts_per_poss,season,stl_per_poss,team_id,tov_per_poss,trb_per_poss
19.0,1.6,1.9,110.0,6.9,0.52,5.8,11.2,0.321,2.0,6.2,0.449,7.8,17.4,0.624,3.1,5.0,82.0,75.0,NBA,1743.0,102.0,2.6,7.2,PF,20.7,2017,1.8,PHO,3.0,9.6
20.0,2.6,2.2,109.0,10.0,0.509,4.6,9.0,0.295,1.8,6.0,0.423,6.3,15.0,0.608,3.0,5.0,72.0,49.0,NBA,1527.0,95.0,2.4,6.4,PF,17.4,2018,1.6,PHO,3.4,12.4
21.0,2.2,1.1,113.0,10.1,0.472,5.1,10.7,0.222,1.6,7.1,0.372,6.7,17.9,0.711,3.2,4.5,43.0,2.0,NBA,499.0,92.0,4.0,8.0,PF,18.1,2019,1.7,TOT,3.6,14.1
21.0,2.8,1.9,109.0,9.9,0.526,4.7,9.0,0.067,0.5,7.1,0.324,5.2,16.0,0.857,2.8,3.3,16.0,0.0,NBA,104.0,75.0,3.3,8.0,PF,13.7,2019,0.9,HOU,5.7,13.2
21.0,2.0,0.9,114.0,10.2,0.461,5.2,11.2,0.263,1.9,7.2,0.384,7.0,18.4,0.684,3.3,4.8,27.0,2.0,NBA,395.0,96.0,4.1,8.0,PF,19.2,2019,1.9,CLE,3.0,14.3
22.0,5.6,1.4,112.0,9.8,0.455,4.7,10.3,0.333,0.5,1.4,0.44,5.2,11.7,0.857,5.6,6.6,7.0,1.0,NBA,100.0,106.0,4.7,7.0,PF,16.4,2020,2.8,GSW,4.7,14.5
