age,ast_per_mp,blk_per_mp,drb_per_mp,fg2_pct,fg2_per_mp,fg2a_per_mp,fg3_pct,fg3_per_mp,fg3a_per_mp,fg_pct,fg_per_mp,fga_per_mp,ft_pct,ft_per_mp,fta_per_mp,g,gs,lg_id,mp,orb_per_mp,pf_per_mp,pos,pts_per_mp,season,stl_per_mp,team_id,tov_per_mp,trb_per_mp
23.0,2.3,1.7,5.9,0.333,3.3,9.9,0.0,0.0,0.7,0.313,3.3,10.6,0.667,2.6,4.0,17.0,1.0,NBA,109.0,1.3,2.3,C,9.2,1997,1.0,ORL,3.6,7.3
28.0,0.9,2.4,4.7,0.408,4.7,11.5,0.0,0.0,0.0,0.408,4.7,11.5,0.462,2.8,6.1,27.0,0.0,NBA,153.0,3.8,5.4,C,12.2,2002,1.4,SAS,3.3,8.5
29.0,2.6,0.5,7.7,0.235,2.1,8.7,0.0,0.0,0.0,0.235,2.1,8.7,0.75,1.5,2.1,11.0,0.0,NBA,70.0,3.6,6.7,C,5.7,2003,1.5,ATL,1.0,11.3
30.0,1.1,1.1,4.8,0.405,2.7,6.6,0.0,0.0,0.1,0.402,2.7,6.6,0.704,1.1,1.5,59.0,3.0,NBA,636.0,2.7,5.0,C,6.4,2004,0.7,PHI,1.4,7.5
