age,ast_per_g,blk_per_g,drb_per_g,efg_pct,fg2_pct,fg2_per_g,fg2a_per_g,fg3_pct,fg3_per_g,fg3a_per_g,fg_pct,fg_per_g,fga_per_g,ft_pct,ft_per_g,fta_per_g,g,gs,lg_id,mp_per_g,orb_per_g,pf_per_g,pos,pts_per_g,season,stl_per_g,team_id,tov_per_g,trb_per_g
22.0,0.7,0.0,0.7,0.58,0.565,1.9,3.3,0.5,0.1,0.3,0.56,2.0,3.6,0.667,0.3,0.4,7.0,0.0,NBA,13.7,0.1,1.1,SG,4.4,1993,0.9,NYK,1.3,0.9
23.0,1.1,0.1,0.7,0.405,0.395,1.5,3.7,0.286,0.4,1.5,0.364,1.9,5.3,0.719,1.0,1.4,23.0,7.0,NBA,17.2,0.2,1.9,SG,5.3,1994,0.2,NYK,1.0,0.9
24.0,0.8,0.5,0.6,0.458,0.333,0.6,1.9,0.37,0.9,2.5,0.354,1.5,4.4,1.0,0.2,0.2,11.0,0.0,NBA,16.7,0.0,1.8,SG,4.2,1995,0.1,NYK,0.8,0.6
25.0,0.5,0.0,1.0,0.71,0.583,0.9,1.5,0.526,1.3,2.4,0.548,2.1,3.9,0.818,1.1,1.4,8.0,0.0,NBA,18.1,0.5,1.5,SG,6.6,1996,0.0,NYK,0.9,1.5
