age,ast_per_poss,blk_per_poss,def_rtg,drb_per_poss,fg2_pct,fg2_per_poss,fg2a_per_poss,fg3_pct,fg3_per_poss,fg3a_per_poss,fg_pct,fg_per_poss,fga_per_poss,ft_pct,ft_per_poss,fta_per_poss,g,gs,lg_id,mp,off_rtg,orb_per_poss,pf_per_poss,pos,pts_per_poss,season,stl_per_poss,team_id,tov_per_poss,trb_per_poss
22.0,2.8,0.0,107.0,2.8,0.565,7.2,12.7,0.5,0.6,1.1,0.56,7.7,13.8,0.667,1.1,1.7,7.0,0.0,NBA,96.0,91.0,0.6,4.4,SG,17.1,1993,3.3,NYK,5.0,3.3
23.0,3.6,0.4,106.0,2.2,0.395,4.7,11.9,0.286,1.4,4.9,0.364,6.1,16.8,0.719,3.2,4.4,23.0,7.0,NBA,396.0,91.0,0.7,6.0,SG,16.8,1994,0.7,NYK,3.2,2.9
24.0,2.7,1.5,108.0,2.1,0.333,2.1,6.4,0.37,3.0,8.2,0.354,5.1,14.5,1.0,0.6,0.6,11.0,0.0,NBA,184.0,87.0,0.0,6.1,SG,13.9,1995,0.3,NYK,2.7,2.1
25.0,1.6,0.0,110.0,3.1,0.583,2.7,4.7,0.526,3.9,7.4,0.548,6.6,12.0,0.818,3.5,4.3,8.0,0.0,NBA,145.0,124.0,1.6,4.7,SG,20.5,1996,0.0,NYK,2.7,4.7
