age,ast_per_poss,blk_per_poss,def_rtg,drb_per_poss,fg2_pct,fg2_per_poss,fg2a_per_poss,fg3_pct,fg3_per_poss,fg3a_per_poss,fg_pct,fg_per_poss,fga_per_poss,ft_pct,ft_per_poss,fta_per_poss,g,gs,lg_id,mp,off_rtg,orb_per_poss,pf_per_poss,pos,pts_per_poss,season,stl_per_poss,team_id,tov_per_poss,trb_per_poss
22.0,5.2,0.2,104.0,2.7,0.448,6.5,14.5,0.316,0.4,1.2,0.438,6.9,15.6,0.796,2.7,3.4,50.0,2.0,NBA,815.0,99.0,0.8,4.4,SG,16.8,1993,1.4,NYK,2.8,3.5
23.0,6.4,0.2,103.0,1.7,0.496,7.2,14.5,0.402,2.1,5.1,0.471,9.2,19.6,0.825,3.3,4.0,56.0,27.0,NBA,1333.0,112.0,0.9,4.6,SG,23.8,1994,1.6,NYK,2.9,2.6
24.0,4.7,0.3,109.0,2.5,0.502,5.1,10.2,0.455,4.1,8.9,0.48,9.2,19.1,0.808,3.0,3.7,82.0,4.0,NBA,1697.0,116.0,0.9,4.5,SG,25.4,1995,1.1,NYK,2.7,3.4
25.0,3.1,0.2,109.0,2.6,0.495,4.4,8.9,0.476,3.8,7.9,0.486,8.2,16.8,0.868,3.3,3.8,74.0,14.0,NBA,1773.0,122.0,1.0,3.6,SG,23.5,1996,0.9,NYK,1.9,3.7
26.0,2.9,0.2,114.0,2.5,0.509,4.9,9.7,0.229,1.4,6.0,0.402,6.3,15.6,0.739,1.4,2.0,36.0,0.0,NBA,623.0,99.0,0.9,3.4,SG,15.4,1997,0.9,TOR,1.8,3.4
27.0,3.5,0.1,112.0,3.0,0.464,5.6,12.1,0.439,2.3,5.2,0.456,7.9,17.2,0.836,2.2,2.6,81.0,30.0,NBA,2378.0,109.0,0.8,2.6,SG,20.2,1998,1.0,DAL,2.0,3.8
28.0,3.5,0.1,110.0,3.2,0.431,4.3,9.9,0.451,2.5,5.6,0.438,6.8,15.5,0.88,1.7,2.0,50.0,21.0,NBA,1378.0,106.0,0.1,3.0,SG,17.9,1999,0.8,DAL,2.2,3.4
29.0,3.9,0.1,112.0,3.3,0.455,3.8,8.3,0.491,2.3,4.6,0.468,6.0,12.9,0.87,1.9,2.1,79.0,15.0,NBA,1817.0,112.0,0.5,3.0,PG,16.2,2000,0.7,DAL,1.9,3.7
30.0,3.4,0.0,109.0,3.4,0.45,3.6,8.0,0.456,2.4,5.2,0.453,6.0,13.2,0.871,1.6,1.9,66.0,18.0,NBA,1692.0,106.0,0.9,3.7,PG,16.0,2001,1.1,TOT,2.5,4.2
30.0,2.5,0.0,107.0,3.7,0.448,3.3,7.4,0.436,2.4,5.4,0.443,5.7,12.8,0.854,1.4,1.7,51.0,7.0,NBA,1261.0,103.0,0.7,3.8,PG,15.2,2001,1.2,DAL,2.3,4.5
30.0,5.9,0.0,113.0,2.4,0.457,4.4,9.7,0.526,2.4,4.6,0.479,6.8,14.3,0.905,2.3,2.5,15.0,11.0,NBA,431.0,113.0,1.2,3.5,PG,18.4,2001,0.7,WAS,3.0,3.6
31.0,4.7,0.1,111.0,3.1,0.445,3.9,8.8,0.452,2.5,5.6,0.448,6.4,14.4,0.762,0.7,0.9,51.0,17.0,NBA,1231.0,109.0,0.3,2.6,SG,16.1,2002,1.2,WAS,1.9,3.4
32.0,4.9,0.0,104.0,5.1,0.442,3.2,7.3,0.333,2.0,6.1,0.392,5.2,13.3,0.833,0.8,1.0,43.0,1.0,NBA,328.0,101.0,1.0,3.9,SG,13.3,2003,0.8,DET,1.9,6.1
33.0,2.8,0.0,101.0,4.1,0.1,0.7,6.9,0.0,0.0,0.7,0.091,0.7,7.6,1.0,1.4,1.4,17.0,0.0,NBA,78.0,51.0,1.4,8.3,SG,2.8,2004,1.4,TOT,2.1,5.5
33.0,2.4,0.0,106.0,0.0,0.0,0.0,2.4,0.0,0.0,2.4,0.0,0.0,4.8,0.0,0.0,0.0,3.0,0.0,NBA,23.0,18.0,0.0,9.5,SG,0.0,2004,0.0,DET,2.4,0.0
33.0,2.9,0.0,100.0,5.9,0.111,1.0,8.8,0.0,0.0,0.0,0.111,1.0,8.8,1.0,2.0,2.0,14.0,0.0,NBA,55.0,59.0,2.0,7.8,SG,3.9,2004,2.0,NJN,2.0,7.8
