age,ast_pct,blk_pct,bpm,bpm-dum,dbpm,drb_pct,dws,fg3a_per_fga_pct,fta_per_fga_pct,g,lg_id,mp,obpm,orb_pct,ows,per,pos,season,stl_pct,team_id,tov_pct,trb_pct,ts_pct,usg_pct,vorp,ws,ws-dum,ws_per_48
22.0,13.9,0.7,1.1,0.0,-0.5,8.3,1.3,0.191,0.331,82.0,NBA,3212.0,1.6,5.1,5.0,14.0,SF,1996,1.4,PHO,10.6,6.7,0.551,17.3,2.5,6.3,0.0,0.095
23.0,14.3,0.7,-0.7,0.0,-0.9,11.9,1.6,0.261,0.229,83.0,NBA,2790.0,0.3,3.6,2.3,14.5,SF,1997,1.3,TOT,12.2,7.8,0.53,22.0,0.9,3.9,0.0,0.067
23.0,13.9,0.4,-1.0,0.0,-1.1,12.5,0.4,0.185,0.232,27.0,NBA,796.0,0.1,5.0,0.8,14.6,SF,1997,1.2,PHO,11.8,8.8,0.538,21.0,0.2,1.2,0.0,0.074
23.0,14.4,0.8,-0.5,0.0,-0.9,11.7,1.1,0.291,0.227,56.0,NBA,1994.0,0.3,3.1,1.5,14.5,SF,1997,1.4,DAL,12.4,7.3,0.527,22.4,0.7,2.7,0.0,0.064
24.0,22.7,0.6,2.4,0.0,-0.8,9.6,2.0,0.162,0.276,82.0,NBA,3394.0,3.2,4.8,5.5,19.3,SF,1998,2.1,DAL,11.5,7.2,0.522,25.7,3.7,7.5,0.0,0.106
25.0,19.9,0.5,2.6,0.0,-0.9,10.7,0.9,0.155,0.258,50.0,NBA,2051.0,3.5,3.8,4.4,19.2,SF,1999,1.7,DAL,9.9,7.2,0.517,24.2,2.4,5.4,0.0,0.126
26.0,21.3,0.6,2.4,0.0,-0.7,12.2,1.9,0.151,0.194,82.0,NBA,3464.0,3.0,3.8,6.4,19.2,SF,2000,1.6,DAL,9.9,8.0,0.522,25.1,3.8,8.3,0.0,0.114
27.0,18.3,0.7,2.3,0.0,-0.2,10.0,2.9,0.169,0.209,82.0,NBA,3443.0,2.5,3.6,5.6,18.2,SF,2001,1.8,DAL,10.1,6.9,0.521,24.9,3.7,8.5,0.0,0.119
28.0,14.0,0.6,1.0,0.0,-1.3,10.7,1.0,0.182,0.204,69.0,NBA,2754.0,2.3,3.7,5.3,17.6,SF,2002,1.2,DAL,8.0,7.3,0.532,23.9,2.1,6.3,0.0,0.11
29.0,12.8,0.6,1.6,0.0,-0.6,12.3,2.5,0.27,0.193,69.0,NBA,2642.0,2.2,4.5,4.3,17.6,SF,2003,1.5,DAL,8.1,8.4,0.514,24.2,2.4,6.7,0.0,0.123
30.0,11.7,1.0,2.3,0.0,-1.5,9.9,0.5,0.319,0.167,72.0,NBA,2778.0,3.8,3.0,7.0,17.8,SG,2004,1.6,DAL,6.3,6.4,0.539,20.9,3.0,7.6,0.0,0.131
31.0,11.7,0.6,1.0,0.0,-0.7,10.1,1.9,0.314,0.15,64.0,NBA,2358.0,1.7,2.2,3.6,14.3,SG,2005,1.1,DAL,5.8,6.2,0.519,19.5,1.8,5.5,0.0,0.112
32.0,9.3,0.2,-0.4,0.0,-0.3,12.2,2.9,0.401,0.165,77.0,NBA,2038.0,-0.1,1.8,2.0,12.7,SG,2006,1.0,SAS,7.7,7.2,0.523,18.9,0.8,5.0,0.0,0.117
33.0,9.7,0.6,-0.4,0.0,-0.6,12.0,2.6,0.431,0.148,82.0,NBA,1823.0,0.1,2.3,2.1,13.7,SF,2007,0.9,SAS,6.1,7.4,0.524,19.6,0.7,4.7,0.0,0.125
34.0,8.6,0.3,-1.0,0.0,-0.4,12.0,2.9,0.469,0.105,82.0,NBA,2204.0,-0.6,1.5,1.3,11.4,SG,2008,0.7,SAS,6.6,6.8,0.519,18.5,0.5,4.2,0.0,0.091
35.0,7.7,0.5,-0.5,0.0,0.1,12.3,2.8,0.463,0.09,81.0,NBA,2336.0,-0.6,1.3,1.6,11.4,SF,2009,0.9,SAS,7.8,6.9,0.547,16.1,0.9,4.4,0.0,0.091
36.0,9.2,0.6,-2.6,0.0,-0.7,10.7,0.7,0.446,0.082,46.0,NBA,709.0,-1.9,1.0,0.3,9.0,SF,2010,0.7,TOT,9.9,6.0,0.53,13.8,-0.1,1.0,0.0,0.066
36.0,6.8,0.7,-3.7,0.0,-0.2,9.6,0.4,0.423,0.093,25.0,NBA,395.0,-3.4,1.5,-0.2,6.5,SF,2010,0.8,SAS,11.4,5.6,0.461,13.2,-0.2,0.2,0.0,0.026
36.0,12.2,0.5,-1.3,0.0,-1.3,12.2,0.3,0.471,0.069,21.0,NBA,314.0,0.0,0.4,0.4,12.1,SF,2010,0.7,BOS,8.2,6.4,0.608,14.6,0.1,0.8,0.0,0.115
