age,ast_per_poss,blk_per_poss,def_rtg,drb_per_poss,fg2_pct,fg2_per_poss,fg2a_per_poss,fg3_pct,fg3_per_poss,fg3a_per_poss,fg_pct,fg_per_poss,fga_per_poss,ft_pct,ft_per_poss,fta_per_poss,g,gs,lg_id,mp,off_rtg,orb_per_poss,pf_per_poss,pos,pts_per_poss,season,stl_per_poss,team_id,tov_per_poss,trb_per_poss
22.0,4.6,0.5,113.0,3.8,0.511,6.5,12.7,0.328,1.0,3.0,0.476,7.5,15.6,0.749,3.9,5.2,82.0,72.0,NBA,3212.0,114.0,2.2,3.2,SF,19.8,1996,1.4,PHO,2.1,6.0
23.0,4.3,0.5,111.0,5.4,0.473,7.1,15.1,0.361,1.9,5.3,0.444,9.1,20.4,0.808,3.8,4.7,83.0,54.0,NBA,2790.0,105.0,1.7,2.6,SF,23.8,1997,1.3,TOT,3.1,7.1
23.0,4.4,0.3,111.0,5.6,0.525,8.2,15.7,0.255,0.9,3.6,0.475,9.1,19.2,0.812,3.6,4.5,27.0,18.0,NBA,796.0,107.0,2.2,2.7,SF,22.8,1997,1.2,PHO,2.8,7.8
23.0,4.2,0.5,110.0,5.4,0.45,6.7,14.8,0.387,2.4,6.1,0.432,9.0,20.9,0.807,3.8,4.8,56.0,36.0,NBA,1994.0,104.0,1.5,2.6,SF,24.3,1997,1.4,DAL,3.2,6.8
24.0,6.4,0.5,109.0,4.5,0.466,9.2,19.8,0.357,1.4,3.8,0.449,10.6,23.7,0.784,5.1,6.5,82.0,82.0,NBA,3394.0,107.0,2.4,2.6,SF,27.7,1998,2.1,DAL,3.4,6.9
25.0,5.7,0.4,107.0,5.1,0.465,9.0,19.4,0.331,1.2,3.6,0.444,10.2,23.0,0.823,4.9,5.9,50.0,50.0,NBA,2051.0,108.0,1.8,2.5,SF,26.5,1999,1.7,DAL,2.8,6.9
26.0,6.4,0.5,108.0,5.8,0.467,9.5,20.3,0.401,1.4,3.6,0.457,10.9,23.9,0.82,3.8,4.6,82.0,82.0,NBA,3464.0,108.0,1.8,2.5,SF,27.1,2000,1.6,DAL,2.9,7.6
27.0,5.4,0.5,105.0,4.7,0.481,9.3,19.3,0.346,1.4,3.9,0.458,10.6,23.2,0.775,3.8,4.9,82.0,82.0,NBA,3443.0,105.0,1.6,2.6,SF,26.4,2001,1.8,DAL,2.8,6.4
28.0,4.3,0.5,110.0,5.1,0.491,9.3,18.8,0.339,1.4,4.2,0.463,10.7,23.1,0.837,3.9,4.7,69.0,69.0,NBA,2754.0,110.0,1.7,2.7,SF,26.7,2002,1.2,DAL,2.2,6.8
29.0,4.0,0.4,104.0,5.8,0.445,7.6,17.1,0.37,2.3,6.3,0.425,10.0,23.4,0.861,3.9,4.5,69.0,69.0,NBA,2642.0,107.0,2.1,2.1,SF,26.1,2003,1.5,DAL,2.2,7.9
30.0,3.9,0.7,110.0,4.6,0.461,6.7,14.6,0.405,2.8,6.9,0.443,9.5,21.5,0.85,3.0,3.6,72.0,72.0,NBA,2778.0,115.0,1.4,2.2,SG,24.9,2004,1.6,DAL,1.5,6.0
31.0,3.7,0.4,108.0,4.8,0.436,6.0,13.7,0.407,2.5,6.3,0.427,8.5,19.9,0.831,2.5,3.0,64.0,64.0,NBA,2358.0,111.0,1.0,2.7,SG,22.0,2005,1.1,DAL,1.3,5.8
32.0,3.1,0.2,103.0,5.7,0.423,4.7,11.1,0.394,2.9,7.4,0.412,7.6,18.5,0.852,2.6,3.1,77.0,18.0,NBA,2038.0,107.0,0.8,2.6,SG,20.8,2006,1.0,SAS,1.6,6.6
33.0,3.2,0.5,103.0,5.5,0.448,5.0,11.1,0.364,3.1,8.4,0.412,8.0,19.4,0.918,2.6,2.9,82.0,16.0,NBA,1823.0,108.0,1.0,2.2,SF,21.7,2007,0.9,SAS,1.3,6.5
34.0,2.8,0.2,105.0,5.6,0.453,4.5,9.9,0.37,3.2,8.8,0.414,7.7,18.7,0.8,1.6,2.0,82.0,61.0,NBA,2204.0,105.0,0.7,2.3,SG,20.3,2008,0.7,SAS,1.4,6.2
35.0,2.6,0.4,107.0,5.7,0.459,4.0,8.6,0.411,3.0,7.4,0.437,7.0,16.0,0.823,1.2,1.4,81.0,77.0,NBA,2336.0,107.0,0.6,1.9,SF,18.2,2009,0.9,SAS,1.4,6.3
36.0,3.2,0.4,108.0,4.8,0.48,3.6,7.5,0.39,2.4,6.1,0.44,6.0,13.6,0.533,0.6,1.1,46.0,7.0,NBA,709.0,104.0,0.4,2.4,SF,14.9,2010,0.7,TOT,1.6,5.2
36.0,2.5,0.5,108.0,4.4,0.429,3.2,7.4,0.317,1.7,5.4,0.381,4.9,12.9,0.667,0.8,1.2,25.0,6.0,NBA,395.0,93.0,0.7,1.6,SF,12.3,2010,0.8,SAS,1.7,5.0
36.0,4.0,0.3,108.0,5.3,0.543,4.2,7.7,0.463,3.2,6.8,0.506,7.3,14.5,0.333,0.3,1.0,21.0,1.0,NBA,314.0,116.0,0.2,3.5,SF,18.2,2010,0.7,BOS,1.3,5.5
