age,ast_per_mp,blk_per_mp,drb_per_mp,fg2_pct,fg2_per_mp,fg2a_per_mp,fg3_pct,fg3_per_mp,fg3a_per_mp,fg_pct,fg_per_mp,fga_per_mp,ft_pct,ft_per_mp,fta_per_mp,g,gs,lg_id,mp,orb_per_mp,pf_per_mp,pos,pts_per_mp,season,stl_per_mp,team_id,tov_per_mp,trb_per_mp
27.0,3.6,0.2,3.3,0.359,4.6,12.7,0.362,1.4,3.9,0.36,6.0,16.6,0.818,3.0,3.6,10.0,10.0,NBA,434.0,1.1,1.9,SF,16.3,2001,1.0,DAL,2.0,4.4
28.0,1.7,0.4,3.6,0.495,5.3,10.7,0.378,1.4,3.6,0.466,6.7,14.3,0.9,4.3,4.8,8.0,8.0,NBA,373.0,1.3,2.3,SF,19.0,2002,1.2,DAL,1.4,4.8
29.0,2.6,0.5,3.9,0.449,3.7,8.2,0.412,2.1,5.0,0.435,5.7,13.2,0.864,2.5,2.9,20.0,20.0,NBA,822.0,1.1,2.0,SF,16.0,2003,1.1,DAL,1.4,5.0
30.0,2.4,0.6,1.8,0.452,3.5,7.7,0.269,1.3,4.8,0.382,4.8,12.5,0.6,1.1,1.8,5.0,5.0,NBA,196.0,1.1,1.5,SG,11.9,2004,0.7,DAL,1.7,2.9
31.0,2.1,0.0,3.2,0.446,3.0,6.7,0.393,1.8,4.5,0.425,4.8,11.2,0.889,1.2,1.3,13.0,13.0,NBA,491.0,1.0,2.3,SG,12.5,2005,1.2,DAL,1.0,4.1
32.0,1.6,0.3,4.2,0.552,2.8,5.1,0.383,1.6,4.1,0.476,4.4,9.2,0.9,1.6,1.8,13.0,4.0,NBA,411.0,0.1,1.7,SG,11.9,2006,0.7,SAS,0.8,4.3
33.0,1.5,0.3,3.3,0.397,1.9,4.9,0.419,2.9,7.0,0.41,4.9,11.9,0.897,2.3,2.6,20.0,20.0,NBA,538.0,0.5,1.9,SF,15.1,2007,0.7,SAS,0.9,3.9
34.0,1.6,0.3,2.9,0.436,2.2,5.1,0.365,1.7,4.8,0.402,4.0,9.9,1.0,0.8,0.8,17.0,11.0,NBA,391.0,0.1,2.3,SG,10.5,2008,0.5,SAS,0.6,3.0
35.0,1.3,0.3,3.0,0.421,2.0,4.8,0.467,1.8,3.8,0.441,3.8,8.6,0.75,0.8,1.0,5.0,5.0,NBA,143.0,0.8,2.0,SF,10.1,2009,0.3,SAS,1.0,3.8
36.0,1.3,0.0,3.3,0.222,0.7,3.0,0.273,1.0,3.7,0.25,1.7,6.7,1.0,0.7,0.7,18.0,0.0,NBA,108.0,0.3,1.3,SF,5.0,2010,1.3,BOS,0.0,3.7
