age,ast_per_mp,blk_per_mp,drb_per_mp,fg2_pct,fg2_per_mp,fg2a_per_mp,fg3_pct,fg3_per_mp,fg3a_per_mp,fg_pct,fg_per_mp,fga_per_mp,ft_pct,ft_per_mp,fta_per_mp,g,gs,lg_id,mp,orb_per_mp,pf_per_mp,pos,pts_per_mp,season,stl_per_mp,team_id,tov_per_mp,trb_per_mp
29.0,1.0,0.4,3.7,0.261,1.2,4.8,0.306,2.3,7.4,0.288,3.5,12.2,0.692,1.9,2.7,24.0,0.0,NBA,174.0,1.2,2.1,SF,11.2,2018,1.4,CLE,1.7,5.0
30.0,0.0,0.0,0.0,0.0,0.0,0.0,0.0,0.0,0.0,0.0,0.0,0.0,0.0,0.0,0.0,1.0,0.0,NBA,1.0,0.0,0.0,SF,0.0,2019,0.0,CLE,0.0,0.0
