age,ast,blk,drb,efg_pct,fg,fg2,fg2_pct,fg2a,fg3,fg3_pct,fg3a,fg_pct,fga,ft,ft_pct,fta,g,gs,lg_id,mp,orb,pf,pos,pts,season,stl,team_id,tov,trb
21.0,107.0,63.0,213.0,0.502,255.0,244.0,0.499,489.0,11.0,0.367,30.0,0.491,519.0,173.0,0.772,224.0,82.0,4.0,NBA,1706.0,115.0,237.0,SF,694.0,1988,70.0,SEA,108.0,328.0
22.0,219.0,70.0,297.0,0.518,487.0,457.0,0.519,881.0,30.0,0.337,89.0,0.502,970.0,301.0,0.803,375.0,82.0,82.0,NBA,2804.0,167.0,264.0,SF,1305.0,1989,105.0,SEA,188.0,464.0
23.0,187.0,81.0,319.0,0.495,468.0,465.0,0.502,926.0,3.0,0.13,23.0,0.493,949.0,315.0,0.782,403.0,80.0,80.0,NBA,2748.0,170.0,247.0,SF,1254.0,1990,87.0,SEA,192.0,489.0
24.0,169.0,56.0,251.0,0.519,438.0,434.0,0.524,828.0,4.0,0.211,19.0,0.517,847.0,235.0,0.845,278.0,73.0,55.0,NBA,2503.0,172.0,220.0,SF,1115.0,1991,91.0,SEA,158.0,423.0
25.0,120.0,47.0,173.0,0.488,285.0,266.0,0.48,554.0,19.0,0.38,50.0,0.472,604.0,188.0,0.847,222.0,52.0,44.0,NBA,1757.0,95.0,142.0,SF,777.0,1992,61.0,SEA,114.0,268.0
26.0,197.0,58.0,206.0,0.522,387.0,347.0,0.519,668.0,40.0,0.357,112.0,0.496,780.0,220.0,0.741,297.0,77.0,68.0,NBA,2439.0,121.0,208.0,SF,1034.0,1993,105.0,SEA,152.0,327.0
27.0,327.0,49.0,273.0,0.506,355.0,346.0,0.51,679.0,9.0,0.29,31.0,0.5,710.0,192.0,0.756,254.0,76.0,76.0,NBA,2613.0,129.0,248.0,SF,911.0,1994,111.0,IND,228.0,402.0
28.0,276.0,49.0,269.0,0.513,411.0,379.0,0.509,744.0,32.0,0.36,89.0,0.493,833.0,221.0,0.744,297.0,81.0,81.0,NBA,2805.0,125.0,260.0,SF,1075.0,1995,125.0,IND,168.0,394.0
29.0,262.0,44.0,238.0,0.498,346.0,329.0,0.511,644.0,17.0,0.25,68.0,0.486,712.0,170.0,0.769,221.0,75.0,75.0,NBA,2440.0,123.0,246.0,SF,879.0,1996,83.0,IND,143.0,361.0
30.0,135.0,30.0,161.0,0.41,148.0,133.0,0.414,321.0,15.0,0.259,58.0,0.391,379.0,89.0,0.724,123.0,50.0,49.0,NBA,1449.0,80.0,141.0,SF,400.0,1997,47.0,IND,83.0,241.0
31.0,88.0,30.0,137.0,0.465,150.0,146.0,0.471,310.0,4.0,0.235,17.0,0.459,327.0,55.0,0.714,77.0,57.0,4.0,NBA,1316.0,74.0,156.0,SF,359.0,1998,57.0,IND,79.0,211.0
32.0,13.0,4.0,23.0,0.442,23.0,23.0,0.451,51.0,0.0,0.0,1.0,0.442,52.0,14.0,0.824,17.0,13.0,0.0,NBA,244.0,18.0,24.0,SF,60.0,1999,12.0,IND,12.0,41.0
33.0,35.0,13.0,106.0,0.444,43.0,33.0,0.388,85.0,10.0,0.435,23.0,0.398,108.0,43.0,0.768,56.0,32.0,0.0,NBA,634.0,29.0,81.0,SF,139.0,2000,29.0,IND,19.0,135.0
34.0,74.0,13.0,127.0,0.456,60.0,56.0,0.483,116.0,4.0,0.2,20.0,0.441,136.0,21.0,0.778,27.0,66.0,20.0,NBA,987.0,49.0,136.0,SF,145.0,2001,48.0,IND,47.0,176.0
35.0,45.0,4.0,79.0,0.447,52.0,47.0,0.427,110.0,5.0,0.417,12.0,0.426,122.0,10.0,0.714,14.0,41.0,1.0,NBA,784.0,48.0,90.0,SF,119.0,2002,41.0,PHI,22.0,127.0
