age,ast_pct,blk_pct,bpm,bpm-dum,dbpm,drb_pct,dws,fg3a_per_fga_pct,fta_per_fga_pct,g,lg_id,mp,obpm,orb_pct,ows,per,pos,season,stl_pct,team_id,tov_pct,trb_pct,ts_pct,usg_pct,vorp,ws,ws-dum,ws_per_48
27.0,24.9,0.0,-5.2,0.0,-3.6,2.5,0.0,0.462,0.462,11.0,NBA,42.0,-1.6,8.0,0.0,8.8,PG,1988,0.0,UTA,27.7,5.1,0.543,21.1,0.0,0.0,0.0,0.021
28.0,18.7,0.5,-1.6,0.0,-0.5,6.3,0.3,0.344,0.188,26.0,NBA,224.0,-1.2,2.6,0.1,11.4,PG,1989,3.4,DEN,13.7,4.4,0.505,13.7,0.0,0.4,0.0,0.089
29.0,15.4,0.1,-2.5,0.0,0.2,6.9,0.9,0.243,0.168,60.0,NBA,892.0,-2.8,1.7,0.1,8.3,PG,1990,2.5,DEN,15.2,4.1,0.482,11.2,-0.1,1.0,0.0,0.055
