age,ast_per_g,blk_per_g,drb_per_g,efg_pct,fg2_pct,fg2_per_g,fg2a_per_g,fg3_pct,fg3_per_g,fg3a_per_g,fg_pct,fg_per_g,fga_per_g,ft_pct,ft_per_g,fta_per_g,g,gs,lg_id,mp_per_g,orb_per_g,pf_per_g,pos,pts_per_g,season,stl_per_g,team_id,tov_per_g,trb_per_g
27.0,0.7,0.0,0.1,0.423,0.571,0.4,0.6,0.167,0.1,0.5,0.385,0.5,1.2,1.0,0.5,0.5,11.0,0.0,NBA,3.8,0.3,0.5,PG,1.5,1988,0.0,UTA,0.5,0.4
28.0,1.3,0.1,0.5,0.492,0.5,0.8,1.6,0.318,0.3,0.8,0.438,1.1,2.5,0.583,0.3,0.5,26.0,1.0,NBA,8.6,0.2,1.2,PG,2.7,1989,0.7,DEN,0.4,0.7
29.0,1.9,0.0,0.9,0.46,0.412,1.1,2.6,0.408,0.3,0.8,0.411,1.4,3.4,0.676,0.4,0.6,60.0,7.0,NBA,14.9,0.3,1.5,PG,3.5,1990,0.8,DEN,0.7,1.2
