age,ast_per_poss,blk_per_poss,def_rtg,drb_per_poss,fg2_pct,fg2_per_poss,fg2a_per_poss,fg3_pct,fg3_per_poss,fg3a_per_poss,fg_pct,fg_per_poss,fga_per_poss,ft_pct,ft_per_poss,fta_per_poss,g,gs,lg_id,mp,off_rtg,orb_per_poss,pf_per_poss,pos,pts_per_poss,season,stl_per_poss,team_id,tov_per_poss,trb_per_poss
23.0,2.7,0.6,112.0,4.8,0.488,4.0,8.3,0.196,0.4,2.2,0.427,4.5,10.5,0.723,1.6,2.3,62.0,12.0,NBA,1020.0,100.0,1.7,3.9,SF,11.0,2018,1.6,ORL,1.4,6.6
24.0,2.9,0.9,110.0,5.8,0.431,3.3,7.7,0.367,1.2,3.1,0.412,4.5,10.9,0.816,3.3,4.1,68.0,13.0,NBA,1233.0,107.0,1.5,4.9,SF,13.5,2019,1.1,ORL,1.7,7.3
25.0,1.8,0.0,105.0,12.3,0.167,1.8,10.5,0.0,0.0,8.8,0.091,1.8,19.3,0.5,3.5,7.0,3.0,0.0,NBA,28.0,38.0,1.8,1.8,SF,7.0,2020,0.0,ORL,3.5,14.0
