age,ast_per_g,blk_per_g,drb_per_g,efg_pct,fg2_pct,fg2_per_g,fg2a_per_g,fg3_pct,fg3_per_g,fg3a_per_g,fg_pct,fg_per_g,fga_per_g,ft_pct,ft_per_g,fta_per_g,g,gs,lg_id,mp_per_g,orb_per_g,pf_per_g,pos,pts_per_g,season,stl_per_g,team_id,tov_per_g,trb_per_g
23.0,0.9,0.2,1.6,0.447,0.488,1.4,2.8,0.196,0.1,0.7,0.427,1.5,3.5,0.723,0.5,0.8,62.0,12.0,NBA,16.5,0.6,1.3,SF,3.7,2018,0.5,ORL,0.5,2.2
24.0,1.1,0.3,2.2,0.465,0.431,1.2,2.9,0.367,0.4,1.2,0.412,1.7,4.0,0.816,1.2,1.5,68.0,13.0,NBA,18.1,0.5,1.8,SF,5.0,2019,0.4,ORL,0.6,2.7
25.0,0.3,0.0,2.3,0.091,0.167,0.3,2.0,0.0,0.0,1.7,0.091,0.3,3.7,0.5,0.7,1.3,3.0,0.0,NBA,9.3,0.3,0.3,SF,1.3,2020,0.0,ORL,0.7,2.7
