lg_id,salary,season,team_name
NBA,2208960.0,2009,Charlotte Bobcats
NBA,2385480.0,2010,Charlotte Bobcats
NBA,2540400.0,2011,Charlotte Bobcats
NBA,3236470.0,2012,Charlotte Bobcats
NBA,3500000.0,2013,Indiana Pacers
NBA,1267000.0,2014,Toronto Raptors
NBA,3000000.0,2015,Oklahoma City Thunder
NBA,3000000.0,2016,Denver Nuggets
NBA,7250000.0,2017,Orlando Magic
NBA,7250000.0,2018,Orlando Magic
NBA,7250000.0,2019,Orlando Magic
