age,ast_pct,blk_pct,bpm,bpm-dum,dbpm,drb_pct,dws,fg3a_per_fga_pct,fta_per_fga_pct,g,lg_id,mp,obpm,orb_pct,ows,per,pos,season,stl_pct,team_id,tov_pct,trb_pct,ts_pct,usg_pct,vorp,ws,ws-dum,ws_per_48
21.0,22.6,0.1,-0.7,0.0,-2.3,7.5,1.5,0.396,0.375,72.0,NBA,1908.0,1.6,1.1,3.6,14.9,PG,2009,1.2,CHA,14.1,4.3,0.587,20.8,0.6,5.1,0.0,0.128
22.0,21.7,0.3,-2.6,0.0,-1.6,6.9,1.7,0.409,0.301,80.0,NBA,1472.0,-0.9,0.9,1.1,11.2,PG,2010,1.6,CHA,13.1,4.0,0.516,17.9,-0.2,2.8,0.0,0.092
23.0,31.1,0.1,-0.4,0.0,-2.8,8.3,1.3,0.348,0.31,82.0,NBA,2757.0,2.4,1.7,4.9,15.9,PG,2011,1.0,CHA,12.5,4.9,0.541,21.2,1.1,6.2,0.0,0.108
24.0,38.9,0.1,-3.6,0.0,-4.4,7.2,-0.2,0.368,0.246,48.0,NBA,1408.0,0.8,1.9,0.7,14.1,PG,2012,1.3,CHA,16.9,4.4,0.493,21.3,-0.6,0.5,0.0,0.018
25.0,21.6,0.2,-1.9,0.0,-1.4,6.3,1.5,0.646,0.337,76.0,NBA,1226.0,-0.4,1.9,1.4,11.0,PG,2013,1.5,IND,16.8,4.1,0.527,15.1,0.0,2.8,0.0,0.112
26.0,28.9,0.1,0.4,0.0,-2.2,6.7,2.4,0.462,0.316,71.0,NBA,1939.0,2.6,0.9,3.8,16.2,PG,2014,1.5,TOT,13.3,3.8,0.569,22.4,1.2,6.2,0.0,0.154
26.0,18.4,0.0,-11.2,0.0,-3.7,5.7,0.0,0.458,0.25,10.0,NBA,82.0,-7.4,0.0,-0.2,1.2,PG,2014,0.6,TOR,25.3,2.8,0.394,19.8,-0.2,-0.2,0.0,-0.112
26.0,29.3,0.1,1.0,0.0,-2.1,6.7,2.4,0.463,0.318,61.0,NBA,1857.0,3.1,0.9,4.0,16.8,PG,2014,1.5,CHI,12.8,3.9,0.574,22.5,1.4,6.4,0.0,0.166
27.0,28.2,0.1,-2.5,0.0,-2.7,7.9,0.9,0.38,0.317,82.0,NBA,1964.0,0.2,1.1,2.5,13.9,PG,2015,1.3,TOT,16.4,4.4,0.527,19.8,-0.3,3.4,0.0,0.083
27.0,33.2,0.1,-2.4,0.0,-3.1,7.6,0.6,0.325,0.367,54.0,NBA,1287.0,0.8,1.1,2.0,15.8,PG,2015,1.3,DET,17.0,4.2,0.536,22.2,-0.1,2.5,0.0,0.094
27.0,18.5,0.1,-2.8,0.0,-2.0,8.4,0.4,0.516,0.194,28.0,NBA,677.0,-0.9,1.1,0.5,10.2,PG,2015,1.2,OKC,14.8,4.8,0.503,15.1,-0.1,0.9,0.0,0.063
28.0,25.3,0.3,-1.7,0.0,-2.7,8.0,0.6,0.48,0.366,62.0,NBA,1178.0,1.0,0.8,2.0,13.9,PG,2016,1.6,TOT,17.1,4.4,0.575,18.0,0.1,2.6,0.0,0.106
28.0,16.7,0.3,-3.3,0.0,-1.9,7.6,0.3,0.504,0.281,34.0,NBA,519.0,-1.4,1.1,0.4,8.7,PG,2016,1.2,OKC,18.1,4.5,0.522,13.6,-0.2,0.7,0.0,0.065
28.0,32.0,0.2,-0.5,0.0,-3.3,8.4,0.3,0.467,0.41,28.0,NBA,659.0,2.8,0.5,1.6,18.0,PG,2016,1.9,DEN,16.6,4.4,0.601,21.5,0.3,1.9,0.0,0.139
29.0,20.4,0.1,-4.2,0.0,-3.3,7.4,0.5,0.53,0.311,78.0,NBA,1538.0,-0.9,1.0,0.7,11.0,PG,2017,1.0,ORL,13.3,4.1,0.524,19.4,-0.9,1.2,0.0,0.038
30.0,24.4,0.0,-0.9,0.0,-2.5,8.2,0.8,0.504,0.35,75.0,NBA,1760.0,1.5,1.9,3.3,15.4,PG,2018,1.5,ORL,16.5,5.0,0.615,18.6,0.5,4.1,0.0,0.11
31.0,26.9,0.1,-0.3,0.0,-2.0,7.8,1.9,0.459,0.309,81.0,NBA,2269.0,1.7,1.9,5.0,15.7,PG,2019,1.1,ORL,14.3,4.8,0.616,17.2,1.0,6.9,0.0,0.146
32.0,26.7,0.0,-4.7,0.0,-3.2,4.2,0.1,0.306,0.323,8.0,NBA,205.0,-1.4,1.4,0.2,12.4,PG,2020,0.7,ORL,11.3,2.7,0.508,16.9,-0.1,0.4,0.0,0.082
