age,ast,blk,drb,fg,fg2,fg2a,fg3,fg3a,fga,ft,fta,game_score,lg_id,mp,orb,pf,pts,season,stl,team_id,tov,trb
22.0,3.0,1.0,2.0,2.0,1.0,5.0,2.0,3.0,6.0,3.0,3.0,7.1,NBA,23,1.0,2.0,6.0,2010,1.0,CHA,2.0,2.0
25.0,3.0,0.0,3.0,5.0,2.0,4.0,4.0,9.0,10.0,6.0,6.0,13.3,NBA,39,1.0,3.0,16.0,2013,2.0,IND,2.0,3.0
26.0,7.0,0.0,1.0,10.0,6.0,14.0,4.0,8.0,22.0,10.0,10.0,17.9,NBA,41,2.0,5.0,25.0,2014,2.0,TOT,3.0,3.0
26.0,7.0,0.0,1.0,10.0,6.0,14.0,4.0,8.0,22.0,10.0,10.0,17.9,NBA,41,2.0,5.0,25.0,2014,2.0,CHI,3.0,3.0
31.0,6.0,1.0,2.0,9.0,5.0,8.0,4.0,8.0,13.0,7.0,7.0,23.1,NBA,33,1.0,2.0,25.0,2019,1.0,ORL,2.0,2.0
