age,ast_per_g,blk_per_g,drb_per_g,efg_pct,fg2_pct,fg2_per_g,fg2a_per_g,fg3_pct,fg3_per_g,fg3a_per_g,fg_pct,fg_per_g,fga_per_g,ft_pct,ft_per_g,fta_per_g,g,gs,lg_id,mp_per_g,orb_per_g,pf_per_g,pos,pts_per_g,season,stl_per_g,team_id,tov_per_g,trb_per_g
20.0,0.8,0.5,3.8,0.496,0.5,2.4,4.9,0.2,0.0,0.1,0.493,2.5,5.0,0.746,1.0,1.4,45.0,5.0,NBA,19.8,2.0,3.4,PF,6.0,2013,0.5,BOS,0.6,5.9
21.0,1.6,0.7,4.9,0.458,0.475,4.4,9.3,0.269,0.8,2.8,0.427,5.2,12.1,0.778,2.1,2.7,74.0,44.0,NBA,27.6,3.3,3.4,PF,13.3,2014,0.5,BOS,1.6,8.1
22.0,2.3,0.7,5.1,0.476,0.494,4.5,9.0,0.283,0.9,3.2,0.439,5.4,12.2,0.744,1.7,2.2,58.0,49.0,NBA,27.0,2.5,2.6,PF,13.3,2015,0.8,BOS,1.3,7.6
23.0,2.3,0.6,5.9,0.453,0.458,4.0,8.7,0.282,0.4,1.3,0.435,4.3,10.0,0.64,1.3,2.0,81.0,73.0,NBA,23.6,2.4,2.6,PF,10.3,2016,0.9,BOS,1.3,8.3
24.0,0.3,0.1,1.5,0.351,0.414,1.1,2.6,0.167,0.3,1.6,0.319,1.4,4.3,0.5,0.4,0.7,11.0,1.0,NBA,10.7,0.9,1.5,PF,3.4,2017,0.4,TOR,0.4,2.5
