age,and1s,astd_pts,drawn_offensive,drawn_shooting,fouls_offensive,fouls_shooting,g,lg_id,mp,own_shots_blk,pct_1,pct_2,pct_3,pct_4,pct_5,plus_minus_net,plus_minus_on,pos,season,team_id,tov_bad_pass,tov_lost_ball
20.0,5.0,81.0,6.0,29.0,11.0,69.0,45.0,NBA,892.0,31.0,0.0,0.0,0.0,66.0,35.0,4.2,2.8,PF,2013,BOS,10.0,5.0
21.0,25.0,275.0,13.0,78.0,29.0,127.0,74.0,NBA,2041.0,53.0,0.0,0.0,0.0,30.0,70.0,5.8,-2.3,PF,2014,BOS,35.0,36.0
22.0,13.0,321.0,8.0,53.0,24.0,67.0,58.0,NBA,1566.0,35.0,0.0,0.0,0.0,60.0,40.0,-3.8,-2.3,PF,2015,BOS,30.0,14.0
23.0,12.0,440.0,9.0,71.0,27.0,107.0,81.0,NBA,1915.0,50.0,0.0,0.0,0.0,14.0,86.0,3.2,4.9,PF,2016,BOS,31.0,28.0
24.0,2.0,5.0,1.0,4.0,2.0,7.0,11.0,NBA,118.0,4.0,0.0,0.0,0.0,70.0,30.0,-21.4,-16.2,PF,2017,TOR,1.0,1.0
