age,ast_per_mp,blk_per_mp,drb_per_mp,fg2_pct,fg2_per_mp,fg2a_per_mp,fg3_pct,fg3_per_mp,fg3a_per_mp,fg_pct,fg_per_mp,fga_per_mp,ft_pct,ft_per_mp,fta_per_mp,g,gs,lg_id,mp,orb_per_mp,pf_per_mp,pos,pts_per_mp,season,stl_per_mp,team_id,tov_per_mp,trb_per_mp
20.0,1.7,2.4,6.9,0.454,5.1,11.3,0.333,1.4,4.3,0.421,6.6,15.6,0.838,3.5,4.2,72.0,72.0,NBA,2047.0,2.3,3.6,PF,18.1,2016,0.9,NYK,2.1,9.3
21.0,1.6,2.1,6.1,0.493,5.5,11.2,0.357,1.9,5.2,0.45,7.4,16.4,0.786,3.3,4.2,66.0,65.0,NBA,2164.0,1.8,4.1,PF,19.9,2017,0.8,NYK,2.0,7.9
22.0,1.3,2.7,5.9,0.454,7.0,15.3,0.395,2.1,5.3,0.439,9.0,20.6,0.793,5.1,6.4,48.0,48.0,NBA,1553.0,1.4,3.3,PF,25.2,2018,0.8,NYK,2.2,7.3
24.0,1.8,2.8,8.0,0.427,5.0,11.7,0.361,2.5,6.9,0.402,7.5,18.7,0.721,3.5,4.9,10.0,10.0,NBA,316.0,1.4,3.9,PF,21.1,2020,0.3,DAL,2.3,9.3
