age,avg_dist,fg2_dunk,fg2_pct,fg2_pct_ast,fg2a_pct_fga,fg3_heave,fg3_pct,fg3_pct_ast,fg3_pct_corner,fg3a_heave,fg3a_pct_fga,fg_pct,fg_pct_00_03,fg_pct_03_10,fg_pct_10_16,fg_pct_16_xx,g,lg_id,mp,pct_fg2_dunk,pct_fg3a_corner,pct_fga_00_03,pct_fga_03_10,pct_fga_10_16,pct_fga_16_xx,pos,season,team_id
33.0,19.5,1.0,0.409,0.667,0.55,0.0,0.389,1.0,0.5,0.0,0.45,0.4,0.5,0.0,0.429,0.385,16.0,NBA,114.0,0.025,0.667,0.05,0.0,0.175,0.325,SG,2001,SAS
34.0,21.4,0.0,0.471,0.875,0.459,0.0,0.35,1.0,0.375,0.0,0.541,0.405,1.0,0.0,0.5,0.429,9.0,NBA,144.0,0.0,0.4,0.027,0.0,0.054,0.378,SG,2002,ORL
