age,ast_per_g,blk_per_g,drb_per_g,efg_pct,fg2_pct,fg2_per_g,fg2a_per_g,fg3_pct,fg3_per_g,fg3a_per_g,fg_pct,fg_per_g,fga_per_g,ft_pct,ft_per_g,fta_per_g,g,gs,lg_id,mp_per_g,orb_per_g,pf_per_g,pos,pts_per_g,season,stl_per_g,team_id,tov_per_g,trb_per_g
22.0,0.5,0.0,0.3,0.362,0.379,0.9,2.4,0.0,0.0,0.1,0.362,0.9,2.5,0.81,0.6,0.8,28.0,0.0,NBA,5.7,0.6,0.6,SG,2.4,1990,0.5,NJN,0.6,0.9
24.0,0.6,0.0,1.0,0.478,0.478,2.2,4.6,0.0,0.0,0.0,0.478,2.2,4.6,0.667,0.8,1.2,5.0,0.0,NBA,10.8,1.0,1.4,SG,5.2,1992,0.4,GSW,0.8,2.0
25.0,1.0,0.1,0.6,0.422,0.415,1.5,3.6,0.4,0.1,0.1,0.414,1.6,3.8,0.852,0.7,0.8,34.0,0.0,NBA,10.3,0.6,1.3,SG,3.9,1993,0.6,LAC,0.5,1.1
26.0,0.9,0.1,0.4,0.391,0.42,1.2,2.8,0.0,0.0,0.2,0.391,1.2,3.0,0.857,0.4,0.5,29.0,0.0,NBA,6.4,0.2,0.7,SG,2.8,1994,0.1,POR,0.5,0.6
27.0,0.9,0.2,1.1,0.397,0.396,1.0,2.5,0.267,0.2,0.7,0.368,1.2,3.2,0.667,0.8,1.1,21.0,1.0,NBA,12.2,0.9,1.6,SG,3.3,1995,0.4,PHI,0.8,2.0
28.0,0.0,0.0,0.8,0.0,0.0,0.0,0.8,0.0,0.0,1.3,0.0,0.0,2.0,0.8,2.0,2.5,4.0,0.0,NBA,8.3,0.0,1.3,SG,2.0,1996,0.3,HOU,0.0,0.8
29.0,0.9,0.2,1.3,0.488,0.474,1.1,2.3,0.335,0.7,2.1,0.407,1.8,4.4,0.768,0.7,0.9,75.0,0.0,NBA,15.1,0.4,1.7,SG,5.0,1997,0.6,WSB,0.8,1.8
30.0,1.9,0.1,1.9,0.48,0.409,1.8,4.4,0.377,1.4,3.6,0.394,3.1,8.0,0.797,1.1,1.4,82.0,45.0,NBA,27.1,0.7,2.7,SG,8.8,1998,0.7,SAS,1.3,2.6
31.0,1.0,0.2,1.7,0.474,0.401,1.2,2.9,0.361,1.1,3.1,0.38,2.3,6.0,0.821,0.7,0.8,47.0,13.0,NBA,18.3,0.4,1.3,SG,6.4,1999,0.9,SAS,0.8,2.1
32.0,1.5,0.1,1.8,0.492,0.429,1.0,2.2,0.353,1.3,3.8,0.381,2.3,6.0,0.647,0.4,0.6,81.0,12.0,NBA,20.9,0.4,1.9,SG,6.3,2000,0.7,SAS,0.8,2.2
33.0,0.4,0.0,0.7,0.488,0.409,0.6,1.4,0.389,0.4,1.1,0.4,1.0,2.5,0.0,0.0,0.1,16.0,0.0,NBA,7.1,0.1,0.8,SG,2.4,2001,0.3,SAS,0.2,0.8
34.0,0.9,0.0,1.8,0.5,0.471,0.9,1.9,0.35,0.8,2.2,0.405,1.7,4.1,0.5,0.2,0.4,9.0,0.0,NBA,16.0,0.1,1.4,SG,4.3,2002,0.6,ORL,0.9,1.9
