age,ast_per_g,blk_per_g,drb_per_g,efg_pct,fg2_pct,fg2_per_g,fg2a_per_g,fg3_pct,fg3_per_g,fg3a_per_g,fg_pct,fg_per_g,fga_per_g,ft_pct,ft_per_g,fta_per_g,g,gs,lg_id,mp_per_g,orb_per_g,pf_per_g,pos,pts_per_g,season,stl_per_g,team_id,tov_per_g,trb_per_g
25.0,0.5,0.0,0.3,0.385,0.417,1.3,3.0,0.0,0.0,0.3,0.385,1.3,3.3,0.0,0.0,0.0,4.0,0.0,NBA,7.0,1.0,1.5,SG,2.5,1993,0.5,LAC,0.8,1.3
26.0,0.0,0.0,0.0,0.0,0.0,0.0,0.0,0.0,0.0,0.0,0.0,0.0,0.0,0.0,0.0,0.0,1.0,0.0,NBA,1.0,0.0,0.0,SG,0.0,1994,0.0,POR,0.0,0.0
29.0,0.3,0.0,0.3,0.0,0.0,0.0,0.0,0.0,0.0,0.0,0.0,0.0,0.0,0.0,0.0,0.7,3.0,0.0,NBA,3.7,0.3,2.3,SG,0.0,1997,0.0,WSB,0.7,0.7
30.0,1.6,0.1,3.9,0.443,0.414,1.3,3.2,0.305,2.0,6.6,0.341,3.3,9.8,0.737,1.6,2.1,9.0,8.0,NBA,35.4,0.4,3.4,SG,10.2,1998,0.6,SAS,1.3,4.3
31.0,1.1,0.0,2.1,0.5,0.422,1.1,2.6,0.36,1.8,5.1,0.382,2.9,7.7,0.692,0.5,0.8,17.0,0.0,NBA,20.3,0.4,1.9,SG,8.2,1999,0.8,SAS,1.2,2.4
32.0,1.0,0.0,0.5,0.0,0.0,0.0,1.0,0.0,0.0,0.5,0.0,0.0,1.5,0.5,1.0,2.0,2.0,0.0,NBA,9.5,0.0,0.5,SG,1.0,2000,0.5,SAS,0.0,0.5
34.0,0.0,0.0,0.3,0.0,0.0,0.0,0.0,0.0,0.0,0.0,0.0,0.0,0.0,0.0,0.0,0.0,3.0,0.0,NBA,1.7,0.0,1.0,SG,0.0,2002,0.0,ORL,0.3,0.3
