age,and1s,astd_pts,drawn_offensive,drawn_shooting,fouls_offensive,fouls_shooting,g,lg_id,mp,own_shots_blk,pct_1,pct_2,pct_3,pct_4,pct_5,plus_minus_net,plus_minus_on,pos,season,team_id,tov_bad_pass,tov_lost_ball
33.0,0.0,14.0,0.0,1.0,0.0,5.0,16.0,NBA,114.0,1.0,0.0,24.0,73.0,3.0,0.0,-14.0,-4.7,SG,2001,SAS,2.0,1.0
34.0,0.0,21.0,0.0,1.0,1.0,6.0,9.0,NBA,144.0,1.0,0.0,84.0,16.0,0.0,0.0,-17.6,-15.2,SG,2002,ORL,6.0,0.0
