article_url,date,headline
https://thesixersense.com/2019/10/21/philadelphia-76ers-time-process-rankings/,2019/10/21,The Sixer Sense: Philadelphia 76ers: All-Time Process rankings
https://the-barnburner.com/2019/06/11/bluff-city-formerly-memphis-state-to-host-opening-region-of-the-basketball-tournament/,2019/06/11,The BarnBurner: Bluff City (formerly Memphis State) to host opening region of The Basketball Tournament
