age,ast_pct,blk_pct,bpm,bpm-dum,dbpm,drb_pct,dws,fg3a_per_fga_pct,fta_per_fga_pct,g,lg_id,mp,obpm,orb_pct,ows,per,pos,season,stl_pct,team_id,tov_pct,trb_pct,ts_pct,usg_pct,vorp,ws,ws-dum,ws_per_48
23.0,2.6,3.4,-4.0,0.0,0.1,17.9,0.5,0.011,0.456,58.0,NBA,1121.0,-4.1,10.3,0.0,10.7,PF,1991,1.3,DEN,12.8,13.7,0.452,12.3,-0.6,0.5,0.0,0.022
24.0,2.5,2.1,-1.8,0.0,0.1,20.9,0.2,0.0,0.24,22.0,NBA,115.0,-1.9,11.5,0.2,15.8,PF,1992,2.1,DEN,9.8,15.9,0.615,10.8,0.0,0.4,0.0,0.155
26.0,3.1,4.6,-6.7,0.0,-0.9,21.6,0.2,0.019,0.463,25.0,NBA,203.0,-5.9,10.7,-0.1,11.3,PF,1994,0.8,TOT,15.6,15.8,0.477,16.4,-0.2,0.1,0.0,0.02
26.0,0.0,62.9,-12.6,0.0,30.5,0.0,0.0,0.0,0.0,2.0,NBA,2.0,-43.1,0.0,0.0,-7.9,PF,1994,0.0,ORL,50.0,0.0,0.0,42.7,0.0,0.0,0.0,-0.949
26.0,3.1,4.0,-6.7,0.0,-1.2,21.8,0.2,0.019,0.472,23.0,NBA,201.0,-5.5,10.8,0.0,11.5,PF,1994,0.8,MIL,14.7,16.0,0.484,16.1,-0.2,0.1,0.0,0.029
28.0,5.1,1.2,-5.2,0.0,-1.1,13.2,0.1,0.125,0.25,11.0,NBA,60.0,-4.0,9.5,0.0,7.6,PF,1996,0.0,POR,5.3,11.4,0.422,13.7,0.0,0.1,0.0,0.057
