age,ast,blk,drb,fg,fg2,fg2a,fg3,fg3a,fga,ft,fta,game_score,lg_id,mp,orb,pf,pts,season,stl,team_id,tov,trb
23.0,2.0,5.0,11.0,7.0,7.0,15.0,0.0,1.0,15.0,7.0,10.0,13.7,NBA,0.0,9.0,6.0,14.0,1991,4.0,DEN,4.0,18.0
24.0,1.0,1.0,3.0,3.0,3.0,5.0,0.0,0.0,5.0,2.0,2.0,8.4,NBA,0.0,3.0,2.0,7.0,1992,1.0,DEN,1.0,6.0
26.0,1.0,4.0,8.0,6.0,6.0,8.0,0.0,1.0,8.0,2.0,5.0,13.8,NBA,0.0,5.0,3.0,14.0,1994,1.0,TOT,3.0,13.0
26.0,0.0,1.0,0.0,0.0,0.0,1.0,0.0,0.0,1.0,0.0,0.0,0.0,NBA,0.0,0.0,0.0,0.0,1994,0.0,ORL,1.0,0.0
26.0,1.0,4.0,8.0,6.0,6.0,8.0,0.0,1.0,8.0,2.0,5.0,13.8,NBA,0.0,5.0,3.0,14.0,1994,1.0,MIL,3.0,13.0
28.0,1.0,1.0,2.0,2.0,2.0,3.0,0.0,1.0,3.0,1.0,2.0,4.4,NBA,0.0,2.0,3.0,4.0,1996,0.0,POR,1.0,4.0
