age,ast_per_mp,blk_per_mp,drb_per_mp,fg2_pct,fg2_per_mp,fg2a_per_mp,fg3_pct,fg3_per_mp,fg3a_per_mp,fg_pct,fg_per_mp,fga_per_mp,ft_pct,ft_per_mp,fta_per_mp,g,gs,lg_id,mp,orb_per_mp,pf_per_mp,pos,pts_per_mp,season,stl_per_mp,team_id,tov_per_mp,trb_per_mp
23.0,0.8,2.3,6.2,0.421,3.8,9.0,0.0,0.0,0.1,0.417,3.8,9.1,0.55,2.3,4.1,58.0,25.0,NBA,1121.0,4.3,3.2,PF,9.9,1991,1.1,DEN,1.6,10.5
24.0,0.6,1.3,6.6,0.6,4.7,7.8,0.0,0.0,0.0,0.6,4.7,7.8,0.667,1.3,1.9,22.0,0.0,NBA,115.0,4.1,3.1,PF,10.6,1992,1.6,DEN,0.9,10.6
26.0,0.7,2.5,6.4,0.491,4.6,9.4,0.0,0.0,0.2,0.481,4.6,9.6,0.4,1.8,4.4,25.0,0.0,NBA,203.0,3.5,3.9,PF,11.0,1994,0.5,TOT,2.1,9.9
26.0,0.0,36.0,0.0,0.0,0.0,18.0,0.0,0.0,0.0,0.0,0.0,18.0,0.0,0.0,0.0,2.0,0.0,NBA,2.0,0.0,0.0,PF,0.0,1994,0.0,ORL,18.0,0.0
26.0,0.7,2.1,6.4,0.5,4.7,9.3,0.0,0.0,0.2,0.491,4.7,9.5,0.4,1.8,4.5,23.0,0.0,NBA,201.0,3.6,3.9,PF,11.1,1994,0.5,MIL,2.0,10.0
28.0,1.2,0.6,4.2,0.5,4.2,8.4,0.0,0.0,1.2,0.438,4.2,9.6,0.25,0.6,2.4,11.0,0.0,NBA,60.0,3.0,4.8,PF,9.0,1996,0.0,POR,0.6,7.2
