age,ast,blk,drb,efg_pct,fg,fg2,fg2_pct,fg2a,fg3,fg3_pct,fg3a,fg_pct,fga,ft,ft_pct,fta,g,gs,lg_id,mp,orb,pf,pos,pts,season,stl,team_id,tov,trb
26.0,29.0,28.0,105.0,0.511,72.0,72.0,0.518,139.0,0.0,0.0,2.0,0.511,141.0,51.0,0.699,73.0,13.0,13.0,NBA,519.0,41.0,44.0,C,195.0,2011,14.0,MEM,26.0,146.0
27.0,22.0,13.0,31.0,0.522,36.0,36.0,0.529,68.0,0.0,0.0,1.0,0.522,69.0,34.0,0.791,43.0,7.0,7.0,NBA,261.0,16.0,25.0,C,106.0,2012,2.0,MEM,13.0,47.0
28.0,48.0,33.0,102.0,0.454,93.0,93.0,0.454,205.0,0.0,0.0,0.0,0.454,205.0,72.0,0.8,90.0,15.0,15.0,NBA,609.0,25.0,53.0,C,258.0,2013,13.0,MEM,18.0,127.0
29.0,31.0,6.0,41.0,0.405,47.0,47.0,0.409,115.0,0.0,0.0,1.0,0.405,116.0,27.0,0.794,34.0,7.0,7.0,NBA,299.0,13.0,27.0,C,121.0,2014,12.0,MEM,12.0,54.0
30.0,49.0,19.0,94.0,0.394,71.0,71.0,0.399,178.0,0.0,0.0,2.0,0.394,180.0,75.0,0.852,88.0,11.0,11.0,NBA,416.0,19.0,33.0,C,217.0,2015,10.0,MEM,16.0,113.0
32.0,25.0,4.0,32.0,0.512,39.0,32.0,0.451,71.0,7.0,0.583,12.0,0.47,83.0,31.0,0.939,33.0,6.0,6.0,NBA,240.0,7.0,22.0,C,116.0,2017,2.0,MEM,15.0,39.0
34.0,73.0,26.0,137.0,0.517,76.0,42.0,0.462,91.0,34.0,0.382,89.0,0.422,180.0,40.0,0.87,46.0,24.0,24.0,NBA,735.0,16.0,84.0,C,226.0,2019,21.0,TOR,21.0,153.0
