age,ast_per_mp,blk_per_mp,drb_per_mp,fg2_pct,fg2_per_mp,fg2a_per_mp,fg3_pct,fg3_per_mp,fg3a_per_mp,fg_pct,fg_per_mp,fga_per_mp,ft_pct,ft_per_mp,fta_per_mp,g,gs,lg_id,mp,orb_per_mp,pf_per_mp,pos,pts_per_mp,season,stl_per_mp,team_id,tov_per_mp,trb_per_mp
26.0,2.0,1.9,7.3,0.518,5.0,9.6,0.0,0.0,0.1,0.511,5.0,9.8,0.699,3.5,5.1,13.0,13.0,NBA,519.0,2.8,3.1,C,13.5,2011,1.0,MEM,1.8,10.1
27.0,3.0,1.8,4.3,0.529,5.0,9.4,0.0,0.0,0.1,0.522,5.0,9.5,0.791,4.7,5.9,7.0,7.0,NBA,261.0,2.2,3.4,C,14.6,2012,0.3,MEM,1.8,6.5
28.0,2.8,2.0,6.0,0.454,5.5,12.1,0.0,0.0,0.0,0.454,5.5,12.1,0.8,4.3,5.3,15.0,15.0,NBA,609.0,1.5,3.1,C,15.3,2013,0.8,MEM,1.1,7.5
29.0,3.7,0.7,4.9,0.409,5.7,13.8,0.0,0.0,0.1,0.405,5.7,14.0,0.794,3.3,4.1,7.0,7.0,NBA,299.0,1.6,3.3,C,14.6,2014,1.4,MEM,1.4,6.5
30.0,4.2,1.6,8.1,0.399,6.1,15.4,0.0,0.0,0.2,0.394,6.1,15.6,0.852,6.5,7.6,11.0,11.0,NBA,416.0,1.6,2.9,C,18.8,2015,0.9,MEM,1.4,9.8
32.0,3.7,0.6,4.8,0.451,4.8,10.6,0.583,1.0,1.8,0.47,5.9,12.4,0.939,4.6,5.0,6.0,6.0,NBA,240.0,1.0,3.3,C,17.4,2017,0.3,MEM,2.3,5.9
34.0,3.6,1.3,6.7,0.462,2.1,4.5,0.382,1.7,4.4,0.422,3.7,8.8,0.87,2.0,2.3,24.0,24.0,NBA,735.0,0.8,4.1,C,11.1,2019,1.0,TOR,1.0,7.5
