age,ast_pct,blk_pct,bpm,bpm-dum,dbpm,drb_pct,dws,fg3a_per_fga_pct,fta_per_fga_pct,g,lg_id,mp,obpm,orb_pct,ows,per,pos,season,stl_pct,team_id,tov_pct,trb_pct,ts_pct,usg_pct,vorp,ws,ws-dum,ws_per_48
24.0,9.7,2.9,1.2,0.0,1.5,20.0,2.7,0.002,0.567,82.0,NBA,2521.0,-0.2,9.6,3.7,16.7,C,2009,1.3,MEM,16.6,14.7,0.59,18.3,2.1,6.4,0.0,0.121
25.0,10.2,3.4,4.3,0.0,2.3,20.5,2.5,0.002,0.578,69.0,NBA,2469.0,2.1,9.8,5.9,19.3,C,2010,1.4,MEM,14.2,15.1,0.617,16.9,3.9,8.4,0.0,0.164
26.0,11.6,4.3,3.6,0.0,3.4,19.4,3.9,0.01,0.425,81.0,NBA,2586.0,0.2,7.1,4.0,16.8,C,2011,1.5,MEM,15.1,13.1,0.58,16.9,3.6,7.9,0.0,0.146
27.0,14.1,4.1,3.9,0.0,3.6,23.1,4.0,0.016,0.428,65.0,NBA,2370.0,0.3,5.8,4.2,18.4,C,2012,1.4,MEM,12.1,14.3,0.541,19.1,3.5,8.2,0.0,0.166
28.0,19.1,4.1,6.1,0.0,4.4,18.9,5.4,0.016,0.364,80.0,NBA,2796.0,1.7,7.6,6.1,19.5,C,2013,1.6,MEM,13.5,13.1,0.559,19.2,5.7,11.5,0.0,0.197
29.0,17.7,3.2,2.9,0.0,2.9,20.5,3.1,0.015,0.339,59.0,NBA,1970.0,0.0,5.0,2.6,18.2,C,2014,1.6,MEM,12.0,12.7,0.526,21.7,2.4,5.6,0.0,0.137
30.0,19.7,4.0,4.8,0.0,3.5,21.8,4.7,0.016,0.41,81.0,NBA,2687.0,1.3,4.9,5.5,21.7,C,2015,1.4,MEM,12.2,13.4,0.558,24.6,4.6,10.2,0.0,0.182
31.0,18.9,3.6,1.0,0.0,1.7,20.2,1.9,0.004,0.347,52.0,NBA,1791.0,-0.7,3.5,1.8,17.7,C,2016,1.4,MEM,12.7,11.5,0.528,23.4,1.3,3.7,0.0,0.098
32.0,24.8,3.7,4.2,0.0,2.2,18.8,3.5,0.231,0.286,74.0,NBA,2531.0,2.1,2.6,4.2,20.3,C,2017,1.4,MEM,11.3,10.5,0.554,26.4,4.0,7.7,0.0,0.145
33.0,21.7,3.9,1.5,0.0,1.6,25.3,2.6,0.31,0.326,73.0,NBA,2408.0,-0.1,3.7,1.5,17.4,C,2018,1.1,MEM,14.1,14.2,0.532,25.6,2.1,4.0,0.0,0.08
34.0,22.2,3.2,2.8,0.0,3.1,25.1,4.0,0.314,0.291,79.0,NBA,2436.0,-0.3,3.6,2.0,16.7,C,2019,1.7,TOT,13.6,14.3,0.546,20.7,3.0,6.0,0.0,0.118
34.0,22.6,3.3,2.7,0.0,3.0,25.5,2.8,0.324,0.294,53.0,NBA,1788.0,-0.3,3.5,1.0,16.9,C,2019,1.7,MEM,13.4,14.3,0.541,22.3,2.1,3.9,0.0,0.104
34.0,21.2,2.9,3.2,0.0,3.5,24.0,1.2,0.278,0.278,26.0,NBA,648.0,-0.3,4.1,0.9,16.0,C,2019,1.8,TOR,14.6,14.3,0.565,16.3,0.9,2.1,0.0,0.157
35.0,12.2,2.5,-1.2,0.0,2.9,19.5,0.5,0.466,0.164,11.0,NBA,310.0,-4.1,2.8,-0.2,6.4,C,2020,0.5,TOR,21.2,11.8,0.473,13.7,0.1,0.2,0.0,0.036
