article_url,date,headline
https://fansided.com/2019/10/18/draftkings-euroleague-basketball-picks-october-18/,2019/10/18,Fansided Fantasy: DraftKings EuroLeague Basketball Picks October 18
https://fansided.com/2019/10/04/draftkings-euroleague-basketball-october-4/,2019/10/04,Fansided Fantasy: DraftKings EuroLeague Basketball Picks October 4
