age,ast,blk,drb,efg_pct,fg,fg2,fg2_pct,fg2a,fg3,fg3_pct,fg3a,fg_pct,fga,ft,ft_pct,fta,g,gs,lg_id,mp,orb,pf,pos,pts,season,stl,team_id,tov,trb
23.0,12.0,0.0,3.0,0.417,14.0,12.0,0.444,27.0,2.0,0.222,9.0,0.389,36.0,0.0,0.0,0.0,13.0,0.0,NBA,107.0,2.0,6.0,PG,30.0,2006,5.0,HOU,7.0,5.0
24.0,33.0,0.0,27.0,0.446,62.0,47.0,0.485,97.0,15.0,0.254,59.0,0.397,156.0,15.0,0.789,19.0,47.0,0.0,NBA,383.0,9.0,38.0,PG,154.0,2007,17.0,HOU,15.0,36.0
28.0,1.0,0.0,0.0,0.333,1.0,1.0,0.5,2.0,0.0,0.0,1.0,0.333,3.0,0.0,0.0,2.0,2.0,0.0,NBA,10.0,0.0,0.0,PG,2.0,2011,0.0,CHI,0.0,0.0
29.0,108.0,1.0,54.0,0.476,143.0,88.0,0.404,218.0,55.0,0.393,140.0,0.399,358.0,28.0,0.875,32.0,49.0,2.0,NBA,726.0,22.0,42.0,PG,369.0,2012,19.0,CHI,42.0,76.0
30.0,105.0,1.0,57.0,0.472,129.0,72.0,0.393,183.0,57.0,0.377,151.0,0.386,334.0,18.0,0.72,25.0,63.0,0.0,NBA,827.0,8.0,50.0,PG,333.0,2013,23.0,TOR,26.0,65.0
31.0,42.0,0.0,27.0,0.392,62.0,37.0,0.349,106.0,25.0,0.298,84.0,0.326,190.0,10.0,0.625,16.0,42.0,6.0,NBA,591.0,12.0,41.0,PG,159.0,2014,14.0,UTA,22.0,39.0
32.0,60.0,0.0,12.0,0.447,42.0,33.0,0.44,75.0,9.0,0.31,29.0,0.404,104.0,5.0,1.0,5.0,21.0,0.0,NBA,272.0,4.0,18.0,PG,98.0,2015,8.0,DET,16.0,16.0
34.0,1.0,0.0,0.0,0.25,1.0,1.0,0.333,3.0,0.0,0.0,1.0,0.25,4.0,0.0,0.0,0.0,5.0,0.0,NBA,11.0,0.0,0.0,PG,2.0,2017,2.0,MIN,0.0,0.0
