age,ast,blk,drb,fg,fg2,fg2a,fg3,fg3a,fga,ft,fta,game_score,lg_id,mp,orb,pf,pts,season,stl,team_id,tov,trb
23.0,3.0,1.0,2.0,4.0,4.0,7.0,0.0,1.0,7.0,5.0,5.0,11.6,NBA,0.0,1.0,3.0,13.0,2005,1.0,BOS,1.0,3.0
24.0,4.0,2.0,5.0,7.0,7.0,15.0,0.0,1.0,15.0,7.0,8.0,15.6,NBA,33.0,4.0,6.0,18.0,2006,3.0,TOT,5.0,8.0
24.0,2.0,1.0,5.0,3.0,3.0,8.0,0.0,0.0,8.0,5.0,6.0,7.9,NBA,24.0,3.0,5.0,11.0,2006,1.0,BOS,2.0,6.0
24.0,4.0,2.0,4.0,7.0,7.0,15.0,0.0,1.0,15.0,7.0,8.0,15.6,NBA,33.0,4.0,6.0,18.0,2006,3.0,MIN,5.0,8.0
25.0,3.0,1.0,4.0,8.0,8.0,14.0,0.0,0.0,14.0,7.0,8.0,12.7,NBA,29.0,2.0,5.0,19.0,2007,1.0,MIN,3.0,5.0
