age,and1s,astd_pts,drawn_offensive,drawn_shooting,fouls_offensive,fouls_shooting,g,lg_id,mp,own_shots_blk,pct_1,pct_2,pct_3,pct_4,pct_5,plus_minus_net,plus_minus_on,pos,season,team_id,tov_bad_pass,tov_lost_ball
23.0,1.0,23.0,0.0,5.0,0.0,5.0,23.0,NBA,121.0,1.0,0.0,0.0,61.0,34.0,5.0,7.1,7.9,SF,2005,BOS,3.0,0.0
24.0,7.0,90.0,26.0,54.0,12.0,78.0,72.0,NBA,997.0,42.0,0.0,1.0,47.0,51.0,2.0,-6.0,-7.2,SF,2006,TOT,18.0,13.0
24.0,0.0,14.0,7.0,15.0,2.0,16.0,32.0,NBA,291.0,8.0,0.0,3.0,73.0,23.0,2.0,-11.8,-12.6,SF,2006,BOS,8.0,2.0
24.0,7.0,76.0,19.0,39.0,10.0,62.0,40.0,NBA,706.0,34.0,0.0,0.0,36.0,62.0,1.0,-3.2,-4.8,SF,2006,MIN,10.0,11.0
25.0,2.0,39.0,9.0,13.0,4.0,22.0,41.0,NBA,318.0,19.0,0.0,0.0,12.0,53.0,35.0,-7.7,-11.3,PF,2007,MIN,4.0,9.0
