age,ast_per_g,blk_per_g,drb_per_g,efg_pct,fg2_pct,fg2_per_g,fg2a_per_g,fg3_pct,fg3_per_g,fg3a_per_g,fg_pct,fg_per_g,fga_per_g,ft_pct,ft_per_g,fta_per_g,g,gs,lg_id,mp_per_g,orb_per_g,pf_per_g,pos,pts_per_g,season,stl_per_g,team_id,tov_per_g,trb_per_g
23.0,0.4,0.0,0.3,0.517,0.577,0.7,1.1,0.0,0.0,0.1,0.517,0.7,1.3,0.733,0.5,0.7,23.0,0.0,NBA,5.3,0.3,0.5,SF,1.8,2005,0.1,BOS,0.2,0.7
24.0,0.6,0.2,1.0,0.403,0.405,1.7,4.1,0.0,0.0,0.0,0.403,1.7,4.1,0.725,1.2,1.7,72.0,6.0,NBA,13.8,0.7,2.3,SF,4.5,2006,0.3,TOT,0.7,1.7
24.0,0.2,0.1,0.5,0.338,0.338,0.8,2.3,0.0,0.0,0.0,0.338,0.8,2.3,0.625,0.8,1.3,32.0,0.0,NBA,9.1,0.4,1.4,SF,2.3,2006,0.2,BOS,0.5,0.9
24.0,0.9,0.3,1.4,0.425,0.427,2.4,5.5,0.0,0.0,0.0,0.425,2.4,5.5,0.775,1.6,2.0,40.0,6.0,NBA,17.7,1.0,3.0,SF,6.3,2006,0.5,MIN,0.9,2.4
25.0,0.4,0.1,0.8,0.374,0.374,1.0,2.6,0.0,0.0,0.0,0.374,1.0,2.6,0.867,0.6,0.7,41.0,3.0,NBA,7.8,0.4,1.1,PF,2.6,2007,0.1,MIN,0.5,1.1
