age,ast_per_mp,blk_per_mp,drb_per_mp,fg2_pct,fg2_per_mp,fg2a_per_mp,fg3_pct,fg3_per_mp,fg3a_per_mp,fg_pct,fg_per_mp,fga_per_mp,ft_pct,ft_per_mp,fta_per_mp,g,gs,lg_id,mp,orb_per_mp,pf_per_mp,pos,pts_per_mp,season,stl_per_mp,team_id,tov_per_mp,trb_per_mp
24.0,1.7,2.2,8.7,0.496,4.9,9.9,1.0,0.0,0.0,0.498,5.0,10.0,0.634,2.6,4.1,60.0,15.0,NBA,818.0,4.5,4.8,C,12.6,2014,1.3,MIN,2.4,13.2
25.0,2.4,2.1,6.3,0.51,4.2,8.3,0.167,0.0,0.1,0.506,4.3,8.4,0.783,3.1,4.0,73.0,49.0,NBA,2193.0,3.7,3.1,C,11.7,2015,1.2,MIN,2.1,10.0
26.0,2.3,1.6,6.9,0.54,4.9,9.1,0.3,0.1,0.3,0.532,5.0,9.4,0.827,3.3,4.0,82.0,39.0,NBA,2220.0,2.5,3.6,C,13.4,2016,1.5,MIN,2.3,9.5
27.0,2.1,1.3,6.2,0.511,4.3,8.4,0.372,0.2,0.6,0.502,4.5,9.0,0.814,1.8,2.3,82.0,82.0,NBA,2653.0,2.6,3.4,PF,11.1,2017,1.2,MIN,1.5,8.8
28.0,1.9,1.1,6.9,0.511,4.5,8.8,0.311,0.5,1.6,0.479,5.0,10.5,0.775,2.1,2.8,79.0,0.0,NBA,1333.0,2.9,4.0,C,12.7,2018,1.2,MIN,1.6,9.7
29.0,2.5,1.4,8.0,0.53,5.9,11.2,0.339,0.7,2.0,0.501,6.6,13.2,0.83,3.1,3.7,76.0,2.0,NBA,1031.0,2.8,4.7,C,16.9,2019,1.7,MIN,2.0,10.9
30.0,3.6,2.9,7.9,0.667,7.2,10.8,0.25,1.4,5.8,0.522,8.6,16.6,0.857,4.3,5.0,4.0,2.0,NBA,50.0,3.6,2.2,C,23.0,2020,2.2,MIN,2.2,11.5
