lg_id,salary,season,team_name
NBA,1352640.0,2014,Minnesota Timberwolves
NBA,1413480.0,2015,Minnesota Timberwolves
NBA,1474440.0,2016,Minnesota Timberwolves
NBA,2348783.0,2017,Minnesota Timberwolves
NBA,14112360.0,2018,Minnesota Timberwolves
NBA,15170787.0,2019,Minnesota Timberwolves
