age,ast_pct,blk_pct,bpm,bpm-dum,dbpm,drb_pct,dws,fg3a_per_fga_pct,fta_per_fga_pct,g,lg_id,mp,obpm,orb_pct,ows,per,pos,season,stl_pct,team_id,tov_pct,trb_pct,ts_pct,usg_pct,vorp,ws,ws-dum,ws_per_48
25.0,9.3,0.3,-1.8,0.0,-0.2,8.2,0.5,0.258,0.266,47.0,NBA,470.0,-1.6,8.6,0.1,8.4,SF,1991,1.5,UTA,14.8,8.4,0.495,15.3,0.0,0.6,0.0,0.057
30.0,2.9,0.0,-9.1,0.0,-5.2,13.5,0.0,0.545,0.182,13.0,NBA,53.0,-3.9,0.0,0.0,4.4,SF,1996,0.0,UTA,7.8,6.9,0.463,22.2,-0.1,0.0,0.0,-0.003
