age,ast,blk,drb,fg,fg2,fg2a,fg3,fg3a,fga,ft,fta,game_score,lg_id,mp,orb,pf,pts,season,stl,team_id,tov,trb
25.0,4.0,1.0,4.0,4.0,4.0,8.0,1.0,4.0,10.0,4.0,4.0,10.7,NBA,0.0,5.0,5.0,13.0,1991,2.0,UTA,2.0,5.0
30.0,1.0,0.0,1.0,2.0,2.0,3.0,1.0,2.0,5.0,3.0,4.0,2.8,NBA,0.0,0.0,3.0,5.0,1996,0.0,UTA,1.0,1.0
