age,avg_dist,fg2_dunk,fg2_pct,fg2_pct_ast,fg2a_pct_fga,fg3_heave,fg3_pct,fg3_pct_ast,fg3_pct_corner,fg3a_heave,fg3a_pct_fga,fg_pct,fg_pct_00_03,fg_pct_03_10,fg_pct_10_16,fg_pct_16_xx,g,lg_id,mp,pct_fg2_dunk,pct_fg3a_corner,pct_fga_00_03,pct_fga_03_10,pct_fga_10_16,pct_fga_16_xx,pos,season,team_id
24.0,11.4,2.0,0.381,0.438,0.618,0.0,0.385,0.7,0.4,0.0,0.382,0.382,0.538,0.083,0.5,0.0,16.0,NBA,181.0,0.029,0.192,0.382,0.176,0.029,0.015,SF,2018,TOT
24.0,8.5,0.0,0.0,0.0,0.75,0.0,1.0,1.0,0.0,0.0,0.25,0.25,0.0,0.0,0.0,0.0,4.0,NBA,19.0,0.0,0.0,0.25,0.5,0.0,0.0,SF,2018,NOP
24.0,11.6,2.0,0.41,0.438,0.609,0.0,0.36,0.667,0.4,0.0,0.391,0.391,0.56,0.1,0.5,0.0,12.0,NBA,162.0,0.031,0.2,0.391,0.156,0.031,0.016,SF,2018,DAL
25.0,14.8,3.0,0.471,0.25,0.548,0.0,0.357,1.0,0.375,0.0,0.452,0.419,0.714,0.357,0.333,0.0,16.0,NBA,214.0,0.048,0.286,0.226,0.226,0.048,0.048,SF,2019,CLE
