age,ast,blk,drb,efg_pct,fg,fg2,fg2_pct,fg2a,fg3,fg3_pct,fg3a,fg_pct,fga,ft,ft_pct,fta,g,gs,lg_id,mp,orb,pf,pos,pts,season,stl,team_id,tov,trb
22.0,33.0,40.0,73.0,0.532,114.0,106.0,0.596,178.0,8.0,0.182,44.0,0.514,222.0,51.0,0.689,74.0,51.0,1.0,NBA,702.0,62.0,92.0,PF,287.0,2016,19.0,PHI,32.0,135.0
23.0,58.0,55.0,217.0,0.591,230.0,203.0,0.606,335.0,27.0,0.351,77.0,0.558,412.0,72.0,0.699,103.0,57.0,17.0,NBA,1193.0,94.0,136.0,C,559.0,2017,42.0,PHI,55.0,311.0
24.0,61.0,29.0,154.0,0.568,135.0,131.0,0.624,210.0,4.0,0.129,31.0,0.56,241.0,37.0,0.661,56.0,48.0,2.0,NBA,746.0,57.0,97.0,C,311.0,2018,20.0,PHI,25.0,211.0
25.0,60.0,79.0,216.0,0.608,222.0,222.0,0.608,365.0,0.0,0.0,0.0,0.608,365.0,128.0,0.731,175.0,70.0,4.0,NBA,1184.0,115.0,194.0,C,572.0,2019,42.0,PHO,52.0,331.0
26.0,9.0,14.0,48.0,0.652,45.0,45.0,0.652,69.0,0.0,0.0,0.0,0.652,69.0,11.0,0.688,16.0,10.0,6.0,NBA,257.0,25.0,38.0,C,101.0,2020,7.0,SAC,10.0,73.0
