age,ast_per_g,blk_per_g,drb_per_g,efg_pct,fg2_pct,fg2_per_g,fg2a_per_g,fg3_pct,fg3_per_g,fg3a_per_g,fg_pct,fg_per_g,fga_per_g,ft_pct,ft_per_g,fta_per_g,g,gs,lg_id,mp_per_g,orb_per_g,pf_per_g,pos,pts_per_g,season,stl_per_g,team_id,tov_per_g,trb_per_g
23.0,2.1,0.8,2.5,0.458,0.457,3.7,8.0,0.317,0.2,0.5,0.448,3.8,8.5,0.792,2.5,3.2,82.0,42.0,NBA,26.8,1.9,3.0,SF,10.3,1983,0.8,CHI,1.5,4.5
24.0,1.5,0.4,1.5,0.448,0.468,2.5,5.3,0.045,0.0,0.3,0.447,2.5,5.5,0.724,1.4,2.0,78.0,6.0,NBA,20.2,1.1,2.1,SF,6.4,1984,0.6,CHI,1.0,2.6
25.0,1.1,0.2,1.4,0.459,0.468,1.6,3.4,0.27,0.1,0.5,0.441,1.8,4.0,0.667,0.9,1.3,68.0,5.0,NBA,13.9,0.8,1.3,SF,4.5,1985,0.3,CHI,0.7,2.2
26.0,0.8,0.4,1.2,0.373,0.392,1.3,3.2,0.111,0.0,0.3,0.368,1.3,3.5,0.704,0.6,0.9,30.0,0.0,NBA,11.1,0.5,1.6,SF,3.3,1986,0.3,TOT,0.4,1.7
26.0,0.5,0.1,0.8,0.352,0.348,0.7,1.9,0.25,0.1,0.3,0.333,0.8,2.3,0.6,0.3,0.4,12.0,0.0,NBA,7.8,0.3,0.9,SF,1.8,1986,0.2,SEA,0.3,1.0
26.0,1.1,0.3,1.7,0.45,0.474,1.6,3.5,0.0,0.0,0.2,0.45,1.6,3.6,0.688,1.0,1.5,11.0,0.0,NBA,11.6,0.5,1.9,SF,4.3,1986,0.2,SAS,0.5,2.2
26.0,0.5,2.0,2.5,0.188,0.214,1.5,7.0,0.0,0.0,1.0,0.188,1.5,8.0,0.0,0.0,0.0,2.0,0.0,NBA,14.5,1.5,3.0,SF,3.0,1986,0.5,NJN,1.0,4.0
26.0,1.0,0.6,0.8,0.391,0.409,1.8,4.4,0.0,0.0,0.2,0.391,1.8,4.6,0.833,1.0,1.2,5.0,0.0,NBA,16.2,0.6,2.2,SF,4.6,1986,0.8,CHI,0.4,1.4
27.0,1.3,0.3,2.3,0.523,0.534,2.9,5.4,0.176,0.0,0.2,0.519,2.9,5.6,0.833,2.7,3.3,73.0,28.0,NBA,20.5,1.0,2.0,SF,8.6,1987,0.5,GSW,1.0,3.2
28.0,2.8,0.5,2.9,0.539,0.528,5.3,10.1,0.487,0.3,0.6,0.526,5.6,10.7,0.848,4.0,4.7,68.0,67.0,NBA,32.2,1.4,2.8,SF,15.5,1988,1.0,GSW,1.6,4.3
29.0,2.0,0.5,3.3,0.528,0.505,2.9,5.7,0.393,0.8,2.1,0.476,3.7,7.8,0.821,2.3,2.8,81.0,1.0,NBA,23.3,1.4,2.1,PF,10.6,1989,0.5,GSW,0.9,4.6
30.0,1.6,0.6,3.7,0.534,0.54,2.9,5.4,0.347,0.8,2.4,0.481,3.7,7.7,0.821,2.9,3.5,82.0,22.0,NBA,24.3,1.5,2.2,PF,11.1,1990,0.6,GSW,1.1,5.1
31.0,1.4,0.5,3.0,0.529,0.549,2.3,4.1,0.332,0.9,2.7,0.463,3.2,6.8,0.819,2.3,2.8,82.0,9.0,NBA,24.7,1.3,2.4,SF,9.5,1991,0.6,GSW,0.8,4.3
32.0,0.9,0.5,2.2,0.491,0.466,2.2,4.6,0.347,1.3,3.8,0.412,3.5,8.4,0.814,1.9,2.4,25.0,6.0,NBA,21.4,1.2,3.0,SF,10.2,1992,0.6,GSW,0.6,3.4
33.0,1.7,0.4,1.8,0.457,0.446,2.3,5.1,0.323,0.6,1.9,0.412,2.9,7.0,0.861,1.9,2.2,69.0,4.0,NBA,20.7,1.0,2.0,SF,8.3,1993,0.7,SAC,0.9,2.8
34.0,1.0,0.4,1.6,0.503,0.434,1.4,3.1,0.44,0.6,1.4,0.436,2.0,4.5,0.738,0.9,1.2,36.0,11.0,NBA,15.2,0.7,1.5,SF,5.4,1994,0.7,CLE,0.6,2.3
35.0,0.6,0.2,0.6,0.292,0.333,0.4,1.2,0.167,0.2,1.2,0.25,0.6,2.4,0.75,0.6,0.8,5.0,2.0,NBA,9.2,0.8,1.4,SF,2.0,1995,0.2,GSW,0.2,1.4
