age,ast_per_poss,blk_per_poss,def_rtg,drb_per_poss,fg2_pct,fg2_per_poss,fg2a_per_poss,fg3_pct,fg3_per_poss,fg3a_per_poss,fg_pct,fg_per_poss,fga_per_poss,ft_pct,ft_per_poss,fta_per_poss,g,gs,lg_id,mp,off_rtg,orb_per_poss,pf_per_poss,pos,pts_per_poss,season,stl_per_poss,team_id,tov_per_poss,trb_per_poss
23.0,3.6,1.3,109.0,4.3,0.457,6.2,13.5,0.317,0.3,0.8,0.448,6.4,14.4,0.792,4.3,5.4,82.0,42.0,NBA,2196.0,108.0,3.3,5.1,SF,17.5,1983,1.4,CHI,2.6,7.5
24.0,3.5,0.9,109.0,3.6,0.468,5.9,12.5,0.045,0.0,0.7,0.447,5.9,13.2,0.724,3.4,4.8,78.0,6.0,NBA,1577.0,104.0,2.7,4.9,SF,15.3,1984,1.5,CHI,2.3,6.3
25.0,3.7,0.7,112.0,4.7,0.468,5.6,11.9,0.27,0.5,1.9,0.441,6.1,13.8,0.667,3.1,4.6,68.0,5.0,NBA,942.0,104.0,2.8,4.7,SF,15.8,1985,1.1,CHI,2.5,7.5
26.0,3.4,1.6,109.0,5.3,0.392,5.4,13.9,0.111,0.1,1.3,0.368,5.6,15.2,0.704,2.7,3.9,30.0,0.0,NBA,332.0,94.0,2.0,7.0,SF,14.0,1986,1.3,TOT,1.9,7.3
26.0,3.1,0.5,108.0,4.7,0.348,4.2,12.1,0.25,0.5,2.1,0.333,4.7,14.2,0.6,1.6,2.6,12.0,0.0,NBA,94.0,84.0,1.6,5.8,SF,11.5,1986,1.0,SEA,2.1,6.3
26.0,4.3,1.1,109.0,6.9,0.474,6.5,13.7,0.0,0.0,0.7,0.45,6.5,14.4,0.688,4.0,5.8,11.0,0.0,NBA,128.0,108.0,1.8,7.6,SF,17.0,1986,0.7,SAS,1.8,8.7
26.0,1.6,6.4,100.0,8.0,0.214,4.8,22.4,0.0,0.0,3.2,0.188,4.8,25.6,0.0,0.0,0.0,2.0,0.0,NBA,29.0,53.0,4.8,9.6,SF,9.6,1986,1.6,NJN,3.2,12.8
26.0,3.0,1.8,112.0,2.4,0.409,5.3,13.1,0.0,0.0,0.6,0.391,5.3,13.7,0.833,3.0,3.6,5.0,0.0,NBA,81.0,104.0,1.8,6.5,SF,13.7,1986,2.4,CHI,1.2,4.2
27.0,3.0,0.7,112.0,5.2,0.534,6.7,12.5,0.176,0.1,0.5,0.519,6.7,13.0,0.833,6.3,7.6,73.0,28.0,NBA,1497.0,120.0,2.3,4.6,SF,19.9,1987,1.3,GSW,2.4,7.5
28.0,4.1,0.7,114.0,4.3,0.528,7.8,14.8,0.487,0.4,0.8,0.526,8.2,15.7,0.848,5.9,7.0,68.0,67.0,NBA,2188.0,121.0,2.0,4.1,SF,22.8,1988,1.5,GSW,2.4,6.3
29.0,3.8,1.0,110.0,6.3,0.505,5.6,11.0,0.393,1.6,4.0,0.476,7.1,15.0,0.821,4.5,5.4,81.0,1.0,NBA,1887.0,123.0,2.6,4.1,PF,20.3,1989,0.9,GSW,1.8,8.9
30.0,2.9,1.2,113.0,6.9,0.54,5.4,10.0,0.347,1.5,4.4,0.481,6.9,14.4,0.821,5.3,6.5,82.0,22.0,NBA,1993.0,120.0,2.7,4.2,PF,20.7,1990,1.1,GSW,2.1,9.6
31.0,2.6,0.8,112.0,5.6,0.549,4.3,7.8,0.332,1.7,5.0,0.463,5.9,12.8,0.819,4.2,5.2,82.0,9.0,NBA,2024.0,124.0,2.5,4.5,SF,17.8,1991,1.2,GSW,1.5,8.1
32.0,1.9,1.1,112.0,4.8,0.466,4.7,10.1,0.347,2.9,8.2,0.412,7.5,18.3,0.814,4.2,5.1,25.0,6.0,NBA,535.0,118.0,2.6,6.5,SF,22.1,1992,1.3,GSW,1.3,7.4
33.0,4.0,1.0,111.0,4.2,0.446,5.2,11.7,0.323,1.4,4.4,0.412,6.7,16.1,0.861,4.3,5.0,69.0,4.0,NBA,1425.0,110.0,2.2,4.7,SF,19.1,1993,1.7,SAC,2.1,6.5
34.0,3.4,1.3,104.0,5.5,0.434,4.7,10.8,0.44,2.1,4.8,0.436,6.8,15.6,0.738,3.0,4.0,36.0,11.0,NBA,547.0,111.0,2.4,5.1,SF,18.7,1994,2.4,CLE,2.0,7.9
35.0,3.2,1.1,115.0,3.2,0.333,2.1,6.4,0.167,1.1,6.4,0.25,3.2,12.8,0.75,3.2,4.3,5.0,2.0,NBA,46.0,97.0,4.3,7.5,SF,10.7,1995,1.1,GSW,1.1,7.5
