age,ast,blk,drb,efg_pct,fg,fg2,fg2_pct,fg2a,fg3,fg3_pct,fg3a,fg_pct,fga,ft,ft_pct,fta,g,gs,lg_id,mp,orb,pf,pos,pts,season,stl,team_id,tov,trb
25.0,0.0,0.0,0.0,0.0,0.0,0.0,0.0,0.0,0.0,0.0,0.0,0.0,0.0,0.0,0.0,0.0,1.0,0.0,NBA,1.0,0.0,0.0,SF,0.0,1985,0.0,CHI,0.0,0.0
27.0,12.0,6.0,16.0,0.402,18.0,17.0,0.378,45.0,1.0,1.0,1.0,0.391,46.0,6.0,0.667,9.0,10.0,8.0,NBA,177.0,5.0,20.0,SF,43.0,1987,11.0,GSW,2.0,21.0
29.0,20.0,7.0,36.0,0.549,40.0,30.0,0.638,47.0,10.0,0.286,35.0,0.488,82.0,29.0,0.853,34.0,8.0,7.0,NBA,267.0,23.0,19.0,PF,119.0,1989,13.0,GSW,11.0,59.0
31.0,18.0,8.0,20.0,0.492,26.0,18.0,0.514,35.0,8.0,0.308,26.0,0.426,61.0,23.0,0.821,28.0,9.0,3.0,NBA,214.0,9.0,28.0,SF,83.0,1991,2.0,GSW,7.0,29.0
32.0,1.0,0.0,0.0,0.4,2.0,2.0,0.667,3.0,0.0,0.0,2.0,0.4,5.0,2.0,1.0,2.0,2.0,2.0,NBA,17.0,0.0,1.0,SF,6.0,1992,1.0,GSW,0.0,0.0
34.0,4.0,1.0,2.0,0.455,4.0,2.0,0.5,4.0,2.0,0.286,7.0,0.364,11.0,1.0,0.5,2.0,3.0,2.0,NBA,57.0,2.0,10.0,SF,11.0,1994,1.0,CLE,3.0,4.0
