age,avg_dist,fg2_dunk,fg2_pct,fg2_pct_ast,fg2a_pct_fga,fg3_heave,fg3_pct,fg3_pct_ast,fg3_pct_corner,fg3a_heave,fg3a_pct_fga,fg_pct,fg_pct_00_03,fg_pct_03_10,fg_pct_10_16,fg_pct_16_xx,g,lg_id,mp,pct_fg2_dunk,pct_fg3a_corner,pct_fga_00_03,pct_fga_03_10,pct_fga_10_16,pct_fga_16_xx,pos,season,team_id
23.0,17.2,0.0,0.429,0.0,0.56,0.0,0.182,1.0,0.0,1.0,0.44,0.32,0.4,0.75,0.25,0.0,12.0,NBA,65.0,0.0,0.091,0.2,0.16,0.16,0.04,PG,2015,TOT
23.0,18.8,0.0,0.25,0.0,0.4,0.0,0.167,1.0,0.0,0.0,0.6,0.2,0.5,0.0,0.0,0.0,6.0,NBA,29.0,0.0,0.0,0.2,0.1,0.1,0.0,PG,2015,NOP
23.0,16.2,0.0,0.5,0.0,0.667,0.0,0.2,1.0,0.0,1.0,0.333,0.4,0.333,1.0,0.333,0.0,6.0,NBA,36.0,0.0,0.2,0.2,0.2,0.2,0.067,PG,2015,MEM
24.0,8.6,1.0,0.353,0.167,0.773,0.0,0.2,1.0,1.0,0.0,0.227,0.318,0.5,0.0,0.0,1.0,15.0,NBA,66.0,0.045,0.2,0.455,0.227,0.045,0.045,PG,2016,MEM
