age,ast,blk,drb,fg,fg2,fg2a,fg3,fg3a,fga,ft,fta,game_score,lg_id,mp,orb,pf,pts,season,stl,team_id,tov,trb
23.0,4.0,3.0,8.0,9.0,9.0,15.0,0.0,1.0,15.0,4.0,5.0,16.9,NBA,0.0,7.0,5.0,20.0,1991,3.0,TOT,3.0,11.0
23.0,4.0,2.0,6.0,7.0,7.0,12.0,0.0,1.0,12.0,3.0,4.0,15.7,NBA,0.0,7.0,5.0,15.0,1991,3.0,DEN,3.0,9.0
23.0,3.0,3.0,8.0,9.0,9.0,15.0,0.0,1.0,15.0,4.0,5.0,16.9,NBA,0.0,4.0,4.0,20.0,1991,3.0,NJN,3.0,11.0
24.0,4.0,3.0,13.0,10.0,10.0,17.0,2.0,2.0,18.0,7.0,11.0,21.2,NBA,0.0,10.0,6.0,25.0,1992,3.0,NJN,5.0,19.0
25.0,6.0,3.0,12.0,16.0,15.0,28.0,3.0,6.0,28.0,8.0,11.0,32.4,NBA,0.0,9.0,6.0,41.0,1993,3.0,DET,4.0,16.0
26.0,6.0,4.0,13.0,15.0,15.0,23.0,2.0,4.0,23.0,11.0,13.0,31.0,NBA,0.0,9.0,6.0,35.0,1994,3.0,DET,6.0,17.0
27.0,7.0,3.0,12.0,14.0,11.0,18.0,6.0,11.0,24.0,8.0,10.0,28.5,NBA,0.0,5.0,6.0,37.0,1995,3.0,DET,6.0,17.0
28.0,5.0,2.0,9.0,10.0,10.0,16.0,6.0,8.0,17.0,8.0,10.0,19.1,NBA,0.0,5.0,5.0,24.0,1996,2.0,DET,4.0,13.0
29.0,9.0,3.0,14.0,11.0,9.0,13.0,7.0,14.0,19.0,6.0,6.0,26.8,NBA,0.0,4.0,6.0,29.0,1997,3.0,DET,3.0,14.0
30.0,3.0,1.0,9.0,9.0,7.0,9.0,3.0,5.0,11.0,4.0,4.0,13.9,NBA,0.0,4.0,6.0,20.0,1998,2.0,MIA,3.0,10.0
31.0,0.0,0.0,1.0,3.0,1.0,4.0,2.0,4.0,8.0,1.0,2.0,3.4,NBA,0.0,3.0,3.0,9.0,1999,1.0,MIA,3.0,4.0
32.0,4.0,2.0,11.0,10.0,6.0,9.0,6.0,9.0,15.0,3.0,4.0,19.9,NBA,0.0,3.0,6.0,24.0,2000,3.0,DET,3.0,12.0
33.0,2.0,1.0,3.0,3.0,2.0,4.0,2.0,3.0,6.0,0.0,0.0,3.3,NBA,0.0,2.0,6.0,8.0,2001,1.0,IND,2.0,5.0
