age,ast_per_poss,blk_per_poss,def_rtg,drb_per_poss,fg2_pct,fg2_per_poss,fg2a_per_poss,fg3_pct,fg3_per_poss,fg3a_per_poss,fg_pct,fg_per_poss,fga_per_poss,ft_pct,ft_per_poss,fta_per_poss,g,gs,lg_id,mp,off_rtg,orb_per_poss,pf_per_poss,pos,pts_per_poss,season,stl_per_poss,team_id,tov_per_poss,trb_per_poss
20.0,4.8,0.6,116.0,4.2,0.457,3.1,6.9,0.385,3.1,8.0,0.419,6.2,14.8,0.732,0.9,1.3,75.0,59.0,NBA,2048.0,106.0,1.4,3.5,SG,16.4,2019,1.5,ATL,2.5,5.5
21.0,5.9,0.6,111.0,6.1,0.484,3.2,6.5,0.386,3.6,9.3,0.427,6.7,15.8,0.8,2.5,3.2,10.0,3.0,NBA,225.0,107.0,1.3,4.4,SG,19.6,2020,1.3,ATL,3.6,7.4
