age,ast_per_mp,blk_per_mp,drb_per_mp,fg2_pct,fg2_per_mp,fg2a_per_mp,fg3_pct,fg3_per_mp,fg3a_per_mp,fg_pct,fg_per_mp,fga_per_mp,ft_pct,ft_per_mp,fta_per_mp,g,gs,lg_id,mp,orb_per_mp,pf_per_mp,pos,pts_per_mp,season,stl_per_mp,team_id,tov_per_mp,trb_per_mp
20.0,3.8,0.4,3.3,0.457,2.4,5.3,0.385,2.4,6.2,0.419,4.8,11.5,0.732,0.7,1.0,75.0,59.0,NBA,2048.0,1.1,2.7,SG,12.8,2019,1.1,ATL,1.9,4.3
21.0,4.5,0.5,4.6,0.484,2.4,5.0,0.386,2.7,7.0,0.427,5.1,12.0,0.8,1.9,2.4,10.0,3.0,NBA,225.0,1.0,3.4,SG,14.9,2020,1.0,ATL,2.7,5.6
