article_url,date,headline
https://thunderousintentions.com/2019/11/14/terrance-ferguson-off-court-issues-clearly-affecting-court-production/,2019/11/14,Thunderous Intentions: Terrance Ferguson off court issues clearly affecting his on court production
https://hoopshabit.com/2019/11/14/denver-nuggets-notable-trends-10-games/,2019/11/14,Hoops Habit: Notable Denver Nuggets trends through 10 games
https://hoopshabit.com/2019/11/12/oklahoma-city-thunder-danilo-gallinari-team-3-point-basement/,2019/11/12,Hoops Habit: Danilo Gallinari has Oklahoma City Thunder out of 3-point shooting basement
https://thunderousintentions.com/2019/11/09/okc-thunder-rebounding-regression/,2019/11/09,Thunderous Intentions: Grab the Windex - OKC Thunder rebounding regression is key to losses
