age,ast,blk,drb,fg,fg2,fg2a,fg3,fg3a,fga,ft,fta,game_score,lg_id,mp,orb,pf,pts,season,stl,team_id,tov,trb
20.0,4.0,8.0,6.0,5.0,5.0,7.0,3.0,8.0,13.0,8.0,10.0,14.8,NBA,42,3.0,6.0,18.0,2015,3.0,PHI,5.0,7.0
21.0,6.0,5.0,8.0,8.0,7.0,11.0,3.0,7.0,17.0,9.0,14.0,19.0,NBA,44,5.0,6.0,21.0,2016,4.0,PHI,5.0,11.0
22.0,4.0,5.0,7.0,5.0,4.0,9.0,3.0,5.0,12.0,5.0,8.0,15.8,NBA,34,3.0,5.0,15.0,2017,3.0,TOT,2.0,8.0
22.0,0.0,2.0,3.0,4.0,4.0,9.0,0.0,1.0,10.0,2.0,4.0,3.3,NBA,22,0.0,3.0,10.0,2017,0.0,PHI,2.0,3.0
22.0,4.0,5.0,7.0,5.0,4.0,9.0,3.0,5.0,12.0,5.0,8.0,15.8,NBA,34,3.0,5.0,15.0,2017,3.0,OKC,2.0,8.0
23.0,3.0,3.0,9.0,8.0,6.0,10.0,2.0,4.0,14.0,9.0,11.0,18.2,NBA,36,5.0,5.0,20.0,2018,3.0,OKC,2.0,12.0
24.0,5.0,5.0,9.0,11.0,9.0,15.0,5.0,10.0,20.0,7.0,8.0,26.0,NBA,44,6.0,6.0,28.0,2019,3.0,OKC,4.0,14.0
25.0,3.0,2.0,6.0,7.0,7.0,8.0,2.0,6.0,13.0,4.0,4.0,11.7,NBA,32,2.0,4.0,15.0,2020,2.0,DEN,2.0,6.0
