article_url,date,headline
https://dunkingwithwolves.com/2019/11/06/player-grades-minnesota-timberwolves-loss-grizzlies/,2019/11/06,Dunking with Wolves: Player grades from Minnesota Timberwolves' loss to the Grizzlies
https://www.fantasycruncher.com/articles/2019/11/06/fanduel-nba-dfs-core-plays-cheat-sheet-november-6-2019/,2019/11/06,"Fantasy Cruncher: FanDuel NBA DFS Core Plays & Cheat Sheet – November 6, 2019"
https://fansided.com/2019/11/06/nba-dfs-studs-scrubs-duds-11-6/,2019/11/06,"FanSided: NBA DFS: Studs, Scrubs, & Duds -- Nov. 6"
