age,ast,blk,drb,efg_pct,fg,fg2,fg2_pct,fg2a,fg3,fg3_pct,fg3a,fg_pct,fga,ft,ft_pct,fta,g,gs,lg_id,mp,orb,pf,pos,pts,season,stl,team_id,tov,trb
22.0,135.0,17.0,208.0,0.501,340.0,246.0,0.484,508.0,94.0,0.356,264.0,0.44,772.0,124.0,0.747,166.0,82.0,74.0,NBA,2350.0,49.0,233.0,SF,898.0,2018,73.0,MEM,124.0,257.0
23.0,16.0,4.0,22.0,0.463,49.0,34.0,0.415,82.0,15.0,0.375,40.0,0.402,122.0,22.0,0.733,30.0,18.0,0.0,NBA,330.0,9.0,50.0,SF,135.0,2019,10.0,MEM,19.0,31.0
24.0,12.0,2.0,22.0,0.517,38.0,24.0,0.453,53.0,14.0,0.412,34.0,0.437,87.0,16.0,0.941,17.0,7.0,7.0,NBA,194.0,6.0,34.0,SF,106.0,2020,8.0,MEM,9.0,28.0
