age,ast_pct,blk_pct,bpm,bpm-dum,dbpm,drb_pct,dws,fg3a_per_fga_pct,fta_per_fga_pct,g,lg_id,mp,obpm,orb_pct,ows,per,pos,season,stl_pct,team_id,tov_pct,trb_pct,ts_pct,usg_pct,vorp,ws,ws-dum,ws_per_48
22.0,15.5,0.7,-1.8,0.0,-2.2,9.3,0.8,0.135,0.238,79.0,NBA,2415.0,0.4,5.9,0.9,14.2,SG,1994,1.1,MIN,15.0,7.6,0.533,26.2,0.1,1.7,0.0,0.034
23.0,18.7,0.7,-0.8,0.0,-2.9,7.3,0.4,0.317,0.271,75.0,NBA,2645.0,2.0,4.2,1.4,15.6,SG,1995,1.4,MIN,14.2,5.8,0.548,28.2,0.8,1.9,0.0,0.034
24.0,15.3,0.7,-1.2,0.0,-2.6,9.7,0.8,0.228,0.245,75.0,NBA,2594.0,1.4,4.6,2.6,15.6,SG,1996,0.9,MIN,13.1,7.1,0.55,26.3,0.5,3.4,0.0,0.063
25.0,13.4,0.6,-0.5,0.0,-1.0,9.4,2.4,0.261,0.266,76.0,NBA,2563.0,0.4,4.5,2.6,13.8,SG,1997,0.9,POR,16.2,7.0,0.557,23.0,1.0,5.0,0.0,0.093
26.0,15.7,0.5,0.3,0.0,-1.4,10.0,2.5,0.323,0.205,74.0,NBA,2786.0,1.7,4.3,3.2,15.2,SG,1998,1.1,POR,11.6,7.2,0.514,26.1,1.6,5.8,0.0,0.099
27.0,14.0,0.5,-1.4,0.0,-1.0,11.0,1.5,0.183,0.243,47.0,NBA,1385.0,-0.4,5.1,1.0,13.7,SG,1999,1.0,POR,12.4,8.2,0.486,25.3,0.2,2.5,0.0,0.086
28.0,19.4,0.2,-1.6,0.0,-2.6,10.2,0.4,0.168,0.243,60.0,NBA,2084.0,1.0,3.3,1.2,15.7,SG,2000,1.0,ATL,12.4,6.8,0.488,28.8,0.2,1.6,0.0,0.037
29.0,15.0,0.4,-4.3,0.0,-2.7,10.4,0.5,0.195,0.176,67.0,NBA,1206.0,-1.7,4.2,0.3,11.8,SG,2001,1.2,LAL,16.2,7.3,0.499,22.5,-0.7,0.8,0.0,0.033
30.0,13.3,0.9,-3.4,0.0,-2.8,15.9,0.1,0.185,0.21,10.0,NBA,173.0,-0.6,6.3,0.1,16.3,SG,2002,0.9,DEN,13.7,10.9,0.526,26.5,-0.1,0.2,0.0,0.05
