age,ast_per_mp,blk_per_mp,drb_per_mp,fg2_pct,fg2_per_mp,fg2a_per_mp,fg3_pct,fg3_per_mp,fg3a_per_mp,fg_pct,fg_per_mp,fga_per_mp,ft_pct,ft_per_mp,fta_per_mp,g,gs,lg_id,mp,orb_per_mp,pf_per_mp,pos,pts_per_mp,season,stl_per_mp,team_id,tov_per_mp,trb_per_mp
22.0,3.0,0.4,2.9,0.485,7.0,14.4,0.36,0.8,2.2,0.468,7.8,16.6,0.811,3.2,4.0,79.0,60.0,NBA,2415.0,1.8,2.9,SG,19.6,1994,0.8,MIN,3.2,4.7
23.0,3.3,0.3,2.2,0.491,5.7,11.6,0.351,1.9,5.4,0.447,7.6,17.0,0.817,3.8,4.6,75.0,67.0,NBA,2645.0,1.2,2.6,SG,20.9,1995,0.9,MIN,3.2,3.4
24.0,3.0,0.3,2.9,0.492,6.4,12.9,0.371,1.4,3.8,0.464,7.8,16.7,0.838,3.4,4.1,75.0,68.0,NBA,2594.0,1.4,2.8,SG,20.4,1996,0.7,MIN,2.8,4.3
25.0,2.8,0.3,2.9,0.492,5.0,10.2,0.385,1.4,3.6,0.464,6.4,13.8,0.812,3.0,3.7,76.0,68.0,NBA,2563.0,1.3,2.8,SG,17.2,1997,0.6,POR,3.0,4.3
26.0,3.0,0.2,3.2,0.472,5.4,11.4,0.321,1.7,5.4,0.423,7.1,16.8,0.828,2.9,3.5,74.0,66.0,NBA,2786.0,1.3,2.4,SG,18.8,1998,0.7,POR,2.4,4.5
27.0,2.7,0.2,3.6,0.419,5.4,12.8,0.378,1.1,2.9,0.412,6.5,15.7,0.755,2.9,3.8,47.0,41.0,NBA,1385.0,1.5,2.6,SG,16.9,1999,0.6,POR,2.5,5.1
28.0,3.8,0.1,3.4,0.441,6.8,15.4,0.311,1.0,3.1,0.419,7.8,18.5,0.785,3.5,4.5,60.0,47.0,NBA,2084.0,1.1,2.3,SG,20.0,2000,0.7,ATL,2.9,4.5
29.0,3.3,0.2,3.3,0.439,5.0,11.3,0.37,1.0,2.7,0.426,6.0,14.1,0.855,2.1,2.5,67.0,6.0,NBA,1206.0,1.3,3.1,SG,15.1,2001,0.8,LAL,2.9,4.7
30.0,2.5,0.4,4.8,0.47,6.5,13.7,0.4,1.2,3.1,0.457,7.7,16.9,0.765,2.7,3.5,10.0,1.0,NBA,173.0,2.1,2.3,SG,19.4,2002,0.6,DEN,2.9,6.9
