age,ast_per_mp,blk_per_mp,drb_per_mp,fg2_pct,fg2_per_mp,fg2a_per_mp,fg3_pct,fg3_per_mp,fg3a_per_mp,fg_pct,fg_per_mp,fga_per_mp,ft_pct,ft_per_mp,fta_per_mp,g,gs,lg_id,mp,orb_per_mp,pf_per_mp,pos,pts_per_mp,season,stl_per_mp,team_id,tov_per_mp,trb_per_mp
21.0,4.5,0.0,3.0,0.333,4.5,13.5,0.0,0.0,0.0,0.333,4.5,13.5,1.0,3.0,3.0,3.0,0.0,NBA,24.0,1.5,1.5,PG,12.0,1992,1.5,NJN,1.5,4.5
23.0,5.4,0.0,2.0,0.364,3.2,8.8,0.3,0.6,2.0,0.352,3.8,10.7,0.667,4.4,6.6,4.0,4.0,NBA,181.0,0.4,2.2,PG,12.5,1994,1.8,NJN,1.8,2.4
26.0,4.0,0.2,3.2,0.63,3.6,5.8,0.263,1.1,4.0,0.478,4.7,9.8,0.95,4.0,4.3,4.0,4.0,NBA,169.0,0.4,2.1,PG,14.5,1997,1.5,POR,2.3,3.6
31.0,4.9,0.0,2.4,0.416,5.3,12.7,0.0,0.0,0.0,0.416,5.3,12.7,0.8,1.8,2.3,16.0,16.0,NBA,560.0,0.8,3.7,PG,12.3,2002,1.4,BOS,1.8,3.2
32.0,6.4,0.0,1.4,0.333,2.8,8.5,0.0,0.0,0.0,0.333,2.8,8.5,1.0,2.1,2.1,5.0,0.0,NBA,51.0,0.0,4.2,PG,7.8,2003,2.1,NOH,2.8,1.4
33.0,1.9,0.0,1.9,0.286,3.8,13.3,0.0,0.0,0.0,0.286,3.8,13.3,0.0,0.0,0.0,4.0,0.0,NBA,19.0,0.0,5.7,PG,7.6,2004,1.9,IND,9.5,1.9
