age,ast,blk,drb,fg,fg2,fg2a,fg3,fg3a,fga,ft,fta,game_score,lg_id,mp,orb,pf,pts,season,stl,team_id,tov,trb
21.0,2.0,0.0,2.0,2.0,2.0,6.0,0.0,0.0,6.0,2.0,2.0,4.2,NBA,0.0,1.0,1.0,6.0,1992,1.0,NJN,1.0,3.0
23.0,11.0,0.0,5.0,6.0,6.0,15.0,1.0,5.0,15.0,9.0,13.0,15.4,NBA,0.0,2.0,5.0,21.0,1994,3.0,NJN,4.0,5.0
26.0,7.0,1.0,5.0,9.0,6.0,10.0,3.0,6.0,15.0,9.0,10.0,29.7,NBA,0.0,1.0,3.0,30.0,1997,3.0,POR,5.0,5.0
31.0,8.0,0.0,5.0,8.0,8.0,18.0,0.0,0.0,18.0,4.0,5.0,14.5,NBA,0.0,3.0,6.0,18.0,2002,3.0,BOS,4.0,7.0
32.0,3.0,0.0,2.0,2.0,2.0,7.0,0.0,0.0,7.0,3.0,3.0,5.2,NBA,0.0,0.0,2.0,7.0,2003,2.0,TOT,1.0,2.0
32.0,3.0,0.0,2.0,2.0,2.0,7.0,0.0,0.0,7.0,3.0,3.0,5.2,NBA,0.0,0.0,2.0,7.0,2003,2.0,NOH,1.0,2.0
33.0,1.0,0.0,1.0,2.0,2.0,4.0,0.0,0.0,4.0,0.0,0.0,2.0,NBA,0.0,0.0,1.0,4.0,2004,1.0,IND,3.0,1.0
