lg_id,salary,season,team_name
NBA,175000.0,1988,Portland Trail Blazers
NBA,2000000.0,1989,Portland Trail Blazers
NBA,2100000.0,1990,Portland Trail Blazers
NBA,1710000.0,1991,Portland Trail Blazers
NBA,2013000.0,1992,Portland Trail Blazers
NBA,2213000.0,1993,Portland Trail Blazers
NBA,2313000.0,1994,Washington Bullets
NBA,2612500.0,1995,Washington Bullets
NBA,2863000.0,1996,Milwaukee Bucks
NBA,247500.0,1997,Los Angeles Clippers
