age,ast_per_g,blk_per_g,drb_per_g,efg_pct,fg2_pct,fg2_per_g,fg2a_per_g,fg3_pct,fg3_per_g,fg3a_per_g,fg_pct,fg_per_g,fga_per_g,ft_pct,ft_per_g,fta_per_g,g,gs,lg_id,mp_per_g,orb_per_g,pf_per_g,pos,pts_per_g,season,stl_per_g,team_id,tov_per_g,trb_per_g
22.0,0.4,0.3,2.3,0.476,0.478,2.0,4.2,0.0,0.0,0.0,0.476,2.0,4.2,0.687,1.4,2.1,65.0,1.0,NBA,13.5,1.2,3.0,C,5.4,1987,0.3,TOT,1.2,3.4
22.0,0.4,0.2,1.3,0.4,0.4,1.3,3.2,0.0,0.0,0.0,0.4,1.3,3.2,0.643,0.6,1.0,14.0,1.0,NBA,8.7,0.9,1.9,C,3.2,1987,0.4,SAS,0.3,2.2
22.0,0.5,0.4,2.5,0.491,0.493,2.2,4.5,0.0,0.0,0.0,0.491,2.2,4.5,0.692,1.6,2.4,51.0,0.0,NBA,14.8,1.2,3.2,C,6.0,1987,0.3,POR,1.5,3.8
23.0,0.8,0.4,4.5,0.496,0.496,5.8,11.6,0.0,0.0,0.0,0.496,5.8,11.6,0.77,4.2,5.5,78.0,50.0,NBA,28.5,2.9,3.6,C,15.8,1988,0.4,POR,2.3,7.4
24.0,0.8,0.6,4.9,0.477,0.478,7.0,14.7,0.0,0.0,0.0,0.477,7.0,14.7,0.757,4.1,5.4,79.0,79.0,NBA,33.7,3.1,3.8,C,18.1,1989,0.7,POR,2.5,8.0
25.0,1.1,0.4,4.0,0.478,0.478,6.7,14.0,0.0,0.0,0.0,0.478,6.7,14.0,0.74,2.8,3.8,82.0,82.0,NBA,30.0,2.2,3.3,C,16.2,1990,0.4,POR,2.1,6.2
26.0,1.1,0.4,4.4,0.481,0.482,6.4,13.4,0.0,0.0,0.0,0.481,6.4,13.4,0.772,3.0,3.8,81.0,81.0,NBA,31.0,2.2,3.1,C,15.8,1991,0.4,POR,2.3,6.6
27.0,1.2,0.5,4.2,0.461,0.462,4.4,9.5,0.0,0.0,0.0,0.461,4.4,9.6,0.69,1.9,2.8,82.0,82.0,NBA,27.1,1.8,3.2,C,10.7,1992,0.5,POR,1.7,6.1
28.0,0.9,0.5,3.6,0.438,0.439,4.1,9.3,0.0,0.0,0.0,0.438,4.1,9.3,0.73,1.7,2.4,74.0,55.0,NBA,23.8,1.6,3.0,C,9.9,1993,0.6,POR,1.2,5.2
29.0,0.8,0.5,3.2,0.417,0.417,2.7,6.4,0.0,0.0,0.0,0.417,2.7,6.4,0.667,1.3,1.9,69.0,52.0,NBA,21.5,1.5,3.2,C,6.6,1994,0.5,WSB,1.5,4.7
30.0,0.5,0.6,3.3,0.446,0.451,2.9,6.4,0.2,0.1,0.3,0.442,3.0,6.7,0.643,1.1,1.8,40.0,22.0,NBA,20.5,1.6,2.8,C,7.1,1995,0.5,WSB,1.5,4.9
31.0,0.3,0.0,0.6,0.214,0.214,0.4,1.8,0.0,0.0,0.0,0.214,0.4,1.8,0.5,0.4,0.8,8.0,1.0,NBA,7.3,0.3,2.4,C,1.1,1996,0.3,MIL,0.3,0.9
32.0,0.6,0.4,1.4,0.451,0.424,1.6,3.8,0.75,0.1,0.2,0.437,1.7,4.0,0.688,0.4,0.6,26.0,22.0,NBA,14.8,0.9,2.4,C,4.0,1997,0.3,LAC,1.3,2.3
