age,ast_per_poss,blk_per_poss,def_rtg,drb_per_poss,fg2_pct,fg2_per_poss,fg2a_per_poss,fg3_pct,fg3_per_poss,fg3a_per_poss,fg_pct,fg_per_poss,fga_per_poss,ft_pct,ft_per_poss,fta_per_poss,g,gs,lg_id,mp,off_rtg,orb_per_poss,pf_per_poss,pos,pts_per_poss,season,stl_per_poss,team_id,tov_per_poss,trb_per_poss
24.0,0.0,0.0,111.0,0.0,0.0,0.0,0.0,0.0,0.0,0.0,0.0,0.0,0.0,0.0,0.0,0.0,1.0,0.0,NBA,1.0,0.0,0.0,0.0,C,0.0,2000,0.0,TOR,0.0,0.0
30.0,1.9,1.0,104.0,5.8,0.5,2.9,5.8,0.0,0.0,0.0,0.5,2.9,5.8,0.5,1.0,1.9,8.0,0.0,NBA,56.0,77.0,3.9,14.5,C,6.8,2006,2.9,NJN,4.8,9.7
