age,ast_pct,blk_pct,bpm,bpm-dum,dbpm,drb_pct,dws,fg3a_per_fga_pct,fta_per_fga_pct,g,lg_id,mp,obpm,orb_pct,ows,per,pos,season,stl_pct,team_id,tov_pct,trb_pct,ts_pct,usg_pct,vorp,ws,ws-dum,ws_per_48
22.0,5.4,3.0,-4.3,0.0,0.7,14.4,0.4,0.0,0.57,49.0,NBA,260.0,-5.0,11.8,-0.3,9.8,SF,1993,2.9,UTA,16.5,13.1,0.447,23.0,-0.1,0.1,0.0,0.018
23.0,3.0,4.0,-0.6,0.0,-1.7,12.9,0.1,0.0,0.941,9.0,NBA,53.0,1.1,22.1,0.1,19.4,SF,1994,1.0,UTA,20.0,17.4,0.645,25.1,0.0,0.2,0.0,0.188
26.0,4.2,2.4,-0.9,0.0,0.1,15.9,0.6,0.0,0.75,49.0,NBA,418.0,-1.0,9.0,0.7,16.0,SF,1997,2.5,TOT,14.8,12.6,0.613,18.7,0.1,1.3,0.0,0.149
26.0,2.4,2.3,2.6,0.0,2.6,9.0,0.1,0.0,1.167,7.0,NBA,69.0,0.0,6.7,0.2,19.5,SF,1997,6.4,SAS,21.6,7.8,0.716,15.6,0.1,0.2,0.0,0.172
26.0,4.5,2.4,-1.6,0.0,-0.4,17.2,0.5,0.0,0.698,42.0,NBA,349.0,-1.2,9.5,0.5,15.4,SF,1997,1.7,UTA,13.7,13.6,0.598,19.4,0.0,1.1,0.0,0.144
27.0,9.1,1.4,-7.5,0.0,-1.6,13.3,0.1,0.0,0.857,13.0,NBA,53.0,-5.9,13.8,-0.1,9.8,SF,1998,3.0,SEA,17.2,13.5,0.432,30.5,-0.1,0.0,0.0,-0.02
