age,ast_per_mp,blk_per_mp,drb_per_mp,fg2_pct,fg2_per_mp,fg2a_per_mp,fg3_pct,fg3_per_mp,fg3a_per_mp,fg_pct,fg_per_mp,fga_per_mp,ft_pct,ft_per_mp,fta_per_mp,g,gs,lg_id,mp,orb_per_mp,pf_per_mp,pos,pts_per_mp,season,stl_per_mp,team_id,tov_per_mp,trb_per_mp
23.0,0.0,0.0,9.3,0.273,4.0,14.7,0.0,0.0,0.0,0.273,4.0,14.7,0.727,10.7,14.7,10.0,0.0,NBA,27.0,4.0,14.7,SF,18.7,1994,0.0,UTA,2.7,13.3
26.0,0.0,0.0,2.8,0.5,8.3,16.6,0.0,0.0,0.0,0.5,8.3,16.6,0.75,8.3,11.1,5.0,0.0,NBA,13.0,0.0,5.5,SF,24.9,1997,2.8,UTA,0.0,2.8
