age,ast,blk,drb,efg_pct,fg,fg2,fg2_pct,fg2a,fg3,fg3_pct,fg3a,fg_pct,fga,ft,ft_pct,fta,g,gs,lg_id,mp,orb,pf,pos,pts,season,stl,team_id,tov,trb
22.0,10.0,12.0,34.0,0.376,35.0,35.0,0.376,93.0,0.0,0.0,0.0,0.376,93.0,34.0,0.642,53.0,49.0,0.0,NBA,260.0,26.0,58.0,SF,104.0,1993,15.0,UTA,23.0,60.0
23.0,1.0,3.0,6.0,0.588,10.0,10.0,0.588,17.0,0.0,0.0,0.0,0.588,17.0,11.0,0.688,16.0,9.0,0.0,NBA,53.0,10.0,13.0,SF,31.0,1994,1.0,UTA,6.0,16.0
26.0,11.0,12.0,56.0,0.574,62.0,62.0,0.574,108.0,0.0,0.0,0.0,0.574,108.0,52.0,0.642,81.0,49.0,0.0,NBA,418.0,29.0,62.0,SF,176.0,1997,19.0,TOT,25.0,85.0
26.0,1.0,2.0,5.0,0.583,7.0,7.0,0.583,12.0,0.0,0.0,0.0,0.583,12.0,12.0,0.857,14.0,7.0,0.0,NBA,69.0,4.0,7.0,SF,26.0,1997,8.0,SAS,5.0,9.0
26.0,10.0,10.0,51.0,0.573,55.0,55.0,0.573,96.0,0.0,0.0,0.0,0.573,96.0,40.0,0.597,67.0,42.0,0.0,NBA,349.0,25.0,55.0,SF,150.0,1997,11.0,UTA,20.0,76.0
27.0,3.0,1.0,6.0,0.381,8.0,8.0,0.381,21.0,0.0,0.0,0.0,0.381,21.0,9.0,0.5,18.0,13.0,0.0,NBA,53.0,6.0,13.0,SF,25.0,1998,3.0,SEA,6.0,12.0
