age,ast_per_poss,blk_per_poss,def_rtg,drb_per_poss,fg2_pct,fg2_per_poss,fg2a_per_poss,fg3_pct,fg3_per_poss,fg3a_per_poss,fg_pct,fg_per_poss,fga_per_poss,ft_pct,ft_per_poss,fta_per_poss,g,gs,lg_id,mp,off_rtg,orb_per_poss,pf_per_poss,pos,pts_per_poss,season,stl_per_poss,team_id,tov_per_poss,trb_per_poss
24.0,0.0,1.8,107.0,7.2,0.167,0.9,5.4,0.667,3.6,5.4,0.417,4.5,10.8,0.0,0.0,3.6,5.0,0.0,NBA,55.0,87.0,1.8,2.7,PF,12.6,2016,0.9,OKC,2.7,9.0
25.0,4.7,4.7,106.0,7.9,0.571,6.3,11.1,0.5,3.2,6.3,0.545,9.5,17.4,0.0,0.0,1.6,2.0,0.0,NBA,31.0,143.0,6.3,0.0,PF,22.2,2017,0.0,OKC,0.0,14.2
26.0,1.0,2.2,109.0,6.0,0.403,1.4,3.4,0.287,1.7,5.8,0.33,3.0,9.2,0.3,0.3,1.0,69.0,10.0,NBA,982.0,91.0,2.1,4.1,PF,8.0,2018,0.8,OKC,1.3,8.1
