age,ast_pct,blk_pct,bpm,bpm-dum,dbpm,drb_pct,dws,fg3a_per_fga_pct,fta_per_fga_pct,g,lg_id,mp,obpm,orb_pct,ows,per,pos,season,stl_pct,team_id,tov_pct,trb_pct,ts_pct,usg_pct,vorp,ws,ws-dum,ws_per_48
23.0,0.0,0.0,1.1,0.0,3.5,8.8,0.0,0.333,0.0,2.0,NBA,13.0,-2.4,0.0,0.0,13.8,PG,2014,7.9,TOT,0.0,4.3,0.5,10.3,0.0,0.0,0.0,0.131
23.0,0.0,0.0,-5.2,0.0,0.6,0.0,0.0,0.0,0.0,1.0,NBA,4.0,-5.8,0.0,0.0,0.0,PG,2014,0.0,MEM,0.0,0.0,0.0,0.0,0.0,0.0,0.0,0.006
23.0,0.0,0.0,3.9,0.0,4.8,12.8,0.0,0.333,0.0,1.0,NBA,9.0,-0.9,0.0,0.0,19.9,PG,2014,11.5,CLE,0.0,6.2,0.5,14.9,0.0,0.0,0.0,0.187
24.0,15.6,0.0,-15.9,0.0,-1.6,27.7,0.0,0.333,0.0,2.0,NBA,8.0,-14.3,0.0,-0.1,-11.4,PG,2015,0.0,PHO,0.0,13.7,0.0,16.5,0.0,0.0,0.0,-0.298
25.0,14.2,0.4,-1.5,0.0,-2.4,7.9,0.2,0.496,0.241,44.0,NBA,692.0,0.9,1.4,1.2,13.8,PG,2016,1.5,SAC,12.7,4.7,0.603,17.4,0.1,1.4,0.0,0.097
26.0,16.0,0.3,1.4,0.0,-0.4,9.3,1.7,0.458,0.142,70.0,NBA,2029.0,1.8,1.4,2.9,15.5,PG,2017,2.0,DAL,11.0,5.1,0.601,19.5,1.7,4.6,0.0,0.11
28.0,6.5,0.7,-1.3,0.0,-1.8,6.9,0.9,0.54,0.112,74.0,NBA,1399.0,0.5,2.1,1.5,11.4,SG,2019,1.2,POR,11.1,4.6,0.595,16.6,0.2,2.4,0.0,0.082
29.0,11.5,1.2,1.8,0.0,-1.0,5.2,0.1,0.628,0.279,7.0,NBA,139.0,2.8,2.3,0.3,15.7,SG,2020,2.1,DAL,11.1,3.7,0.632,16.3,0.1,0.4,0.0,0.14
