age,and1s,astd_pts,drawn_offensive,drawn_shooting,fouls_offensive,fouls_shooting,g,lg_id,mp,own_shots_blk,pct_1,pct_2,pct_3,pct_4,pct_5,plus_minus_net,plus_minus_on,pos,season,team_id,tov_bad_pass,tov_lost_ball
23.0,0.0,0.0,1.0,0.0,0.0,0.0,2.0,NBA,13.0,0.0,100.0,0.0,0.0,0.0,0.0,1.2,0.4,PG,2014,TOT,0.0,0.0
23.0,0.0,0.0,0.0,0.0,0.0,0.0,1.0,NBA,4.0,0.0,100.0,0.0,0.0,0.0,0.0,64.1,66.1,PG,2014,MEM,0.0,0.0
23.0,0.0,0.0,1.0,0.0,0.0,0.0,1.0,NBA,9.0,0.0,100.0,0.0,0.0,0.0,0.0,-22.9,-26.3,PG,2014,CLE,0.0,0.0
24.0,0.0,3.0,0.0,0.0,0.0,1.0,2.0,NBA,8.0,0.0,100.0,0.0,0.0,0.0,0.0,-19.0,-20.0,PG,2015,PHO,0.0,0.0
25.0,1.0,153.0,2.0,18.0,4.0,15.0,44.0,NBA,692.0,12.0,35.0,63.0,2.0,0.0,0.0,0.1,-2.7,PG,2016,SAC,15.0,12.0
26.0,14.0,442.0,6.0,36.0,6.0,42.0,70.0,NBA,2029.0,28.0,58.0,42.0,0.0,0.0,0.0,4.1,-1.2,PG,2017,DAL,51.0,19.0
28.0,4.0,161.0,11.0,18.0,4.0,40.0,74.0,NBA,1399.0,15.0,14.0,70.0,16.0,0.0,0.0,-0.9,3.3,SG,2019,POR,35.0,10.0
29.0,0.0,26.0,0.0,2.0,1.0,2.0,7.0,NBA,139.0,0.0,15.0,62.0,24.0,0.0,0.0,-13.1,-3.9,SG,2020,DAL,1.0,3.0
