age,ast_per_poss,blk_per_poss,def_rtg,drb_per_poss,fg2_pct,fg2_per_poss,fg2a_per_poss,fg3_pct,fg3_per_poss,fg3a_per_poss,fg_pct,fg_per_poss,fga_per_poss,ft_pct,ft_per_poss,fta_per_poss,g,gs,lg_id,mp,off_rtg,orb_per_poss,pf_per_poss,pos,pts_per_poss,season,stl_per_poss,team_id,tov_per_poss,trb_per_poss
19.0,9.0,0.8,110.0,4.8,0.379,6.2,16.3,0.319,1.8,5.6,0.364,8.0,21.9,0.67,3.4,5.1,68.0,66.0,NBA,2068.0,88.0,0.8,3.4,PG,21.1,2016,1.6,DEN,5.3,5.6
20.0,7.5,0.5,114.0,5.2,0.408,5.3,13.0,0.315,1.9,6.2,0.377,7.2,19.1,0.784,4.5,5.8,55.0,41.0,NBA,1406.0,98.0,1.0,3.3,PG,20.9,2017,1.4,DEN,4.3,6.2
21.0,8.2,0.4,113.0,5.0,0.415,6.3,15.1,0.318,1.9,5.9,0.388,8.1,20.9,0.76,3.9,5.1,64.0,14.0,NBA,1245.0,96.0,1.0,3.2,PG,22.0,2018,1.6,TOT,4.5,6.1
21.0,8.0,0.3,113.0,5.1,0.414,6.0,14.5,0.373,2.5,6.7,0.401,8.5,21.2,0.808,4.2,5.1,42.0,0.0,NBA,752.0,99.0,1.1,3.1,PG,23.7,2018,1.4,DEN,4.7,6.2
21.0,8.5,0.7,111.0,4.8,0.418,6.6,15.9,0.196,0.9,4.6,0.368,7.5,20.5,0.686,3.5,5.1,22.0,14.0,NBA,493.0,90.0,1.0,3.3,PG,19.5,2018,2.0,NYK,4.1,5.8
22.0,6.8,0.6,116.0,4.9,0.492,7.8,15.9,0.329,2.1,6.3,0.446,9.9,22.2,0.774,4.3,5.6,59.0,42.0,NBA,1607.0,102.0,1.0,3.1,PG,26.2,2019,1.3,NYK,4.2,5.9
23.0,8.1,1.0,100.0,6.7,0.571,9.4,16.5,0.231,1.0,4.4,0.5,10.4,20.9,0.833,5.1,6.1,8.0,0.0,NBA,143.0,103.0,0.3,4.0,PG,27.0,2020,1.3,UTA,5.4,7.1
