age,ast_per_mp,blk_per_mp,drb_per_mp,fg2_pct,fg2_per_mp,fg2a_per_mp,fg3_pct,fg3_per_mp,fg3a_per_mp,fg_pct,fg_per_mp,fga_per_mp,ft_pct,ft_per_mp,fta_per_mp,g,gs,lg_id,mp,orb_per_mp,pf_per_mp,pos,pts_per_mp,season,stl_per_mp,team_id,tov_per_mp,trb_per_mp
27.0,0.0,0.0,6.7,0.333,3.3,10.0,0.0,0.0,0.7,0.313,3.3,10.7,0.6,2.0,3.3,5.0,0.0,NBA,54.0,4.7,4.7,PF,8.7,2012,2.0,ATL,2.0,11.3
28.0,1.0,1.0,3.7,0.462,4.0,8.7,0.0,0.0,0.0,0.462,4.0,8.7,0.667,4.0,6.0,6.0,0.0,NBA,108.0,3.0,7.7,PF,12.0,2013,1.3,ATL,2.0,6.7
