age,ast_per_mp,blk_per_mp,drb_per_mp,fg2_pct,fg2_per_mp,fg2a_per_mp,fg3_pct,fg3_per_mp,fg3a_per_mp,fg_pct,fg_per_mp,fga_per_mp,ft_pct,ft_per_mp,fta_per_mp,g,gs,lg_id,mp,orb_per_mp,pf_per_mp,pos,pts_per_mp,season,stl_per_mp,team_id,tov_per_mp,trb_per_mp
24.0,3.5,0.0,2.8,0.357,3.5,9.7,0.111,0.7,6.2,0.261,4.2,15.9,1.0,2.1,2.1,5.0,2.0,NBA,52.0,0.0,2.1,PG,11.1,2017,1.4,CHI,4.8,2.8
26.0,7.7,0.0,10.3,0.667,5.1,7.7,0.0,0.0,18.0,0.2,5.1,25.7,1.0,2.6,2.6,3.0,0.0,NBA,14.0,0.0,2.6,PG,12.9,2019,0.0,ORL,2.6,10.3
