age,ast,blk,drb,fg,fg2,fg2a,fg3,fg3a,fga,ft,fta,game_score,lg_id,mp,orb,pf,pts,season,stl,team_id,tov,trb
24.0,4.0,0.0,2.0,2.0,2.0,5.0,1.0,4.0,9.0,2.0,2.0,2.5,NBA,22,0.0,2.0,6.0,2017,1.0,CHI,4.0,2.0
26.0,2.0,0.0,4.0,2.0,2.0,3.0,0.0,4.0,4.0,1.0,1.0,5.2,NBA,6,0.0,1.0,5.0,2019,0.0,ORL,1.0,4.0
