lg_id,salary,season,team_name
NBA,4983480.0,2010,Los Angeles Clippers
NBA,5357280.0,2011,Los Angeles Clippers
NBA,5731080.0,2012,Los Angeles Clippers
NBA,7226892.0,2013,Los Angeles Clippers
NBA,16441500.0,2014,Los Angeles Clippers
NBA,17674612.0,2015,Los Angeles Clippers
NBA,18907725.0,2016,Los Angeles Clippers
NBA,20140838.0,2017,Los Angeles Clippers
NBA,29727900.0,2018,Detroit Pistons
NBA,32088932.0,2019,Detroit Pistons
