age,ast_per_g,blk_per_g,drb_per_g,efg_pct,fg2_pct,fg2_per_g,fg2a_per_g,fg3_pct,fg3_per_g,fg3a_per_g,fg_pct,fg_per_g,fga_per_g,ft_pct,ft_per_g,fta_per_g,g,gs,lg_id,mp_per_g,orb_per_g,pf_per_g,pos,pts_per_g,season,stl_per_g,team_id,tov_per_g,trb_per_g
21.0,0.3,0.7,2.0,0.6,0.6,1.0,1.7,0.0,0.0,0.0,0.6,1.0,1.7,0.333,0.7,2.0,3.0,1.0,NBA,16.0,1.7,1.3,C,2.7,2014,0.0,CHA,0.0,3.7
23.0,0.4,1.4,6.7,0.58,0.58,2.0,3.5,0.0,0.0,0.0,0.58,2.0,3.5,0.597,2.2,3.6,20.0,10.0,NBA,25.3,2.7,2.4,C,6.2,2016,0.4,TOR,1.1,9.4
