age,ast,blk,drb,fg,fg2,fg2a,fg3,fg3a,fga,ft,fta,game_score,lg_id,mp,orb,pf,pts,season,stl,team_id,tov,trb
25.0,1.0,1.0,3.0,5.0,5.0,6.0,0.0,0.0,6.0,2.0,2.0,8.7,NBA,0.0,3.0,3.0,10.0,1994,0.0,MIN,3.0,5.0
26.0,3.0,1.0,5.0,3.0,3.0,8.0,0.0,1.0,8.0,5.0,6.0,5.2,NBA,0.0,4.0,5.0,9.0,1995,2.0,MIN,3.0,6.0
