age,ast_per_g,blk_per_g,drb_per_g,efg_pct,fg2_pct,fg2_per_g,fg2a_per_g,fg3_pct,fg3_per_g,fg3a_per_g,fg_pct,fg_per_g,fga_per_g,ft_pct,ft_per_g,fta_per_g,g,gs,lg_id,mp_per_g,orb_per_g,pf_per_g,pos,pts_per_g,season,stl_per_g,team_id,tov_per_g,trb_per_g
22.0,1.1,0.1,2.1,0.426,0.438,2.0,4.6,0.0,0.0,0.1,0.426,2.0,4.7,0.384,0.8,2.1,54.0,1.0,NBA,10.2,1.6,1.9,PF,4.8,1989,0.4,DEN,0.9,3.7
23.0,1.6,0.3,3.2,0.469,0.477,2.2,4.5,0.0,0.0,0.1,0.469,2.2,4.6,0.367,0.7,1.8,67.0,46.0,NBA,14.3,2.1,2.8,PF,5.0,1990,0.8,DEN,1.3,5.4
24.0,2.0,0.2,4.8,0.439,0.44,3.2,7.4,0.25,0.0,0.1,0.438,3.3,7.4,0.411,0.9,2.3,62.0,25.0,NBA,22.3,4.5,3.1,PF,7.5,1991,0.8,DEN,1.7,9.3
25.0,1.2,0.1,2.4,0.304,0.304,1.0,3.3,0.0,0.0,0.0,0.304,1.0,3.3,0.333,0.6,1.9,14.0,5.0,NBA,12.6,2.3,2.0,PF,2.6,1992,0.1,TOT,1.0,4.7
25.0,1.4,0.1,2.4,0.25,0.25,1.1,4.4,0.0,0.0,0.0,0.25,1.1,4.4,0.421,0.9,2.1,9.0,5.0,NBA,15.7,2.4,2.0,PF,3.1,1992,0.2,DEN,1.1,4.9
25.0,1.3,0.0,3.0,0.6,0.6,1.0,1.7,0.0,0.0,0.0,0.6,1.0,1.7,0.0,0.0,2.0,3.0,0.0,NBA,10.0,3.0,3.0,PF,2.0,1992,0.0,IND,1.0,6.0
25.0,0.0,0.0,1.5,1.0,1.0,0.5,0.5,0.0,0.0,0.0,1.0,0.5,0.5,0.5,0.5,1.0,2.0,0.0,NBA,3.0,0.5,0.5,PF,1.5,1992,0.0,MIL,0.5,2.0
26.0,0.8,0.1,1.4,0.5,0.5,1.3,2.6,0.0,0.0,0.0,0.5,1.3,2.6,0.25,0.2,1.0,21.0,2.0,NBA,7.1,1.1,1.5,PF,2.8,1993,0.6,CLE,0.3,2.5
