article_url,date,headline
https://soaringdownsouth.com/2019/10/19/atlanta-hawks-collins-young-huerter/,2019/10/19,"Soaring Down South: Atlanta Hawks Pick Up Options of John Collins, Trae Young and Kevin Huerter"
https://www.hoopsrumors.com/2019/10/2019-offseason-in-review-atlanta-hawks.html,2019/10/20,HoopsRumors: 2019 Offseason In Review: Atlanta Hawks
https://soaringdownsouth.com/2019/09/29/new-names-atlanta-hawks-training-camp/,2019/09/29,Soaring Down South: Exploring 4 New Names on Atlanta Hawks Training Camp Roster
