age,ast,blk,drb,fg,fg2,fg2a,fg3,fg3a,fga,ft,fta,game_score,lg_id,mp,orb,pf,pts,season,stl,team_id,tov,trb
20.0,2.0,2.0,5.0,5.0,5.0,9.0,0.0,0.0,9.0,8.0,11.0,15.5,NBA,23,4.0,5.0,18.0,2007,5.0,CHI,5.0,7.0
22.0,2.0,6.0,7.0,8.0,8.0,16.0,0.0,1.0,16.0,4.0,4.0,12.1,NBA,39,4.0,5.0,16.0,2009,2.0,CHI,3.0,10.0
23.0,1.0,2.0,8.0,9.0,9.0,12.0,0.0,0.0,12.0,3.0,4.0,16.6,NBA,29,2.0,5.0,21.0,2010,1.0,TOT,2.0,9.0
23.0,1.0,2.0,8.0,9.0,9.0,12.0,0.0,0.0,12.0,3.0,4.0,16.6,NBA,29,2.0,5.0,21.0,2010,1.0,CHA,2.0,9.0
