age,ast,blk,drb,efg_pct,fg,fg2,fg2_pct,fg2a,fg3,fg3_pct,fg3a,fg_pct,fga,ft,ft_pct,fta,g,gs,lg_id,mp,orb,pf,pos,pts,season,stl,team_id,tov,trb
20.0,6.0,5.0,22.0,0.39,16.0,16.0,0.39,41.0,0.0,0.0,0.0,0.39,41.0,19.0,0.633,30.0,10.0,0.0,NBA,122.0,12.0,23.0,PF,51.0,2007,10.0,CHI,15.0,34.0
22.0,6.0,20.0,36.0,0.438,28.0,28.0,0.444,63.0,0.0,0.0,1.0,0.438,64.0,11.0,0.786,14.0,7.0,7.0,NBA,195.0,8.0,23.0,PF,67.0,2009,7.0,CHI,11.0,44.0
23.0,2.0,2.0,16.0,0.625,15.0,15.0,0.625,24.0,0.0,0.0,0.0,0.625,24.0,5.0,0.833,6.0,4.0,0.0,NBA,68.0,6.0,9.0,C,35.0,2010,2.0,CHA,4.0,22.0
