age,ast_per_poss,blk_per_poss,def_rtg,drb_per_poss,fg2_pct,fg2_per_poss,fg2a_per_poss,fg3_pct,fg3_per_poss,fg3a_per_poss,fg_pct,fg_per_poss,fga_per_poss,ft_pct,ft_per_poss,fta_per_poss,g,gs,lg_id,mp,off_rtg,orb_per_poss,pf_per_poss,pos,pts_per_poss,season,stl_per_poss,team_id,tov_per_poss,trb_per_poss
24.0,2.5,1.0,105.0,5.6,0.321,2.6,8.0,0.354,2.2,6.2,0.336,4.8,14.3,0.59,2.2,3.7,48.0,1.0,NBA,522.0,83.0,1.2,4.3,SF,14.0,2018,1.4,BOS,3.3,6.8
25.0,1.3,0.8,108.0,6.9,0.513,4.0,7.7,0.32,2.2,6.7,0.423,6.1,14.5,0.75,1.8,2.4,61.0,1.0,NBA,694.0,102.0,0.9,4.6,SF,16.2,2019,1.3,OKC,1.7,7.8
26.0,2.3,0.8,109.0,6.2,0.333,2.3,7.0,0.273,2.3,8.6,0.3,4.7,15.6,0.75,2.3,3.1,5.0,0.0,NBA,61.0,68.0,1.6,3.9,SF,14.0,2020,0.0,OKC,6.2,7.8
