age,ast_per_poss,blk_per_poss,def_rtg,drb_per_poss,fg2_pct,fg2_per_poss,fg2a_per_poss,fg3_pct,fg3_per_poss,fg3a_per_poss,fg_pct,fg_per_poss,fga_per_poss,ft_pct,ft_per_poss,fta_per_poss,g,gs,lg_id,mp,off_rtg,orb_per_poss,pf_per_poss,pos,pts_per_poss,season,stl_per_poss,team_id,tov_per_poss,trb_per_poss
23.0,3.1,0.9,107.0,10.3,0.35,6.3,17.9,0.0,0.0,0.0,0.35,6.3,17.9,0.6,4.0,6.7,21.0,0.0,NBA,108.0,82.0,4.9,9.0,PF,16.6,1990,0.9,NJN,4.9,15.2
24.0,0.0,0.0,116.0,4.0,0.5,4.0,8.0,0.0,0.0,0.0,0.5,4.0,8.0,0.75,12.1,16.1,3.0,0.0,NBA,21.0,156.0,6.0,12.1,PF,20.1,1991,2.0,DEN,0.0,10.1
25.0,2.5,0.5,104.0,8.4,0.509,4.8,9.4,0.0,0.0,0.0,0.509,4.8,9.4,0.642,3.9,6.1,82.0,0.0,NBA,2198.0,113.0,5.1,5.4,PF,13.5,1992,1.1,NYK,2.4,13.5
26.0,3.5,0.4,101.0,8.4,0.502,6.5,12.9,0.0,0.0,0.0,0.502,6.5,12.9,0.682,4.1,6.0,81.0,0.0,NBA,2482.0,111.0,4.7,4.9,PF,17.0,1993,0.9,NYK,2.8,13.1
27.0,4.1,0.2,101.0,7.3,0.477,5.6,11.7,0.0,0.0,0.0,0.476,5.6,11.8,0.72,3.2,4.4,73.0,12.0,NBA,1903.0,107.0,4.3,5.2,PF,14.3,1994,0.8,NYK,2.9,11.6
28.0,5.1,0.4,102.0,9.9,0.567,6.1,10.7,0.0,0.0,0.0,0.566,6.1,10.7,0.641,4.0,6.3,77.0,11.0,NBA,2496.0,119.0,3.8,5.3,PF,16.1,1995,1.5,NYK,2.6,13.7
29.0,5.5,0.5,104.0,8.3,0.563,6.9,12.2,0.0,0.0,0.0,0.563,6.9,12.2,0.72,4.5,6.3,82.0,82.0,NBA,3457.0,117.0,3.4,3.8,SF,18.2,1996,1.1,NYK,3.2,11.7
30.0,7.1,0.6,106.0,11.1,0.526,7.4,14.2,0.333,0.0,0.1,0.525,7.5,14.2,0.745,5.5,7.4,73.0,73.0,NBA,3143.0,121.0,3.2,3.5,PF,20.5,1997,1.3,CHH,2.8,14.3
31.0,5.8,0.3,104.0,11.1,0.512,6.6,13.0,0.0,0.0,0.1,0.509,6.6,13.0,0.649,4.5,6.9,81.0,80.0,NBA,3148.0,114.0,3.0,3.1,PF,17.7,1998,1.2,CHH,2.5,14.1
33.0,6.0,0.5,102.0,9.0,0.48,5.2,10.8,0.0,0.0,0.0,0.48,5.2,10.8,0.746,5.1,6.9,82.0,81.0,NBA,3133.0,112.0,2.4,3.6,SF,15.5,2000,1.2,CHH,2.6,11.4
34.0,4.2,0.4,98.0,10.2,0.482,7.8,16.2,0.0,0.0,0.0,0.482,7.8,16.2,0.781,6.3,8.0,80.0,80.0,NBA,3254.0,109.0,2.9,3.9,PF,21.9,2001,1.4,MIA,3.0,13.0
35.0,5.9,0.4,108.0,8.8,0.504,5.3,10.6,1.0,0.0,0.0,0.505,5.3,10.6,0.697,2.6,3.7,82.0,82.0,NBA,3143.0,113.0,2.1,3.2,PF,13.3,2002,1.0,MIL,2.2,10.9
36.0,5.2,0.3,110.0,8.2,0.487,4.8,9.8,0.0,0.0,0.0,0.486,4.8,9.8,0.718,2.1,2.9,65.0,58.0,NBA,2119.0,111.0,2.3,3.7,C,11.7,2003,0.8,MIL,2.0,10.4
