age,ast_per_mp,blk_per_mp,drb_per_mp,fg2_pct,fg2_per_mp,fg2a_per_mp,fg3_pct,fg3_per_mp,fg3a_per_mp,fg_pct,fg_per_mp,fga_per_mp,ft_pct,ft_per_mp,fta_per_mp,g,gs,lg_id,mp,orb_per_mp,pf_per_mp,pos,pts_per_mp,season,stl_per_mp,team_id,tov_per_mp,trb_per_mp
23.0,2.3,0.7,7.7,0.35,4.7,13.3,0.0,0.0,0.0,0.35,4.7,13.3,0.6,3.0,5.0,21.0,0.0,NBA,108.0,3.7,6.7,PF,12.3,1990,0.7,NJN,3.7,11.3
24.0,0.0,0.0,3.4,0.5,3.4,6.9,0.0,0.0,0.0,0.5,3.4,6.9,0.75,10.3,13.7,3.0,0.0,NBA,21.0,5.1,10.3,PF,17.1,1991,1.7,DEN,0.0,8.6
25.0,1.7,0.3,5.8,0.509,3.3,6.5,0.0,0.0,0.0,0.509,3.3,6.5,0.642,2.7,4.3,82.0,0.0,NBA,2198.0,3.5,3.8,PF,9.4,1992,0.8,NYK,1.7,9.4
26.0,2.5,0.3,5.9,0.502,4.6,9.1,0.0,0.0,0.0,0.502,4.6,9.1,0.682,2.9,4.2,81.0,0.0,NBA,2482.0,3.4,3.5,PF,12.1,1993,0.6,NYK,2.0,9.3
27.0,2.9,0.2,5.1,0.477,3.9,8.2,0.0,0.0,0.0,0.476,3.9,8.2,0.72,2.2,3.0,73.0,12.0,NBA,1903.0,3.0,3.6,PF,10.0,1994,0.6,NYK,2.0,8.1
28.0,3.5,0.3,6.8,0.567,4.1,7.3,0.0,0.0,0.0,0.566,4.1,7.3,0.641,2.8,4.3,77.0,11.0,NBA,2496.0,2.6,3.6,PF,11.0,1995,1.0,NYK,1.8,9.4
29.0,3.8,0.4,5.7,0.563,4.7,8.3,0.0,0.0,0.0,0.563,4.7,8.3,0.72,3.1,4.3,82.0,82.0,NBA,3457.0,2.3,2.6,SF,12.5,1996,0.7,NYK,2.2,8.0
30.0,4.7,0.4,7.4,0.526,4.9,9.4,0.333,0.0,0.0,0.525,5.0,9.4,0.745,3.7,4.9,73.0,73.0,NBA,3143.0,2.1,2.3,PF,13.6,1997,0.9,CHH,1.9,9.5
31.0,3.9,0.2,7.4,0.512,4.4,8.7,0.0,0.0,0.0,0.509,4.4,8.7,0.649,3.0,4.6,81.0,80.0,NBA,3148.0,2.0,2.1,PF,11.9,1998,0.8,CHH,1.7,9.4
33.0,4.2,0.3,6.4,0.48,3.6,7.6,0.0,0.0,0.0,0.48,3.6,7.6,0.746,3.6,4.8,82.0,81.0,NBA,3133.0,1.7,2.5,SF,10.9,2000,0.9,CHH,1.8,8.0
34.0,2.7,0.3,6.6,0.482,5.1,10.6,0.0,0.0,0.0,0.482,5.1,10.6,0.781,4.1,5.2,80.0,80.0,NBA,3254.0,1.9,2.6,PF,14.3,2001,0.9,MIA,2.0,8.5
35.0,4.0,0.3,6.0,0.504,3.6,7.2,1.0,0.0,0.0,0.505,3.6,7.2,0.697,1.8,2.5,82.0,82.0,NBA,3143.0,1.4,2.1,PF,9.0,2002,0.7,MIL,1.5,7.4
36.0,3.6,0.2,5.5,0.487,3.2,6.7,0.0,0.0,0.0,0.486,3.2,6.7,0.718,1.4,2.0,65.0,58.0,NBA,2119.0,1.5,2.5,C,7.9,2003,0.5,MIL,1.3,7.1
