age,avg_dist,fg2_dunk,fg2_pct,fg2_pct_ast,fg2a_pct_fga,fg3_heave,fg3_pct,fg3_pct_ast,fg3_pct_corner,fg3a_heave,fg3a_pct_fga,fg_pct,fg_pct_00_03,fg_pct_03_10,fg_pct_10_16,fg_pct_16_xx,g,lg_id,mp,pct_fg2_dunk,pct_fg3a_corner,pct_fga_00_03,pct_fga_03_10,pct_fga_10_16,pct_fga_16_xx,pos,season,team_id
34.0,7.1,8.0,0.482,0.483,1.0,0.0,0.0,0.0,0.0,0.0,0.0,0.482,0.574,0.458,0.432,0.38,80.0,NBA,3254.0,0.01,0.0,0.327,0.321,0.269,0.083,PF,2001,MIA
35.0,5.9,3.0,0.504,0.53,0.998,0.0,1.0,1.0,0.0,0.0,0.002,0.505,0.529,0.531,0.419,0.538,82.0,NBA,3143.0,0.005,0.0,0.383,0.337,0.236,0.042,PF,2002,MIL
36.0,7.1,0.0,0.487,0.586,0.997,0.0,0.0,0.0,0.0,0.0,0.003,0.486,0.561,0.5,0.364,0.621,65.0,NBA,2119.0,0.0,1.0,0.336,0.28,0.308,0.074,C,2003,MIL
