lg_id,salary,season,team_name
NBA,210000.0,1992,New York Knicks
NBA,273000.0,1993,New York Knicks
NBA,1100000.0,1994,New York Knicks
NBA,1200000.0,1995,New York Knicks
NBA,3472000.0,1996,New York Knicks
NBA,2777000.0,1997,Charlotte Hornets
NBA,3471500.0,1998,Charlotte Hornets
NBA,4165000.0,1999,Charlotte Hornets
NBA,4860100.0,2000,Charlotte Hornets
NBA,5550000.0,2001,Miami Heat
NBA,4538000.0,2002,Milwaukee Bucks
NBA,4370819.0,2003,Milwaukee Bucks
NBA,4348094.0,2004,Milwaukee Bucks
NBA,4710435.0,2005,Milwaukee Bucks
