age,ast_per_g,blk_per_g,drb_per_g,efg_pct,fg2_pct,fg2_per_g,fg2a_per_g,fg3_pct,fg3_per_g,fg3a_per_g,fg_pct,fg_per_g,fga_per_g,ft_pct,ft_per_g,fta_per_g,g,gs,lg_id,mp_per_g,orb_per_g,pf_per_g,pos,pts_per_g,season,stl_per_g,team_id,tov_per_g,trb_per_g
23.0,1.5,0.1,0.9,0.411,0.396,1.1,2.7,0.284,0.7,2.6,0.341,1.8,5.3,0.671,0.8,1.2,62.0,4.0,NBA,14.1,0.2,1.2,SG,5.2,2002,0.6,MEM,1.0,1.1
30.0,2.5,0.1,1.0,0.486,0.484,1.5,3.0,0.326,0.5,1.6,0.429,2.0,4.6,0.735,0.5,0.6,53.0,9.0,NBA,13.4,0.2,1.3,PG,5.0,2009,0.5,TOT,1.0,1.2
30.0,3.2,0.1,0.9,0.478,0.516,1.6,3.2,0.263,0.4,1.5,0.436,2.0,4.6,0.833,0.5,0.6,39.0,9.0,NBA,13.9,0.2,1.5,PG,4.9,2009,0.5,TOR,1.3,1.1
30.0,0.7,0.0,1.3,0.508,0.371,0.9,2.5,0.448,0.9,2.1,0.406,1.9,4.6,0.5,0.4,0.7,14.0,0.0,NBA,12.0,0.2,0.8,PG,5.0,2009,0.5,SAC,0.4,1.5
