article_url,date,headline
https://thescorecrow.com/2019/11/06/rookie-report-week-three/,2019/11/06,The Scorecrow: Rookie Report: Week Three
https://www.fantasycruncher.com/articles/2019/11/04/fanduel-nba-dfs-core-plays-cheat-sheet-november-4-2019/,2019/11/04,"Fantasy Cruncher: FanDuel NBA DFS Core Plays & Cheat Sheet – November 4, 2019"
https://fansided.com/2019/11/02/daily-nba-betting-tip-sheet-11-2/,2019/11/02,FanSided: Daily NBA Betting Tip Sheet: Nov. 2
https://hoopshabit.com/2019/11/01/nba-rookie-ladder-no-zion-williamson-no-problem/,2019/11/01,"Hoops Habit: NBA Rookie Ladder: No Zion Williamson, no problem"
