age,ast,ast_per_g,blk,college_id,fg,fg3,fg3_pct,fg3a,fg_pct,fga,ft,ft_pct,fta,g,mp,mp_per_g,orb,pf,pts,pts_per_g,season,stl,tov,trb,trb_per_g
20.0,165.0,5.9,0.0,USC,118.0,19.0,0.333,57.0,0.472,250.0,84.0,0.677,124.0,28.0,883.0,31.5,0.0,0.0,339.0,12.1,1990,0.0,0.0,67.0,2.4
21.0,154.0,5.3,0.0,USC,145.0,14.0,0.255,55.0,0.48,302.0,123.0,0.794,155.0,29.0,941.0,32.4,0.0,0.0,427.0,14.7,1991,0.0,0.0,93.0,3.2
