age,ast,blk,drb,efg_pct,fg,fg2,fg2_pct,fg2a,fg3,fg3_pct,fg3a,fg_pct,fga,ft,ft_pct,fta,g,gs,lg_id,mp,orb,pf,pos,pts,season,stl,team_id,tov,trb
25.0,10.0,30.0,73.0,0.571,76.0,76.0,0.571,133.0,0.0,0.0,0.0,0.571,133.0,30.0,0.545,55.0,39.0,2.0,NBA,426.0,49.0,47.0,C,182.0,2016,6.0,BRK,16.0,122.0
26.0,26.0,47.0,203.0,0.57,162.0,161.0,0.573,281.0,1.0,0.25,4.0,0.568,285.0,49.0,0.557,88.0,71.0,5.0,NBA,1031.0,129.0,137.0,C,374.0,2017,18.0,MIA,31.0,332.0
27.0,10.0,22.0,86.0,0.674,81.0,80.0,0.672,119.0,1.0,0.5,2.0,0.669,121.0,32.0,0.582,55.0,42.0,5.0,NBA,428.0,35.0,56.0,C,195.0,2018,9.0,TOT,19.0,121.0
27.0,9.0,22.0,85.0,0.671,80.0,79.0,0.669,118.0,1.0,0.5,2.0,0.667,120.0,32.0,0.582,55.0,39.0,5.0,NBA,419.0,35.0,53.0,C,193.0,2018,9.0,LAC,19.0,120.0
27.0,1.0,0.0,1.0,1.0,1.0,1.0,1.0,1.0,0.0,0.0,0.0,1.0,1.0,0.0,0.0,0.0,3.0,0.0,NBA,9.0,0.0,3.0,C,2.0,2018,0.0,DET,0.0,1.0
