age,ast_per_g,blk_per_g,drb_per_g,efg_pct,fg2_pct,fg2_per_g,fg2a_per_g,fg3_pct,fg3_per_g,fg3a_per_g,fg_pct,fg_per_g,fga_per_g,ft_pct,ft_per_g,fta_per_g,g,gs,lg_id,mp_per_g,orb_per_g,pf_per_g,pos,pts_per_g,season,stl_per_g,team_id,tov_per_g,trb_per_g
25.0,0.3,0.8,1.9,0.571,0.571,1.9,3.4,0.0,0.0,0.0,0.571,1.9,3.4,0.545,0.8,1.4,39.0,2.0,NBA,10.9,1.3,1.2,C,4.7,2016,0.2,BRK,0.4,3.1
26.0,0.4,0.7,2.9,0.57,0.573,2.3,4.0,0.25,0.0,0.1,0.568,2.3,4.0,0.557,0.7,1.2,71.0,5.0,NBA,14.5,1.8,1.9,C,5.3,2017,0.3,MIA,0.4,4.7
27.0,0.2,0.5,2.0,0.674,0.672,1.9,2.8,0.5,0.0,0.0,0.669,1.9,2.9,0.582,0.8,1.3,42.0,5.0,NBA,10.2,0.8,1.3,C,4.6,2018,0.2,TOT,0.5,2.9
27.0,0.2,0.6,2.2,0.671,0.669,2.0,3.0,0.5,0.0,0.1,0.667,2.1,3.1,0.582,0.8,1.4,39.0,5.0,NBA,10.7,0.9,1.4,C,4.9,2018,0.2,LAC,0.5,3.1
27.0,0.3,0.0,0.3,1.0,1.0,0.3,0.3,0.0,0.0,0.0,1.0,0.3,0.3,0.0,0.0,0.0,3.0,0.0,NBA,3.0,0.0,1.0,C,0.7,2018,0.0,DET,0.0,0.3
