age,ast,ast_per_g,blk,college_id,fg,fg3,fg3_pct,fg3a,fg_pct,fga,ft,ft_pct,fta,g,mp,mp_per_g,orb,pf,pts,pts_per_g,season,stl,tov,trb,trb_per_g
18.0,38.0,1.4,38.0,NOTREDAME,183.0,4.0,0.308,13.0,0.538,340.0,149.0,0.741,201.0,27.0,890.0,33.0,0.0,77.0,519.0,19.2,1999,34.0,78.0,267.0,9.9
19.0,58.0,1.6,38.0,NOTREDAME,274.0,30.0,0.326,92.0,0.492,557.0,261.0,0.808,323.0,37.0,1318.0,35.6,0.0,101.0,839.0,22.7,2000,52.0,116.0,380.0,10.3
20.0,62.0,2.1,50.0,NOTREDAME,223.0,30.0,0.349,86.0,0.471,473.0,177.0,0.766,231.0,30.0,1090.0,36.3,0.0,96.0,653.0,21.8,2001,27.0,90.0,277.0,9.2
