age,ast_per_mp,blk_per_mp,drb_per_mp,fg2_pct,fg2_per_mp,fg2a_per_mp,fg3_pct,fg3_per_mp,fg3a_per_mp,fg_pct,fg_per_mp,fga_per_mp,ft_pct,ft_per_mp,fta_per_mp,g,gs,lg_id,mp,orb_per_mp,pf_per_mp,pos,pts_per_mp,season,stl_per_mp,team_id,tov_per_mp,trb_per_mp
30.0,0.0,0.0,0.0,0.0,0.0,0.0,0.0,0.0,0.0,0.0,0.0,0.0,0.0,0.0,0.0,1.0,0.0,NBA,3.0,12.0,0.0,PF,0.0,2011,0.0,BOS,0.0,12.0
31.0,0.0,0.0,7.2,0.0,0.0,0.0,1.0,2.4,2.4,1.0,2.4,2.4,0.0,0.0,0.0,4.0,0.0,NBA,15.0,0.0,0.0,PF,7.2,2012,0.0,LAL,4.8,7.2
