age,ast,blk,drb,efg_pct,fg,fg2,fg2_pct,fg2a,fg3,fg3_pct,fg3a,fg_pct,fga,ft,ft_pct,fta,g,gs,lg_id,mp,orb,pf,pos,pts,season,stl,team_id,tov,trb
21.0,70.0,21.0,223.0,0.424,178.0,175.0,0.423,414.0,3.0,0.333,9.0,0.421,423.0,121.0,0.776,156.0,82.0,4.0,NBA,1448.0,99.0,217.0,PF,480.0,2002,36.0,GSW,84.0,322.0
22.0,106.0,30.0,578.0,0.453,338.0,335.0,0.456,735.0,3.0,0.214,14.0,0.451,749.0,244.0,0.841,290.0,79.0,79.0,NBA,2510.0,228.0,246.0,PF,923.0,2003,65.0,GSW,111.0,806.0
23.0,20.0,17.0,125.0,0.451,107.0,102.0,0.451,226.0,5.0,0.294,17.0,0.44,243.0,60.0,0.75,80.0,28.0,0.0,NBA,610.0,48.0,58.0,PF,279.0,2004,12.0,GSW,34.0,173.0
24.0,97.0,33.0,505.0,0.445,392.0,333.0,0.417,799.0,59.0,0.399,148.0,0.414,947.0,233.0,0.73,319.0,70.0,69.0,NBA,2375.0,251.0,190.0,PF,1076.0,2005,53.0,GSW,108.0,756.0
25.0,101.0,26.0,548.0,0.468,363.0,305.0,0.464,657.0,58.0,0.32,181.0,0.433,838.0,251.0,0.787,319.0,74.0,74.0,NBA,2516.0,195.0,191.0,PF,1035.0,2006,47.0,GSW,108.0,743.0
26.0,126.0,42.0,314.0,0.508,266.0,208.0,0.479,434.0,58.0,0.395,147.0,0.458,581.0,108.0,0.745,145.0,68.0,48.0,NBA,1852.0,100.0,196.0,PF,698.0,2007,46.0,TOT,78.0,414.0
26.0,60.0,17.0,120.0,0.511,81.0,59.0,0.488,121.0,22.0,0.373,59.0,0.45,180.0,47.0,0.712,66.0,26.0,17.0,NBA,667.0,37.0,63.0,PF,231.0,2007,21.0,GSW,29.0,157.0
26.0,66.0,25.0,194.0,0.506,185.0,149.0,0.476,313.0,36.0,0.409,88.0,0.461,401.0,61.0,0.772,79.0,42.0,31.0,NBA,1185.0,63.0,133.0,PF,467.0,2007,25.0,IND,49.0,257.0
27.0,165.0,32.0,435.0,0.522,315.0,221.0,0.484,457.0,94.0,0.398,236.0,0.455,693.0,192.0,0.797,241.0,75.0,61.0,NBA,2106.0,108.0,217.0,PF,916.0,2008,49.0,IND,96.0,543.0
28.0,172.0,34.0,715.0,0.58,364.0,203.0,0.496,409.0,161.0,0.45,358.0,0.475,767.0,152.0,0.826,184.0,73.0,73.0,NBA,2482.0,146.0,226.0,PF,1041.0,2009,58.0,IND,114.0,861.0
29.0,150.0,34.0,608.0,0.551,384.0,256.0,0.533,480.0,128.0,0.384,333.0,0.472,813.0,154.0,0.798,193.0,72.0,69.0,NBA,2344.0,129.0,175.0,PF,1050.0,2010,72.0,IND,100.0,737.0
30.0,23.0,3.0,91.0,0.39,42.0,37.0,0.457,81.0,5.0,0.152,33.0,0.368,114.0,20.0,0.667,30.0,35.0,4.0,NBA,466.0,22.0,47.0,PF,109.0,2011,15.0,TOT,20.0,113.0
30.0,17.0,2.0,64.0,0.368,26.0,22.0,0.415,53.0,4.0,0.174,23.0,0.342,76.0,9.0,0.529,17.0,18.0,4.0,NBA,288.0,11.0,28.0,PF,65.0,2011,7.0,NJN,13.0,75.0
30.0,6.0,1.0,27.0,0.434,16.0,15.0,0.536,28.0,1.0,0.1,10.0,0.421,38.0,11.0,0.846,13.0,17.0,0.0,NBA,178.0,11.0,19.0,PF,44.0,2011,8.0,BOS,7.0,38.0
31.0,51.0,16.0,151.0,0.532,77.0,49.0,0.471,104.0,28.0,0.418,67.0,0.45,171.0,6.0,0.667,9.0,59.0,0.0,NBA,956.0,40.0,98.0,PF,188.0,2012,15.0,LAL,26.0,191.0
32.0,7.0,6.0,42.0,0.451,22.0,11.0,0.423,26.0,11.0,0.314,35.0,0.361,61.0,10.0,0.909,11.0,14.0,1.0,NBA,256.0,7.0,29.0,PF,65.0,2013,10.0,DAL,7.0,49.0
