article_url,date,headline
https://www.hoopsrumors.com/2019/10/2019-offseason-in-review-denver-nuggets.html,2019/10/20,HoopsRumors: 2019 Offseason In Review: Denver Nuggets
https://swarmandsting.com/2019/10/13/charlotte-hornets-camp-update-chealey-perkins-waivers/,2019/10/13,"Swarm and Sting: Charlotte Hornets Camp Update: Joe Chealey, Josh Perkins latest to hit waivers"
https://www.hoopsrumors.com/2019/10/2019-offseason-in-review-charlotte-hornets.html,2019/10/20,HoopsRumors: 2019 Offseason In Review: Charlotte Hornets
https://swarmandsting.com/2019/10/11/charlotte-hornets-welsh-waived-mcdaniels-signed/,2019/10/11,"Swarm and Sting: Charlotte Hornets Camp Update: Thomas Welsh waived, Jalen McDaniels signed"
