age,ast,ast_per_g,blk,college_id,fg,fg3,fg3_pct,fg3a,fg_pct,fga,ft,ft_pct,fta,g,mp,mp_per_g,orb,pf,pts,pts_per_g,season,stl,tov,trb,trb_per_g
18.0,8.0,0.2,39.0,UCLA,62.0,0.0,0.0,0.0,0.47,132.0,14.0,0.609,23.0,36.0,565.0,15.7,54.0,85.0,138.0,3.8,2015,14.0,17.0,137.0,3.8
19.0,17.0,0.5,32.0,UCLA,157.0,0.0,0.0,0.0,0.59,266.0,34.0,0.756,45.0,31.0,832.0,26.8,100.0,86.0,348.0,11.2,2016,8.0,25.0,263.0,8.5
20.0,32.0,1.0,43.0,UCLA,151.0,1.0,1.0,1.0,0.585,258.0,42.0,0.894,47.0,32.0,802.0,25.1,70.0,81.0,345.0,10.8,2017,11.0,14.0,277.0,8.7
21.0,46.0,1.4,29.0,UCLA,162.0,45.0,0.402,112.0,0.485,334.0,48.0,0.828,58.0,33.0,1096.0,33.2,87.0,79.0,417.0,12.6,2018,22.0,34.0,358.0,10.8
