age,ast,blk,drb,efg_pct,fg,fg2,fg2_pct,fg2a,fg3,fg3_pct,fg3a,fg_pct,fga,ft,ft_pct,fta,g,gs,lg_id,mp,orb,pf,pos,pts,season,stl,team_id,tov,trb
24.0,1.0,0.0,6.0,0.143,2.0,2.0,0.182,11.0,0.0,0.0,3.0,0.143,14.0,5.0,0.625,8.0,10.0,0.0,NBA,54.0,1.0,3.0,SF,9.0,2013,3.0,TOT,2.0,7.0
24.0,1.0,0.0,4.0,0.182,2.0,2.0,0.222,9.0,0.0,0.0,2.0,0.182,11.0,3.0,0.75,4.0,6.0,0.0,NBA,24.0,1.0,2.0,SF,7.0,2013,0.0,BOS,2.0,5.0
24.0,0.0,0.0,2.0,0.0,0.0,0.0,0.0,2.0,0.0,0.0,1.0,0.0,3.0,2.0,0.5,4.0,4.0,0.0,NBA,30.0,0.0,1.0,SF,2.0,2013,3.0,BRK,0.0,2.0
