age,ast,blk,drb,efg_pct,fg,fg2,fg2_pct,fg2a,fg3,fg3_pct,fg3a,fg_pct,fga,ft,ft_pct,fta,g,gs,lg_id,mp,orb,pf,pos,pts,season,stl,team_id,tov,trb
23.0,24.0,13.0,29.0,0.525,107.0,107.0,0.53,202.0,0.0,0.0,2.0,0.525,204.0,37.0,0.755,49.0,23.0,20.0,NBA,499.0,36.0,52.0,SF,251.0,1993,21.0,PHO,27.0,65.0
25.0,0.0,0.0,0.0,0.25,1.0,1.0,0.25,4.0,0.0,0.0,0.0,0.25,4.0,0.0,0.0,0.0,3.0,0.0,NBA,5.0,1.0,0.0,SF,2.0,1995,0.0,PHO,1.0,1.0
