age,ast_per_poss,blk_per_poss,def_rtg,drb_per_poss,fg2_pct,fg2_per_poss,fg2a_per_poss,fg3_pct,fg3_per_poss,fg3a_per_poss,fg_pct,fg_per_poss,fga_per_poss,ft_pct,ft_per_poss,fta_per_poss,g,gs,lg_id,mp,off_rtg,orb_per_poss,pf_per_poss,pos,pts_per_poss,season,stl_per_poss,team_id,tov_per_poss,trb_per_poss
22.0,3.0,0.5,108.0,3.5,0.556,12.5,22.4,0.0,0.0,0.0,0.556,12.5,22.4,0.636,3.5,5.5,16.0,0.0,NBA,95.0,98.0,4.5,10.0,SG,28.4,1982,2.5,GSW,7.0,8.0
23.0,4.4,1.1,106.0,6.3,0.52,10.0,19.2,0.25,0.0,0.1,0.518,10.0,19.3,0.719,3.4,4.8,73.0,24.0,NBA,1350.0,105.0,2.6,3.7,SG,23.5,1983,2.1,GSW,4.0,8.9
24.0,5.7,0.8,110.0,3.0,0.519,10.8,20.8,0.231,0.1,0.2,0.516,10.8,21.0,0.789,4.2,5.3,82.0,82.0,NBA,2578.0,106.0,2.3,3.8,SG,25.9,1984,1.8,HOU,4.4,5.2
25.0,6.2,0.6,109.0,2.9,0.528,10.0,19.0,0.25,0.0,0.2,0.526,10.1,19.2,0.732,3.6,4.9,82.0,58.0,NBA,2128.0,110.0,2.2,4.3,SG,23.8,1985,1.6,HOU,3.9,5.1
26.0,5.7,0.5,110.0,3.2,0.534,11.2,21.0,0.2,0.1,0.3,0.529,11.2,21.2,0.843,3.8,4.5,82.0,82.0,NBA,2444.0,112.0,2.9,4.1,SG,26.3,1986,1.9,HOU,3.7,6.1
27.0,6.3,0.3,110.0,2.4,0.541,11.5,21.2,0.143,0.1,0.5,0.532,11.5,21.7,0.756,4.5,6.0,32.0,14.0,NBA,688.0,110.0,0.9,4.8,SG,27.7,1987,1.3,HOU,3.6,3.4
30.0,4.3,0.0,108.0,3.9,0.566,11.6,20.5,0.0,0.0,0.0,0.566,11.6,20.5,0.563,3.5,6.2,21.0,0.0,NBA,123.0,91.0,3.1,4.6,SG,26.7,1990,1.2,TOT,7.7,7.0
30.0,0.0,0.0,117.0,0.0,0.5,5.0,9.9,0.0,0.0,0.0,0.5,5.0,9.9,0.0,0.0,0.0,2.0,0.0,NBA,10.0,29.0,0.0,14.9,SG,9.9,1990,0.0,PHI,19.9,0.0
30.0,4.6,0.0,107.0,4.2,0.569,12.2,21.4,0.0,0.0,0.0,0.569,12.2,21.4,0.563,3.8,6.7,19.0,0.0,NBA,113.0,97.0,3.4,3.8,SG,28.1,1990,1.3,HOU,6.7,7.6
