age,ast,blk,drb,efg_pct,fg,fg2,fg2_pct,fg2a,fg3,fg3_pct,fg3a,fg_pct,fga,ft,ft_pct,fta,g,gs,lg_id,mp,orb,pf,pos,pts,season,stl,team_id,tov,trb
21.0,1.0,0.0,2.0,0.5,6.0,4.0,0.364,11.0,2.0,0.667,3.0,0.429,14.0,2.0,1.0,2.0,8.0,0.0,NBA,26.0,1.0,3.0,SG,16.0,2013,1.0,DAL,2.0,3.0
22.0,8.0,0.0,5.0,0.31,6.0,5.0,0.357,14.0,1.0,0.143,7.0,0.286,21.0,13.0,0.813,16.0,13.0,0.0,NBA,80.0,1.0,16.0,SG,26.0,2014,3.0,TOT,2.0,6.0
22.0,3.0,0.0,1.0,0.5,1.0,1.0,1.0,1.0,0.0,0.0,1.0,0.5,2.0,0.0,0.0,2.0,5.0,0.0,NBA,22.0,0.0,3.0,SG,2.0,2014,0.0,ATL,2.0,1.0
22.0,5.0,0.0,4.0,0.289,5.0,4.0,0.308,13.0,1.0,0.167,6.0,0.263,19.0,13.0,0.929,14.0,8.0,0.0,NBA,58.0,1.0,13.0,SG,24.0,2014,3.0,SAC,0.0,5.0
23.0,10.0,0.0,8.0,0.424,12.0,8.0,0.4,20.0,4.0,0.308,13.0,0.364,33.0,7.0,0.538,13.0,19.0,0.0,NBA,89.0,1.0,12.0,SG,35.0,2015,3.0,LAC,7.0,9.0
24.0,20.0,2.0,35.0,0.4,36.0,24.0,0.364,66.0,12.0,0.308,39.0,0.343,105.0,36.0,0.655,55.0,44.0,3.0,NBA,410.0,3.0,41.0,SG,120.0,2016,14.0,TOT,21.0,38.0
24.0,19.0,2.0,26.0,0.407,32.0,22.0,0.373,59.0,10.0,0.313,32.0,0.352,91.0,30.0,0.625,48.0,40.0,3.0,NBA,355.0,3.0,37.0,SG,104.0,2016,12.0,CLE,18.0,29.0
24.0,1.0,0.0,9.0,0.357,4.0,2.0,0.286,7.0,2.0,0.286,7.0,0.286,14.0,6.0,0.857,7.0,4.0,0.0,NBA,55.0,0.0,4.0,SG,16.0,2016,2.0,MIL,3.0,9.0
