age,ast_per_mp,blk_per_mp,drb_per_mp,fg2_pct,fg2_per_mp,fg2a_per_mp,fg3_pct,fg3_per_mp,fg3a_per_mp,fg_pct,fg_per_mp,fga_per_mp,ft_pct,ft_per_mp,fta_per_mp,g,gs,lg_id,mp,orb_per_mp,pf_per_mp,pos,pts_per_mp,season,stl_per_mp,team_id,tov_per_mp,trb_per_mp
22.0,6.3,0.3,1.7,0.419,4.8,11.6,0.0,0.0,0.1,0.415,4.8,11.7,0.8,1.9,2.4,56.0,11.0,NBA,594.0,1.2,3.5,PG,11.6,1991,1.5,NJN,2.5,2.8
23.0,5.6,0.1,2.4,0.432,5.7,13.2,0.167,0.0,0.2,0.427,5.7,13.4,0.821,3.0,3.7,70.0,2.0,NBA,1037.0,1.2,3.4,SG,14.5,1992,1.4,NJN,2.8,3.6
24.0,5.6,0.3,1.7,0.392,4.8,12.3,0.0,0.0,0.5,0.378,4.8,12.8,0.833,1.9,2.3,48.0,1.0,NBA,380.0,0.9,2.4,PG,11.6,1993,0.9,NJN,2.9,2.6
26.0,0.0,0.0,0.0,0.5,4.5,9.0,0.0,0.0,4.5,0.333,4.5,13.5,1.0,9.0,9.0,3.0,0.0,NBA,8.0,4.5,4.5,SG,18.0,1995,0.0,MIL,9.0,4.5
