age,ast,blk,drb,fg,fg2,fg2a,fg3,fg3a,fga,ft,fta,game_score,lg_id,mp,orb,pf,pts,season,stl,team_id,tov,trb
19.0,5.0,1.0,7.0,9.0,6.0,9.0,5.0,7.0,16.0,3.0,5.0,20.2,NBA,43,4.0,4.0,24.0,2019,3.0,WAS,4.0,10.0
20.0,4.0,1.0,8.0,5.0,5.0,9.0,2.0,4.0,10.0,4.0,4.0,17.2,NBA,31,2.0,2.0,14.0,2020,3.0,WAS,1.0,10.0
