age,ast_pct,blk_pct,bpm,bpm-dum,dbpm,drb_pct,dws,fg3a_per_fga_pct,fta_per_fga_pct,g,lg_id,mp,obpm,orb_pct,ows,per,pos,season,stl_pct,team_id,tov_pct,trb_pct,ts_pct,usg_pct,vorp,ws,ws-dum,ws_per_48
24.0,27.4,0.0,-5.2,0.0,-3.9,7.0,0.1,0.439,0.317,42.0,NBA,621.0,-1.3,1.5,0.2,10.4,PG,1996,1.4,CHH,22.6,4.2,0.536,20.3,-0.5,0.3,0.0,0.021
25.0,29.1,0.1,-3.6,0.0,-3.5,7.0,0.3,0.464,0.236,60.0,NBA,1188.0,-0.1,1.2,1.4,12.1,PG,1997,1.5,TOT,17.3,4.1,0.531,17.0,-0.5,1.7,0.0,0.067
25.0,25.2,0.1,-3.3,0.0,-3.2,7.1,0.2,0.532,0.26,33.0,NBA,576.0,-0.1,0.7,0.6,11.6,PG,1997,1.8,CHH,19.3,4.0,0.554,17.4,-0.2,0.8,0.0,0.068
25.0,32.8,0.1,-3.9,0.0,-3.9,6.8,0.0,0.403,0.216,27.0,NBA,612.0,-0.1,1.7,0.8,12.6,PG,1997,1.2,DEN,15.4,4.3,0.511,16.6,-0.3,0.8,0.0,0.066
26.0,22.5,0.2,-2.9,0.0,-3.3,5.9,-0.4,0.258,0.292,82.0,NBA,2212.0,0.4,2.1,3.3,13.6,PG,1998,2.1,DEN,10.6,3.9,0.523,16.5,-0.5,3.0,0.0,0.064
29.0,28.0,0.0,-5.1,0.0,-4.2,6.0,0.1,0.425,0.213,20.0,NBA,201.0,-0.9,0.5,0.0,12.6,PG,2001,2.3,DEN,14.6,3.2,0.469,22.7,-0.2,0.1,0.0,0.023
31.0,7.5,0.0,-7.8,0.0,-2.3,8.1,0.1,0.36,0.28,15.0,NBA,85.0,-5.5,0.0,-0.1,5.4,PG,2003,1.9,TOT,17.6,4.1,0.445,18.7,-0.1,-0.1,0.0,-0.035
31.0,9.3,0.0,-7.3,0.0,-1.3,6.5,0.1,0.444,0.111,10.0,NBA,51.0,-6.0,0.0,-0.1,2.5,PG,2003,3.1,SAS,9.6,3.4,0.318,19.0,-0.1,-0.1,0.0,-0.069
31.0,5.0,0.0,-8.5,0.0,-3.9,10.5,0.0,0.143,0.714,5.0,NBA,34.0,-4.6,0.0,0.0,9.6,PG,2003,0.0,WAS,30.3,5.2,0.707,18.3,-0.1,0.0,0.0,0.016
32.0,18.9,0.0,-3.9,0.0,-0.4,7.8,0.1,0.364,0.045,11.0,NBA,85.0,-3.5,1.4,0.0,8.8,PG,2004,3.2,TOT,11.8,4.7,0.379,14.1,0.0,0.1,0.0,0.042
32.0,21.9,0.0,-2.2,0.0,-0.6,8.2,0.1,0.429,0.071,5.0,NBA,66.0,-1.6,1.8,0.1,10.7,PG,2004,2.5,MIN,12.2,5.2,0.45,11.7,0.0,0.1,0.0,0.098
32.0,8.6,0.0,-9.9,0.0,0.2,6.2,0.0,0.25,0.0,6.0,NBA,19.0,-10.1,0.0,-0.1,2.4,PG,2004,5.6,NJN,11.1,3.1,0.25,22.2,0.0,-0.1,0.0,-0.155
33.0,22.7,0.0,0.0,0.0,-2.4,10.8,0.2,0.588,0.228,33.0,NBA,537.0,2.4,2.2,1.3,15.1,PG,2005,1.5,TOT,9.1,6.4,0.575,14.0,0.3,1.5,0.0,0.138
33.0,0.0,0.0,-10.0,0.0,-5.7,14.8,0.1,0.6,0.533,9.0,NBA,55.0,-4.3,2.2,0.0,7.4,PG,2005,0.0,DET,5.1,8.5,0.486,16.7,-0.1,0.1,0.0,0.093
33.0,25.3,0.0,1.2,0.0,-2.0,10.3,0.2,0.587,0.19,24.0,NBA,482.0,3.2,2.2,1.3,15.9,PG,2005,1.6,MIL,9.6,6.2,0.587,13.7,0.4,1.4,0.0,0.143
34.0,12.8,0.0,-15.5,0.0,-3.8,5.1,0.0,0.286,0.0,3.0,NBA,22.0,-11.7,0.0,-0.1,-5.5,PG,2006,0.0,LAC,12.5,2.6,0.143,16.8,-0.1,-0.1,0.0,-0.245
