age,ast,blk,drb,fg,fg2,fg2a,fg3,fg3a,fga,ft,fta,game_score,lg_id,mp,orb,pf,pts,season,stl,team_id,tov,trb
23.0,6.0,1.0,4.0,8.0,6.0,8.0,3.0,7.0,11.0,4.0,4.0,19.6,NBA,0.0,3.0,4.0,20.0,1996,4.0,MIL,5.0,6.0
24.0,4.0,1.0,5.0,5.0,4.0,7.0,3.0,6.0,13.0,4.0,4.0,15.3,NBA,0.0,2.0,4.0,14.0,1997,2.0,TOT,3.0,6.0
24.0,2.0,0.0,2.0,2.0,2.0,3.0,1.0,3.0,5.0,4.0,4.0,5.1,NBA,0.0,1.0,2.0,7.0,1997,0.0,MIL,2.0,3.0
24.0,4.0,1.0,5.0,5.0,4.0,7.0,3.0,6.0,13.0,4.0,4.0,15.3,NBA,0.0,2.0,4.0,14.0,1997,2.0,TOR,3.0,6.0
25.0,8.0,1.0,5.0,8.0,6.0,11.0,3.0,7.0,17.0,4.0,4.0,18.1,NBA,0.0,3.0,5.0,20.0,1998,3.0,TOT,4.0,6.0
25.0,6.0,1.0,3.0,8.0,6.0,10.0,3.0,7.0,17.0,4.0,4.0,18.1,NBA,0.0,3.0,5.0,20.0,1998,3.0,TOR,4.0,6.0
25.0,8.0,0.0,5.0,6.0,6.0,11.0,1.0,6.0,13.0,3.0,4.0,12.3,NBA,0.0,3.0,3.0,14.0,1998,1.0,DAL,4.0,6.0
26.0,2.0,0.0,4.0,5.0,3.0,6.0,2.0,2.0,8.0,3.0,4.0,10.8,NBA,0.0,1.0,3.0,12.0,1999,2.0,PHO,1.0,4.0
