age,ast_per_mp,blk_per_mp,drb_per_mp,fg2_pct,fg2_per_mp,fg2a_per_mp,fg3_pct,fg3_per_mp,fg3a_per_mp,fg_pct,fg_per_mp,fga_per_mp,ft_pct,ft_per_mp,fta_per_mp,g,gs,lg_id,mp,orb_per_mp,pf_per_mp,pos,pts_per_mp,season,stl_per_mp,team_id,tov_per_mp,trb_per_mp
25.0,4.6,0.0,2.1,0.5,1.8,3.5,0.404,2.3,5.7,0.441,4.1,9.3,0.763,1.1,1.4,82.0,82.0,NBA,2386.0,0.3,1.9,PG,11.6,1997,1.2,HOU,1.8,2.4
26.0,3.6,0.1,2.0,0.471,1.8,3.9,0.364,2.0,5.6,0.408,3.9,9.5,0.833,1.1,1.3,78.0,78.0,NBA,2217.0,0.3,1.6,PG,10.9,1998,1.0,HOU,1.7,2.3
27.0,4.1,0.0,1.5,0.308,0.8,2.5,0.067,0.2,2.9,0.179,1.0,5.4,0.909,1.9,2.1,15.0,7.0,NBA,186.0,0.4,1.4,PG,4.1,1999,0.8,HOU,2.7,1.9
28.0,4.2,0.1,1.7,0.361,1.6,4.4,0.356,1.9,5.3,0.358,3.5,9.7,0.822,1.1,1.4,51.0,12.0,NBA,1175.0,0.3,1.3,PG,10.0,2000,1.0,CHI,1.9,2.0
29.0,4.0,0.1,2.6,0.461,2.4,5.3,0.359,1.3,3.6,0.42,3.7,8.9,0.765,0.7,0.9,55.0,27.0,NBA,1403.0,0.4,2.4,PG,9.5,2001,1.4,ATL,1.8,3.0
31.0,5.9,0.0,2.1,0.3,1.0,3.5,0.333,1.7,5.2,0.32,2.8,8.7,0.6,1.0,1.7,14.0,0.0,NBA,103.0,0.3,3.1,PG,8.4,2003,1.4,ATL,1.7,2.4
