age,ast_per_g,blk_per_g,drb_per_g,efg_pct,fg2_pct,fg2_per_g,fg2a_per_g,fg3_pct,fg3_per_g,fg3a_per_g,fg_pct,fg_per_g,fga_per_g,ft_pct,ft_per_g,fta_per_g,g,gs,lg_id,mp_per_g,orb_per_g,pf_per_g,pos,pts_per_g,season,stl_per_g,team_id,tov_per_g,trb_per_g
25.0,3.1,0.2,1.1,0.539,0.4,1.1,2.8,0.398,2.7,6.8,0.399,3.8,9.6,0.667,0.9,1.3,16.0,16.0,NBA,32.9,0.1,1.9,PG,11.2,1997,0.6,HOU,2.4,1.2
26.0,3.6,0.4,1.6,0.417,0.5,1.0,2.0,0.25,1.0,4.0,0.333,2.0,6.0,0.889,1.6,1.8,5.0,5.0,NBA,33.0,0.0,2.2,PG,6.6,1998,0.4,HOU,0.8,1.6
