age,ast,ast_per_g,blk,college_id,fg,fg3,fg3_pct,fg3a,fg_pct,fga,ft,ft_pct,fta,g,mp,mp_per_g,orb,pf,pts,pts_per_g,season,stl,tov,trb,trb_per_g
19.0,51.0,1.7,0.0,VANDY,41.0,29.0,0.42,69.0,0.41,100.0,11.0,0.786,14.0,30.0,557.0,18.6,0.0,49.0,122.0,4.1,1991,24.0,53.0,45.0,1.5
21.0,96.0,3.6,0.0,UPENN,148.0,91.0,0.444,205.0,0.412,359.0,52.0,0.776,67.0,27.0,954.0,35.3,0.0,57.0,439.0,16.3,1993,45.0,61.0,88.0,3.3
22.0,105.0,3.8,2.0,UPENN,133.0,66.0,0.327,202.0,0.393,338.0,61.0,0.897,68.0,28.0,918.0,32.8,0.0,49.0,393.0,14.0,1994,62.0,70.0,74.0,2.6
23.0,121.0,4.3,1.0,UPENN,144.0,87.0,0.439,198.0,0.459,314.0,41.0,0.695,59.0,28.0,886.0,31.6,0.0,36.0,416.0,14.9,1995,50.0,57.0,78.0,2.8
