age,ast,blk,drb,efg_pct,fg,fg2,fg2_pct,fg2a,fg3,fg3_pct,fg3a,fg_pct,fga,ft,ft_pct,fta,g,gs,lg_id,mp,orb,pf,pos,pts,season,stl,team_id,tov,trb
19.0,150.0,61.0,261.0,0.463,173.0,132.0,0.44,300.0,41.0,0.347,118.0,0.414,418.0,138.0,0.683,202.0,77.0,23.0,NBA,1897.0,78.0,173.0,SF,525.0,2014,60.0,MIL,122.0,339.0
20.0,207.0,85.0,442.0,0.496,383.0,376.0,0.511,736.0,7.0,0.159,44.0,0.491,780.0,257.0,0.741,347.0,81.0,71.0,NBA,2541.0,100.0,254.0,SG,1030.0,2015,73.0,MIL,173.0,542.0
21.0,345.0,113.0,499.0,0.52,513.0,485.0,0.537,904.0,28.0,0.257,109.0,0.506,1013.0,296.0,0.724,409.0,80.0,79.0,NBA,2823.0,113.0,258.0,PG,1350.0,2016,94.0,MIL,208.0,612.0
22.0,434.0,151.0,558.0,0.541,656.0,607.0,0.563,1079.0,49.0,0.272,180.0,0.521,1259.0,471.0,0.77,612.0,80.0,80.0,NBA,2845.0,142.0,246.0,SF,1832.0,2017,131.0,MIL,234.0,700.0
23.0,361.0,106.0,597.0,0.545,742.0,699.0,0.554,1262.0,43.0,0.307,140.0,0.529,1402.0,487.0,0.76,641.0,75.0,75.0,NBA,2756.0,156.0,231.0,PF,2014.0,2018,109.0,MIL,223.0,753.0
24.0,424.0,110.0,739.0,0.599,721.0,669.0,0.641,1044.0,52.0,0.256,203.0,0.578,1247.0,500.0,0.729,686.0,72.0,72.0,NBA,2358.0,159.0,232.0,PF,1994.0,2019,92.0,MIL,268.0,898.0
25.0,61.0,13.0,97.0,0.62,84.0,76.0,0.679,112.0,8.0,0.267,30.0,0.592,142.0,56.0,0.636,88.0,8.0,8.0,NBA,258.0,17.0,33.0,PF,232.0,2020,10.0,MIL,32.0,114.0
