age,ast_pct,blk_pct,bpm,bpm-dum,dbpm,drb_pct,dws,fg3a_per_fga_pct,fta_per_fga_pct,g,lg_id,mp,obpm,orb_pct,ows,per,pos,season,stl_pct,team_id,tov_pct,trb_pct,ts_pct,usg_pct,vorp,ws,ws-dum,ws_per_48
19.0,12.1,2.6,-1.8,0.0,0.7,16.3,1.1,0.282,0.483,77.0,NBA,1897.0,-2.5,4.6,0.1,10.8,SF,2014,1.7,MIL,19.4,10.2,0.518,15.0,0.1,1.2,0.0,0.031
20.0,13.1,2.8,0.5,0.0,2.1,19.7,4.0,0.056,0.445,81.0,NBA,2541.0,-1.7,4.5,2.2,14.8,SG,2015,1.5,MIL,15.6,12.2,0.552,19.6,1.6,6.2,0.0,0.117
21.0,20.0,3.4,2.4,0.0,1.5,20.0,2.9,0.108,0.404,80.0,NBA,2823.0,1.0,4.6,4.2,18.8,PG,2016,1.7,MIL,14.8,12.4,0.566,22.3,3.2,7.1,0.0,0.121
22.0,26.6,4.7,7.6,0.0,3.5,22.6,4.5,0.143,0.486,80.0,NBA,2845.0,4.1,5.9,7.9,26.1,SF,2017,2.3,MIL,13.3,14.3,0.599,28.3,6.9,12.4,0.0,0.21
23.0,23.7,3.3,5.8,0.0,1.9,25.3,3.6,0.1,0.457,75.0,NBA,2756.0,3.9,6.7,8.3,27.3,PF,2018,2.0,MIL,11.7,16.0,0.598,31.2,5.4,11.9,0.0,0.207
24.0,30.3,3.9,10.8,0.0,5.0,30.0,5.5,0.163,0.55,72.0,NBA,2358.0,5.7,7.3,8.9,30.9,PF,2019,1.8,MIL,14.8,19.3,0.644,32.3,7.6,14.4,0.0,0.292
25.0,40.6,4.5,15.1,0.0,6.5,34.7,0.6,0.211,0.62,8.0,NBA,258.0,8.7,6.7,1.3,35.4,PF,2020,1.7,MIL,15.0,21.4,0.642,33.9,1.1,1.9,0.0,0.361
