article_url,date,headline
https://hardwoodhoudini.com/2019/11/15/players-boston-celtics-refrain-acquiring/,2019/11/15,Hardwood Houdini: 3 players the Boston Celtics should refrain from acquiring in 2019-20
https://lastwordonprobasketball.com/2019/11/14/dallas-mavericks-rotation-issues/,2019/11/14,Last Word on Sports: Dallas Mavericks Rotation Issues
https://hardwoodhoudini.com/2019/11/14/boston-celtics-must-keep-grizzlies-2020-first-round-draft-pick-heres/,2019/11/14,Hardwood Houdini: The Boston Celtics must keep the Grizzlies' 2020 first round draft pick -- here's why
https://hardwoodhoudini.com/2019/11/13/robert-williams-boston-celtics-center/,2019/11/13,Hardwood Houdini: Boston Celtics: Robert Williams making a strong case for himself as being the answer at center
