age,ast,blk,drb,efg_pct,fg,fg2,fg2_pct,fg2a,fg3,fg3_pct,fg3a,fg_pct,fga,ft,ft_pct,fta,g,gs,lg_id,mp,orb,pf,pos,pts,season,stl,team_id,tov,trb
25.0,56.0,48.0,184.0,0.579,126.0,108.0,0.617,175.0,18.0,0.31,58.0,0.541,233.0,61.0,0.753,81.0,63.0,3.0,NBA,936.0,90.0,157.0,C,331.0,2018,30.0,BOS,56.0,274.0
26.0,68.0,42.0,138.0,0.598,146.0,120.0,0.603,199.0,26.0,0.388,67.0,0.549,266.0,56.0,0.737,76.0,66.0,2.0,NBA,908.0,87.0,161.0,C,374.0,2019,21.0,BOS,33.0,225.0
27.0,10.0,17.0,41.0,0.452,18.0,16.0,0.485,33.0,2.0,0.222,9.0,0.429,42.0,11.0,0.688,16.0,8.0,7.0,NBA,174.0,10.0,27.0,C,49.0,2020,2.0,BOS,6.0,51.0
