age,ast_pct,blk_pct,bpm,bpm-dum,dbpm,drb_pct,dws,fg3a_per_fga_pct,fta_per_fga_pct,g,lg_id,mp,obpm,orb_pct,ows,per,pos,season,stl_pct,team_id,tov_pct,trb_pct,ts_pct,usg_pct,vorp,ws,ws-dum,ws_per_48
25.0,9.1,4.3,2.6,0.0,3.4,21.2,1.9,0.249,0.348,63.0,NBA,936.0,-0.8,10.7,1.6,16.1,C,2018,1.6,BOS,17.2,16.0,0.616,15.5,1.1,3.5,0.0,0.178
26.0,10.5,4.1,2.3,0.0,1.5,16.2,1.3,0.252,0.286,66.0,NBA,908.0,0.8,10.2,2.3,17.0,C,2019,1.1,BOS,9.9,13.2,0.624,15.8,1.0,3.5,0.0,0.188
27.0,7.5,8.6,1.5,0.0,4.6,23.3,0.3,0.214,0.381,8.0,NBA,174.0,-3.1,5.9,0.1,12.8,C,2020,0.5,BOS,10.9,14.8,0.5,13.4,0.2,0.4,0.0,0.118
