age,ast_per_mp,blk_per_mp,drb_per_mp,fg2_pct,fg2_per_mp,fg2a_per_mp,fg3_pct,fg3_per_mp,fg3a_per_mp,fg_pct,fg_per_mp,fga_per_mp,ft_pct,ft_per_mp,fta_per_mp,g,gs,lg_id,mp,orb_per_mp,pf_per_mp,pos,pts_per_mp,season,stl_per_mp,team_id,tov_per_mp,trb_per_mp
23.0,0.0,0.0,8.7,0.75,3.7,5.0,0.0,0.0,0.0,0.75,3.7,5.0,0.0,0.0,0.0,5.0,0.0,NBA,29.0,1.2,3.7,C,7.4,2016,0.0,TOR,0.0,9.9
24.0,0.0,0.0,15.4,0.5,5.1,10.3,0.0,0.0,0.0,0.5,5.1,10.3,0.5,5.1,10.3,3.0,0.0,NBA,7.0,10.3,5.1,C,15.4,2017,0.0,TOR,0.0,25.7
25.0,1.5,0.0,1.5,0.0,0.0,1.5,0.0,0.0,0.0,0.0,0.0,1.5,0.5,1.5,3.0,5.0,0.0,NBA,24.0,0.0,9.0,C,1.5,2018,0.0,TOR,4.5,1.5
