age,avg_dist,fg2_dunk,fg2_pct,fg2_pct_ast,fg2a_pct_fga,fg3_heave,fg3_pct,fg3_pct_ast,fg3_pct_corner,fg3a_heave,fg3a_pct_fga,fg_pct,fg_pct_00_03,fg_pct_03_10,fg_pct_10_16,fg_pct_16_xx,g,lg_id,mp,pct_fg2_dunk,pct_fg3a_corner,pct_fga_00_03,pct_fga_03_10,pct_fga_10_16,pct_fga_16_xx,pos,season,team_id
29.0,14.1,0.0,0.464,0.462,0.778,0.0,0.25,0.5,0.0,0.0,0.222,0.417,0.667,0.667,0.2,0.364,4.0,NBA,112.0,0.0,0.25,0.167,0.167,0.139,0.306,SG,2001,PHO
30.0,10.9,16.0,0.432,0.451,0.911,0.0,0.277,0.913,0.067,1.0,0.089,0.418,0.55,0.4,0.391,0.356,80.0,NBA,2462.0,0.02,0.181,0.279,0.188,0.187,0.257,SG,2002,PHO
31.0,13.1,4.0,0.46,0.543,0.873,0.0,0.356,0.923,0.429,0.0,0.127,0.447,0.593,0.347,0.431,0.434,58.0,NBA,1777.0,0.009,0.192,0.215,0.126,0.19,0.342,SG,2003,PHO
32.0,13.7,1.0,0.415,0.602,0.884,0.0,0.38,0.9,0.391,0.0,0.116,0.411,0.488,0.379,0.439,0.385,76.0,NBA,2095.0,0.003,0.291,0.184,0.14,0.158,0.402,SG,2004,TOT
32.0,15.2,1.0,0.449,0.66,0.871,0.0,0.4,0.786,0.222,0.0,0.129,0.443,0.545,0.278,0.488,0.429,34.0,NBA,876.0,0.007,0.257,0.162,0.066,0.151,0.491,SG,2004,PHO
32.0,12.7,0.0,0.393,0.559,0.892,0.0,0.364,1.0,0.5,0.0,0.108,0.39,0.457,0.403,0.409,0.343,42.0,NBA,1219.0,0.0,0.318,0.199,0.189,0.162,0.343,SG,2004,NYK
33.0,14.8,0.0,0.452,0.484,0.808,0.0,0.3,1.0,0.214,0.0,0.192,0.423,0.595,0.447,0.533,0.37,37.0,NBA,894.0,0.0,0.28,0.162,0.146,0.115,0.385,SF,2005,NYK
34.0,15.1,0.0,0.308,0.5,0.929,0.0,0.0,0.0,0.0,0.0,0.071,0.286,0.5,0.0,0.333,0.25,4.0,NBA,72.0,0.0,1.0,0.143,0.0,0.214,0.571,SF,2006,NYK
36.0,15.7,0.0,0.341,0.429,0.683,0.0,0.421,1.0,0.167,0.0,0.317,0.367,0.222,0.5,0.333,0.333,16.0,NBA,325.0,0.017,0.316,0.15,0.133,0.15,0.25,SF,2008,MIA
