age,ast,blk,drb,efg_pct,fg,fg2,fg2_pct,fg2a,fg3,fg3_pct,fg3a,fg_pct,fga,ft,ft_pct,fta,g,gs,lg_id,mp,orb,pf,pos,pts,season,stl,team_id,tov,trb
22.0,21.0,6.0,12.0,0.49,22.0,17.0,0.436,39.0,5.0,0.455,11.0,0.44,50.0,7.0,0.7,10.0,3.0,3.0,NBA,133.0,8.0,10.0,PG,56.0,1994,5.0,ORL,20.0,20.0
23.0,162.0,15.0,49.0,0.538,144.0,104.0,0.505,206.0,40.0,0.404,99.0,0.472,305.0,84.0,0.757,111.0,21.0,21.0,NBA,849.0,30.0,70.0,PG,412.0,1995,40.0,ORL,73.0,79.0
24.0,72.0,4.0,36.0,0.512,101.0,81.0,0.5,162.0,20.0,0.364,55.0,0.465,217.0,58.0,0.744,78.0,12.0,12.0,NBA,473.0,20.0,27.0,PG,280.0,1996,20.0,ORL,26.0,56.0
25.0,17.0,7.0,23.0,0.518,52.0,41.0,0.506,81.0,11.0,0.367,30.0,0.468,111.0,40.0,0.741,54.0,5.0,5.0,NBA,220.0,7.0,14.0,PG,155.0,1997,12.0,ORL,9.0,30.0
27.0,22.0,1.0,11.0,0.404,20.0,14.0,0.318,44.0,6.0,0.462,13.0,0.351,57.0,30.0,0.769,39.0,4.0,4.0,NBA,167.0,9.0,13.0,SG,76.0,1999,9.0,ORL,12.0,20.0
28.0,51.0,9.0,30.0,0.479,67.0,62.0,0.492,126.0,5.0,0.263,19.0,0.462,145.0,44.0,0.71,62.0,9.0,9.0,NBA,386.0,14.0,29.0,SG,183.0,2000,14.0,PHO,25.0,44.0
31.0,26.0,5.0,27.0,0.45,27.0,18.0,0.4,45.0,9.0,0.36,25.0,0.386,70.0,13.0,0.722,18.0,6.0,6.0,NBA,244.0,9.0,26.0,SG,76.0,2003,13.0,PHO,13.0,36.0
32.0,23.0,1.0,14.0,0.405,23.0,18.0,0.367,49.0,5.0,0.357,14.0,0.365,63.0,15.0,0.833,18.0,4.0,3.0,NBA,168.0,4.0,8.0,SG,66.0,2004,6.0,NYK,10.0,18.0
