age,ast,ast_per_g,blk,college_id,fg,fg3,fg3_pct,fg3a,fg_pct,fga,ft,ft_pct,fta,g,mp,mp_per_g,orb,pf,pts,pts_per_g,season,stl,tov,trb,trb_per_g
18.0,10.0,0.4,0.0,CALSTFULL,23.0,0.0,0.0,0.0,0.411,56.0,17.0,0.607,28.0,25.0,198.0,7.9,0.0,0.0,63.0,2.5,1985,0.0,0.0,53.0,2.1
19.0,55.0,1.7,0.0,CALSTFULL,137.0,0.0,0.0,0.0,0.498,275.0,69.0,0.6,115.0,32.0,978.0,30.6,0.0,0.0,343.0,10.7,1986,0.0,0.0,199.0,6.2
20.0,73.0,2.4,0.0,CALSTFULL,177.0,21.0,0.396,53.0,0.424,417.0,81.0,0.698,116.0,30.0,1010.0,33.7,0.0,0.0,456.0,15.2,1987,0.0,0.0,180.0,6.0
21.0,39.0,1.4,0.0,CALSTFULL,176.0,4.0,0.286,14.0,0.501,351.0,111.0,0.721,154.0,27.0,902.0,33.4,0.0,0.0,467.0,17.3,1988,0.0,0.0,198.0,7.3
