age,ast_per_g,blk_per_g,drb_per_g,efg_pct,fg2_pct,fg2_per_g,fg2a_per_g,fg3_pct,fg3_per_g,fg3a_per_g,fg_pct,fg_per_g,fga_per_g,ft_pct,ft_per_g,fta_per_g,g,gs,lg_id,mp_per_g,orb_per_g,pf_per_g,pos,pts_per_g,season,stl_per_g,team_id,tov_per_g,trb_per_g
20.0,0.8,0.4,1.6,0.427,0.399,1.3,3.4,0.323,0.5,1.6,0.374,1.9,5.0,0.736,0.8,1.1,78.0,21.0,NBA,16.8,0.7,1.7,SF,5.1,2001,0.6,ATL,1.2,2.3
21.0,1.1,0.8,2.6,0.479,0.427,1.7,4.1,0.36,1.2,3.4,0.396,3.0,7.5,0.81,1.2,1.5,72.0,46.0,NBA,24.0,0.8,2.3,SF,8.4,2002,0.9,ATL,1.4,3.4
23.0,0.5,0.3,1.6,0.438,0.377,1.1,2.9,0.361,0.6,1.7,0.371,1.7,4.6,0.903,1.3,1.5,21.0,1.0,NBA,13.7,0.2,1.5,SF,5.4,2004,0.4,NYK,0.8,1.9
24.0,1.1,0.3,1.5,0.57,0.592,1.9,3.1,0.358,0.7,2.1,0.499,2.6,5.2,0.792,1.1,1.4,71.0,40.0,NBA,17.4,0.6,2.0,SG,7.1,2005,0.6,DEN,0.9,2.1
25.0,0.9,0.4,1.3,0.523,0.521,1.3,2.5,0.35,1.0,2.8,0.431,2.3,5.3,0.81,0.6,0.7,58.0,21.0,NBA,15.9,0.3,1.5,SG,6.1,2006,0.4,DEN,0.8,1.7
26.0,0.4,0.3,1.2,0.386,0.47,0.8,1.7,0.216,0.5,2.3,0.325,1.3,3.9,0.762,0.4,0.5,39.0,7.0,NBA,10.7,0.3,1.0,SF,3.5,2007,0.4,DEN,0.7,1.5
27.0,0.2,0.0,0.2,0.607,0.8,0.8,1.0,0.333,0.6,1.8,0.5,1.4,2.8,0.0,0.0,0.4,5.0,0.0,NBA,5.6,0.0,0.8,SF,3.4,2008,0.2,SAS,0.0,0.2
