age,and1s,astd_pts,drawn_offensive,drawn_shooting,fouls_offensive,fouls_shooting,g,lg_id,mp,own_shots_blk,pct_1,pct_2,pct_3,pct_4,pct_5,plus_minus_net,plus_minus_on,pos,season,team_id,tov_bad_pass,tov_lost_ball
20.0,8.0,135.0,0.0,36.0,8.0,54.0,78.0,NBA,1313.0,31.0,0.0,14.0,86.0,0.0,0.0,-1.4,-6.8,SF,2001,ATL,41.0,32.0
21.0,7.0,171.0,0.0,43.0,7.0,84.0,72.0,NBA,1727.0,31.0,0.0,26.0,73.0,1.0,0.0,5.0,-2.0,SF,2002,ATL,41.0,36.0
23.0,1.0,23.0,0.0,13.0,0.0,14.0,21.0,NBA,287.0,7.0,0.0,15.0,83.0,2.0,0.0,-4.7,-6.0,SF,2004,NYK,6.0,7.0
24.0,10.0,159.0,0.0,48.0,9.0,59.0,71.0,NBA,1232.0,20.0,0.0,81.0,19.0,0.0,0.0,6.9,6.9,SG,2005,DEN,33.0,15.0
25.0,7.0,120.0,3.0,17.0,6.0,51.0,58.0,NBA,924.0,19.0,0.0,51.0,42.0,7.0,0.0,-3.0,-2.1,SG,2006,DEN,18.0,11.0
26.0,1.0,42.0,1.0,10.0,3.0,24.0,39.0,NBA,419.0,8.0,1.0,28.0,66.0,5.0,0.0,-7.8,-5.1,SF,2007,DEN,11.0,6.0
27.0,0.0,2.0,0.0,1.0,0.0,3.0,5.0,NBA,28.0,0.0,0.0,26.0,69.0,6.0,0.0,-9.5,-4.0,SF,2008,SAS,0.0,0.0
