age,ast_per_poss,blk_per_poss,def_rtg,drb_per_poss,fg2_pct,fg2_per_poss,fg2a_per_poss,fg3_pct,fg3_per_poss,fg3a_per_poss,fg_pct,fg_per_poss,fga_per_poss,ft_pct,ft_per_poss,fta_per_poss,g,gs,lg_id,mp,off_rtg,orb_per_poss,pf_per_poss,pos,pts_per_poss,season,stl_per_poss,team_id,tov_per_poss,trb_per_poss
23.0,6.1,3.0,106.0,6.1,0.0,0.0,6.1,0.0,0.0,9.1,0.0,0.0,15.2,0.0,0.0,0.0,3.0,0.0,NBA,17.0,21.0,0.0,6.1,SF,0.0,2004,0.0,NYK,0.0,6.1
24.0,2.0,1.4,111.0,3.4,0.778,4.8,6.1,0.364,2.7,7.5,0.55,7.5,13.6,1.0,2.0,2.0,4.0,2.0,NBA,78.0,144.0,2.0,6.1,SG,19.7,2005,1.4,DEN,0.0,5.4
25.0,3.1,1.5,102.0,12.3,0.667,3.1,4.6,0.1,1.5,15.3,0.231,4.6,19.9,0.0,0.0,0.0,3.0,0.0,NBA,34.0,68.0,3.1,1.5,SG,10.7,2006,0.0,DEN,1.5,15.3
