age,ast,blk,drb,fg,fg2,fg2a,fg3,fg3a,fga,ft,fta,game_score,lg_id,mp,orb,pf,pts,season,stl,team_id,tov,trb
24.0,6.0,2.0,5.0,12.0,12.0,23.0,1.0,2.0,24.0,6.0,9.0,24.4,NBA,0.0,7.0,5.0,30.0,1993,6.0,CHH,4.0,10.0
25.0,3.0,1.0,5.0,9.0,9.0,14.0,1.0,3.0,16.0,5.0,7.0,18.5,NBA,0.0,2.0,3.0,22.0,1994,3.0,SEA,2.0,7.0
26.0,4.0,1.0,2.0,6.0,5.0,8.0,1.0,3.0,10.0,4.0,4.0,16.0,NBA,0.0,1.0,2.0,17.0,1995,2.0,SEA,2.0,2.0
29.0,2.0,1.0,5.0,8.0,8.0,14.0,0.0,0.0,14.0,4.0,4.0,8.4,NBA,0.0,2.0,6.0,17.0,1998,2.0,NJN,2.0,7.0
34.0,5.0,1.0,3.0,4.0,4.0,8.0,1.0,2.0,9.0,5.0,6.0,11.5,NBA,0.0,2.0,4.0,10.0,2003,2.0,MIN,2.0,4.0
