age,ast_per_g,blk_per_g,drb_per_g,efg_pct,fg2_pct,fg2_per_g,fg2a_per_g,fg3_pct,fg3_per_g,fg3a_per_g,fg_pct,fg_per_g,fga_per_g,ft_pct,ft_per_g,fta_per_g,g,gs,lg_id,mp_per_g,orb_per_g,pf_per_g,pos,pts_per_g,season,stl_per_g,team_id,tov_per_g,trb_per_g
22.0,3.7,0.5,1.9,0.451,0.455,4.6,10.0,0.143,0.0,0.2,0.45,4.6,10.2,0.835,1.9,2.2,82.0,36.0,NBA,23.7,1.3,2.3,SG,11.0,1991,1.3,CHH,2.0,3.2
23.0,4.2,0.6,3.0,0.469,0.471,8.4,17.7,0.24,0.1,0.3,0.467,8.4,18.1,0.745,3.6,4.8,79.0,79.0,NBA,36.8,2.1,3.0,SG,20.5,1992,1.9,CHH,2.3,5.1
24.0,3.9,0.5,3.2,0.457,0.46,6.5,14.1,0.274,0.2,0.9,0.449,6.7,15.0,0.772,3.2,4.2,69.0,67.0,NBA,35.2,1.7,2.8,SG,16.9,1993,1.4,CHH,2.5,4.9
25.0,3.5,0.4,2.2,0.462,0.461,4.9,10.7,0.317,0.5,1.5,0.443,5.4,12.3,0.782,2.7,3.5,79.0,77.0,NBA,30.8,1.2,2.5,SG,14.1,1994,1.9,SEA,1.8,3.4
26.0,2.6,0.4,2.6,0.494,0.479,4.5,9.4,0.368,0.9,2.3,0.457,5.4,11.8,0.742,2.1,2.9,73.0,58.0,NBA,29.1,1.4,2.5,SG,13.7,1995,1.6,SEA,1.9,4.0
27.0,5.5,0.5,3.4,0.494,0.494,4.7,9.5,0.329,0.6,1.7,0.469,5.2,11.1,0.784,2.9,3.7,47.0,46.0,NBA,35.8,1.5,2.8,SG,14.0,1996,1.4,TOT,2.8,4.9
27.0,6.3,0.6,3.7,0.504,0.509,4.5,8.8,0.315,0.5,1.5,0.481,5.0,10.3,0.761,2.5,3.3,36.0,36.0,NBA,35.1,1.6,2.8,SG,12.9,1996,1.2,CHH,3.1,5.3
27.0,3.2,0.2,2.5,0.47,0.457,5.3,11.5,0.36,0.8,2.3,0.441,6.1,13.8,0.831,4.5,5.4,11.0,10.0,NBA,38.0,1.5,2.7,SG,17.5,1996,2.0,NJN,1.9,3.9
28.0,4.0,0.6,3.9,0.469,0.462,7.0,15.0,0.336,0.9,2.7,0.443,7.9,17.7,0.797,5.2,6.5,82.0,81.0,NBA,39.0,2.2,2.7,SF,21.8,1997,1.9,NJN,2.7,6.1
29.0,2.5,0.8,3.4,0.443,0.449,4.8,10.8,0.257,0.3,1.2,0.429,5.2,12.0,0.688,2.8,4.0,81.0,81.0,NBA,33.7,1.4,3.3,SF,13.4,1998,1.9,NJN,1.5,4.8
30.0,2.5,0.5,3.7,0.4,0.406,4.7,11.5,0.118,0.0,0.3,0.398,4.7,11.9,0.683,2.3,3.3,50.0,47.0,NBA,32.1,1.2,3.2,SF,11.8,1999,2.7,NJN,1.4,4.9
31.0,2.8,0.5,2.6,0.425,0.428,4.9,11.6,0.256,0.3,1.0,0.414,5.2,12.6,0.71,2.4,3.4,76.0,75.0,NBA,31.0,1.1,2.8,SF,13.1,2000,1.8,NJN,1.2,3.7
32.0,2.8,0.2,3.2,0.337,0.333,3.3,10.0,0.286,0.1,0.5,0.331,3.5,10.4,0.722,2.1,2.9,31.0,26.0,NBA,28.8,1.0,2.1,SG,9.1,2001,1.5,NJN,1.5,4.2
33.0,1.5,0.1,2.4,0.391,0.413,2.4,5.8,0.136,0.1,0.7,0.384,2.5,6.5,0.677,0.6,1.0,65.0,49.0,NBA,21.7,0.4,2.2,SG,5.7,2002,0.7,MIA,0.8,2.8
34.0,1.9,0.2,2.4,0.436,0.432,3.3,7.5,0.322,0.2,0.7,0.422,3.5,8.3,0.764,1.5,2.0,82.0,34.0,NBA,25.2,0.6,2.1,SG,8.7,2003,1.0,MIN,1.3,3.0
35.0,1.6,0.3,2.3,0.401,0.404,3.7,9.1,0.237,0.2,0.7,0.392,3.8,9.8,0.735,1.8,2.4,56.0,35.0,NBA,25.2,1.1,1.9,SG,9.6,2004,1.2,CHI,1.5,3.4
36.0,1.9,0.3,1.9,0.419,0.408,2.1,5.1,0.333,0.2,0.6,0.4,2.3,5.7,0.9,1.3,1.4,14.0,0.0,NBA,20.3,0.8,2.6,SG,6.1,2005,1.0,MIL,0.6,2.6
