age,ast,blk,drb,efg_pct,fg,fg2,fg2_pct,fg2a,fg3,fg3_pct,fg3a,fg_pct,fga,ft,ft_pct,fta,g,gs,lg_id,mp,orb,pf,pos,pts,season,stl,team_id,tov,trb
23.0,36.0,3.0,38.0,0.523,63.0,27.0,0.422,64.0,36.0,0.396,91.0,0.406,155.0,32.0,0.865,37.0,17.0,17.0,NBA,548.0,12.0,49.0,SG,194.0,1997,11.0,MIA,30.0,50.0
24.0,7.0,2.0,18.0,0.548,24.0,15.0,0.577,26.0,9.0,0.346,26.0,0.462,52.0,15.0,0.75,20.0,5.0,5.0,NBA,186.0,1.0,20.0,SG,72.0,1998,1.0,MIA,11.0,19.0
25.0,3.0,1.0,1.0,0.75,12.0,3.0,0.375,8.0,9.0,0.643,14.0,0.545,22.0,4.0,1.0,4.0,4.0,0.0,NBA,57.0,0.0,4.0,SG,37.0,1999,0.0,MIA,1.0,1.0
30.0,12.0,0.0,9.0,0.5,32.0,21.0,0.412,51.0,11.0,0.458,24.0,0.427,75.0,10.0,0.714,14.0,5.0,5.0,NBA,161.0,4.0,13.0,SG,85.0,2004,4.0,DEN,9.0,13.0
