age,ast,blk,drb,efg_pct,fg,fg2,fg2_pct,fg2a,fg3,fg3_pct,fg3a,fg_pct,fga,ft,ft_pct,fta,g,gs,lg_id,mp,orb,pf,pos,pts,season,stl,team_id,tov,trb
22.0,31.0,1.0,40.0,0.504,53.0,17.0,0.425,40.0,36.0,0.356,101.0,0.376,141.0,34.0,0.791,43.0,30.0,0.0,NBA,323.0,12.0,31.0,SG,176.0,1996,6.0,MIA,23.0,52.0
23.0,161.0,18.0,179.0,0.593,314.0,131.0,0.541,242.0,183.0,0.414,442.0,0.459,684.0,86.0,0.819,105.0,73.0,47.0,NBA,2111.0,38.0,168.0,SG,897.0,1997,50.0,MIA,109.0,217.0
24.0,180.0,16.0,220.0,0.515,363.0,210.0,0.441,476.0,153.0,0.405,378.0,0.425,854.0,141.0,0.788,179.0,81.0,81.0,NBA,2621.0,72.0,219.0,SG,1020.0,1998,58.0,MIA,99.0,292.0
25.0,10.0,1.0,12.0,0.468,31.0,19.0,0.432,44.0,12.0,0.343,35.0,0.392,79.0,8.0,0.727,11.0,12.0,2.0,NBA,190.0,4.0,18.0,SG,82.0,1999,3.0,MIA,7.0,16.0
26.0,136.0,15.0,116.0,0.487,228.0,139.0,0.419,332.0,89.0,0.39,228.0,0.407,560.0,84.0,0.792,106.0,53.0,13.0,NBA,1434.0,37.0,127.0,SG,629.0,2000,41.0,MIA,80.0,153.0
27.0,190.0,18.0,184.0,0.484,336.0,189.0,0.407,464.0,147.0,0.385,382.0,0.397,846.0,153.0,0.797,192.0,80.0,58.0,NBA,2331.0,47.0,170.0,SG,972.0,2001,65.0,DEN,102.0,231.0
28.0,130.0,25.0,145.0,0.467,315.0,226.0,0.427,529.0,89.0,0.371,240.0,0.41,769.0,94.0,0.783,120.0,71.0,19.0,NBA,1665.0,38.0,105.0,SG,813.0,2002,59.0,DEN,91.0,183.0
29.0,144.0,21.0,164.0,0.459,325.0,233.0,0.418,557.0,92.0,0.365,252.0,0.402,809.0,156.0,0.804,194.0,63.0,24.0,NBA,1929.0,48.0,156.0,SG,898.0,2003,59.0,TOR,103.0,212.0
30.0,151.0,12.0,154.0,0.479,394.0,288.0,0.447,644.0,106.0,0.367,289.0,0.422,933.0,144.0,0.791,182.0,73.0,70.0,NBA,2233.0,46.0,177.0,SG,1038.0,2004,61.0,DEN,101.0,200.0
31.0,6.0,0.0,6.0,0.462,10.0,6.0,0.429,14.0,4.0,0.333,12.0,0.385,26.0,5.0,0.625,8.0,3.0,1.0,NBA,54.0,0.0,2.0,SG,29.0,2005,1.0,DEN,2.0,6.0
32.0,41.0,4.0,42.0,0.458,75.0,50.0,0.442,113.0,25.0,0.321,78.0,0.393,191.0,16.0,0.516,31.0,26.0,6.0,NBA,458.0,5.0,39.0,SG,191.0,2006,21.0,TOT,31.0,47.0
32.0,18.0,2.0,26.0,0.456,42.0,32.0,0.471,68.0,10.0,0.286,35.0,0.408,103.0,5.0,0.385,13.0,12.0,6.0,NBA,238.0,2.0,21.0,SG,99.0,2006,8.0,DEN,11.0,28.0
32.0,23.0,2.0,16.0,0.46,33.0,18.0,0.4,45.0,15.0,0.349,43.0,0.375,88.0,11.0,0.611,18.0,14.0,0.0,NBA,220.0,3.0,18.0,SG,92.0,2006,13.0,POR,20.0,19.0
