age,ast,ast_per_g,blk,college_id,fg,fg3,fg3_pct,fg3a,fg_pct,fga,ft,ft_pct,fta,g,mp,mp_per_g,orb,pf,pts,pts_per_g,season,stl,tov,trb,trb_per_g
18.0,28.0,0.7,0.0,SYRACUSE,72.0,2.0,0.667,3.0,0.465,155.0,46.0,0.535,86.0,38.0,464.0,12.2,0.0,0.0,192.0,5.1,1987,0.0,0.0,70.0,1.8
19.0,66.0,1.9,0.0,SYRACUSE,196.0,2.0,0.5,4.0,0.563,348.0,98.0,0.583,168.0,35.0,1072.0,30.6,0.0,0.0,492.0,14.1,1988,0.0,0.0,171.0,4.9
20.0,69.0,1.8,0.0,SYRACUSE,297.0,6.0,0.286,21.0,0.639,465.0,83.0,0.497,167.0,38.0,1257.0,33.1,0.0,0.0,683.0,18.0,1989,0.0,0.0,190.0,5.0
21.0,100.0,3.0,0.0,SYRACUSE,236.0,16.0,0.276,58.0,0.51,463.0,101.0,0.502,201.0,33.0,1141.0,34.6,0.0,0.0,589.0,17.8,1990,0.0,0.0,171.0,5.2
