age,ast_per_poss,blk_per_poss,def_rtg,drb_per_poss,fg2_pct,fg2_per_poss,fg2a_per_poss,fg3_pct,fg3_per_poss,fg3a_per_poss,fg_pct,fg_per_poss,fga_per_poss,ft_pct,ft_per_poss,fta_per_poss,g,gs,lg_id,mp,off_rtg,orb_per_poss,pf_per_poss,pos,pts_per_poss,season,stl_per_poss,team_id,tov_per_poss,trb_per_poss
23.0,4.2,1.6,108.0,4.2,0.389,7.4,19.1,0.0,0.0,0.5,0.378,7.4,19.6,0.375,1.6,4.2,19.0,0.0,NBA,91.0,89.0,5.8,4.8,SG,16.5,1992,3.2,TOT,2.7,10.1
23.0,3.3,0.0,116.0,3.3,0.333,3.3,9.8,0.0,0.0,0.0,0.333,3.3,9.8,0.0,0.0,0.0,1.0,0.0,NBA,15.0,49.0,0.0,6.5,SG,6.5,1992,0.0,ORL,6.5,3.3
23.0,4.4,1.9,107.0,4.4,0.394,8.2,20.9,0.0,0.0,0.6,0.382,8.2,21.6,0.375,1.9,5.1,18.0,0.0,NBA,76.0,94.0,7.0,4.4,SG,18.4,1992,3.8,SAC,1.9,11.4
