age,ast_per_g,blk_per_g,drb_per_g,efg_pct,fg2_pct,fg2_per_g,fg2a_per_g,fg3_pct,fg3_per_g,fg3a_per_g,fg_pct,fg_per_g,fga_per_g,ft_pct,ft_per_g,fta_per_g,g,gs,lg_id,mp_per_g,orb_per_g,pf_per_g,pos,pts_per_g,season,stl_per_g,team_id,tov_per_g,trb_per_g
19.0,0.3,0.0,0.0,1.5,0.0,0.0,0.0,1.0,0.3,0.3,1.0,0.3,0.3,0.0,0.0,0.0,3.0,0.0,NBA,2.0,0.3,0.7,SG,1.0,2018,0.0,OKC,0.0,0.3
20.0,1.2,0.0,2.0,0.5,0.286,0.4,1.4,0.389,1.4,3.6,0.36,1.8,5.0,0.0,0.0,0.0,5.0,5.0,NBA,25.6,0.4,3.8,SG,5.0,2019,0.4,OKC,1.0,2.4
