age,ast_per_poss,blk_per_poss,def_rtg,drb_per_poss,fg2_pct,fg2_per_poss,fg2a_per_poss,fg3_pct,fg3_per_poss,fg3a_per_poss,fg_pct,fg_per_poss,fga_per_poss,ft_pct,ft_per_poss,fta_per_poss,g,gs,lg_id,mp,off_rtg,orb_per_poss,pf_per_poss,pos,pts_per_poss,season,stl_per_poss,team_id,tov_per_poss,trb_per_poss
19.0,1.2,0.7,111.0,1.8,0.612,2.0,3.2,0.333,2.6,7.8,0.414,4.6,11.0,0.9,0.6,0.7,61.0,12.0,NBA,763.0,115.0,1.2,5.4,SG,12.3,2018,1.6,OKC,0.7,3.1
20.0,1.7,0.4,112.0,2.6,0.56,1.9,3.4,0.366,2.6,7.0,0.429,4.5,10.4,0.725,0.9,1.2,74.0,74.0,NBA,1931.0,112.0,0.8,5.6,SG,12.4,2019,1.0,OKC,1.1,3.4
21.0,1.9,0.8,107.0,2.9,0.5,1.3,2.7,0.357,1.3,3.7,0.417,2.7,6.4,1.0,0.8,0.8,8.0,8.0,NBA,178.0,107.0,1.3,6.1,SG,7.5,2020,0.8,OKC,1.3,4.3
