age,ast,blk,drb,efg_pct,fg,fg2,fg2_pct,fg2a,fg3,fg3_pct,fg3a,fg_pct,fga,ft,ft_pct,fta,g,gs,lg_id,mp,orb,pf,pos,pts,season,stl,team_id,tov,trb
19.0,1.0,0.0,0.0,1.5,1.0,0.0,0.0,0.0,1.0,1.0,1.0,1.0,1.0,0.0,0.0,0.0,3.0,0.0,NBA,6.0,1.0,2.0,SG,3.0,2018,0.0,OKC,0.0,1.0
20.0,6.0,0.0,10.0,0.5,9.0,2.0,0.286,7.0,7.0,0.389,18.0,0.36,25.0,0.0,0.0,0.0,5.0,5.0,NBA,128.0,2.0,19.0,SG,25.0,2019,2.0,OKC,5.0,12.0
