age,ast_pct,blk_pct,bpm,bpm-dum,dbpm,drb_pct,dws,fg3a_per_fga_pct,fta_per_fga_pct,g,lg_id,mp,obpm,orb_pct,ows,per,pos,season,stl_pct,team_id,tov_pct,trb_pct,ts_pct,usg_pct,vorp,ws,ws-dum,ws_per_48
23.0,3.0,0.9,-3.6,0.0,-1.1,14.3,0.4,0.008,0.492,42.0,NBA,630.0,-2.5,9.4,0.7,10.1,PF,2012,0.9,NOH,13.5,11.9,0.541,13.3,-0.3,1.2,0.0,0.088
24.0,4.0,0.9,-2.7,0.0,-1.1,13.3,0.2,0.0,0.557,59.0,NBA,646.0,-1.5,8.0,1.0,10.1,SF,2013,0.9,NOH,9.6,10.6,0.565,10.5,-0.1,1.2,0.0,0.087
25.0,9.7,0.0,-10.7,0.0,-2.7,14.0,0.0,0.0,0.444,5.0,NBA,42.0,-8.0,5.4,-0.1,0.5,SF,2014,0.0,NOP,15.7,9.7,0.279,13.8,-0.1,-0.1,0.0,-0.117
26.0,7.4,0.4,-5.7,0.0,-1.6,9.9,0.4,0.05,0.224,62.0,NBA,1490.0,-4.1,4.8,-0.9,8.0,PF-SF,2015,1.3,TOT,13.2,7.3,0.456,17.0,-1.4,-0.4,0.0,-0.014
26.0,6.3,0.0,-5.5,0.0,-1.1,11.0,0.3,0.008,0.262,22.0,NBA,450.0,-4.5,6.8,-0.2,6.6,SF,2015,1.2,OKC,10.8,8.9,0.402,15.1,-0.4,0.0,0.0,0.005
26.0,7.9,0.6,-5.7,0.0,-1.8,9.5,0.2,0.066,0.209,40.0,NBA,1040.0,-4.0,4.0,-0.6,8.6,PF,2015,1.3,NYK,14.2,6.7,0.478,17.8,-1.0,-0.5,0.0,-0.022
27.0,6.4,0.4,-3.2,0.0,-2.1,8.0,0.5,0.285,0.312,59.0,NBA,1313.0,-1.2,2.9,1.2,10.4,PF,2016,0.9,NYK,11.6,5.4,0.557,16.9,-0.4,1.7,0.0,0.062
28.0,5.0,0.4,-3.7,0.0,-1.6,12.3,0.4,0.348,0.209,46.0,NBA,968.0,-2.1,3.5,0.6,8.4,PF,2017,1.1,NYK,8.6,7.9,0.516,13.1,-0.4,0.9,0.0,0.046
29.0,4.2,0.9,-2.6,0.0,-0.5,10.7,0.6,0.464,0.199,73.0,NBA,1353.0,-2.1,3.6,0.3,6.3,PF,2018,1.1,NYK,12.1,7.2,0.513,10.7,-0.2,0.9,0.0,0.031
30.0,5.0,0.8,-5.3,0.0,-1.2,13.1,0.3,0.401,0.183,46.0,NBA,783.0,-4.1,2.7,-0.3,6.4,PF,2019,1.0,NYK,10.1,7.8,0.482,12.9,-0.7,0.1,0.0,0.004
