age,avg_dist,fg2_dunk,fg2_pct,fg2_pct_ast,fg2a_pct_fga,fg3_heave,fg3_pct,fg3_pct_ast,fg3_pct_corner,fg3a_heave,fg3a_pct_fga,fg_pct,fg_pct_00_03,fg_pct_03_10,fg_pct_10_16,fg_pct_16_xx,g,lg_id,mp,pct_fg2_dunk,pct_fg3a_corner,pct_fga_00_03,pct_fga_03_10,pct_fga_10_16,pct_fga_16_xx,pos,season,team_id
33.0,15.3,0.0,0.333,0.68,0.658,0.0,0.333,0.692,0.2,0.0,0.342,0.333,0.448,0.125,0.375,0.267,43.0,NBA,403.0,0.0,0.128,0.254,0.07,0.07,0.263,PG,2001,CHH
34.0,12.8,0.0,0.4,0.5,0.833,0.0,0.0,0.0,0.0,0.0,0.167,0.333,1.0,0.0,0.0,1.0,6.0,NBA,33.0,0.0,0.0,0.167,0.167,0.333,0.167,PG-SG,2002,TOT
34.0,0.0,0.0,0.0,0.0,0.0,0.0,0.0,0.0,0.0,0.0,0.0,0.0,0.0,0.0,0.0,0.0,1.0,NBA,2.0,0.0,0.0,0.0,0.0,0.0,0.0,SG,2002,CHH
34.0,12.8,0.0,0.4,0.5,0.833,0.0,0.0,0.0,0.0,0.0,0.167,0.333,1.0,0.0,0.0,1.0,5.0,NBA,31.0,0.0,0.0,0.167,0.167,0.333,0.167,PG,2002,LAC
