age,ast_per_mp,blk_per_mp,drb_per_mp,fg2_pct,fg2_per_mp,fg2a_per_mp,fg3_pct,fg3_per_mp,fg3a_per_mp,fg_pct,fg_per_mp,fga_per_mp,ft_pct,ft_per_mp,fta_per_mp,g,gs,lg_id,mp,orb_per_mp,pf_per_mp,pos,pts_per_mp,season,stl_per_mp,team_id,tov_per_mp,trb_per_mp
28.0,9.0,0.0,4.5,0.0,0.0,9.0,0.0,0.0,4.5,0.0,0.0,13.5,0.0,0.0,0.0,1.0,0.0,NBA,8.0,0.0,0.0,SG,0.0,1996,0.0,HOU,4.5,4.5
29.0,2.7,0.0,2.4,0.467,2.1,4.5,0.364,1.2,3.3,0.423,3.3,7.7,0.625,1.5,2.4,10.0,0.0,NBA,121.0,0.9,2.7,SG,9.2,1997,0.6,ATL,2.1,3.3
30.0,3.2,0.0,1.6,0.231,1.2,5.3,0.583,2.8,4.9,0.4,4.0,10.1,1.0,0.8,0.8,4.0,0.0,NBA,89.0,0.0,2.8,SG,11.7,1998,0.8,ATL,0.8,1.6
33.0,8.0,0.0,4.0,0.0,0.0,4.0,0.0,0.0,0.0,0.0,0.0,4.0,0.75,12.0,16.0,2.0,0.0,NBA,9.0,0.0,0.0,PG,12.0,2001,0.0,CHH,4.0,4.0
