age,ast,blk,drb,fg,fg2,fg2a,fg3,fg3a,fga,ft,fta,game_score,lg_id,mp,orb,pf,pts,season,stl,team_id,tov,trb
28.0,2.0,0.0,1.0,0.0,0.0,2.0,0.0,1.0,3.0,0.0,0.0,-1.4,NBA,0.0,0.0,0.0,0.0,1996,0.0,HOU,1.0,1.0
29.0,2.0,0.0,3.0,3.0,3.0,5.0,2.0,3.0,7.0,3.0,4.0,7.4,NBA,0.0,1.0,3.0,11.0,1997,1.0,ATL,2.0,4.0
30.0,4.0,0.0,2.0,4.0,2.0,4.0,4.0,5.0,9.0,2.0,2.0,8.9,NBA,0.0,0.0,3.0,12.0,1998,2.0,ATL,1.0,2.0
33.0,2.0,0.0,1.0,0.0,0.0,1.0,0.0,0.0,1.0,3.0,4.0,3.3,NBA,0.0,0.0,0.0,3.0,2001,0.0,CHH,1.0,1.0
