age,ast,blk,drb,fg,fg2,fg2a,fg3,fg3a,fga,ft,fta,game_score,lg_id,mp,orb,pf,pts,season,stl,team_id,tov,trb
22.0,0.0,0.0,0.0,1.0,0.0,3.0,1.0,1.0,3.0,0.0,0.0,2.3,NBA,0.0,0.0,1.0,3.0,2003,0.0,NJN,1.0,0.0
23.0,0.0,0.0,2.0,1.0,1.0,2.0,0.0,1.0,2.0,2.0,2.0,2.0,NBA,0.0,0.0,0.0,2.0,2004,1.0,NJN,0.0,2.0
