age,ast_pct,blk_pct,bpm,bpm-dum,dbpm,drb_pct,dws,fg3a_per_fga_pct,fta_per_fga_pct,g,lg_id,mp,obpm,orb_pct,ows,per,pos,season,stl_pct,team_id,tov_pct,trb_pct,ts_pct,usg_pct,vorp,ws,ws-dum,ws_per_48
23.0,0.0,0.0,-17.7,0.0,-10.1,31.6,0.0,0.0,0.143,3.0,NBA,15.0,-7.6,7.4,0.0,16.1,SG,2014,0.0,MIL,0.0,19.1,0.47,22.4,-0.1,0.0,0.0,0.067
28.0,0.0,0.0,-7.6,0.0,2.3,0.0,0.0,0.0,0.0,1.0,NBA,7.0,-9.9,0.0,0.0,5.5,SG,2019,7.1,MEM,33.3,0.0,0.5,19.1,0.0,0.0,0.0,-0.119
