age,ast_per_mp,blk_per_mp,drb_per_mp,fg2_pct,fg2_per_mp,fg2a_per_mp,fg3_pct,fg3_per_mp,fg3a_per_mp,fg_pct,fg_per_mp,fga_per_mp,ft_pct,ft_per_mp,fta_per_mp,g,gs,lg_id,mp,orb_per_mp,pf_per_mp,pos,pts_per_mp,season,stl_per_mp,team_id,tov_per_mp,trb_per_mp
21.0,0.6,0.9,9.4,0.414,5.5,13.4,0.0,0.0,0.5,0.4,5.5,13.8,0.722,4.0,5.5,7.0,7.0,NBA,234.0,4.3,3.5,PF,15.1,2003,0.5,ORL,1.8,13.7
24.0,1.0,0.3,8.6,0.529,5.7,10.9,0.0,0.0,0.0,0.529,5.7,10.9,0.944,2.2,2.3,13.0,13.0,NBA,282.0,4.0,5.1,PF,13.7,2006,0.4,CLE,2.3,12.5
25.0,1.2,0.5,6.6,0.497,5.9,11.8,0.0,0.0,0.1,0.493,5.9,12.0,0.769,1.8,2.3,20.0,20.0,NBA,605.0,2.9,3.7,PF,13.6,2007,0.6,CLE,1.6,9.5
27.0,0.5,0.5,5.1,0.355,5.6,15.7,0.0,0.0,1.0,0.333,5.6,16.7,1.0,3.5,3.5,4.0,0.0,NBA,71.0,2.5,6.6,PF,14.7,2009,0.5,SAS,1.5,7.6
32.0,1.0,1.0,5.4,0.412,3.5,8.4,0.0,0.0,1.0,0.368,3.5,9.4,0.75,1.5,2.0,10.0,0.0,NBA,146.0,4.9,7.4,C,8.4,2014,0.7,WAS,1.0,10.4
33.0,1.6,2.0,8.5,0.314,2.2,7.1,0.462,2.4,5.3,0.377,4.7,12.3,0.769,2.0,2.6,10.0,0.0,NBA,178.0,2.6,4.2,PF,13.8,2015,0.4,WAS,2.8,11.1
