article_url,date,headline
https://highposthoops.com/2019/10/16/katie-smith-new-york-liberty-head-coach-wnba/?utm_source=basketball-reference&utm_medium=referral&utm_campaign=basketball-reference,2019/10/16,High Post Hoops: Katie Smith out as New York Liberty head coach
https://highposthoops.com/2019/10/05/katie-smiths-future-in-new-york-remains-uncertain/?utm_source=basketball-reference&utm_medium=referral&utm_campaign=basketball-reference,2019/10/05,High Post Hoops: Katie Smith's future in New York remains uncertain
https://highposthoops.com/2019/09/25/2019-wnba-playoffs-meesseman-delle-donne-mystics-aces-game-4/?utm_source=basketball-reference&utm_medium=referral&utm_campaign=basketball-reference,2019/09/25,"High Post Hoops: Meesseman, Delle Donne lead Mystics back to the Finals"
https://highposthoops.com/2019/09/24/2019-wnba-playoffs-las-vegas-aces-are-not-here-to-play-nice/?utm_source=basketball-reference&utm_medium=referral&utm_campaign=basketball-reference,2019/09/24,High Post Hoops: 2019 WNBA Playoffs: Las Vegas Aces are not here to play nice
