age,ast,blk,drb,efg_pct,fg,fg2,fg2_pct,fg2a,fg3,fg3_pct,fg3a,fg_pct,fga,ft,ft_pct,fta,g,gs,lg_id,mp,orb,pf,pos,pts,season,stl,team_id,tov,trb
23.0,216.0,78.0,427.0,0.503,337.0,337.0,0.503,670.0,0.0,0.0,0.0,0.503,670.0,117.0,0.765,153.0,81.0,0.0,NBA,2460.0,266.0,332.0,C,791.0,1981,56.0,CLE,132.0,693.0
24.0,100.0,64.0,383.0,0.498,265.0,261.0,0.499,523.0,4.0,0.308,13.0,0.494,536.0,184.0,0.793,232.0,80.0,34.0,NBA,1829.0,234.0,296.0,C,718.0,1982,39.0,TOT,121.0,617.0
24.0,45.0,30.0,153.0,0.476,119.0,116.0,0.47,247.0,3.0,0.5,6.0,0.47,253.0,93.0,0.775,120.0,50.0,4.0,NBA,894.0,124.0,170.0,C,334.0,1982,22.0,CLE,61.0,277.0
24.0,55.0,34.0,230.0,0.518,146.0,145.0,0.525,276.0,1.0,0.143,7.0,0.516,283.0,91.0,0.813,112.0,30.0,30.0,NBA,935.0,110.0,126.0,C,384.0,1982,17.0,DET,60.0,340.0
25.0,263.0,118.0,711.0,0.498,436.0,434.0,0.502,864.0,2.0,0.154,13.0,0.497,877.0,245.0,0.79,310.0,82.0,82.0,NBA,2871.0,282.0,320.0,C,1119.0,1983,51.0,DET,176.0,993.0
26.0,149.0,84.0,674.0,0.53,553.0,553.0,0.535,1033.0,0.0,0.0,11.0,0.53,1044.0,316.0,0.866,365.0,82.0,82.0,NBA,2864.0,329.0,273.0,C,1422.0,1984,49.0,DET,151.0,1003.0
27.0,154.0,71.0,718.0,0.507,595.0,591.0,0.51,1159.0,4.0,0.222,18.0,0.506,1177.0,244.0,0.797,306.0,82.0,82.0,NBA,2892.0,295.0,308.0,C,1438.0,1985,69.0,DET,129.0,1013.0
28.0,146.0,65.0,770.0,0.494,545.0,541.0,0.495,1093.0,4.0,0.286,14.0,0.492,1107.0,266.0,0.834,319.0,82.0,82.0,NBA,2891.0,305.0,291.0,C,1360.0,1986,59.0,DET,133.0,1075.0
29.0,151.0,69.0,712.0,0.504,506.0,500.0,0.506,989.0,6.0,0.286,21.0,0.501,1010.0,245.0,0.894,274.0,82.0,82.0,NBA,2854.0,243.0,283.0,C,1263.0,1987,72.0,DET,120.0,955.0
30.0,199.0,78.0,667.0,0.5,455.0,442.0,0.5,884.0,13.0,0.333,39.0,0.493,923.0,187.0,0.874,214.0,82.0,82.0,NBA,2897.0,165.0,284.0,C,1110.0,1988,66.0,DET,136.0,832.0
31.0,177.0,100.0,638.0,0.516,449.0,419.0,0.515,814.0,30.0,0.349,86.0,0.499,900.0,178.0,0.84,212.0,81.0,81.0,NBA,2640.0,138.0,259.0,C,1106.0,1989,51.0,DET,129.0,776.0
32.0,171.0,84.0,614.0,0.52,380.0,323.0,0.515,627.0,57.0,0.361,158.0,0.484,785.0,164.0,0.854,192.0,81.0,81.0,NBA,2675.0,166.0,278.0,C,981.0,1990,57.0,DET,98.0,780.0
33.0,157.0,56.0,564.0,0.502,372.0,335.0,0.513,653.0,37.0,0.296,125.0,0.478,778.0,123.0,0.837,147.0,82.0,81.0,NBA,2668.0,173.0,242.0,C,904.0,1991,38.0,DET,98.0,737.0
34.0,160.0,54.0,347.0,0.492,342.0,310.0,0.483,642.0,32.0,0.376,85.0,0.47,727.0,67.0,0.893,75.0,81.0,46.0,NBA,2234.0,104.0,225.0,C,783.0,1992,51.0,DET,102.0,451.0
35.0,127.0,40.0,309.0,0.517,292.0,282.0,0.516,547.0,10.0,0.37,27.0,0.509,574.0,93.0,0.894,104.0,79.0,41.0,NBA,1933.0,110.0,212.0,C,687.0,1993,46.0,DET,59.0,419.0
36.0,14.0,4.0,47.0,0.539,47.0,44.0,0.543,81.0,3.0,0.333,9.0,0.522,90.0,11.0,0.846,13.0,11.0,5.0,NBA,248.0,9.0,30.0,C,108.0,1994,6.0,DET,10.0,56.0
