age,ast,blk,drb,fg,fg2,fg2a,fg3,fg3a,fga,ft,fta,game_score,lg_id,mp,orb,pf,pts,season,stl,team_id,tov,trb
23.0,8.0,0.0,0.0,11.0,11.0,0.0,0.0,0.0,18.0,8.0,9.0,0.0,NBA,0.0,0.0,0.0,26.0,1981,0.0,CLE,0.0,22.0
24.0,0.0,0.0,0.0,10.0,0.0,0.0,1.0,0.0,0.0,10.0,11.0,0.0,NBA,0.0,0.0,0.0,30.0,1982,0.0,TOT,0.0,0.0
24.0,4.0,4.0,9.0,10.0,10.0,16.0,1.0,2.0,16.0,10.0,11.0,0.0,NBA,0.0,7.0,6.0,30.0,1982,0.0,CLE,0.0,15.0
24.0,0.0,0.0,0.0,9.0,0.0,0.0,1.0,0.0,0.0,8.0,9.0,0.0,NBA,0.0,0.0,0.0,24.0,1982,0.0,DET,0.0,0.0
25.0,0.0,0.0,0.0,15.0,15.0,0.0,1.0,0.0,21.0,9.0,12.0,0.0,NBA,0.0,0.0,0.0,30.0,1983,0.0,DET,0.0,0.0
26.0,6.0,4.0,17.0,13.0,13.0,20.0,0.0,2.0,21.0,10.0,11.0,32.9,NBA,0.0,12.0,6.0,33.0,1984,3.0,DET,6.0,22.0
27.0,6.0,5.0,18.0,16.0,16.0,26.0,1.0,3.0,27.0,12.0,13.0,31.6,NBA,0.0,11.0,6.0,35.0,1985,5.0,DET,6.0,23.0
28.0,5.0,4.0,20.0,13.0,13.0,24.0,1.0,2.0,24.0,12.0,12.0,30.7,NBA,0.0,9.0,6.0,29.0,1986,4.0,DET,6.0,24.0
29.0,7.0,3.0,17.0,14.0,14.0,27.0,1.0,4.0,27.0,12.0,12.0,29.5,NBA,0.0,9.0,6.0,30.0,1987,3.0,DET,7.0,22.0
30.0,8.0,4.0,16.0,14.0,13.0,22.0,2.0,3.0,23.0,9.0,12.0,25.5,NBA,0.0,7.0,6.0,30.0,1988,4.0,DET,5.0,18.0
31.0,7.0,6.0,18.0,11.0,11.0,21.0,3.0,5.0,22.0,10.0,12.0,26.2,NBA,0.0,5.0,6.0,32.0,1989,4.0,DET,6.0,22.0
32.0,5.0,4.0,18.0,11.0,11.0,18.0,5.0,8.0,19.0,10.0,12.0,34.8,NBA,0.0,6.0,6.0,31.0,1990,3.0,DET,5.0,23.0
33.0,7.0,3.0,17.0,11.0,9.0,15.0,3.0,8.0,19.0,6.0,7.0,21.7,NBA,0.0,6.0,6.0,25.0,1991,4.0,DET,4.0,20.0
34.0,6.0,3.0,11.0,12.0,11.0,18.0,4.0,6.0,19.0,4.0,5.0,25.9,NBA,0.0,5.0,5.0,26.0,1992,4.0,DET,5.0,12.0
35.0,7.0,2.0,12.0,10.0,9.0,16.0,2.0,3.0,16.0,6.0,6.0,25.6,NBA,0.0,11.0,6.0,24.0,1993,5.0,DET,4.0,14.0
36.0,6.0,2.0,8.0,12.0,12.0,16.0,1.0,2.0,17.0,4.0,5.0,23.2,NBA,0.0,2.0,5.0,26.0,1994,2.0,DET,3.0,9.0
