age,ast_per_poss,blk_per_poss,def_rtg,drb_per_poss,fg2_pct,fg2_per_poss,fg2a_per_poss,fg3_pct,fg3_per_poss,fg3a_per_poss,fg_pct,fg_per_poss,fga_per_poss,ft_pct,ft_per_poss,fta_per_poss,g,gs,lg_id,mp,off_rtg,orb_per_poss,pf_per_poss,pos,pts_per_poss,season,stl_per_poss,team_id,tov_per_poss,trb_per_poss
26.0,3.5,0.9,104.0,13.9,0.569,8.4,14.7,0.0,0.0,0.0,0.569,8.4,14.7,0.9,5.2,5.8,5.0,0.0,NBA,165.0,120.0,4.0,6.6,C,22.0,1984,1.2,DET,3.5,17.9
27.0,2.1,1.0,113.0,8.6,0.457,6.9,15.0,0.0,0.0,0.3,0.449,6.9,15.3,0.706,5.2,7.3,9.0,9.0,NBA,325.0,111.0,5.2,4.6,C,18.9,1985,1.0,DET,2.3,13.7
28.0,0.3,0.8,113.0,10.2,0.493,9.3,18.9,1.0,0.3,0.3,0.5,9.6,19.2,0.913,5.9,6.5,4.0,4.0,NBA,168.0,121.0,5.7,5.4,C,25.4,1986,0.6,DET,2.3,15.8
29.0,3.4,1.1,104.0,11.6,0.525,7.7,14.6,0.2,0.1,0.5,0.515,7.7,15.0,0.625,1.4,2.2,15.0,15.0,NBA,543.0,112.0,2.8,4.9,C,17.0,1987,1.4,DET,1.8,14.4
30.0,3.0,1.3,100.0,12.0,0.468,7.4,15.8,0.294,0.3,1.2,0.456,7.7,16.9,0.889,2.7,3.0,23.0,23.0,NBA,779.0,108.0,2.9,5.2,C,18.5,1988,1.2,DET,2.0,15.0
31.0,3.4,0.9,102.0,12.4,0.51,5.5,10.9,0.357,1.6,4.6,0.465,7.2,15.4,0.806,2.7,3.4,17.0,17.0,NBA,497.0,115.0,2.8,6.0,C,18.7,1989,0.7,DET,2.1,15.2
32.0,2.2,1.4,96.0,13.3,0.487,5.9,12.2,0.349,1.2,3.4,0.457,7.1,15.5,0.862,2.0,2.3,20.0,20.0,NBA,667.0,116.0,3.2,6.0,C,17.3,1990,1.8,DET,1.2,16.5
33.0,2.3,1.4,111.0,9.5,0.466,7.3,15.6,0.294,0.6,2.0,0.446,7.9,17.6,0.871,3.2,3.7,15.0,15.0,NBA,446.0,112.0,5.0,6.4,C,19.6,1991,0.6,DET,2.0,14.5
34.0,3.1,0.4,101.0,10.8,0.417,5.8,13.9,0.2,0.8,3.9,0.37,6.6,17.8,1.0,1.9,1.9,5.0,4.0,NBA,145.0,89.0,1.9,7.0,C,15.8,1992,1.5,DET,1.9,12.7
