age,and1s,astd_pts,drawn_offensive,drawn_shooting,fouls_offensive,fouls_shooting,g,lg_id,mp,own_shots_blk,pct_1,pct_2,pct_3,pct_4,pct_5,plus_minus_net,plus_minus_on,pos,season,team_id,tov_bad_pass,tov_lost_ball
25.0,1.0,4.0,0.0,9.0,1.0,11.0,26.0,NBA,123.0,6.0,0.0,0.0,0.0,27.0,73.0,-25.5,-22.1,C,2001,TOR,1.0,3.0
26.0,1.0,6.0,0.0,5.0,1.0,12.0,11.0,NBA,93.0,1.0,0.0,0.0,0.0,45.0,54.0,-2.3,-2.8,C,2002,TOR,2.0,0.0
27.0,1.0,14.0,0.0,5.0,2.0,25.0,47.0,NBA,251.0,11.0,0.0,1.0,17.0,63.0,19.0,-0.8,-11.2,PF,2003,CLE,7.0,1.0
28.0,0.0,0.0,0.0,2.0,0.0,20.0,25.0,NBA,147.0,2.0,0.0,0.0,1.0,61.0,38.0,-14.7,-16.6,C-PF,2004,TOT,1.0,1.0
28.0,0.0,0.0,0.0,1.0,0.0,14.0,8.0,NBA,76.0,2.0,0.0,0.0,0.0,97.0,3.0,-26.6,-29.1,PF,2004,CLE,0.0,1.0
28.0,0.0,0.0,0.0,1.0,0.0,6.0,17.0,NBA,71.0,0.0,0.0,0.0,2.0,22.0,76.0,-2.2,-3.5,C,2004,BOS,1.0,0.0
29.0,1.0,12.0,0.0,4.0,4.0,17.0,12.0,NBA,145.0,3.0,0.0,0.0,1.0,85.0,15.0,-4.0,-14.5,PF,2005,ATL,0.0,0.0
