age,and1s,astd_pts,drawn_offensive,drawn_shooting,fouls_offensive,fouls_shooting,g,lg_id,mp,own_shots_blk,pct_1,pct_2,pct_3,pct_4,pct_5,plus_minus_net,plus_minus_on,pos,season,team_id,tov_bad_pass,tov_lost_ball
25.0,28.0,158.0,0.0,115.0,16.0,145.0,81.0,NBA,1720.0,60.0,0.0,0.0,0.0,40.0,60.0,1.1,0.9,PF,2001,TOT,23.0,32.0
25.0,5.0,74.0,0.0,48.0,13.0,58.0,35.0,NBA,752.0,33.0,0.0,0.0,0.0,31.0,69.0,1.5,-1.2,PF,2001,DEN,13.0,14.0
25.0,23.0,84.0,0.0,67.0,3.0,87.0,46.0,NBA,968.0,27.0,0.0,0.0,0.0,48.0,52.0,0.1,2.6,PF,2001,TOR,10.0,18.0
26.0,23.0,198.0,0.0,108.0,24.0,159.0,81.0,NBA,2185.0,73.0,0.0,0.0,0.0,30.0,70.0,-1.6,-1.3,C,2002,TOR,47.0,47.0
27.0,10.0,179.0,0.0,57.0,10.0,158.0,80.0,NBA,1780.0,30.0,0.0,0.0,0.0,37.0,63.0,-1.9,5.6,C,2003,SAC,36.0,40.0
28.0,0.0,2.0,0.0,0.0,0.0,0.0,2.0,NBA,27.0,0.0,0.0,0.0,0.0,84.0,16.0,28.5,26.8,PF,2004,UTA,0.0,0.0
