lg_id,salary,season,team_name
NBA,70000.0,1986,New York Knicks
NBA,80000.0,1987,New York Knicks
NBA,125000.0,1988,Philadelphia 76ers
NBA,200000.0,1989,Philadelphia 76ers
NBA,335000.0,1991,Minnesota Timberwolves
NBA,335000.0,1992,Minnesota Timberwolves
