age,ast_per_mp,blk_per_mp,drb_per_mp,fg2_pct,fg2_per_mp,fg2a_per_mp,fg3_pct,fg3_per_mp,fg3a_per_mp,fg_pct,fg_per_mp,fga_per_mp,ft_pct,ft_per_mp,fta_per_mp,g,gs,lg_id,mp,orb_per_mp,pf_per_mp,pos,pts_per_mp,season,stl_per_mp,team_id,tov_per_mp,trb_per_mp
27.0,1.6,0.4,1.6,0.389,2.8,7.3,0.0,0.0,0.0,0.389,2.8,7.3,0.5,2.0,4.0,9.0,0.0,NBA,89.0,4.4,8.9,PF,7.7,1990,0.8,PHI,0.8,6.1
29.0,1.1,0.0,5.6,0.4,2.3,5.6,0.0,0.0,0.0,0.4,2.3,5.6,0.75,3.4,4.5,7.0,0.0,NBA,32.0,4.5,3.4,PF,7.9,1992,0.0,UTA,1.1,10.1
