age,ast,blk,drb,fg,fg2,fg2a,fg3,fg3a,fga,ft,fta,game_score,lg_id,mp,orb,pf,pts,season,stl,team_id,tov,trb
26.0,1.0,3.0,3.0,3.0,3.0,3.0,0.0,0.0,3.0,2.0,2.0,9.0,NBA,36,5.0,4.0,6.0,2009,0.0,MIA,1.0,8.0
27.0,1.0,2.0,2.0,3.0,3.0,3.0,0.0,0.0,3.0,2.0,2.0,5.2,NBA,21,2.0,4.0,6.0,2010,2.0,MIA,1.0,3.0
28.0,2.0,5.0,7.0,6.0,6.0,7.0,0.0,0.0,7.0,4.0,4.0,15.1,NBA,39,5.0,5.0,12.0,2011,2.0,MIA,2.0,11.0
29.0,1.0,4.0,5.0,4.0,4.0,5.0,0.0,0.0,5.0,6.0,6.0,8.9,NBA,35,5.0,5.0,10.0,2012,2.0,MIA,1.0,7.0
30.0,0.0,3.0,3.0,1.0,1.0,5.0,0.0,0.0,5.0,0.0,0.0,4.4,NBA,29,5.0,5.0,2.0,2013,1.0,MIA,2.0,8.0
34.0,0.0,1.0,1.0,3.0,3.0,4.0,0.0,0.0,4.0,0.0,1.0,5.0,NBA,13,2.0,2.0,6.0,2017,0.0,SAS,1.0,3.0
