age,ast,blk,drb,efg_pct,fg,fg2,fg2_pct,fg2a,fg3,fg3_pct,fg3a,fg_pct,fga,ft,ft_pct,fta,g,gs,lg_id,mp,orb,pf,pos,pts,season,stl,team_id,tov,trb
26.0,2.0,7.0,10.0,0.8,4.0,4.0,0.8,5.0,0.0,0.0,0.0,0.8,5.0,2.0,1.0,2.0,6.0,2.0,NBA,88.0,9.0,9.0,C,10.0,2009,0.0,MIA,1.0,19.0
27.0,1.0,5.0,3.0,0.714,5.0,5.0,0.714,7.0,0.0,0.0,0.0,0.714,7.0,3.0,0.75,4.0,5.0,0.0,NBA,79.0,6.0,9.0,C,13.0,2010,2.0,MIA,1.0,9.0
28.0,10.0,38.0,62.0,0.367,18.0,18.0,0.367,49.0,0.0,0.0,0.0,0.367,49.0,22.0,0.71,31.0,21.0,13.0,NBA,575.0,35.0,54.0,C,58.0,2011,8.0,MIA,13.0,97.0
29.0,2.0,16.0,33.0,0.586,17.0,17.0,0.586,29.0,0.0,0.0,0.0,0.586,29.0,20.0,0.8,25.0,17.0,1.0,NBA,329.0,22.0,41.0,C,54.0,2012,5.0,MIA,8.0,55.0
30.0,0.0,4.0,11.0,0.3,3.0,3.0,0.3,10.0,0.0,0.0,0.0,0.3,10.0,0.0,0.0,0.0,14.0,0.0,NBA,71.0,10.0,13.0,C,6.0,2013,2.0,MIA,3.0,21.0
34.0,0.0,2.0,2.0,0.75,3.0,3.0,0.75,4.0,0.0,0.0,0.0,0.75,4.0,0.0,0.0,1.0,3.0,0.0,NBA,15.0,2.0,2.0,C,6.0,2017,0.0,SAS,1.0,4.0
