age,ast_pct,blk_pct,bpm,bpm-dum,dbpm,drb_pct,dws,fg3a_per_fga_pct,fta_per_fga_pct,g,lg_id,mp,obpm,orb_pct,ows,per,pos,season,stl_pct,team_id,tov_pct,trb_pct,ts_pct,usg_pct,vorp,ws,ws-dum,ws_per_48
22.0,8.7,0.0,-17.2,0.0,-4.5,8.2,0.0,0.12,0.32,12.0,NBA,55.0,-12.6,0.0,-0.3,-3.9,SG,2009,0.9,DEN,17.4,4.2,0.333,27.9,-0.2,-0.3,0.0,-0.255
23.0,11.6,1.4,-1.9,0.0,-0.7,12.6,0.5,0.033,0.14,69.0,NBA,1368.0,-1.2,3.7,0.8,12.9,SG,2010,1.5,TOR,11.8,8.3,0.533,18.4,0.0,1.3,0.0,0.044
24.0,11.6,0.1,-4.7,0.0,-2.4,9.8,0.0,0.119,0.183,59.0,NBA,1413.0,-2.3,3.2,-0.4,10.2,SF,2011,1.2,TOR,13.4,6.4,0.492,20.3,-1.0,-0.4,0.0,-0.013
29.0,14.2,0.2,-7.6,0.0,-1.8,10.3,0.1,0.373,0.136,43.0,NBA,499.0,-5.7,1.5,-0.7,3.7,SG-SF,2016,1.0,TOT,26.0,5.8,0.459,13.5,-0.7,-0.5,0.0,-0.053
29.0,16.2,0.2,-6.8,0.0,-1.5,9.2,0.1,0.36,0.146,36.0,NBA,421.0,-5.3,1.5,-0.5,4.3,SG,2016,1.2,PHO,28.1,5.3,0.475,13.3,-0.5,-0.4,0.0,-0.043
29.0,3.9,0.0,-11.7,0.0,-3.5,15.9,0.0,0.429,0.095,7.0,NBA,78.0,-8.2,1.3,-0.2,0.8,SF,2016,0.0,PHI,15.5,8.4,0.388,14.5,-0.2,-0.2,0.0,-0.104
