age,ast,blk,drb,fg,fg2,fg2a,fg3,fg3a,fga,ft,fta,game_score,lg_id,mp,orb,pf,pts,season,stl,team_id,tov,trb
23.0,3.0,4.0,7.0,7.0,7.0,13.0,0.0,1.0,13.0,5.0,6.0,13.1,NBA,0.0,3.0,5.0,16.0,2004,2.0,LAL,3.0,10.0
24.0,3.0,3.0,9.0,10.0,6.0,9.0,5.0,8.0,17.0,4.0,4.0,25.9,NBA,0.0,7.0,6.0,25.0,2005,2.0,LAL,2.0,11.0
25.0,5.0,3.0,8.0,12.0,10.0,15.0,3.0,5.0,18.0,6.0,6.0,23.3,NBA,43.0,7.0,6.0,28.0,2006,2.0,LAL,3.0,10.0
26.0,4.0,4.0,9.0,10.0,9.0,16.0,4.0,7.0,19.0,4.0,7.0,23.1,NBA,50.0,5.0,6.0,26.0,2007,2.0,LAL,6.0,14.0
27.0,2.0,2.0,5.0,7.0,3.0,6.0,4.0,5.0,10.0,4.0,4.0,12.3,NBA,29.0,3.0,6.0,18.0,2008,3.0,TOT,4.0,6.0
27.0,1.0,0.0,2.0,2.0,1.0,5.0,2.0,5.0,10.0,4.0,4.0,4.7,NBA,20.0,3.0,2.0,10.0,2008,1.0,LAL,2.0,5.0
27.0,2.0,2.0,5.0,7.0,3.0,6.0,4.0,5.0,9.0,2.0,2.0,12.3,NBA,29.0,3.0,6.0,18.0,2008,3.0,ORL,4.0,6.0
28.0,1.0,1.0,5.0,3.0,2.0,6.0,3.0,4.0,9.0,2.0,2.0,6.6,NBA,16.0,3.0,5.0,9.0,2009,2.0,TOT,2.0,8.0
28.0,1.0,0.0,5.0,3.0,2.0,6.0,3.0,4.0,9.0,2.0,2.0,6.6,NBA,16.0,3.0,5.0,9.0,2009,2.0,ORL,2.0,8.0
28.0,1.0,1.0,1.0,2.0,1.0,3.0,1.0,1.0,4.0,0.0,0.0,4.7,NBA,7.0,1.0,2.0,5.0,2009,0.0,HOU,1.0,2.0
29.0,1.0,2.0,3.0,2.0,2.0,6.0,1.0,2.0,7.0,2.0,2.0,3.0,NBA,9.0,1.0,2.0,4.0,2010,0.0,HOU,2.0,3.0
30.0,2.0,2.0,7.0,6.0,4.0,8.0,4.0,6.0,11.0,4.0,4.0,14.9,NBA,28.0,3.0,6.0,17.0,2011,2.0,LAC,3.0,10.0
31.0,2.0,1.0,7.0,4.0,3.0,5.0,2.0,4.0,7.0,2.0,2.0,11.5,NBA,29.0,3.0,5.0,10.0,2012,1.0,TOT,2.0,9.0
31.0,2.0,1.0,4.0,2.0,1.0,3.0,2.0,4.0,7.0,2.0,2.0,4.5,NBA,18.0,2.0,5.0,8.0,2012,1.0,LAC,1.0,6.0
31.0,2.0,1.0,7.0,4.0,3.0,5.0,2.0,4.0,7.0,2.0,2.0,11.5,NBA,29.0,3.0,4.0,10.0,2012,1.0,WAS,2.0,9.0
