article_url,date,headline
https://kingjamesgospel.com/2019/09/18/cleveland-cavaliers-10-greatest-guards-franchise-history/,2019/09/18,Right Down Euclid: Cleveland Cavaliers: 10 greatest guards in franchise history
https://airalamo.com/2019/08/16/san-antonio-spurs-gregg-popovich-coaching-tree/,2019/08/16,Air Alamo: San Antonio Spurs: Analyzing the Gregg Popovich coaching tree
https://lakeshowlife.com/2019/08/03/los-angeles-lakers-david-griffin-miserable-building-around-lebron-james/,2019/08/03,Lake Show Life: Los Angeles Lakers: David Griffin says its miserable building around LeBron James! LeBron Shocked!
https://lastwordonprobasketball.com/2019/07/22/cleveland-cavaliers-all-time-team/,2019/07/22,Last Word on Sports: Cleveland Cavaliers All-Time Team
https://wizofawes.com/2019/06/14/washington-wizards-going-after-raptors-masai-ujiri-for-gm/,2019/06/14,Wiz of Awes: Are the Washington Wizards going after Masai Ujiri for GM?
