age,and1s,astd_pts,drawn_offensive,drawn_shooting,fouls_offensive,fouls_shooting,g,lg_id,mp,own_shots_blk,pct_1,pct_2,pct_3,pct_4,pct_5,plus_minus_net,plus_minus_on,pos,season,team_id,tov_bad_pass,tov_lost_ball
34.0,0.0,157.0,0.0,4.0,7.0,77.0,80.0,NBA,1688.0,8.0,0.0,0.0,85.0,15.0,0.0,6.7,12.7,SF,2001,SAS,34.0,3.0
35.0,0.0,107.0,0.0,4.0,1.0,34.0,50.0,NBA,799.0,5.0,0.0,0.0,91.0,9.0,0.0,1.8,8.6,SF,2002,SAS,17.0,2.0
36.0,1.0,51.0,0.0,4.0,2.0,26.0,64.0,NBA,601.0,1.0,0.0,0.0,59.0,40.0,1.0,-5.7,1.3,SF,2003,SAS,19.0,5.0
