age,ast_pct,blk_pct,bpm,bpm-dum,dbpm,drb_pct,dws,fg3a_per_fga_pct,fta_per_fga_pct,g,lg_id,mp,obpm,orb_pct,ows,per,pos,season,stl_pct,team_id,tov_pct,trb_pct,ts_pct,usg_pct,vorp,ws,ws-dum,ws_per_48
25.0,9.3,0.5,-2.5,0.0,-0.6,8.1,0.3,0.035,0.104,18.0,NBA,438.0,-1.9,6.0,0.2,10.6,SG,1989,1.9,SAS,12.7,7.0,0.515,15.3,-0.1,0.5,0.0,0.054
26.0,13.9,0.3,-3.6,0.0,0.4,9.3,1.3,0.072,0.184,66.0,NBA,918.0,-4.0,4.2,-0.6,8.8,SG,1990,2.2,HOU,15.7,6.8,0.448,16.6,-0.4,0.7,0.0,0.037
28.0,14.9,1.4,0.7,0.0,0.5,11.7,1.1,0.07,0.215,52.0,NBA,1721.0,0.2,4.4,1.8,14.7,SG,1992,1.6,ORL,13.4,8.0,0.547,19.3,1.2,2.9,0.0,0.082
29.0,14.9,0.5,-1.6,0.0,-0.1,9.6,1.6,0.084,0.148,77.0,NBA,1761.0,-1.6,2.5,0.9,11.2,SG,1993,1.5,ORL,12.2,6.2,0.51,16.9,0.2,2.5,0.0,0.069
30.0,15.4,0.8,-2.9,0.0,-0.7,10.7,0.7,0.062,0.17,70.0,NBA,948.0,-2.2,3.5,0.6,11.5,SG,1994,1.7,ORL,15.7,7.1,0.515,16.6,-0.2,1.3,0.0,0.065
31.0,17.3,1.1,-2.0,0.0,-0.7,7.5,1.0,0.108,0.198,77.0,NBA,1261.0,-1.2,5.1,1.0,11.7,SG,1995,1.9,ORL,17.7,6.3,0.532,16.6,0.0,2.0,0.0,0.077
32.0,14.2,0.7,-3.0,0.0,-0.7,8.8,0.9,0.114,0.169,74.0,NBA,1078.0,-2.2,4.4,0.7,10.4,SG,1996,1.6,ORL,15.8,6.6,0.527,14.6,-0.3,1.6,0.0,0.071
34.0,8.5,0.7,-0.8,0.0,0.2,9.2,0.3,0.068,0.153,27.0,NBA,224.0,-0.9,4.8,0.4,12.9,SG,1998,1.5,NYK,10.0,7.0,0.596,14.6,0.1,0.7,0.0,0.148
