age,ast_per_g,blk_per_g,drb_per_g,efg_pct,fg2_pct,fg2_per_g,fg2a_per_g,fg3_pct,fg3_per_g,fg3a_per_g,fg_pct,fg_per_g,fga_per_g,ft_pct,ft_per_g,fta_per_g,g,gs,lg_id,mp_per_g,orb_per_g,pf_per_g,pos,pts_per_g,season,stl_per_g,team_id,tov_per_g,trb_per_g
26.0,0.0,0.0,0.0,0.0,0.0,0.0,0.5,0.0,0.0,0.0,0.0,0.0,0.5,0.0,0.0,0.0,2.0,0.0,NBA,2.0,0.0,0.5,SG,0.0,1990,0.0,HOU,0.0,0.0
30.0,0.0,0.0,0.0,0.0,0.0,0.0,0.5,0.0,0.0,0.0,0.0,0.0,0.5,0.0,0.0,0.0,2.0,0.0,NBA,6.5,0.0,1.5,SG,0.0,1994,0.0,ORL,0.0,0.0
31.0,1.1,0.1,0.5,0.56,0.457,0.9,2.1,0.714,0.3,0.4,0.5,1.2,2.5,0.889,0.5,0.5,17.0,0.0,NBA,6.9,0.2,1.4,SG,3.2,1995,0.1,ORL,0.5,0.7
32.0,1.2,0.2,1.2,0.481,0.481,1.1,2.3,0.0,0.0,0.0,0.481,1.1,2.3,1.0,0.3,0.3,12.0,1.0,NBA,12.7,0.3,1.3,SG,2.5,1996,0.3,ORL,0.4,1.4
34.0,0.1,0.0,0.0,0.5,0.5,0.3,0.6,0.0,0.0,0.0,0.5,0.3,0.6,0.0,0.0,0.0,7.0,0.0,NBA,3.3,0.0,0.6,SG,0.6,1998,0.1,NYK,0.1,0.0
