age,ast,blk,drb,fg,fg2,fg2a,fg3,fg3a,fga,ft,fta,game_score,lg_id,mp,orb,pf,pts,season,stl,team_id,tov,trb
23.0,8.0,2.0,10.0,13.0,11.0,15.0,4.0,6.0,17.0,7.0,9.0,31.0,NBA,0.0,5.0,6.0,30.0,1999,7.0,LAC,4.0,12.0
24.0,6.0,2.0,9.0,11.0,8.0,16.0,5.0,11.0,23.0,10.0,12.0,21.6,NBA,0.0,6.0,6.0,29.0,2000,4.0,LAC,5.0,9.0
25.0,5.0,2.0,6.0,10.0,9.0,14.0,4.0,8.0,18.0,13.0,13.0,14.7,NBA,0.0,4.0,6.0,22.0,2001,3.0,TOT,3.0,7.0
25.0,3.0,1.0,3.0,8.0,7.0,12.0,4.0,7.0,15.0,13.0,13.0,14.7,NBA,0.0,4.0,4.0,19.0,2001,2.0,LAC,2.0,6.0
25.0,5.0,2.0,6.0,10.0,9.0,14.0,3.0,8.0,18.0,4.0,6.0,13.5,NBA,0.0,3.0,6.0,22.0,2001,3.0,WAS,3.0,7.0
26.0,5.0,3.0,7.0,8.0,8.0,14.0,2.0,3.0,14.0,6.0,8.0,17.9,NBA,0.0,5.0,6.0,18.0,2002,5.0,WAS,3.0,10.0
