age,ast,blk,drb,efg_pct,fg,fg2,fg2_pct,fg2a,fg3,fg3_pct,fg3a,fg_pct,fga,ft,ft_pct,fta,g,gs,lg_id,mp,orb,pf,pos,pts,season,stl,team_id,tov,trb
25.0,5.0,2.0,4.0,0.211,4.0,4.0,0.235,17.0,0.0,0.0,2.0,0.211,19.0,4.0,0.571,7.0,4.0,0.0,NBA,62.0,2.0,8.0,SG,12.0,2005,0.0,SEA,2.0,6.0
26.0,21.0,2.0,31.0,0.353,37.0,32.0,0.364,88.0,5.0,0.208,24.0,0.33,112.0,26.0,0.813,32.0,13.0,5.0,NBA,399.0,11.0,27.0,SG,105.0,2006,9.0,CLE,9.0,42.0
27.0,14.0,1.0,7.0,0.355,11.0,11.0,0.379,29.0,0.0,0.0,2.0,0.355,31.0,8.0,0.727,11.0,12.0,0.0,NBA,136.0,2.0,12.0,SG,30.0,2007,4.0,DET,8.0,9.0
29.0,28.0,3.0,24.0,0.398,42.0,28.0,0.384,73.0,14.0,0.28,50.0,0.341,123.0,32.0,0.865,37.0,11.0,0.0,NBA,341.0,6.0,17.0,SG,130.0,2009,12.0,ATL,14.0,30.0
30.0,10.0,0.0,9.0,0.459,15.0,11.0,0.44,25.0,4.0,0.333,12.0,0.405,37.0,8.0,1.0,8.0,5.0,0.0,NBA,97.0,4.0,3.0,SG,42.0,2010,2.0,CHI,1.0,13.0
