age,ast_per_g,blk_per_g,drb_per_g,efg_pct,fg2_pct,fg2_per_g,fg2a_per_g,fg3_pct,fg3_per_g,fg3a_per_g,fg_pct,fg_per_g,fga_per_g,ft_pct,ft_per_g,fta_per_g,g,gs,lg_id,mp_per_g,orb_per_g,pf_per_g,pos,pts_per_g,season,stl_per_g,team_id,tov_per_g,trb_per_g
26.0,0.4,0.6,0.8,0.364,0.364,0.5,1.4,0.0,0.0,0.0,0.364,0.5,1.4,0.722,0.6,0.8,23.0,0.0,NBA,6.7,0.3,0.7,C,1.6,1997,0.1,SAC,0.5,1.1
27.0,0.2,0.7,0.9,0.077,0.077,0.1,0.8,0.0,0.0,0.0,0.077,0.1,0.8,0.5,0.2,0.4,16.0,0.0,NBA,5.4,0.3,0.8,C,0.3,1998,0.0,SAC,0.3,1.3
