age,ast_pct,blk_pct,bpm,bpm-dum,dbpm,drb_pct,dws,fg3a_per_fga_pct,fta_per_fga_pct,g,lg_id,mp,obpm,orb_pct,ows,per,pos,season,stl_pct,team_id,tov_pct,trb_pct,ts_pct,usg_pct,vorp,ws,ws-dum,ws_per_48
21.0,6.4,1.7,-3.2,0.0,-1.6,14.7,0.2,0.017,0.534,27.0,NBA,380.0,-1.6,11.2,0.5,14.0,PF,2016,1.1,MEM,11.7,12.9,0.534,19.2,-0.1,0.8,0.0,0.1
22.0,2.2,1.5,-6.4,0.0,-0.6,25.3,0.8,0.166,0.331,42.0,NBA,558.0,-5.8,8.4,-0.2,8.7,PF,2017,1.6,MEM,13.9,16.6,0.477,16.4,-0.6,0.6,0.0,0.054
23.0,7.0,2.8,-3.0,0.0,0.0,15.8,1.2,0.198,0.234,73.0,NBA,1661.0,-3.0,6.6,0.1,10.5,PF,2018,1.2,MEM,13.6,11.1,0.516,17.1,-0.4,1.3,0.0,0.038
24.0,7.8,2.0,-3.9,0.0,-0.8,20.5,0.4,0.548,0.106,42.0,NBA,328.0,-3.1,3.5,0.1,9.4,PF,2019,0.4,ORL,9.2,11.9,0.528,15.9,-0.2,0.5,0.0,0.073
