age,ast,blk,drb,fg,fg2,fg2a,fg3,fg3a,fga,ft,fta,game_score,lg_id,mp,orb,pf,pts,season,stl,team_id,tov,trb
21.0,2.0,1.0,6.0,7.0,7.0,11.0,0.0,1.0,12.0,9.0,10.0,13.2,NBA,30,6.0,5.0,17.0,2016,2.0,MEM,3.0,8.0
22.0,1.0,1.0,11.0,5.0,4.0,12.0,2.0,2.0,13.0,4.0,4.0,12.6,NBA,28,5.0,6.0,13.0,2017,2.0,MEM,3.0,12.0
23.0,5.0,5.0,11.0,8.0,8.0,13.0,3.0,5.0,15.0,6.0,8.0,19.4,NBA,38,6.0,6.0,20.0,2018,2.0,MEM,4.0,14.0
24.0,3.0,2.0,5.0,4.0,3.0,5.0,4.0,5.0,10.0,3.0,3.0,8.5,NBA,28,2.0,6.0,12.0,2019,2.0,ORL,2.0,6.0
