age,ast_per_poss,blk_per_poss,def_rtg,drb_per_poss,fg2_pct,fg2_per_poss,fg2a_per_poss,fg3_pct,fg3_per_poss,fg3a_per_poss,fg_pct,fg_per_poss,fga_per_poss,ft_pct,ft_per_poss,fta_per_poss,g,gs,lg_id,mp,off_rtg,orb_per_poss,pf_per_poss,pos,pts_per_poss,season,stl_per_poss,team_id,tov_per_poss,trb_per_poss
23.0,1.9,0.4,110.0,3.2,0.426,1.9,4.4,0.381,4.4,11.5,0.393,6.2,15.9,0.898,2.0,2.3,68.0,6.0,NBA,1055.0,113.0,0.8,5.3,SG,18.9,2017,1.7,OKC,1.5,4.0
24.0,1.2,0.4,110.0,3.9,0.443,1.4,3.1,0.38,3.7,9.7,0.395,5.0,12.7,0.848,1.7,2.0,75.0,8.0,NBA,1134.0,116.0,1.1,5.4,SG,15.4,2018,1.7,OKC,1.1,5.0
25.0,1.6,0.5,111.0,3.4,0.5,1.2,2.4,0.323,3.3,10.1,0.357,4.4,12.5,0.923,1.0,1.0,31.0,2.0,NBA,588.0,103.0,0.4,4.2,SG,13.1,2019,1.3,OKC,1.1,3.8
