age,ast_pct,blk_pct,bpm,bpm-dum,dbpm,drb_pct,dws,fg3a_per_fga_pct,fta_per_fga_pct,g,lg_id,mp,obpm,orb_pct,ows,per,pos,season,stl_pct,team_id,tov_pct,trb_pct,ts_pct,usg_pct,vorp,ws,ws-dum,ws_per_48
26.0,5.6,8.5,4.5,0.0,7.5,19.0,2.2,0.0,0.339,55.0,NBA,766.0,-3.0,7.7,0.6,13.6,C,2012,2.6,BOS,19.2,13.6,0.579,10.8,1.2,2.7,0.0,0.17
27.0,3.9,5.8,-1.4,0.0,3.7,19.5,2.0,0.0,0.248,76.0,NBA,1209.0,-5.1,5.6,-0.3,10.5,C,2013,1.9,MIN,16.1,12.3,0.498,13.6,0.2,1.7,0.0,0.069
28.0,5.0,4.7,0.6,0.0,2.9,18.0,1.0,0.008,0.262,55.0,NBA,1007.0,-2.3,8.2,0.5,9.7,C,2014,1.8,NOP,24.4,13.0,0.584,8.1,0.7,1.5,0.0,0.072
29.0,6.6,0.0,-1.7,0.0,-0.6,10.5,0.0,0.0,0.5,17.0,NBA,66.0,-1.1,15.7,0.0,7.8,C,2015,1.6,TOR,41.8,13.1,0.717,11.5,0.0,0.1,0.0,0.05
