age,ast_per_g,blk_per_g,drb_per_g,efg_pct,fg2_pct,fg2_per_g,fg2a_per_g,fg3_pct,fg3_per_g,fg3a_per_g,fg_pct,fg_per_g,fga_per_g,ft_pct,ft_per_g,fta_per_g,g,gs,lg_id,mp_per_g,orb_per_g,pf_per_g,pos,pts_per_g,season,stl_per_g,team_id,tov_per_g,trb_per_g
26.0,0.3,0.6,1.7,0.667,0.667,0.6,0.9,0.0,0.0,0.0,0.667,0.6,0.9,0.667,0.2,0.3,19.0,0.0,NBA,7.5,0.5,1.4,C,1.5,2012,0.2,BOS,0.2,2.2
29.0,0.0,0.0,0.0,1.0,1.0,2.0,2.0,0.0,0.0,0.0,1.0,2.0,2.0,0.5,1.0,2.0,1.0,0.0,NBA,2.0,0.0,0.0,C,5.0,2015,0.0,TOR,0.0,0.0
