article_url,date,headline
https://hoopshabit.com/2019/10/11/orlando-magic-love-preseason/,2019/10/11,Hoops Habit: Orlando Magic even making the preseason fun to watch
https://fansided.com/2019/09/26/nba-central-division-interesting-players/,2019/09/26,FanSided: The most interesting players in the NBA's Central Division
https://pistonpowered.com/2019/09/23/detroit-pistons-stan-van-gundy-era-dwane-casey/,2019/09/23,Piston Powered: How the Detroit Pistons transitioned from Stan Van Gundy era to Dwane Casey's new reign
https://hoopshabit.com/2019/09/19/orlando-magic-3-bold-predictions-2019-20-nba-season/,2019/09/19,Hoops Habit: Orlando Magic: 3 bold predictions for 2019-20 NBA season
https://pistonpowered.com/2019/09/18/detroit-pistons-5-best-acquisitions-of-the-last-10-years/,2019/09/18,Piston Powered: Detroit Pistons 5 best acquisitions of the last 10 years
