age,ast_per_poss,blk_per_poss,def_rtg,drb_per_poss,fg2_pct,fg2_per_poss,fg2a_per_poss,fg3_pct,fg3_per_poss,fg3a_per_poss,fg_pct,fg_per_poss,fga_per_poss,ft_pct,ft_per_poss,fta_per_poss,g,gs,lg_id,mp,off_rtg,orb_per_poss,pf_per_poss,pos,pts_per_poss,season,stl_per_poss,team_id,tov_per_poss,trb_per_poss
20.0,5.6,0.9,111.0,3.6,0.468,8.3,17.8,0.293,2.7,9.2,0.408,11.0,27.0,0.808,4.7,5.8,7.0,7.0,NBA,249.0,109.0,1.1,4.3,PG,29.5,2010,1.8,MIL,1.8,4.7
23.0,6.4,0.4,109.0,3.2,0.379,4.4,11.5,0.214,2.4,11.1,0.298,6.8,22.7,0.722,5.2,7.2,4.0,4.0,NBA,133.0,82.0,0.4,2.4,PG,21.1,2013,3.6,MIL,4.4,3.6
27.0,6.7,0.0,117.0,3.9,0.522,3.3,6.4,0.154,0.6,3.6,0.389,3.9,10.0,0.875,2.0,2.2,13.0,0.0,NBA,178.0,104.0,1.4,3.6,PG,10.3,2017,0.6,WAS,2.2,5.3
28.0,0.0,0.0,119.0,0.0,0.0,0.0,0.0,0.0,0.0,20.8,0.0,0.0,20.8,1.0,20.8,20.8,1.0,0.0,NBA,5.0,55.0,0.0,0.0,PG,20.8,2018,0.0,MIL,10.4,0.0
