age,ast,blk,drb,fg,fg2,fg2a,fg3,fg3a,fga,ft,fta,game_score,lg_id,mp,orb,pf,pts,season,stl,team_id,tov,trb
20.0,13.0,3.0,8.0,21.0,14.0,26.0,8.0,13.0,34.0,9.0,10.0,39.8,NBA,45,3.0,5.0,55.0,2010,5.0,MIL,8.0,9.0
21.0,10.0,2.0,11.0,13.0,11.0,19.0,6.0,13.0,27.0,11.0,13.0,26.3,NBA,47,4.0,5.0,37.0,2011,5.0,MIL,6.0,11.0
22.0,12.0,3.0,7.0,15.0,10.0,17.0,7.0,14.0,26.0,12.0,13.0,28.9,NBA,45,3.0,5.0,36.0,2012,5.0,MIL,6.0,8.0
23.0,19.0,2.0,7.0,13.0,12.0,21.0,6.0,11.0,27.0,12.0,15.0,32.7,NBA,50,4.0,6.0,35.0,2013,6.0,MIL,7.0,11.0
24.0,18.0,2.0,8.0,12.0,10.0,20.0,6.0,11.0,24.0,12.0,14.0,32.3,NBA,47,3.0,5.0,35.0,2014,6.0,DET,8.0,10.0
25.0,21.0,1.0,5.0,14.0,9.0,16.0,8.0,13.0,23.0,9.0,10.0,30.2,NBA,39,2.0,4.0,37.0,2015,3.0,DET,5.0,5.0
26.0,11.0,2.0,8.0,7.0,4.0,7.0,5.0,11.0,14.0,8.0,9.0,17.1,NBA,33,3.0,4.0,22.0,2016,3.0,TOT,5.0,10.0
26.0,6.0,1.0,8.0,7.0,4.0,7.0,5.0,11.0,14.0,5.0,6.0,17.1,NBA,30,2.0,3.0,22.0,2016,2.0,DET,3.0,10.0
26.0,11.0,2.0,7.0,5.0,3.0,6.0,4.0,9.0,12.0,8.0,9.0,16.1,NBA,33,3.0,4.0,20.0,2016,3.0,ORL,5.0,8.0
27.0,13.0,1.0,6.0,12.0,9.0,14.0,6.0,9.0,22.0,9.0,11.0,26.1,NBA,54,3.0,5.0,32.0,2017,5.0,TOT,4.0,7.0
27.0,13.0,1.0,6.0,12.0,9.0,14.0,6.0,9.0,22.0,9.0,11.0,26.1,NBA,54,3.0,5.0,32.0,2017,5.0,NYK,4.0,7.0
27.0,9.0,0.0,6.0,6.0,2.0,5.0,4.0,6.0,10.0,3.0,3.0,21.0,NBA,29,2.0,4.0,18.0,2017,5.0,WAS,2.0,7.0
28.0,12.0,2.0,5.0,5.0,4.0,8.0,3.0,6.0,12.0,4.0,4.0,21.3,NBA,28,3.0,2.0,16.0,2018,2.0,MIL,3.0,8.0
