lg_id,salary,season,team_name
NBA,2168520.0,2010,Milwaukee Bucks
NBA,2331120.0,2011,Milwaukee Bucks
NBA,2493720.0,2012,Milwaukee Bucks
NBA,3179493.0,2013,Milwaukee Bucks
NBA,7655503.0,2014,Detroit Pistons
NBA,8000000.0,2015,Detroit Pistons
NBA,8344497.0,2016,Orlando Magic
NBA,4837318.0,2017,New York Knicks
NBA,1200000.0,2017,Washington Wizards
NBA,297169.0,2018,Milwaukee Bucks
