age,ast_per_poss,blk_per_poss,def_rtg,drb_per_poss,fg2_pct,fg2_per_poss,fg2a_per_poss,fg3_pct,fg3_per_poss,fg3a_per_poss,fg_pct,fg_per_poss,fga_per_poss,ft_pct,ft_per_poss,fta_per_poss,g,gs,lg_id,mp,off_rtg,orb_per_poss,pf_per_poss,pos,pts_per_poss,season,stl_per_poss,team_id,tov_per_poss,trb_per_poss
20.0,2.3,3.1,101.0,11.6,0.449,7.7,17.3,0.0,0.0,0.1,0.446,7.7,17.3,0.636,3.8,6.0,62.0,27.0,NBA,1103.0,96.0,5.7,9.4,C,19.3,2015,2.4,DEN,3.9,17.3
21.0,3.7,4.0,102.0,10.1,0.423,9.3,21.9,0.0,0.0,0.3,0.417,9.3,22.2,0.616,5.6,9.1,32.0,3.0,NBA,547.0,92.0,6.0,8.3,C,24.1,2016,2.2,DEN,5.0,16.0
22.0,4.3,2.6,107.0,11.1,0.508,9.6,18.8,0.0,0.0,0.0,0.507,9.6,18.9,0.571,4.2,7.4,65.0,48.0,NBA,1391.0,101.0,5.4,5.7,C,23.4,2017,1.8,TOT,5.1,16.5
22.0,3.6,2.2,109.0,10.3,0.507,9.1,18.0,0.0,0.0,0.0,0.507,9.1,18.0,0.496,3.4,6.8,45.0,29.0,NBA,807.0,98.0,5.4,5.3,C,21.7,2017,1.5,DEN,4.9,15.7
22.0,5.4,3.2,104.0,12.1,0.511,10.2,20.0,0.0,0.0,0.1,0.508,10.2,20.1,0.66,5.4,8.2,20.0,19.0,NBA,584.0,105.0,5.5,6.2,C,25.8,2017,2.1,POR,5.3,17.6
23.0,3.4,2.6,101.0,12.4,0.508,11.4,22.5,0.0,0.0,0.2,0.505,11.4,22.7,0.63,4.1,6.5,79.0,79.0,NBA,2088.0,102.0,4.5,5.9,C,27.0,2018,1.5,POR,4.4,16.9
24.0,5.7,2.5,105.0,12.4,0.523,10.2,19.6,0.103,0.1,0.7,0.508,10.3,20.3,0.773,6.9,9.0,72.0,72.0,NBA,1974.0,116.0,6.0,6.1,C,27.6,2019,1.7,POR,4.1,18.4
