lg_id,salary,season,team_name
NBA,1259400.0,2000,Orlando Magic
NBA,1353960.0,2001,Los Angeles Clippers
NBA,1448400.0,2002,Los Angeles Clippers
NBA,2069764.0,2003,Los Angeles Clippers
NBA,7000000.0,2004,Los Angeles Clippers
NBA,7000000.0,2005,Los Angeles Clippers
NBA,7000000.0,2006,Los Angeles Clippers
NBA,7000000.0,2007,Los Angeles Clippers
NBA,7000000.0,2008,Los Angeles Clippers
NBA,8275862.0,2009,Golden State Warriors
NBA,8937931.0,2010,Golden State Warriors
NBA,9600000.0,2011,Milwaukee Bucks
NBA,10262069.0,2012,Charlotte Bobcats
NBA,10924138.0,2013,Detroit Pistons
