age,and1s,astd_pts,drawn_offensive,drawn_shooting,fouls_offensive,fouls_shooting,g,lg_id,mp,own_shots_blk,pct_1,pct_2,pct_3,pct_4,pct_5,plus_minus_net,plus_minus_on,pos,season,team_id,tov_bad_pass,tov_lost_ball
21.0,23.0,181.0,0.0,115.0,16.0,54.0,69.0,NBA,1359.0,49.0,0.0,28.0,70.0,2.0,0.0,0.8,-2.8,SF,2001,LAC,37.0,41.0
22.0,10.0,243.0,0.0,97.0,26.0,51.0,63.0,NBA,1615.0,59.0,0.0,99.0,1.0,0.0,0.0,-3.8,-2.8,SG,2002,LAC,39.0,36.0
23.0,37.0,263.0,0.0,172.0,24.0,73.0,64.0,NBA,2006.0,63.0,7.0,88.0,5.0,0.0,0.0,-6.2,-7.5,SG,2003,LAC,52.0,58.0
24.0,46.0,482.0,0.0,246.0,37.0,73.0,73.0,NBA,2628.0,83.0,0.0,22.0,77.0,1.0,0.0,4.6,-3.6,SF,2004,LAC,83.0,69.0
25.0,37.0,483.0,0.0,255.0,37.0,73.0,66.0,NBA,2436.0,59.0,0.0,57.0,43.0,1.0,0.0,0.4,-0.7,SG,2005,LAC,73.0,67.0
26.0,17.0,140.0,7.0,104.0,24.0,32.0,32.0,NBA,943.0,29.0,0.0,13.0,84.0,3.0,0.0,6.6,6.8,SF,2006,LAC,22.0,23.0
27.0,48.0,451.0,20.0,257.0,41.0,94.0,75.0,NBA,2291.0,66.0,0.0,5.0,85.0,9.0,0.0,5.2,1.6,SF,2007,LAC,70.0,62.0
28.0,42.0,412.0,37.0,260.0,33.0,84.0,70.0,NBA,2502.0,62.0,0.0,7.0,85.0,8.0,0.0,7.3,-5.7,SF,2008,LAC,61.0,68.0
29.0,27.0,213.0,30.0,159.0,23.0,72.0,51.0,NBA,1588.0,44.0,0.0,1.0,23.0,72.0,5.0,-1.1,-4.6,PF,2009,GSW,32.0,41.0
30.0,34.0,401.0,27.0,229.0,31.0,93.0,70.0,NBA,2081.0,84.0,0.0,0.0,39.0,58.0,4.0,-5.5,-6.3,PF,2010,GSW,45.0,63.0
31.0,28.0,196.0,21.0,145.0,34.0,74.0,67.0,NBA,1401.0,37.0,0.0,40.0,57.0,3.0,0.0,-3.1,-2.9,SF,2011,MIL,35.0,32.0
32.0,11.0,85.0,6.0,78.0,14.0,30.0,32.0,NBA,881.0,33.0,0.0,0.0,99.0,1.0,0.0,-0.6,-16.0,SF,2012,CHA,24.0,15.0
33.0,2.0,47.0,2.0,21.0,6.0,14.0,18.0,NBA,257.0,8.0,0.0,68.0,32.0,0.0,0.0,0.7,-3.6,SF,2013,DET,5.0,2.0
