article_url,date,headline
https://thesmokingcuban.com/2019/11/08/dallas-mavericks-2019-odds-watch-game-8-knicks/,2019/11/08,"The Smoking Cuban: Dallas Mavericks: Odds, how to watch, and more game 8 vs. Knicks"
https://dailyknicks.com/2019/11/07/new-york-knicks-grades-another-miserable-night-pistons/,2019/11/07,Daily Knicks: New York Knicks: Grades from another miserable night against Pistons
https://pistonpowered.com/2019/11/06/new-york-knicks-vs-detroit-pistons-familiar-faces-return-motor-city/,2019/11/06,Piston Powered: New York Knicks vs. Detroit Pistons: Familiar faces return to the Motor City
https://dailyknicks.com/2019/11/03/new-york-knicks-suffer-embarrassing-loss-kings/,2019/11/03,Daily Knicks: New York Knicks suffer embarrassing loss to Kings
https://dailyknicks.com/2019/11/02/new-york-knicks-lose-thriller-celtics-jayson-tatum-buzzer-beater/,2019/11/02,Daily Knicks: New York Knicks lose thriller to Celtics on Jayson Tatum buzzer-beater
https://elitesportsny.com/2019/11/01/new-york-knicks-5-takeaways-from-the-first-week-of-the-season/,2019/11/01,ESNY: New York Knicks: 5 takeaways from the first week of the season
