age,ast_per_mp,blk_per_mp,drb_per_mp,fg2_pct,fg2_per_mp,fg2a_per_mp,fg3_pct,fg3_per_mp,fg3a_per_mp,fg_pct,fg_per_mp,fga_per_mp,ft_pct,ft_per_mp,fta_per_mp,g,gs,lg_id,mp,orb_per_mp,pf_per_mp,pos,pts_per_mp,season,stl_per_mp,team_id,tov_per_mp,trb_per_mp
22.0,1.1,0.1,3.9,0.438,1.9,4.4,0.301,2.0,6.7,0.355,3.9,11.0,0.778,0.6,0.8,43.0,0.0,NBA,395.0,1.0,2.4,SF,10.5,2014,0.8,LAC,1.2,4.9
23.0,0.9,0.4,5.2,0.375,1.0,2.6,0.326,1.6,4.9,0.343,2.6,7.5,0.667,0.6,1.0,36.0,2.0,NBA,338.0,0.1,2.0,SF,7.3,2015,1.1,TOT,0.9,5.3
23.0,0.8,0.3,5.5,0.533,1.1,2.1,0.385,2.1,5.3,0.426,3.1,7.4,0.8,0.5,0.7,25.0,2.0,NBA,263.0,0.0,2.3,SF,8.9,2015,1.2,LAC,0.8,5.5
23.0,1.0,1.0,4.3,0.111,0.5,4.3,0.0,0.0,3.4,0.063,0.5,7.7,0.5,1.0,1.9,11.0,0.0,NBA,75.0,0.5,1.0,SF,1.9,2015,0.5,PHO,1.0,4.8
24.0,2.3,0.2,4.5,0.467,1.8,3.8,0.415,1.8,4.4,0.439,3.6,8.2,0.933,1.2,1.3,37.0,0.0,NBA,429.0,1.2,2.4,SF,10.2,2016,0.8,DET,0.7,5.7
25.0,2.2,0.2,3.9,0.473,2.0,4.2,0.384,2.2,5.6,0.422,4.2,9.9,0.714,0.4,0.5,31.0,5.0,NBA,467.0,1.0,1.7,SF,10.9,2017,1.4,DET,0.8,4.9
26.0,2.0,0.3,2.6,0.536,3.0,5.5,0.445,2.6,5.8,0.489,5.5,11.3,0.796,0.8,1.0,62.0,52.0,NBA,1732.0,0.6,1.5,SF,14.5,2018,1.0,DET,1.0,3.2
27.0,2.5,0.2,2.9,0.483,1.9,3.9,0.377,2.8,7.5,0.412,4.7,11.4,0.859,1.4,1.6,63.0,60.0,NBA,1879.0,0.4,2.1,SG,13.6,2019,0.8,TOT,1.2,3.3
27.0,2.9,0.1,2.7,0.463,1.8,3.9,0.388,3.0,7.8,0.413,4.8,11.7,0.875,1.5,1.7,44.0,44.0,NBA,1355.0,0.5,2.1,SG,14.2,2019,0.6,DET,1.4,3.3
27.0,1.4,0.5,3.3,0.537,2.0,3.7,0.343,2.3,6.8,0.412,4.3,10.5,0.81,1.2,1.4,19.0,16.0,NBA,524.0,0.1,2.1,SG,12.2,2019,1.1,LAL,0.8,3.4
