age,ast,blk,drb,fg,fg2,fg2a,fg3,fg3a,fga,ft,fta,game_score,lg_id,mp,orb,pf,pts,season,stl,team_id,tov,trb
23.0,4.0,1.0,5.0,6.0,6.0,8.0,0.0,1.0,9.0,2.0,4.0,7.5,NBA,0.0,3.0,4.0,14.0,1997,1.0,ATL,4.0,5.0
24.0,3.0,3.0,6.0,5.0,5.0,10.0,0.0,0.0,10.0,6.0,8.0,14.5,NBA,0.0,3.0,5.0,16.0,1998,2.0,DEN,5.0,7.0
