age,ast_per_poss,blk_per_poss,def_rtg,drb_per_poss,fg2_pct,fg2_per_poss,fg2a_per_poss,fg3_pct,fg3_per_poss,fg3a_per_poss,fg_pct,fg_per_poss,fga_per_poss,ft_pct,ft_per_poss,fta_per_poss,g,gs,lg_id,mp,off_rtg,orb_per_poss,pf_per_poss,pos,pts_per_poss,season,stl_per_poss,team_id,tov_per_poss,trb_per_poss
24.0,4.7,0.4,115.0,6.8,0.491,5.5,11.3,0.4,3.4,8.5,0.452,8.9,19.7,0.643,1.9,3.0,6.0,6.0,NBA,238.0,104.0,1.5,4.0,SF,23.1,2013,0.2,HOU,3.8,8.3
25.0,2.9,0.4,116.0,7.2,0.478,6.8,14.3,0.361,2.7,7.5,0.438,9.5,21.7,0.733,2.3,3.1,6.0,6.0,NBA,250.0,118.0,1.2,3.9,SF,24.0,2014,0.8,HOU,1.0,8.5
26.0,2.5,0.0,116.0,7.6,0.455,6.4,14.0,0.0,0.0,5.1,0.333,6.4,19.1,0.0,0.0,0.0,1.0,1.0,NBA,37.0,74.0,0.0,1.3,SF,12.7,2015,0.0,DAL,1.3,7.6
