lg_id,salary,season,team_name
NBA,850000.0,2012,Houston Rockets
NBA,888250.0,2013,Houston Rockets
NBA,926500.0,2014,Houston Rockets
NBA,14700000.0,2015,Dallas Mavericks
NBA,15361500.0,2016,Dallas Mavericks
NBA,22116750.0,2017,Memphis Grizzlies
NBA,23112004.0,2018,Memphis Grizzlies
NBA,24107258.0,2019,Memphis Grizzlies
