age,ast_per_g,blk_per_g,drb_per_g,efg_pct,fg2_pct,fg2_per_g,fg2a_per_g,fg3_pct,fg3_per_g,fg3a_per_g,fg_pct,fg_per_g,fga_per_g,ft_pct,ft_per_g,fta_per_g,g,gs,lg_id,mp_per_g,orb_per_g,pf_per_g,pos,pts_per_g,season,stl_per_g,team_id,tov_per_g,trb_per_g
24.0,1.7,0.0,0.5,0.432,0.516,1.6,3.1,0.0,0.0,0.6,0.432,1.6,3.7,0.8,0.8,1.0,10.0,0.0,NBA,11.3,0.3,1.2,SG-PG,4.0,1997,0.9,TOT,0.8,0.8
24.0,1.5,0.0,0.6,0.414,0.48,1.5,3.1,0.0,0.0,0.5,0.414,1.5,3.6,0.8,1.0,1.3,8.0,0.0,NBA,11.8,0.4,1.1,SG,4.0,1997,0.8,UTA,0.4,1.0
24.0,2.5,0.0,0.0,0.5,0.667,2.0,3.0,0.0,0.0,1.0,0.5,2.0,4.0,0.0,0.0,0.0,2.0,0.0,NBA,9.5,0.0,1.5,PG,4.0,1997,1.5,POR,2.5,0.0
