age,ast,blk,drb,efg_pct,fg,fg2,fg2_pct,fg2a,fg3,fg3_pct,fg3a,fg_pct,fga,ft,ft_pct,fta,g,gs,lg_id,mp,orb,pf,pos,pts,season,stl,team_id,tov,trb
21.0,15.0,14.0,94.0,0.38,35.0,35.0,0.38,92.0,0.0,0.0,0.0,0.38,92.0,32.0,0.681,47.0,52.0,0.0,NBA,391.0,29.0,82.0,C,102.0,1985,9.0,IND,51.0,123.0
22.0,15.0,11.0,73.0,0.5,54.0,54.0,0.5,108.0,0.0,0.0,0.0,0.5,108.0,47.0,0.635,74.0,67.0,3.0,NBA,423.0,45.0,94.0,C,155.0,1986,8.0,IND,32.0,118.0
23.0,26.0,28.0,90.0,0.406,41.0,41.0,0.406,101.0,0.0,0.0,0.0,0.406,101.0,28.0,0.718,39.0,55.0,1.0,NBA,456.0,39.0,93.0,C,110.0,1987,10.0,IND,36.0,129.0
24.0,44.0,32.0,180.0,0.466,90.0,90.0,0.469,192.0,0.0,0.0,1.0,0.466,193.0,44.0,0.603,73.0,74.0,0.0,NBA,807.0,70.0,152.0,C,224.0,1988,11.0,IND,50.0,250.0
25.0,29.0,21.0,161.0,0.471,72.0,72.0,0.474,152.0,0.0,0.0,1.0,0.471,153.0,44.0,0.688,64.0,72.0,0.0,NBA,783.0,84.0,128.0,C,188.0,1989,11.0,IND,48.0,245.0
26.0,19.0,26.0,105.0,0.424,42.0,42.0,0.447,94.0,0.0,0.0,5.0,0.424,99.0,32.0,0.681,47.0,58.0,1.0,NBA,560.0,40.0,90.0,C,116.0,1990,15.0,TOT,24.0,145.0
26.0,17.0,24.0,93.0,0.463,38.0,38.0,0.475,80.0,0.0,0.0,2.0,0.463,82.0,25.0,0.641,39.0,39.0,1.0,NBA,466.0,38.0,64.0,C,101.0,1990,12.0,CHH,19.0,131.0
26.0,2.0,2.0,12.0,0.235,4.0,4.0,0.286,14.0,0.0,0.0,3.0,0.235,17.0,7.0,0.875,8.0,19.0,0.0,NBA,94.0,2.0,26.0,C,15.0,1990,3.0,NYK,5.0,14.0
27.0,0.0,1.0,8.0,0.333,4.0,4.0,0.333,12.0,0.0,0.0,0.0,0.333,12.0,3.0,1.0,3.0,8.0,0.0,NBA,37.0,2.0,6.0,C,11.0,1991,0.0,NYK,2.0,10.0
