age,ast_per_g,blk_per_g,drb_per_g,efg_pct,fg2_pct,fg2_per_g,fg2a_per_g,fg3_pct,fg3_per_g,fg3a_per_g,fg_pct,fg_per_g,fga_per_g,ft_pct,ft_per_g,fta_per_g,g,gs,lg_id,mp_per_g,orb_per_g,pf_per_g,pos,pts_per_g,season,stl_per_g,team_id,tov_per_g,trb_per_g
19.0,0.7,0.2,0.7,0.152,0.2,0.2,1.1,0.0,0.0,0.4,0.152,0.2,1.5,0.6,0.4,0.7,22.0,0.0,NBA,5.5,0.4,0.4,PG,0.9,2019,0.4,LAL,0.3,1.1
20.0,1.7,0.1,2.9,0.466,0.5,1.7,3.4,0.2,0.1,0.7,0.448,1.9,4.1,0.667,0.9,1.3,7.0,7.0,NBA,21.3,1.0,3.0,SF,4.7,2020,1.0,WAS,0.9,3.9
