age,ast,ast_per_g,blk,college_id,fg,fg3,fg3_pct,fg3a,fg_pct,fga,ft,ft_pct,fta,g,mp,mp_per_g,orb,pf,pts,pts_per_g,season,stl,tov,trb,trb_per_g
18.0,1.0,0.0,0.0,TEMPLE,42.0,0.0,0.0,0.0,0.575,73.0,25.0,0.556,45.0,29.0,575.0,19.8,0.0,0.0,109.0,3.8,1993,0.0,0.0,112.0,3.9
19.0,0.0,0.0,0.0,TEMPLE,19.0,0.0,0.0,0.0,0.396,48.0,12.0,0.387,31.0,31.0,573.0,18.5,0.0,0.0,50.0,1.6,1994,0.0,0.0,130.0,4.2
20.0,5.0,0.2,0.0,TEMPLE,29.0,0.0,0.0,0.0,0.475,61.0,28.0,0.538,52.0,30.0,469.0,15.6,0.0,0.0,86.0,2.9,1995,0.0,0.0,121.0,4.0
21.0,4.0,0.1,0.0,TEMPLE,21.0,0.0,0.0,0.0,0.375,56.0,11.0,0.407,27.0,30.0,245.0,8.2,0.0,0.0,53.0,1.8,1996,0.0,0.0,58.0,1.9
