age,ast_pct,blk_pct,bpm,bpm-dum,dbpm,drb_pct,dws,fg3a_per_fga_pct,fta_per_fga_pct,g,lg_id,mp,obpm,orb_pct,ows,per,pos,season,stl_pct,team_id,tov_pct,trb_pct,ts_pct,usg_pct,vorp,ws,ws-dum,ws_per_48
23.0,3.9,0.0,-1.1,0.0,-0.5,14.5,0.1,0.0,0.0,7.0,NBA,39.0,-0.5,13.6,0.1,9.3,C,1998,2.8,TOT,0.0,15.3,0.444,10.7,0.0,0.1,0.0,0.131
23.0,4.0,0.0,-0.5,0.0,-0.4,12.3,0.0,0.0,0.0,6.0,NBA,38.0,-0.1,14.0,0.1,8.7,C,1998,2.8,UTA,0.0,13.1,0.444,11.0,0.0,0.1,0.0,0.122
23.0,0.0,0.0,-22.1,0.0,-4.8,100.0,0.0,0.0,0.0,1.0,NBA,1.0,-17.3,0.0,0.0,33.3,C,1998,0.0,PHI,0.0,100.0,0.0,0.0,0.0,0.0,0.0,0.473
24.0,0.9,4.9,-6.6,0.0,1.3,10.8,0.1,0.0,0.111,16.0,NBA,162.0,-7.9,8.4,-0.3,0.5,C,1999,0.3,TOT,20.9,9.6,0.159,6.5,-0.2,-0.2,0.0,-0.054
24.0,0.0,0.0,-7.5,0.0,-1.3,0.0,0.0,0.0,0.0,1.0,NBA,1.0,-6.2,0.0,0.0,0.0,C,1999,0.0,TOR,0.0,0.0,0.0,0.0,0.0,0.0,0.0,-0.025
24.0,0.9,5.0,-6.5,0.0,1.4,10.9,0.1,0.0,0.111,15.0,NBA,161.0,-7.9,8.5,-0.3,0.5,C,1999,0.3,NJN,20.9,9.6,0.159,6.5,-0.2,-0.2,0.0,-0.054
