article_url,date,headline
https://ripcityproject.com/2019/11/08/portland-trail-blazers-loss-clippers/,2019/11/08,Rip City Project: Portland Trail Blazers: 3 takeaways from tight loss to LA Clippers
https://sircharlesincharge.com/2019/11/06/new-orleans-pelicans-brandon-ingram-best-start-career/,2019/11/06,Sir Charles In Charge: New Orleans Pelicans: Brandon Ingram is off to the best start of his career 
https://section215.com/2019/11/07/philadelphia-76ers-fan-year-award/,2019/11/07,Section 215: Philadelphia 76ers fan named a finalist for Fan of the Year Award
https://valleyofthesuns.com/2019/11/06/no-debate-deandre-ayton-should-start-at-center-when-he-returns-for-the-phoenix-suns/,2019/11/06,Sun-N-Gun: No debate: Deandre Ayton should start at center when he returns for the Phoenix Suns
https://lakeshowlife.com/2019/11/03/los-angeles-lakers-charles-barkley-right-lebron-james/,2019/11/03,Lake Show Life: Los Angeles Lakers: Is Charles Barkley right about LeBron James?
