age,ast,blk,drb,efg_pct,fg,fg2,fg2_pct,fg2a,fg3,fg3_pct,fg3a,fg_pct,fga,ft,ft_pct,fta,g,gs,lg_id,mp,orb,pf,pos,pts,season,stl,team_id,tov,trb
21.0,155.0,80.0,437.0,0.546,427.0,426.0,0.548,777.0,1.0,0.167,6.0,0.545,783.0,293.0,0.733,400.0,82.0,60.0,NBA,2347.0,266.0,301.0,PF,1148.0,1985,95.0,PHI,209.0,703.0
22.0,312.0,125.0,672.0,0.58,595.0,578.0,0.598,966.0,17.0,0.227,75.0,0.572,1041.0,396.0,0.685,578.0,80.0,80.0,NBA,2952.0,354.0,333.0,PF,1603.0,1986,173.0,PHI,350.0,1026.0
23.0,331.0,104.0,604.0,0.606,557.0,536.0,0.643,833.0,21.0,0.202,104.0,0.594,937.0,429.0,0.761,564.0,68.0,62.0,NBA,2740.0,390.0,252.0,PF,1564.0,1987,119.0,PHI,322.0,994.0
24.0,254.0,103.0,566.0,0.604,753.0,709.0,0.63,1126.0,44.0,0.28,157.0,0.587,1283.0,714.0,0.751,951.0,80.0,80.0,NBA,3170.0,385.0,278.0,PF,2264.0,1988,100.0,PHI,304.0,951.0
25.0,325.0,67.0,583.0,0.594,700.0,665.0,0.636,1046.0,35.0,0.216,162.0,0.579,1208.0,602.0,0.753,799.0,79.0,79.0,NBA,3088.0,403.0,262.0,PF,2037.0,1989,126.0,PHI,254.0,986.0
26.0,307.0,50.0,548.0,0.608,706.0,686.0,0.632,1085.0,20.0,0.217,92.0,0.6,1177.0,557.0,0.749,744.0,79.0,79.0,NBA,3085.0,361.0,250.0,SF,1989.0,1990,148.0,PHI,243.0,909.0
27.0,284.0,33.0,422.0,0.589,665.0,621.0,0.614,1012.0,44.0,0.284,155.0,0.57,1167.0,475.0,0.722,658.0,67.0,67.0,NBA,2498.0,258.0,173.0,SF,1849.0,1991,110.0,PHI,210.0,680.0
28.0,308.0,44.0,559.0,0.567,622.0,590.0,0.597,989.0,32.0,0.234,137.0,0.552,1126.0,454.0,0.695,653.0,75.0,75.0,NBA,2881.0,271.0,196.0,SF,1730.0,1992,136.0,PHI,235.0,830.0
29.0,385.0,74.0,691.0,0.545,716.0,649.0,0.561,1156.0,67.0,0.305,220.0,0.52,1376.0,445.0,0.765,582.0,76.0,76.0,NBA,2859.0,237.0,196.0,PF,1944.0,1993,119.0,PHO,233.0,928.0
30.0,296.0,37.0,529.0,0.518,518.0,470.0,0.541,868.0,48.0,0.27,178.0,0.495,1046.0,318.0,0.704,452.0,65.0,65.0,NBA,2298.0,198.0,160.0,PF,1402.0,1994,101.0,PHO,206.0,727.0
31.0,276.0,45.0,553.0,0.518,554.0,480.0,0.521,922.0,74.0,0.338,219.0,0.486,1141.0,379.0,0.748,507.0,68.0,66.0,NBA,2382.0,203.0,201.0,PF,1561.0,1995,110.0,PHO,150.0,756.0
32.0,262.0,56.0,578.0,0.521,580.0,531.0,0.539,985.0,49.0,0.28,175.0,0.5,1160.0,440.0,0.777,566.0,71.0,71.0,NBA,2632.0,243.0,208.0,PF,1649.0,1996,114.0,PHO,218.0,821.0
33.0,248.0,25.0,504.0,0.526,335.0,277.0,0.569,487.0,58.0,0.283,205.0,0.484,692.0,288.0,0.694,415.0,53.0,53.0,NBA,2009.0,212.0,153.0,PF,1016.0,1997,69.0,HOU,151.0,716.0
34.0,217.0,28.0,553.0,0.497,361.0,343.0,0.52,660.0,18.0,0.214,84.0,0.485,744.0,296.0,0.746,397.0,68.0,41.0,NBA,2243.0,241.0,187.0,PF,1036.0,1998,71.0,HOU,147.0,794.0
35.0,192.0,13.0,349.0,0.482,240.0,236.0,0.495,477.0,4.0,0.16,25.0,0.478,502.0,192.0,0.719,267.0,42.0,40.0,NBA,1526.0,167.0,89.0,PF,676.0,1999,43.0,HOU,100.0,516.0
36.0,63.0,4.0,138.0,0.491,106.0,100.0,0.51,196.0,6.0,0.231,26.0,0.477,222.0,71.0,0.645,110.0,20.0,18.0,NBA,620.0,71.0,48.0,PF,289.0,2000,14.0,HOU,44.0,209.0
