age,ast,ast_per_g,blk,college_id,fg,fg3,fg3_pct,fg3a,fg_pct,fga,ft,ft_pct,fta,g,mp,mp_per_g,orb,pf,pts,pts_per_g,season,stl,tov,trb,trb_per_g
18.0,30.0,1.1,51.0,AUBURN,144.0,0.0,0.0,0.0,0.595,242.0,68.0,0.636,107.0,28.0,746.0,26.6,0.0,99.0,356.0,12.7,1982,13.0,45.0,275.0,9.8
19.0,49.0,1.8,45.0,AUBURN,161.0,0.0,0.0,0.0,0.644,250.0,82.0,0.631,130.0,28.0,782.0,27.9,0.0,102.0,404.0,14.4,1983,32.0,80.0,266.0,9.5
20.0,58.0,2.1,49.0,AUBURN,162.0,0.0,0.0,0.0,0.638,254.0,99.0,0.683,145.0,28.0,794.0,28.4,0.0,89.0,423.0,15.1,1984,31.0,65.0,265.0,9.5
