age,ast,blk,drb,fg,fg2,fg2a,fg3,fg3a,fga,ft,fta,game_score,lg_id,mp,orb,pf,pts,season,stl,team_id,tov,trb
20.0,4.0,3.0,12.0,6.0,6.0,13.0,0.0,0.0,13.0,6.0,6.0,16.2,NBA,32,6.0,5.0,16.0,2018,2.0,MEM,3.0,13.0
21.0,6.0,2.0,8.0,8.0,8.0,11.0,1.0,2.0,12.0,6.0,8.0,21.5,NBA,34,6.0,5.0,19.0,2019,2.0,MEM,3.0,11.0
