age,ast_pct,blk_pct,bpm,bpm-dum,dbpm,drb_pct,dws,fg3a_per_fga_pct,fta_per_fga_pct,g,lg_id,mp,obpm,orb_pct,ows,per,pos,season,stl_pct,team_id,tov_pct,trb_pct,ts_pct,usg_pct,vorp,ws,ws-dum,ws_per_48
20.0,10.4,2.4,-1.5,0.0,0.3,24.1,0.5,0.0,0.237,36.0,NBA,516.0,-1.7,11.6,0.7,16.6,PF,2018,1.2,MEM,17.3,17.7,0.599,17.7,0.1,1.2,0.0,0.109
21.0,12.0,1.8,-0.6,0.0,0.7,21.5,0.9,0.071,0.325,49.0,NBA,721.0,-1.3,10.7,1.2,16.1,PF,2019,1.2,MEM,12.6,16.0,0.586,17.2,0.2,2.1,0.0,0.137
