age,ast,blk,drb,efg_pct,fg,fg2,fg2_pct,fg2a,fg3,fg3_pct,fg3a,fg_pct,fga,ft,ft_pct,fta,g,gs,lg_id,mp,orb,pf,pos,pts,season,stl,team_id,tov,trb
20.0,32.0,13.0,105.0,0.566,86.0,86.0,0.566,152.0,0.0,0.0,0.0,0.566,152.0,29.0,0.806,36.0,36.0,5.0,NBA,516.0,53.0,55.0,PF,201.0,2018,12.0,MEM,35.0,158.0
21.0,54.0,14.0,136.0,0.554,116.0,113.0,0.574,197.0,3.0,0.2,15.0,0.547,212.0,49.0,0.71,69.0,49.0,13.0,NBA,721.0,70.0,90.0,PF,284.0,2019,17.0,MEM,35.0,206.0
