article_url,date,headline
https://dailyknicks.com/2019/11/08/new-york-knicks-mitchell-robinsons-absence-opens-glaring-weakness/,2019/11/08,Daily Knicks: New York Knicks: Mitchell Robinson's absence opens glaring weakness
https://thesmokingcuban.com/2019/11/08/dallas-mavericks-2019-odds-watch-game-8-knicks/,2019/11/08,"The Smoking Cuban: Dallas Mavericks: Odds, how to watch, and more game 8 vs. Knicks"
https://dailyknicks.com/2019/11/07/new-york-knicks-three-directions-take-awful-start-season/,2019/11/07,Daily Knicks: New York Knicks: Three directions to take after awful start to season
https://dailyknicks.com/2019/10/28/new-york-knicks-g-league-team-announces-training-camp-roster/,2019/10/28,Daily Knicks: New York Knicks' G League team announces training camp roster
