age,avg_dist,fg2_dunk,fg2_pct,fg2_pct_ast,fg2a_pct_fga,fg3_heave,fg3_pct,fg3_pct_ast,fg3_pct_corner,fg3a_heave,fg3a_pct_fga,fg_pct,fg_pct_00_03,fg_pct_03_10,fg_pct_10_16,fg_pct_16_xx,g,lg_id,mp,pct_fg2_dunk,pct_fg3a_corner,pct_fga_00_03,pct_fga_03_10,pct_fga_10_16,pct_fga_16_xx,pos,season,team_id
25.0,14.5,9.0,0.478,0.566,0.69,0.0,0.341,0.976,0.362,0.0,0.31,0.436,0.61,0.489,0.354,0.407,76.0,NBA,2148.0,0.011,0.422,0.227,0.117,0.12,0.227,SG-SF,2003,TOT
25.0,14.6,4.0,0.463,0.565,0.728,0.0,0.354,0.978,0.358,0.0,0.272,0.433,0.616,0.492,0.339,0.391,49.0,NBA,1187.0,0.008,0.408,0.207,0.123,0.13,0.268,SG,2003,MEM
25.0,14.3,5.0,0.505,0.567,0.634,0.0,0.328,0.974,0.365,0.0,0.366,0.44,0.602,0.486,0.382,0.444,27.0,NBA,961.0,0.015,0.437,0.255,0.108,0.105,0.166,SF,2003,ORL
26.0,14.7,9.0,0.448,0.613,0.79,0.0,0.395,0.983,0.41,1.0,0.21,0.436,0.573,0.485,0.371,0.398,73.0,NBA,2041.0,0.015,0.401,0.198,0.091,0.134,0.367,SF-SG,2004,TOT
26.0,15.7,5.0,0.452,0.62,0.735,0.0,0.407,0.978,0.409,0.0,0.265,0.44,0.63,0.485,0.393,0.382,48.0,NBA,1435.0,0.012,0.389,0.171,0.077,0.131,0.356,SF,2004,ORL
26.0,13.4,4.0,0.442,0.605,0.869,0.0,0.359,1.0,0.412,1.0,0.131,0.431,0.514,0.485,0.341,0.421,25.0,NBA,606.0,0.02,0.436,0.236,0.111,0.138,0.384,SG,2004,UTA
27.0,14.3,8.0,0.465,0.637,0.834,0.0,0.362,0.974,0.317,0.0,0.166,0.448,0.585,0.434,0.367,0.435,81.0,NBA,1660.0,0.014,0.39,0.225,0.084,0.125,0.4,SG,2005,UTA
28.0,15.6,4.0,0.457,0.743,0.846,0.0,0.305,0.889,0.313,0.0,0.154,0.433,0.641,0.429,0.424,0.392,37.0,NBA,956.0,0.013,0.271,0.204,0.037,0.086,0.52,SG,2006,UTA
29.0,17.2,3.0,0.479,0.621,0.68,0.0,0.426,0.981,0.382,2.0,0.32,0.462,0.596,0.364,0.347,0.496,61.0,NBA,1188.0,0.01,0.279,0.15,0.058,0.129,0.344,SG,2007,UTA
30.0,16.2,5.0,0.478,0.536,0.672,0.0,0.364,0.889,0.471,0.0,0.328,0.44,0.66,0.435,0.419,0.406,56.0,NBA,831.0,0.017,0.343,0.175,0.076,0.103,0.318,SG,2008,TOT
30.0,16.3,3.0,0.426,0.655,0.667,0.0,0.353,0.833,0.5,0.0,0.333,0.402,0.476,0.2,0.286,0.457,22.0,NBA,279.0,0.029,0.235,0.206,0.049,0.069,0.343,SG,2008,UTA
30.0,16.9,0.0,0.308,0.5,0.634,0.0,0.333,1.0,0.333,0.0,0.366,0.317,0.5,0.0,0.667,0.214,12.0,NBA,110.0,0.0,0.6,0.146,0.073,0.073,0.341,SG,2008,PHI
30.0,16.0,2.0,0.55,0.483,0.686,0.0,0.38,0.895,0.529,0.0,0.314,0.497,0.846,0.6,0.429,0.426,22.0,NBA,442.0,0.013,0.34,0.164,0.094,0.132,0.296,SG,2008,PHO
