age,ast,blk,drb,efg_pct,fg,fg2,fg2_pct,fg2a,fg3,fg3_pct,fg3a,fg_pct,fga,ft,ft_pct,fta,g,gs,lg_id,mp,orb,pf,pos,pts,season,stl,team_id,tov,trb
29.0,6.0,1.0,5.0,0.421,7.0,5.0,0.5,10.0,2.0,0.222,9.0,0.368,19.0,1.0,0.5,2.0,6.0,0.0,NBA,66.0,1.0,7.0,PG,17.0,2006,0.0,IND,5.0,6.0
30.0,2.0,0.0,0.0,0.0,0.0,0.0,0.0,1.0,0.0,0.0,0.0,0.0,1.0,1.0,0.5,2.0,4.0,0.0,NBA,6.0,0.0,1.0,PG,1.0,2007,0.0,GSW,0.0,0.0
