age,ast,blk,drb,fg,fg2,fg2a,fg3,fg3a,fga,ft,fta,game_score,lg_id,mp,orb,pf,pts,season,stl,team_id,tov,trb
29.0,4.0,1.0,3.0,3.0,3.0,4.0,1.0,4.0,5.0,1.0,2.0,4.6,NBA,17,1.0,3.0,6.0,2006,0.0,IND,2.0,3.0
30.0,2.0,0.0,0.0,0.0,0.0,1.0,0.0,0.0,1.0,1.0,2.0,2.0,NBA,3,0.0,1.0,1.0,2007,0.0,TOT,0.0,0.0
30.0,2.0,0.0,0.0,0.0,0.0,1.0,0.0,0.0,1.0,1.0,2.0,2.0,NBA,3,0.0,1.0,1.0,2007,0.0,GSW,0.0,0.0
