age,ast,blk,drb,efg_pct,fg,fg2,fg2_pct,fg2a,fg3,fg3_pct,fg3a,fg_pct,fga,ft,ft_pct,fta,g,gs,lg_id,mp,orb,pf,pos,pts,season,stl,team_id,tov,trb
29.0,0.0,0.0,1.0,0.625,5.0,5.0,0.625,8.0,0.0,0.0,0.0,0.625,8.0,2.0,1.0,2.0,4.0,0.0,NBA,25.0,0.0,4.0,SF,12.0,1993,0.0,IND,2.0,1.0
30.0,5.0,2.0,12.0,0.346,9.0,9.0,0.36,25.0,0.0,0.0,1.0,0.346,26.0,3.0,0.75,4.0,15.0,0.0,NBA,99.0,5.0,22.0,PF,21.0,1994,2.0,IND,4.0,17.0
31.0,6.0,1.0,31.0,0.359,23.0,23.0,0.371,62.0,0.0,0.0,2.0,0.359,64.0,22.0,0.786,28.0,17.0,0.0,NBA,223.0,17.0,41.0,SF,68.0,1995,3.0,IND,14.0,48.0
33.0,1.0,1.0,5.0,0.462,6.0,6.0,0.462,13.0,0.0,0.0,0.0,0.462,13.0,5.0,0.625,8.0,3.0,0.0,NBA,47.0,2.0,9.0,SF,17.0,1997,1.0,MIN,1.0,7.0
34.0,8.0,1.0,20.0,0.474,26.0,23.0,0.523,44.0,3.0,0.214,14.0,0.448,58.0,17.0,0.895,19.0,5.0,5.0,NBA,177.0,7.0,18.0,SF,72.0,1998,1.0,MIN,5.0,27.0
35.0,6.0,2.0,9.0,0.388,15.0,14.0,0.412,34.0,1.0,0.167,6.0,0.375,40.0,9.0,0.75,12.0,4.0,1.0,NBA,131.0,5.0,13.0,SF,40.0,1999,1.0,MIN,8.0,14.0
36.0,2.0,1.0,5.0,0.556,9.0,7.0,0.538,13.0,2.0,0.4,5.0,0.5,18.0,3.0,1.0,3.0,4.0,0.0,NBA,68.0,2.0,5.0,SF,23.0,2000,0.0,MIN,4.0,7.0
37.0,3.0,0.0,6.0,0.2,2.0,2.0,0.222,9.0,0.0,0.0,1.0,0.2,10.0,2.0,1.0,2.0,4.0,0.0,NBA,50.0,1.0,5.0,SF,6.0,2001,1.0,MIN,1.0,7.0
38.0,3.0,1.0,2.0,0.333,3.0,3.0,0.333,9.0,0.0,0.0,0.0,0.333,9.0,2.0,1.0,2.0,3.0,2.0,NBA,34.0,0.0,5.0,SF,8.0,2002,1.0,MIN,0.0,2.0
