age,ast_per_poss,blk_per_poss,def_rtg,drb_per_poss,fg2_pct,fg2_per_poss,fg2a_per_poss,fg3_pct,fg3_per_poss,fg3a_per_poss,fg_pct,fg_per_poss,fga_per_poss,ft_pct,ft_per_poss,fta_per_poss,g,gs,lg_id,mp,off_rtg,orb_per_poss,pf_per_poss,pos,pts_per_poss,season,stl_per_poss,team_id,tov_per_poss,trb_per_poss
24.0,1.2,1.2,113.0,8.2,0.6,8.9,14.9,1.0,0.2,0.2,0.607,9.2,15.1,0.63,4.2,6.7,11.0,0.0,NBA,218.0,132.0,5.5,9.9,C,22.8,2005,0.7,SEA,1.5,13.6
29.0,0.8,0.4,105.0,6.6,0.348,3.3,9.4,0.0,0.0,0.4,0.333,3.3,9.9,0.429,1.2,2.9,6.0,0.0,NBA,129.0,85.0,4.9,8.2,C,7.8,2010,2.1,OKC,1.6,11.5
30.0,1.9,1.9,106.0,6.5,0.632,6.1,9.7,0.0,0.0,0.0,0.632,6.1,9.7,0.783,2.3,2.9,17.0,0.0,NBA,413.0,135.0,6.0,8.1,C,14.6,2011,1.9,OKC,1.7,12.5
31.0,3.0,0.8,109.0,5.9,0.647,5.3,8.1,0.0,0.0,0.0,0.647,5.3,8.1,0.429,0.5,1.1,20.0,0.0,NBA,332.0,126.0,4.8,8.1,PF,11.0,2012,1.9,OKC,1.9,10.7
32.0,3.5,3.2,101.0,7.6,0.468,6.4,13.7,0.0,0.0,0.0,0.468,6.4,13.7,0.917,3.2,3.5,11.0,0.0,NBA,178.0,112.0,7.3,10.8,C,16.0,2013,1.5,OKC,2.9,14.8
33.0,3.7,2.0,109.0,7.4,0.417,2.8,6.8,0.4,0.6,1.4,0.414,3.4,8.2,0.7,2.0,2.8,17.0,2.0,NBA,183.0,111.0,3.4,8.0,PF,9.4,2014,1.1,OKC,1.7,10.8
35.0,3.2,0.0,101.0,5.1,0.667,2.6,3.8,0.0,0.0,0.0,0.667,2.6,3.8,0.5,0.6,1.3,9.0,0.0,NBA,79.0,140.0,1.9,10.9,PF,5.7,2016,5.1,OKC,0.6,7.0
