age,ast_per_g,blk_per_g,drb_per_g,efg_pct,fg2_pct,fg2_per_g,fg2a_per_g,fg3_pct,fg3_per_g,fg3a_per_g,fg_pct,fg_per_g,fga_per_g,ft_pct,ft_per_g,fta_per_g,g,gs,lg_id,mp_per_g,orb_per_g,pf_per_g,pos,pts_per_g,season,stl_per_g,team_id,tov_per_g,trb_per_g
19.0,3.6,0.1,2.4,0.465,0.449,3.0,6.6,0.341,0.7,2.2,0.422,3.7,8.8,0.842,1.9,2.3,77.0,40.0,NBA,24.7,0.4,2.1,PG,10.1,2015,0.7,MIN,2.5,2.8
20.0,3.1,0.2,2.5,0.516,0.482,3.8,7.8,0.389,1.5,3.9,0.452,5.3,11.7,0.793,2.0,2.5,82.0,33.0,NBA,28.0,0.3,2.4,SG,14.0,2016,0.8,MIN,1.9,2.8
21.0,3.0,0.2,3.0,0.544,0.515,4.4,8.5,0.387,2.6,6.6,0.459,6.9,15.1,0.836,2.5,3.0,47.0,47.0,NBA,37.2,0.4,2.2,SG,18.9,2017,0.9,MIN,1.8,3.4
22.0,3.0,0.2,3.5,0.442,0.405,3.9,9.7,0.341,1.8,5.1,0.383,5.7,14.8,0.813,3.6,4.5,24.0,24.0,NBA,27.3,0.4,2.3,SG,16.7,2018,1.0,CHI,1.8,3.9
23.0,4.5,0.4,4.0,0.52,0.504,6.5,12.9,0.374,1.9,5.1,0.467,8.4,18.0,0.832,5.0,6.0,63.0,62.0,NBA,34.5,0.6,2.2,SG,23.7,2019,1.0,CHI,3.4,4.7
24.0,4.4,0.6,3.0,0.5,0.465,4.9,10.6,0.37,2.5,6.8,0.428,7.4,17.3,0.787,3.1,3.9,12.0,12.0,NBA,32.1,1.1,2.9,SG,20.4,2020,1.4,CHI,3.5,4.1
