age,ast,blk,drb,fg,fg2,fg2a,fg3,fg3a,fga,ft,fta,game_score,lg_id,mp,orb,pf,pts,season,stl,team_id,tov,trb
19.0,1.0,2.0,2.0,4.0,4.0,9.0,1.0,2.0,11.0,3.0,6.0,6.7,NBA,0.0,2.0,2.0,11.0,2000,1.0,IND,1.0,3.0
20.0,3.0,4.0,5.0,5.0,3.0,8.0,3.0,4.0,10.0,8.0,9.0,18.8,NBA,0.0,1.0,5.0,20.0,2001,1.0,IND,3.0,5.0
21.0,4.0,6.0,8.0,7.0,6.0,9.0,4.0,8.0,14.0,9.0,10.0,17.7,NBA,0.0,4.0,6.0,20.0,2002,2.0,IND,4.0,10.0
22.0,5.0,6.0,7.0,8.0,6.0,13.0,3.0,5.0,18.0,10.0,13.0,19.6,NBA,0.0,6.0,5.0,22.0,2003,1.0,IND,4.0,11.0
23.0,1.0,2.0,6.0,7.0,6.0,10.0,2.0,4.0,13.0,7.0,10.0,14.1,NBA,0.0,2.0,3.0,16.0,2004,2.0,IND,6.0,6.0
24.0,1.0,1.0,3.0,5.0,4.0,8.0,1.0,2.0,8.0,2.0,2.0,7.6,NBA,0.0,1.0,3.0,11.0,2005,1.0,IND,4.0,4.0
25.0,1.0,1.0,2.0,3.0,3.0,4.0,0.0,0.0,4.0,2.0,2.0,6.9,NBA,13.0,0.0,2.0,8.0,2006,0.0,IND,0.0,2.0
29.0,3.0,4.0,5.0,6.0,4.0,6.0,4.0,7.0,10.0,4.0,6.0,14.8,NBA,25.0,2.0,3.0,16.0,2010,1.0,NYK,3.0,7.0
