age,ast_per_poss,blk_per_poss,def_rtg,drb_per_poss,fg2_pct,fg2_per_poss,fg2a_per_poss,fg3_pct,fg3_per_poss,fg3a_per_poss,fg_pct,fg_per_poss,fga_per_poss,ft_pct,ft_per_poss,fta_per_poss,g,gs,lg_id,mp,off_rtg,orb_per_poss,pf_per_poss,pos,pts_per_poss,season,stl_per_poss,team_id,tov_per_poss,trb_per_poss
19.0,0.0,0.0,104.0,7.7,0.6,7.7,12.8,1.0,2.6,2.6,0.667,10.3,15.4,0.5,7.7,15.4,9.0,0.0,NBA,21.0,137.0,0.0,5.1,SF,30.8,2000,2.6,IND,0.0,7.7
20.0,0.0,0.0,117.0,0.0,0.0,0.0,13.8,0.0,0.0,0.0,0.0,0.0,13.8,0.0,0.0,0.0,1.0,0.0,NBA,4.0,0.0,0.0,13.8,SF,0.0,2001,0.0,IND,0.0,0.0
21.0,2.4,3.5,94.0,4.7,0.6,3.5,5.9,0.0,0.0,1.2,0.5,3.5,7.1,0.0,0.0,0.0,5.0,0.0,NBA,45.0,57.0,0.0,7.1,SF,7.1,2002,2.4,IND,5.9,4.7
22.0,0.0,3.2,109.0,6.4,0.333,3.2,9.5,0.333,4.8,14.3,0.333,7.9,23.8,0.667,6.4,9.5,3.0,0.0,NBA,34.0,111.0,4.8,3.2,SF,27.0,2003,0.0,IND,0.0,11.1
23.0,1.9,3.9,96.0,5.0,0.432,5.3,12.2,0.36,2.5,6.9,0.406,7.8,19.2,0.75,3.3,4.4,16.0,0.0,NBA,200.0,96.0,2.8,5.3,SF,21.4,2004,0.6,IND,3.3,7.8
