age,ast_pct,blk_pct,bpm,bpm-dum,dbpm,drb_pct,dws,fg3a_per_fga_pct,fta_per_fga_pct,g,lg_id,mp,obpm,orb_pct,ows,per,pos,season,stl_pct,team_id,tov_pct,trb_pct,ts_pct,usg_pct,vorp,ws,ws-dum,ws_per_48
23.0,23.2,0.7,-0.7,0.0,-0.6,9.2,1.0,0.447,0.226,46.0,NBA,1197.0,-0.1,1.8,0.8,13.1,PG,2017,1.8,TOT,13.9,5.3,0.533,19.6,0.4,1.8,0.0,0.072
23.0,16.9,1.0,-7.3,0.0,-3.3,5.5,0.0,0.551,0.327,10.0,NBA,151.0,-4.0,2.8,-0.2,6.5,PG,2017,0.6,BRK,20.0,4.2,0.482,19.9,-0.2,-0.2,0.0,-0.05
23.0,24.1,0.6,0.2,0.0,-0.3,9.7,0.9,0.432,0.212,36.0,NBA,1046.0,0.5,1.7,1.0,14.1,PG,2017,2.0,DAL,12.9,5.5,0.541,19.5,0.6,2.0,0.0,0.09
24.0,13.5,0.4,-1.0,0.0,-0.6,11.2,1.5,0.492,0.141,82.0,NBA,2282.0,-0.4,1.2,1.5,11.4,SG,2018,1.4,DAL,9.1,6.1,0.54,17.0,0.6,3.0,0.0,0.064
25.0,17.0,0.3,-2.3,0.0,-1.8,9.5,0.6,0.423,0.19,71.0,NBA,1067.0,-0.5,1.2,1.3,12.7,PG,2019,1.6,SAC,9.5,5.3,0.55,16.3,-0.1,1.9,0.0,0.087
26.0,18.9,3.7,-1.7,0.0,-1.2,14.8,0.0,0.4,0.4,5.0,NBA,25.0,-0.5,0.0,0.0,16.2,PG,2020,1.9,SAC,7.8,6.8,0.51,21.5,0.0,0.0,0.0,0.094
