age,ast_per_poss,blk_per_poss,def_rtg,drb_per_poss,fg2_pct,fg2_per_poss,fg2a_per_poss,fg3_pct,fg3_per_poss,fg3a_per_poss,fg_pct,fg_per_poss,fga_per_poss,ft_pct,ft_per_poss,fta_per_poss,g,gs,lg_id,mp,off_rtg,orb_per_poss,pf_per_poss,pos,pts_per_poss,season,stl_per_poss,team_id,tov_per_poss,trb_per_poss
24.0,0.0,0.0,117.0,0.0,0.0,0.0,17.4,0.0,0.0,0.0,0.0,0.0,17.4,0.0,0.0,0.0,2.0,0.0,NBA,3.0,0.0,0.0,0.0,PG,0.0,2015,0.0,POR,17.4,0.0
27.0,24.7,0.0,98.0,8.2,0.0,0.0,8.2,0.0,0.0,0.0,0.0,0.0,8.2,0.0,0.0,0.0,2.0,0.0,NBA,6.0,107.0,0.0,16.5,PG,0.0,2018,8.2,WAS,0.0,8.2
28.0,12.0,0.0,103.0,10.8,0.714,6.0,8.4,0.5,3.6,7.2,0.615,9.6,15.6,1.0,2.4,2.4,11.0,0.0,NBA,40.0,137.0,0.0,6.0,PG,25.2,2019,1.2,MIL,3.6,10.8
