age,ast_per_g,blk_per_g,drb_per_g,efg_pct,fg2_pct,fg2_per_g,fg2a_per_g,fg3_pct,fg3_per_g,fg3a_per_g,fg_pct,fg_per_g,fga_per_g,ft_pct,ft_per_g,fta_per_g,g,gs,lg_id,mp_per_g,orb_per_g,pf_per_g,pos,pts_per_g,season,stl_per_g,team_id,tov_per_g,trb_per_g
23.0,1.7,0.0,1.0,0.769,0.875,2.3,2.7,0.4,0.7,1.7,0.692,3.0,4.3,0.75,1.0,1.3,3.0,0.0,NBA,8.3,0.3,0.3,PG,7.7,1991,1.0,SEA,1.0,1.3
24.0,1.1,0.0,0.9,0.65,0.478,1.6,3.3,0.588,1.4,2.4,0.525,3.0,5.7,0.0,0.0,0.0,7.0,0.0,NBA,13.7,0.1,1.6,PG,7.4,1992,0.6,SEA,0.9,1.0
25.0,0.8,0.0,0.8,0.521,0.548,1.1,1.9,0.313,0.3,1.0,0.468,1.4,2.9,0.75,0.4,0.5,16.0,0.0,NBA,8.5,0.0,0.4,PG,3.4,1993,0.3,SEA,0.5,0.8
34.0,0.3,0.0,0.0,0.333,0.5,0.3,0.5,0.0,0.0,0.3,0.333,0.3,0.8,0.0,0.0,0.0,4.0,0.0,NBA,1.5,0.0,0.5,PG,0.5,2002,0.0,DET,0.0,0.0
36.0,0.0,0.0,0.0,0.0,0.0,0.0,1.0,0.0,0.0,0.0,0.0,0.0,1.0,0.0,0.0,0.0,1.0,0.0,NBA,1.0,0.0,0.0,SG,0.0,2004,0.0,BOS,0.0,0.0
