age,ast,blk,drb,fg,fg2,fg2a,fg3,fg3a,fga,ft,fta,game_score,lg_id,mp,orb,pf,pts,season,stl,team_id,tov,trb
22.0,3.0,0.0,4.0,8.0,8.0,13.0,0.0,0.0,13.0,5.0,8.0,14.6,NBA,0.0,2.0,6.0,20.0,1987,1.0,IND,3.0,5.0
30.0,6.0,2.0,5.0,10.0,10.0,14.0,0.0,1.0,14.0,3.0,4.0,16.1,NBA,0.0,1.0,6.0,21.0,1995,0.0,PHO,2.0,6.0
31.0,2.0,1.0,1.0,5.0,5.0,9.0,0.0,0.0,9.0,1.0,2.0,4.4,NBA,0.0,2.0,5.0,11.0,1996,1.0,PHO,1.0,2.0
32.0,0.0,0.0,3.0,2.0,2.0,6.0,0.0,0.0,6.0,0.0,0.0,1.8,NBA,0.0,2.0,2.0,4.0,1997,0.0,PHO,1.0,4.0
