age,ast,blk,drb,fg,fg2,fg2a,fg3,fg3a,fga,ft,fta,game_score,lg_id,mp,orb,pf,pts,season,stl,team_id,tov,trb
23.0,0.0,0.0,1.0,1.0,1.0,4.0,0.0,1.0,4.0,2.0,2.0,0.9,NBA,0.0,0.0,1.0,4.0,2000,0.0,TOT,2.0,1.0
23.0,0.0,0.0,1.0,1.0,1.0,4.0,0.0,1.0,4.0,2.0,2.0,0.9,NBA,0.0,0.0,1.0,4.0,2000,0.0,MIL,2.0,1.0
