age,ast_pct,blk_pct,bpm,bpm-dum,dbpm,drb_pct,dws,fg3a_per_fga_pct,fta_per_fga_pct,g,lg_id,mp,obpm,orb_pct,ows,per,pos,season,stl_pct,team_id,tov_pct,trb_pct,ts_pct,usg_pct,vorp,ws,ws-dum,ws_per_48
20.0,9.1,0.5,-5.1,0.0,-2.3,13.3,0.6,0.463,0.111,59.0,NBA,1441.0,-2.8,1.6,-1.0,7.9,SG,2008,0.8,MIA,10.5,7.4,0.48,19.8,-1.1,-0.4,0.0,-0.013
21.0,6.2,0.4,-3.0,0.0,-2.3,11.2,1.3,0.612,0.087,75.0,NBA,1833.0,-0.7,1.2,0.9,10.3,SF,2009,1.1,MIA,5.9,6.2,0.512,18.2,-0.5,2.2,0.0,0.056
22.0,9.8,1.2,-4.5,0.0,-1.1,12.3,0.8,0.498,0.099,45.0,NBA,691.0,-3.4,1.5,-0.7,7.5,SG,2010,1.1,MIA,8.3,7.0,0.422,19.6,-0.4,0.1,0.0,0.01
23.0,5.3,0.1,-0.2,0.0,-2.7,12.1,0.4,0.851,0.11,43.0,NBA,598.0,2.5,1.6,1.2,12.8,SG,2011,1.2,OKC,8.2,7.0,0.63,15.7,0.3,1.6,0.0,0.126
24.0,2.3,0.8,-2.6,0.0,-2.4,11.9,0.8,0.77,0.074,57.0,NBA,989.0,-0.2,1.5,0.8,9.2,SG,2012,1.1,OKC,5.0,7.0,0.509,14.7,-0.1,1.6,0.0,0.078
25.0,6.7,1.2,-7.0,0.0,-2.2,14.1,0.4,0.545,0.072,49.0,NBA,441.0,-4.8,1.8,-0.6,5.8,SG,2013,0.9,TOT,8.0,7.9,0.398,19.2,-0.6,-0.2,0.0,-0.019
25.0,9.1,0.9,-3.4,0.0,-1.4,8.8,0.1,0.508,0.051,16.0,NBA,165.0,-2.0,3.5,0.0,8.8,SG,2013,1.8,HOU,9.0,6.2,0.456,17.6,-0.1,0.1,0.0,0.03
25.0,5.2,1.4,-9.2,0.0,-2.7,17.3,0.3,0.565,0.083,33.0,NBA,276.0,-6.4,0.8,-0.6,4.0,SG,2013,0.4,CHI,7.4,8.9,0.366,20.1,-0.5,-0.3,0.0,-0.048
