age,ast_per_g,blk_per_g,drb_per_g,efg_pct,fg2_pct,fg2_per_g,fg2a_per_g,fg3_pct,fg3_per_g,fg3a_per_g,fg_pct,fg_per_g,fga_per_g,ft_pct,ft_per_g,fta_per_g,g,gs,lg_id,mp_per_g,orb_per_g,pf_per_g,pos,pts_per_g,season,stl_per_g,team_id,tov_per_g,trb_per_g
23.0,0.6,0.2,3.3,0.531,0.538,3.0,5.6,0.0,0.0,0.1,0.531,3.0,5.6,0.624,1.4,2.3,82.0,5.0,NBA,18.7,1.8,2.7,PF,7.4,2007,0.6,MIN,0.9,5.1
24.0,0.8,0.2,3.0,0.563,0.572,3.9,6.7,0.0,0.0,0.1,0.563,3.9,6.9,0.665,1.7,2.6,77.0,11.0,NBA,20.1,1.6,2.8,PF,9.4,2008,0.5,MIN,1.2,4.6
25.0,1.1,0.3,2.5,0.562,0.563,3.9,6.9,0.0,0.0,0.0,0.562,3.9,6.9,0.677,2.3,3.4,74.0,31.0,NBA,19.7,1.3,2.5,PF,10.1,2009,0.4,MIN,1.4,3.8
26.0,1.1,0.3,2.5,0.571,0.574,3.0,5.2,0.2,0.0,0.1,0.569,3.0,5.3,0.635,1.8,2.8,75.0,2.0,NBA,16.4,1.3,2.6,PF,7.8,2010,0.4,LAC,1.2,3.8
27.0,0.6,0.1,1.5,0.553,0.568,2.2,3.8,0.0,0.0,0.1,0.553,2.2,3.9,0.735,1.0,1.4,48.0,0.0,NBA,12.2,0.9,1.8,PF,5.4,2011,0.3,LAC,0.7,2.4
28.0,0.4,0.1,1.6,0.504,0.509,1.3,2.5,0.0,0.0,0.0,0.504,1.3,2.5,0.717,0.8,1.1,47.0,0.0,NBA,9.9,0.7,1.2,PF,3.3,2012,0.3,POR,0.5,2.3
