lg_id,salary,season,team_name
NBA,412718.0,2007,Minnesota Timberwolves
NBA,687456.0,2008,Minnesota Timberwolves
NBA,2500000.0,2009,Minnesota Timberwolves
NBA,2500000.0,2010,Los Angeles Clippers
NBA,2300000.0,2011,Los Angeles Clippers
NBA,992680.0,2012,Portland Trail Blazers
