age,and1s,astd_pts,drawn_offensive,drawn_shooting,fouls_offensive,fouls_shooting,g,lg_id,mp,own_shots_blk,pct_1,pct_2,pct_3,pct_4,pct_5,plus_minus_net,plus_minus_on,pos,season,team_id,tov_bad_pass,tov_lost_ball
23.0,26.0,110.0,24.0,96.0,23.0,109.0,82.0,NBA,1537.0,43.0,0.0,0.0,2.0,97.0,2.0,-1.1,-4.9,PF,2007,MIN,19.0,15.0
24.0,33.0,134.0,11.0,107.0,27.0,106.0,77.0,NBA,1547.0,61.0,0.0,0.0,0.0,71.0,29.0,-0.3,-7.7,PF,2008,MIN,20.0,23.0
25.0,27.0,177.0,7.0,126.0,18.0,89.0,74.0,NBA,1460.0,39.0,0.0,0.0,4.0,92.0,4.0,-1.3,-6.5,PF,2009,MIN,17.0,44.0
26.0,17.0,196.0,16.0,103.0,26.0,101.0,75.0,NBA,1232.0,45.0,0.0,0.0,0.0,93.0,7.0,3.4,-4.6,PF,2010,LAC,16.0,30.0
27.0,8.0,68.0,3.0,34.0,17.0,43.0,48.0,NBA,586.0,17.0,0.0,0.0,2.0,96.0,2.0,-2.2,-5.5,PF,2011,LAC,6.0,3.0
28.0,5.0,42.0,1.0,25.0,4.0,34.0,47.0,NBA,464.0,13.0,0.0,0.0,0.0,94.0,6.0,-8.7,-8.5,PF,2012,POR,4.0,6.0
