age,ast,blk,drb,efg_pct,fg,fg2,fg2_pct,fg2a,fg3,fg3_pct,fg3a,fg_pct,fga,ft,ft_pct,fta,g,gs,lg_id,mp,orb,pf,pos,pts,season,stl,team_id,tov,trb
26.0,10.0,2.0,22.0,0.524,17.0,8.0,0.4,20.0,9.0,0.429,21.0,0.415,41.0,14.0,0.737,19.0,4.0,4.0,NBA,107.0,6.0,12.0,PF,57.0,2015,1.0,CLE,6.0,28.0
27.0,42.0,8.0,141.0,0.481,92.0,46.0,0.359,128.0,46.0,0.414,111.0,0.385,239.0,63.0,0.84,75.0,20.0,19.0,NBA,613.0,34.0,34.0,PF,293.0,2016,9.0,CLE,27.0,175.0
28.0,30.0,16.0,155.0,0.55,95.0,45.0,0.421,107.0,50.0,0.45,111.0,0.436,218.0,63.0,0.84,75.0,18.0,18.0,NBA,578.0,36.0,46.0,PF,303.0,2017,21.0,CLE,31.0,191.0
29.0,34.0,8.0,166.0,0.457,109.0,73.0,0.424,172.0,36.0,0.34,106.0,0.392,278.0,59.0,0.922,64.0,21.0,21.0,NBA,660.0,49.0,58.0,C,313.0,2018,15.0,CLE,41.0,215.0
