age,avg_dist,fg2_dunk,fg2_pct,fg2_pct_ast,fg2a_pct_fga,fg3_heave,fg3_pct,fg3_pct_ast,fg3_pct_corner,fg3a_heave,fg3a_pct_fga,fg_pct,fg_pct_00_03,fg_pct_03_10,fg_pct_10_16,fg_pct_16_xx,g,lg_id,mp,pct_fg2_dunk,pct_fg3a_corner,pct_fga_00_03,pct_fga_03_10,pct_fga_10_16,pct_fga_16_xx,pos,season,team_id
20.0,7.1,38.0,0.469,0.599,0.972,0.0,0.105,0.5,0.5,5.0,0.028,0.459,0.551,0.416,0.282,0.385,81.0,NBA,2048.0,0.06,0.105,0.528,0.164,0.103,0.177,C,2009,MIN
21.0,9.5,16.0,0.474,0.527,0.836,0.0,0.33,0.914,0.571,5.0,0.164,0.45,0.565,0.386,0.338,0.402,60.0,NBA,1714.0,0.026,0.132,0.427,0.176,0.105,0.127,PF,2010,MIN
22.0,10.4,22.0,0.483,0.525,0.794,0.0,0.417,0.989,0.529,4.0,0.206,0.47,0.615,0.398,0.313,0.38,73.0,NBA,2611.0,0.026,0.081,0.352,0.259,0.078,0.105,PF,2011,MIN
23.0,12.3,39.0,0.475,0.482,0.734,0.0,0.372,0.924,0.308,2.0,0.266,0.448,0.6,0.393,0.287,0.389,55.0,NBA,2145.0,0.04,0.092,0.335,0.159,0.082,0.158,PF,2012,MIN
24.0,12.7,8.0,0.413,0.541,0.691,0.0,0.217,0.85,0.5,1.0,0.309,0.352,0.49,0.281,0.556,0.343,18.0,NBA,618.0,0.03,0.043,0.322,0.191,0.06,0.117,PF,2013,MIN
25.0,14.3,31.0,0.502,0.572,0.645,0.0,0.376,0.858,0.396,5.0,0.355,0.457,0.669,0.412,0.354,0.4,77.0,NBA,2797.0,0.023,0.095,0.253,0.167,0.091,0.134,PF,2014,MIN
26.0,14.8,27.0,0.48,0.691,0.588,0.0,0.367,0.986,0.365,0.0,0.412,0.434,0.611,0.366,0.408,0.468,75.0,NBA,2532.0,0.03,0.321,0.213,0.181,0.08,0.114,PF,2015,CLE
27.0,15.2,20.0,0.467,0.602,0.551,0.0,0.36,0.987,0.398,0.0,0.449,0.419,0.55,0.452,0.341,0.451,77.0,NBA,2424.0,0.023,0.303,0.173,0.19,0.084,0.104,PF,2016,CLE
28.0,15.2,12.0,0.471,0.551,0.551,0.0,0.373,0.986,0.413,0.0,0.449,0.427,0.56,0.415,0.435,0.397,60.0,NBA,1885.0,0.014,0.355,0.212,0.156,0.098,0.084,PF,2017,CLE
29.0,14.9,5.0,0.494,0.645,0.547,0.0,0.415,0.978,0.378,0.0,0.453,0.458,0.661,0.315,0.391,0.385,59.0,NBA,1651.0,0.008,0.297,0.243,0.122,0.095,0.089,C,2018,CLE
30.0,16.7,4.0,0.412,0.518,0.481,0.0,0.361,0.906,0.448,0.0,0.519,0.385,0.517,0.412,0.273,0.25,22.0,NBA,598.0,0.014,0.197,0.212,0.12,0.078,0.071,PF,2019,CLE
31.0,16.8,1.0,0.551,0.474,0.507,0.0,0.343,0.913,0.125,0.0,0.493,0.449,0.696,0.286,0.688,0.556,11.0,NBA,366.0,0.007,0.119,0.169,0.154,0.118,0.066,PF,2020,CLE
