age,ast_per_g,blk_per_g,drb_per_g,efg_pct,fg2_pct,fg2_per_g,fg2a_per_g,fg3_pct,fg3_per_g,fg3a_per_g,fg_pct,fg_per_g,fga_per_g,ft_pct,ft_per_g,fta_per_g,g,gs,lg_id,mp_per_g,orb_per_g,pf_per_g,pos,pts_per_g,season,stl_per_g,team_id,tov_per_g,trb_per_g
23.0,0.7,1.5,1.7,0.437,0.437,1.7,3.8,0.0,0.0,0.0,0.437,1.7,3.8,0.656,0.7,1.1,58.0,18.0,NBA,17.8,1.4,2.5,C,4.1,2011,0.4,GSW,0.8,3.1
24.0,0.9,1.7,2.5,0.431,0.433,2.1,4.8,0.0,0.0,0.0,0.431,2.1,4.8,0.754,1.4,1.9,61.0,11.0,NBA,21.1,1.6,2.9,C,5.6,2012,0.7,TOT,0.9,4.2
24.0,0.8,1.7,2.3,0.443,0.443,2.2,4.9,0.0,0.0,0.0,0.443,2.2,4.9,0.719,1.2,1.7,38.0,6.0,NBA,21.8,1.5,3.0,C,5.5,2012,0.7,GSW,0.9,3.9
24.0,1.1,1.6,2.8,0.409,0.417,2.0,4.7,0.0,0.0,0.1,0.409,2.0,4.8,0.8,1.7,2.2,23.0,5.0,NBA,20.1,1.8,2.6,C,5.7,2012,0.7,MIL,0.8,4.7
25.0,0.6,1.1,1.8,0.435,0.437,1.5,3.5,0.0,0.0,0.0,0.435,1.5,3.5,0.748,1.2,1.6,76.0,9.0,NBA,17.3,1.5,1.8,C,4.3,2013,0.5,MIL,0.6,3.3
26.0,0.7,1.0,2.1,0.399,0.399,1.4,3.4,0.0,0.0,0.0,0.399,1.4,3.4,0.638,0.7,1.1,42.0,14.0,NBA,19.1,1.5,2.3,PF,3.4,2014,0.4,MIL,0.9,3.5
27.0,0.2,0.2,0.6,0.458,0.458,0.3,0.7,0.0,0.0,0.0,0.458,0.3,0.7,0.778,0.2,0.3,33.0,0.0,NBA,3.9,0.2,0.6,PF,0.9,2015,0.2,LAC,0.2,0.8
30.0,0.8,1.2,1.3,0.5,0.504,1.0,1.9,0.0,0.0,0.0,0.5,1.0,1.9,0.75,0.7,0.9,63.0,3.0,NBA,12.9,1.1,1.7,C,2.6,2018,0.7,UTA,0.3,2.4
31.0,0.5,0.6,1.2,0.694,0.694,1.0,1.4,0.0,0.0,0.0,0.694,1.0,1.4,0.633,0.4,0.6,51.0,1.0,NBA,6.3,0.5,0.7,C,2.3,2019,0.2,UTA,0.3,1.8
