age,ast,blk,drb,efg_pct,fg,fg2,fg2_pct,fg2a,fg3,fg3_pct,fg3a,fg_pct,fga,ft,ft_pct,fta,g,gs,lg_id,mp,orb,pf,pos,pts,season,stl,team_id,tov,trb
23.0,40.0,86.0,101.0,0.437,97.0,97.0,0.437,222.0,0.0,0.0,0.0,0.437,222.0,42.0,0.656,64.0,58.0,18.0,NBA,1030.0,80.0,144.0,C,236.0,2011,22.0,GSW,48.0,181.0
24.0,57.0,102.0,154.0,0.431,127.0,127.0,0.433,293.0,0.0,0.0,2.0,0.431,295.0,86.0,0.754,114.0,61.0,11.0,NBA,1290.0,100.0,174.0,C,340.0,2012,40.0,TOT,53.0,254.0
24.0,31.0,65.0,89.0,0.443,82.0,82.0,0.443,185.0,0.0,0.0,0.0,0.443,185.0,46.0,0.719,64.0,38.0,6.0,NBA,827.0,58.0,115.0,C,210.0,2012,25.0,GSW,35.0,147.0
24.0,26.0,37.0,65.0,0.409,45.0,45.0,0.417,108.0,0.0,0.0,2.0,0.409,110.0,40.0,0.8,50.0,23.0,5.0,NBA,463.0,42.0,59.0,C,130.0,2012,15.0,MIL,18.0,107.0
25.0,43.0,85.0,138.0,0.435,117.0,117.0,0.437,268.0,0.0,0.0,1.0,0.435,269.0,89.0,0.748,119.0,76.0,9.0,NBA,1312.0,113.0,139.0,C,323.0,2013,39.0,MIL,43.0,251.0
26.0,31.0,44.0,87.0,0.399,57.0,57.0,0.399,143.0,0.0,0.0,0.0,0.399,143.0,30.0,0.638,47.0,42.0,14.0,NBA,804.0,61.0,96.0,PF,144.0,2014,15.0,MIL,38.0,148.0
27.0,8.0,7.0,19.0,0.458,11.0,11.0,0.458,24.0,0.0,0.0,0.0,0.458,24.0,7.0,0.778,9.0,33.0,0.0,NBA,128.0,7.0,20.0,PF,29.0,2015,8.0,LAC,7.0,26.0
30.0,53.0,74.0,82.0,0.5,60.0,60.0,0.504,119.0,0.0,0.0,1.0,0.5,120.0,42.0,0.75,56.0,63.0,3.0,NBA,810.0,68.0,105.0,C,162.0,2018,43.0,UTA,20.0,150.0
31.0,28.0,31.0,63.0,0.694,50.0,50.0,0.694,72.0,0.0,0.0,0.0,0.694,72.0,19.0,0.633,30.0,51.0,1.0,NBA,320.0,27.0,36.0,C,119.0,2019,10.0,UTA,13.0,90.0
