age,ast_per_mp,blk_per_mp,drb_per_mp,fg2_pct,fg2_per_mp,fg2a_per_mp,fg3_pct,fg3_per_mp,fg3a_per_mp,fg_pct,fg_per_mp,fga_per_mp,ft_pct,ft_per_mp,fta_per_mp,g,gs,lg_id,mp,orb_per_mp,pf_per_mp,pos,pts_per_mp,season,stl_per_mp,team_id,tov_per_mp,trb_per_mp
24.0,0.9,0.3,4.6,0.449,4.5,10.0,0.0,0.0,0.1,0.444,4.5,10.1,0.811,2.7,3.3,73.0,3.0,NBA,989.0,1.8,5.9,SF,11.6,2001,0.4,ATL,2.4,6.3
25.0,1.3,0.5,4.9,0.453,4.4,9.7,0.077,0.0,0.3,0.44,4.4,10.1,0.75,1.5,2.0,82.0,14.0,NBA,1371.0,2.1,4.6,C,10.4,2002,0.5,ATL,1.8,7.0
