age,ast_pct,blk_pct,bpm,bpm-dum,dbpm,drb_pct,dws,fg3a_per_fga_pct,fta_per_fga_pct,g,lg_id,mp,obpm,orb_pct,ows,per,pos,season,stl_pct,team_id,tov_pct,trb_pct,ts_pct,usg_pct,vorp,ws,ws-dum,ws_per_48
22.0,3.6,2.3,-11.9,0.0,-1.4,27.1,0.2,0.033,0.867,24.0,NBA,135.0,-10.5,9.9,-0.4,3.2,C,2001,1.2,BOS,30.3,18.1,0.422,20.0,-0.3,-0.3,0.0,-0.096
23.0,8.4,1.9,-7.1,0.0,1.9,31.5,0.2,0.0,0.0,15.0,NBA,76.0,-9.0,6.0,-0.2,5.9,C,2002,2.1,CHH,28.6,18.8,0.4,16.8,-0.1,-0.1,0.0,-0.04
24.0,5.8,4.9,-1.2,0.0,2.2,21.7,1.2,0.0,0.24,51.0,NBA,644.0,-3.4,10.5,0.3,14.5,C,2003,1.6,NOH,19.6,16.1,0.542,16.6,0.1,1.5,0.0,0.109
25.0,3.4,2.1,-3.5,0.0,1.3,20.0,0.8,0.012,0.452,35.0,NBA,417.0,-4.8,11.3,0.0,12.3,PF,2004,2.3,TOR,19.9,15.6,0.506,14.6,-0.2,0.8,0.0,0.09
26.0,1.3,3.7,-7.2,0.0,-1.3,26.4,0.2,0.056,0.722,20.0,NBA,120.0,-6.0,9.5,0.1,12.3,C-PF,2005,1.3,TOT,22.8,17.8,0.59,11.7,-0.2,0.2,0.0,0.098
26.0,0.0,3.1,-10.1,0.0,-2.0,28.4,0.1,0.111,1.0,8.0,NBA,69.0,-8.1,9.7,0.0,9.5,C,2005,1.5,TOR,31.6,18.9,0.54,12.6,-0.1,0.1,0.0,0.039
26.0,0.0,3.4,-7.7,0.0,-4.1,20.3,0.0,0.0,1.0,8.0,NBA,24.0,-3.6,14.8,0.1,17.0,C,2005,0.0,NJN,14.8,17.5,0.694,13.2,0.0,0.1,0.0,0.174
26.0,5.8,5.5,0.5,0.0,3.2,26.8,0.1,0.0,0.0,4.0,NBA,27.0,-2.7,4.3,0.0,15.3,PF,2005,2.0,CLE,0.0,15.3,0.6,8.4,0.0,0.1,0.0,0.181
