age,ast_per_g,blk_per_g,drb_per_g,efg_pct,fg2_pct,fg2_per_g,fg2a_per_g,fg3_pct,fg3_per_g,fg3a_per_g,fg_pct,fg_per_g,fga_per_g,ft_pct,ft_per_g,fta_per_g,g,gs,lg_id,mp_per_g,orb_per_g,pf_per_g,pos,pts_per_g,season,stl_per_g,team_id,tov_per_g,trb_per_g
22.0,0.1,0.2,1.3,0.4,0.414,0.5,1.2,0.0,0.0,0.0,0.4,0.5,1.3,0.423,0.5,1.1,24.0,0.0,NBA,5.6,0.5,1.2,C,1.5,2001,0.1,BOS,0.8,1.8
23.0,0.3,0.1,1.4,0.4,0.4,0.5,1.3,0.0,0.0,0.0,0.4,0.5,1.3,0.0,0.0,0.0,15.0,0.0,NBA,5.1,0.3,0.8,C,1.1,2002,0.2,CHH,0.5,1.7
24.0,0.4,0.9,2.3,0.52,0.52,1.7,3.4,0.0,0.0,0.0,0.52,1.7,3.4,0.659,0.5,0.8,51.0,1.0,NBA,12.6,1.2,1.7,C,4.0,2003,0.4,NOH,0.9,3.5
25.0,0.2,0.3,2.1,0.476,0.482,1.1,2.4,0.0,0.0,0.0,0.476,1.1,2.4,0.579,0.6,1.1,35.0,1.0,NBA,11.9,1.2,1.2,PF,2.9,2004,0.5,TOR,0.7,3.2
26.0,0.1,0.3,1.4,0.5,0.529,0.5,0.9,0.0,0.0,0.1,0.5,0.5,0.9,0.769,0.5,0.7,20.0,1.0,NBA,6.0,0.5,0.7,C-PF,1.4,2005,0.2,TOT,0.4,1.9
26.0,0.0,0.4,2.1,0.333,0.375,0.4,1.0,0.0,0.0,0.1,0.333,0.4,1.1,0.889,1.0,1.1,8.0,1.0,NBA,8.6,0.8,0.9,C,1.8,2005,0.3,TOR,0.8,2.9
26.0,0.0,0.1,0.5,0.75,0.75,0.4,0.5,0.0,0.0,0.0,0.75,0.4,0.5,0.5,0.3,0.5,8.0,0.0,NBA,3.0,0.4,0.3,C,1.0,2005,0.0,NJN,0.1,0.9
26.0,0.3,0.5,1.5,0.6,0.6,0.8,1.3,0.0,0.0,0.0,0.6,0.8,1.3,0.0,0.0,0.0,4.0,0.0,NBA,6.8,0.3,1.0,PF,1.5,2005,0.3,CLE,0.0,1.8
