age,ast_per_mp,blk_per_mp,drb_per_mp,fg2_pct,fg2_per_mp,fg2a_per_mp,fg3_pct,fg3_per_mp,fg3a_per_mp,fg_pct,fg_per_mp,fga_per_mp,ft_pct,ft_per_mp,fta_per_mp,g,gs,lg_id,mp,orb_per_mp,pf_per_mp,pos,pts_per_mp,season,stl_per_mp,team_id,tov_per_mp,trb_per_mp
24.0,1.9,1.3,2.6,0.222,1.3,5.8,0.0,0.0,0.0,0.222,1.3,5.8,1.0,5.1,5.1,4.0,1.0,NBA,56.0,2.6,8.4,C,7.7,1994,0.0,NJN,1.9,5.1
27.0,0.8,1.6,6.5,0.408,3.4,8.2,0.0,0.0,0.0,0.408,3.4,8.2,0.717,3.0,4.2,15.0,15.0,NBA,451.0,3.8,3.2,PF,9.7,1997,0.7,MIA,1.3,10.3
28.0,0.8,0.6,5.5,0.514,3.6,7.0,0.0,0.0,0.0,0.514,3.6,7.0,0.364,1.5,4.2,5.0,5.0,NBA,190.0,2.8,4.2,PF,8.7,1998,1.3,MIA,1.1,8.3
29.0,1.2,0.5,4.2,0.477,5.2,11.0,0.0,0.0,0.2,0.467,5.2,11.3,0.9,2.3,2.5,5.0,5.0,NBA,144.0,3.5,4.2,PF,12.7,1999,0.5,MIA,0.7,7.7
30.0,1.3,0.5,6.5,0.427,4.1,9.6,0.0,0.0,0.0,0.427,4.1,9.6,0.833,0.6,0.7,10.0,10.0,NBA,308.0,3.0,4.9,PF,8.8,2000,0.9,MIA,1.3,9.6
31.0,1.0,1.3,5.5,0.418,2.6,6.3,0.0,0.0,0.0,0.418,2.6,6.3,0.828,2.2,2.7,10.0,10.0,NBA,385.0,3.8,2.9,C,7.5,2001,1.1,CHH,1.1,9.4
32.0,1.5,1.3,6.2,0.427,3.5,8.2,0.0,0.0,0.0,0.427,3.5,8.2,0.757,3.0,4.0,9.0,9.0,NBA,331.0,3.2,4.0,C,10.0,2002,0.7,CHH,0.9,9.4
33.0,1.1,0.6,4.8,0.477,3.9,8.2,0.0,0.0,0.0,0.477,3.9,8.2,0.76,3.5,4.7,6.0,6.0,NBA,193.0,3.7,4.1,PF,11.4,2003,1.3,NOH,0.9,8.6
34.0,2.1,1.5,5.5,0.366,3.7,10.0,0.0,0.0,0.0,0.366,3.7,10.0,0.909,1.4,1.5,7.0,7.0,NBA,256.0,4.1,2.3,PF,8.7,2004,0.4,NOH,1.8,9.6
37.0,1.9,0.3,4.7,0.493,5.2,10.6,0.0,0.0,0.0,0.493,5.2,10.6,0.739,2.7,3.6,10.0,10.0,NBA,228.0,2.7,4.6,PF,13.1,2007,1.3,CHI,1.3,7.4
38.0,1.3,1.1,4.3,0.473,2.7,5.8,0.0,0.0,0.1,0.464,2.7,5.9,0.84,2.2,2.6,25.0,0.0,NBA,341.0,1.9,6.1,PF,7.7,2008,0.5,BOS,1.3,6.2
