age,ast_per_poss,blk_per_poss,def_rtg,drb_per_poss,fg2_pct,fg2_per_poss,fg2a_per_poss,fg3_pct,fg3_per_poss,fg3a_per_poss,fg_pct,fg_per_poss,fga_per_poss,ft_pct,ft_per_poss,fta_per_poss,g,gs,lg_id,mp,off_rtg,orb_per_poss,pf_per_poss,pos,pts_per_poss,season,stl_per_poss,team_id,tov_per_poss,trb_per_poss
24.0,2.9,1.9,107.0,3.8,0.222,1.9,8.7,0.0,0.0,0.0,0.222,1.9,8.7,1.0,7.7,7.7,4.0,1.0,NBA,56.0,101.0,3.8,12.5,C,11.5,1994,0.0,NJN,2.9,7.7
27.0,1.2,2.5,97.0,10.0,0.408,5.2,12.7,0.0,0.0,0.0,0.408,5.2,12.7,0.717,4.7,6.5,15.0,15.0,NBA,451.0,106.0,5.9,4.9,PF,15.1,1997,1.1,MIA,2.0,15.9
28.0,1.2,0.9,102.0,8.5,0.514,5.6,10.9,0.0,0.0,0.0,0.514,5.6,10.9,0.364,2.4,6.5,5.0,5.0,NBA,190.0,102.0,4.4,6.5,PF,13.5,1998,2.1,MIA,1.8,12.9
29.0,2.1,0.8,106.0,7.1,0.477,8.7,18.3,0.0,0.0,0.4,0.467,8.7,18.7,0.9,3.7,4.2,5.0,5.0,NBA,144.0,112.0,5.8,7.1,PF,21.2,1999,0.8,MIA,1.2,12.9
30.0,2.0,0.7,94.0,10.3,0.427,6.4,15.1,0.0,0.0,0.0,0.427,6.4,15.1,0.833,0.9,1.1,10.0,10.0,NBA,308.0,95.0,4.8,7.7,PF,13.8,2000,1.5,MIA,2.0,15.1
31.0,1.5,2.0,100.0,8.3,0.418,3.9,9.4,0.0,0.0,0.0,0.418,3.9,9.4,0.828,3.4,4.1,10.0,10.0,NBA,385.0,113.0,5.8,4.4,C,11.3,2001,1.7,CHH,1.7,14.1
32.0,2.2,1.9,104.0,9.1,0.427,5.1,12.0,0.0,0.0,0.0,0.427,5.1,12.0,0.757,4.5,5.9,9.0,9.0,NBA,331.0,116.0,4.7,5.9,C,14.8,2002,1.0,CHH,1.3,13.8
33.0,1.7,0.9,107.0,7.4,0.477,6.0,12.5,0.0,0.0,0.0,0.477,6.0,12.5,0.76,5.4,7.1,6.0,6.0,NBA,193.0,123.0,5.7,6.3,PF,17.4,2003,2.0,NOH,1.4,13.1
34.0,3.2,2.4,95.0,8.4,0.366,5.6,15.3,0.0,0.0,0.0,0.366,5.6,15.3,0.909,2.2,2.4,7.0,7.0,NBA,256.0,91.0,6.2,3.4,PF,13.3,2004,0.6,NOH,2.8,14.6
37.0,2.8,0.5,102.0,7.1,0.493,7.8,15.8,0.0,0.0,0.0,0.493,7.8,15.8,0.739,4.0,5.4,10.0,10.0,NBA,228.0,113.0,4.0,6.8,PF,19.5,2007,1.9,CHI,1.9,11.1
38.0,2.0,1.6,104.0,6.7,0.473,4.3,9.0,0.0,0.0,0.2,0.464,4.3,9.2,0.84,3.4,4.1,25.0,0.0,NBA,341.0,110.0,2.9,9.5,PF,12.0,2008,0.8,BOS,2.0,9.7
