lg_id,salary,season,team_name
NBA,600000.0,1994,New Jersey Nets
NBA,780000.0,1995,New Jersey Nets
NBA,960000.0,1996,New Jersey Nets
NBA,2000000.0,1997,Miami Heat
NBA,3844800.0,1998,Miami Heat
NBA,4480000.0,1999,Miami Heat
NBA,5124800.0,2000,Miami Heat
NBA,5740000.0,2001,Charlotte Hornets
NBA,6404800.0,2002,Charlotte Hornets
NBA,7044800.0,2003,New Orleans Hornets
NBA,8000000.0,2004,New Orleans Hornets
NBA,8000000.0,2005,New Orleans Hornets
NBA,8000000.0,2006,New Orleans/Oklahoma City Hornets
NBA,8560000.0,2007,Chicago Bulls
