age,ast_per_poss,blk_per_poss,def_rtg,drb_per_poss,fg2_pct,fg2_per_poss,fg2a_per_poss,fg3_pct,fg3_per_poss,fg3a_per_poss,fg_pct,fg_per_poss,fga_per_poss,ft_pct,ft_per_poss,fta_per_poss,g,gs,lg_id,mp,off_rtg,orb_per_poss,pf_per_poss,pos,pts_per_poss,season,stl_per_poss,team_id,tov_per_poss,trb_per_poss
22.0,6.8,0.3,106.0,4.1,0.434,4.7,10.8,0.301,1.3,4.2,0.397,5.9,15.0,0.658,4.5,6.9,80.0,3.0,NBA,921.0,98.0,1.4,5.0,PG,17.7,1997,2.3,LAL,4.1,5.5
23.0,9.7,0.1,106.0,4.5,0.448,3.9,8.7,0.383,0.9,2.4,0.434,4.8,11.0,0.757,3.4,4.4,82.0,36.0,NBA,1760.0,109.0,1.1,3.7,PG,13.8,1998,2.2,LAL,3.5,5.6
24.0,9.1,0.0,106.0,3.2,0.367,2.8,7.7,0.392,1.8,4.5,0.376,4.6,12.2,0.759,2.8,3.7,50.0,21.0,NBA,1131.0,103.0,1.0,4.4,PG,13.7,1999,2.8,LAL,3.6,4.2
25.0,6.2,0.1,101.0,3.5,0.363,3.3,9.0,0.313,1.5,4.7,0.346,4.8,13.8,0.724,3.0,4.1,78.0,22.0,NBA,1803.0,99.0,0.6,4.3,PG,14.0,2000,2.3,LAL,2.1,4.1
26.0,6.4,0.1,105.0,4.0,0.419,3.8,9.2,0.397,1.8,4.6,0.412,5.7,13.8,0.806,3.7,4.6,20.0,20.0,NBA,709.0,113.0,0.4,3.7,PG,16.9,2001,2.9,LAL,2.1,4.4
27.0,4.8,0.2,105.0,3.5,0.41,3.4,8.4,0.413,3.8,9.2,0.411,7.2,17.6,0.847,2.5,2.9,70.0,35.0,NBA,1974.0,114.0,0.4,3.2,PG,20.8,2002,1.7,LAL,1.6,3.9
28.0,5.5,0.3,108.0,3.7,0.451,4.7,10.3,0.401,1.6,3.9,0.437,6.2,14.2,0.8,1.8,2.3,82.0,82.0,NBA,2829.0,110.0,0.7,3.6,PG,15.8,2003,1.7,LAL,1.7,4.4
29.0,5.5,0.1,102.0,3.6,0.38,4.4,11.7,0.291,1.5,5.3,0.352,6.0,16.9,0.797,3.6,4.5,82.0,3.0,NBA,1769.0,97.0,0.9,3.4,SG,17.1,2004,3.0,LAL,2.3,4.5
30.0,7.0,0.1,109.0,4.2,0.407,4.4,10.7,0.371,2.5,6.7,0.393,6.9,17.5,0.862,4.1,4.7,74.0,32.0,NBA,2222.0,106.0,0.9,4.1,PG,20.3,2005,1.8,GSW,3.0,5.0
31.0,7.0,0.2,107.0,3.5,0.417,4.9,11.8,0.397,2.3,5.9,0.41,7.2,17.6,0.833,4.8,5.8,82.0,36.0,NBA,2589.0,108.0,0.7,4.7,PG,21.6,2006,2.5,GSW,3.1,4.2
32.0,6.3,0.1,109.0,2.7,0.405,4.8,11.9,0.308,1.1,3.6,0.382,5.9,15.5,0.853,6.0,7.0,82.0,61.0,NBA,2287.0,108.0,0.7,5.4,SG,18.9,2007,1.9,UTA,2.7,3.4
33.0,5.3,0.1,109.0,3.3,0.453,5.1,11.2,0.406,2.5,6.2,0.436,7.6,17.3,0.883,3.7,4.2,82.0,82.0,NBA,2249.0,114.0,0.5,4.2,PG,21.3,2008,1.9,LAL,2.0,3.8
34.0,5.4,0.1,108.0,3.4,0.446,3.6,8.0,0.397,2.5,6.3,0.424,6.1,14.3,0.846,2.3,2.7,82.0,82.0,NBA,2441.0,117.0,0.5,3.9,PG,17.0,2009,2.0,LAL,1.5,3.9
35.0,4.7,0.2,106.0,3.4,0.401,3.1,7.8,0.348,1.8,5.2,0.38,4.9,13.0,0.856,2.6,3.1,82.0,82.0,NBA,2227.0,105.0,0.6,4.7,PG,14.3,2010,2.1,LAL,1.8,3.9
36.0,5.2,0.2,107.0,3.2,0.386,3.3,8.5,0.396,1.5,3.7,0.389,4.7,12.2,0.806,1.9,2.4,82.0,82.0,NBA,2297.0,105.0,0.3,4.4,PG,12.9,2011,2.3,LAL,1.6,3.5
37.0,5.9,0.1,107.0,3.8,0.393,3.3,8.3,0.321,1.2,3.8,0.371,4.5,12.1,0.851,2.0,2.3,63.0,43.0,NBA,1508.0,97.0,0.4,4.1,PG,12.2,2012,1.8,TOT,2.5,4.2
37.0,6.8,0.1,107.0,3.9,0.41,3.3,8.0,0.324,1.2,3.6,0.383,4.4,11.6,0.83,2.1,2.6,43.0,43.0,NBA,1101.0,99.0,0.5,4.1,PG,12.1,2012,1.9,LAL,2.8,4.4
37.0,3.6,0.1,108.0,3.4,0.356,3.3,9.3,0.314,1.4,4.4,0.343,4.7,13.7,0.929,1.6,1.8,20.0,0.0,NBA,407.0,92.0,0.3,4.1,PG,12.4,2012,1.4,OKC,1.9,3.7
38.0,4.2,0.3,108.0,3.1,0.309,2.2,7.2,0.375,2.7,7.1,0.342,4.9,14.4,0.921,3.1,3.4,33.0,9.0,NBA,575.0,97.0,0.2,4.9,SG-PG,15.6,2013,1.7,TOT,2.7,3.3
38.0,6.9,0.4,111.0,3.3,0.31,2.9,9.4,0.435,2.2,5.1,0.354,5.1,14.5,0.913,4.7,5.1,9.0,9.0,NBA,229.0,97.0,0.0,5.3,PG,17.2,2013,1.1,DAL,4.0,3.3
38.0,2.4,0.1,106.0,3.0,0.308,1.8,5.8,0.351,3.0,8.5,0.333,4.8,14.3,0.933,2.1,2.2,24.0,0.0,NBA,346.0,97.0,0.3,4.6,SG,14.6,2013,2.1,OKC,1.8,3.3
39.0,4.1,0.1,106.0,3.9,0.402,1.9,4.6,0.384,3.1,8.1,0.391,5.0,12.7,0.775,1.9,2.5,81.0,0.0,NBA,1428.0,110.0,0.4,5.5,SG,15.0,2014,2.5,OKC,1.7,4.3
