age,ast_pct,blk_pct,bpm,bpm-dum,dbpm,drb_pct,dws,fg3a_per_fga_pct,fta_per_fga_pct,g,lg_id,mp,obpm,orb_pct,ows,per,pos,season,stl_pct,team_id,tov_pct,trb_pct,ts_pct,usg_pct,vorp,ws,ws-dum,ws_per_48
20.0,5.0,4.2,-0.5,0.0,0.9,20.5,1.5,0.0,0.505,62.0,NBA,1482.0,-1.3,9.6,2.5,15.6,C,2013,0.6,TOR,17.4,14.9,0.619,16.9,0.6,3.9,0.0,0.127
21.0,4.2,2.5,-1.4,0.0,0.2,25.1,3.2,0.001,0.385,81.0,NBA,2282.0,-1.6,11.5,3.5,16.1,C,2014,0.5,TOR,14.7,18.2,0.579,18.5,0.3,6.7,0.0,0.141
22.0,3.1,3.6,-0.5,0.0,-0.6,26.3,2.4,0.002,0.423,80.0,NBA,2096.0,0.1,11.8,5.8,20.6,C,2015,0.8,TOR,12.4,19.1,0.623,19.1,0.8,8.2,0.0,0.189
23.0,4.8,4.2,1.1,0.0,0.4,26.3,2.4,0.0,0.397,60.0,NBA,1557.0,0.7,13.8,4.5,22.6,C,2016,0.8,TOR,11.9,20.1,0.61,20.9,1.2,6.9,0.0,0.211
24.0,4.4,2.6,-0.6,0.0,-0.1,29.1,3.0,0.003,0.309,80.0,NBA,2066.0,-0.5,12.4,4.9,20.1,C,2017,0.9,TOR,11.7,20.8,0.601,19.5,0.7,7.9,0.0,0.183
25.0,7.5,3.2,1.5,0.0,0.8,30.3,3.0,0.108,0.307,77.0,NBA,1727.0,0.7,12.1,4.6,22.5,C,2018,0.8,TOR,12.9,21.4,0.628,22.7,1.5,7.6,0.0,0.21
26.0,12.0,4.4,1.2,0.0,1.2,31.4,1.9,0.089,0.344,49.0,NBA,1091.0,0.1,10.7,2.2,24.4,C,2019,0.8,TOT,12.7,21.1,0.616,28.5,0.9,4.2,0.0,0.183
26.0,8.5,3.4,0.9,0.0,0.5,30.2,1.1,0.116,0.363,30.0,NBA,564.0,0.5,10.6,1.6,24.4,C,2019,1.1,TOR,11.5,20.6,0.639,25.9,0.4,2.6,0.0,0.224
26.0,15.7,5.4,1.6,0.0,2.0,32.7,0.9,0.065,0.326,19.0,NBA,527.0,-0.4,10.9,0.7,24.4,C,2019,0.6,MEM,13.8,21.6,0.594,31.4,0.5,1.5,0.0,0.14
27.0,14.0,2.8,-1.5,0.0,-0.1,35.0,0.2,0.175,0.158,11.0,NBA,248.0,-1.4,9.7,0.2,18.6,C,2020,0.4,MEM,17.0,22.2,0.578,24.3,0.0,0.4,0.0,0.079
