age,ast_per_mp,blk_per_mp,drb_per_mp,fg2_pct,fg2_per_mp,fg2a_per_mp,fg3_pct,fg3_per_mp,fg3a_per_mp,fg_pct,fg_per_mp,fga_per_mp,ft_pct,ft_per_mp,fta_per_mp,g,gs,lg_id,mp,orb_per_mp,pf_per_mp,pos,pts_per_mp,season,stl_per_mp,team_id,tov_per_mp,trb_per_mp
22.0,4.1,0.0,6.1,0.538,4.8,8.8,0.0,0.0,0.0,0.538,4.8,8.8,0.667,2.7,4.1,3.0,0.0,NBA,53.0,2.7,4.8,PF,12.2,1993,0.7,ATL,2.0,8.8
23.0,1.2,0.6,5.8,0.6,3.5,5.8,0.0,0.0,0.0,0.6,3.5,5.8,0.444,2.3,5.2,7.0,0.0,NBA,62.0,1.7,5.2,PF,9.3,1994,0.6,ATL,2.3,7.5
24.0,1.0,0.5,4.7,0.583,3.7,6.3,0.0,0.0,0.0,0.583,3.7,6.3,0.667,2.1,3.1,4.0,0.0,NBA,69.0,4.2,2.1,SF,9.4,1995,2.6,UTA,0.0,8.9
25.0,0.4,0.2,4.9,0.688,4.4,6.5,0.5,0.2,0.4,0.676,4.7,6.9,0.647,2.2,3.4,17.0,0.0,NBA,178.0,1.8,4.7,PF,11.7,1996,0.6,UTA,1.6,6.7
26.0,1.2,0.6,7.9,0.333,1.2,3.7,0.0,0.0,0.0,0.333,1.2,3.7,0.667,2.4,3.7,8.0,0.0,NBA,59.0,1.8,3.1,C,4.9,1997,1.2,UTA,1.2,9.8
27.0,0.5,0.5,4.9,0.345,2.3,6.8,0.0,0.0,0.0,0.345,2.3,6.8,0.647,2.6,4.0,15.0,10.0,NBA,154.0,3.0,4.2,C,7.2,1998,0.9,UTA,0.7,7.9
28.0,1.1,1.1,6.1,0.6,6.4,10.7,0.0,0.0,0.0,0.6,6.4,10.7,1.0,1.8,1.8,10.0,0.0,NBA,101.0,2.5,6.1,PF,14.6,1999,1.4,UTA,2.9,8.6
