age,ast_per_g,blk_per_g,drb_per_g,efg_pct,fg2_pct,fg2_per_g,fg2a_per_g,fg3_pct,fg3_per_g,fg3a_per_g,fg_pct,fg_per_g,fga_per_g,ft_pct,ft_per_g,fta_per_g,g,gs,lg_id,mp_per_g,orb_per_g,pf_per_g,pos,pts_per_g,season,stl_per_g,team_id,tov_per_g,trb_per_g
22.0,0.4,0.3,0.8,0.433,0.407,1.1,2.7,0.333,0.4,1.1,0.387,1.5,3.8,0.674,0.6,0.8,51.0,10.0,NBA,13.1,0.3,1.1,SF,3.9,2003,0.4,TOR,0.9,1.2
23.0,0.3,0.3,1.1,0.493,0.333,0.5,1.4,0.405,0.8,2.0,0.375,1.3,3.4,0.65,0.6,1.0,21.0,2.0,NBA,9.3,0.2,1.7,SF-SG,4.0,2004,0.2,TOT,0.9,1.4
23.0,0.5,0.0,0.5,0.583,0.667,1.0,1.5,0.333,0.5,1.5,0.5,1.5,3.0,1.0,0.5,0.5,2.0,0.0,NBA,4.0,0.0,0.0,SG,4.0,2004,0.0,TOR,0.5,0.5
23.0,0.3,0.4,1.2,0.485,0.296,0.4,1.4,0.41,0.8,2.1,0.364,1.3,3.5,0.632,0.6,1.0,19.0,2.0,NBA,9.8,0.3,1.9,SF,4.0,2004,0.2,CHI,0.9,1.5
