age,ast_per_mp,blk_per_mp,drb_per_mp,fg2_pct,fg2_per_mp,fg2a_per_mp,fg3_pct,fg3_per_mp,fg3a_per_mp,fg_pct,fg_per_mp,fga_per_mp,ft_pct,ft_per_mp,fta_per_mp,g,gs,lg_id,mp,orb_per_mp,pf_per_mp,pos,pts_per_mp,season,stl_per_mp,team_id,tov_per_mp,trb_per_mp
19.0,1.4,1.4,8.9,0.638,7.8,12.3,0.0,0.0,0.0,0.638,7.8,12.3,0.667,5.2,7.8,6.0,0.0,ABA,235.0,7.2,3.2,C,20.8,1975,0.0,UTS,2.0,16.1
21.0,0.5,1.5,8.3,0.5,5.6,11.3,0.0,0.0,0.0,0.5,5.6,11.3,0.692,4.4,6.3,12.0,0.0,NBA,518.0,5.8,2.9,C,15.6,1977,0.9,HOU,0.0,14.1
23.0,0.9,3.7,7.4,0.439,8.3,18.9,0.0,0.0,0.0,0.439,8.3,18.9,0.722,6.0,8.3,2.0,0.0,NBA,78.0,11.5,2.3,C,22.6,1979,0.5,HOU,3.7,18.9
24.0,0.9,2.1,7.2,0.54,9.7,17.9,0.0,0.0,0.1,0.536,9.7,18.1,0.767,4.3,5.6,7.0,0.0,NBA,275.0,5.5,2.4,C,23.7,1980,0.5,HOU,2.9,12.7
25.0,1.3,1.3,6.8,0.481,7.8,16.2,0.0,0.0,0.1,0.479,7.8,16.3,0.712,5.6,7.8,21.0,0.0,NBA,955.0,4.7,2.0,C,21.2,1981,0.5,HOU,2.2,11.5
26.0,2.6,0.5,6.1,0.433,7.7,17.7,0.0,0.0,0.0,0.433,7.7,17.7,0.933,3.7,4.0,3.0,0.0,NBA,136.0,7.4,2.1,C,19.1,1982,0.5,HOU,1.6,13.5
27.0,1.4,1.7,9.3,0.538,8.7,16.1,0.0,0.0,0.1,0.536,8.7,16.1,0.717,5.9,8.2,13.0,0.0,NBA,524.0,4.8,2.7,C,23.2,1983,1.3,PHI,2.7,14.2
28.0,1.2,1.9,8.3,0.458,6.5,14.1,0.0,0.0,0.0,0.458,6.5,14.1,0.969,5.3,5.4,5.0,0.0,NBA,212.0,3.4,2.5,C,18.2,1984,0.5,PHI,3.6,11.7
29.0,1.7,1.6,7.3,0.427,6.4,15.0,0.0,0.0,0.1,0.425,6.4,15.1,0.796,5.8,7.3,13.0,13.0,NBA,505.0,2.6,2.8,C,18.7,1985,1.2,PHI,1.6,9.8
31.0,1.6,0.9,7.3,0.447,6.6,14.8,0.0,0.0,0.0,0.447,6.6,14.8,0.952,6.3,6.6,3.0,3.0,NBA,114.0,4.7,1.6,C,19.6,1987,0.0,WSB,2.5,12.0
32.0,1.3,0.7,6.2,0.469,5.5,11.6,0.0,0.0,0.2,0.462,5.5,11.8,0.825,6.0,7.3,5.0,5.0,NBA,198.0,4.0,1.6,C,16.9,1988,0.5,WSB,2.7,10.2
33.0,1.6,0.7,6.0,0.492,5.7,11.5,1.0,0.2,0.2,0.5,5.8,11.7,0.784,7.3,9.3,5.0,5.0,NBA,197.0,4.9,0.9,C,19.2,1989,1.3,ATL,2.0,11.0
35.0,1.3,0.4,6.4,0.2,1.7,8.6,0.0,0.0,0.0,0.2,1.7,8.6,0.929,5.6,6.0,5.0,0.0,NBA,84.0,6.9,1.7,C,9.0,1991,0.9,ATL,0.9,13.3
