age,ast_per_g,blk_per_g,drb_per_g,efg_pct,fg2_pct,fg2_per_g,fg2a_per_g,fg3_pct,fg3_per_g,fg3a_per_g,fg_pct,fg_per_g,fga_per_g,ft_pct,ft_per_g,fta_per_g,g,gs,lg_id,mp_per_g,orb_per_g,pf_per_g,pos,pts_per_g,season,stl_per_g,team_id,tov_per_g,trb_per_g
19.0,1.5,1.5,9.7,0.638,0.638,8.5,13.3,0.0,0.0,0.0,0.638,8.5,13.3,0.667,5.7,8.5,6.0,0.0,ABA,39.2,7.8,3.5,C,22.7,1975,0.0,UTS,2.2,17.5
21.0,0.6,1.8,9.9,0.5,0.5,6.8,13.5,0.0,0.0,0.0,0.5,6.8,13.5,0.692,5.3,7.6,12.0,0.0,NBA,43.2,7.0,3.5,C,18.8,1977,1.1,HOU,0.0,16.9
23.0,1.0,4.0,8.0,0.439,0.439,9.0,20.5,0.0,0.0,0.0,0.439,9.0,20.5,0.722,6.5,9.0,2.0,0.0,NBA,39.0,12.5,2.5,C,24.5,1979,0.5,HOU,4.0,20.5
24.0,1.0,2.3,7.9,0.536,0.54,10.6,19.6,0.0,0.0,0.1,0.536,10.6,19.7,0.767,4.7,6.1,7.0,0.0,NBA,39.3,6.0,2.6,C,25.9,1980,0.6,HOU,3.1,13.9
25.0,1.7,1.6,8.6,0.479,0.481,9.9,20.5,0.0,0.0,0.1,0.479,9.9,20.6,0.712,7.0,9.9,21.0,0.0,NBA,45.5,6.0,2.6,C,26.8,1981,0.6,HOU,2.8,14.5
26.0,3.3,0.7,7.7,0.433,0.433,9.7,22.3,0.0,0.0,0.0,0.433,9.7,22.3,0.933,4.7,5.0,3.0,0.0,NBA,45.3,9.3,2.7,C,24.0,1982,0.7,HOU,2.0,17.0
27.0,1.5,1.9,10.5,0.536,0.538,9.7,18.0,0.0,0.0,0.1,0.536,9.7,18.1,0.717,6.6,9.2,13.0,0.0,NBA,40.3,5.4,3.1,C,26.0,1983,1.5,PHI,3.1,15.8
28.0,1.4,2.2,9.8,0.458,0.458,7.6,16.6,0.0,0.0,0.0,0.458,7.6,16.6,0.969,6.2,6.4,5.0,0.0,NBA,42.4,4.0,3.0,C,21.4,1984,0.6,PHI,4.2,13.8
29.0,1.8,1.7,7.8,0.425,0.427,6.9,16.2,0.0,0.0,0.1,0.425,6.9,16.3,0.796,6.3,7.9,13.0,13.0,NBA,38.8,2.8,3.0,C,20.2,1985,1.3,PHI,1.8,10.6
31.0,1.7,1.0,7.7,0.447,0.447,7.0,15.7,0.0,0.0,0.0,0.447,7.0,15.7,0.952,6.7,7.0,3.0,3.0,NBA,38.0,5.0,1.7,C,20.7,1987,0.0,WSB,2.7,12.7
32.0,1.4,0.8,6.8,0.462,0.469,6.0,12.8,0.0,0.0,0.2,0.462,6.0,13.0,0.825,6.6,8.0,5.0,5.0,NBA,39.6,4.4,1.8,C,18.6,1988,0.6,WSB,3.0,11.2
33.0,1.8,0.8,6.6,0.508,0.492,6.2,12.6,1.0,0.2,0.2,0.5,6.4,12.8,0.784,8.0,10.2,5.0,5.0,NBA,39.4,5.4,1.0,C,21.0,1989,1.4,ATL,2.2,12.0
35.0,0.6,0.2,3.0,0.2,0.2,0.8,4.0,0.0,0.0,0.0,0.2,0.8,4.0,0.929,2.6,2.8,5.0,0.0,NBA,16.8,3.2,0.8,C,4.2,1991,0.4,ATL,0.4,6.2
