age,ast_per_g,blk_per_g,drb_per_g,efg_pct,fg2_pct,fg2_per_g,fg2a_per_g,fg3_pct,fg3_per_g,fg3a_per_g,fg_pct,fg_per_g,fga_per_g,ft_pct,ft_per_g,fta_per_g,g,gs,lg_id,mp_per_g,orb_per_g,pf_per_g,pos,pts_per_g,season,stl_per_g,team_id,tov_per_g,trb_per_g
24.0,1.0,0.0,0.6,0.453,0.436,1.0,2.3,0.417,0.1,0.2,0.434,1.1,2.5,0.59,0.5,0.8,51.0,0.0,NBA,7.3,0.3,0.9,PG,2.7,2014,0.4,NYK,0.7,0.9
25.0,0.2,0.0,0.0,0.4,0.4,0.4,1.0,0.0,0.0,0.0,0.4,0.4,1.0,1.0,0.4,0.4,5.0,0.0,NBA,3.6,0.2,0.4,SG-PG,1.2,2015,0.2,TOT,0.8,0.2
25.0,0.0,0.0,0.0,0.0,0.0,0.0,1.0,0.0,0.0,0.0,0.0,0.0,1.0,0.0,0.0,0.0,1.0,0.0,NBA,1.0,0.0,0.0,PG,0.0,2015,0.0,UTA,0.0,0.0
25.0,0.3,0.0,0.0,0.5,0.5,0.5,1.0,0.0,0.0,0.0,0.5,0.5,1.0,1.0,0.5,0.5,4.0,0.0,NBA,4.3,0.3,0.5,SG,1.5,2015,0.3,WAS,1.0,0.3
