age,ast_pct,blk_pct,bpm,bpm-dum,dbpm,drb_pct,dws,fg3a_per_fga_pct,fta_per_fga_pct,g,lg_id,mp,obpm,orb_pct,ows,per,pos,season,stl_pct,team_id,tov_pct,trb_pct,ts_pct,usg_pct,vorp,ws,ws-dum,ws_per_48
25.0,11.9,0.3,-7.0,0.0,-2.9,7.8,0.5,0.047,0.184,70.0,NBA,1181.0,-4.1,3.7,-0.9,9.3,SF,1991,0.9,CLE,11.5,5.8,0.461,22.8,-1.5,-0.4,0.0,-0.018
27.0,16.6,1.3,-1.8,0.0,-0.9,12.8,0.4,0.05,0.132,41.0,NBA,307.0,-0.9,6.4,0.2,16.3,SF,1993,2.3,SEA,8.7,9.5,0.47,25.3,0.0,0.6,0.0,0.096
28.0,12.3,0.0,-8.5,0.0,-3.4,9.3,0.1,0.017,0.267,18.0,NBA,137.0,-5.1,4.2,-0.2,8.5,SF,1994,1.5,TOT,8.2,6.8,0.395,23.1,-0.2,-0.1,0.0,-0.035
28.0,11.4,0.0,-10.7,0.0,-3.0,10.1,0.0,0.0,0.087,7.0,NBA,55.0,-7.7,0.0,-0.1,5.2,SF,1994,0.9,IND,14.3,5.3,0.398,22.2,-0.1,-0.1,0.0,-0.074
28.0,0.0,0.0,-14.8,0.0,-6.6,0.0,0.0,0.0,0.0,3.0,NBA,8.0,-8.2,0.0,0.0,0.6,SF,1994,0.0,NYK,0.0,0.0,0.4,27.4,0.0,0.0,0.0,-0.016
28.0,14.3,0.0,-6.2,0.0,-3.3,9.7,0.0,0.031,0.438,8.0,NBA,74.0,-2.8,7.8,0.0,11.8,SF,1994,2.0,WSB,5.0,8.7,0.393,23.3,-0.1,0.0,0.0,-0.008
