age,ast_per_poss,blk_per_poss,def_rtg,drb_per_poss,fg2_pct,fg2_per_poss,fg2a_per_poss,fg3_pct,fg3_per_poss,fg3a_per_poss,fg_pct,fg_per_poss,fga_per_poss,ft_pct,ft_per_poss,fta_per_poss,g,gs,lg_id,mp,off_rtg,orb_per_poss,pf_per_poss,pos,pts_per_poss,season,stl_per_poss,team_id,tov_per_poss,trb_per_poss
30.0,1.8,1.4,123.0,7.2,0.517,6.8,13.1,0.0,0.0,0.0,0.517,6.8,13.1,0.8,3.6,4.5,3.0,3.0,NBA,118.0,137.0,8.6,5.0,C,17.1,1997,0.9,MIN,0.5,15.8
32.0,3.1,1.9,104.0,4.3,0.556,6.2,11.1,0.0,0.0,0.0,0.556,6.2,11.1,0.4,1.2,3.1,4.0,3.0,NBA,92.0,117.0,5.6,9.9,C,13.6,1999,1.2,MIN,1.2,9.9
33.0,0.0,3.6,108.0,3.6,0.5,3.6,7.3,0.0,0.0,0.0,0.5,3.6,7.3,0.5,3.6,7.3,3.0,0.0,NBA,16.0,121.0,3.6,7.3,C,10.9,2000,0.0,MIN,0.0,7.3
34.0,0.0,1.3,100.0,9.3,0.333,5.3,16.0,0.0,0.0,0.0,0.333,5.3,16.0,0.833,6.7,8.0,3.0,2.0,NBA,41.0,103.0,2.7,8.0,C,17.4,2001,1.3,MIN,0.0,12.0
