age,and1s,astd_pts,drawn_offensive,drawn_shooting,fouls_offensive,fouls_shooting,g,lg_id,mp,own_shots_blk,pct_1,pct_2,pct_3,pct_4,pct_5,plus_minus_net,plus_minus_on,pos,season,team_id,tov_bad_pass,tov_lost_ball
34.0,1.0,51.0,0.0,16.0,4.0,57.0,70.0,NBA,831.0,15.0,0.0,0.0,0.0,1.0,99.0,-8.4,-5.1,C,2001,MIN,3.0,9.0
35.0,1.0,11.0,0.0,1.0,0.0,16.0,34.0,NBA,183.0,7.0,0.0,0.0,0.0,28.0,72.0,2.9,1.7,C,2002,TOT,7.0,3.0
35.0,1.0,9.0,0.0,1.0,0.0,13.0,29.0,NBA,152.0,6.0,0.0,0.0,0.0,23.0,77.0,-4.0,0.0,C,2002,MIN,6.0,1.0
35.0,0.0,2.0,0.0,0.0,0.0,3.0,5.0,NBA,31.0,1.0,0.0,0.0,0.0,52.0,48.0,14.7,8.6,C,2002,GSW,1.0,2.0
