lg_id,salary,season,team_name
NBA,100000.0,1989,Phoenix Suns
NBA,247500.0,1997,Minnesota Timberwolves
NBA,1800000.0,1998,Denver Nuggets
NBA,2160000.0,1999,Minnesota Timberwolves
NBA,2520000.0,2000,Minnesota Timberwolves
NBA,2880000.0,2001,Minnesota Timberwolves
NBA,3240000.0,2002,Minnesota Timberwolves
