age,ast,blk,drb,fg,fg2,fg2a,fg3,fg3a,fga,ft,fta,game_score,lg_id,mp,orb,pf,pts,season,stl,team_id,tov,trb
30.0,3.0,7.0,13.0,11.0,11.0,15.0,0.0,0.0,15.0,4.0,7.0,24.4,NBA,0.0,7.0,6.0,25.0,1997,2.0,MIN,4.0,20.0
31.0,4.0,6.0,14.0,8.0,8.0,14.0,0.0,0.0,14.0,5.0,8.0,19.7,NBA,0.0,8.0,5.0,18.0,1998,3.0,DEN,4.0,21.0
32.0,2.0,6.0,8.0,11.0,11.0,14.0,0.0,0.0,14.0,7.0,8.0,22.5,NBA,0.0,5.0,5.0,22.0,1999,3.0,MIN,3.0,10.0
33.0,2.0,5.0,5.0,3.0,3.0,7.0,0.0,0.0,7.0,2.0,4.0,8.0,NBA,0.0,4.0,6.0,8.0,2000,2.0,MIN,2.0,8.0
34.0,3.0,3.0,12.0,5.0,5.0,8.0,0.0,0.0,8.0,4.0,4.0,16.9,NBA,0.0,6.0,4.0,10.0,2001,4.0,MIN,4.0,12.0
35.0,1.0,2.0,5.0,3.0,3.0,5.0,0.0,0.0,5.0,0.0,2.0,5.2,NBA,0.0,3.0,5.0,6.0,2002,2.0,TOT,1.0,7.0
35.0,1.0,2.0,5.0,3.0,3.0,5.0,0.0,0.0,5.0,0.0,2.0,5.2,NBA,0.0,3.0,5.0,6.0,2002,2.0,MIN,1.0,7.0
35.0,1.0,1.0,4.0,1.0,1.0,4.0,0.0,0.0,4.0,0.0,0.0,1.3,NBA,0.0,2.0,5.0,2.0,2002,1.0,GSW,1.0,5.0
