age,ast,ast_per_g,blk,college_id,fg,fg3,fg3_pct,fg3a,fg_pct,fga,ft,ft_pct,fta,g,mp,mp_per_g,orb,pf,pts,pts_per_g,season,stl,tov,trb,trb_per_g
20.0,21.0,0.6,93.0,INDIANA,163.0,0.0,0.0,0.0,0.542,301.0,61.0,0.635,96.0,34.0,952.0,28.0,0.0,92.0,387.0,11.4,1987,17.0,41.0,288.0,8.5
21.0,13.0,0.4,99.0,INDIANA,184.0,0.0,0.0,0.0,0.535,344.0,99.0,0.697,142.0,29.0,957.0,33.0,0.0,82.0,467.0,16.1,1988,17.0,34.0,246.0,8.5
