age,ast,blk,drb,fg,fg2,fg2a,fg3,fg3a,fga,ft,fta,game_score,lg_id,mp,orb,pf,pts,season,stl,team_id,tov,trb
23.0,2.0,3.0,5.0,2.0,2.0,7.0,0.0,0.0,7.0,2.0,6.0,4.4,NBA,0.0,3.0,5.0,6.0,1984,1.0,DAL,2.0,6.0
24.0,2.0,4.0,9.0,8.0,8.0,12.0,0.0,1.0,12.0,4.0,8.0,15.1,NBA,0.0,7.0,6.0,16.0,1985,2.0,TOT,5.0,14.0
24.0,0.0,1.0,0.0,0.0,0.0,1.0,0.0,0.0,1.0,2.0,2.0,-0.9,NBA,0.0,1.0,4.0,2.0,1985,0.0,MIL,2.0,1.0
24.0,2.0,4.0,9.0,8.0,8.0,12.0,0.0,1.0,12.0,4.0,8.0,15.1,NBA,0.0,7.0,6.0,16.0,1985,2.0,CLE,5.0,14.0
25.0,2.0,4.0,10.0,6.0,6.0,9.0,0.0,0.0,9.0,4.0,6.0,17.0,NBA,0.0,6.0,6.0,14.0,1986,3.0,CLE,5.0,16.0
26.0,3.0,5.0,8.0,11.0,11.0,16.0,0.0,1.0,17.0,7.0,11.0,21.4,NBA,0.0,7.0,6.0,27.0,1987,2.0,CLE,6.0,13.0
27.0,5.0,9.0,12.0,8.0,8.0,14.0,0.0,1.0,14.0,7.0,11.0,17.9,NBA,0.0,8.0,6.0,23.0,1988,3.0,TOT,6.0,18.0
27.0,5.0,6.0,11.0,7.0,7.0,14.0,0.0,0.0,14.0,5.0,8.0,16.2,NBA,0.0,5.0,6.0,17.0,1988,3.0,CLE,6.0,15.0
27.0,3.0,9.0,12.0,8.0,8.0,14.0,0.0,1.0,14.0,7.0,11.0,17.9,NBA,0.0,8.0,6.0,23.0,1988,3.0,PHO,6.0,18.0
28.0,3.0,8.0,13.0,11.0,11.0,13.0,0.0,0.0,13.0,6.0,9.0,28.9,NBA,0.0,6.0,6.0,24.0,1989,2.0,PHO,3.0,17.0
29.0,2.0,7.0,15.0,8.0,8.0,13.0,0.0,0.0,13.0,12.0,14.0,21.2,NBA,0.0,11.0,6.0,20.0,1990,3.0,PHO,7.0,24.0
30.0,3.0,8.0,10.0,8.0,8.0,11.0,0.0,0.0,11.0,9.0,9.0,21.3,NBA,0.0,6.0,6.0,21.0,1991,2.0,PHO,4.0,15.0
31.0,3.0,4.0,9.0,7.0,7.0,10.0,0.0,0.0,10.0,8.0,12.0,16.2,NBA,0.0,7.0,6.0,16.0,1992,2.0,PHO,4.0,12.0
32.0,3.0,4.0,11.0,6.0,6.0,11.0,0.0,0.0,11.0,8.0,11.0,17.9,NBA,0.0,8.0,6.0,16.0,1993,2.0,PHO,3.0,14.0
33.0,3.0,6.0,7.0,8.0,8.0,12.0,0.0,0.0,12.0,7.0,10.0,19.3,NBA,0.0,6.0,6.0,21.0,1994,3.0,PHO,4.0,13.0
34.0,2.0,5.0,11.0,9.0,9.0,12.0,0.0,0.0,12.0,4.0,7.0,20.9,NBA,0.0,7.0,6.0,19.0,1995,2.0,DET,5.0,17.0
35.0,2.0,5.0,12.0,7.0,7.0,8.0,0.0,0.0,8.0,3.0,6.0,13.2,NBA,0.0,4.0,6.0,15.0,1996,1.0,DET,3.0,13.0
36.0,2.0,3.0,8.0,7.0,7.0,11.0,0.0,0.0,11.0,4.0,5.0,17.1,NBA,0.0,7.0,5.0,16.0,1997,2.0,CLE,3.0,14.0
37.0,1.0,1.0,3.0,2.0,2.0,3.0,0.0,0.0,3.0,1.0,2.0,4.2,NBA,0.0,3.0,4.0,5.0,1998,1.0,IND,2.0,4.0
38.0,4.0,3.0,5.0,3.0,3.0,6.0,0.0,0.0,6.0,3.0,6.0,7.5,NBA,0.0,4.0,5.0,6.0,1999,1.0,ATL,2.0,8.0
39.0,1.0,3.0,7.0,1.0,1.0,2.0,0.0,0.0,2.0,2.0,2.0,5.1,NBA,0.0,2.0,5.0,4.0,2000,1.0,PHO,2.0,7.0
