article_url,date,headline
https://thesixersense.com/2019/11/11/philadelphia-76ers-represented-fan-year-finalist/,2019/11/11,The Sixer Sense: Philadelphia 76ers represented by Fan of the Year finalist
https://sircharlesincharge.com/2019/11/09/nba-top-10-moments-decade-lebron/,2019/11/09,Sir Charles In Charge: NBA: Ranking the top 10 moments of the decade
https://sircharlesincharge.com/2019/11/09/nba-top-10-moments-decade/,2019/11/09,Sir Charles In Charge: NBA: Ranking the top 10 moments of the decade
https://section215.com/2019/11/09/philadelphia-76ers-trey-burke-shine/,2019/11/09,Section 215: Philadelphia 76ers: Trey Burke finally earns a chance to shine
