age,ast,ast_per_g,blk,college_id,fg,fg3,fg3_pct,fg3a,fg_pct,fga,ft,ft_pct,fta,g,mp,mp_per_g,orb,pf,pts,pts_per_g,season,stl,tov,trb,trb_per_g
21.0,45.0,1.5,11.0,GEORGETOWN,126.0,2.0,0.182,11.0,0.5,252.0,83.0,0.629,132.0,31.0,939.0,30.3,0.0,54.0,337.0,10.9,1995,38.0,83.0,310.0,10.0
22.0,51.0,1.4,16.0,GEORGETOWN,147.0,1.0,0.143,7.0,0.588,250.0,85.0,0.639,133.0,37.0,1016.0,27.5,0.0,67.0,380.0,10.3,1996,70.0,72.0,324.0,8.8
