age,ast,blk,drb,efg_pct,fg,fg2,fg2_pct,fg2a,fg3,fg3_pct,fg3a,fg_pct,fga,ft,ft_pct,fta,g,gs,lg_id,mp,orb,pf,pos,pts,season,stl,team_id,tov,trb
22.0,415.0,11.0,79.0,0.474,157.0,155.0,0.481,322.0,2.0,0.182,11.0,0.471,333.0,142.0,0.736,193.0,82.0,5.0,NBA,1490.0,26.0,203.0,PG,458.0,1985,109.0,UTA,150.0,105.0
23.0,610.0,10.0,146.0,0.491,228.0,226.0,0.501,451.0,2.0,0.133,15.0,0.489,466.0,172.0,0.839,205.0,82.0,38.0,NBA,1935.0,33.0,227.0,PG,630.0,1986,157.0,UTA,168.0,179.0
24.0,670.0,14.0,119.0,0.506,231.0,224.0,0.528,424.0,7.0,0.179,39.0,0.499,463.0,179.0,0.782,229.0,82.0,2.0,NBA,1858.0,32.0,224.0,PG,648.0,1987,177.0,UTA,164.0,151.0
25.0,1128.0,16.0,183.0,0.589,454.0,430.0,0.594,724.0,24.0,0.358,67.0,0.574,791.0,272.0,0.84,324.0,82.0,79.0,NBA,2842.0,54.0,247.0,PG,1204.0,1988,242.0,UTA,262.0,237.0
26.0,1118.0,14.0,165.0,0.547,497.0,481.0,0.561,857.0,16.0,0.242,66.0,0.538,923.0,390.0,0.863,452.0,82.0,82.0,NBA,3171.0,83.0,241.0,PG,1400.0,1989,263.0,UTA,308.0,248.0
27.0,1134.0,18.0,149.0,0.54,472.0,425.0,0.528,805.0,47.0,0.416,113.0,0.514,918.0,354.0,0.819,432.0,78.0,78.0,NBA,2915.0,57.0,233.0,PG,1345.0,1990,207.0,UTA,272.0,206.0
28.0,1164.0,16.0,191.0,0.537,496.0,438.0,0.541,810.0,58.0,0.345,168.0,0.507,978.0,363.0,0.836,434.0,82.0,82.0,NBA,3103.0,46.0,233.0,PG,1413.0,1991,234.0,UTA,298.0,237.0
29.0,1126.0,22.0,202.0,0.527,453.0,370.0,0.503,735.0,83.0,0.407,204.0,0.482,939.0,308.0,0.842,366.0,82.0,82.0,NBA,3002.0,68.0,234.0,PG,1297.0,1992,244.0,UTA,286.0,270.0
30.0,987.0,21.0,173.0,0.526,437.0,365.0,0.513,712.0,72.0,0.385,187.0,0.486,899.0,293.0,0.798,367.0,82.0,82.0,NBA,2863.0,64.0,224.0,PG,1239.0,1993,199.0,UTA,266.0,237.0
31.0,1031.0,22.0,186.0,0.555,458.0,410.0,0.57,719.0,48.0,0.322,149.0,0.528,868.0,272.0,0.805,338.0,82.0,82.0,NBA,2969.0,72.0,236.0,PG,1236.0,1994,199.0,UTA,266.0,258.0
32.0,1011.0,22.0,194.0,0.607,429.0,327.0,0.58,564.0,102.0,0.449,227.0,0.542,791.0,246.0,0.804,306.0,82.0,82.0,NBA,2867.0,57.0,215.0,PG,1206.0,1995,194.0,UTA,267.0,251.0
33.0,916.0,15.0,172.0,0.596,440.0,345.0,0.582,593.0,95.0,0.422,225.0,0.538,818.0,234.0,0.83,282.0,82.0,82.0,NBA,2915.0,54.0,207.0,PG,1209.0,1996,140.0,UTA,246.0,226.0
34.0,860.0,15.0,183.0,0.598,416.0,340.0,0.587,579.0,76.0,0.422,180.0,0.548,759.0,275.0,0.846,325.0,82.0,82.0,NBA,2896.0,45.0,194.0,PG,1183.0,1997,166.0,UTA,248.0,228.0
35.0,543.0,10.0,131.0,0.567,270.0,231.0,0.55,420.0,39.0,0.429,91.0,0.528,511.0,191.0,0.827,231.0,64.0,64.0,NBA,1858.0,35.0,138.0,PG,770.0,1998,89.0,UTA,161.0,166.0
36.0,374.0,13.0,115.0,0.507,200.0,184.0,0.511,360.0,16.0,0.32,50.0,0.488,410.0,137.0,0.811,169.0,50.0,50.0,NBA,1410.0,31.0,107.0,PG,553.0,1999,81.0,UTA,110.0,146.0
37.0,703.0,15.0,170.0,0.53,363.0,320.0,0.53,604.0,43.0,0.355,121.0,0.501,725.0,221.0,0.86,257.0,82.0,82.0,NBA,2432.0,45.0,192.0,PG,990.0,2000,143.0,UTA,179.0,215.0
38.0,713.0,21.0,173.0,0.551,328.0,267.0,0.514,519.0,61.0,0.462,132.0,0.504,651.0,227.0,0.817,278.0,82.0,82.0,NBA,2397.0,54.0,194.0,PG,944.0,2001,132.0,UTA,203.0,227.0
39.0,674.0,24.0,204.0,0.534,401.0,376.0,0.539,697.0,25.0,0.321,78.0,0.517,775.0,275.0,0.857,321.0,82.0,82.0,NBA,2566.0,59.0,209.0,PG,1102.0,2002,152.0,UTA,208.0,263.0
40.0,629.0,16.0,150.0,0.505,309.0,280.0,0.5,560.0,29.0,0.363,80.0,0.483,640.0,237.0,0.826,287.0,82.0,82.0,NBA,2275.0,51.0,184.0,PG,884.0,2003,137.0,UTA,182.0,201.0
