lg_id,salary,season,team_name
NBA,150000.0,1986,Utah Jazz
NBA,278000.0,1988,Utah Jazz
NBA,300000.0,1989,Utah Jazz
NBA,1050000.0,1990,Utah Jazz
NBA,2000000.0,1991,Utah Jazz
NBA,2100000.0,1992,Utah Jazz
NBA,2200000.0,1993,Utah Jazz
NBA,2400000.0,1994,Utah Jazz
NBA,2600000.0,1995,Utah Jazz
NBA,2800000.0,1996,Utah Jazz
NBA,6000000.0,1997,Utah Jazz
NBA,5000000.0,1998,Utah Jazz
NBA,4000000.0,1999,Utah Jazz
NBA,11000000.0,2000,Utah Jazz
NBA,11000000.0,2001,Utah Jazz
NBA,7000000.0,2002,Utah Jazz
NBA,7875000.0,2003,Utah Jazz
