age,ast_per_mp,blk_per_mp,drb_per_mp,fg2_pct,fg2_per_mp,fg2a_per_mp,fg3_pct,fg3_per_mp,fg3a_per_mp,fg_pct,fg_per_mp,fga_per_mp,ft_pct,ft_per_mp,fta_per_mp,g,gs,lg_id,mp,orb_per_mp,pf_per_mp,pos,pts_per_mp,season,stl_per_mp,team_id,tov_per_mp,trb_per_mp
24.0,3.4,0.4,3.4,0.333,1.7,5.1,0.167,0.9,5.1,0.25,2.6,10.3,1.0,0.9,0.9,4.0,3.0,NBA,84.0,0.0,3.9,PG,6.9,2013,0.9,HOU,3.4,3.4
25.0,5.3,0.2,3.1,0.526,4.1,7.7,0.217,1.0,4.7,0.41,5.1,12.4,0.813,2.6,3.3,6.0,0.0,NBA,177.0,1.4,3.1,PG,13.8,2014,0.6,HOU,2.6,4.5
27.0,3.4,0.0,2.5,0.469,4.4,9.3,0.214,0.6,2.7,0.413,5.0,12.0,0.821,6.1,7.4,7.0,0.0,NBA,189.0,0.6,4.0,SG,16.6,2016,1.0,CHO,2.1,3.0
30.0,5.3,0.0,4.0,0.143,1.3,9.3,0.5,1.3,2.7,0.222,2.7,12.0,1.0,5.3,5.3,8.0,0.0,NBA,27.0,0.0,2.7,PG,12.0,2019,1.3,TOR,6.7,4.0
