age,ast,blk,drb,fg,fg2,fg2a,fg3,fg3a,fga,ft,fta,game_score,lg_id,mp,orb,pf,pts,season,stl,team_id,tov,trb
24.0,4.0,1.0,4.0,3.0,2.0,4.0,1.0,4.0,7.0,2.0,2.0,3.8,NBA,33,0.0,5.0,7.0,2013,2.0,HOU,4.0,4.0
25.0,6.0,1.0,3.0,9.0,7.0,10.0,2.0,6.0,15.0,3.0,4.0,18.5,NBA,35,3.0,4.0,21.0,2014,2.0,HOU,3.0,6.0
27.0,7.0,0.0,6.0,7.0,5.0,13.0,2.0,3.0,16.0,8.0,9.0,15.5,NBA,35,1.0,5.0,21.0,2016,2.0,CHO,3.0,6.0
30.0,2.0,0.0,2.0,1.0,1.0,2.0,1.0,1.0,2.0,2.0,2.0,4.0,NBA,6,0.0,1.0,4.0,2019,1.0,TOT,3.0,2.0
30.0,2.0,0.0,2.0,1.0,1.0,2.0,1.0,1.0,2.0,2.0,2.0,4.0,NBA,6,0.0,1.0,4.0,2019,1.0,TOR,3.0,2.0
