lg_id,salary,season,team_name
NBA,996240.0,2010,New York Knicks
NBA,1071000.0,2011,New York Knicks
NBA,1145640.0,2012,New York Knicks
NBA,2067880.0,2013,Sacramento Kings
NBA,1600000.0,2014,Golden State Warriors
NBA,268974.0,2015,New Orleans Pelicans
NBA,1164858.0,2016,New Orleans Pelicans
NBA,600000.0,2016,Indiana Pacers
NBA,603558.0,2017,Memphis Grizzlies
