age,ast,blk,drb,efg_pct,fg,fg2,fg2_pct,fg2a,fg3,fg3_pct,fg3a,fg_pct,fga,ft,ft_pct,fta,g,gs,lg_id,mp,orb,pf,pos,pts,season,stl,team_id,tov,trb
23.0,0.0,0.0,1.0,0.333,1.0,1.0,0.333,3.0,0.0,0.0,0.0,0.333,3.0,0.0,0.0,1.0,6.0,0.0,NBA,6.0,1.0,0.0,SG,2.0,2008,0.0,ATL,0.0,2.0
24.0,2.0,0.0,5.0,0.2,2.0,2.0,0.222,9.0,0.0,0.0,1.0,0.2,10.0,1.0,0.25,4.0,11.0,0.0,NBA,46.0,0.0,2.0,SG,5.0,2009,2.0,ATL,1.0,5.0
25.0,1.0,0.0,1.0,0.75,3.0,3.0,1.0,3.0,0.0,0.0,1.0,0.75,4.0,0.0,0.0,0.0,7.0,0.0,NBA,20.0,1.0,7.0,SG,6.0,2010,1.0,ATL,0.0,2.0
