age,ast,blk,drb,fg,fg2,fg2a,fg3,fg3a,fga,ft,fta,game_score,lg_id,mp,orb,pf,pts,season,stl,team_id,tov,trb
23.0,0.0,0.0,1.0,1.0,1.0,2.0,0.0,0.0,2.0,0.0,1.0,1.3,NBA,4,1.0,0.0,2.0,2008,0.0,ATL,0.0,1.0
24.0,1.0,0.0,2.0,1.0,1.0,2.0,0.0,1.0,3.0,1.0,2.0,1.2,NBA,12,0.0,2.0,2.0,2009,1.0,ATL,1.0,2.0
25.0,1.0,0.0,1.0,1.0,1.0,1.0,0.0,1.0,2.0,0.0,0.0,2.3,NBA,7,1.0,3.0,2.0,2010,1.0,ATL,0.0,2.0
