age,avg_dist,fg2_dunk,fg2_pct,fg2_pct_ast,fg2a_pct_fga,fg3_heave,fg3_pct,fg3_pct_ast,fg3_pct_corner,fg3a_heave,fg3a_pct_fga,fg_pct,fg_pct_00_03,fg_pct_03_10,fg_pct_10_16,fg_pct_16_xx,g,lg_id,mp,pct_fg2_dunk,pct_fg3a_corner,pct_fga_00_03,pct_fga_03_10,pct_fga_10_16,pct_fga_16_xx,pos,season,team_id
23.0,6.1,6.0,0.467,0.571,0.918,0.0,0.0,0.0,0.0,3.0,0.082,0.429,0.5,0.4,0.0,0.333,64.0,NBA,269.0,0.143,0.25,0.735,0.102,0.02,0.061,SG,2008,ATL
24.0,4.6,6.0,0.394,0.308,0.971,0.0,1.0,0.0,0.0,0.0,0.029,0.412,0.5,0.0,0.0,0.0,53.0,NBA,269.0,0.235,0.0,0.765,0.029,0.059,0.118,SG,2009,ATL
25.0,4.1,6.0,0.6,0.5,0.952,0.0,0.0,0.0,0.0,0.0,0.048,0.571,0.625,1.0,0.0,0.0,39.0,NBA,142.0,0.286,0.0,0.762,0.095,0.0,0.095,SG,2010,ATL
26.0,9.3,2.0,0.471,0.5,0.81,0.0,0.25,1.0,0.0,0.0,0.19,0.429,0.6,0.5,0.0,0.0,6.0,NBA,116.0,0.095,0.0,0.476,0.19,0.0,0.143,SG,2011,NJN
