age,and1s,astd_pts,drawn_offensive,drawn_shooting,fouls_offensive,fouls_shooting,g,lg_id,mp,own_shots_blk,pct_1,pct_2,pct_3,pct_4,pct_5,plus_minus_net,plus_minus_on,pos,season,team_id,tov_bad_pass,tov_lost_ball
20.0,1.0,152.0,4.0,14.0,4.0,19.0,33.0,NBA,405.0,10.0,83.0,18.0,0.0,0.0,0.0,-18.7,-16.1,PG,2017,MEM,23.0,8.0
21.0,2.0,11.0,1.0,6.0,1.0,3.0,7.0,NBA,80.0,1.0,50.0,50.0,0.0,0.0,0.0,2.3,5.1,PG,2018,POR,0.0,1.0
22.0,1.0,28.0,1.0,4.0,1.0,4.0,16.0,NBA,94.0,5.0,98.0,2.0,0.0,0.0,0.0,-39.3,-34.5,PG,2019,POR,9.0,3.0
