age,avg_dist,fg2_dunk,fg2_pct,fg2_pct_ast,fg2a_pct_fga,fg3_heave,fg3_pct,fg3_pct_ast,fg3_pct_corner,fg3a_heave,fg3a_pct_fga,fg_pct,fg_pct_00_03,fg_pct_03_10,fg_pct_10_16,fg_pct_16_xx,g,lg_id,mp,pct_fg2_dunk,pct_fg3a_corner,pct_fga_00_03,pct_fga_03_10,pct_fga_10_16,pct_fga_16_xx,pos,season,team_id
20.0,11.3,4.0,0.355,0.303,0.809,0.0,0.136,0.333,0.0,1.0,0.191,0.313,0.439,0.167,0.35,0.385,33.0,NBA,405.0,0.043,0.182,0.357,0.157,0.174,0.113,PG,2017,MEM
21.0,10.7,1.0,0.625,0.0,0.762,0.0,0.8,1.0,0.0,0.0,0.238,0.667,0.833,0.8,0.25,0.0,7.0,NBA,80.0,0.048,0.0,0.286,0.238,0.19,0.048,PG,2018,POR
22.0,12.2,0.0,0.333,0.125,0.727,0.0,0.222,0.0,0.0,0.0,0.273,0.303,0.3,0.333,0.333,0.4,16.0,NBA,94.0,0.0,0.0,0.303,0.182,0.091,0.152,PG,2019,POR
