age,ast,blk,drb,fg,fg2,fg2a,fg3,fg3a,fga,ft,fta,game_score,lg_id,mp,orb,pf,pts,season,stl,team_id,tov,trb
20.0,1.0,0.0,1.0,0.0,0.0,1.0,0.0,0.0,1.0,2.0,2.0,2.6,NBA,8,1.0,1.0,2.0,2017,0.0,MEM,0.0,2.0
21.0,2.0,1.0,2.0,1.0,0.0,2.0,1.0,1.0,3.0,1.0,2.0,2.3,NBA,9,0.0,1.0,3.0,2018,1.0,POR,1.0,2.0
