age,ast,blk,drb,fg,fg2,fg2a,fg3,fg3a,fga,ft,fta,game_score,lg_id,mp,orb,pf,pts,season,stl,team_id,tov,trb
20.0,9.0,3.0,5.0,3.0,3.0,8.0,1.0,4.0,8.0,7.0,8.0,12.4,NBA,25,2.0,5.0,11.0,2017,3.0,MEM,5.0,7.0
21.0,3.0,1.0,4.0,6.0,4.0,7.0,2.0,3.0,10.0,4.0,7.0,13.4,NBA,32,1.0,3.0,15.0,2018,2.0,POR,2.0,4.0
22.0,3.0,2.0,3.0,2.0,2.0,6.0,1.0,2.0,7.0,3.0,4.0,3.0,NBA,13,1.0,3.0,5.0,2019,1.0,POR,2.0,3.0
