age,ast,blk,drb,efg_pct,fg,fg2,fg2_pct,fg2a,fg3,fg3_pct,fg3a,fg_pct,fga,ft,ft_pct,fta,g,gs,lg_id,mp,orb,pf,pos,pts,season,stl,team_id,tov,trb
22.0,84.0,64.0,242.0,0.482,177.0,177.0,0.484,366.0,0.0,0.0,1.0,0.482,367.0,134.0,0.691,194.0,74.0,31.0,NBA,1534.0,174.0,173.0,C,488.0,2008,68.0,CHI,89.0,416.0
23.0,106.0,110.0,362.0,0.556,207.0,207.0,0.558,371.0,0.0,0.0,1.0,0.556,372.0,123.0,0.676,182.0,80.0,55.0,NBA,1938.0,244.0,238.0,C,537.0,2009,49.0,CHI,82.0,606.0
24.0,132.0,100.0,484.0,0.504,262.0,262.0,0.504,520.0,0.0,0.0,0.0,0.504,520.0,163.0,0.744,219.0,64.0,54.0,NBA,1925.0,220.0,198.0,C,687.0,2010,32.0,CHI,117.0,704.0
25.0,107.0,72.0,316.0,0.525,211.0,211.0,0.526,401.0,0.0,0.0,1.0,0.525,402.0,139.0,0.739,188.0,48.0,48.0,NBA,1576.0,182.0,156.0,C,561.0,2011,48.0,CHI,90.0,498.0
26.0,160.0,92.0,387.0,0.508,249.0,249.0,0.509,489.0,0.0,0.0,1.0,0.508,490.0,154.0,0.748,206.0,64.0,64.0,NBA,1945.0,242.0,162.0,C,652.0,2012,41.0,CHI,92.0,629.0
27.0,262.0,141.0,473.0,0.481,303.0,303.0,0.485,625.0,0.0,0.0,5.0,0.481,630.0,178.0,0.751,237.0,66.0,64.0,NBA,2426.0,260.0,185.0,C,784.0,2013,78.0,CHI,176.0,733.0
28.0,431.0,121.0,618.0,0.475,380.0,380.0,0.476,798.0,0.0,0.0,2.0,0.475,800.0,247.0,0.737,335.0,80.0,80.0,NBA,2820.0,282.0,245.0,C,1007.0,2014,99.0,CHI,194.0,900.0
29.0,312.0,74.0,427.0,0.445,190.0,190.0,0.447,425.0,0.0,0.0,2.0,0.445,427.0,105.0,0.603,174.0,67.0,67.0,NBA,2049.0,219.0,203.0,C,485.0,2015,48.0,CHI,123.0,646.0
30.0,110.0,29.0,168.0,0.383,51.0,51.0,0.386,132.0,0.0,0.0,1.0,0.383,133.0,22.0,0.489,45.0,29.0,2.0,NBA,635.0,87.0,77.0,C,124.0,2016,18.0,CHI,52.0,255.0
31.0,103.0,37.0,241.0,0.49,99.0,99.0,0.493,201.0,0.0,0.0,1.0,0.49,202.0,34.0,0.436,78.0,46.0,46.0,NBA,1015.0,162.0,127.0,C,232.0,2017,30.0,NYK,58.0,403.0
32.0,4.0,2.0,8.0,0.5,5.0,5.0,0.5,10.0,0.0,0.0,0.0,0.5,10.0,2.0,0.5,4.0,7.0,0.0,NBA,40.0,6.0,5.0,C,12.0,2018,2.0,NYK,4.0,14.0
33.0,89.0,31.0,180.0,0.516,110.0,110.0,0.519,212.0,0.0,0.0,1.0,0.516,213.0,78.0,0.716,109.0,42.0,1.0,NBA,693.0,58.0,96.0,C,298.0,2019,20.0,MEM,50.0,238.0
