age,ast_pct,blk_pct,bpm,bpm-dum,dbpm,drb_pct,dws,fg3a_per_fga_pct,fta_per_fga_pct,g,lg_id,mp,obpm,orb_pct,ows,per,pos,season,stl_pct,team_id,tov_pct,trb_pct,ts_pct,usg_pct,vorp,ws,ws-dum,ws_per_48
22.0,8.3,0.3,-4.8,0.0,-2.6,10.4,0.1,0.362,0.156,76.0,NBA,1384.0,-2.1,2.6,0.3,9.6,SG,2010,0.7,MIN,13.4,6.4,0.527,17.4,-1.0,0.4,0.0,0.014
23.0,9.4,0.2,-4.6,0.0,-2.3,7.9,0.1,0.305,0.134,62.0,NBA,1181.0,-2.2,2.4,0.1,8.6,SG,2011,1.2,MIN,11.2,5.1,0.488,17.1,-0.8,0.3,0.0,0.01
24.0,5.5,0.7,-2.6,0.0,-0.7,9.7,0.5,0.358,0.132,51.0,NBA,973.0,-1.9,1.6,0.3,9.4,SG,2012,1.4,MIN,7.5,5.6,0.487,15.8,-0.2,0.8,0.0,0.041
25.0,10.1,0.1,-1.4,0.0,-1.6,10.3,1.1,0.454,0.142,78.0,NBA,1661.0,0.2,1.7,2.1,12.2,SG,2013,1.4,TOT,9.2,5.8,0.546,16.8,0.3,3.2,0.0,0.093
25.0,9.9,0.1,-1.9,0.0,-1.1,8.4,0.8,0.487,0.08,40.0,NBA,676.0,-0.9,0.9,0.6,9.8,SG,2013,1.3,MEM,10.4,4.5,0.529,15.7,0.0,1.3,0.0,0.094
25.0,10.3,0.2,-1.0,0.0,-2.0,11.6,0.3,0.433,0.179,38.0,NBA,985.0,1.0,2.2,1.6,13.9,SG,2013,1.5,CLE,8.5,6.7,0.556,17.6,0.2,1.9,0.0,0.093
26.0,7.1,0.4,-1.7,0.0,-1.7,10.2,0.2,0.468,0.087,45.0,NBA,393.0,0.0,2.4,0.4,12.2,SG,2014,2.1,DAL,7.8,6.3,0.554,16.4,0.0,0.7,0.0,0.084
27.0,10.2,0.1,-3.0,0.0,-2.6,12.3,0.1,0.394,0.104,65.0,NBA,1675.0,-0.4,2.0,1.1,11.6,SG,2015,1.0,LAL,7.2,6.9,0.504,18.5,-0.4,1.2,0.0,0.034
28.0,7.8,0.3,-3.2,0.0,-2.3,10.9,0.3,0.478,0.112,76.0,NBA,1615.0,-0.9,1.4,0.5,10.1,SG,2016,1.5,BRK,7.1,6.1,0.498,17.5,-0.5,0.8,0.0,0.025
29.0,7.1,0.2,-0.2,0.0,-1.9,8.5,1.2,0.71,0.077,62.0,NBA,1500.0,1.8,1.3,2.1,12.6,SG,2017,1.2,MIA,5.0,4.9,0.565,17.9,0.7,3.3,0.0,0.105
30.0,5.9,0.3,0.0,0.0,-1.8,10.7,1.9,0.827,0.111,77.0,NBA,2041.0,1.8,1.3,2.6,12.5,SG,2018,1.3,MIA,6.6,6.0,0.588,17.3,1.0,4.5,0.0,0.105
31.0,8.3,0.4,0.2,0.0,-1.0,7.9,1.4,0.814,0.107,53.0,NBA,1297.0,1.2,1.1,1.3,11.8,SG,2019,2.0,TOT,7.7,4.5,0.569,17.2,0.7,2.6,0.0,0.097
31.0,7.8,0.5,-0.4,0.0,-0.9,8.2,0.6,0.842,0.087,25.0,NBA,533.0,0.5,1.2,0.4,10.8,SG,2019,2.2,MIA,6.8,4.7,0.547,16.5,0.2,1.0,0.0,0.091
31.0,8.6,0.3,0.6,0.0,-1.1,7.7,0.7,0.795,0.121,28.0,NBA,764.0,1.7,1.1,0.9,12.5,SG,2019,1.9,DET,8.3,4.3,0.584,17.7,0.5,1.6,0.0,0.102
32.0,10.7,0.8,-7.0,0.0,-3.5,11.3,0.0,0.884,0.023,7.0,NBA,129.0,-3.5,0.0,-0.2,4.0,SG,2020,0.8,NYK,12.1,5.3,0.414,16.3,-0.2,-0.2,0.0,-0.071
