age,ast_per_poss,blk_per_poss,def_rtg,drb_per_poss,fg2_pct,fg2_per_poss,fg2a_per_poss,fg3_pct,fg3_per_poss,fg3a_per_poss,fg_pct,fg_per_poss,fga_per_poss,ft_pct,ft_per_poss,fta_per_poss,g,gs,lg_id,mp,off_rtg,orb_per_poss,pf_per_poss,pos,pts_per_poss,season,stl_per_poss,team_id,tov_per_poss,trb_per_poss
22.0,2.7,0.2,115.0,4.5,0.441,4.5,10.3,0.395,2.3,5.8,0.424,6.9,16.2,0.871,2.2,2.5,76.0,1.0,NBA,1384.0,101.0,1.2,2.6,SG,18.2,2010,0.7,MIN,2.7,5.7
23.0,3.0,0.1,115.0,3.5,0.406,4.7,11.6,0.397,2.0,5.1,0.403,6.7,16.7,0.792,1.8,2.2,62.0,8.0,NBA,1181.0,100.0,1.1,3.6,SG,17.3,2011,1.2,MIN,2.2,4.6
24.0,1.7,0.5,109.0,4.5,0.448,4.6,10.3,0.324,1.9,5.7,0.404,6.5,16.0,0.8,1.7,2.1,51.0,4.0,NBA,973.0,100.0,0.7,3.0,SG,16.4,2012,1.4,MIN,1.4,5.2
25.0,3.3,0.1,109.0,4.5,0.457,4.2,9.2,0.392,3.0,7.6,0.427,7.2,16.9,0.907,2.2,2.4,78.0,21.0,NBA,1661.0,111.0,0.8,2.6,SG,19.6,2013,1.4,TOT,1.8,5.3
25.0,3.4,0.1,105.0,3.8,0.392,3.2,8.2,0.423,3.3,7.8,0.407,6.5,16.0,0.938,1.2,1.3,40.0,4.0,NBA,676.0,107.0,0.4,3.1,SG,17.5,2013,1.3,MEM,1.9,4.2
25.0,3.3,0.1,112.0,5.0,0.492,4.9,9.9,0.371,2.8,7.6,0.439,7.7,17.4,0.898,2.8,3.1,38.0,17.0,NBA,985.0,113.0,1.1,2.3,SG,20.9,2013,1.5,CLE,1.7,6.0
26.0,2.5,0.3,110.0,4.6,0.448,3.9,8.7,0.424,3.3,7.7,0.437,7.2,16.5,0.909,1.3,1.4,45.0,1.0,NBA,393.0,110.0,1.0,4.3,SG,18.9,2014,2.1,DAL,1.4,5.6
27.0,3.2,0.1,114.0,5.5,0.439,5.0,11.4,0.37,2.7,7.4,0.412,7.7,18.8,0.813,1.6,2.0,65.0,36.0,NBA,1675.0,103.0,0.9,2.3,SG,19.8,2015,1.0,LAL,1.5,6.4
28.0,2.6,0.2,113.0,4.8,0.416,3.8,9.1,0.358,3.0,8.4,0.389,6.8,17.5,0.857,1.7,2.0,76.0,41.0,NBA,1615.0,101.0,0.6,2.6,SG,18.3,2016,1.5,BRK,1.4,5.4
29.0,2.4,0.1,111.0,3.8,0.509,2.8,5.4,0.378,5.0,13.2,0.416,7.8,18.7,0.86,1.2,1.4,62.0,13.0,NBA,1500.0,114.0,0.6,2.4,SG,21.8,2017,1.2,MIA,1.0,4.4
30.0,1.9,0.2,110.0,4.8,0.479,1.4,3.0,0.392,5.6,14.2,0.407,7.0,17.2,0.859,1.6,1.9,77.0,2.0,NBA,2041.0,113.0,0.6,2.3,SG,21.3,2018,1.3,MIA,1.3,5.4
31.0,2.7,0.2,110.0,3.5,0.541,1.7,3.2,0.371,5.2,14.1,0.403,7.0,17.3,0.796,1.5,1.9,53.0,38.0,NBA,1297.0,112.0,0.5,3.5,SG,20.6,2019,2.0,TOT,1.5,4.1
31.0,2.7,0.3,109.0,3.8,0.414,1.1,2.7,0.368,5.2,14.2,0.375,6.3,16.9,0.875,1.3,1.5,25.0,12.0,NBA,533.0,110.0,0.6,3.7,SG,19.2,2019,2.2,MIA,1.3,4.3
31.0,2.8,0.2,111.0,3.4,0.607,2.2,3.6,0.373,5.2,14.0,0.421,7.4,17.6,0.758,1.6,2.1,28.0,26.0,NBA,764.0,114.0,0.5,3.4,SG,21.7,2019,1.9,DET,1.7,3.9
32.0,3.4,0.4,116.0,4.9,0.6,1.1,1.9,0.263,3.8,14.3,0.302,4.9,16.2,0.0,0.0,0.4,7.0,1.0,NBA,129.0,83.0,0.0,3.0,SG,13.5,2020,0.8,NYK,2.3,4.9
