age,ast_pct,blk_pct,bpm,bpm-dum,dbpm,drb_pct,dws,fg3a_per_fga_pct,fta_per_fga_pct,g,lg_id,mp,obpm,orb_pct,ows,per,pos,season,stl_pct,team_id,tov_pct,trb_pct,ts_pct,usg_pct,vorp,ws,ws-dum,ws_per_48
23.0,9.2,3.7,-11.3,0.0,-3.0,0.0,0.0,0.167,0.333,4.0,NBA,17.0,-8.3,6.4,-0.1,6.0,SG,1992,2.9,POR,12.7,3.2,0.363,37.8,0.0,-0.1,0.0,-0.158
24.0,14.3,0.0,-7.7,0.0,-2.5,5.2,0.0,0.213,0.164,9.0,NBA,138.0,-5.2,5.8,-0.4,5.7,SG,1993,2.8,DAL,18.7,5.5,0.382,23.7,-0.2,-0.4,0.0,-0.141
