age,ast_per_poss,blk_per_poss,def_rtg,drb_per_poss,fg2_pct,fg2_per_poss,fg2a_per_poss,fg3_pct,fg3_per_poss,fg3a_per_poss,fg_pct,fg_per_poss,fga_per_poss,ft_pct,ft_per_poss,fta_per_poss,g,gs,lg_id,mp,off_rtg,orb_per_poss,pf_per_poss,pos,pts_per_poss,season,stl_per_poss,team_id,tov_per_poss,trb_per_poss
23.0,1.0,1.0,102.0,9.3,0.353,6.2,17.6,0.0,0.0,0.0,0.353,6.2,17.6,0.667,8.3,12.4,2.0,0.0,NBA,49.0,83.0,4.1,7.2,C,20.7,1981,1.0,NYK,6.2,13.4
25.0,1.2,2.0,107.0,7.2,0.581,7.2,12.4,0.0,0.0,0.0,0.581,7.2,12.4,0.773,4.9,6.3,6.0,0.0,NBA,172.0,98.0,2.6,7.2,C,19.3,1983,0.9,NYK,5.5,9.8
26.0,0.6,1.7,111.0,8.8,0.556,8.5,15.4,0.0,0.0,0.0,0.556,8.5,15.4,0.863,8.4,9.8,12.0,0.0,NBA,398.0,122.0,3.3,5.4,C,25.5,1984,0.2,NYK,3.2,12.1
30.0,4.0,2.0,119.0,7.4,0.5,6.0,12.0,0.0,0.0,0.0,0.5,6.0,12.0,0.733,7.4,10.0,4.0,0.0,NBA,76.0,105.0,5.4,8.0,C,19.4,1988,0.0,NYK,5.4,12.7
31.0,1.8,1.1,108.0,8.0,0.486,6.5,13.4,0.0,0.0,0.0,0.486,6.5,13.4,0.7,5.1,7.2,17.0,17.0,NBA,583.0,101.0,3.0,6.3,C,18.1,1989,0.8,CHI,3.7,10.9
32.0,1.8,0.4,109.0,5.6,0.413,5.6,13.6,0.0,0.0,0.0,0.413,5.6,13.6,0.674,3.2,4.8,16.0,16.0,NBA,462.0,93.0,2.8,5.8,C,14.5,1990,0.6,CHI,2.8,8.4
33.0,3.4,0.7,107.0,5.9,0.519,7.5,14.4,0.0,0.0,0.0,0.519,7.5,14.4,0.688,2.3,3.4,17.0,17.0,NBA,511.0,111.0,2.7,5.9,C,17.3,1991,1.0,CHI,2.2,8.5
34.0,3.3,0.4,108.0,6.1,0.474,4.8,10.2,0.0,0.0,0.0,0.474,4.8,10.2,0.419,1.1,2.7,22.0,22.0,NBA,612.0,97.0,2.6,6.2,C,10.8,1992,1.0,CHI,2.4,8.6
35.0,3.5,0.4,108.0,7.0,0.465,5.6,12.1,0.0,0.0,0.0,0.465,5.6,12.1,0.778,3.4,4.4,19.0,19.0,NBA,444.0,116.0,3.4,6.2,C,14.7,1993,1.3,CHI,1.6,10.4
36.0,3.3,0.6,107.0,7.5,0.326,4.2,12.8,0.0,0.0,0.0,0.326,4.2,12.8,0.813,3.9,4.8,9.0,8.0,NBA,189.0,103.0,5.7,7.7,C,12.2,1994,0.9,CHI,1.8,13.1
