age,ast,blk,drb,efg_pct,fg,fg2,fg2_pct,fg2a,fg3,fg3_pct,fg3a,fg_pct,fga,ft,ft_pct,fta,g,gs,lg_id,mp,orb,pf,pos,pts,season,stl,team_id,tov,trb
23.0,1.0,1.0,9.0,0.353,6.0,6.0,0.353,17.0,0.0,0.0,0.0,0.353,17.0,8.0,0.667,12.0,2.0,0.0,NBA,49.0,4.0,7.0,C,20.0,1981,1.0,NYK,6.0,13.0
25.0,4.0,7.0,25.0,0.581,25.0,25.0,0.581,43.0,0.0,0.0,0.0,0.581,43.0,17.0,0.773,22.0,6.0,0.0,NBA,172.0,9.0,25.0,C,67.0,1983,3.0,NYK,19.0,34.0
26.0,5.0,14.0,72.0,0.556,70.0,70.0,0.556,126.0,0.0,0.0,0.0,0.556,126.0,69.0,0.863,80.0,12.0,0.0,NBA,398.0,27.0,44.0,C,209.0,1984,2.0,NYK,26.0,99.0
30.0,6.0,3.0,11.0,0.5,9.0,9.0,0.5,18.0,0.0,0.0,0.0,0.5,18.0,11.0,0.733,15.0,4.0,0.0,NBA,76.0,8.0,12.0,C,29.0,1988,0.0,NYK,8.0,19.0
31.0,20.0,12.0,88.0,0.486,72.0,72.0,0.486,148.0,0.0,0.0,0.0,0.486,148.0,56.0,0.7,80.0,17.0,17.0,NBA,583.0,33.0,70.0,C,200.0,1989,9.0,CHI,41.0,121.0
32.0,16.0,4.0,50.0,0.413,50.0,50.0,0.413,121.0,0.0,0.0,0.0,0.413,121.0,29.0,0.674,43.0,16.0,16.0,NBA,462.0,25.0,52.0,C,129.0,1990,5.0,CHI,25.0,75.0
33.0,32.0,7.0,55.0,0.519,70.0,70.0,0.519,135.0,0.0,0.0,0.0,0.519,135.0,22.0,0.688,32.0,17.0,17.0,NBA,511.0,25.0,55.0,C,162.0,1991,9.0,CHI,21.0,80.0
34.0,38.0,4.0,69.0,0.474,55.0,55.0,0.474,116.0,0.0,0.0,0.0,0.474,116.0,13.0,0.419,31.0,22.0,22.0,NBA,612.0,29.0,70.0,C,123.0,1992,11.0,CHI,27.0,98.0
35.0,29.0,3.0,57.0,0.465,46.0,46.0,0.465,99.0,0.0,0.0,0.0,0.465,99.0,28.0,0.778,36.0,19.0,19.0,NBA,444.0,28.0,51.0,C,120.0,1993,11.0,CHI,13.0,85.0
36.0,11.0,2.0,25.0,0.326,14.0,14.0,0.326,43.0,0.0,0.0,0.0,0.326,43.0,13.0,0.813,16.0,9.0,8.0,NBA,189.0,19.0,26.0,C,41.0,1994,3.0,CHI,6.0,44.0
