article_url,date,headline
https://orlandomagicdaily.com/2019/11/13/orlando-magic-grades-orlando-magic-112-philadelphia-76ers-97/,2019/11/13,"Orlando Magic Daily: Orlando Magic Grades: Orlando Magic 112, Philadelphia 76ers 97"
https://section215.com/2019/11/13/philadelphia-76ers-kyle-oquinn-signing/,2019/11/13,Section 215: Philadelphia 76ers: Kyle O'Quinn has been a sneaky good signing
https://section215.com/2019/11/13/philadelphia-76ers-jonah-bolden-role/,2019/11/13,Section 215: Philadelphia 76ers: Jonah Bolden is a man without a role
https://thesixersense.com/2019/11/13/philadelphia-76ers-grades-98-97-win-cleveland-cavaliers/,2019/11/13,"The Sixer Sense: GRADES: Philadelphia 76ers 98, Cleveland Cavaliers 97"
https://kingjamesgospel.com/2019/11/12/cleveland-cavaliers-timely-double-teams-biggest-key-vs-sixers-tuesday/,2019/11/12,Right Down Euclid: Cavs: Timely double-teams are biggest key vs. Sixers on Tuesday
https://thesixersense.com/2019/11/12/philadelphia-76ers-3-players-watch-cleveland-cavaliers/,2019/11/12,The Sixer Sense: Philadelphia 76ers: 3 players to watch for against the Cleveland Cavaliers
https://thesixersense.com/2019/11/11/philadelphia-76ers-player-rankings-defense-rules/,2019/11/11,The Sixer Sense: Philadelphia 76ers Player Rankings: Defense rules
