age,ast_per_poss,blk_per_poss,def_rtg,drb_per_poss,fg2_pct,fg2_per_poss,fg2a_per_poss,fg3_pct,fg3_per_poss,fg3a_per_poss,fg_pct,fg_per_poss,fga_per_poss,ft_pct,ft_per_poss,fta_per_poss,g,gs,lg_id,mp,off_rtg,orb_per_poss,pf_per_poss,pos,pts_per_poss,season,stl_per_poss,team_id,tov_per_poss,trb_per_poss
24.0,1.3,1.4,108.0,7.6,0.47,7.2,15.3,0.0,0.0,0.0,0.47,7.2,15.3,0.474,3.1,6.6,75.0,50.0,NBA,1404.0,86.0,3.7,9.6,PF,17.5,1985,1.3,NYK,4.8,11.3
25.0,1.5,0.8,104.0,8.1,0.492,8.1,16.6,0.0,0.0,0.0,0.491,8.1,16.6,0.526,4.5,8.6,70.0,15.0,NBA,1405.0,91.0,3.1,7.2,PF,20.8,1986,1.5,NYK,4.5,11.2
28.0,1.1,0.7,106.0,9.5,0.629,7.8,12.4,0.0,0.0,0.4,0.611,7.8,12.7,0.566,10.6,18.7,9.0,2.0,NBA,130.0,116.0,2.1,6.0,PF,26.2,1989,2.5,LAC,2.8,11.7
29.0,1.5,0.6,109.0,6.0,0.481,6.3,13.1,0.0,0.0,0.1,0.478,6.3,13.2,0.473,4.3,9.0,52.0,1.0,NBA,589.0,92.0,3.2,7.6,PF,16.9,1990,1.4,LAC,3.6,9.2
30.0,1.3,1.0,107.0,8.8,0.538,6.1,11.3,0.0,0.0,0.1,0.531,6.1,11.5,0.385,3.5,9.2,47.0,3.0,NBA,339.0,93.0,4.8,10.3,PF,15.7,1991,0.7,LAC,3.5,13.6
