age,ast,blk,drb,efg_pct,fg,fg2,fg2_pct,fg2a,fg3,fg3_pct,fg3a,fg_pct,fga,ft,ft_pct,fta,g,gs,lg_id,mp,orb,pf,pos,pts,season,stl,team_id,tov,trb
20.0,7.0,9.0,31.0,0.531,34.0,33.0,0.516,64.0,1.0,1.0,1.0,0.523,65.0,16.0,0.571,28.0,6.0,6.0,NBA,203.0,16.0,28.0,PF,85.0,2003,10.0,PHO,19.0,47.0
22.0,18.0,30.0,100.0,0.539,153.0,153.0,0.544,281.0,0.0,0.0,3.0,0.539,284.0,143.0,0.781,183.0,15.0,15.0,NBA,601.0,60.0,59.0,C,449.0,2005,10.0,PHO,47.0,160.0
24.0,6.0,19.0,91.0,0.526,91.0,90.0,0.526,171.0,1.0,0.333,3.0,0.523,174.0,70.0,0.769,91.0,10.0,10.0,NBA,343.0,30.0,39.0,C,253.0,2007,13.0,PHO,19.0,121.0
25.0,2.0,12.0,30.0,0.49,48.0,47.0,0.495,95.0,1.0,0.25,4.0,0.485,99.0,19.0,0.633,30.0,5.0,5.0,NBA,204.0,15.0,19.0,C,116.0,2008,7.0,PHO,14.0,45.0
27.0,18.0,24.0,60.0,0.519,124.0,124.0,0.528,235.0,0.0,0.0,4.0,0.519,239.0,107.0,0.754,142.0,16.0,16.0,NBA,584.0,46.0,54.0,PF,355.0,2010,11.0,PHO,40.0,106.0
28.0,7.0,3.0,20.0,0.382,21.0,21.0,0.382,55.0,0.0,0.0,0.0,0.382,55.0,16.0,0.667,24.0,4.0,4.0,NBA,134.0,11.0,10.0,C,58.0,2011,1.0,NYK,12.0,31.0
29.0,3.0,1.0,18.0,0.556,20.0,20.0,0.556,36.0,0.0,0.0,0.0,0.556,36.0,21.0,0.75,28.0,4.0,4.0,NBA,139.0,8.0,16.0,PF,61.0,2012,5.0,NYK,12.0,26.0
30.0,0.0,0.0,5.0,0.423,5.0,4.0,0.333,12.0,1.0,1.0,1.0,0.385,13.0,4.0,1.0,4.0,4.0,0.0,NBA,33.0,4.0,9.0,PF,15.0,2013,0.0,NYK,3.0,9.0
32.0,3.0,3.0,9.0,0.429,15.0,15.0,0.429,35.0,0.0,0.0,0.0,0.429,35.0,9.0,0.692,13.0,5.0,0.0,NBA,75.0,7.0,16.0,PF,39.0,2015,1.0,DAL,7.0,16.0
33.0,0.0,3.0,10.0,0.579,11.0,11.0,0.579,19.0,0.0,0.0,0.0,0.579,19.0,8.0,1.0,8.0,9.0,2.0,NBA,82.0,3.0,14.0,C,30.0,2016,5.0,MIA,9.0,13.0
