age,ast_pct,blk_pct,bpm,bpm-dum,dbpm,drb_pct,dws,fg3a_per_fga_pct,fta_per_fga_pct,g,lg_id,mp,obpm,orb_pct,ows,per,pos,season,stl_pct,team_id,tov_pct,trb_pct,ts_pct,usg_pct,vorp,ws,ws-dum,ws_per_48
20.0,5.0,2.5,-1.1,0.0,0.4,20.9,3.6,0.012,0.583,82.0,NBA,2570.0,-1.6,10.9,2.6,16.2,PF,2003,1.3,PHO,15.3,15.9,0.53,21.5,0.6,6.2,0.0,0.116
21.0,7.0,3.3,-1.0,0.0,-0.2,19.2,2.0,0.006,0.503,55.0,NBA,2025.0,-0.8,8.8,2.4,19.8,PF,2004,1.6,PHO,14.4,14.0,0.536,27.5,0.5,4.4,0.0,0.105
22.0,7.7,3.0,3.4,0.0,0.0,17.4,3.3,0.012,0.595,80.0,NBA,2889.0,3.4,8.5,11.3,26.6,C,2005,1.3,PHO,10.1,13.2,0.617,28.3,3.9,14.6,0.0,0.243
23.0,5.9,4.2,-6.6,0.0,-1.8,21.7,0.1,0.037,0.333,3.0,NBA,50.0,-4.8,13.6,0.0,17.8,C,2006,1.0,PHO,3.1,17.8,0.42,28.7,-0.1,0.1,0.0,0.085
24.0,5.0,2.9,1.6,0.0,0.7,23.3,4.0,0.003,0.555,82.0,NBA,2689.0,0.9,10.1,7.2,23.1,C,2007,1.5,PHO,15.0,17.0,0.637,25.8,2.4,11.2,0.0,0.201
25.0,7.5,4.0,3.9,0.0,0.4,21.1,3.8,0.026,0.571,79.0,NBA,2677.0,3.5,8.2,10.9,27.6,C,2008,1.2,PHO,10.3,15.2,0.656,28.2,4.0,14.6,0.0,0.262
26.0,8.3,2.1,1.0,0.0,-0.3,18.1,1.4,0.009,0.517,53.0,NBA,1948.0,1.3,7.2,4.6,20.3,PF,2009,1.3,PHO,14.0,12.9,0.617,24.2,1.5,6.1,0.0,0.149
27.0,4.8,2.1,0.3,0.0,-1.3,18.9,2.5,0.005,0.5,82.0,NBA,2838.0,1.6,9.7,8.2,22.6,PF,2010,0.9,PHO,12.1,14.5,0.615,27.3,1.6,10.7,0.0,0.181
28.0,13.2,3.8,0.7,0.0,-0.1,17.6,2.6,0.016,0.403,78.0,NBA,2870.0,0.8,7.8,5.4,22.7,C,2011,1.2,NYK,12.5,12.7,0.565,30.9,1.9,8.0,0.0,0.134
29.0,6.3,2.3,-1.4,0.0,0.1,19.8,2.3,0.032,0.372,47.0,NBA,1543.0,-1.5,7.9,1.8,17.7,PF,2012,1.3,NYK,12.8,13.7,0.541,25.4,0.2,4.1,0.0,0.128
30.0,3.6,2.7,-1.4,0.0,-2.0,15.1,0.6,0.0,0.487,29.0,NBA,682.0,0.6,10.0,2.1,22.1,PF,2013,0.8,NYK,13.4,12.4,0.637,25.7,0.1,2.7,0.0,0.191
31.0,4.2,2.2,-3.1,0.0,-2.3,17.2,0.9,0.0,0.364,65.0,NBA,1466.0,-0.8,8.7,2.9,18.8,C,2014,0.8,NYK,12.3,12.8,0.596,23.4,-0.4,3.8,0.0,0.124
32.0,6.8,2.5,-1.4,0.0,-1.3,20.5,1.0,0.008,0.38,59.0,NBA,1245.0,-0.2,9.9,2.6,20.3,PF,2015,1.2,TOT,12.0,15.1,0.595,23.8,0.2,3.6,0.0,0.138
32.0,8.1,3.3,-1.1,0.0,-0.5,22.3,0.7,0.01,0.408,36.0,NBA,865.0,-0.6,10.8,1.5,19.5,PF,2015,1.2,NYK,14.7,16.4,0.589,22.9,0.2,2.2,0.0,0.12
32.0,3.9,0.9,-2.2,0.0,-3.1,16.5,0.3,0.006,0.33,23.0,NBA,380.0,0.8,7.8,1.1,22.3,PF,2015,1.2,DAL,6.8,12.1,0.605,25.8,0.0,1.4,0.0,0.181
33.0,5.6,4.1,-0.4,0.0,1.4,22.6,1.3,0.0,0.303,52.0,NBA,762.0,-1.7,10.0,1.1,17.3,C,2016,1.2,MIA,15.8,16.5,0.599,17.8,0.3,2.4,0.0,0.15
