age,ast_per_mp,blk_per_mp,drb_per_mp,fg2_pct,fg2_per_mp,fg2a_per_mp,fg3_pct,fg3_per_mp,fg3a_per_mp,fg_pct,fg_per_mp,fga_per_mp,ft_pct,ft_per_mp,fta_per_mp,g,gs,lg_id,mp,orb_per_mp,pf_per_mp,pos,pts_per_mp,season,stl_per_mp,team_id,tov_per_mp,trb_per_mp
20.0,1.2,1.6,5.5,0.516,5.9,11.3,1.0,0.2,0.2,0.523,6.0,11.5,0.571,2.8,5.0,6.0,6.0,NBA,203.0,2.8,5.0,PF,15.1,2003,1.8,PHO,3.4,8.3
22.0,1.1,1.8,6.0,0.544,9.2,16.8,0.0,0.0,0.2,0.539,9.2,17.0,0.781,8.6,11.0,15.0,15.0,NBA,601.0,3.6,3.5,C,26.9,2005,0.6,PHO,2.8,9.6
24.0,0.6,2.0,9.6,0.526,9.4,17.9,0.333,0.1,0.3,0.523,9.6,18.3,0.769,7.3,9.6,10.0,10.0,NBA,343.0,3.1,4.1,C,26.6,2007,1.4,PHO,2.0,12.7
25.0,0.4,2.1,5.3,0.495,8.3,16.8,0.25,0.2,0.7,0.485,8.5,17.5,0.633,3.4,5.3,5.0,5.0,NBA,204.0,2.6,3.4,C,20.5,2008,1.2,PHO,2.5,7.9
27.0,1.1,1.5,3.7,0.528,7.6,14.5,0.0,0.0,0.2,0.519,7.6,14.7,0.754,6.6,8.8,16.0,16.0,NBA,584.0,2.8,3.3,PF,21.9,2010,0.7,PHO,2.5,6.5
28.0,1.9,0.8,5.4,0.382,5.6,14.8,0.0,0.0,0.0,0.382,5.6,14.8,0.667,4.3,6.4,4.0,4.0,NBA,134.0,3.0,2.7,C,15.6,2011,0.3,NYK,3.2,8.3
29.0,0.8,0.3,4.7,0.556,5.2,9.3,0.0,0.0,0.0,0.556,5.2,9.3,0.75,5.4,7.3,4.0,4.0,NBA,139.0,2.1,4.1,PF,15.8,2012,1.3,NYK,3.1,6.7
30.0,0.0,0.0,5.5,0.333,4.4,13.1,1.0,1.1,1.1,0.385,5.5,14.2,1.0,4.4,4.4,4.0,0.0,NBA,33.0,4.4,9.8,PF,16.4,2013,0.0,NYK,3.3,9.8
32.0,1.4,1.4,4.3,0.429,7.2,16.8,0.0,0.0,0.0,0.429,7.2,16.8,0.692,4.3,6.2,5.0,0.0,NBA,75.0,3.4,7.7,PF,18.7,2015,0.5,DAL,3.4,7.7
33.0,0.0,1.3,4.4,0.579,4.8,8.3,0.0,0.0,0.0,0.579,4.8,8.3,1.0,3.5,3.5,9.0,2.0,NBA,82.0,1.3,6.1,C,13.2,2016,2.2,MIA,4.0,5.7
