age,ast,blk,drb,fg,fg2,fg2a,fg3,fg3a,fga,ft,fta,game_score,lg_id,mp,orb,pf,pts,season,stl,team_id,tov,trb
20.0,3.0,3.0,11.0,9.0,8.0,14.0,1.0,1.0,14.0,5.0,8.0,17.8,NBA,0.0,5.0,6.0,24.0,2003,3.0,PHO,5.0,14.0
22.0,3.0,5.0,13.0,16.0,16.0,31.0,0.0,1.0,32.0,18.0,22.0,35.3,NBA,0.0,8.0,6.0,42.0,2005,2.0,PHO,5.0,18.0
24.0,3.0,5.0,17.0,14.0,13.0,27.0,1.0,2.0,28.0,15.0,21.0,31.2,NBA,43.0,5.0,5.0,38.0,2007,3.0,PHO,5.0,21.0
25.0,1.0,3.0,8.0,13.0,13.0,26.0,1.0,3.0,26.0,7.0,9.0,21.6,NBA,46.0,4.0,6.0,33.0,2008,2.0,PHO,6.0,11.0
27.0,4.0,3.0,9.0,14.0,14.0,22.0,0.0,1.0,22.0,14.0,18.0,33.6,NBA,44.0,6.0,6.0,42.0,2010,3.0,PHO,5.0,13.0
28.0,3.0,2.0,9.0,12.0,12.0,20.0,0.0,0.0,20.0,9.0,12.0,22.1,NBA,45.0,6.0,5.0,28.0,2011,1.0,NYK,5.0,12.0
29.0,1.0,1.0,6.0,8.0,8.0,13.0,0.0,0.0,13.0,6.0,9.0,15.9,NBA,42.0,5.0,6.0,20.0,2012,2.0,NYK,5.0,10.0
30.0,0.0,0.0,3.0,3.0,2.0,7.0,1.0,1.0,8.0,2.0,2.0,3.0,NBA,12.0,3.0,4.0,7.0,2013,0.0,NYK,1.0,4.0
32.0,1.0,2.0,4.0,6.0,6.0,12.0,0.0,0.0,12.0,6.0,6.0,7.2,NBA,19.0,2.0,4.0,12.0,2015,1.0,TOT,3.0,5.0
32.0,1.0,2.0,4.0,6.0,6.0,12.0,0.0,0.0,12.0,6.0,6.0,7.2,NBA,19.0,2.0,4.0,12.0,2015,1.0,DAL,3.0,5.0
33.0,0.0,2.0,3.0,4.0,4.0,6.0,0.0,0.0,6.0,3.0,3.0,9.3,NBA,17.0,2.0,3.0,11.0,2016,1.0,MIA,3.0,3.0
