lg_id,salary,season,team_name
NBA,1490120.0,2003,Los Angeles Clippers
NBA,1628760.0,2004,Los Angeles Clippers
NBA,1742400.0,2005,Charlotte Bobcats
NBA,2401027.0,2006,Charlotte Bobcats
NBA,3303813.0,2007,San Antonio Spurs
NBA,895341.0,2008,New Orleans Hornets
NBA,998398.0,2009,New Orleans Hornets
NBA,1223166.0,2011,Denver Nuggets
