age,avg_dist,fg2_dunk,fg2_pct,fg2_pct_ast,fg2a_pct_fga,fg3_heave,fg3_pct,fg3_pct_ast,fg3_pct_corner,fg3a_heave,fg3a_pct_fga,fg_pct,fg_pct_00_03,fg_pct_03_10,fg_pct_10_16,fg_pct_16_xx,g,lg_id,mp,pct_fg2_dunk,pct_fg3a_corner,pct_fga_00_03,pct_fga_03_10,pct_fga_10_16,pct_fga_16_xx,pos,season,team_id
22.0,16.0,0.0,0.378,0.5,0.685,0.0,0.118,0.5,0.125,0.0,0.315,0.296,0.4,0.25,0.455,0.333,17.0,NBA,126.0,0.019,0.471,0.185,0.074,0.204,0.222,PF,2012,HOU
23.0,15.3,31.0,0.464,0.581,0.557,0.0,0.369,0.942,0.336,4.0,0.443,0.422,0.689,0.286,0.323,0.254,77.0,NBA,1524.0,0.065,0.472,0.251,0.12,0.059,0.127,PF-SF,2013,TOT
23.0,15.9,19.0,0.471,0.557,0.515,0.0,0.381,0.973,0.313,3.0,0.485,0.428,0.656,0.348,0.318,0.289,54.0,NBA,1154.0,0.053,0.495,0.233,0.115,0.055,0.113,PF,2013,HOU
23.0,13.5,12.0,0.448,0.641,0.69,0.0,0.308,0.75,0.5,1.0,0.31,0.405,0.769,0.118,0.333,0.182,23.0,NBA,370.0,0.103,0.359,0.31,0.135,0.071,0.175,SF,2013,PHO
24.0,16.5,12.0,0.483,0.439,0.601,0.0,0.381,0.949,0.373,3.0,0.399,0.442,0.655,0.34,0.486,0.385,82.0,NBA,1800.0,0.02,0.392,0.169,0.077,0.167,0.187,SF,2014,PHO
25.0,16.7,10.0,0.487,0.443,0.59,1.0,0.358,0.902,0.408,7.0,0.41,0.434,0.593,0.384,0.483,0.454,81.0,NBA,2045.0,0.014,0.329,0.155,0.096,0.155,0.185,PF,2015,PHO
26.0,15.0,15.0,0.467,0.348,0.685,0.0,0.362,0.926,0.329,2.0,0.315,0.434,0.671,0.34,0.383,0.457,80.0,NBA,2856.0,0.016,0.285,0.158,0.106,0.213,0.211,SF,2016,DET
27.0,17.3,7.0,0.466,0.38,0.645,0.0,0.331,0.915,0.436,6.0,0.355,0.418,0.623,0.356,0.43,0.459,79.0,NBA,2565.0,0.007,0.154,0.113,0.086,0.192,0.255,SF,2017,DET
28.0,16.5,10.0,0.467,0.483,0.617,0.0,0.368,0.919,0.341,9.0,0.383,0.429,0.612,0.41,0.398,0.457,54.0,NBA,1447.0,0.018,0.175,0.139,0.128,0.16,0.19,PF,2018,BOS
29.0,16.6,13.0,0.508,0.528,0.539,0.0,0.375,0.938,0.232,4.0,0.461,0.447,0.68,0.455,0.38,0.455,75.0,NBA,2091.0,0.017,0.144,0.174,0.117,0.143,0.104,PF,2019,BOS
30.0,17.5,0.0,0.375,0.308,0.594,0.0,0.451,0.813,0.625,2.0,0.406,0.406,0.591,0.105,0.438,0.323,12.0,NBA,408.0,0.0,0.113,0.126,0.109,0.183,0.177,PF,2020,NYK
