age,ast_per_poss,blk_per_poss,def_rtg,drb_per_poss,fg2_pct,fg2_per_poss,fg2a_per_poss,fg3_pct,fg3_per_poss,fg3a_per_poss,fg_pct,fg_per_poss,fga_per_poss,ft_pct,ft_per_poss,fta_per_poss,g,gs,lg_id,mp,off_rtg,orb_per_poss,pf_per_poss,pos,pts_per_poss,season,stl_per_poss,team_id,tov_per_poss,trb_per_poss
26.0,3.8,0.0,123.0,4.2,0.517,5.8,11.1,0.389,2.7,6.9,0.468,8.4,18.0,0.87,7.7,8.8,4.0,4.0,NBA,144.0,122.0,0.8,6.5,SF,27.3,2016,0.8,DET,1.9,5.0
28.0,1.9,0.5,109.0,7.6,0.344,4.8,13.9,0.417,2.8,6.6,0.368,7.5,20.5,0.712,3.9,5.4,19.0,4.0,NBA,562.0,97.0,1.8,5.5,PF,21.7,2018,0.6,BOS,1.7,9.4
29.0,2.1,0.9,104.0,11.5,0.59,4.3,7.4,0.45,3.4,7.6,0.519,7.8,14.9,0.742,4.3,5.9,9.0,4.0,NBA,254.0,128.0,2.3,4.2,PF,23.3,2019,0.2,BOS,1.3,13.8
