age,and1s,astd_pts,drawn_offensive,drawn_shooting,fouls_offensive,fouls_shooting,g,lg_id,mp,own_shots_blk,pct_1,pct_2,pct_3,pct_4,pct_5,plus_minus_net,plus_minus_on,pos,season,team_id,tov_bad_pass,tov_lost_ball
23.0,1.0,14.0,2.0,4.0,0.0,12.0,20.0,NBA,149.0,3.0,0.0,0.0,0.0,0.0,100.0,1.2,2.1,C,2006,CHI,0.0,2.0
24.0,1.0,2.0,0.0,4.0,2.0,19.0,11.0,NBA,118.0,4.0,0.0,0.0,0.0,0.0,100.0,3.8,-1.4,C,2007,POR,0.0,1.0
