age,ast,blk,drb,fg,fg2,fg2a,fg3,fg3a,fga,ft,fta,game_score,lg_id,mp,orb,pf,pts,season,stl,team_id,tov,trb
23.0,1.0,1.0,7.0,5.0,5.0,6.0,0.0,0.0,6.0,2.0,4.0,10.5,NBA,18,2.0,3.0,10.0,2006,1.0,CHI,2.0,8.0
24.0,1.0,2.0,5.0,3.0,3.0,4.0,0.0,0.0,4.0,3.0,4.0,3.0,NBA,25,2.0,6.0,6.0,2007,1.0,POR,2.0,6.0
