age,ast,blk,drb,fg,fg2,fg2a,fg3,fg3a,fga,ft,fta,game_score,lg_id,mp,orb,pf,pts,season,stl,team_id,tov,trb
25.0,6.0,1.0,11.0,17.0,17.0,30.0,0.0,0.0,30.0,12.0,14.0,32.4,NBA,45,10.0,5.0,41.0,2007,3.0,UTA,6.0,20.0
26.0,5.0,1.0,16.0,12.0,12.0,21.0,0.0,0.0,21.0,8.0,8.0,20.6,NBA,44,6.0,6.0,27.0,2008,3.0,UTA,7.0,20.0
27.0,5.0,1.0,17.0,11.0,11.0,18.0,0.0,0.0,18.0,9.0,12.0,22.4,NBA,42,5.0,5.0,27.0,2009,3.0,UTA,5.0,22.0
28.0,5.0,3.0,18.0,13.0,13.0,21.0,0.0,0.0,21.0,6.0,10.0,28.5,NBA,46,6.0,6.0,31.0,2010,1.0,UTA,4.0,20.0
29.0,5.0,2.0,11.0,10.0,10.0,19.0,0.0,1.0,19.0,10.0,12.0,22.9,NBA,50,7.0,5.0,26.0,2011,2.0,CHI,4.0,17.0
30.0,6.0,1.0,12.0,11.0,11.0,24.0,0.0,0.0,24.0,1.0,2.0,13.7,NBA,43,3.0,5.0,23.0,2012,2.0,CHI,5.0,13.0
31.0,4.0,1.0,15.0,12.0,12.0,20.0,0.0,1.0,20.0,8.0,12.0,24.1,NBA,51,9.0,6.0,26.0,2013,3.0,CHI,4.0,16.0
32.0,2.0,0.0,8.0,6.0,6.0,12.0,0.0,0.0,12.0,2.0,2.0,9.4,NBA,28,3.0,5.0,14.0,2014,1.0,CHI,3.0,9.0
