age,ast_per_poss,blk_per_poss,def_rtg,drb_per_poss,fg2_pct,fg2_per_poss,fg2a_per_poss,fg3_pct,fg3_per_poss,fg3a_per_poss,fg_pct,fg_per_poss,fga_per_poss,ft_pct,ft_per_poss,fta_per_poss,g,gs,lg_id,mp,off_rtg,orb_per_poss,pf_per_poss,pos,pts_per_poss,season,stl_per_poss,team_id,tov_per_poss,trb_per_poss
21.0,2.6,1.2,105.0,10.1,0.536,8.3,15.4,0.0,0.0,0.0,0.536,8.3,15.4,0.771,3.7,4.8,81.0,54.0,NBA,2049.0,114.0,5.0,5.6,PF,20.2,2003,1.5,CLE,2.6,15.2
22.0,3.0,1.1,101.0,12.8,0.526,9.6,18.2,0.167,0.0,0.1,0.523,9.6,18.3,0.768,4.5,5.8,75.0,75.0,NBA,2592.0,113.0,4.7,4.1,PF,23.7,2004,1.5,CLE,2.7,17.5
23.0,4.4,0.7,108.0,9.7,0.522,11.1,21.2,0.0,0.0,0.0,0.521,11.1,21.2,0.698,5.7,8.2,51.0,51.0,NBA,1772.0,108.0,4.3,5.5,PF,27.9,2005,1.3,UTA,4.2,14.0
24.0,4.7,0.4,105.0,11.3,0.549,11.7,21.3,0.0,0.0,0.0,0.549,11.7,21.3,0.723,5.3,7.3,33.0,19.0,NBA,1025.0,113.0,3.9,5.6,PF,28.6,2006,1.6,UTA,3.7,15.2
25.0,4.5,0.4,104.0,13.0,0.561,13.3,23.6,0.0,0.0,0.0,0.561,13.3,23.6,0.685,5.2,7.6,74.0,74.0,NBA,2557.0,114.0,4.8,4.4,PF,31.7,2007,1.4,UTA,4.0,17.8
26.0,4.2,0.7,103.0,11.8,0.547,12.9,23.6,0.0,0.0,0.0,0.547,12.9,23.6,0.738,5.3,7.2,81.0,81.0,NBA,2827.0,112.0,3.6,5.3,PF,31.1,2008,1.8,UTA,3.8,15.4
27.0,3.4,0.3,105.0,11.8,0.49,10.8,22.0,0.0,0.0,0.0,0.49,10.8,22.0,0.698,4.2,6.0,37.0,37.0,NBA,1197.0,105.0,4.8,5.7,PF,25.8,2009,1.7,UTA,3.4,16.6
28.0,4.7,0.7,102.0,13.3,0.562,11.8,21.0,0.0,0.0,0.0,0.562,11.8,21.0,0.742,5.5,7.4,78.0,78.0,NBA,2673.0,112.0,3.5,5.2,PF,29.1,2010,1.6,UTA,4.1,16.7
29.0,4.1,0.5,99.0,12.3,0.51,12.2,23.9,0.0,0.0,0.0,0.51,12.2,23.9,0.701,4.8,6.9,59.0,59.0,NBA,1882.0,105.0,3.7,5.3,C,29.2,2011,1.3,CHI,4.2,15.9
30.0,3.5,0.7,95.0,12.4,0.533,12.4,23.2,0.0,0.0,0.0,0.532,12.4,23.3,0.693,2.6,3.8,66.0,66.0,NBA,1948.0,108.0,3.2,4.6,PF,27.4,2012,1.7,CHI,3.2,15.6
31.0,3.8,0.6,100.0,12.6,0.478,11.5,24.0,0.0,0.0,0.0,0.477,11.5,24.1,0.731,4.1,5.6,79.0,79.0,NBA,2546.0,101.0,3.7,5.0,PF,27.0,2013,1.4,CHI,3.7,16.3
32.0,2.9,0.5,98.0,12.3,0.457,11.1,24.3,0.0,0.0,0.0,0.456,11.1,24.4,0.767,3.7,4.8,76.0,76.0,NBA,2141.0,95.0,3.4,5.4,PF,25.9,2014,1.3,CHI,3.8,15.7
33.0,2.9,0.4,109.0,11.2,0.499,11.2,22.4,0.0,0.0,0.0,0.499,11.2,22.4,0.627,2.8,4.5,71.0,26.0,NBA,1692.0,102.0,3.4,5.6,PF,25.2,2015,1.2,LAL,2.8,14.5
