age,ast_per_g,blk_per_g,drb_per_g,efg_pct,fg2_pct,fg2_per_g,fg2a_per_g,fg3_pct,fg3_per_g,fg3a_per_g,fg_pct,fg_per_g,fga_per_g,ft_pct,ft_per_g,fta_per_g,g,gs,lg_id,mp_per_g,orb_per_g,pf_per_g,pos,pts_per_g,season,stl_per_g,team_id,tov_per_g,trb_per_g
21.0,1.3,0.6,5.0,0.536,0.536,4.1,7.6,0.0,0.0,0.0,0.536,4.1,7.6,0.771,1.8,2.4,81.0,54.0,NBA,25.3,2.5,2.8,PF,10.0,2003,0.7,CLE,1.3,7.5
22.0,2.0,0.7,8.4,0.524,0.526,6.3,11.9,0.167,0.0,0.1,0.523,6.3,12.0,0.768,2.9,3.8,75.0,75.0,NBA,34.6,3.1,2.7,PF,15.5,2004,1.0,CLE,1.8,11.4
23.0,2.8,0.5,6.2,0.521,0.522,7.1,13.6,0.0,0.0,0.0,0.521,7.1,13.6,0.698,3.7,5.3,51.0,51.0,NBA,34.7,2.8,3.5,PF,17.8,2005,0.8,UTA,2.7,9.0
24.0,2.7,0.2,6.4,0.549,0.549,6.6,12.1,0.0,0.0,0.0,0.549,6.6,12.1,0.723,3.0,4.2,33.0,19.0,NBA,31.1,2.2,3.2,PF,16.3,2006,0.9,UTA,2.1,8.6
25.0,3.0,0.3,8.5,0.561,0.561,8.7,15.6,0.0,0.0,0.0,0.561,8.7,15.6,0.685,3.4,5.0,74.0,74.0,NBA,34.6,3.2,2.9,PF,20.9,2007,0.9,UTA,2.6,11.7
26.0,2.9,0.5,8.0,0.547,0.547,8.8,16.0,0.0,0.0,0.0,0.547,8.8,16.0,0.738,3.6,4.9,81.0,81.0,NBA,34.9,2.4,3.6,PF,21.1,2008,1.2,UTA,2.6,10.4
27.0,2.1,0.2,7.4,0.49,0.49,6.8,13.8,0.0,0.0,0.0,0.49,6.8,13.8,0.698,2.6,3.8,37.0,37.0,NBA,32.4,3.0,3.6,PF,16.2,2009,1.1,UTA,2.1,10.4
28.0,3.2,0.5,8.9,0.562,0.562,7.9,14.1,0.0,0.0,0.0,0.562,7.9,14.1,0.742,3.7,4.9,78.0,78.0,NBA,34.3,2.3,3.5,PF,19.5,2010,1.1,UTA,2.7,11.2
29.0,2.5,0.3,7.4,0.51,0.51,7.3,14.3,0.0,0.0,0.0,0.51,7.3,14.3,0.701,2.9,4.1,59.0,59.0,NBA,31.9,2.2,3.2,C,17.5,2011,0.8,CHI,2.5,9.6
30.0,1.9,0.4,6.8,0.532,0.533,6.8,12.7,0.0,0.0,0.0,0.532,6.8,12.8,0.693,1.4,2.1,66.0,66.0,NBA,29.5,1.7,2.5,PF,15.0,2012,1.0,CHI,1.7,8.5
31.0,2.3,0.4,7.5,0.477,0.478,6.9,14.4,0.0,0.0,0.0,0.477,6.9,14.4,0.731,2.4,3.3,79.0,79.0,NBA,32.2,2.2,3.0,PF,16.2,2013,0.8,CHI,2.2,9.8
32.0,1.6,0.3,6.5,0.456,0.457,5.9,12.9,0.0,0.0,0.0,0.456,5.9,12.9,0.767,1.9,2.5,76.0,76.0,NBA,28.2,1.8,2.8,PF,13.7,2014,0.7,CHI,2.0,8.3
33.0,1.3,0.2,5.2,0.499,0.499,5.2,10.5,0.0,0.0,0.0,0.499,5.2,10.5,0.627,1.3,2.1,71.0,26.0,NBA,23.8,1.6,2.6,PF,11.8,2015,0.6,LAL,1.3,6.8
