age,ast,blk,drb,fg,fg2,fg2a,fg3,fg3a,fga,ft,fta,game_score,lg_id,mp,orb,pf,pts,season,stl,team_id,tov,trb
23.0,5.0,1.0,7.0,4.0,2.0,6.0,4.0,10.0,12.0,3.0,4.0,13.8,NBA,37,3.0,6.0,15.0,2017,2.0,DAL,4.0,9.0
24.0,0.0,0.0,1.0,0.0,0.0,0.0,0.0,1.0,1.0,0.0,0.0,0.3,NBA,7,0.0,0.0,0.0,2018,0.0,ATL,0.0,1.0
