age,ast_pct,blk_pct,bpm,bpm-dum,dbpm,drb_pct,dws,fg3a_per_fga_pct,fta_per_fga_pct,g,lg_id,mp,obpm,orb_pct,ows,per,pos,season,stl_pct,team_id,tov_pct,trb_pct,ts_pct,usg_pct,vorp,ws,ws-dum,ws_per_48
22.0,10.0,3.4,-0.5,0.0,0.4,14.7,2.1,0.002,0.268,80.0,NBA,1186.0,-0.8,9.1,0.3,14.7,PF,1982,1.7,PHO,17.6,11.9,0.543,20.6,0.5,2.4,0.0,0.098
23.0,9.7,4.2,4.6,0.0,2.2,17.1,5.6,0.003,0.268,82.0,NBA,2914.0,2.5,9.5,4.8,18.7,PF,1983,1.6,PHO,13.7,13.5,0.573,19.4,4.9,10.5,0.0,0.172
24.0,10.2,3.5,4.3,0.0,2.2,18.3,3.7,0.007,0.337,82.0,NBA,2899.0,2.2,9.1,6.2,19.4,PF,1984,1.4,PHO,12.9,13.7,0.605,19.5,4.7,9.8,0.0,0.163
25.0,11.1,2.6,5.2,0.0,1.9,17.3,3.2,0.002,0.29,61.0,NBA,2202.0,3.3,10.2,4.7,20.6,PF,1985,1.9,PHO,12.1,13.8,0.612,20.8,4.0,7.9,0.0,0.173
26.0,14.8,2.9,4.2,0.0,1.7,20.0,3.2,0.008,0.444,73.0,NBA,2484.0,2.5,8.2,5.3,20.5,PF,1986,1.3,PHO,14.9,14.3,0.616,22.6,3.9,8.4,0.0,0.163
27.0,13.5,3.3,5.4,0.0,1.7,17.6,2.8,0.005,0.464,69.0,NBA,2569.0,3.7,8.4,7.3,22.2,PF,1987,1.6,PHO,10.4,13.1,0.607,22.6,4.8,10.2,0.0,0.19
28.0,12.9,3.9,4.0,0.0,2.0,19.8,2.9,0.007,0.424,67.0,NBA,2383.0,2.0,9.3,5.1,20.3,PF,1988,1.3,TOT,12.4,14.6,0.586,21.7,3.6,8.0,0.0,0.161
28.0,12.3,3.8,3.6,0.0,1.8,21.1,1.6,0.008,0.404,40.0,NBA,1477.0,1.8,9.0,2.8,20.5,PF,1988,1.4,PHO,12.7,15.0,0.581,22.9,2.1,4.3,0.0,0.141
28.0,14.0,4.1,4.7,0.0,2.4,17.6,1.3,0.003,0.464,27.0,NBA,906.0,2.3,9.9,2.3,19.9,PF,1988,1.0,CLE,11.8,13.8,0.597,19.6,1.5,3.6,0.0,0.192
29.0,9.2,4.7,4.0,0.0,2.9,18.0,4.7,0.004,0.363,73.0,NBA,2526.0,1.1,7.4,5.7,19.9,PF,1989,1.1,CLE,9.9,13.0,0.59,19.9,3.8,10.3,0.0,0.197
30.0,12.8,3.5,2.8,0.0,2.2,19.4,3.0,0.001,0.296,62.0,NBA,2065.0,0.6,8.7,3.5,19.1,PF,1990,1.3,CLE,10.8,14.0,0.554,21.4,2.5,6.5,0.0,0.152
31.0,13.4,4.1,3.9,0.0,1.9,19.2,3.6,0.007,0.273,80.0,NBA,2927.0,2.0,8.0,6.1,20.6,PF,1991,1.1,CLE,8.8,13.6,0.567,22.2,4.3,9.8,0.0,0.16
32.0,12.0,4.9,5.8,0.0,2.8,17.1,4.0,0.006,0.31,81.0,NBA,2880.0,2.9,8.6,8.2,21.4,PF,1992,1.4,CLE,6.9,13.0,0.586,19.1,5.7,12.2,0.0,0.204
33.0,12.1,4.4,4.4,0.0,2.7,19.3,4.4,0.004,0.254,77.0,NBA,2753.0,1.7,8.0,6.3,19.8,PF,1993,1.0,CLE,9.0,13.9,0.587,19.1,4.4,10.7,0.0,0.187
34.0,8.7,4.0,1.6,0.0,2.0,19.2,1.4,0.0,0.271,33.0,NBA,909.0,-0.4,9.8,1.4,17.1,PF,1994,1.6,CLE,9.8,14.5,0.526,19.2,0.8,2.8,0.0,0.146
