age,ast,blk,drb,fg,fg2,fg2a,fg3,fg3a,fga,ft,fta,game_score,lg_id,mp,orb,pf,pts,season,stl,team_id,tov,trb
22.0,5.0,4.0,0.0,12.0,12.0,16.0,0.0,1.0,16.0,5.0,7.0,0.0,NBA,0.0,0.0,6.0,29.0,1982,4.0,PHO,5.0,10.0
23.0,8.0,7.0,0.0,14.0,14.0,22.0,1.0,1.0,22.0,8.0,11.0,0.0,NBA,0.0,0.0,6.0,31.0,1983,6.0,PHO,5.0,15.0
24.0,9.0,7.0,11.0,15.0,15.0,24.0,0.0,1.0,24.0,13.0,16.0,35.4,NBA,0.0,8.0,6.0,36.0,1984,4.0,PHO,6.0,15.0
25.0,11.0,6.0,13.0,19.0,19.0,29.0,1.0,1.0,29.0,9.0,11.0,42.2,NBA,0.0,10.0,6.0,44.0,1985,5.0,PHO,6.0,17.0
26.0,8.0,7.0,13.0,19.0,19.0,26.0,0.0,2.0,26.0,12.0,16.0,42.1,NBA,0.0,10.0,6.0,44.0,1986,4.0,PHO,8.0,16.0
27.0,8.0,6.0,15.0,14.0,14.0,24.0,1.0,1.0,24.0,12.0,18.0,33.2,NBA,0.0,7.0,6.0,35.0,1987,4.0,PHO,6.0,21.0
28.0,9.0,10.0,13.0,17.0,17.0,25.0,1.0,1.0,25.0,12.0,18.0,40.4,NBA,0.0,8.0,6.0,45.0,1988,5.0,TOT,8.0,18.0
28.0,6.0,10.0,13.0,17.0,17.0,25.0,1.0,1.0,25.0,11.0,18.0,40.4,NBA,0.0,8.0,6.0,45.0,1988,5.0,PHO,8.0,18.0
28.0,9.0,6.0,11.0,11.0,11.0,19.0,0.0,1.0,19.0,12.0,16.0,29.6,NBA,0.0,7.0,6.0,29.0,1988,3.0,CLE,5.0,13.0
29.0,7.0,11.0,13.0,14.0,14.0,20.0,0.0,1.0,20.0,12.0,13.0,29.2,NBA,0.0,5.0,5.0,33.0,1989,4.0,CLE,6.0,18.0
30.0,7.0,6.0,13.0,13.0,13.0,19.0,1.0,1.0,19.0,11.0,12.0,32.5,NBA,0.0,5.0,6.0,31.0,1990,3.0,CLE,5.0,16.0
31.0,8.0,6.0,14.0,13.0,13.0,23.0,1.0,2.0,23.0,12.0,13.0,36.5,NBA,0.0,7.0,6.0,34.0,1991,5.0,CLE,6.0,17.0
32.0,14.0,8.0,13.0,16.0,16.0,22.0,0.0,1.0,22.0,12.0,14.0,35.5,NBA,0.0,8.0,6.0,35.0,1992,4.0,CLE,4.0,17.0
33.0,9.0,8.0,13.0,12.0,12.0,19.0,0.0,2.0,19.0,8.0,8.0,32.2,NBA,0.0,7.0,6.0,30.0,1993,3.0,CLE,4.0,17.0
34.0,5.0,5.0,11.0,11.0,11.0,18.0,0.0,0.0,18.0,6.0,9.0,27.5,NBA,0.0,7.0,6.0,22.0,1994,4.0,CLE,4.0,14.0
