age,ast_per_g,blk_per_g,drb_per_g,efg_pct,fg2_pct,fg2_per_g,fg2a_per_g,fg3_pct,fg3_per_g,fg3a_per_g,fg_pct,fg_per_g,fga_per_g,ft_pct,ft_per_g,fta_per_g,g,gs,lg_id,mp_per_g,orb_per_g,pf_per_g,pos,pts_per_g,season,stl_per_g,team_id,tov_per_g,trb_per_g
22.0,2.1,0.1,2.3,0.422,0.391,3.4,8.8,0.337,1.1,3.3,0.376,4.6,12.1,0.71,1.5,2.2,78.0,23.0,NBA,29.8,0.7,2.3,PF,11.8,2007,0.4,CHA,1.7,2.9
24.0,0.8,0.1,1.2,0.43,0.378,0.9,2.4,0.333,0.6,1.8,0.359,1.5,4.3,0.739,0.3,0.4,52.0,5.0,NBA,13.7,0.3,1.5,SF,4.0,2009,0.2,TOT,0.6,1.5
24.0,0.9,0.1,1.3,0.434,0.378,1.0,2.7,0.337,0.7,2.1,0.36,1.7,4.8,0.762,0.4,0.5,44.0,5.0,NBA,15.2,0.4,1.7,SF,4.5,2009,0.2,CHA,0.7,1.6
24.0,0.4,0.0,0.8,0.375,0.375,0.4,1.0,0.25,0.1,0.5,0.333,0.5,1.5,0.5,0.1,0.3,8.0,0.0,NBA,5.5,0.3,0.5,SF,1.3,2009,0.0,LAL,0.4,1.0
25.0,0.6,0.1,0.7,0.406,0.422,0.9,2.1,0.238,0.2,0.7,0.376,1.0,2.7,0.625,0.2,0.3,31.0,0.0,NBA,7.8,0.3,0.5,SF,2.4,2010,0.1,LAL,0.3,1.0
