age,ast,ast_per_g,blk,college_id,fg,fg3,fg3_pct,fg3a,fg_pct,fga,ft,ft_pct,fta,g,mp,mp_per_g,orb,pf,pts,pts_per_g,season,stl,tov,trb,trb_per_g
18.0,13.0,0.3,2.0,DUKE,54.0,36.0,0.379,95.0,0.397,136.0,25.0,0.735,34.0,38.0,477.0,12.6,6.0,36.0,169.0,4.4,2010,11.0,15.0,43.0,1.1
19.0,21.0,0.6,4.0,DUKE,100.0,64.0,0.427,150.0,0.481,208.0,34.0,0.791,43.0,37.0,778.0,21.0,9.0,59.0,298.0,8.1,2011,21.0,28.0,70.0,1.9
20.0,20.0,0.6,2.0,DUKE,92.0,67.0,0.392,171.0,0.4,230.0,34.0,0.739,46.0,34.0,760.0,22.4,11.0,62.0,285.0,8.4,2012,14.0,27.0,70.0,2.1
22.0,12.0,0.4,5.0,DUKE,84.0,64.0,0.421,152.0,0.444,189.0,30.0,0.811,37.0,33.0,453.0,13.7,6.0,43.0,262.0,7.9,2014,15.0,18.0,43.0,1.3
