age,ast_pct,blk_pct,bpm,bpm-dum,dbpm,drb_pct,dws,fg3a_per_fga_pct,fta_per_fga_pct,g,lg_id,mp,obpm,orb_pct,ows,per,pos,season,stl_pct,team_id,tov_pct,trb_pct,ts_pct,usg_pct,vorp,ws,ws-dum,ws_per_48
21.0,5.5,1.6,-8.6,0.0,-1.6,19.1,0.4,0.02,0.152,38.0,NBA,280.0,-7.0,5.3,-0.4,7.8,SF,2013,0.9,OKC,12.4,12.7,0.417,19.6,-0.5,0.0,0.0,-0.003
22.0,4.9,2.0,-2.5,0.0,-0.5,12.1,0.8,0.337,0.232,62.0,NBA,764.0,-2.0,4.3,0.7,10.1,PF,2014,0.9,OKC,9.5,8.4,0.541,12.8,-0.1,1.5,0.0,0.094
23.0,4.2,1.0,-5.4,0.0,-1.2,11.7,0.5,0.326,0.201,43.0,NBA,631.0,-4.2,1.0,-0.3,6.9,SF,2015,1.4,OKC,10.7,6.5,0.459,15.3,-0.5,0.2,0.0,0.015
