lg_id,salary,season,team_name
NBA,1191240.0,2007,New York Knicks
NBA,1280640.0,2008,New York Knicks
NBA,1369920.0,2009,Denver Nuggets
NBA,2112417.0,2010,Denver Nuggets
NBA,1675000.0,2011,New York Knicks
NBA,1675000.0,2012,New York Knicks
NBA,1675000.0,2013,New York Knicks
