age,ast,blk,drb,efg_pct,fg,fg2,fg2_pct,fg2a,fg3,fg3_pct,fg3a,fg_pct,fga,ft,ft_pct,fta,g,gs,lg_id,mp,orb,pf,pos,pts,season,stl,team_id,tov,trb
22.0,11.0,1.0,7.0,0.444,19.0,17.0,0.415,41.0,2.0,0.5,4.0,0.422,45.0,10.0,0.769,13.0,10.0,0.0,NBA,129.0,6.0,21.0,SG,50.0,1982,2.0,BOS,11.0,13.0
23.0,25.0,1.0,12.0,0.403,28.0,26.0,0.388,67.0,2.0,0.4,5.0,0.389,72.0,8.0,0.727,11.0,7.0,0.0,NBA,201.0,2.0,24.0,SG,66.0,1983,5.0,BOS,6.0,14.0
24.0,38.0,2.0,12.0,0.467,41.0,39.0,0.481,81.0,2.0,0.222,9.0,0.456,90.0,7.0,0.7,10.0,19.0,0.0,NBA,253.0,4.0,36.0,SG,91.0,1984,9.0,BOS,13.0,16.0
25.0,121.0,1.0,38.0,0.483,97.0,90.0,0.469,192.0,7.0,0.438,16.0,0.466,208.0,30.0,0.769,39.0,21.0,21.0,NBA,687.0,20.0,76.0,SG,231.0,1985,32.0,BOS,32.0,58.0
26.0,93.0,1.0,54.0,0.591,107.0,93.0,0.585,159.0,14.0,0.412,34.0,0.554,193.0,52.0,0.867,60.0,18.0,18.0,NBA,652.0,22.0,57.0,SG,280.0,1986,41.0,BOS,31.0,76.0
27.0,92.0,4.0,39.0,0.555,116.0,84.0,0.509,165.0,32.0,0.438,73.0,0.487,238.0,31.0,0.861,36.0,20.0,19.0,NBA,762.0,13.0,62.0,SG,295.0,1987,24.0,BOS,41.0,52.0
28.0,109.0,1.0,38.0,0.438,71.0,52.0,0.413,126.0,19.0,0.328,58.0,0.386,184.0,37.0,0.881,42.0,17.0,17.0,NBA,670.0,15.0,64.0,SG,198.0,1988,9.0,BOS,41.0,53.0
31.0,31.0,4.0,27.0,0.5,47.0,36.0,0.522,69.0,11.0,0.306,36.0,0.448,105.0,23.0,0.821,28.0,16.0,0.0,NBA,277.0,1.0,33.0,SG,128.0,1991,12.0,POR,24.0,28.0
32.0,49.0,1.0,32.0,0.541,81.0,60.0,0.513,117.0,21.0,0.404,52.0,0.479,169.0,39.0,0.83,47.0,21.0,0.0,NBA,449.0,8.0,58.0,SG,222.0,1992,15.0,POR,25.0,40.0
33.0,56.0,2.0,40.0,0.474,64.0,31.0,0.344,90.0,33.0,0.413,80.0,0.376,170.0,34.0,0.872,39.0,24.0,0.0,NBA,591.0,20.0,61.0,SG,195.0,1993,12.0,PHO,22.0,60.0
34.0,21.0,1.0,16.0,0.602,27.0,10.0,0.526,19.0,17.0,0.425,40.0,0.458,59.0,15.0,0.714,21.0,10.0,0.0,NBA,230.0,7.0,26.0,SG,86.0,1994,6.0,PHO,5.0,23.0
35.0,10.0,0.0,8.0,0.658,19.0,7.0,0.583,12.0,12.0,0.462,26.0,0.5,38.0,10.0,0.909,11.0,10.0,0.0,NBA,137.0,2.0,15.0,SG,60.0,1995,5.0,PHO,6.0,10.0
