lg_id,salary,season,team_name
NBA,400000.0,1985,Boston Celtics
NBA,550000.0,1986,Boston Celtics
NBA,625000.0,1988,Boston Celtics
NBA,675000.0,1989,Boston Celtics
NBA,725000.0,1991,Portland Trail Blazers
NBA,725000.0,1992,Portland Trail Blazers
NBA,1330000.0,1993,Phoenix Suns
NBA,1690000.0,1994,Phoenix Suns
NBA,2080000.0,1995,Phoenix Suns
