age,ast,ast_per_g,blk,college_id,fg,fg3,fg3_pct,fg3a,fg_pct,fga,ft,ft_pct,fta,g,mp,mp_per_g,orb,pf,pts,pts_per_g,season,stl,tov,trb,trb_per_g
18.0,158.0,5.3,0.0,BYU,243.0,0.0,0.0,0.0,0.514,473.0,146.0,0.864,169.0,30.0,0.0,0.0,0.0,0.0,632.0,21.1,1978,0.0,0.0,173.0,5.8
19.0,122.0,4.5,0.0,BYU,206.0,0.0,0.0,0.0,0.548,376.0,86.0,0.768,112.0,27.0,922.0,34.1,0.0,0.0,498.0,18.4,1979,0.0,0.0,102.0,3.8
20.0,132.0,4.6,0.0,BYU,229.0,0.0,0.0,0.0,0.533,430.0,97.0,0.782,124.0,29.0,984.0,33.9,0.0,0.0,555.0,19.1,1980,0.0,0.0,114.0,3.9
21.0,127.0,4.0,0.0,BYU,309.0,0.0,0.0,0.0,0.518,596.0,164.0,0.824,199.0,32.0,1212.0,37.9,0.0,0.0,782.0,24.4,1981,0.0,0.0,152.0,4.8
