age,ast_per_poss,blk_per_poss,def_rtg,drb_per_poss,fg2_pct,fg2_per_poss,fg2a_per_poss,fg3_pct,fg3_per_poss,fg3a_per_poss,fg_pct,fg_per_poss,fga_per_poss,ft_pct,ft_per_poss,fta_per_poss,g,gs,lg_id,mp,off_rtg,orb_per_poss,pf_per_poss,pos,pts_per_poss,season,stl_per_poss,team_id,tov_per_poss,trb_per_poss
22.0,4.2,0.4,105.0,2.7,0.415,6.5,15.6,0.5,0.8,1.5,0.422,7.2,17.1,0.769,3.8,4.9,10.0,0.0,NBA,129.0,98.0,2.3,8.0,SG,19.0,1982,0.8,BOS,4.2,4.9
23.0,6.2,0.2,106.0,3.0,0.388,6.5,16.6,0.4,0.5,1.2,0.389,6.9,17.9,0.727,2.0,2.7,7.0,0.0,NBA,201.0,97.0,0.5,6.0,SG,16.4,1983,1.2,BOS,1.5,3.5
24.0,7.4,0.4,110.0,2.3,0.481,7.5,15.7,0.222,0.4,1.7,0.456,7.9,17.4,0.7,1.4,1.9,19.0,0.0,NBA,253.0,105.0,0.8,7.0,SG,17.6,1984,1.7,BOS,2.5,3.1
25.0,8.3,0.1,111.0,2.6,0.469,6.2,13.2,0.438,0.5,1.1,0.466,6.7,14.3,0.769,2.1,2.7,21.0,21.0,NBA,687.0,112.0,1.4,5.2,SG,15.9,1985,2.2,BOS,2.2,4.0
26.0,7.0,0.1,105.0,4.0,0.585,7.0,11.9,0.412,1.0,2.5,0.554,8.0,14.4,0.867,3.9,4.5,18.0,18.0,NBA,652.0,128.0,1.6,4.3,SG,21.0,1986,3.1,BOS,2.3,5.7
27.0,6.0,0.3,118.0,2.5,0.509,5.4,10.7,0.438,2.1,4.7,0.487,7.5,15.4,0.861,2.0,2.3,20.0,19.0,NBA,762.0,113.0,0.8,4.0,SG,19.1,1987,1.6,BOS,2.7,3.4
28.0,8.5,0.1,113.0,3.0,0.413,4.0,9.8,0.328,1.5,4.5,0.386,5.5,14.3,0.881,2.9,3.3,17.0,17.0,NBA,670.0,102.0,1.2,5.0,SG,15.4,1988,0.7,BOS,3.2,4.1
31.0,5.7,0.7,110.0,5.0,0.522,6.7,12.8,0.306,2.0,6.7,0.448,8.7,19.4,0.821,4.3,5.2,16.0,0.0,NBA,277.0,103.0,0.2,6.1,SG,23.7,1991,2.2,POR,4.4,5.2
32.0,5.5,0.1,113.0,3.6,0.513,6.8,13.2,0.404,2.4,5.9,0.479,9.2,19.1,0.83,4.4,5.3,21.0,0.0,NBA,449.0,118.0,0.9,6.6,SG,25.1,1992,1.7,POR,2.8,4.5
33.0,4.9,0.2,114.0,3.5,0.344,2.7,7.9,0.413,2.9,7.0,0.376,5.6,14.9,0.872,3.0,3.4,24.0,0.0,NBA,591.0,112.0,1.8,5.3,SG,17.1,1993,1.1,PHO,1.9,5.3
34.0,4.6,0.2,115.0,3.5,0.526,2.2,4.2,0.425,3.7,8.8,0.458,5.9,12.9,0.714,3.3,4.6,10.0,0.0,NBA,230.0,133.0,1.5,5.7,SG,18.8,1994,1.3,PHO,1.1,5.0
35.0,3.8,0.0,116.0,3.0,0.583,2.6,4.5,0.462,4.5,9.8,0.5,7.2,14.4,0.909,3.8,4.2,10.0,0.0,NBA,137.0,133.0,0.8,5.7,SG,22.7,1995,1.9,PHO,2.3,3.8
