age,ast_per_mp,blk_per_mp,drb_per_mp,fg2_pct,fg2_per_mp,fg2a_per_mp,fg3_pct,fg3_per_mp,fg3a_per_mp,fg_pct,fg_per_mp,fga_per_mp,ft_pct,ft_per_mp,fta_per_mp,g,gs,lg_id,mp,orb_per_mp,pf_per_mp,pos,pts_per_mp,season,stl_per_mp,team_id,tov_per_mp,trb_per_mp
19.0,0.9,1.1,3.9,0.51,4.2,8.2,0.274,0.6,2.1,0.461,4.7,10.3,0.57,1.3,2.3,76.0,59.0,NBA,1974.0,2.2,2.6,SF,11.4,2013,1.6,ORL,1.3,6.1
20.0,1.5,0.9,3.6,0.502,3.0,6.1,0.383,1.1,2.8,0.464,4.1,8.9,0.594,1.6,2.6,80.0,41.0,NBA,1950.0,1.3,2.6,SF,10.9,2014,1.8,ORL,1.6,4.9
21.0,1.3,0.5,3.6,0.52,2.8,5.4,0.179,0.5,3.0,0.399,3.4,8.4,0.537,1.2,2.2,45.0,4.0,NBA,674.0,2.0,3.5,SF,8.4,2015,1.7,ORL,1.4,5.7
22.0,1.7,0.9,4.4,0.576,3.9,6.7,0.279,1.0,3.5,0.474,4.8,10.2,0.622,1.7,2.7,78.0,14.0,NBA,1457.0,2.5,3.1,SF,12.3,2016,1.2,POR,1.5,6.9
23.0,1.4,1.1,3.5,0.572,4.0,7.0,0.351,1.1,3.1,0.503,5.1,10.1,0.621,1.2,2.0,77.0,69.0,NBA,2223.0,2.0,3.5,SF,12.5,2017,1.4,POR,1.4,5.5
24.0,1.5,1.2,3.3,0.547,2.8,5.1,0.415,1.4,3.4,0.495,4.2,8.5,0.712,1.2,1.7,59.0,36.0,NBA,1264.0,1.3,2.9,SF,11.0,2018,1.4,POR,1.1,4.6
25.0,1.9,1.3,4.9,0.582,4.0,6.8,0.275,0.8,3.1,0.487,4.8,9.9,0.671,1.2,1.9,60.0,53.0,NBA,1415.0,2.0,4.1,SF,11.7,2019,1.7,POR,1.1,6.8
26.0,1.6,0.9,3.4,0.636,3.8,5.9,0.25,0.5,2.1,0.533,4.3,8.1,0.583,0.9,1.6,12.0,2.0,NBA,268.0,1.3,5.8,PF,10.1,2020,1.6,LAC,1.5,4.7
