age,ast,blk,drb,efg_pct,fg,fg2,fg2_pct,fg2a,fg3,fg3_pct,fg3a,fg_pct,fga,ft,ft_pct,fta,g,gs,lg_id,mp,orb,pf,pos,pts,season,stl,team_id,tov,trb
22.0,7.0,3.0,34.0,0.495,47.0,32.0,0.485,66.0,15.0,0.341,44.0,0.427,110.0,12.0,0.48,25.0,11.0,11.0,NBA,272.0,22.0,38.0,SF,121.0,2016,10.0,POR,11.0,56.0
23.0,3.0,5.0,6.0,0.324,10.0,8.0,0.364,22.0,2.0,0.167,12.0,0.294,34.0,7.0,0.875,8.0,4.0,4.0,NBA,99.0,7.0,14.0,SF,29.0,2017,5.0,POR,1.0,13.0
24.0,4.0,1.0,5.0,0.615,7.0,5.0,0.714,7.0,2.0,0.333,6.0,0.538,13.0,0.0,0.0,0.0,2.0,1.0,NBA,53.0,3.0,4.0,SF,16.0,2018,0.0,POR,1.0,8.0
25.0,23.0,16.0,49.0,0.509,52.0,45.0,0.556,81.0,7.0,0.25,28.0,0.477,109.0,23.0,0.639,36.0,16.0,16.0,NBA,388.0,29.0,56.0,SF,134.0,2019,18.0,POR,17.0,78.0
