age,and1s,astd_pts,drawn_offensive,drawn_shooting,fouls_offensive,fouls_shooting,g,lg_id,mp,own_shots_blk,pct_1,pct_2,pct_3,pct_4,pct_5,plus_minus_net,plus_minus_on,pos,season,team_id,tov_bad_pass,tov_lost_ball
19.0,14.0,111.0,7.0,57.0,9.0,72.0,76.0,NBA,1974.0,52.0,0.0,8.0,82.0,11.0,0.0,-8.5,-12.0,SF,2013,ORL,33.0,18.0
20.0,13.0,179.0,11.0,68.0,14.0,74.0,80.0,NBA,1950.0,44.0,0.0,1.0,86.0,13.0,0.0,-3.9,-7.8,SF,2014,ORL,30.0,21.0
21.0,5.0,55.0,2.0,18.0,5.0,36.0,45.0,NBA,674.0,8.0,0.0,6.0,80.0,14.0,0.0,0.9,-5.3,SF,2015,ORL,14.0,7.0
22.0,9.0,161.0,2.0,50.0,8.0,77.0,78.0,NBA,1457.0,29.0,0.0,2.0,70.0,28.0,0.0,0.9,1.3,SF,2016,POR,19.0,19.0
23.0,13.0,217.0,3.0,57.0,8.0,117.0,77.0,NBA,2223.0,51.0,0.0,0.0,68.0,32.0,0.0,6.6,2.7,SF,2017,POR,25.0,34.0
24.0,5.0,131.0,2.0,26.0,9.0,59.0,59.0,NBA,1264.0,17.0,0.0,0.0,78.0,22.0,0.0,-3.7,0.3,SF,2018,POR,14.0,9.0
25.0,9.0,175.0,3.0,38.0,10.0,81.0,60.0,NBA,1415.0,21.0,0.0,0.0,80.0,20.0,0.0,5.8,7.6,SF,2019,POR,21.0,9.0
26.0,0.0,30.0,1.0,6.0,5.0,21.0,12.0,NBA,268.0,1.0,0.0,0.0,70.0,30.0,0.0,-5.8,0.0,PF,2020,LAC,3.0,0.0
