lg_id,salary,season,team_name
NBA,150000.0,1989,Charlotte Hornets
NBA,405000.0,1991,Golden State Warriors
NBA,506000.0,1992,Golden State Warriors
NBA,606000.0,1993,Golden State Warriors
NBA,650000.0,1994,Los Angeles Clippers
NBA,325000.0,1995,Charlotte Hornets
