age,ast_per_g,blk_per_g,drb_per_g,efg_pct,fg2_pct,fg2_per_g,fg2a_per_g,fg3_pct,fg3_per_g,fg3a_per_g,fg_pct,fg_per_g,fga_per_g,ft_pct,ft_per_g,fta_per_g,g,gs,lg_id,mp_per_g,orb_per_g,pf_per_g,pos,pts_per_g,season,stl_per_g,team_id,tov_per_g,trb_per_g
23.0,0.5,0.3,1.0,0.459,0.5,1.2,2.4,0.0,0.0,0.2,0.459,1.2,2.6,0.5,0.4,0.9,14.0,0.0,NBA,8.4,0.5,1.4,SF,2.9,1989,0.1,CHH,0.1,1.5
24.0,0.8,0.4,3.4,0.499,0.502,3.0,6.1,0.278,0.1,0.3,0.493,3.1,6.3,0.726,2.5,3.4,70.0,21.0,NBA,19.2,1.7,2.7,PF,8.8,1990,0.3,GSW,1.1,5.2
25.0,1.2,0.6,3.0,0.431,0.427,2.8,6.6,0.333,0.1,0.3,0.423,3.0,7.0,0.738,2.0,2.8,62.0,32.0,NBA,22.1,1.4,3.1,PF,8.1,1991,0.6,GSW,1.3,4.4
26.0,0.6,0.2,1.2,0.395,0.397,0.9,2.2,0.25,0.1,0.2,0.384,0.9,2.5,0.55,0.6,1.1,35.0,0.0,NBA,8.9,0.4,2.1,PF,2.6,1992,0.3,GSW,0.6,1.6
27.0,1.3,0.3,3.9,0.508,0.509,3.0,5.9,0.321,0.1,0.4,0.498,3.1,6.3,0.726,1.7,2.3,72.0,61.0,NBA,25.5,1.8,2.7,PF,8.1,1993,0.5,ORL,1.7,5.7
28.0,0.6,0.3,1.5,0.435,0.422,1.4,3.3,0.375,0.1,0.3,0.418,1.5,3.6,0.733,0.7,0.9,49.0,6.0,NBA,13.1,0.7,1.2,SF,3.8,1994,0.3,LAC,0.8,2.2
29.0,0.2,0.0,1.0,0.333,0.429,0.6,1.4,0.0,0.0,0.4,0.333,0.6,1.8,1.0,0.2,0.2,10.0,0.0,NBA,5.7,0.7,0.9,PF,1.4,1995,0.0,CHH,0.3,1.7
