article_url,date,headline
https://hooplifetv.com/2019/09/17/the-quadruple-double-will-it-happen-again/,2019/09/17,HoopLifeTV: The Quadruple-Double: Will it Happen Again?
https://hoopshabit.com/2019/09/17/nba-top-10-candidates-2019-20-improved-player/,2019/09/17,Hoops Habit: NBA: Top 10 candidates for 2019-20 Most Improved Player
https://thescorecrow.com/2019/06/09/the-lone-raptor/,2019/06/09,The Scorecrow: The Lone Raptor
