age,ast_per_g,blk_per_g,drb_per_g,efg_pct,fg2_pct,fg2_per_g,fg2a_per_g,fg3_pct,fg3_per_g,fg3a_per_g,fg_pct,fg_per_g,fga_per_g,ft_pct,ft_per_g,fta_per_g,g,gs,lg_id,mp_per_g,orb_per_g,pf_per_g,pos,pts_per_g,season,stl_per_g,team_id,tov_per_g,trb_per_g
23.0,0.0,0.0,0.3,0.278,0.2,0.2,0.8,0.25,0.2,0.7,0.222,0.3,1.5,1.0,0.3,0.3,6.0,0.0,NBA,4.3,0.0,0.2,SF,1.2,2004,0.2,IND,0.0,0.3
24.0,0.8,0.4,1.8,0.5,0.395,0.8,2.0,0.398,0.9,2.2,0.396,1.7,4.2,0.855,0.7,0.8,75.0,24.0,NBA,17.7,0.5,1.6,SF,4.9,2005,0.4,IND,0.6,2.3
25.0,0.8,0.7,2.8,0.513,0.449,1.8,3.9,0.386,1.5,3.8,0.418,3.2,7.7,0.851,1.4,1.6,75.0,24.0,NBA,23.6,0.6,1.9,SF,9.3,2006,0.5,PHO,0.5,3.4
26.0,0.6,0.6,1.9,0.47,0.356,0.9,2.7,0.378,1.2,3.1,0.368,2.1,5.8,0.877,0.9,1.1,76.0,7.0,NBA,18.1,0.4,1.5,SF,6.4,2007,0.4,PHO,0.4,2.3
27.0,0.6,0.3,2.0,0.576,0.426,0.9,2.1,0.444,1.6,3.5,0.437,2.5,5.6,0.878,1.5,1.7,58.0,3.0,NBA,22.0,0.7,1.7,SF,8.0,2008,0.4,POR,0.5,2.8
28.0,0.5,0.4,1.3,0.48,0.415,0.6,1.3,0.344,0.8,2.4,0.369,1.4,3.7,0.839,0.7,0.8,40.0,1.0,NBA,15.8,0.3,1.5,SF,4.2,2009,0.3,MIA,0.3,1.6
29.0,0.5,0.1,1.1,0.517,0.207,0.2,0.8,0.411,1.0,2.5,0.361,1.2,3.3,0.821,0.6,0.8,36.0,6.0,NBA,14.0,0.1,1.3,SF,4.1,2010,0.3,MIA,0.3,1.3
30.0,0.5,0.2,1.7,0.6,0.39,0.3,0.7,0.429,1.5,3.5,0.422,1.8,4.3,0.833,0.7,0.9,81.0,8.0,NBA,19.1,0.3,1.6,SF,5.9,2011,0.4,MIA,0.3,2.0
31.0,0.4,0.2,0.8,0.533,0.306,0.2,0.7,0.404,0.9,2.2,0.38,1.1,2.9,0.833,0.5,0.6,51.0,10.0,NBA,13.1,0.1,0.9,SG,3.6,2012,0.3,MIA,0.2,1.0
32.0,0.3,0.2,0.6,0.475,0.625,0.1,0.2,0.302,0.4,1.4,0.344,0.6,1.6,0.5,0.1,0.1,38.0,0.0,NBA,5.8,0.0,0.4,SF,1.6,2013,0.1,MIA,0.1,0.6
33.0,0.5,0.2,1.1,0.662,0.214,0.2,0.7,0.519,1.4,2.7,0.456,1.6,3.4,0.636,0.4,0.6,20.0,6.0,NBA,11.8,0.1,0.3,SF,4.9,2014,0.2,MIA,0.2,1.2
34.0,0.4,0.1,0.9,0.525,0.423,0.2,0.5,0.36,1.1,3.1,0.368,1.3,3.5,0.848,0.7,0.8,57.0,2.0,NBA,11.7,0.2,1.2,SF,4.4,2015,0.2,CLE,0.2,1.1
35.0,0.3,0.2,0.9,0.553,0.447,0.4,0.8,0.394,0.9,2.2,0.408,1.2,3.0,0.808,0.4,0.5,48.0,0.0,NBA,9.6,0.2,1.0,SF,3.7,2016,0.2,CLE,0.3,1.0
36.0,0.3,0.2,0.7,0.647,0.5,0.3,0.5,0.47,0.6,1.4,0.478,0.9,1.9,0.65,0.3,0.4,48.0,2.0,NBA,7.9,0.1,0.8,SF,2.8,2017,0.1,CLE,0.2,0.8
