age,ast_per_poss,blk_per_poss,def_rtg,drb_per_poss,fg2_pct,fg2_per_poss,fg2a_per_poss,fg3_pct,fg3_per_poss,fg3a_per_poss,fg_pct,fg_per_poss,fga_per_poss,ft_pct,ft_per_poss,fta_per_poss,g,gs,lg_id,mp,off_rtg,orb_per_poss,pf_per_poss,pos,pts_per_poss,season,stl_per_poss,team_id,tov_per_poss,trb_per_poss
24.0,1.8,1.8,105.0,9.1,0.6,5.5,9.1,0.0,0.0,0.0,0.6,5.5,9.1,0.333,0.9,2.7,11.0,2.0,NBA,117.0,107.0,7.8,5.9,PF,11.9,2005,1.8,TOT,3.2,16.9
24.0,1.9,1.9,104.0,9.5,0.611,5.2,8.6,0.0,0.0,0.0,0.611,5.2,8.6,0.333,1.0,2.9,9.0,2.0,NBA,112.0,106.0,7.2,5.7,PF,11.5,2005,1.9,POR,3.3,16.7
24.0,0.0,0.0,119.0,0.0,0.5,10.5,21.0,0.0,0.0,0.0,0.5,10.5,21.0,0.0,0.0,0.0,2.0,0.0,NBA,5.0,133.0,21.0,10.5,PF,21.0,2005,0.0,ATL,0.0,21.0
25.0,0.3,1.0,108.0,9.3,0.526,3.5,6.6,0.0,0.0,0.0,0.526,3.5,6.6,0.571,2.8,4.8,22.0,0.0,NBA,150.0,103.0,4.1,12.1,PF,9.7,2006,0.0,TOT,2.4,13.5
25.0,0.4,1.3,109.0,9.6,0.538,2.9,5.4,0.0,0.0,0.0,0.538,2.9,5.4,0.571,3.3,5.8,15.0,0.0,NBA,124.0,97.0,3.3,13.4,PF,9.2,2006,0.0,PHI,2.9,12.9
25.0,0.0,0.0,107.0,7.9,0.5,6.0,11.9,0.0,0.0,0.0,0.5,6.0,11.9,0.0,0.0,0.0,7.0,0.0,NBA,26.0,126.0,7.9,6.0,PF,11.9,2006,0.0,CHI,0.0,15.9
