age,ast,blk,drb,efg_pct,fg,fg2,fg2_pct,fg2a,fg3,fg3_pct,fg3a,fg_pct,fga,ft,ft_pct,fta,g,gs,lg_id,mp,orb,pf,pos,pts,season,stl,team_id,tov,trb
24.0,4.0,4.0,20.0,0.6,12.0,12.0,0.6,20.0,0.0,0.0,0.0,0.6,20.0,2.0,0.333,6.0,11.0,2.0,NBA,117.0,17.0,13.0,PF,26.0,2005,4.0,TOT,7.0,37.0
24.0,4.0,4.0,20.0,0.611,11.0,11.0,0.611,18.0,0.0,0.0,0.0,0.611,18.0,2.0,0.333,6.0,9.0,2.0,NBA,112.0,15.0,12.0,PF,24.0,2005,4.0,POR,7.0,35.0
24.0,0.0,0.0,0.0,0.5,1.0,1.0,0.5,2.0,0.0,0.0,0.0,0.5,2.0,0.0,0.0,0.0,2.0,0.0,NBA,5.0,2.0,1.0,PF,2.0,2005,0.0,ATL,0.0,2.0
25.0,1.0,3.0,27.0,0.526,10.0,10.0,0.526,19.0,0.0,0.0,0.0,0.526,19.0,8.0,0.571,14.0,22.0,0.0,NBA,150.0,12.0,35.0,PF,28.0,2006,0.0,TOT,7.0,39.0
25.0,1.0,3.0,23.0,0.538,7.0,7.0,0.538,13.0,0.0,0.0,0.0,0.538,13.0,8.0,0.571,14.0,15.0,0.0,NBA,124.0,8.0,32.0,PF,22.0,2006,0.0,PHI,7.0,31.0
25.0,0.0,0.0,4.0,0.5,3.0,3.0,0.5,6.0,0.0,0.0,0.0,0.5,6.0,0.0,0.0,0.0,7.0,0.0,NBA,26.0,4.0,3.0,PF,6.0,2006,0.0,CHI,0.0,8.0
