age,ast_pct,blk_pct,bpm,bpm-dum,dbpm,drb_pct,dws,fg3a_per_fga_pct,fta_per_fga_pct,g,lg_id,mp,obpm,orb_pct,ows,per,pos,season,stl_pct,team_id,tov_pct,trb_pct,ts_pct,usg_pct,vorp,ws,ws-dum,ws_per_48
24.0,5.4,2.4,-1.0,0.0,0.6,19.0,0.1,0.0,0.3,11.0,NBA,117.0,-1.6,17.3,0.1,14.0,PF,2005,1.8,TOT,23.6,18.3,0.574,11.6,0.0,0.2,0.0,0.094
24.0,5.6,2.5,-0.8,0.0,1.1,19.8,0.1,0.0,0.333,9.0,NBA,112.0,-1.9,16.1,0.1,13.6,PF,2005,1.9,POR,25.3,18.0,0.581,11.3,0.0,0.2,0.0,0.09
24.0,0.0,0.0,-6.3,0.0,-11.0,0.0,0.0,0.0,0.0,2.0,NBA,5.0,4.7,44.3,0.0,21.8,PF,2005,0.0,ATL,0.0,23.3,0.5,17.9,0.0,0.0,0.0,0.181
25.0,1.0,1.5,-8.2,0.0,-2.6,21.0,0.1,0.0,0.737,22.0,NBA,150.0,-5.6,9.3,0.0,5.4,PF,2006,0.0,TOT,21.8,15.2,0.556,9.8,-0.2,0.2,0.0,0.052
25.0,1.2,1.8,-8.3,0.0,-2.2,21.7,0.1,0.0,1.077,15.0,NBA,124.0,-6.1,7.5,0.0,4.1,PF,2006,0.0,PHI,26.8,14.6,0.574,9.6,-0.2,0.1,0.0,0.033
25.0,0.0,0.0,-7.9,0.0,-4.7,17.6,0.0,0.0,0.0,7.0,NBA,26.0,-3.1,17.8,0.0,11.7,PF,2006,0.0,CHI,0.0,17.7,0.5,10.4,0.0,0.1,0.0,0.14
