article_url,date,headline
https://aroyalpain.com/2019/10/25/sacramento-kings-who-is-wenyen-gabriel/,2019/10/25,A Royal Pain: Sacramento Kings: Who Is Wenyen Gabriel?
https://aroyalpain.com/2019/10/24/sacramento-kings-what-are-the-options-now-that-marvin-bagley-is-out/,2019/10/24,A Royal Pain: Sacramento Kings: What Are The Options Now That Marvin Bagley Is Out?
