age,ast_per_g,blk_per_g,drb_per_g,efg_pct,fg2_pct,fg2_per_g,fg2a_per_g,fg3_pct,fg3_per_g,fg3a_per_g,fg_pct,fg_per_g,fga_per_g,ft_pct,ft_per_g,fta_per_g,g,gs,lg_id,mp_per_g,orb_per_g,pf_per_g,pos,pts_per_g,season,stl_per_g,team_id,tov_per_g,trb_per_g
21.0,0.2,1.3,1.7,0.706,0.706,1.1,1.6,0.0,0.0,0.0,0.706,1.1,1.6,0.6,0.3,0.5,32.0,2.0,NBA,8.8,0.8,1.1,C,2.5,2019,0.3,BOS,0.3,2.5
22.0,1.9,1.6,3.8,0.778,0.778,2.6,3.4,0.0,0.0,0.0,0.778,2.6,3.4,0.556,0.6,1.1,8.0,1.0,NBA,16.0,1.1,2.6,C,5.9,2020,1.0,BOS,0.8,4.9
