age,avg_dist,fg2_dunk,fg2_pct,fg2_pct_ast,fg2a_pct_fga,fg3_heave,fg3_pct,fg3_pct_ast,fg3_pct_corner,fg3a_heave,fg3a_pct_fga,fg_pct,fg_pct_00_03,fg_pct_03_10,fg_pct_10_16,fg_pct_16_xx,g,lg_id,mp,pct_fg2_dunk,pct_fg3a_corner,pct_fga_00_03,pct_fga_03_10,pct_fga_10_16,pct_fga_16_xx,pos,season,team_id
24.0,5.6,6.0,0.519,0.556,0.963,0.0,0.0,0.0,0.0,0.0,0.037,0.5,0.727,0.2,0.143,0.143,17.0,NBA,159.0,0.13,0.5,0.611,0.093,0.13,0.13,PF,2008,HOU
26.0,6.8,0.0,0.379,0.636,0.967,0.0,0.0,0.0,0.0,0.0,0.033,0.367,0.385,0.375,0.667,0.2,13.0,NBA,96.0,0.0,0.0,0.433,0.267,0.1,0.167,PF,2010,TOT
26.0,7.3,0.0,0.385,0.6,0.963,0.0,0.0,0.0,0.0,0.0,0.037,0.37,0.364,0.429,0.667,0.2,8.0,NBA,82.0,0.0,0.0,0.407,0.259,0.111,0.185,PF,2010,HOU
26.0,2.3,0.0,0.333,1.0,1.0,0.0,0.0,0.0,0.0,0.0,0.0,0.333,0.5,0.0,0.0,0.0,5.0,NBA,14.0,0.0,0.0,0.667,0.333,0.0,0.0,PF,2010,WAS
27.0,8.8,0.0,0.5,0.667,1.0,0.0,0.0,0.0,0.0,0.0,0.0,0.5,0.5,0.5,0.0,0.5,4.0,NBA,16.0,0.0,0.0,0.333,0.333,0.0,0.333,PF,2011,HOU
30.0,12.2,1.0,0.492,0.69,0.967,0.0,0.0,0.0,0.0,0.0,0.033,0.475,0.923,0.4,0.444,0.333,20.0,NBA,225.0,0.016,0.5,0.213,0.164,0.148,0.443,PF,2014,UTA
