age,ast_per_g,blk_per_g,drb_per_g,efg_pct,fg2_pct,fg2_per_g,fg2a_per_g,fg3_pct,fg3_per_g,fg3a_per_g,fg_pct,fg_per_g,fga_per_g,ft_pct,ft_per_g,fta_per_g,g,gs,lg_id,mp_per_g,orb_per_g,pf_per_g,pos,pts_per_g,season,stl_per_g,team_id,tov_per_g,trb_per_g
24.0,0.2,0.2,1.8,0.5,0.519,1.6,3.1,0.0,0.0,0.1,0.5,1.6,3.2,0.615,0.5,0.8,17.0,0.0,NBA,9.4,1.4,0.9,PF,3.6,2008,0.4,HOU,0.5,3.2
26.0,0.2,0.1,1.1,0.367,0.379,0.8,2.2,0.0,0.0,0.1,0.367,0.8,2.3,0.636,0.5,0.8,13.0,0.0,NBA,7.4,0.8,1.1,PF,2.2,2010,0.4,TOT,0.7,1.8
26.0,0.4,0.1,1.4,0.37,0.385,1.3,3.3,0.0,0.0,0.1,0.37,1.3,3.4,0.556,0.6,1.1,8.0,0.0,NBA,10.3,1.1,1.3,PF,3.1,2010,0.5,HOU,1.1,2.5
26.0,0.0,0.0,0.6,0.333,0.333,0.2,0.6,0.0,0.0,0.0,0.333,0.2,0.6,1.0,0.4,0.4,5.0,0.0,NBA,2.8,0.2,0.8,PF,0.8,2010,0.2,WAS,0.0,0.8
27.0,0.3,0.3,0.8,0.5,0.5,0.8,1.5,0.0,0.0,0.0,0.5,0.8,1.5,0.5,0.5,1.0,4.0,0.0,NBA,4.0,0.5,0.5,PF,2.0,2011,0.0,HOU,0.3,1.3
30.0,0.3,0.4,0.9,0.475,0.492,1.5,3.0,0.0,0.0,0.1,0.475,1.5,3.1,0.963,1.3,1.4,20.0,0.0,NBA,11.3,0.8,1.8,PF,4.2,2014,0.8,UTA,0.6,1.7
