age,ast,blk,drb,fg,fg2,fg2a,fg3,fg3a,fga,ft,fta,game_score,lg_id,mp,orb,pf,pts,season,stl,team_id,tov,trb
24.0,1.0,2.0,5.0,6.0,6.0,9.0,0.0,1.0,10.0,2.0,4.0,11.0,NBA,25,4.0,5.0,12.0,2008,2.0,HOU,3.0,7.0
26.0,1.0,1.0,4.0,3.0,3.0,9.0,0.0,1.0,9.0,2.0,2.0,7.7,NBA,27,4.0,3.0,7.0,2010,2.0,TOT,2.0,8.0
26.0,1.0,1.0,4.0,3.0,3.0,9.0,0.0,1.0,9.0,1.0,2.0,7.7,NBA,27,4.0,3.0,7.0,2010,2.0,HOU,2.0,8.0
26.0,0.0,0.0,1.0,1.0,1.0,1.0,0.0,0.0,1.0,2.0,2.0,2.7,NBA,5,1.0,3.0,2.0,2010,1.0,WAS,0.0,1.0
27.0,1.0,1.0,3.0,1.0,1.0,3.0,0.0,0.0,3.0,2.0,4.0,3.8,NBA,10,2.0,1.0,4.0,2011,0.0,HOU,1.0,5.0
30.0,2.0,1.0,3.0,5.0,5.0,8.0,0.0,1.0,8.0,7.0,8.0,10.6,NBA,22,2.0,6.0,13.0,2014,3.0,UTA,3.0,4.0
