age,ast_per_g,blk_per_g,drb_per_g,efg_pct,fg2_pct,fg2_per_g,fg2a_per_g,fg3_pct,fg3_per_g,fg3a_per_g,fg_pct,fg_per_g,fga_per_g,ft_pct,ft_per_g,fta_per_g,g,gs,lg_id,mp_per_g,orb_per_g,pf_per_g,pos,pts_per_g,season,stl_per_g,team_id,tov_per_g,trb_per_g
22.0,1.0,0.2,1.9,0.502,0.436,1.2,2.9,0.404,0.7,1.8,0.424,2.0,4.7,0.811,0.9,1.1,49.0,24.0,NBA,14.8,0.3,1.2,SG,5.6,2016,0.6,TOR,0.7,2.3
23.0,1.1,0.2,1.9,0.504,0.514,2.3,4.4,0.324,0.7,2.3,0.449,3.0,6.7,0.792,1.7,2.1,76.0,18.0,NBA,18.0,0.3,1.7,SG,8.4,2017,0.7,TOR,0.9,2.2
24.0,1.3,0.2,1.5,0.472,0.516,1.4,2.7,0.285,0.8,2.7,0.401,2.1,5.3,0.821,0.5,0.6,70.0,18.0,NBA,15.2,0.2,1.6,SG,5.5,2018,0.5,TOR,0.9,1.7
25.0,1.5,0.2,2.1,0.568,0.543,2.1,3.8,0.4,1.1,2.8,0.483,3.2,6.7,0.827,1.0,1.3,60.0,3.0,NBA,18.8,0.3,1.6,SG,8.6,2019,0.7,TOR,1.1,2.3
26.0,1.3,0.5,3.8,0.47,0.535,2.1,3.9,0.268,1.0,3.7,0.405,3.1,7.6,0.846,2.0,2.4,11.0,3.0,NBA,25.8,0.5,1.5,SG,9.2,2020,0.6,TOR,1.4,4.3
