article_url,date,headline
https://raptorsrapture.com/2019/11/14/grades-toronto-raptors-impressive-trail-blazers/,2019/11/14,Raptors Rapture: Grades from Toronto Raptors impressive win vs Portland Trail Blazers
https://www.fantasycruncher.com/articles/2019/11/13/fanduel-nba-dfs-core-plays-cheat-sheet-november-13-2019/,2019/11/13,"Fantasy Cruncher: FanDuel NBA DFS Core Plays & Cheat Sheet – November 13, 2019"
https://raptorsrapture.com/2019/11/12/toronto-raptors-loss-clippers/,2019/11/12,Raptors Rapture: Grades from Toronto Raptors narrow loss to Los Angeles Clippers
