age,ast_per_poss,blk_per_poss,def_rtg,drb_per_poss,fg2_pct,fg2_per_poss,fg2a_per_poss,fg3_pct,fg3_per_poss,fg3a_per_poss,fg_pct,fg_per_poss,fga_per_poss,ft_pct,ft_per_poss,fta_per_poss,g,gs,lg_id,mp,off_rtg,orb_per_poss,pf_per_poss,pos,pts_per_poss,season,stl_per_poss,team_id,tov_per_poss,trb_per_poss
22.0,1.6,0.5,105.0,6.0,0.455,5.2,11.5,0.269,1.8,6.8,0.386,7.0,18.2,0.875,1.8,2.1,18.0,3.0,NBA,206.0,97.0,1.0,4.7,SG,17.7,2016,3.4,TOR,1.3,7.0
23.0,3.2,0.7,110.0,5.2,0.417,4.5,10.9,0.441,3.4,7.7,0.427,7.9,18.6,0.833,4.5,5.4,9.0,5.0,NBA,227.0,103.0,1.1,5.7,SG,23.8,2017,2.3,TOR,3.4,6.4
24.0,2.5,0.0,123.0,2.5,0.429,3.8,8.9,0.143,1.3,8.9,0.286,5.1,17.7,0.75,3.8,5.1,6.0,0.0,NBA,40.0,83.0,0.0,5.1,SG,15.2,2018,0.0,TOR,1.3,2.5
25.0,3.6,0.0,107.0,6.3,0.5,4.4,8.7,0.387,3.3,8.5,0.444,7.6,17.2,0.737,1.9,2.6,23.0,0.0,NBA,366.0,109.0,0.7,4.2,SG,20.5,2019,1.2,TOR,1.6,7.0
