article_url,date,headline
https://www.hoopsrumors.com/2019/11/2019-offseason-in-review-golden-state-warriors.html,2019/11/20,HoopsRumors: 2019 Offseason In Review: Golden State Warriors
https://hoopshabit.com/2019/10/11/orlando-magic-love-preseason/,2019/10/11,Hoops Habit: Orlando Magic even making the preseason fun to watch
https://hoopshabit.com/2019/08/29/golden-state-warriors-3-candidates-breakout-season-2019-20/,2019/08/29,Hoops Habit: Golden State Warriors: 3 candidates for a breakout season in 2019-20
