age,ast_per_mp,blk_per_mp,drb_per_mp,fg2_pct,fg2_per_mp,fg2a_per_mp,fg3_pct,fg3_per_mp,fg3a_per_mp,fg_pct,fg_per_mp,fga_per_mp,ft_pct,ft_per_mp,fta_per_mp,g,gs,lg_id,mp,orb_per_mp,pf_per_mp,pos,pts_per_mp,season,stl_per_mp,team_id,tov_per_mp,trb_per_mp
22.0,2.9,0.3,4.5,0.455,1.7,3.8,0.182,0.7,3.8,0.318,2.4,7.6,0.313,0.9,2.8,16.0,7.0,NBA,208.0,0.9,2.4,SG,6.4,2015,1.6,ORL,1.6,5.4
23.0,1.7,0.1,4.6,0.333,1.9,5.6,0.25,1.2,4.6,0.296,3.0,10.3,0.417,1.4,3.5,28.0,0.0,NBA,249.0,0.9,3.6,SG,8.7,2016,1.9,ORL,1.0,5.5
