age,ast,blk,drb,efg_pct,fg,fg2,fg2_pct,fg2a,fg3,fg3_pct,fg3a,fg_pct,fga,ft,ft_pct,fta,g,gs,lg_id,mp,orb,pf,pos,pts,season,stl,team_id,tov,trb
22.0,6.0,0.0,2.0,0.385,5.0,5.0,0.385,13.0,0.0,0.0,0.0,0.385,13.0,3.0,0.375,8.0,14.0,0.0,NBA,33.0,5.0,7.0,SG,13.0,2006,2.0,DEN,8.0,7.0
23.0,12.0,0.0,6.0,0.5,6.0,6.0,0.5,12.0,0.0,0.0,0.0,0.5,12.0,3.0,0.75,4.0,9.0,1.0,NBA,65.0,2.0,6.0,SG,15.0,2007,4.0,TOT,3.0,8.0
23.0,10.0,0.0,2.0,0.4,2.0,2.0,0.4,5.0,0.0,0.0,0.0,0.4,5.0,2.0,1.0,2.0,4.0,1.0,NBA,37.0,1.0,3.0,SG,6.0,2007,3.0,DEN,1.0,3.0
23.0,2.0,0.0,4.0,0.571,4.0,4.0,0.571,7.0,0.0,0.0,0.0,0.571,7.0,1.0,0.5,2.0,5.0,0.0,NBA,28.0,1.0,3.0,SG,9.0,2007,1.0,MIL,2.0,5.0
