age,ast_pct,blk_pct,bpm,bpm-dum,dbpm,drb_pct,dws,fg3a_per_fga_pct,fta_per_fga_pct,g,lg_id,mp,obpm,orb_pct,ows,per,pos,season,stl_pct,team_id,tov_pct,trb_pct,ts_pct,usg_pct,vorp,ws,ws-dum,ws_per_48
23.0,7.1,2.1,-1.8,0.0,0.7,17.2,1.3,0.022,0.597,79.0,NBA,1274.0,-2.4,10.4,0.5,10.6,PF,1993,1.7,GSW,17.5,13.8,0.513,15.9,0.1,1.8,0.0,0.068
24.0,4.7,2.2,-3.0,0.0,0.8,15.6,1.0,0.04,0.305,71.0,NBA,866.0,-3.8,8.5,-0.1,7.5,PF,1994,1.8,GSW,19.6,12.1,0.488,11.9,-0.2,0.9,0.0,0.05
25.0,3.6,1.5,-4.7,0.0,-2.2,15.8,0.4,0.206,0.355,39.0,NBA,258.0,-2.5,9.4,0.1,13.8,PF,1995,2.5,SEA,13.9,12.7,0.533,24.1,-0.2,0.5,0.0,0.091
26.0,4.0,1.9,-1.5,0.0,0.6,22.3,0.4,0.047,0.406,25.0,NBA,276.0,-2.1,13.0,0.3,13.1,PF,1996,2.4,SAC,18.4,17.6,0.57,14.7,0.0,0.7,0.0,0.117
