age,ast_pct,blk_pct,bpm,bpm-dum,dbpm,drb_pct,dws,fg3a_per_fga_pct,fta_per_fga_pct,g,lg_id,mp,obpm,orb_pct,ows,per,pos,season,stl_pct,team_id,tov_pct,trb_pct,ts_pct,usg_pct,vorp,ws,ws-dum,ws_per_48
21.0,4.2,7.3,-3.3,0.0,1.0,16.3,0.5,0.0,0.372,58.0,NBA,740.0,-4.2,9.6,0.1,14.0,C,1998,0.8,LAC,13.6,12.9,0.482,16.7,-0.2,0.6,0.0,0.041
22.0,0.0,7.8,-7.3,0.0,-1.6,28.8,0.1,0.043,0.435,15.0,NBA,87.0,-5.7,6.4,0.1,17.5,C,1999,1.9,LAC,18.0,17.0,0.584,17.4,-0.1,0.2,0.0,0.107
23.0,5.0,6.0,-2.5,0.0,0.8,16.0,0.5,0.015,0.396,57.0,NBA,820.0,-3.3,8.5,0.6,14.1,C,2000,0.8,LAC,12.8,12.2,0.514,14.4,-0.1,1.1,0.0,0.062
