age,ast_per_mp,blk_per_mp,drb_per_mp,fg2_pct,fg2_per_mp,fg2a_per_mp,fg3_pct,fg3_per_mp,fg3a_per_mp,fg_pct,fg_per_mp,fga_per_mp,ft_pct,ft_per_mp,fta_per_mp,g,gs,lg_id,mp,orb_per_mp,pf_per_mp,pos,pts_per_mp,season,stl_per_mp,team_id,tov_per_mp,trb_per_mp
20.0,3.2,1.1,7.5,0.435,6.7,15.4,0.167,0.0,0.3,0.43,6.7,15.7,0.687,4.3,6.3,81.0,62.0,NBA,2309.0,3.4,5.2,C,17.8,2011,1.3,SAC,4.2,10.9
21.0,1.9,1.4,8.1,0.453,8.2,18.2,0.143,0.0,0.3,0.448,8.3,18.4,0.702,4.8,6.9,64.0,62.0,NBA,1950.0,4.9,4.7,C,21.4,2012,1.7,SAC,3.1,13.0
22.0,3.1,0.9,8.2,0.471,7.5,15.9,0.182,0.1,0.3,0.465,7.6,16.3,0.738,4.9,6.7,75.0,74.0,NBA,2289.0,3.5,4.2,C,20.1,2013,1.7,SAC,3.5,11.7
23.0,3.2,1.4,9.6,0.499,9.3,18.5,0.0,0.0,0.1,0.496,9.3,18.7,0.726,6.8,9.3,71.0,71.0,NBA,2298.0,3.4,4.2,C,25.3,2014,1.7,SAC,3.9,13.0
24.0,3.8,1.8,10.1,0.469,8.9,18.9,0.25,0.0,0.1,0.467,8.9,19.1,0.782,7.6,9.7,59.0,59.0,NBA,2013.0,3.3,4.3,C,25.4,2015,1.6,SAC,4.5,13.4
25.0,3.4,1.5,9.4,0.473,8.5,18.0,0.333,1.1,3.4,0.451,9.6,21.3,0.718,7.6,10.6,65.0,65.0,NBA,2246.0,2.5,3.8,C,28.0,2016,1.6,SAC,4.0,12.0
26.0,4.8,1.4,9.4,0.483,7.5,15.6,0.361,1.9,5.3,0.452,9.4,20.9,0.772,7.6,9.8,72.0,72.0,NBA,2465.0,2.2,4.1,C,28.4,2017,1.5,TOT,3.9,11.6
26.0,5.1,1.4,8.9,0.482,7.8,16.2,0.356,1.8,5.1,0.452,9.6,21.3,0.77,8.1,10.5,55.0,55.0,NBA,1891.0,2.2,3.9,C,29.1,2017,1.4,SAC,3.9,11.1
26.0,4.1,1.2,10.9,0.486,6.6,13.7,0.375,2.3,6.0,0.452,8.9,19.7,0.777,5.9,7.6,17.0,17.0,NBA,574.0,2.3,4.7,C,26.0,2017,1.6,NOP,3.9,13.2
27.0,5.3,1.6,10.6,0.53,6.3,11.8,0.354,2.2,6.1,0.47,8.4,17.9,0.746,6.1,8.2,48.0,48.0,NBA,1737.0,2.2,3.8,C,25.1,2018,1.6,NOP,5.0,12.8
28.0,5.0,2.1,9.5,0.551,7.1,12.9,0.274,1.2,4.4,0.48,8.3,17.3,0.736,4.9,6.7,30.0,30.0,NBA,771.0,2.0,5.1,C,22.8,2019,1.9,GSW,3.4,11.5
