lg_id,salary,season,team_name
NBA,1050000.0,1999,Orlando Magic
NBA,1357320.0,2000,Orlando Magic
NBA,1452000.0,2001,Orlando Magic
NBA,2000856.0,2002,Cleveland Cavaliers
NBA,1400000.0,2003,New York Knicks
NBA,1540000.0,2004,New York Knicks
NBA,2400000.0,2005,Miami Heat
NBA,2640000.0,2006,Miami Heat
NBA,2880000.0,2007,Miami Heat
NBA,3120000.0,2008,Minnesota Timberwolves
