age,avg_dist,fg2_dunk,fg2_pct,fg2_pct_ast,fg2a_pct_fga,fg3_heave,fg3_pct,fg3_pct_ast,fg3_pct_corner,fg3a_heave,fg3a_pct_fga,fg_pct,fg_pct_00_03,fg_pct_03_10,fg_pct_10_16,fg_pct_16_xx,g,lg_id,mp,pct_fg2_dunk,pct_fg3a_corner,pct_fga_00_03,pct_fga_03_10,pct_fga_10_16,pct_fga_16_xx,pos,season,team_id
23.0,16.6,1.0,0.545,0.5,0.611,0.0,0.429,1.0,0.667,1.0,0.389,0.5,0.25,1.0,0.667,0.5,7.0,NBA,49.0,0.056,0.429,0.222,0.111,0.167,0.111,SF,2019,TOT
23.0,16.2,1.0,0.5,0.6,0.625,0.0,0.5,1.0,0.667,1.0,0.375,0.5,0.25,1.0,0.5,0.5,6.0,NBA,43.0,0.063,0.5,0.25,0.125,0.125,0.125,SF,2019,ATL
23.0,20.0,0.0,1.0,0.0,0.5,0.0,0.0,0.0,0.0,0.0,0.5,0.5,0.0,0.0,1.0,0.0,1.0,NBA,6.0,0.0,0.0,0.0,0.0,0.5,0.0,SF,2019,SAC
