age,ast,blk,drb,fg,fg2,fg2a,fg3,fg3a,fga,ft,fta,game_score,lg_id,mp,orb,pf,pts,season,stl,team_id,tov,trb
23.0,1.0,2.0,4.0,5.0,5.0,8.0,1.0,1.0,9.0,4.0,6.0,10.2,NBA,0.0,4.0,3.0,11.0,1999,2.0,LAL,3.0,6.0
24.0,5.0,4.0,9.0,12.0,11.0,18.0,2.0,3.0,20.0,11.0,13.0,29.1,NBA,0.0,7.0,5.0,32.0,2000,6.0,SEA,5.0,11.0
25.0,8.0,3.0,8.0,12.0,12.0,21.0,1.0,4.0,21.0,9.0,12.0,28.3,NBA,0.0,9.0,6.0,26.0,2001,5.0,SEA,6.0,15.0
26.0,6.0,4.0,7.0,13.0,12.0,17.0,1.0,3.0,18.0,10.0,12.0,33.3,NBA,0.0,7.0,6.0,31.0,2002,6.0,POR,7.0,11.0
27.0,5.0,3.0,11.0,10.0,10.0,15.0,1.0,2.0,15.0,7.0,9.0,20.9,NBA,0.0,5.0,5.0,26.0,2003,4.0,POR,6.0,12.0
28.0,7.0,2.0,6.0,11.0,11.0,16.0,1.0,1.0,16.0,6.0,8.0,22.1,NBA,0.0,5.0,5.0,24.0,2004,4.0,POR,5.0,10.0
29.0,6.0,3.0,6.0,12.0,12.0,18.0,1.0,2.0,19.0,8.0,12.0,22.9,NBA,0.0,5.0,5.0,27.0,2005,4.0,POR,5.0,9.0
30.0,8.0,2.0,6.0,9.0,9.0,15.0,1.0,1.0,16.0,8.0,12.0,21.9,NBA,37.0,5.0,5.0,25.0,2006,4.0,TOT,6.0,7.0
30.0,5.0,1.0,6.0,9.0,9.0,14.0,0.0,1.0,14.0,7.0,11.0,21.9,NBA,36.0,5.0,5.0,25.0,2006,4.0,POR,5.0,7.0
30.0,8.0,2.0,4.0,9.0,9.0,15.0,1.0,1.0,16.0,8.0,12.0,21.8,NBA,37.0,5.0,5.0,21.0,2006,3.0,DEN,6.0,7.0
31.0,10.0,2.0,10.0,13.0,13.0,23.0,1.0,2.0,24.0,11.0,13.0,30.4,NBA,50.0,8.0,6.0,30.0,2007,7.0,MIL,7.0,16.0
32.0,3.0,3.0,5.0,9.0,9.0,16.0,0.0,1.0,16.0,5.0,8.0,18.8,NBA,35.0,6.0,5.0,18.0,2008,6.0,LAC,5.0,11.0
