age,ast_per_poss,blk_per_poss,def_rtg,drb_per_poss,fg2_pct,fg2_per_poss,fg2a_per_poss,fg3_pct,fg3_per_poss,fg3a_per_poss,fg_pct,fg_per_poss,fga_per_poss,ft_pct,ft_per_poss,fta_per_poss,g,gs,lg_id,mp,off_rtg,orb_per_poss,pf_per_poss,pos,pts_per_poss,season,stl_per_poss,team_id,tov_per_poss,trb_per_poss
23.0,0.0,0.0,116.0,0.0,0.0,0.0,10.6,0.0,0.0,0.0,0.0,0.0,10.6,0.0,0.0,0.0,3.0,0.0,NBA,5.0,0.0,0.0,0.0,SF,0.0,1999,0.0,LAL,10.6,0.0
24.0,1.3,1.3,107.0,3.8,0.583,9.0,15.4,0.0,0.0,1.3,0.538,9.0,16.7,0.867,8.3,9.6,5.0,0.0,NBA,84.0,111.0,5.8,3.8,SF,26.3,2000,1.9,SEA,5.1,9.6
26.0,0.8,0.8,106.0,4.0,0.357,4.0,11.2,0.0,0.0,0.8,0.333,4.0,12.0,0.75,4.8,6.4,3.0,0.0,NBA,65.0,85.0,1.6,5.6,SF,12.8,2002,2.4,POR,2.4,5.6
27.0,3.9,0.4,116.0,4.2,0.521,8.8,16.9,0.0,0.0,1.4,0.481,8.8,18.3,0.69,7.0,10.2,7.0,0.0,NBA,155.0,112.0,4.9,3.5,SF,24.7,2003,1.4,POR,3.5,9.2
30.0,2.7,0.0,109.0,0.9,0.529,8.1,15.3,0.0,0.0,0.0,0.529,8.1,15.3,0.4,1.8,4.5,4.0,1.0,NBA,58.0,100.0,4.5,5.4,SG,18.0,2006,0.9,DEN,2.7,5.4
