age,ast_per_mp,blk_per_mp,drb_per_mp,fg2_pct,fg2_per_mp,fg2a_per_mp,fg3_pct,fg3_per_mp,fg3a_per_mp,fg_pct,fg_per_mp,fga_per_mp,ft_pct,ft_per_mp,fta_per_mp,g,gs,lg_id,mp,orb_per_mp,pf_per_mp,pos,pts_per_mp,season,stl_per_mp,team_id,tov_per_mp,trb_per_mp
23.0,2.2,2.6,8.3,0.524,9.6,18.2,0.25,0.0,0.1,0.523,9.6,18.3,0.661,3.8,5.8,82.0,82.0,NBA,2693.0,3.9,4.5,C,23.0,1984,0.9,HOU,3.9,12.2
24.0,2.6,2.0,7.3,0.504,8.8,17.4,0.0,0.0,0.1,0.502,8.8,17.5,0.676,3.5,5.2,82.0,82.0,NBA,3086.0,2.6,3.6,PF,21.1,1985,0.9,HOU,3.8,10.0
25.0,3.6,1.6,7.8,0.492,7.8,15.9,0.133,0.0,0.2,0.488,7.8,16.1,0.641,3.0,4.7,79.0,76.0,NBA,2864.0,3.2,3.9,PF,18.7,1986,1.2,HOU,3.6,11.0
26.0,3.3,1.6,7.7,0.492,7.5,15.3,0.0,0.0,0.1,0.489,7.5,15.4,0.624,3.2,5.1,43.0,32.0,NBA,1326.0,2.4,4.6,PF,18.2,1987,1.1,HOU,3.4,10.1
27.0,2.6,1.9,7.0,0.443,6.4,14.5,0.182,0.0,0.2,0.438,6.5,14.8,0.76,3.2,4.2,48.0,44.0,NBA,1663.0,3.0,3.6,C-PF,16.2,1988,0.9,TOT,3.7,10.0
27.0,1.9,1.7,5.8,0.442,6.0,13.5,0.333,0.1,0.3,0.439,6.1,13.8,0.741,3.2,4.3,19.0,19.0,NBA,705.0,3.0,3.2,PF,15.5,1988,0.9,HOU,3.2,8.8
27.0,3.2,2.1,7.8,0.443,6.8,15.3,0.0,0.0,0.2,0.438,6.8,15.4,0.775,3.2,4.2,29.0,25.0,NBA,958.0,3.1,3.8,C,16.8,1988,0.9,GSW,4.1,10.9
28.0,2.6,2.2,6.7,0.451,5.3,11.8,0.375,0.1,0.3,0.449,5.4,12.1,0.653,2.1,3.1,61.0,36.0,NBA,1086.0,3.5,5.6,C,13.0,1989,1.0,GSW,3.0,10.2
29.0,2.4,1.9,6.3,0.376,4.1,10.8,0.25,0.1,0.3,0.372,4.1,11.1,0.522,1.0,2.0,26.0,7.0,NBA,417.0,0.9,5.7,C,9.4,1990,1.2,SAC,2.9,7.3
30.0,1.8,1.8,7.2,0.375,3.4,9.1,0.2,0.1,0.5,0.366,3.5,9.6,0.263,0.5,2.0,25.0,4.0,NBA,348.0,4.2,5.6,C,7.7,1991,1.1,SAC,2.8,11.5
31.0,1.3,2.7,6.3,0.333,3.0,9.0,0.0,0.0,0.7,0.31,3.0,9.7,0.667,1.3,2.0,10.0,0.0,NBA,108.0,3.7,4.7,C,7.3,1992,1.0,WSB,3.3,10.0
