age,ast,blk,drb,efg_pct,fg,fg2,fg2_pct,fg2a,fg3,fg3_pct,fg3a,fg_pct,fga,ft,ft_pct,fta,g,gs,lg_id,mp,orb,pf,pos,pts,season,stl,team_id,tov,trb
23.0,163.0,197.0,620.0,0.523,716.0,715.0,0.524,1365.0,1.0,0.25,4.0,0.523,1369.0,287.0,0.661,434.0,82.0,82.0,NBA,2693.0,293.0,339.0,C,1720.0,1984,70.0,HOU,294.0,913.0
24.0,224.0,168.0,626.0,0.502,753.0,753.0,0.504,1493.0,0.0,0.0,6.0,0.502,1499.0,303.0,0.676,448.0,82.0,82.0,NBA,3086.0,227.0,306.0,PF,1809.0,1985,81.0,HOU,326.0,853.0
25.0,283.0,129.0,621.0,0.488,624.0,622.0,0.492,1265.0,2.0,0.133,15.0,0.488,1280.0,241.0,0.641,376.0,79.0,76.0,NBA,2864.0,258.0,308.0,PF,1491.0,1986,99.0,HOU,285.0,879.0
26.0,120.0,58.0,284.0,0.489,277.0,277.0,0.492,563.0,0.0,0.0,3.0,0.489,566.0,118.0,0.624,189.0,43.0,32.0,NBA,1326.0,88.0,169.0,PF,672.0,1987,40.0,HOU,126.0,372.0
27.0,122.0,88.0,322.0,0.44,299.0,297.0,0.443,671.0,2.0,0.182,11.0,0.438,682.0,149.0,0.76,196.0,48.0,44.0,NBA,1663.0,140.0,164.0,C-PF,749.0,1988,41.0,TOT,171.0,462.0
27.0,37.0,33.0,114.0,0.443,119.0,117.0,0.442,265.0,2.0,0.333,6.0,0.439,271.0,63.0,0.741,85.0,19.0,19.0,NBA,705.0,58.0,63.0,PF,303.0,1988,17.0,HOU,62.0,172.0
27.0,85.0,55.0,208.0,0.438,180.0,180.0,0.443,406.0,0.0,0.0,5.0,0.438,411.0,86.0,0.775,111.0,29.0,25.0,NBA,958.0,82.0,101.0,C,446.0,1988,24.0,GSW,109.0,290.0
28.0,77.0,65.0,202.0,0.453,164.0,161.0,0.451,357.0,3.0,0.375,8.0,0.449,365.0,62.0,0.653,95.0,61.0,36.0,NBA,1086.0,105.0,170.0,C,393.0,1989,31.0,GSW,90.0,307.0
29.0,28.0,22.0,73.0,0.376,48.0,47.0,0.376,125.0,1.0,0.25,4.0,0.372,129.0,12.0,0.522,23.0,26.0,7.0,NBA,417.0,11.0,66.0,C,109.0,1990,14.0,SAC,34.0,84.0
30.0,17.0,17.0,70.0,0.371,34.0,33.0,0.375,88.0,1.0,0.2,5.0,0.366,93.0,5.0,0.263,19.0,25.0,4.0,NBA,348.0,41.0,54.0,C,74.0,1991,11.0,SAC,27.0,111.0
31.0,4.0,8.0,19.0,0.31,9.0,9.0,0.333,27.0,0.0,0.0,2.0,0.31,29.0,4.0,0.667,6.0,10.0,0.0,NBA,108.0,11.0,14.0,C,22.0,1992,3.0,WSB,10.0,30.0
