lg_id,salary,season,team_name
NBA,1300000.0,1985,Houston Rockets
NBA,1165500.0,1986,Houston Rockets
NBA,1363500.0,1987,Houston Rockets
NBA,1735000.0,1988,Golden State Warriors
NBA,1960000.0,1989,Golden State Warriors
NBA,2100000.0,1990,Sacramento Kings
NBA,2250000.0,1991,Sacramento Kings
NBA,2685000.0,1992,Sacramento Kings
NBA,2685000.0,1993,Sacramento Kings
