age,ast_per_poss,blk_per_poss,def_rtg,drb_per_poss,fg2_pct,fg2_per_poss,fg2a_per_poss,fg3_pct,fg3_per_poss,fg3a_per_poss,fg_pct,fg_per_poss,fga_per_poss,ft_pct,ft_per_poss,fta_per_poss,g,gs,lg_id,mp,off_rtg,orb_per_poss,pf_per_poss,pos,pts_per_poss,season,stl_per_poss,team_id,tov_per_poss,trb_per_poss
23.0,2.8,3.4,104.0,10.6,0.524,12.2,23.2,0.25,0.0,0.1,0.523,12.2,23.3,0.661,4.9,7.4,82.0,82.0,NBA,2693.0,104.0,5.0,5.8,C,29.3,1984,1.2,HOU,5.0,15.5
24.0,3.4,2.6,104.0,9.5,0.504,11.5,22.7,0.0,0.0,0.1,0.502,11.5,22.8,0.676,4.6,6.8,82.0,82.0,NBA,3086.0,102.0,3.5,4.7,PF,27.5,1985,1.2,HOU,5.0,13.0
25.0,4.6,2.1,104.0,10.1,0.492,10.1,20.5,0.133,0.0,0.2,0.488,10.1,20.7,0.641,3.9,6.1,79.0,76.0,NBA,2864.0,101.0,4.2,5.0,PF,24.1,1986,1.6,HOU,4.6,14.2
26.0,4.3,2.1,102.0,10.3,0.492,10.0,20.4,0.0,0.0,0.1,0.489,10.0,20.5,0.624,4.3,6.9,43.0,32.0,NBA,1326.0,99.0,3.2,6.1,PF,24.4,1987,1.4,HOU,4.6,13.5
27.0,3.5,2.5,107.0,9.1,0.443,8.4,19.0,0.182,0.1,0.3,0.438,8.5,19.4,0.76,4.2,5.6,48.0,44.0,NBA,1663.0,94.0,4.0,4.7,C-PF,21.3,1988,1.2,TOT,4.9,13.1
27.0,2.5,2.2,105.0,7.6,0.442,7.8,17.7,0.333,0.1,0.4,0.439,8.0,18.1,0.741,4.2,5.7,19.0,19.0,NBA,705.0,96.0,3.9,4.2,PF,20.3,1988,1.1,HOU,4.1,11.5
27.0,4.2,2.7,109.0,10.3,0.443,8.9,20.0,0.0,0.0,0.2,0.438,8.9,20.3,0.775,4.2,5.5,29.0,25.0,NBA,958.0,92.0,4.0,5.0,C,22.0,1988,1.2,GSW,5.4,14.3
28.0,3.2,2.7,106.0,8.3,0.451,6.6,14.7,0.375,0.1,0.3,0.449,6.8,15.0,0.653,2.6,3.9,61.0,36.0,NBA,1086.0,97.0,4.3,7.0,C,16.2,1989,1.3,GSW,3.7,12.6
29.0,3.3,2.6,106.0,8.7,0.376,5.6,14.9,0.25,0.1,0.5,0.372,5.7,15.4,0.522,1.4,2.7,26.0,7.0,NBA,417.0,74.0,1.3,7.9,C,13.0,1990,1.7,SAC,4.0,10.0
30.0,2.5,2.5,105.0,10.2,0.375,4.8,12.8,0.2,0.1,0.7,0.366,5.0,13.5,0.263,0.7,2.8,25.0,4.0,NBA,348.0,78.0,6.0,7.9,C,10.8,1991,1.6,SAC,3.9,16.2
31.0,1.8,3.6,105.0,8.6,0.333,4.1,12.3,0.0,0.0,0.9,0.31,4.1,13.2,0.667,1.8,2.7,10.0,0.0,NBA,108.0,72.0,5.0,6.4,C,10.0,1992,1.4,WSB,4.5,13.6
