age,ast,ast_per_g,blk,college_id,fg,fg3,fg3_pct,fg3a,fg_pct,fga,ft,ft_pct,fta,g,mp,mp_per_g,orb,pf,pts,pts_per_g,season,stl,tov,trb,trb_per_g
19.0,12.0,0.5,14.0,ARIZONA,23.0,0.0,0.0,0.0,0.442,52.0,17.0,0.548,31.0,24.0,203.0,8.5,0.0,23.0,63.0,2.6,1993,8.0,15.0,52.0,2.2
21.0,9.0,0.6,12.0,TENNESSEE,18.0,0.0,0.0,0.0,0.333,54.0,19.0,0.528,36.0,14.0,182.0,13.0,0.0,29.0,55.0,3.9,1995,2.0,27.0,59.0,4.2
22.0,17.0,1.4,42.0,AUBURNMONT,79.0,0.0,0.0,0.0,0.585,135.0,56.0,0.577,97.0,12.0,327.0,27.3,0.0,33.0,214.0,17.8,1996,10.0,31.0,122.0,10.2
23.0,20.0,0.8,57.0,AUBURNMONT,140.0,0.0,0.0,0.0,0.598,234.0,92.0,0.554,166.0,24.0,750.0,31.3,0.0,78.0,372.0,15.5,1997,20.0,80.0,225.0,9.4
