age,ast_pct,blk_pct,bpm,bpm-dum,dbpm,drb_pct,dws,fg3a_per_fga_pct,fta_per_fga_pct,g,lg_id,mp,obpm,orb_pct,ows,per,pos,season,stl_pct,team_id,tov_pct,trb_pct,ts_pct,usg_pct,vorp,ws,ws-dum,ws_per_48
21.0,29.4,0.4,-7.3,0.0,-3.2,6.3,0.2,0.483,0.093,48.0,NBA,702.0,-4.1,0.6,-0.4,7.8,PG,2013,1.6,PHO,26.6,3.4,0.455,13.6,-0.9,-0.2,0.0,-0.012
22.0,44.3,0.2,-4.5,0.0,-3.2,9.6,0.3,0.425,0.086,54.0,NBA,1564.0,-1.3,1.0,0.6,12.6,PG,2014,1.5,LAL,25.6,5.3,0.494,16.3,-1.0,0.9,0.0,0.029
23.0,31.1,0.0,-4.1,0.0,-2.4,7.1,0.5,0.455,0.089,28.0,NBA,417.0,-1.7,0.6,0.3,12.4,PG,2015,2.6,MIL,25.0,3.8,0.562,15.1,-0.2,0.8,0.0,0.088
24.0,28.4,0.4,-8.8,0.0,-3.3,7.3,0.1,0.415,0.11,30.0,NBA,400.0,-5.5,0.5,-0.7,6.7,PG,2016,2.0,PHI,25.8,3.8,0.449,18.3,-0.7,-0.5,0.0,-0.064
