age,and1s,astd_pts,drawn_offensive,drawn_shooting,fouls_offensive,fouls_shooting,g,lg_id,mp,own_shots_blk,pct_1,pct_2,pct_3,pct_4,pct_5,plus_minus_net,plus_minus_on,pos,season,team_id,tov_bad_pass,tov_lost_ball
23.0,11.0,143.0,0.0,68.0,13.0,77.0,77.0,NBA,1262.0,31.0,4.0,93.0,4.0,0.0,0.0,8.8,7.0,SG,2005,BOS,31.0,25.0
24.0,18.0,149.0,6.0,66.0,7.0,57.0,51.0,NBA,978.0,27.0,21.0,74.0,5.0,0.0,0.0,-1.0,-2.4,PG,2006,BOS,26.0,25.0
25.0,19.0,132.0,4.0,61.0,14.0,37.0,33.0,NBA,805.0,29.0,0.0,79.0,20.0,1.0,0.0,2.3,-2.1,SG,2007,BOS,25.0,19.0
26.0,13.0,266.0,8.0,79.0,16.0,74.0,75.0,NBA,1373.0,32.0,5.0,89.0,6.0,0.0,0.0,-2.7,9.8,SG,2008,BOS,34.0,40.0
27.0,23.0,147.0,5.0,59.0,21.0,37.0,46.0,NBA,887.0,29.0,0.0,81.0,19.0,0.0,0.0,-2.2,6.7,SG,2009,BOS,26.0,18.0
28.0,13.0,155.0,9.0,58.0,9.0,42.0,54.0,NBA,889.0,19.0,9.0,83.0,9.0,0.0,0.0,-3.5,1.4,SG,2010,BOS,29.0,19.0
29.0,17.0,219.0,8.0,85.0,12.0,70.0,72.0,NBA,1494.0,36.0,19.0,81.0,0.0,0.0,0.0,2.6,4.0,SG,2011,MEM,34.0,28.0
30.0,16.0,167.0,6.0,77.0,11.0,60.0,58.0,NBA,1525.0,49.0,8.0,92.0,0.0,0.0,0.0,8.3,6.6,SG,2012,MEM,40.0,33.0
31.0,18.0,217.0,6.0,84.0,9.0,90.0,79.0,NBA,2109.0,64.0,1.0,89.0,10.0,0.0,0.0,5.9,7.5,SG,2013,MEM,39.0,31.0
32.0,15.0,202.0,5.0,59.0,10.0,41.0,55.0,NBA,1278.0,35.0,23.0,74.0,3.0,0.0,0.0,4.7,5.3,SG,2014,MEM,43.0,26.0
33.0,14.0,186.0,7.0,55.0,10.0,61.0,63.0,NBA,1648.0,52.0,7.0,92.0,1.0,0.0,0.0,11.4,10.0,SG,2015,MEM,34.0,33.0
34.0,14.0,151.0,4.0,63.0,8.0,67.0,64.0,NBA,1620.0,59.0,6.0,93.0,2.0,0.0,0.0,3.0,-0.6,SG,2016,MEM,26.0,33.0
35.0,12.0,214.0,7.0,58.0,6.0,78.0,71.0,NBA,1914.0,73.0,2.0,77.0,21.0,0.0,0.0,1.7,1.6,SG,2017,MEM,49.0,30.0
36.0,1.0,20.0,3.0,11.0,4.0,22.0,22.0,NBA,273.0,11.0,0.0,18.0,73.0,9.0,0.0,1.3,3.0,SF,2018,NOP,10.0,2.0
