age,ast_per_poss,blk_per_poss,def_rtg,drb_per_poss,fg2_pct,fg2_per_poss,fg2a_per_poss,fg3_pct,fg3_per_poss,fg3a_per_poss,fg_pct,fg_per_poss,fga_per_poss,ft_pct,ft_per_poss,fta_per_poss,g,gs,lg_id,mp,off_rtg,orb_per_poss,pf_per_poss,pos,pts_per_poss,season,stl_per_poss,team_id,tov_per_poss,trb_per_poss
23.0,2.6,1.0,104.0,5.5,0.483,7.0,14.5,0.387,0.5,1.3,0.475,7.5,15.8,0.737,4.6,6.2,77.0,34.0,NBA,1262.0,106.0,3.5,6.4,SG,20.1,2005,3.1,BOS,3.1,9.0
24.0,3.6,1.0,106.0,4.2,0.492,6.3,12.8,0.324,0.6,1.8,0.471,6.9,14.6,0.746,5.3,7.1,51.0,9.0,NBA,978.0,103.0,1.7,6.7,PG,19.6,2006,2.7,BOS,3.6,5.9
25.0,3.6,0.8,104.0,5.8,0.553,8.1,14.6,0.242,0.5,2.1,0.514,8.6,16.8,0.784,6.8,8.7,33.0,18.0,NBA,805.0,105.0,2.3,5.6,SG,24.6,2007,3.2,BOS,4.9,8.0
26.0,4.4,0.8,99.0,5.2,0.455,5.8,12.8,0.316,0.7,2.2,0.434,6.5,15.0,0.762,5.3,7.0,75.0,11.0,NBA,1373.0,98.0,1.3,6.5,SG,19.0,2008,2.4,BOS,4.2,6.5
27.0,4.0,1.4,100.0,4.9,0.51,7.8,15.4,0.222,0.4,1.6,0.482,8.2,17.0,0.725,4.7,6.5,46.0,2.0,NBA,887.0,98.0,1.3,5.9,SG,21.5,2009,3.2,BOS,4.6,6.2
28.0,4.2,1.1,101.0,5.5,0.52,7.6,14.6,0.0,0.0,0.3,0.51,7.6,14.9,0.605,4.2,7.0,54.0,8.0,NBA,889.0,101.0,3.1,6.4,SG,19.4,2010,3.5,BOS,3.9,8.5
29.0,3.6,1.5,101.0,4.3,0.527,8.6,16.4,0.174,0.1,0.8,0.51,8.8,17.2,0.753,4.8,6.4,72.0,31.0,NBA,1494.0,110.0,2.4,5.6,SG,22.5,2011,4.5,MEM,3.0,6.7
30.0,2.7,1.1,100.0,4.7,0.479,7.0,14.6,0.308,0.3,0.9,0.469,7.3,15.5,0.8,4.9,6.1,58.0,57.0,NBA,1525.0,106.0,3.4,4.9,SG,19.7,2012,3.6,MEM,3.3,8.1
31.0,2.5,1.1,98.0,6.2,0.458,7.2,15.8,0.125,0.1,0.6,0.445,7.3,16.4,0.717,3.4,4.8,79.0,79.0,NBA,2109.0,102.0,3.1,5.4,SG,18.1,2013,3.1,MEM,2.4,9.3
32.0,3.9,0.8,101.0,5.4,0.527,8.1,15.3,0.234,0.5,2.0,0.494,8.5,17.3,0.628,3.2,5.1,55.0,28.0,NBA,1278.0,102.0,3.3,5.1,SG,20.7,2014,3.8,MEM,3.8,8.7
33.0,2.7,1.0,98.0,5.6,0.505,6.8,13.5,0.345,0.3,0.9,0.495,7.1,14.4,0.627,2.5,4.0,63.0,41.0,NBA,1648.0,103.0,3.3,5.3,SG,17.1,2015,4.1,MEM,2.7,8.9
34.0,2.2,0.6,105.0,6.1,0.468,6.4,13.6,0.357,0.5,1.3,0.458,6.8,14.9,0.652,2.9,4.4,64.0,57.0,NBA,1620.0,101.0,3.3,5.6,SG,17.0,2016,3.5,MEM,2.5,9.4
35.0,2.7,0.8,105.0,6.1,0.479,7.0,14.7,0.278,0.4,1.5,0.461,7.4,16.2,0.615,2.2,3.5,71.0,66.0,NBA,1914.0,101.0,4.5,4.8,SG,17.5,2017,3.1,MEM,2.7,10.6
36.0,1.6,0.5,110.0,4.7,0.506,7.0,13.8,0.333,0.7,2.1,0.484,7.7,15.9,0.524,1.9,3.7,22.0,0.0,NBA,273.0,95.0,3.5,8.6,SF,18.0,2018,1.9,NOP,3.3,8.2
