age,ast_per_mp,blk_per_mp,drb_per_mp,fg2_pct,fg2_per_mp,fg2a_per_mp,fg3_pct,fg3_per_mp,fg3a_per_mp,fg_pct,fg_per_mp,fga_per_mp,ft_pct,ft_per_mp,fta_per_mp,g,gs,lg_id,mp,orb_per_mp,pf_per_mp,pos,pts_per_mp,season,stl_per_mp,team_id,tov_per_mp,trb_per_mp
23.0,0.8,0.8,3.2,0.444,3.2,7.2,0.0,0.0,0.0,0.444,3.2,7.2,0.429,1.2,2.8,7.0,3.0,NBA,90.0,1.6,6.8,SG,7.6,2005,1.2,BOS,2.0,4.8
26.0,1.7,0.0,1.1,0.6,5.0,8.3,0.0,0.0,0.6,0.563,5.0,8.9,0.4,1.1,2.8,15.0,0.0,NBA,65.0,0.6,2.8,SG,11.1,2008,1.1,BOS,0.6,1.7
27.0,1.8,0.0,4.8,0.5,2.4,4.8,0.0,0.0,0.0,0.5,2.4,4.8,1.0,0.6,0.6,10.0,0.0,NBA,60.0,0.6,2.4,SG,5.4,2009,1.2,BOS,0.6,5.4
28.0,1.6,1.3,2.6,0.505,4.3,8.6,0.0,0.0,0.5,0.48,4.3,9.0,0.778,2.6,3.3,24.0,0.0,NBA,391.0,1.2,5.3,SG,11.2,2010,2.3,BOS,2.1,3.8
29.0,2.1,0.5,2.4,0.447,4.3,9.7,0.143,0.1,0.7,0.426,4.4,10.4,0.659,2.8,4.2,13.0,13.0,NBA,350.0,1.5,4.4,SG,11.7,2011,2.6,MEM,2.5,3.9
30.0,1.1,1.5,3.0,0.45,3.8,8.5,0.0,0.0,1.1,0.4,3.8,9.5,0.706,2.5,3.6,7.0,7.0,NBA,170.0,1.7,4.4,SG,10.2,2012,1.9,MEM,2.1,4.7
31.0,2.3,0.4,4.6,0.444,4.4,10.0,0.25,0.2,0.7,0.432,4.6,10.7,0.759,3.8,4.9,15.0,15.0,NBA,422.0,3.2,4.1,SG,13.1,2013,2.6,MEM,1.6,7.8
32.0,1.6,0.2,4.9,0.538,5.5,10.2,0.0,0.0,1.1,0.486,5.5,11.3,0.762,2.5,3.3,7.0,1.0,NBA,230.0,3.6,3.6,SG,13.5,2014,1.9,MEM,1.9,8.5
33.0,1.9,1.4,4.9,0.54,3.5,6.5,0.143,0.1,0.9,0.491,3.6,7.4,0.75,1.2,1.5,10.0,9.0,NBA,279.0,1.8,3.5,SG,8.5,2015,3.1,MEM,1.7,6.7
34.0,1.1,0.8,1.9,0.346,3.4,10.0,0.143,0.4,2.7,0.303,3.8,12.6,0.692,3.4,5.0,4.0,2.0,NBA,94.0,2.3,4.2,SG,11.5,2016,1.9,MEM,2.3,4.2
