age,ast,blk,drb,fg,fg2,fg2a,fg3,fg3a,fga,ft,fta,game_score,lg_id,mp,orb,pf,pts,season,stl,team_id,tov,trb
23.0,5.0,2.0,8.0,6.0,4.0,6.0,3.0,6.0,12.0,2.0,4.0,14.3,NBA,25,3.0,3.0,15.0,2013,1.0,IND,3.0,8.0
24.0,3.0,1.0,5.0,3.0,3.0,6.0,1.0,5.0,8.0,3.0,3.0,8.6,NBA,22,2.0,3.0,9.0,2014,2.0,TOT,2.0,6.0
24.0,3.0,1.0,5.0,3.0,3.0,5.0,1.0,5.0,7.0,3.0,3.0,8.6,NBA,22,2.0,3.0,9.0,2014,2.0,IND,2.0,6.0
24.0,2.0,1.0,1.0,1.0,1.0,6.0,1.0,2.0,8.0,1.0,2.0,4.3,NBA,14,1.0,1.0,4.0,2014,0.0,SAC,1.0,2.0
26.0,1.0,3.0,5.0,3.0,3.0,8.0,1.0,4.0,12.0,3.0,4.0,5.9,NBA,28,3.0,3.0,9.0,2016,1.0,TOT,2.0,8.0
26.0,0.0,3.0,5.0,3.0,3.0,8.0,1.0,4.0,12.0,3.0,4.0,5.9,NBA,28,3.0,3.0,9.0,2016,1.0,PHO,1.0,8.0
26.0,1.0,0.0,3.0,2.0,2.0,4.0,1.0,3.0,7.0,1.0,2.0,4.3,NBA,23,1.0,1.0,5.0,2016,1.0,NOP,2.0,3.0
