age,ast_pct,blk_pct,bpm,bpm-dum,dbpm,drb_pct,dws,fg3a_per_fga_pct,fta_per_fga_pct,g,lg_id,mp,obpm,orb_pct,ows,per,pos,season,stl_pct,team_id,tov_pct,trb_pct,ts_pct,usg_pct,vorp,ws,ws-dum,ws_per_48
22.0,12.1,1.2,-2.6,0.0,0.9,15.6,0.8,0.044,0.16,78.0,NBA,1274.0,-3.5,9.2,-0.3,10.4,C,1983,2.1,SDC,16.8,12.2,0.437,16.9,-0.2,0.5,0.0,0.017
23.0,17.6,1.1,-1.5,0.0,0.6,21.1,1.0,0.03,0.235,78.0,NBA,1380.0,-2.2,10.1,0.3,14.6,PF,1984,1.4,DEN,13.4,15.5,0.471,22.2,0.2,1.3,0.0,0.044
26.0,15.4,0.6,-2.9,0.0,-1.0,19.1,0.4,0.115,0.209,51.0,NBA,312.0,-1.9,8.6,0.1,13.6,PF,1987,1.1,HOU,11.1,13.9,0.474,22.4,-0.1,0.5,0.0,0.082
27.0,10.4,0.7,-0.2,0.0,0.5,17.0,1.6,0.342,0.175,74.0,NBA,1350.0,-0.7,7.3,0.7,11.1,PF,1988,1.8,TOT,11.4,12.1,0.474,15.6,0.6,2.3,0.0,0.082
27.0,11.2,0.0,4.7,0.0,-3.1,15.7,0.1,0.577,0.192,12.0,NBA,53.0,7.7,17.8,0.2,22.9,PF,1988,0.9,HOU,3.4,16.8,0.567,22.1,0.1,0.3,0.0,0.253
27.0,10.4,0.7,-0.4,0.0,0.6,17.0,1.6,0.327,0.174,62.0,NBA,1297.0,-1.1,6.8,0.4,10.7,PF,1988,1.8,POR,11.9,11.9,0.468,15.4,0.5,2.0,0.0,0.075
28.0,11.4,0.6,-0.7,0.0,0.0,17.5,1.2,0.405,0.109,72.0,NBA,1082.0,-0.7,6.0,0.9,12.0,PF,1989,1.9,POR,12.9,11.6,0.509,14.9,0.4,2.1,0.0,0.093
29.0,13.4,0.9,-0.1,0.0,-0.1,18.8,0.5,0.474,0.109,54.0,NBA,604.0,0.0,5.9,0.4,13.3,PF,1990,1.6,CHH,10.5,11.9,0.522,17.4,0.3,1.0,0.0,0.077
