age,ast_per_poss,blk_per_poss,def_rtg,drb_per_poss,fg2_pct,fg2_per_poss,fg2a_per_poss,fg3_pct,fg3_per_poss,fg3a_per_poss,fg_pct,fg_per_poss,fga_per_poss,ft_pct,ft_per_poss,fta_per_poss,g,gs,lg_id,mp,off_rtg,orb_per_poss,pf_per_poss,pos,pts_per_poss,season,stl_per_poss,team_id,tov_per_poss,trb_per_poss
22.0,4.4,1.0,108.0,5.9,0.405,6.1,15.1,0.368,0.3,0.7,0.404,6.4,15.8,0.696,1.8,2.5,78.0,5.0,NBA,1274.0,94.0,4.1,6.2,C,14.7,1983,2.1,SDC,3.4,10.0
23.0,6.1,0.9,110.0,8.5,0.435,8.5,19.5,0.158,0.1,0.6,0.426,8.6,20.1,0.773,3.7,4.7,78.0,17.0,NBA,1380.0,101.0,4.3,5.8,PF,20.9,1984,1.4,DEN,3.4,12.8
26.0,5.1,0.5,106.0,8.5,0.447,8.5,18.9,0.25,0.6,2.5,0.424,9.1,21.4,0.759,3.4,4.5,51.0,0.0,NBA,312.0,102.0,3.7,5.7,PF,22.2,1987,1.1,HOU,2.9,12.2
27.0,3.8,0.5,107.0,7.3,0.426,4.2,9.9,0.32,1.6,5.2,0.39,5.9,15.1,0.753,2.0,2.6,74.0,3.0,NBA,1350.0,105.0,3.1,4.7,PF,15.4,1988,1.8,TOT,2.1,10.4
27.0,3.6,0.0,108.0,7.1,0.455,4.4,9.8,0.4,5.3,13.3,0.423,9.8,23.1,0.8,3.6,4.4,12.0,0.0,NBA,53.0,132.0,8.0,3.6,PF,28.5,1988,0.9,HOU,0.9,15.1
27.0,3.9,0.6,107.0,7.3,0.424,4.2,9.9,0.311,1.5,4.8,0.387,5.7,14.8,0.75,1.9,2.6,62.0,3.0,NBA,1297.0,103.0,2.9,4.8,PF,14.9,1988,1.8,POR,2.1,10.2
28.0,4.2,0.5,107.0,7.2,0.464,4.1,8.8,0.348,2.1,6.0,0.417,6.2,14.9,0.842,1.4,1.6,72.0,3.0,NBA,1082.0,109.0,2.6,4.3,PF,15.8,1989,1.9,POR,2.3,9.9
29.0,4.5,0.7,109.0,7.6,0.459,4.1,9.0,0.37,3.0,8.1,0.417,7.1,17.1,0.783,1.5,1.9,54.0,2.0,NBA,604.0,106.0,2.7,5.2,PF,18.7,1990,1.6,CHH,2.1,10.3
