age,ast,blk,drb,fg,fg2,fg2a,fg3,fg3a,fga,ft,fta,game_score,lg_id,mp,orb,pf,pts,season,stl,team_id,tov,trb
29.0,4.0,0.0,6.0,8.0,4.0,11.0,5.0,9.0,16.0,5.0,8.0,15.5,NBA,32,1.0,5.0,26.0,2017,2.0,DAL,6.0,6.0
30.0,2.0,0.0,2.0,8.0,6.0,8.0,3.0,5.0,13.0,0.0,0.0,10.3,NBA,25,0.0,2.0,18.0,2018,0.0,BOS,3.0,2.0
