age,ast,blk,drb,fg,fg2,fg2a,fg3,fg3a,fga,ft,fta,game_score,lg_id,mp,orb,pf,pts,season,stl,team_id,tov,trb
21.0,1.0,0.0,2.0,2.0,2.0,5.0,0.0,1.0,5.0,0.0,0.0,2.9,NBA,10,1.0,2.0,4.0,2006,0.0,DEN,0.0,3.0
22.0,1.0,0.0,4.0,2.0,1.0,3.0,1.0,3.0,5.0,1.0,2.0,3.3,NBA,19,0.0,2.0,5.0,2007,0.0,DEN,0.0,4.0
23.0,1.0,0.0,6.0,9.0,6.0,8.0,3.0,5.0,13.0,5.0,6.0,20.0,NBA,38,3.0,5.0,23.0,2008,1.0,DEN,2.0,9.0
24.0,2.0,1.0,5.0,5.0,2.0,4.0,4.0,7.0,8.0,3.0,5.0,15.8,NBA,24,3.0,4.0,16.0,2009,1.0,DEN,1.0,8.0
