age,and1s,astd_pts,drawn_offensive,drawn_shooting,fouls_offensive,fouls_shooting,g,lg_id,mp,own_shots_blk,pct_1,pct_2,pct_3,pct_4,pct_5,plus_minus_net,plus_minus_on,pos,season,team_id,tov_bad_pass,tov_lost_ball
21.0,11.0,34.0,2.0,40.0,4.0,34.0,61.0,NBA,519.0,13.0,0.0,0.0,8.0,59.0,33.0,-2.7,-2.1,PF,2006,DEN,3.0,8.0
22.0,7.0,105.0,5.0,61.0,26.0,81.0,79.0,NBA,1488.0,31.0,0.0,0.0,29.0,66.0,5.0,-0.3,1.7,PF,2007,DEN,22.0,17.0
23.0,12.0,223.0,5.0,100.0,20.0,88.0,79.0,NBA,1889.0,35.0,0.0,1.0,62.0,36.0,1.0,2.3,4.7,SF,2008,DEN,31.0,23.0
24.0,22.0,143.0,3.0,101.0,12.0,72.0,82.0,NBA,1824.0,39.0,0.0,0.0,58.0,41.0,1.0,-8.5,-0.9,SF,2009,DEN,16.0,37.0
26.0,7.0,93.0,3.0,32.0,11.0,43.0,39.0,NBA,1032.0,17.0,0.0,0.0,75.0,25.0,0.0,3.7,-4.2,SF,2011,TOR,15.0,22.0
27.0,8.0,109.0,4.0,39.0,15.0,47.0,49.0,NBA,1057.0,19.0,0.0,2.0,67.0,30.0,0.0,4.8,-0.5,SF,2012,TOR,17.0,25.0
28.0,4.0,39.0,0.0,11.0,5.0,22.0,20.0,NBA,376.0,7.0,0.0,0.0,62.0,38.0,0.0,-6.4,-7.4,SF,2013,TOR,4.0,4.0
