age,ast,blk,drb,efg_pct,fg,fg2,fg2_pct,fg2a,fg3,fg3_pct,fg3a,fg_pct,fga,ft,ft_pct,fta,g,gs,lg_id,mp,orb,pf,pos,pts,season,stl,team_id,tov,trb
21.0,2.0,0.0,3.0,0.375,3.0,3.0,0.429,7.0,0.0,0.0,1.0,0.375,8.0,0.0,0.0,0.0,3.0,0.0,NBA,14.0,1.0,3.0,PF,6.0,2006,0.0,DEN,0.0,4.0
22.0,2.0,0.0,8.0,0.269,3.0,2.0,0.286,7.0,1.0,0.167,6.0,0.231,13.0,1.0,0.5,2.0,5.0,0.0,NBA,66.0,0.0,6.0,PF,8.0,2007,0.0,DEN,0.0,8.0
23.0,3.0,0.0,18.0,0.573,22.0,19.0,0.704,27.0,3.0,0.214,14.0,0.537,41.0,9.0,0.692,13.0,4.0,3.0,NBA,122.0,8.0,11.0,SF,56.0,2008,1.0,DEN,5.0,26.0
24.0,7.0,1.0,37.0,0.598,31.0,14.0,0.538,26.0,17.0,0.425,40.0,0.47,66.0,18.0,0.75,24.0,14.0,0.0,NBA,210.0,8.0,17.0,SF,97.0,2009,5.0,DEN,2.0,45.0
