age,ast_per_g,blk_per_g,drb_per_g,efg_pct,fg2_pct,fg2_per_g,fg2a_per_g,fg3_pct,fg3_per_g,fg3a_per_g,fg_pct,fg_per_g,fga_per_g,ft_pct,ft_per_g,fta_per_g,g,gs,lg_id,mp_per_g,orb_per_g,pf_per_g,pos,pts_per_g,season,stl_per_g,team_id,tov_per_g,trb_per_g
22.0,2.6,0.2,1.5,0.481,0.482,2.9,6.0,0.3,0.1,0.3,0.475,3.0,6.3,0.85,1.1,1.3,80.0,2.0,NBA,19.5,0.6,2.0,SG,7.1,1989,0.8,SAC,1.0,2.1
23.0,3.3,0.1,2.1,0.47,0.47,3.8,8.0,0.313,0.1,0.4,0.462,3.9,8.5,0.871,1.8,2.0,76.0,29.0,NBA,24.4,0.5,2.4,SG,9.7,1990,0.8,SAC,1.5,2.6
26.0,4.0,0.0,2.0,0.514,0.522,2.9,5.6,0.25,0.1,0.3,0.507,3.0,5.9,0.863,1.4,1.6,73.0,31.0,NBA,20.9,0.3,2.0,PG,7.4,1993,0.6,SAS,1.3,2.2
27.0,4.2,0.0,1.7,0.499,0.497,3.8,7.7,0.349,0.2,0.6,0.487,4.0,8.2,0.824,1.8,2.2,77.0,56.0,NBA,25.3,0.4,2.2,SG,10.0,1994,0.8,SAS,1.3,2.1
28.0,3.0,0.2,2.2,0.529,0.507,4.1,8.1,0.407,0.9,2.2,0.486,5.0,10.2,0.79,1.7,2.2,75.0,71.0,NBA,31.5,0.4,2.4,SG,12.5,1995,0.8,SAS,0.7,2.6
29.0,3.8,0.1,2.9,0.527,0.518,5.1,9.9,0.38,0.7,1.8,0.497,5.8,11.7,0.832,2.2,2.6,82.0,82.0,NBA,33.7,0.4,2.0,SG,14.5,1996,1.0,SAS,1.2,3.3
30.0,3.2,0.1,2.4,0.496,0.501,4.5,8.9,0.314,0.6,1.9,0.467,5.1,10.8,0.868,1.6,1.8,72.0,53.0,NBA,31.2,0.5,1.8,SG,12.3,1997,0.8,SAS,1.3,2.9
31.0,3.4,0.1,2.6,0.458,0.441,3.6,8.1,0.436,0.3,0.7,0.441,3.9,8.9,0.796,1.4,1.7,54.0,38.0,NBA,31.9,0.2,2.1,SG,9.5,1998,0.7,SAS,1.0,2.8
32.0,3.6,0.1,1.8,0.446,0.421,2.1,5.0,0.433,0.3,0.6,0.422,2.4,5.6,0.8,0.8,1.0,48.0,7.0,NBA,22.8,0.3,1.3,PG,5.9,1999,0.7,MIL,1.1,2.1
33.0,2.4,0.0,1.5,0.483,0.482,2.2,4.5,0.333,0.1,0.4,0.471,2.3,4.9,0.897,0.5,0.6,67.0,0.0,NBA,18.1,0.1,1.2,PG,5.2,2000,0.5,MIL,0.7,1.6
34.0,1.9,0.0,1.1,0.455,0.475,1.6,3.4,0.077,0.0,0.2,0.453,1.6,3.6,0.932,0.6,0.7,65.0,1.0,NBA,14.2,0.2,1.2,PG,3.9,2001,0.4,TOT,0.5,1.3
34.0,2.1,0.0,0.9,0.339,0.358,1.0,2.8,0.111,0.0,0.3,0.333,1.0,3.1,1.0,0.6,0.6,29.0,1.0,NBA,13.7,0.1,1.2,PG,2.7,2001,0.2,GSW,0.5,1.1
34.0,1.8,0.1,1.2,0.528,0.543,2.1,3.9,0.0,0.0,0.1,0.528,2.1,4.0,0.893,0.7,0.8,36.0,0.0,NBA,14.6,0.2,1.2,PG,4.9,2001,0.6,PHO,0.5,1.4
35.0,1.0,0.0,0.0,0.25,0.25,0.5,2.0,0.0,0.0,0.0,0.25,0.5,2.0,0.0,0.0,0.0,2.0,0.0,NBA,3.0,0.0,0.0,PG,1.0,2002,0.0,PHO,0.0,0.0
