age,ast_per_g,blk_per_g,drb_per_g,efg_pct,fg2_pct,fg2_per_g,fg2a_per_g,fg3_pct,fg3_per_g,fg3a_per_g,fg_pct,fg_per_g,fga_per_g,ft_pct,ft_per_g,fta_per_g,g,gs,lg_id,mp_per_g,orb_per_g,pf_per_g,pos,pts_per_g,season,stl_per_g,team_id,tov_per_g,trb_per_g
23.0,9.8,0.4,5.2,0.472,0.419,2.6,6.2,0.364,1.6,4.4,0.396,4.2,10.6,0.526,2.0,3.8,5.0,5.0,NBA,41.4,0.8,2.2,PG,12.0,1997,2.2,PHO,2.6,6.0
24.0,7.8,0.5,4.5,0.379,0.431,5.5,12.8,0.0,0.0,1.8,0.379,5.5,14.5,0.813,3.3,4.0,4.0,4.0,NBA,42.8,1.3,3.3,PG,14.3,1998,4.0,PHO,3.0,5.8
25.0,10.3,0.3,2.0,0.465,0.519,4.7,9.0,0.25,1.3,5.3,0.419,6.0,14.3,0.714,1.7,2.3,3.0,3.0,NBA,42.0,0.3,4.0,PG,15.0,1999,1.7,PHO,3.0,2.3
26.0,8.8,0.2,5.3,0.473,0.424,2.3,5.5,0.364,1.3,3.7,0.4,3.7,9.2,0.778,1.2,1.5,6.0,6.0,NBA,38.2,1.3,2.3,PG,9.8,2000,1.8,PHO,3.8,6.7
27.0,13.3,0.0,3.8,0.348,0.346,4.5,13.0,0.235,1.0,4.3,0.319,5.5,17.3,0.75,2.3,3.0,4.0,4.0,NBA,41.5,2.3,3.3,PG,14.3,2001,2.0,PHO,3.0,6.0
28.0,9.1,0.4,6.1,0.439,0.492,6.5,13.2,0.189,0.9,4.5,0.415,7.4,17.7,0.808,4.0,5.0,20.0,20.0,NBA,40.2,2.1,2.0,PG,19.6,2002,1.7,NJN,3.4,8.2
29.0,8.2,0.2,5.9,0.452,0.435,5.2,11.9,0.327,1.7,5.2,0.402,6.9,17.1,0.825,4.7,5.7,20.0,20.0,NBA,42.6,1.8,2.3,PG,20.1,2003,1.8,NJN,4.0,7.7
30.0,9.0,0.5,5.2,0.372,0.407,3.0,7.4,0.208,0.9,4.4,0.333,3.9,11.7,0.811,3.9,4.8,11.0,11.0,NBA,43.1,1.5,1.4,PG,12.6,2004,2.3,NJN,3.9,6.6
31.0,7.3,0.0,6.5,0.47,0.405,3.8,9.3,0.367,2.8,7.5,0.388,6.5,16.8,0.545,1.5,2.8,4.0,4.0,NBA,45.5,2.5,4.0,PG,17.3,2005,2.5,NJN,2.3,9.0
32.0,9.6,0.2,5.6,0.428,0.415,3.1,7.5,0.3,1.4,4.5,0.371,4.5,12.0,0.826,1.7,2.1,11.0,11.0,NBA,40.9,2.0,2.8,PG,12.0,2006,1.5,NJN,2.2,7.6
33.0,10.9,0.4,9.0,0.547,0.448,2.5,5.6,0.42,2.8,6.8,0.432,5.3,12.3,0.52,1.1,2.1,12.0,12.0,NBA,40.3,1.9,2.6,PG,14.6,2007,1.8,NJN,3.4,10.9
34.0,6.8,0.4,4.8,0.5,0.4,2.0,5.0,0.462,1.2,2.6,0.421,3.2,7.6,0.625,1.0,1.6,5.0,5.0,NBA,36.0,1.6,2.4,PG,8.6,2008,1.4,DAL,1.8,6.4
35.0,5.9,0.3,5.1,0.584,0.472,1.7,3.6,0.447,2.1,4.7,0.458,3.8,8.3,0.85,1.7,2.0,10.0,10.0,NBA,38.6,0.7,2.4,PG,11.4,2009,2.2,DAL,2.0,5.8
36.0,7.0,0.2,5.8,0.402,0.278,0.8,3.0,0.321,1.5,4.7,0.304,2.3,7.7,0.917,1.8,2.0,6.0,6.0,NBA,40.5,1.0,2.5,PG,8.0,2010,2.3,DAL,1.5,6.8
37.0,7.3,0.5,4.0,0.531,0.457,1.0,2.2,0.374,2.0,5.5,0.398,3.0,7.7,0.8,1.1,1.4,21.0,21.0,NBA,35.4,0.5,1.7,PG,9.3,2011,1.9,DAL,2.7,4.5
38.0,6.0,0.3,5.3,0.451,0.333,1.3,3.8,0.346,2.3,6.5,0.341,3.5,10.3,0.9,2.3,2.5,4.0,4.0,NBA,36.0,0.8,1.8,PG,11.5,2012,3.0,DAL,2.8,6.0
39.0,2.0,0.3,2.9,0.18,0.0,0.0,0.7,0.176,0.3,1.4,0.12,0.3,2.1,1.0,0.2,0.2,12.0,0.0,NBA,20.6,0.6,1.0,SG,0.9,2013,1.0,NYK,1.1,3.5
