age,ast_pct,blk_pct,bpm,bpm-dum,dbpm,drb_pct,dws,fg3a_per_fga_pct,fta_per_fga_pct,g,lg_id,mp,obpm,orb_pct,ows,per,pos,season,stl_pct,team_id,tov_pct,trb_pct,ts_pct,usg_pct,vorp,ws,ws-dum,ws_per_48
24.0,8.4,1.5,-3.8,0.0,-1.3,14.0,1.6,0.149,0.331,79.0,NBA,2158.0,-2.5,5.2,-0.5,12.7,PF,2008,1.1,LAC,11.4,9.6,0.504,24.1,-1.0,1.1,0.0,0.025
25.0,6.9,1.7,-3.5,0.0,-1.2,11.0,1.0,0.075,0.298,71.0,NBA,2654.0,-2.3,5.2,0.2,12.6,SF,2009,1.2,LAC,9.9,8.0,0.502,22.6,-1.0,1.3,0.0,0.023
26.0,7.1,1.3,-2.7,0.0,-0.8,10.0,1.0,0.046,0.312,75.0,NBA,2079.0,-1.9,6.4,1.2,11.8,SF,2010,1.1,TOT,11.7,8.2,0.523,19.0,-0.4,2.2,0.0,0.05
26.0,7.2,1.2,-3.0,0.0,-1.2,8.9,0.5,0.03,0.302,51.0,NBA,1405.0,-1.8,7.0,1.0,11.6,SF,2010,0.9,LAC,11.2,7.9,0.526,18.9,-0.4,1.5,0.0,0.05
26.0,7.1,1.5,-2.0,0.0,-0.1,12.3,0.5,0.079,0.333,24.0,NBA,674.0,-2.0,5.2,0.2,12.1,SF,2010,1.6,WAS,12.7,8.7,0.517,19.1,0.0,0.7,0.0,0.051
27.0,7.2,0.7,-4.3,0.0,-1.8,13.4,0.6,0.06,0.329,71.0,NBA,1383.0,-2.5,4.5,1.0,11.7,SF-PF,2011,1.3,TOT,11.5,8.8,0.531,17.8,-0.8,1.6,0.0,0.054
27.0,7.7,0.6,-3.4,0.0,-1.5,12.2,0.4,0.076,0.327,49.0,NBA,1069.0,-1.9,4.7,0.9,11.8,SF,2011,1.3,WAS,10.5,8.3,0.525,17.3,-0.4,1.3,0.0,0.058
27.0,5.3,0.7,-7.3,0.0,-2.7,17.4,0.2,0.01,0.337,22.0,NBA,314.0,-4.5,3.5,0.1,11.3,PF,2011,1.1,GSW,14.3,10.3,0.549,19.6,-0.4,0.3,0.0,0.042
