age,ast,blk,drb,efg_pct,fg,fg2,fg2_pct,fg2a,fg3,fg3_pct,fg3a,fg_pct,fga,ft,ft_pct,fta,g,gs,lg_id,mp,orb,pf,pos,pts,season,stl,team_id,tov,trb
27.0,4.0,3.0,17.0,0.448,11.0,7.0,0.389,18.0,4.0,0.364,11.0,0.379,29.0,1.0,1.0,1.0,5.0,3.0,NBA,104.0,7.0,6.0,SF,27.0,2008,6.0,TOR,2.0,24.0
28.0,1.0,1.0,6.0,1.2,5.0,3.0,1.0,3.0,2.0,1.0,2.0,1.0,5.0,0.0,0.0,2.0,3.0,0.0,NBA,40.0,3.0,5.0,SF,12.0,2009,1.0,MIA,2.0,9.0
29.0,5.0,5.0,14.0,0.75,14.0,6.0,0.75,8.0,8.0,0.5,16.0,0.583,24.0,2.0,0.667,3.0,11.0,0.0,NBA,113.0,2.0,8.0,SF,38.0,2010,4.0,CLE,0.0,16.0
