age,avg_dist,fg2_dunk,fg2_pct,fg2_pct_ast,fg2a_pct_fga,fg3_heave,fg3_pct,fg3_pct_ast,fg3_pct_corner,fg3a_heave,fg3a_pct_fga,fg_pct,fg_pct_00_03,fg_pct_03_10,fg_pct_10_16,fg_pct_16_xx,g,lg_id,mp,pct_fg2_dunk,pct_fg3a_corner,pct_fga_00_03,pct_fga_03_10,pct_fga_10_16,pct_fga_16_xx,pos,season,team_id
22.0,0.0,0.0,1.0,0.0,1.0,0.0,0.0,0.0,0.0,0.0,0.0,1.0,1.0,0.0,0.0,0.0,1.0,NBA,10.0,0.0,0.0,1.0,0.0,0.0,0.0,PG,2001,MIL
23.0,15.6,0.0,0.588,0.6,0.895,0.0,0.0,0.0,0.0,1.0,0.105,0.526,0.8,0.0,0.75,0.429,10.0,NBA,92.0,0.0,0.0,0.263,0.053,0.211,0.368,PG,2002,SAS
25.0,12.6,0.0,0.46,0.594,0.943,0.0,0.222,0.0,0.0,1.0,0.057,0.447,0.742,0.296,0.467,0.387,53.0,NBA,660.0,0.0,0.333,0.195,0.17,0.189,0.39,PG,2004,SAS
26.0,14.8,0.0,0.464,0.374,0.834,0.0,0.368,0.771,0.368,2.0,0.166,0.449,0.463,0.431,0.519,0.462,74.0,NBA,1887.0,0.0,0.2,0.188,0.113,0.094,0.438,PG,2005,CHA
27.0,15.4,0.0,0.405,0.571,0.86,0.0,0.29,0.778,0.273,0.0,0.14,0.389,0.553,0.211,0.333,0.397,66.0,NBA,818.0,0.0,0.355,0.172,0.086,0.054,0.548,PG,2006,SAC
28.0,16.1,0.0,0.477,0.581,0.871,0.0,0.241,0.714,0.375,0.0,0.129,0.446,0.629,0.333,0.429,0.455,36.0,NBA,846.0,0.0,0.276,0.156,0.054,0.063,0.598,PG,2007,TOT
28.0,14.9,0.0,0.5,0.417,0.8,0.0,0.5,0.333,0.0,0.0,0.2,0.5,0.714,0.0,0.0,0.538,13.0,NBA,100.0,0.0,0.0,0.233,0.067,0.067,0.433,PG,2007,SAC
28.0,16.2,0.0,0.474,0.605,0.881,0.0,0.174,1.0,0.375,0.0,0.119,0.438,0.607,0.4,0.5,0.446,23.0,NBA,746.0,0.0,0.348,0.144,0.052,0.062,0.624,PG,2007,LAC
29.0,16.2,0.0,0.315,0.468,0.828,0.0,0.355,0.909,0.714,1.0,0.172,0.322,0.483,0.2,0.333,0.278,57.0,NBA,606.0,0.0,0.226,0.161,0.083,0.083,0.5,PG,2008,UTA
30.0,13.7,0.0,0.341,0.567,0.936,0.0,0.0,0.0,0.0,0.0,0.064,0.319,0.364,0.375,0.167,0.37,39.0,NBA,348.0,0.0,0.0,0.234,0.085,0.128,0.489,PG,2009,TOT
30.0,13.6,0.0,0.313,0.56,0.952,0.0,0.0,0.0,0.0,0.0,0.048,0.298,0.35,0.286,0.091,0.357,28.0,NBA,312.0,0.0,0.0,0.238,0.083,0.131,0.5,PG,2009,LAC
30.0,14.8,0.0,0.625,0.6,0.8,0.0,0.0,0.0,0.0,0.0,0.2,0.5,0.5,1.0,1.0,0.5,11.0,NBA,36.0,0.0,0.0,0.2,0.1,0.1,0.4,PG,2009,DEN
31.0,17.5,0.0,0.5,1.0,1.0,0.0,0.0,0.0,0.0,0.0,0.0,0.5,0.0,0.0,0.0,0.5,5.0,NBA,22.0,0.0,0.0,0.0,0.0,0.0,1.0,PG,2010,TOT
31.0,16.0,0.0,0.0,0.0,1.0,0.0,0.0,0.0,0.0,0.0,0.0,0.0,0.0,0.0,0.0,0.0,1.0,NBA,5.0,0.0,0.0,0.0,0.0,0.0,1.0,PG,2010,MIN
31.0,19.0,0.0,1.0,1.0,1.0,0.0,0.0,0.0,0.0,0.0,0.0,1.0,0.0,0.0,0.0,1.0,4.0,NBA,17.0,0.0,0.0,0.0,0.0,0.0,1.0,PG,2010,NOH
