age,ast_per_g,blk_per_g,drb_per_g,efg_pct,fg2_pct,fg2_per_g,fg2a_per_g,fg3_pct,fg3_per_g,fg3a_per_g,fg_pct,fg_per_g,fga_per_g,ft_pct,ft_per_g,fta_per_g,g,gs,lg_id,mp_per_g,orb_per_g,pf_per_g,pos,pts_per_g,season,stl_per_g,team_id,tov_per_g,trb_per_g
25.0,0.1,0.0,0.4,0.55,0.55,1.6,2.9,0.0,0.0,0.0,0.55,1.6,2.9,0.0,0.0,0.0,7.0,0.0,NBA,8.9,0.0,0.7,PG,3.1,2004,0.7,SAS,0.1,0.4
27.0,0.6,0.0,0.2,0.308,0.308,0.8,2.6,0.0,0.0,0.0,0.308,0.8,2.6,1.0,0.4,0.4,5.0,0.0,NBA,10.4,0.2,1.6,PG,2.0,2006,0.6,SAC,0.8,0.4
29.0,0.0,0.0,0.0,0.5,1.0,0.5,0.5,0.0,0.0,0.5,0.5,0.5,1.0,0.0,0.0,0.0,2.0,0.0,NBA,3.0,0.0,0.0,PG,1.0,2008,0.0,UTA,0.0,0.0
30.0,0.6,0.1,0.3,0.5,0.5,0.1,0.2,0.0,0.0,0.0,0.5,0.1,0.2,0.0,0.0,0.0,9.0,0.0,NBA,2.1,0.0,0.6,PG,0.2,2009,0.2,DEN,0.1,0.3
