age,ast_per_poss,blk_per_poss,def_rtg,drb_per_poss,fg2_pct,fg2_per_poss,fg2a_per_poss,fg3_pct,fg3_per_poss,fg3a_per_poss,fg_pct,fg_per_poss,fga_per_poss,ft_pct,ft_per_poss,fta_per_poss,g,gs,lg_id,mp,off_rtg,orb_per_poss,pf_per_poss,pos,pts_per_poss,season,stl_per_poss,team_id,tov_per_poss,trb_per_poss
22.0,5.2,0.0,114.0,0.0,1.0,5.2,5.2,0.0,0.0,0.0,1.0,5.2,5.2,0.0,0.0,0.0,1.0,0.0,NBA,10.0,64.0,0.0,0.0,PG,10.4,2001,0.0,MIL,10.4,0.0
23.0,7.0,0.6,97.0,5.2,0.588,5.8,9.9,0.0,0.0,1.2,0.526,5.8,11.0,1.0,3.5,3.5,10.0,0.0,NBA,92.0,106.0,2.3,9.3,PG,15.1,2002,4.1,SAS,4.6,7.5
25.0,6.6,0.4,95.0,5.6,0.46,5.6,12.2,0.222,0.2,0.7,0.447,5.8,13.0,0.767,2.7,3.5,53.0,5.0,NBA,660.0,104.0,0.8,4.8,PG,14.4,2004,2.3,SAS,2.4,6.4
26.0,10.1,0.4,107.0,5.1,0.464,6.1,13.2,0.368,1.0,2.6,0.449,7.1,15.8,0.785,4.3,5.5,74.0,27.0,NBA,1887.0,112.0,0.5,4.6,PG,19.5,2005,2.7,CHA,2.8,5.6
27.0,4.5,0.3,107.0,3.8,0.405,4.9,12.1,0.29,0.6,2.0,0.389,5.5,14.1,0.661,2.4,3.6,66.0,0.0,NBA,818.0,89.0,0.8,5.4,PG,13.9,2006,2.0,SAC,2.7,4.5
28.0,6.4,0.1,106.0,5.2,0.477,5.8,12.1,0.241,0.4,1.8,0.446,6.2,13.9,0.894,2.6,2.9,36.0,22.0,NBA,846.0,105.0,0.9,5.2,PG,15.5,2007,2.7,TOT,2.4,6.1
28.0,5.1,0.0,109.0,6.6,0.5,6.1,12.2,0.5,1.5,3.0,0.5,7.6,15.2,0.909,5.1,5.6,13.0,0.0,NBA,100.0,122.0,1.0,11.6,PG,21.8,2007,1.5,SAC,2.0,7.6
28.0,6.6,0.1,105.0,5.0,0.474,5.7,12.1,0.174,0.3,1.6,0.438,6.0,13.8,0.889,2.3,2.6,23.0,22.0,NBA,746.0,102.0,0.9,4.3,PG,14.6,2007,2.9,LAC,2.4,5.9
29.0,7.3,0.3,107.0,4.2,0.315,4.0,12.7,0.355,0.9,2.6,0.322,4.9,15.3,0.844,3.2,3.8,57.0,0.0,NBA,606.0,95.0,0.4,6.4,PG,14.0,2008,2.5,UTA,2.4,4.7
30.0,7.2,0.6,112.0,4.9,0.341,4.5,13.2,0.0,0.0,0.9,0.319,4.5,14.0,0.783,2.7,3.4,39.0,2.0,NBA,348.0,85.0,1.9,5.8,PG,11.7,2009,1.8,TOT,3.3,6.9
30.0,7.2,0.7,112.0,5.0,0.313,4.2,13.4,0.0,0.0,0.7,0.298,4.2,14.0,0.789,2.5,3.2,28.0,2.0,NBA,312.0,82.0,2.0,5.8,PG,10.9,2009,2.0,LAC,3.2,7.0
30.0,7.1,0.0,114.0,4.2,0.625,7.1,11.3,0.0,0.0,2.8,0.5,7.1,14.1,0.75,4.2,5.7,11.0,0.0,NBA,36.0,104.0,1.4,5.7,PG,18.4,2009,0.0,DEN,4.2,5.7
31.0,14.0,2.3,103.0,4.7,0.5,2.3,4.7,0.0,0.0,0.0,0.5,2.3,4.7,0.0,0.0,0.0,5.0,0.0,NBA,22.0,79.0,0.0,9.3,PG,4.7,2010,4.7,TOT,7.0,4.7
31.0,10.0,0.0,98.0,0.0,0.0,0.0,10.0,0.0,0.0,0.0,0.0,0.0,10.0,0.0,0.0,0.0,1.0,0.0,NBA,5.0,50.0,0.0,0.0,PG,0.0,2010,10.0,MIN,0.0,0.0
31.0,15.2,3.0,104.0,6.1,1.0,3.0,3.0,0.0,0.0,0.0,1.0,3.0,3.0,0.0,0.0,0.0,4.0,0.0,NBA,17.0,84.0,0.0,12.2,PG,6.1,2010,3.0,NOH,9.1,6.1
