age,ast_per_g,blk_per_g,drb_per_g,efg_pct,fg2_pct,fg2_per_g,fg2a_per_g,fg3_pct,fg3_per_g,fg3a_per_g,fg_pct,fg_per_g,fga_per_g,ft_pct,ft_per_g,fta_per_g,g,gs,lg_id,mp_per_g,orb_per_g,pf_per_g,pos,pts_per_g,season,stl_per_g,team_id,tov_per_g,trb_per_g
24.0,0.3,0.4,1.8,0.466,0.471,1.7,3.7,0.0,0.0,0.0,0.466,1.7,3.7,0.68,1.3,1.9,55.0,0.0,NBA,12.4,1.2,2.5,C,4.8,2003,0.2,CHI,0.8,3.0
25.0,0.3,0.5,2.0,0.495,0.495,1.6,3.3,0.333,0.0,0.0,0.493,1.7,3.4,0.579,0.7,1.2,62.0,5.0,NBA,12.4,1.0,2.0,C-PF,4.0,2004,0.3,TOT,0.6,3.0
25.0,0.4,0.4,1.7,0.561,0.542,1.9,3.4,1.0,0.1,0.1,0.551,1.9,3.5,0.625,0.4,0.6,14.0,1.0,NBA,10.5,0.8,2.2,PF,4.3,2004,0.1,CHI,0.8,2.5
25.0,0.3,0.5,2.2,0.469,0.472,1.7,3.5,0.0,0.0,0.0,0.469,1.7,3.6,0.536,0.8,1.6,36.0,4.0,NBA,13.5,1.2,1.9,C,4.2,2004,0.4,TOR,0.6,3.4
25.0,0.4,0.4,1.7,0.5,0.516,1.3,2.6,0.0,0.0,0.1,0.5,1.3,2.7,0.75,0.8,1.0,12.0,0.0,NBA,11.0,0.9,1.9,PF,3.4,2004,0.2,WAS,0.4,2.6
26.0,0.0,0.0,1.0,0.273,0.273,0.8,2.8,0.0,0.0,0.0,0.273,0.8,2.8,0.0,0.0,0.5,4.0,0.0,NBA,9.0,1.0,2.5,PF,1.5,2005,0.0,NOH,1.0,2.0
27.0,0.1,0.2,1.8,0.433,0.433,1.1,2.5,0.0,0.0,0.0,0.433,1.1,2.5,0.8,0.7,0.9,41.0,0.0,NBA,9.8,1.1,1.4,C-PF,2.9,2006,0.3,TOT,0.5,2.9
27.0,0.1,0.3,2.0,0.458,0.458,1.4,3.1,0.0,0.0,0.0,0.458,1.4,3.1,0.842,0.7,0.8,23.0,0.0,NBA,12.2,1.7,2.1,C,3.6,2006,0.4,HOU,0.6,3.7
27.0,0.1,0.1,1.4,0.375,0.375,0.7,1.8,0.0,0.0,0.0,0.375,0.7,1.8,0.75,0.7,0.9,18.0,0.0,NBA,6.6,0.4,0.4,PF,2.0,2006,0.1,CHA,0.4,1.8
