age,and1s,astd_pts,drawn_offensive,drawn_shooting,fouls_offensive,fouls_shooting,g,lg_id,mp,own_shots_blk,pct_1,pct_2,pct_3,pct_4,pct_5,plus_minus_net,plus_minus_on,pos,season,team_id,tov_bad_pass,tov_lost_ball
22.0,1.0,2.0,0.0,3.0,0.0,4.0,16.0,NBA,92.0,4.0,0.0,0.0,3.0,96.0,1.0,11.8,13.5,PF,2009,ATL,0.0,2.0
23.0,0.0,0.0,1.0,2.0,0.0,3.0,7.0,NBA,33.0,4.0,0.0,0.0,23.0,77.0,0.0,-29.1,-23.8,SF,2010,ATL,2.0,1.0
