age,ast,blk,drb,fg,fg2,fg2a,fg3,fg3a,fga,ft,fta,game_score,lg_id,mp,orb,pf,pts,season,stl,team_id,tov,trb
22.0,2.0,1.0,4.0,5.0,4.0,8.0,3.0,3.0,11.0,3.0,5.0,10.6,NBA,30,2.0,4.0,13.0,2010,1.0,DET,4.0,6.0
23.0,1.0,1.0,2.0,4.0,3.0,7.0,2.0,3.0,9.0,4.0,6.0,6.9,NBA,40,1.0,4.0,10.0,2011,1.0,DET,2.0,3.0
24.0,2.0,0.0,4.0,5.0,5.0,6.0,1.0,3.0,8.0,2.0,2.0,7.4,NBA,30,2.0,6.0,11.0,2012,3.0,NOH,2.0,4.0
25.0,1.0,0.0,2.0,1.0,1.0,4.0,0.0,0.0,4.0,0.0,0.0,0.9,NBA,7,0.0,0.0,2.0,2013,0.0,LAC,0.0,2.0
