age,avg_dist,fg2_dunk,fg2_pct,fg2_pct_ast,fg2a_pct_fga,fg3_heave,fg3_pct,fg3_pct_ast,fg3_pct_corner,fg3a_heave,fg3a_pct_fga,fg_pct,fg_pct_00_03,fg_pct_03_10,fg_pct_10_16,fg_pct_16_xx,g,lg_id,mp,pct_fg2_dunk,pct_fg3a_corner,pct_fga_00_03,pct_fga_03_10,pct_fga_10_16,pct_fga_16_xx,pos,season,team_id
20.0,7.5,101.0,0.488,0.677,0.842,0.0,0.25,0.88,0.16,0.0,0.158,0.45,0.601,0.208,0.133,0.304,82.0,NBA,2151.0,0.174,0.25,0.586,0.076,0.071,0.109,SF,2002,UTA
21.0,9.9,109.0,0.527,0.683,0.822,0.0,0.325,0.892,0.308,2.0,0.178,0.491,0.69,0.182,0.213,0.348,80.0,NBA,2213.0,0.176,0.228,0.483,0.051,0.073,0.215,SF,2003,UTA
22.0,9.3,100.0,0.471,0.529,0.784,0.0,0.338,0.956,0.471,1.0,0.216,0.443,0.575,0.373,0.174,0.242,78.0,NBA,2895.0,0.114,0.085,0.521,0.072,0.049,0.142,PF,2004,UTA
23.0,10.2,43.0,0.536,0.652,0.817,0.0,0.299,0.913,0.111,0.0,0.183,0.493,0.649,0.382,0.333,0.456,41.0,NBA,1349.0,0.107,0.117,0.44,0.081,0.107,0.188,PF,2005,UTA
24.0,9.4,71.0,0.489,0.533,0.84,0.0,0.308,0.889,0.385,0.0,0.16,0.46,0.624,0.227,0.391,0.31,69.0,NBA,2604.0,0.1,0.111,0.488,0.09,0.063,0.199,SF,2006,UTA
25.0,9.7,51.0,0.528,0.729,0.821,0.0,0.213,0.875,0.222,0.0,0.179,0.471,0.696,0.179,0.25,0.322,70.0,NBA,2049.0,0.122,0.24,0.488,0.067,0.057,0.208,SF,2007,UTA
26.0,11.4,57.0,0.54,0.71,0.787,0.0,0.379,0.909,0.31,0.0,0.213,0.506,0.69,0.25,0.174,0.418,72.0,NBA,2217.0,0.108,0.25,0.426,0.059,0.042,0.259,SF,2008,UTA
27.0,10.3,60.0,0.475,0.75,0.872,0.0,0.274,1.0,0.538,0.0,0.128,0.449,0.597,0.133,0.364,0.389,67.0,NBA,1831.0,0.111,0.178,0.461,0.079,0.039,0.293,PF,2009,UTA
28.0,11.0,73.0,0.555,0.729,0.815,0.0,0.292,1.0,0.333,0.0,0.185,0.506,0.712,0.111,0.455,0.397,58.0,NBA,1681.0,0.156,0.169,0.454,0.056,0.023,0.282,SF,2010,UTA
29.0,11.2,68.0,0.489,0.696,0.819,0.0,0.367,0.972,0.533,0.0,0.181,0.467,0.629,0.367,0.286,0.326,64.0,NBA,1999.0,0.133,0.153,0.428,0.111,0.026,0.255,SF,2011,UTA
31.0,9.6,79.0,0.566,0.715,0.786,0.0,0.292,0.971,0.4,1.0,0.214,0.507,0.664,0.382,0.231,0.365,64.0,NBA,2034.0,0.15,0.083,0.532,0.098,0.023,0.132,SF,2013,MIN
32.0,5.8,29.0,0.523,0.691,0.969,0.0,0.2,1.0,0.0,0.0,0.031,0.513,0.67,0.375,0.333,0.13,45.0,NBA,857.0,0.181,0.4,0.606,0.2,0.019,0.144,PF,2014,BRK
33.0,2.2,0.0,0.0,0.0,1.0,0.0,0.0,0.0,0.0,0.0,0.0,0.0,0.0,0.0,0.0,0.0,7.0,NBA,36.0,0.0,0.0,0.6,0.4,0.0,0.0,SF,2015,BRK
