lg_id,salary,season,team_name
NBA,2563320.0,2011,Los Angeles Clippers
NBA,2755560.0,2012,New Orleans Hornets
NBA,2947800.0,2013,New Orleans Hornets
NBA,3700000.0,2014,New Orleans Pelicans
NBA,981084.0,2015,Dallas Mavericks
NBA,7500000.0,2016,Portland Trail Blazers
NBA,7680965.0,2017,Portland Trail Blazers
NBA,7319035.0,2018,Portland Trail Blazers
NBA,6957105.0,2019,Portland Trail Blazers
