age,ast,blk,drb,fg,fg2,fg2a,fg3,fg3a,fga,ft,fta,game_score,lg_id,mp,orb,pf,pts,season,stl,team_id,tov,trb
20.0,11.0,2.0,13.0,10.0,8.0,15.0,2.0,3.0,16.0,9.0,12.0,25.0,NBA,47,4.0,6.0,23.0,2007,7.0,BOS,4.0,14.0
21.0,16.0,3.0,10.0,11.0,11.0,18.0,2.0,2.0,18.0,7.0,10.0,26.4,NBA,44,6.0,6.0,24.0,2008,6.0,BOS,7.0,12.0
22.0,17.0,2.0,12.0,13.0,12.0,20.0,2.0,3.0,20.0,11.0,15.0,30.6,NBA,48,6.0,5.0,32.0,2009,7.0,BOS,9.0,15.0
23.0,18.0,1.0,9.0,12.0,11.0,20.0,2.0,5.0,20.0,8.0,14.0,28.6,NBA,50,6.0,5.0,30.0,2010,6.0,BOS,8.0,13.0
24.0,24.0,1.0,11.0,11.0,11.0,19.0,1.0,2.0,20.0,7.0,9.0,28.2,NBA,48,4.0,5.0,26.0,2011,8.0,BOS,8.0,11.0
25.0,20.0,1.0,13.0,15.0,14.0,26.0,2.0,4.0,27.0,10.0,13.0,31.1,NBA,48,4.0,5.0,35.0,2012,6.0,BOS,8.0,17.0
26.0,20.0,3.0,10.0,12.0,12.0,21.0,2.0,4.0,21.0,6.0,10.0,22.6,NBA,53,4.0,6.0,30.0,2013,5.0,BOS,9.0,13.0
27.0,18.0,1.0,10.0,9.0,8.0,20.0,4.0,6.0,22.0,6.0,8.0,21.1,NBA,45,4.0,5.0,22.0,2014,4.0,BOS,7.0,11.0
28.0,19.0,1.0,11.0,12.0,9.0,16.0,5.0,7.0,19.0,3.0,10.0,24.8,NBA,39,3.0,6.0,29.0,2015,4.0,TOT,8.0,13.0
28.0,19.0,1.0,11.0,8.0,6.0,15.0,4.0,7.0,17.0,3.0,10.0,24.8,NBA,37,3.0,4.0,20.0,2015,4.0,BOS,7.0,13.0
28.0,14.0,1.0,9.0,12.0,9.0,16.0,5.0,7.0,19.0,3.0,4.0,24.0,NBA,39,3.0,6.0,29.0,2015,4.0,DAL,8.0,10.0
29.0,20.0,1.0,10.0,11.0,8.0,17.0,4.0,7.0,20.0,7.0,14.0,28.9,NBA,49,5.0,6.0,27.0,2016,6.0,SAC,9.0,12.0
30.0,15.0,1.0,11.0,11.0,8.0,13.0,4.0,7.0,18.0,3.0,6.0,22.3,NBA,41,4.0,5.0,25.0,2017,4.0,CHI,7.0,12.0
31.0,25.0,2.0,10.0,11.0,11.0,15.0,4.0,7.0,18.0,5.0,6.0,26.9,NBA,43,3.0,5.0,25.0,2018,5.0,NOP,8.0,12.0
32.0,17.0,2.0,12.0,10.0,7.0,12.0,4.0,12.0,19.0,3.0,4.0,28.7,NBA,43,3.0,6.0,24.0,2019,6.0,LAL,7.0,13.0
33.0,7.0,0.0,6.0,2.0,1.0,3.0,1.0,3.0,6.0,0.0,0.0,7.9,NBA,15,0.0,1.0,5.0,2020,0.0,LAL,0.0,6.0
