age,ast,blk,drb,efg_pct,fg,fg2,fg2_pct,fg2a,fg3,fg3_pct,fg3a,fg_pct,fga,ft,ft_pct,fta,g,gs,lg_id,mp,orb,pf,pos,pts,season,stl,team_id,tov,trb
21.0,172.0,8.0,68.0,0.416,107.0,102.0,0.42,243.0,5.0,0.25,20.0,0.407,263.0,47.0,0.691,68.0,26.0,26.0,NBA,831.0,39.0,74.0,PG,266.0,2008,45.0,BOS,47.0,107.0
22.0,137.0,3.0,104.0,0.43,93.0,87.0,0.437,199.0,6.0,0.25,24.0,0.417,223.0,44.0,0.657,67.0,14.0,14.0,NBA,577.0,32.0,47.0,PG,236.0,2009,35.0,BOS,38.0,136.0
23.0,223.0,3.0,96.0,0.477,151.0,142.0,0.47,302.0,9.0,0.375,24.0,0.463,326.0,68.0,0.596,114.0,24.0,24.0,NBA,975.0,38.0,57.0,PG,379.0,2010,46.0,BOS,72.0,134.0
24.0,86.0,0.0,38.0,0.477,51.0,51.0,0.49,104.0,0.0,0.0,3.0,0.477,107.0,24.0,0.632,38.0,9.0,9.0,NBA,345.0,11.0,16.0,PG,126.0,2011,10.0,BOS,33.0,49.0
25.0,227.0,2.0,93.0,0.482,141.0,133.0,0.491,271.0,8.0,0.267,30.0,0.468,301.0,39.0,0.696,56.0,19.0,19.0,NBA,810.0,35.0,40.0,PG,329.0,2012,45.0,BOS,72.0,128.0
28.0,6.0,0.0,1.0,0.475,9.0,8.0,0.444,18.0,1.0,0.5,2.0,0.45,20.0,0.0,0.0,0.0,2.0,2.0,NBA,37.0,1.0,6.0,PG,19.0,2015,0.0,DAL,2.0,2.0
30.0,20.0,1.0,10.0,0.423,11.0,11.0,0.55,20.0,0.0,0.0,6.0,0.423,26.0,1.0,0.5,2.0,2.0,2.0,NBA,67.0,7.0,6.0,PG,23.0,2017,7.0,CHI,4.0,17.0
31.0,110.0,2.0,59.0,0.457,38.0,30.0,0.411,73.0,8.0,0.421,19.0,0.413,92.0,9.0,0.643,14.0,9.0,9.0,NBA,302.0,9.0,20.0,PG,93.0,2018,13.0,NOP,33.0,68.0
