age,avg_dist,fg2_dunk,fg2_pct,fg2_pct_ast,fg2a_pct_fga,fg3_heave,fg3_pct,fg3_pct_ast,fg3_pct_corner,fg3a_heave,fg3a_pct_fga,fg_pct,fg_pct_00_03,fg_pct_03_10,fg_pct_10_16,fg_pct_16_xx,g,lg_id,mp,pct_fg2_dunk,pct_fg3a_corner,pct_fga_00_03,pct_fga_03_10,pct_fga_10_16,pct_fga_16_xx,pos,season,team_id
23.0,18.1,0.0,0.313,0.2,0.593,0.0,0.455,0.6,0.0,0.0,0.407,0.37,0.667,0.0,0.25,0.286,8.0,NBA,90.0,0.0,0.091,0.111,0.074,0.148,0.259,SG,2019,DAL
24.0,23.0,0.0,0.0,0.0,0.0,0.0,1.0,1.0,1.0,0.0,1.0,1.0,0.0,0.0,0.0,0.0,2.0,NBA,8.0,0.0,1.0,0.0,0.0,0.0,0.0,SG,2020,MIA
