article_url,date,headline
https://thesixersense.com/2019/10/21/philadelphia-76ers-time-process-rankings/,2019/10/21,The Sixer Sense: Philadelphia 76ers: All-Time Process rankings
https://sircharlesincharge.com/2019/06/29/boston-celtics-wasted-assets-nets/,2019/06/29,Sir Charles In Charge: Boston Celtics: How they squandered the greatest heist in NBA trade history
