age,ast_per_mp,blk_per_mp,drb_per_mp,fg2_pct,fg2_per_mp,fg2a_per_mp,fg3_pct,fg3_per_mp,fg3a_per_mp,fg_pct,fg_per_mp,fga_per_mp,ft_pct,ft_per_mp,fta_per_mp,g,gs,lg_id,mp,orb_per_mp,pf_per_mp,pos,pts_per_mp,season,stl_per_mp,team_id,tov_per_mp,trb_per_mp
23.0,2.4,2.4,4.8,0.0,0.0,7.2,0.0,0.0,0.0,0.0,0.0,7.2,0.5,2.4,4.8,3.0,0.0,NBA,15.0,2.4,0.0,PF,2.4,2012,2.4,SAS,0.0,7.2
24.0,2.5,1.3,6.9,0.5,3.2,6.3,0.0,0.0,0.0,0.5,3.2,6.3,0.625,3.2,5.1,12.0,0.0,NBA,57.0,3.2,5.1,PF,9.5,2013,1.3,TOT,1.9,10.1
24.0,3.4,1.7,8.6,0.0,0.0,1.7,0.0,0.0,0.0,0.0,0.0,1.7,0.75,5.1,6.9,5.0,0.0,NBA,21.0,0.0,1.7,PF,5.1,2013,0.0,GSW,1.7,8.6
24.0,2.0,1.0,6.0,0.556,5.0,9.0,0.0,0.0,0.0,0.556,5.0,9.0,0.5,2.0,4.0,7.0,0.0,NBA,36.0,5.0,7.0,PF,12.0,2013,2.0,CHI,2.0,11.0
25.0,1.1,1.7,9.1,0.5,3.4,6.9,0.25,0.6,2.3,0.438,4.0,9.1,0.0,0.0,1.1,8.0,0.0,NBA,63.0,2.9,2.9,PF,8.6,2014,0.0,TOT,5.1,12.0
25.0,0.0,4.8,19.2,0.25,2.4,9.6,0.0,0.0,0.0,0.25,2.4,9.6,0.0,0.0,4.8,1.0,0.0,NBA,15.0,2.4,0.0,PF,4.8,2014,0.0,SAS,2.4,21.6
25.0,1.5,0.7,6.0,0.625,3.7,6.0,0.25,0.7,3.0,0.5,4.5,9.0,0.0,0.0,0.0,7.0,0.0,NBA,48.0,3.0,3.7,PF,9.7,2014,0.0,UTA,6.0,9.0
26.0,1.3,0.2,7.4,0.545,3.3,6.1,0.0,0.0,1.3,0.45,3.3,7.4,0.692,1.7,2.4,17.0,0.0,NBA,194.0,3.0,3.2,PF,8.4,2015,0.6,PHI,2.4,10.4
