age,ast_pct,blk_pct,bpm,bpm-dum,dbpm,drb_pct,dws,fg3a_per_fga_pct,fta_per_fga_pct,g,lg_id,mp,obpm,orb_pct,ows,per,pos,season,stl_pct,team_id,tov_pct,trb_pct,ts_pct,usg_pct,vorp,ws,ws-dum,ws_per_48
22.0,12.2,0.0,1.6,0.0,2.3,19.6,0.0,0.0,0.571,3.0,NBA,23.0,-0.7,14.1,0.0,19.7,PF,2019,6.2,TOT,18.6,16.8,0.571,20.1,0.0,0.1,0.0,0.117
22.0,8.0,0.0,1.6,0.0,2.9,22.5,0.0,0.0,0.333,2.0,NBA,20.0,-1.3,10.9,0.0,19.9,PF,2019,7.2,PHO,22.5,16.6,0.654,19.1,0.0,0.1,0.0,0.127
22.0,40.5,0.0,1.5,0.0,-1.3,0.0,0.0,0.0,2.0,1.0,NBA,3.0,2.8,35.4,0.0,18.4,PF,2019,0.0,MIA,0.0,17.7,0.266,26.8,0.0,0.0,0.0,0.045
