age,and1s,astd_pts,drawn_offensive,drawn_shooting,fouls_offensive,fouls_shooting,g,lg_id,mp,own_shots_blk,pct_1,pct_2,pct_3,pct_4,pct_5,plus_minus_net,plus_minus_on,pos,season,team_id,tov_bad_pass,tov_lost_ball
21.0,0.0,4.0,1.0,2.0,0.0,7.0,21.0,NBA,93.0,0.0,0.0,3.0,97.0,0.0,0.0,-5.5,-2.5,SG,2016,CHO,1.0,0.0
22.0,0.0,8.0,0.0,1.0,0.0,1.0,5.0,NBA,17.0,0.0,0.0,42.0,58.0,0.0,0.0,-16.6,-16.1,SG,2017,CHO,0.0,0.0
23.0,0.0,29.0,2.0,4.0,1.0,11.0,9.0,NBA,233.0,0.0,38.0,62.0,1.0,0.0,0.0,-12.1,-14.9,SG,2018,DAL,2.0,0.0
