age,ast,blk,drb,efg_pct,fg,fg2,fg2_pct,fg2a,fg3,fg3_pct,fg3a,fg_pct,fga,ft,ft_pct,fta,g,gs,lg_id,mp,orb,pf,pos,pts,season,stl,team_id,tov,trb
22.0,6.0,2.0,3.0,0.409,4.0,3.0,0.375,8.0,1.0,0.333,3.0,0.364,11.0,0.0,0.0,0.0,5.0,0.0,NBA,39.0,1.0,5.0,SG,9.0,1993,2.0,LAL,4.0,4.0
24.0,0.0,0.0,0.0,0.0,0.0,0.0,0.0,4.0,0.0,0.0,0.0,0.0,4.0,0.0,0.0,0.0,2.0,0.0,NBA,6.0,0.0,3.0,SG,0.0,1995,0.0,NYK,1.0,0.0
29.0,6.0,1.0,4.0,0.346,3.0,0.0,0.0,5.0,3.0,0.375,8.0,0.231,13.0,3.0,0.5,6.0,3.0,1.0,NBA,61.0,1.0,10.0,SG,12.0,2000,4.0,TOR,4.0,5.0
30.0,26.0,9.0,28.0,0.404,25.0,20.0,0.392,51.0,5.0,0.294,17.0,0.368,68.0,24.0,0.828,29.0,8.0,8.0,NBA,304.0,7.0,31.0,SG,79.0,2001,20.0,SAC,19.0,35.0
31.0,79.0,9.0,73.0,0.473,54.0,37.0,0.544,68.0,17.0,0.266,64.0,0.409,132.0,52.0,0.8,65.0,16.0,16.0,NBA,644.0,19.0,64.0,SG,177.0,2002,33.0,SAC,44.0,92.0
32.0,55.0,3.0,59.0,0.404,37.0,31.0,0.413,75.0,6.0,0.25,24.0,0.374,99.0,29.0,0.935,31.0,12.0,12.0,NBA,381.0,15.0,22.0,SG,109.0,2003,12.0,SAC,22.0,74.0
33.0,47.0,5.0,57.0,0.443,56.0,43.0,0.398,108.0,13.0,0.394,33.0,0.397,141.0,41.0,0.854,48.0,12.0,12.0,NBA,461.0,17.0,35.0,SG,166.0,2004,22.0,SAC,22.0,74.0
