age,ast_per_g,blk_per_g,drb_per_g,efg_pct,fg2_pct,fg2_per_g,fg2a_per_g,fg3_pct,fg3_per_g,fg3a_per_g,fg_pct,fg_per_g,fga_per_g,ft_pct,ft_per_g,fta_per_g,g,gs,lg_id,mp_per_g,orb_per_g,pf_per_g,pos,pts_per_g,season,stl_per_g,team_id,tov_per_g,trb_per_g
22.0,1.2,0.4,0.6,0.409,0.375,0.6,1.6,0.333,0.2,0.6,0.364,0.8,2.2,0.0,0.0,0.0,5.0,0.0,NBA,7.8,0.2,1.0,SG,1.8,1993,0.4,LAL,0.8,0.8
24.0,0.0,0.0,0.0,0.0,0.0,0.0,2.0,0.0,0.0,0.0,0.0,0.0,2.0,0.0,0.0,0.0,2.0,0.0,NBA,3.0,0.0,1.5,SG,0.0,1995,0.0,NYK,0.5,0.0
29.0,2.0,0.3,1.3,0.346,0.0,0.0,1.7,0.375,1.0,2.7,0.231,1.0,4.3,0.5,1.0,2.0,3.0,1.0,NBA,20.3,0.3,3.3,SG,4.0,2000,1.3,TOR,1.3,1.7
30.0,3.3,1.1,3.5,0.404,0.392,2.5,6.4,0.294,0.6,2.1,0.368,3.1,8.5,0.828,3.0,3.6,8.0,8.0,NBA,38.0,0.9,3.9,SG,9.9,2001,2.5,SAC,2.4,4.4
31.0,4.9,0.6,4.6,0.473,0.544,2.3,4.3,0.266,1.1,4.0,0.409,3.4,8.3,0.8,3.3,4.1,16.0,16.0,NBA,40.3,1.2,4.0,SG,11.1,2002,2.1,SAC,2.8,5.8
32.0,4.6,0.3,4.9,0.404,0.413,2.6,6.3,0.25,0.5,2.0,0.374,3.1,8.3,0.935,2.4,2.6,12.0,12.0,NBA,31.8,1.3,1.8,SG,9.1,2003,1.0,SAC,1.8,6.2
33.0,3.9,0.4,4.8,0.443,0.398,3.6,9.0,0.394,1.1,2.8,0.397,4.7,11.8,0.854,3.4,4.0,12.0,12.0,NBA,38.4,1.4,2.9,SG,13.8,2004,1.8,SAC,1.8,6.2
