age,ast,blk,drb,efg_pct,fg,fg2,fg2_pct,fg2a,fg3,fg3_pct,fg3a,fg_pct,fga,ft,ft_pct,fta,g,gs,lg_id,mp,orb,pf,pos,pts,season,stl,team_id,tov,trb
24.0,33.0,3.0,32.0,0.466,68.0,65.0,0.489,133.0,3.0,0.188,16.0,0.456,149.0,32.0,0.744,43.0,54.0,0.0,NBA,441.0,39.0,39.0,PF,171.0,1992,12.0,TOT,25.0,71.0
24.0,7.0,0.0,5.0,0.455,10.0,10.0,0.5,20.0,0.0,0.0,2.0,0.455,22.0,6.0,0.75,8.0,15.0,0.0,NBA,67.0,4.0,8.0,PF,26.0,1992,0.0,CHI,6.0,9.0
24.0,26.0,3.0,27.0,0.469,58.0,55.0,0.487,113.0,3.0,0.214,14.0,0.457,127.0,26.0,0.743,35.0,39.0,0.0,NBA,374.0,35.0,31.0,PF,145.0,1992,12.0,MIN,19.0,62.0
25.0,11.0,2.0,28.0,0.506,40.0,39.0,0.542,72.0,1.0,0.125,8.0,0.5,80.0,16.0,0.615,26.0,37.0,0.0,NBA,248.0,27.0,33.0,PF,97.0,1993,4.0,TOT,17.0,55.0
25.0,1.0,0.0,0.0,0.0,0.0,0.0,0.0,0.0,0.0,0.0,1.0,0.0,1.0,0.0,0.0,0.0,2.0,0.0,NBA,8.0,0.0,1.0,PF,0.0,1993,0.0,MIN,1.0,0.0
25.0,10.0,2.0,28.0,0.513,40.0,39.0,0.542,72.0,1.0,0.143,7.0,0.506,79.0,16.0,0.615,26.0,35.0,0.0,NBA,240.0,27.0,32.0,PF,97.0,1993,4.0,DET,16.0,55.0
26.0,11.0,3.0,13.0,0.36,17.0,15.0,0.417,36.0,2.0,0.143,14.0,0.34,50.0,22.0,0.786,28.0,28.0,0.0,NBA,155.0,9.0,18.0,PF,58.0,1994,8.0,DEN,10.0,22.0
27.0,1.0,0.0,8.0,0.3,3.0,3.0,0.333,9.0,0.0,0.0,1.0,0.3,10.0,0.0,0.0,0.0,8.0,0.0,NBA,39.0,4.0,5.0,PF,6.0,1995,0.0,DEN,1.0,12.0
