age,ast_per_mp,blk_per_mp,drb_per_mp,fg2_pct,fg2_per_mp,fg2a_per_mp,fg3_pct,fg3_per_mp,fg3a_per_mp,fg_pct,fg_per_mp,fga_per_mp,ft_pct,ft_per_mp,fta_per_mp,g,gs,lg_id,mp,orb_per_mp,pf_per_mp,pos,pts_per_mp,season,stl_per_mp,team_id,tov_per_mp,trb_per_mp
24.0,2.7,0.2,2.6,0.489,5.3,10.9,0.188,0.2,1.3,0.456,5.6,12.2,0.744,2.6,3.5,54.0,0.0,NBA,441.0,3.2,3.2,PF,14.0,1992,1.0,TOT,2.0,5.8
24.0,3.8,0.0,2.7,0.5,5.4,10.7,0.0,0.0,1.1,0.455,5.4,11.8,0.75,3.2,4.3,15.0,0.0,NBA,67.0,2.1,4.3,PF,14.0,1992,0.0,CHI,3.2,4.8
24.0,2.5,0.3,2.6,0.487,5.3,10.9,0.214,0.3,1.3,0.457,5.6,12.2,0.743,2.5,3.4,39.0,0.0,NBA,374.0,3.4,3.0,PF,14.0,1992,1.2,MIN,1.8,6.0
25.0,1.6,0.3,4.1,0.542,5.7,10.5,0.125,0.1,1.2,0.5,5.8,11.6,0.615,2.3,3.8,37.0,0.0,NBA,248.0,3.9,4.8,PF,14.1,1993,0.6,TOT,2.5,8.0
25.0,4.5,0.0,0.0,0.0,0.0,0.0,0.0,0.0,4.5,0.0,0.0,4.5,0.0,0.0,0.0,2.0,0.0,NBA,8.0,0.0,4.5,PF,0.0,1993,0.0,MIN,4.5,0.0
25.0,1.5,0.3,4.2,0.542,5.9,10.8,0.143,0.1,1.0,0.506,6.0,11.8,0.615,2.4,3.9,35.0,0.0,NBA,240.0,4.1,4.8,PF,14.5,1993,0.6,DET,2.4,8.2
26.0,2.6,0.7,3.0,0.417,3.5,8.4,0.143,0.5,3.3,0.34,3.9,11.6,0.786,5.1,6.5,28.0,0.0,NBA,155.0,2.1,4.2,PF,13.5,1994,1.9,DEN,2.3,5.1
27.0,0.9,0.0,7.4,0.333,2.8,8.3,0.0,0.0,0.9,0.3,2.8,9.2,0.0,0.0,0.0,8.0,0.0,NBA,39.0,3.7,4.6,PF,5.5,1995,0.0,DEN,0.9,11.1
