age,ast,blk,drb,fg,fg2,fg2a,fg3,fg3a,fga,ft,fta,game_score,lg_id,mp,orb,pf,pts,season,stl,team_id,tov,trb
25.0,1.0,0.0,1.0,1.0,1.0,2.0,0.0,0.0,2.0,0.0,0.0,1.7,NBA,3,0.0,0.0,2.0,2009,0.0,HOU,0.0,1.0
26.0,1.0,1.0,6.0,3.0,3.0,5.0,0.0,0.0,5.0,1.0,4.0,11.1,NBA,19,6.0,4.0,7.0,2010,1.0,TOT,2.0,12.0
26.0,1.0,1.0,6.0,3.0,3.0,5.0,0.0,0.0,5.0,1.0,2.0,11.1,NBA,19,6.0,4.0,7.0,2010,1.0,HOU,2.0,12.0
26.0,0.0,1.0,4.0,2.0,2.0,3.0,0.0,0.0,3.0,1.0,4.0,4.4,NBA,14,2.0,3.0,4.0,2010,1.0,SAC,1.0,4.0
27.0,3.0,3.0,10.0,5.0,5.0,12.0,0.0,0.0,12.0,4.0,8.0,15.2,NBA,37,10.0,6.0,13.0,2011,4.0,TOR,4.0,20.0
31.0,2.0,3.0,8.0,4.0,4.0,7.0,0.0,1.0,8.0,3.0,8.0,10.5,NBA,33,7.0,6.0,8.0,2015,5.0,HOU,3.0,12.0
