age,ast_pct,blk_pct,bpm,bpm-dum,dbpm,drb_pct,dws,fg3a_per_fga_pct,fta_per_fga_pct,g,lg_id,mp,obpm,orb_pct,ows,per,pos,season,stl_pct,team_id,tov_pct,trb_pct,ts_pct,usg_pct,vorp,ws,ws-dum,ws_per_48
25.0,28.7,0.0,-3.1,0.0,-1.3,18.7,0.0,0.0,0.0,3.0,NBA,6.0,-1.7,0.0,0.0,16.1,PF,2009,0.0,HOU,0.0,9.7,0.5,15.5,0.0,0.0,0.0,0.156
26.0,2.8,1.4,-7.4,0.0,-1.7,29.9,0.1,0.0,0.6,15.0,NBA,106.0,-5.7,16.8,0.0,9.8,PF,2010,1.4,TOT,19.2,23.2,0.455,13.1,-0.1,0.1,0.0,0.062
26.0,5.4,1.3,-2.7,0.0,0.9,30.8,0.1,0.0,0.182,7.0,NBA,54.0,-3.6,22.5,0.0,11.5,PF,2010,1.9,HOU,25.2,26.5,0.463,13.0,0.0,0.1,0.0,0.088
26.0,0.0,1.4,-12.2,0.0,-4.4,29.0,0.1,0.0,1.111,8.0,NBA,52.0,-7.8,10.9,0.0,7.9,PF,2010,1.0,SAC,13.0,19.8,0.448,13.1,-0.1,0.0,0.0,0.035
27.0,7.4,2.5,0.0,0.0,1.6,25.8,0.5,0.0,0.657,43.0,NBA,522.0,-1.6,17.5,0.2,14.2,C,2011,2.4,TOR,23.4,21.6,0.529,14.3,0.3,0.8,0.0,0.072
31.0,4.4,2.3,-1.4,0.0,2.1,22.7,1.5,0.007,0.572,69.0,NBA,854.0,-3.5,13.3,0.4,11.1,PF,2015,2.3,HOU,18.4,18.0,0.507,11.3,0.1,1.9,0.0,0.108
