age,and1s,astd_pts,drawn_offensive,drawn_shooting,fouls_offensive,fouls_shooting,g,lg_id,mp,own_shots_blk,pct_1,pct_2,pct_3,pct_4,pct_5,plus_minus_net,plus_minus_on,pos,season,team_id,tov_bad_pass,tov_lost_ball
25.0,0.0,2.0,0.0,0.0,0.0,0.0,3.0,NBA,6.0,1.0,0.0,0.0,0.0,100.0,0.0,-31.8,-27.3,PF,2009,HOU,0.0,0.0
26.0,0.0,6.0,0.0,4.0,5.0,10.0,15.0,NBA,106.0,8.0,0.0,0.0,0.0,89.0,12.0,15.9,13.1,PF,2010,TOT,1.0,0.0
26.0,0.0,6.0,0.0,1.0,3.0,4.0,7.0,NBA,54.0,4.0,0.0,0.0,0.0,78.0,22.0,24.5,23.6,PF,2010,HOU,1.0,0.0
26.0,0.0,0.0,0.0,3.0,2.0,6.0,8.0,NBA,52.0,4.0,0.0,0.0,0.0,99.0,1.0,6.1,1.4,PF,2010,SAC,0.0,0.0
27.0,2.0,55.0,1.0,30.0,5.0,43.0,43.0,NBA,522.0,11.0,0.0,0.0,0.0,29.0,71.0,4.6,-2.8,C,2011,TOR,14.0,11.0
31.0,3.0,59.0,0.0,26.0,17.0,87.0,69.0,NBA,854.0,25.0,0.0,0.0,0.0,50.0,50.0,-3.0,1.2,PF,2015,HOU,11.0,4.0
