age,and1s,astd_pts,drawn_offensive,drawn_shooting,fouls_offensive,fouls_shooting,g,lg_id,mp,own_shots_blk,pct_1,pct_2,pct_3,pct_4,pct_5,plus_minus_net,plus_minus_on,pos,season,team_id,tov_bad_pass,tov_lost_ball
25.0,5.0,211.0,5.0,18.0,2.0,19.0,57.0,NBA,719.0,9.0,3.0,62.0,35.0,1.0,0.0,0.5,2.1,SG,2017,WAS,20.0,12.0
26.0,7.0,660.0,8.0,28.0,3.0,52.0,73.0,NBA,1643.0,22.0,2.0,83.0,15.0,0.0,0.0,3.2,2.7,SG,2018,WAS,51.0,23.0
27.0,10.0,949.0,14.0,63.0,4.0,82.0,80.0,NBA,2164.0,24.0,82.0,18.0,0.0,0.0,0.0,3.0,-1.6,PG,2019,WAS,79.0,27.0
28.0,2.0,147.0,5.0,5.0,1.0,13.0,12.0,NBA,311.0,7.0,77.0,19.0,3.0,1.0,0.0,1.1,-2.9,PG,2020,CHI,19.0,3.0
