age,ast_per_poss,blk_per_poss,def_rtg,drb_per_poss,fg2_pct,fg2_per_poss,fg2a_per_poss,fg3_pct,fg3_per_poss,fg3a_per_poss,fg_pct,fg_per_poss,fga_per_poss,ft_pct,ft_per_poss,fta_per_poss,g,gs,lg_id,mp,off_rtg,orb_per_poss,pf_per_poss,pos,pts_per_poss,season,stl_per_poss,team_id,tov_per_poss,trb_per_poss
23.0,2.9,1.0,100.0,9.1,0.5,8.6,17.2,0.167,0.5,2.9,0.452,9.1,20.0,0.783,8.6,11.0,20.0,0.0,NBA,108.0,114.0,4.8,8.6,PF,27.2,2015,2.4,IND,2.4,13.8
24.0,3.6,1.2,103.0,8.5,0.556,6.1,10.9,0.0,0.0,2.4,0.455,6.1,13.3,0.5,1.2,2.4,7.0,0.0,NBA,41.0,84.0,6.1,8.5,PF,13.3,2016,1.2,IND,6.1,14.5
