age,ast_pct,blk_pct,bpm,bpm-dum,dbpm,drb_pct,dws,fg3a_per_fga_pct,fta_per_fga_pct,g,lg_id,mp,obpm,orb_pct,ows,per,pos,season,stl_pct,team_id,tov_pct,trb_pct,ts_pct,usg_pct,vorp,ws,ws-dum,ws_per_48
19.0,13.7,1.3,-0.1,0.0,0.0,10.8,2.0,0.344,0.231,56.0,NBA,1745.0,0.0,2.7,1.0,13.6,SG,2013,1.5,WAS,10.6,6.7,0.515,22.2,0.9,3.0,0.0,0.082
20.0,16.0,0.6,-1.1,0.0,-1.3,10.2,2.4,0.299,0.164,73.0,NBA,2530.0,0.2,2.4,1.6,14.3,SG,2014,1.4,WAS,9.4,6.3,0.507,24.3,0.5,4.0,0.0,0.076
21.0,15.0,0.7,0.5,0.0,-0.1,9.6,2.4,0.304,0.195,63.0,NBA,2107.0,0.5,3.1,1.3,14.0,SG,2015,1.8,WAS,11.7,6.4,0.521,22.5,1.3,3.7,0.0,0.085
22.0,15.6,0.5,-0.6,0.0,-1.6,9.8,1.3,0.339,0.22,55.0,NBA,1708.0,1.0,2.6,1.4,15.5,SG,2016,1.5,WAS,11.3,6.2,0.547,25.3,0.6,2.7,0.0,0.076
23.0,16.2,0.7,2.2,0.0,-2.3,7.8,1.6,0.418,0.259,77.0,NBA,2684.0,4.5,2.2,6.9,20.1,SG,2017,1.5,WAS,9.6,5.0,0.604,26.5,2.8,8.5,0.0,0.152
24.0,21.0,1.1,1.7,0.0,-1.0,11.5,2.5,0.357,0.249,82.0,NBA,2977.0,2.7,2.3,4.4,18.4,SG,2018,1.6,WAS,11.5,6.9,0.564,27.6,2.7,6.9,0.0,0.111
25.0,24.1,1.6,2.8,0.0,-1.1,11.7,1.7,0.37,0.278,82.0,NBA,3028.0,3.9,3.1,5.9,20.8,SG,2019,1.9,WAS,11.0,7.4,0.581,28.4,3.7,7.6,0.0,0.12
26.0,27.9,0.7,0.4,0.0,-2.4,10.6,0.0,0.42,0.331,7.0,NBA,247.0,2.8,3.8,0.3,19.5,SG,2020,1.7,WAS,13.1,7.1,0.525,33.8,0.2,0.4,0.0,0.069
