age,ast,blk,drb,fg,fg2,fg2a,fg3,fg3a,fga,ft,fta,game_score,lg_id,mp,orb,pf,pts,season,stl,team_id,tov,trb
19.0,6.0,4.0,9.0,10.0,8.0,19.0,6.0,9.0,22.0,9.0,11.0,25.2,NBA,48,4.0,6.0,29.0,2013,3.0,WAS,5.0,12.0
20.0,8.0,2.0,9.0,15.0,11.0,18.0,6.0,10.0,25.0,6.0,10.0,25.9,NBA,52,3.0,5.0,37.0,2014,4.0,WAS,6.0,10.0
21.0,8.0,2.0,11.0,11.0,10.0,15.0,5.0,11.0,24.0,10.0,10.0,25.9,NBA,46,4.0,6.0,33.0,2015,3.0,WAS,5.0,11.0
22.0,7.0,1.0,8.0,12.0,10.0,20.0,5.0,10.0,24.0,8.0,9.0,27.8,NBA,46,6.0,5.0,34.0,2016,4.0,WAS,8.0,9.0
23.0,9.0,2.0,8.0,16.0,13.0,19.0,7.0,14.0,28.0,13.0,14.0,34.5,NBA,46,4.0,5.0,42.0,2017,4.0,WAS,5.0,10.0
24.0,11.0,3.0,10.0,21.0,16.0,26.0,7.0,13.0,37.0,13.0,16.0,33.9,NBA,48,3.0,6.0,51.0,2018,3.0,WAS,7.0,12.0
25.0,15.0,4.0,10.0,17.0,13.0,24.0,9.0,13.0,36.0,14.0,15.0,40.1,NBA,55,6.0,5.0,46.0,2019,6.0,WAS,8.0,12.0
26.0,11.0,1.0,6.0,14.0,11.0,17.0,7.0,12.0,29.0,11.0,13.0,41.8,NBA,42,3.0,4.0,46.0,2020,3.0,WAS,6.0,6.0
