age,ast,blk,drb,efg_pct,fg,fg2,fg2_pct,fg2a,fg3,fg3_pct,fg3a,fg_pct,fga,ft,ft_pct,fta,g,gs,lg_id,mp,orb,pf,pos,pts,season,stl,team_id,tov,trb
23.0,1.0,0.0,6.0,0.444,4.0,4.0,0.444,9.0,0.0,0.0,0.0,0.444,9.0,0.0,0.0,0.0,11.0,0.0,NBA,32.0,0.0,6.0,C,8.0,1994,0.0,ORL,0.0,6.0
24.0,0.0,0.0,2.0,0.0,0.0,0.0,0.0,2.0,0.0,0.0,0.0,0.0,2.0,1.0,0.5,2.0,3.0,0.0,NBA,7.0,1.0,1.0,C,1.0,1995,0.0,ORL,1.0,3.0
25.0,5.0,11.0,29.0,0.444,32.0,32.0,0.451,71.0,0.0,0.0,1.0,0.444,72.0,18.0,0.692,26.0,34.0,1.0,NBA,305.0,22.0,50.0,C,82.0,1996,4.0,LAC,16.0,51.0
26.0,1.0,1.0,7.0,0.375,3.0,3.0,0.375,8.0,0.0,0.0,0.0,0.375,8.0,1.0,0.125,8.0,5.0,1.0,NBA,72.0,2.0,12.0,C,7.0,1997,2.0,MIL,2.0,9.0
