age,ast,blk,drb,fg,fg2,fg2a,fg3,fg3a,fga,ft,fta,game_score,lg_id,mp,orb,pf,pts,season,stl,team_id,tov,trb
24.0,7.0,2.0,3.0,5.0,5.0,8.0,1.0,1.0,8.0,4.0,4.0,9.8,NBA,0.0,2.0,5.0,10.0,1989,3.0,LAL,5.0,4.0
25.0,10.0,0.0,6.0,5.0,5.0,11.0,0.0,1.0,11.0,5.0,8.0,17.3,NBA,0.0,4.0,4.0,15.0,1990,5.0,LAC,6.0,8.0
27.0,7.0,1.0,3.0,3.0,3.0,6.0,0.0,1.0,7.0,3.0,3.0,6.9,NBA,0.0,5.0,4.0,9.0,1992,2.0,LAC,5.0,8.0
