age,ast_per_g,blk_per_g,drb_per_g,efg_pct,fg2_pct,fg2_per_g,fg2a_per_g,fg3_pct,fg3_per_g,fg3a_per_g,fg_pct,fg_per_g,fga_per_g,ft_pct,ft_per_g,fta_per_g,g,gs,lg_id,mp_per_g,orb_per_g,pf_per_g,pos,pts_per_g,season,stl_per_g,team_id,tov_per_g,trb_per_g
26.0,0.8,0.5,2.3,0.461,0.464,3.0,6.4,0.0,0.0,0.0,0.461,3.0,6.5,0.753,0.9,1.1,64.0,12.0,NBA,18.3,1.2,1.7,C,6.8,2002,0.3,SEA,0.8,3.4
27.0,1.0,0.5,2.5,0.431,0.419,3.6,8.6,0.353,0.4,1.0,0.412,4.0,9.6,0.791,1.1,1.4,82.0,69.0,NBA,24.2,1.4,2.2,C,9.4,2003,0.6,SEA,0.8,3.9
28.0,0.6,0.4,2.3,0.408,0.402,2.3,5.6,0.306,0.2,0.6,0.393,2.4,6.2,0.849,1.2,1.4,61.0,14.0,NBA,15.6,0.9,1.4,C,6.3,2004,0.4,LAC,0.8,3.2
29.0,0.7,0.3,2.3,0.461,0.451,3.0,6.6,0.352,0.4,1.0,0.438,3.4,7.6,0.8,1.4,1.7,71.0,1.0,NBA,20.2,1.0,1.9,C,8.4,2005,0.6,ATL,1.1,3.4
