lg_id,salary,season,team_name
NBA,1063680.0,2004,Memphis Grizzlies
NBA,1143360.0,2005,Memphis Grizzlies
NBA,1223160.0,2006,Memphis Grizzlies
NBA,1886113.0,2007,Memphis Grizzlies
NBA,753767.0,2008,Sacramento Kings
NBA,926678.0,2009,Denver Nuggets
NBA,2500000.0,2010,Indiana Pacers
NBA,2500000.0,2011,Indiana Pacers
NBA,2700000.0,2012,Indiana Pacers
NBA,2900000.0,2013,Atlanta Hawks
NBA,387632.0,2015,Los Angeles Clippers
NBA,8819.0,2016,Cleveland Cavaliers
NBA,24022.0,2017,Cleveland Cavaliers
