age,avg_dist,fg2_dunk,fg2_pct,fg2_pct_ast,fg2a_pct_fga,fg3_heave,fg3_pct,fg3_pct_ast,fg3_pct_corner,fg3a_heave,fg3a_pct_fga,fg_pct,fg_pct_00_03,fg_pct_03_10,fg_pct_10_16,fg_pct_16_xx,g,lg_id,mp,pct_fg2_dunk,pct_fg3a_corner,pct_fga_00_03,pct_fga_03_10,pct_fga_10_16,pct_fga_16_xx,pos,season,team_id
23.0,11.0,4.0,0.286,0.643,0.925,0.0,0.25,1.0,0.5,0.0,0.075,0.283,0.529,0.429,0.0,0.111,20.0,NBA,154.0,0.075,0.5,0.321,0.132,0.132,0.34,SG,2004,MEM
24.0,13.5,10.0,0.462,0.5,0.684,0.0,0.383,1.0,0.434,0.0,0.316,0.437,0.517,0.4,0.5,0.4,52.0,NBA,649.0,0.063,0.883,0.305,0.079,0.063,0.237,SG,2005,MEM
25.0,10.9,10.0,0.438,0.453,0.92,0.0,0.143,1.0,0.15,0.0,0.08,0.414,0.621,0.222,0.217,0.371,71.0,NBA,967.0,0.049,0.952,0.361,0.103,0.087,0.369,SF,2006,MEM
26.0,9.9,20.0,0.479,0.558,0.974,0.0,0.417,1.0,0.5,2.0,0.026,0.477,0.624,0.509,0.295,0.376,78.0,NBA,1671.0,0.05,0.5,0.386,0.115,0.132,0.341,SG,2007,MEM
27.0,10.2,4.0,0.468,0.318,0.887,0.0,0.167,0.0,0.0,0.0,0.113,0.434,0.526,0.545,0.167,0.455,25.0,NBA,206.0,0.075,0.167,0.358,0.208,0.113,0.208,SG,2008,SAC
28.0,7.6,29.0,0.448,0.587,0.949,0.0,0.647,1.0,0.667,1.0,0.051,0.458,0.548,0.377,0.36,0.301,79.0,NBA,1426.0,0.101,0.882,0.5,0.158,0.074,0.217,SG,2009,DEN
29.0,10.5,33.0,0.479,0.491,0.949,0.0,0.125,1.0,0.158,1.0,0.051,0.461,0.612,0.453,0.446,0.371,76.0,NBA,1892.0,0.056,0.594,0.335,0.152,0.119,0.342,SF,2010,IND
30.0,12.8,4.0,0.491,0.291,0.818,0.0,0.359,0.929,0.419,0.0,0.182,0.467,0.574,0.5,0.393,0.466,45.0,NBA,589.0,0.023,0.795,0.22,0.196,0.131,0.271,SG,2011,IND
31.0,12.7,17.0,0.402,0.451,0.726,0.0,0.429,0.97,0.429,1.0,0.274,0.409,0.613,0.313,0.222,0.245,65.0,NBA,1052.0,0.068,0.727,0.285,0.171,0.096,0.174,SF,2012,IND
32.0,12.2,7.0,0.41,0.465,0.779,0.0,0.224,1.0,0.222,1.0,0.221,0.369,0.581,0.452,0.208,0.244,78.0,NBA,1016.0,0.032,0.735,0.279,0.189,0.108,0.203,SF,2013,TOT
32.0,12.7,4.0,0.408,0.381,0.736,0.0,0.216,1.0,0.192,1.0,0.264,0.357,0.514,0.516,0.25,0.19,50.0,NBA,635.0,0.029,0.703,0.25,0.221,0.114,0.15,SF,2013,DAL
32.0,11.4,3.0,0.414,0.586,0.854,0.0,0.25,1.0,0.3,0.0,0.146,0.39,0.667,0.273,0.125,0.292,28.0,NBA,381.0,0.037,0.833,0.329,0.134,0.098,0.293,SF,2013,ATL
34.0,12.6,0.0,0.353,1.0,0.81,0.0,0.0,0.0,0.0,0.0,0.19,0.286,0.833,0.0,0.0,0.25,33.0,NBA,123.0,0.0,1.0,0.286,0.095,0.238,0.19,SF,2015,LAC
35.0,11.1,0.0,0.417,0.4,0.857,0.0,0.5,1.0,1.0,0.0,0.143,0.429,0.0,0.667,0.5,0.667,1.0,NBA,42.0,0.0,0.5,0.286,0.214,0.143,0.214,SF,2016,CLE
36.0,10.6,0.0,0.5,1.0,0.75,0.0,0.0,0.0,0.0,0.0,0.25,0.375,1.0,0.0,0.0,1.0,1.0,NBA,12.0,0.0,1.0,0.25,0.25,0.125,0.125,SF,2017,CLE
