age,ast_per_poss,blk_per_poss,def_rtg,drb_per_poss,fg2_pct,fg2_per_poss,fg2a_per_poss,fg3_pct,fg3_per_poss,fg3a_per_poss,fg_pct,fg_per_poss,fga_per_poss,ft_pct,ft_per_poss,fta_per_poss,g,gs,lg_id,mp,off_rtg,orb_per_poss,pf_per_poss,pos,pts_per_poss,season,stl_per_poss,team_id,tov_per_poss,trb_per_poss
22.0,4.0,0.0,107.0,3.4,0.438,4.7,10.8,0.0,0.0,1.3,0.389,4.7,12.1,0.0,0.0,0.0,12.0,0.0,NBA,84.0,91.0,0.0,3.4,SG,9.4,2008,2.7,DET,0.7,3.4
23.0,0.9,1.7,117.0,1.7,0.727,7.0,9.6,0.2,1.7,8.7,0.476,8.7,18.3,0.6,2.6,4.4,4.0,0.0,NBA,66.0,96.0,0.9,7.9,SG,21.8,2009,0.0,DET,2.6,2.6
24.0,2.9,0.8,118.0,4.6,0.778,5.8,7.5,0.429,2.5,5.8,0.625,8.3,13.3,0.818,3.8,4.6,6.0,6.0,NBA,120.0,139.0,0.4,8.8,SG,22.9,2010,0.4,DEN,1.7,5.0
25.0,4.2,0.0,114.0,5.4,0.409,5.4,13.2,0.25,1.8,7.2,0.353,7.2,20.4,0.875,4.2,4.8,3.0,3.0,NBA,85.0,92.0,0.0,6.0,SG,20.4,2011,0.0,DEN,1.8,5.4
26.0,4.4,0.5,111.0,4.6,0.481,6.0,12.5,0.2,0.9,4.6,0.405,7.0,17.2,0.8,2.8,3.5,7.0,7.0,NBA,229.0,102.0,1.2,3.2,SG,17.6,2012,1.2,DEN,2.1,5.8
29.0,1.7,0.0,113.0,6.1,0.125,0.9,7.0,0.25,0.9,3.5,0.167,1.7,10.4,0.0,0.0,0.9,3.0,3.0,NBA,60.0,41.0,0.0,5.2,SG,4.3,2015,0.0,POR,2.6,6.1
