age,ast,blk,drb,efg_pct,fg,fg2,fg2_pct,fg2a,fg3,fg3_pct,fg3a,fg_pct,fga,ft,ft_pct,fta,g,gs,lg_id,mp,orb,pf,pos,pts,season,stl,team_id,tov,trb
22.0,52.0,8.0,101.0,0.432,99.0,89.0,0.461,193.0,10.0,0.208,48.0,0.411,241.0,68.0,0.782,87.0,75.0,9.0,NBA,970.0,36.0,83.0,SG,276.0,2008,31.0,DET,34.0,137.0
23.0,44.0,13.0,104.0,0.508,131.0,88.0,0.456,193.0,43.0,0.402,107.0,0.437,300.0,58.0,0.817,71.0,74.0,8.0,NBA,1234.0,30.0,144.0,SG,363.0,2009,28.0,DET,43.0,134.0
24.0,138.0,30.0,193.0,0.557,272.0,164.0,0.488,336.0,108.0,0.434,249.0,0.465,585.0,72.0,0.735,98.0,82.0,75.0,NBA,2221.0,59.0,225.0,SG,724.0,2010,46.0,DEN,74.0,252.0
25.0,168.0,31.0,206.0,0.581,312.0,207.0,0.546,379.0,105.0,0.423,248.0,0.498,627.0,138.0,0.847,163.0,69.0,69.0,NBA,2324.0,45.0,153.0,SG,867.0,2011,34.0,DEN,71.0,251.0
26.0,149.0,13.0,157.0,0.534,329.0,241.0,0.504,478.0,88.0,0.398,221.0,0.471,699.0,197.0,0.798,247.0,62.0,62.0,NBA,2086.0,40.0,134.0,SG,943.0,2012,36.0,DEN,85.0,197.0
27.0,206.0,11.0,210.0,0.478,397.0,325.0,0.489,665.0,72.0,0.3,240.0,0.439,905.0,191.0,0.857,223.0,64.0,64.0,NBA,2307.0,29.0,137.0,SF,1057.0,2013,40.0,ORL,138.0,239.0
28.0,248.0,3.0,230.0,0.522,464.0,336.0,0.473,711.0,128.0,0.427,300.0,0.459,1011.0,274.0,0.815,336.0,73.0,73.0,NBA,2552.0,32.0,136.0,SG,1330.0,2014,35.0,ORL,146.0,262.0
29.0,129.0,7.0,220.0,0.491,375.0,257.0,0.466,551.0,118.0,0.354,333.0,0.424,884.0,167.0,0.843,198.0,78.0,72.0,NBA,2502.0,27.0,167.0,SG,1035.0,2015,41.0,TOT,116.0,247.0
29.0,101.0,5.0,159.0,0.49,281.0,199.0,0.481,414.0,82.0,0.337,243.0,0.428,657.0,127.0,0.841,151.0,53.0,53.0,NBA,1750.0,21.0,108.0,SG,771.0,2015,32.0,DEN,83.0,180.0
29.0,28.0,2.0,61.0,0.493,94.0,58.0,0.423,137.0,36.0,0.4,90.0,0.414,227.0,40.0,0.851,47.0,25.0,19.0,NBA,752.0,6.0,59.0,SG,264.0,2015,9.0,POR,33.0,67.0
30.0,144.0,10.0,243.0,0.5,354.0,263.0,0.469,561.0,91.0,0.382,238.0,0.443,799.0,110.0,0.84,131.0,71.0,57.0,NBA,2371.0,23.0,142.0,SG,909.0,2016,25.0,NYK,82.0,266.0
31.0,78.0,6.0,116.0,0.514,185.0,123.0,0.457,269.0,62.0,0.411,151.0,0.44,420.0,83.0,0.892,93.0,61.0,45.0,NBA,1580.0,9.0,104.0,SG,515.0,2017,21.0,SAC,42.0,125.0
32.0,30.0,9.0,62.0,0.485,65.0,38.0,0.413,92.0,27.0,0.386,70.0,0.401,162.0,22.0,0.846,26.0,53.0,3.0,NBA,682.0,4.0,56.0,SG,179.0,2018,4.0,ORL,21.0,66.0
