age,ast_pct,blk_pct,bpm,bpm-dum,dbpm,drb_pct,dws,fg3a_per_fga_pct,fta_per_fga_pct,g,lg_id,mp,obpm,orb_pct,ows,per,pos,season,stl_pct,team_id,tov_pct,trb_pct,ts_pct,usg_pct,vorp,ws,ws-dum,ws_per_48
24.0,16.9,0.0,11.5,0.0,6.2,22.2,0.0,0.0,0.667,6.0,NBA,16.0,5.3,0.0,0.1,26.1,PG,1990,9.4,ATL,0.0,10.8,0.773,10.2,0.1,0.1,0.0,0.357
25.0,23.5,0.2,-1.8,0.0,0.1,10.3,1.9,0.097,0.258,73.0,NBA,2034.0,-1.9,2.7,0.6,11.5,PG,1991,2.1,WSB,19.1,6.5,0.507,14.5,0.1,2.5,0.0,0.058
28.0,34.3,0.2,-0.9,0.0,0.1,11.2,2.2,0.122,0.252,65.0,NBA,1714.0,-1.0,2.2,0.7,12.9,PG,1994,2.6,IND,22.8,6.9,0.49,16.9,0.5,2.8,0.0,0.08
29.0,28.8,0.4,-0.4,0.0,0.4,10.4,1.5,0.364,0.275,69.0,NBA,1028.0,-0.8,2.5,0.4,12.1,PG,1995,3.1,IND,19.5,6.5,0.484,16.7,0.4,1.9,0.0,0.088
30.0,27.4,0.3,-1.0,0.0,0.6,10.1,1.4,0.274,0.282,77.0,NBA,1164.0,-1.6,3.0,-0.1,10.2,PG,1996,3.0,IND,24.2,6.7,0.479,15.2,0.3,1.4,0.0,0.056
31.0,23.4,0.0,-1.5,0.0,-1.0,4.3,0.1,0.15,0.05,4.0,NBA,81.0,-0.5,6.0,0.1,11.0,PG,1997,2.0,IND,19.7,5.2,0.538,14.5,0.0,0.1,0.0,0.076
33.0,33.1,0.1,-0.2,0.0,-0.5,12.8,0.7,0.276,0.276,29.0,NBA,815.0,0.3,2.1,0.9,14.1,PG,1999,2.2,MIL,24.8,7.6,0.524,14.9,0.4,1.6,0.0,0.091
34.0,25.0,0.0,-4.0,0.0,-2.4,8.3,0.2,0.478,0.167,36.0,NBA,350.0,-1.6,0.3,0.1,10.2,PG,2000,3.0,TOT,15.7,4.3,0.445,14.5,-0.2,0.3,0.0,0.044
34.0,25.1,0.0,-4.2,0.0,-3.2,7.5,0.1,0.468,0.21,23.0,NBA,248.0,-1.0,0.5,0.2,10.9,PG,2000,2.3,MIL,17.1,4.0,0.487,14.7,-0.1,0.3,0.0,0.053
34.0,24.7,0.0,-3.7,0.0,-0.4,10.2,0.1,0.5,0.071,13.0,NBA,102.0,-3.2,0.0,-0.1,8.5,PG,2000,4.6,TOR,12.2,4.9,0.346,14.3,0.0,0.0,0.0,0.023
