age,ast_per_mp,blk_per_mp,drb_per_mp,fg2_pct,fg2_per_mp,fg2a_per_mp,fg3_pct,fg3_per_mp,fg3a_per_mp,fg_pct,fg_per_mp,fga_per_mp,ft_pct,ft_per_mp,fta_per_mp,g,gs,lg_id,mp,orb_per_mp,pf_per_mp,pos,pts_per_mp,season,stl_per_mp,team_id,tov_per_mp,trb_per_mp
28.0,7.9,0.1,2.8,0.355,2.7,7.7,0.286,0.4,1.5,0.344,3.2,9.2,0.842,2.3,2.7,16.0,15.0,NBA,511.0,0.8,2.8,PG,9.0,1994,2.0,IND,2.7,3.6
29.0,5.9,0.0,3.0,0.449,2.9,6.4,0.111,0.3,2.4,0.358,3.1,8.8,0.844,3.5,4.2,17.0,0.0,NBA,275.0,0.7,5.9,PG,10.1,1995,1.4,IND,2.1,3.7
30.0,1.4,0.0,1.4,0.364,2.7,7.5,0.6,2.0,3.4,0.438,4.8,10.9,1.0,1.4,1.4,5.0,0.0,NBA,53.0,0.7,3.4,PG,12.9,1996,1.4,IND,1.4,2.0
33.0,4.8,0.0,1.4,0.5,2.7,5.4,0.0,0.0,2.0,0.364,2.7,7.5,0.833,3.4,4.1,3.0,0.0,NBA,53.0,0.7,4.8,PG,8.8,1999,2.0,MIL,4.8,2.0
