age,and1s,astd_pts,drawn_offensive,drawn_shooting,fouls_offensive,fouls_shooting,g,lg_id,mp,own_shots_blk,pct_1,pct_2,pct_3,pct_4,pct_5,plus_minus_net,plus_minus_on,pos,season,team_id,tov_bad_pass,tov_lost_ball
20.0,6.0,237.0,3.0,18.0,12.0,60.0,79.0,NBA,1413.0,15.0,0.0,22.0,72.0,6.0,0.0,0.9,-1.0,SF,2016,ORL,38.0,36.0
21.0,6.0,143.0,4.0,23.0,2.0,39.0,65.0,NBA,960.0,15.0,0.0,10.0,73.0,18.0,0.0,-11.2,-15.5,SF,2017,ORL,31.0,19.0
22.0,9.0,243.0,4.0,46.0,6.0,77.0,75.0,NBA,1657.0,32.0,0.0,0.0,42.0,58.0,0.0,-3.0,-6.7,SF,2018,ORL,34.0,34.0
23.0,12.0,201.0,6.0,57.0,11.0,51.0,58.0,NBA,1206.0,29.0,0.0,6.0,60.0,34.0,0.0,-1.6,-10.3,SF,2019,NYK,43.0,19.0
24.0,1.0,33.0,3.0,9.0,2.0,14.0,12.0,NBA,267.0,12.0,0.0,0.0,34.0,66.0,0.0,5.5,1.5,SF,2020,POR,6.0,3.0
