age,ast_pct,blk_pct,bpm,bpm-dum,dbpm,drb_pct,dws,fg3a_per_fga_pct,fta_per_fga_pct,g,lg_id,mp,obpm,orb_pct,ows,per,pos,season,stl_pct,team_id,tov_pct,trb_pct,ts_pct,usg_pct,vorp,ws,ws-dum,ws_per_48
22.0,19.2,0.2,-1.9,0.0,-2.0,9.8,1.2,0.616,0.239,64.0,NBA,1503.0,0.1,1.3,1.8,12.7,PG,2003,1.3,BOS,10.3,5.5,0.515,17.7,0.0,3.0,0.0,0.096
23.0,18.1,0.6,-5.9,0.0,-2.5,6.7,0.3,0.468,0.127,36.0,NBA,443.0,-3.4,2.3,-0.7,6.2,PG,2004,2.1,TOT,12.6,4.5,0.354,19.4,-0.4,-0.5,0.0,-0.053
23.0,15.1,0.7,-5.0,0.0,-2.1,7.1,0.3,0.482,0.146,31.0,NBA,403.0,-2.9,1.9,-0.5,7.1,PG,2004,2.4,CLE,11.5,4.5,0.377,18.3,-0.3,-0.2,0.0,-0.025
23.0,48.1,0.0,-14.7,0.0,-6.4,2.8,0.0,0.381,0.0,5.0,NBA,40.0,-8.3,5.6,-0.3,-3.5,PG,2004,0.0,GSW,19.2,4.2,0.19,30.0,-0.1,-0.3,0.0,-0.34
