age,ast,blk,drb,fg,fg2,fg2a,fg3,fg3a,fga,ft,fta,game_score,lg_id,mp,orb,pf,pts,season,stl,team_id,tov,trb
23.0,6.0,0.0,5.0,4.0,3.0,3.0,2.0,5.0,5.0,2.0,2.0,10.0,NBA,26,1.0,3.0,9.0,2018,2.0,CHI,2.0,5.0
24.0,11.0,1.0,8.0,8.0,5.0,8.0,5.0,9.0,12.0,7.0,8.0,23.9,NBA,41,2.0,5.0,22.0,2019,5.0,CHI,3.0,8.0
25.0,4.0,1.0,3.0,2.0,1.0,2.0,2.0,4.0,6.0,3.0,4.0,9.4,NBA,19,3.0,6.0,6.0,2020,1.0,CHI,1.0,3.0
