age,ast_per_mp,blk_per_mp,drb_per_mp,fg2_pct,fg2_per_mp,fg2a_per_mp,fg3_pct,fg3_per_mp,fg3a_per_mp,fg_pct,fg_per_mp,fga_per_mp,ft_pct,ft_per_mp,fta_per_mp,g,gs,lg_id,mp,orb_per_mp,pf_per_mp,pos,pts_per_mp,season,stl_per_mp,team_id,tov_per_mp,trb_per_mp
22.0,0.0,0.0,6.0,0.5,3.0,6.0,0.0,0.0,3.0,0.333,3.0,9.0,0.5,3.0,6.0,2.0,0.0,NBA,12.0,0.0,3.0,PF,9.0,2016,0.0,HOU,3.0,6.0
23.0,3.4,0.0,8.6,0.333,1.7,5.1,0.0,0.0,0.0,0.333,1.7,5.1,0.5,5.1,10.3,5.0,0.0,NBA,21.0,1.7,12.0,C,8.6,2017,0.0,HOU,3.4,10.3
25.0,3.0,0.9,4.8,0.742,10.5,14.1,0.0,0.0,0.2,0.73,10.5,14.4,0.692,4.1,5.9,6.0,0.0,NBA,158.0,2.7,4.3,C,25.1,2019,0.7,LAC,1.8,7.5
