article_url,date,headline
https://www.hoopsrumors.com/2019/11/2019-offseason-in-review-golden-state-warriors.html,2019/11/20,HoopsRumors: 2019 Offseason In Review: Golden State Warriors
https://pippenainteasy.com/2019/11/03/chicago-bulls-trades-3-possible-deals-to-land-a-true-star/,2019/11/03,Pippen Ain't Easy: Chicago Bulls Trades: 3 possible deals to land a true star
https://goldengatesports.com/2019/11/03/golden-state-warriors-eric-paschall-part/,2019/11/03,Golden Gate Sports: Golden State Warriors: Eric Paschall is suddenly a crucial part of the equation
https://swarmandsting.com/2019/11/02/charlotte-hornets-win-golden-state-warriors/,2019/11/02,Swarm and Sting: Charlotte Hornets seek win over injured Golden State Warriors
