age,ast_pct,blk_pct,bpm,bpm-dum,dbpm,drb_pct,dws,fg3a_per_fga_pct,fta_per_fga_pct,g,lg_id,mp,obpm,orb_pct,ows,per,pos,season,stl_pct,team_id,tov_pct,trb_pct,ts_pct,usg_pct,vorp,ws,ws-dum,ws_per_48
21.0,13.7,1.2,-6.9,0.0,-0.9,9.5,0.2,0.283,0.019,30.0,NBA,204.0,-5.9,3.3,-0.3,3.5,SG,2019,1.2,GSW,17.1,6.5,0.374,13.5,-0.3,-0.1,0.0,-0.03
22.0,6.8,0.0,-4.1,0.0,-5.3,9.7,0.0,0.667,0.333,3.0,NBA,43.0,1.2,2.5,0.1,12.9,SG,2020,0.0,GSW,6.8,6.1,0.654,14.2,0.0,0.1,0.0,0.076
