age,ast_pct,blk_pct,bpm,bpm-dum,dbpm,drb_pct,dws,fg3a_per_fga_pct,fta_per_fga_pct,g,lg_id,mp,obpm,orb_pct,ows,per,pos,season,stl_pct,team_id,tov_pct,trb_pct,ts_pct,usg_pct,vorp,ws,ws-dum,ws_per_48
22.0,4.4,1.8,-3.2,0.0,-0.1,21.4,1.2,0.018,0.39,66.0,NBA,1494.0,-3.0,14.7,0.1,11.5,C,1995,1.1,GSW,16.3,18.0,0.49,15.4,-0.4,1.3,0.0,0.043
23.0,4.6,3.0,-1.3,0.0,0.8,16.1,0.6,0.015,0.407,59.0,NBA,723.0,-2.1,11.2,0.4,10.6,C,1996,1.4,GSW,20.1,13.6,0.578,12.0,0.1,1.1,0.0,0.072
24.0,6.8,4.8,-0.4,0.0,2.0,21.6,1.0,0.011,0.351,42.0,NBA,737.0,-2.4,15.7,0.6,14.5,C,1997,1.7,TOT,12.6,18.6,0.471,14.0,0.3,1.6,0.0,0.102
24.0,0.0,0.0,-15.5,0.0,-3.5,0.0,0.0,0.0,0.0,1.0,NBA,5.0,-11.9,0.0,0.0,-7.2,C,1997,0.0,GSW,0.0,0.0,0.0,8.9,0.0,0.0,0.0,-0.23
24.0,6.8,4.8,-0.3,0.0,2.0,21.8,1.0,0.012,0.353,41.0,NBA,732.0,-2.3,15.8,0.6,14.7,C,1997,1.7,TOR,12.7,18.7,0.473,14.0,0.3,1.6,0.0,0.105
25.0,0.0,0.0,-14.6,0.0,-5.3,11.2,0.0,0.0,0.167,6.0,NBA,30.0,-9.3,11.5,-0.1,-1.7,C,1998,0.0,MIN,38.3,11.4,0.466,15.5,-0.1,-0.1,0.0,-0.14
