age,ast_per_poss,blk_per_poss,def_rtg,drb_per_poss,fg2_pct,fg2_per_poss,fg2a_per_poss,fg3_pct,fg3_per_poss,fg3a_per_poss,fg_pct,fg_per_poss,fga_per_poss,ft_pct,ft_per_poss,fta_per_poss,g,gs,lg_id,mp,off_rtg,orb_per_poss,pf_per_poss,pos,pts_per_poss,season,stl_per_poss,team_id,tov_per_poss,trb_per_poss
20.0,1.3,5.7,106.0,8.7,0.694,7.2,10.3,0.0,0.0,0.0,0.694,7.2,10.3,0.6,2.9,4.8,66.0,19.0,NBA,1360.0,140.0,6.3,7.7,C,17.2,2019,1.8,NYK,1.2,15.0
21.0,1.3,4.7,105.0,8.7,0.745,11.7,15.7,0.0,0.0,0.0,0.745,11.7,15.7,0.765,4.3,5.7,8.0,6.0,NBA,145.0,145.0,8.0,9.4,C,27.7,2020,1.7,NYK,2.0,16.7
