age,ast_per_poss,blk_per_poss,def_rtg,drb_per_poss,fg2_pct,fg2_per_poss,fg2a_per_poss,fg3_pct,fg3_per_poss,fg3a_per_poss,fg_pct,fg_per_poss,fga_per_poss,ft_pct,ft_per_poss,fta_per_poss,g,gs,lg_id,mp,off_rtg,orb_per_poss,pf_per_poss,pos,pts_per_poss,season,stl_per_poss,team_id,tov_per_poss,trb_per_poss
23.0,2.0,2.5,99.0,7.1,0.536,7.6,14.3,0.0,0.0,0.0,0.536,7.6,14.3,0.5,2.0,4.1,20.0,2.0,NBA,101.0,84.0,2.0,12.7,C,17.3,1997,5.1,PHO,5.6,9.2
24.0,1.2,3.7,92.0,17.5,0.389,8.7,22.5,0.333,1.2,3.7,0.381,10.0,26.2,0.7,8.7,12.5,8.0,0.0,NBA,42.0,77.0,5.0,17.5,C,30.0,1998,1.2,PHO,11.2,22.5
