age,ast,blk,drb,fg,fg2,fg2a,fg3,fg3a,fga,ft,fta,game_score,lg_id,mp,orb,pf,pts,season,stl,team_id,tov,trb
23.0,1.0,1.0,4.0,3.0,3.0,7.0,0.0,0.0,7.0,2.0,2.0,4.8,NBA,0.0,2.0,5.0,6.0,1997,2.0,PHO,3.0,4.0
24.0,1.0,2.0,5.0,3.0,2.0,5.0,1.0,1.0,5.0,2.0,4.0,3.7,NBA,0.0,3.0,5.0,7.0,1998,1.0,PHO,3.0,5.0
