age,ast,blk,drb,efg_pct,fg,fg2,fg2_pct,fg2a,fg3,fg3_pct,fg3a,fg_pct,fga,ft,ft_pct,fta,g,gs,lg_id,mp,orb,pf,pos,pts,season,stl,team_id,tov,trb
19.0,41.0,86.0,264.0,0.501,264.0,261.0,0.506,516.0,3.0,0.214,14.0,0.498,530.0,88.0,0.727,121.0,60.0,30.0,NBA,1367.0,68.0,158.0,C,619.0,2016,25.0,IND,67.0,332.0
20.0,106.0,172.0,450.0,0.534,444.0,404.0,0.536,754.0,40.0,0.348,115.0,0.511,869.0,245.0,0.809,303.0,81.0,81.0,NBA,2541.0,139.0,262.0,C,1173.0,2017,74.0,IND,105.0,589.0
21.0,87.0,118.0,324.0,0.523,306.0,250.0,0.519,482.0,56.0,0.357,157.0,0.479,639.0,160.0,0.777,206.0,65.0,62.0,NBA,1836.0,93.0,186.0,C,828.0,2018,38.0,IND,96.0,417.0
22.0,115.0,199.0,430.0,0.536,380.0,304.0,0.521,584.0,76.0,0.388,196.0,0.487,780.0,148.0,0.736,201.0,74.0,74.0,NBA,2119.0,101.0,195.0,C,984.0,2019,60.0,IND,100.0,531.0
23.0,2.0,5.0,18.0,0.65,22.0,14.0,0.56,25.0,8.0,0.533,15.0,0.55,40.0,7.0,0.778,9.0,4.0,4.0,NBA,126.0,9.0,8.0,C,59.0,2020,2.0,IND,7.0,27.0
