age,ast,blk,drb,fg,fg2,fg2a,fg3,fg3a,fga,ft,fta,game_score,lg_id,mp,orb,pf,pts,season,stl,team_id,tov,trb
19.0,1.0,5.0,6.0,7.0,7.0,13.0,0.0,1.0,13.0,3.0,4.0,16.0,NBA,36,5.0,5.0,17.0,2016,1.0,IND,3.0,9.0
20.0,2.0,2.0,9.0,8.0,8.0,12.0,0.0,3.0,12.0,4.0,6.0,13.5,NBA,37,4.0,5.0,20.0,2017,4.0,IND,3.0,9.0
21.0,2.0,2.0,8.0,7.0,6.0,11.0,3.0,4.0,12.0,4.0,5.0,14.4,NBA,36,2.0,6.0,18.0,2018,1.0,IND,3.0,10.0
22.0,2.0,2.0,7.0,5.0,5.0,10.0,2.0,5.0,12.0,4.0,5.0,9.9,NBA,34,3.0,4.0,13.0,2019,0.0,IND,2.0,8.0
