age,ast_per_mp,blk_per_mp,drb_per_mp,fg2_pct,fg2_per_mp,fg2a_per_mp,fg3_pct,fg3_per_mp,fg3a_per_mp,fg_pct,fg_per_mp,fga_per_mp,ft_pct,ft_per_mp,fta_per_mp,g,gs,lg_id,mp,orb_per_mp,pf_per_mp,pos,pts_per_mp,season,stl_per_mp,team_id,tov_per_mp,trb_per_mp
19.0,0.5,4.2,5.3,0.478,6.0,12.6,0.0,0.0,0.4,0.465,6.0,13.0,0.667,1.1,1.6,7.0,4.0,NBA,197.0,2.9,4.4,C,13.2,2016,0.4,IND,2.2,8.2
20.0,0.8,1.4,5.7,0.5,5.1,10.3,0.0,0.0,1.6,0.432,5.1,11.9,0.625,1.4,2.2,4.0,4.0,NBA,133.0,1.6,4.1,C,11.6,2017,1.9,IND,1.6,7.3
21.0,0.7,0.7,5.5,0.659,5.0,7.5,0.462,1.1,2.4,0.611,6.1,9.9,0.789,2.8,3.5,7.0,7.0,NBA,196.0,1.1,4.6,C,16.0,2018,0.4,IND,2.0,6.6
22.0,1.7,2.0,6.0,0.524,3.1,6.0,0.214,0.9,4.0,0.4,4.0,10.0,0.615,2.3,3.7,4.0,4.0,NBA,126.0,1.1,4.0,C,11.1,2019,0.0,IND,0.9,7.1
