lg_id,salary,season,team_name
NBA,342666.0,2011,Golden State Warriors
NBA,270427.0,2012,Houston Rockets
NBA,804131.0,2013,Charlotte Bobcats
NBA,916099.0,2014,Charlotte Bobcats
NBA,981084.0,2015,Houston Rockets
