age,ast_per_mp,blk_per_mp,drb_per_mp,fg2_pct,fg2_per_mp,fg2a_per_mp,fg3_pct,fg3_per_mp,fg3a_per_mp,fg_pct,fg_per_mp,fga_per_mp,ft_pct,ft_per_mp,fta_per_mp,g,gs,lg_id,mp,orb_per_mp,pf_per_mp,pos,pts_per_mp,season,stl_per_mp,team_id,tov_per_mp,trb_per_mp
24.0,1.8,0.9,6.4,0.426,4.2,9.9,0.0,0.0,0.0,0.426,4.2,9.9,0.579,2.0,3.5,23.0,0.0,NBA,196.0,4.2,5.1,PF,10.5,2011,0.7,GSW,1.7,10.7
25.0,0.6,1.1,9.7,0.438,4.0,9.1,0.0,0.0,0.0,0.438,4.0,9.1,0.583,4.0,6.9,8.0,0.0,NBA,63.0,2.9,7.4,PF,12.0,2012,0.0,HOU,1.1,12.6
26.0,1.8,1.4,6.5,0.434,3.6,8.4,0.0,0.0,0.1,0.429,3.6,8.5,0.65,3.3,5.0,52.0,5.0,NBA,713.0,3.4,4.0,PF,10.6,2013,0.9,CHA,1.6,9.9
27.0,1.4,1.3,7.6,0.52,5.4,10.3,0.0,0.0,0.0,0.52,5.4,10.3,0.639,2.8,4.5,53.0,12.0,NBA,961.0,3.8,4.0,PF,13.6,2014,0.9,TOT,1.5,11.5
27.0,1.0,2.1,7.7,0.55,3.1,5.6,0.0,0.0,0.0,0.55,3.1,5.6,0.52,1.8,3.5,25.0,0.0,NBA,256.0,4.6,4.9,PF,8.0,2014,1.0,CHA,1.1,12.4
27.0,1.6,1.1,7.6,0.515,6.2,12.0,0.0,0.0,0.0,0.515,6.2,12.0,0.67,3.2,4.8,28.0,12.0,NBA,705.0,3.5,3.7,PF,15.6,2014,0.9,MIL,1.6,11.1
28.0,2.5,1.5,9.0,0.432,3.2,7.4,0.0,0.0,0.0,0.432,3.2,7.4,0.579,3.7,6.4,17.0,0.0,NBA,215.0,3.9,5.0,PF,10.0,2015,0.7,MIN,1.5,12.9
