age,ast_per_g,blk_per_g,drb_per_g,efg_pct,fg2_pct,fg2_per_g,fg2a_per_g,fg3_pct,fg3_per_g,fg3a_per_g,fg_pct,fg_per_g,fga_per_g,ft_pct,ft_per_g,fta_per_g,g,gs,lg_id,mp_per_g,orb_per_g,pf_per_g,pos,pts_per_g,season,stl_per_g,team_id,tov_per_g,trb_per_g
24.0,2.0,0.0,1.0,0.286,0.364,0.8,2.2,0.0,0.0,0.6,0.286,0.8,2.8,0.0,0.0,0.0,5.0,0.0,NBA,14.6,0.2,1.2,PG,1.6,1990,0.8,CLE,0.4,1.2
26.0,0.8,0.0,0.4,0.476,0.5,1.3,2.5,0.273,0.3,0.9,0.439,1.5,3.4,1.0,0.4,0.4,12.0,3.0,NBA,12.4,0.1,1.0,PG,3.7,1992,0.4,CLE,0.3,0.5
28.0,1.0,0.0,1.2,0.444,0.35,0.7,2.0,0.375,0.6,1.6,0.361,1.3,3.6,1.0,0.3,0.3,10.0,0.0,NBA,18.6,0.2,1.3,PG,3.5,1994,0.7,CHI,0.1,1.4
29.0,1.5,0.0,0.5,0.575,0.524,1.1,2.1,0.421,0.8,1.9,0.475,1.9,4.0,1.0,0.5,0.5,10.0,0.0,NBA,19.3,0.1,1.4,PG,5.1,1995,0.1,CHI,0.0,0.6
30.0,1.7,0.0,0.8,0.546,0.647,1.2,1.9,0.321,0.9,2.9,0.448,2.2,4.8,0.871,1.5,1.7,18.0,0.0,NBA,19.8,0.2,1.2,PG,6.8,1996,0.8,CHI,0.7,1.0
31.0,1.1,0.1,0.7,0.532,0.486,0.9,1.8,0.381,0.8,2.2,0.429,1.7,4.1,0.929,0.7,0.7,19.0,0.0,NBA,17.9,0.2,1.3,PG,5.0,1997,0.9,CHI,0.4,0.9
32.0,1.7,0.0,0.4,0.559,0.4,0.7,1.7,0.463,0.9,2.0,0.434,1.6,3.6,0.818,0.9,1.0,21.0,0.0,NBA,19.8,0.4,1.2,PG,4.9,1998,0.3,CHI,0.2,0.8
33.0,0.7,0.0,0.5,0.317,0.294,0.5,1.5,0.231,0.3,1.2,0.267,0.7,2.7,0.833,0.5,0.5,11.0,0.0,NBA,8.8,0.3,0.5,PG,2.2,1999,0.2,SAS,0.4,0.8
35.0,0.7,0.1,0.7,0.58,0.7,0.8,1.1,0.333,0.6,1.7,0.48,1.3,2.8,0.5,0.1,0.2,9.0,0.0,NBA,11.2,0.3,0.9,PG,3.3,2001,0.4,SAS,0.2,1.0
36.0,1.7,0.0,1.3,0.5,0.667,1.3,2.0,0.25,0.7,2.7,0.429,2.0,4.7,1.0,1.7,1.7,3.0,0.0,NBA,13.0,0.0,2.0,PG,6.3,2002,0.3,POR,0.3,1.3
37.0,0.6,0.0,0.2,0.864,0.4,0.2,0.5,0.833,0.5,0.6,0.636,0.7,1.1,0.75,0.3,0.4,10.0,0.0,NBA,4.6,0.1,0.6,PG,2.2,2003,0.1,SAS,0.1,0.3
