age,ast_per_g,blk_per_g,drb_per_g,efg_pct,fg2_pct,fg2_per_g,fg2a_per_g,fg3_pct,fg3_per_g,fg3a_per_g,fg_pct,fg_per_g,fga_per_g,ft_pct,ft_per_g,fta_per_g,g,gs,lg_id,mp_per_g,orb_per_g,pf_per_g,pos,pts_per_g,season,stl_per_g,team_id,tov_per_g,trb_per_g
24.0,0.6,0.2,3.5,0.48,0.482,2.2,4.6,0.0,0.0,0.0,0.48,2.2,4.7,0.651,1.8,2.8,54.0,34.0,NBA,20.4,2.1,2.8,PF,6.3,1996,0.4,VAN,1.1,5.6
25.0,0.1,0.1,1.1,0.313,0.282,0.4,1.3,1.0,0.0,0.0,0.3,0.4,1.3,0.536,0.5,0.9,31.0,0.0,NBA,4.6,0.6,0.9,PF,1.3,1997,0.2,WSB,0.3,1.7
