age,ast,blk,drb,fg,fg2,fg2a,fg3,fg3a,fga,ft,fta,game_score,lg_id,mp,orb,pf,pts,season,stl,team_id,tov,trb
22.0,12.0,1.0,4.0,5.0,4.0,8.0,2.0,6.0,10.0,3.0,4.0,17.0,NBA,0.0,2.0,5.0,14.0,2005,3.0,TOT,3.0,4.0
22.0,6.0,0.0,3.0,5.0,4.0,5.0,2.0,6.0,7.0,3.0,4.0,10.5,NBA,0.0,1.0,5.0,14.0,2005,3.0,HOU,3.0,3.0
22.0,12.0,1.0,4.0,5.0,4.0,8.0,1.0,4.0,10.0,2.0,2.0,17.0,NBA,0.0,2.0,4.0,12.0,2005,2.0,ORL,3.0,4.0
23.0,7.0,0.0,3.0,7.0,6.0,13.0,1.0,2.0,15.0,3.0,4.0,8.9,NBA,30.0,1.0,3.0,15.0,2006,3.0,TOT,3.0,4.0
23.0,2.0,0.0,2.0,3.0,3.0,6.0,0.0,1.0,7.0,3.0,3.0,6.6,NBA,20.0,1.0,1.0,9.0,2006,0.0,PHO,1.0,3.0
23.0,7.0,0.0,3.0,7.0,6.0,13.0,1.0,2.0,15.0,2.0,4.0,8.9,NBA,30.0,1.0,3.0,15.0,2006,3.0,TOR,3.0,4.0
24.0,3.0,0.0,2.0,1.0,1.0,3.0,0.0,0.0,3.0,0.0,0.0,2.0,NBA,11.0,1.0,2.0,2.0,2007,0.0,CHI,2.0,3.0
25.0,3.0,0.0,1.0,1.0,1.0,1.0,1.0,2.0,2.0,1.0,2.0,4.0,NBA,13.0,0.0,1.0,3.0,2008,0.0,LAC,1.0,1.0
