age,ast_per_poss,blk_per_poss,def_rtg,drb_per_poss,fg2_pct,fg2_per_poss,fg2a_per_poss,fg3_pct,fg3_per_poss,fg3a_per_poss,fg_pct,fg_per_poss,fga_per_poss,ft_pct,ft_per_poss,fta_per_poss,g,gs,lg_id,mp,off_rtg,orb_per_poss,pf_per_poss,pos,pts_per_poss,season,stl_per_poss,team_id,tov_per_poss,trb_per_poss
23.0,0.0,0.0,120.0,0.0,0.0,0.0,7.2,1.0,7.2,7.2,0.5,7.2,14.5,0.0,0.0,0.0,4.0,0.0,NBA,7.0,142.0,0.0,0.0,PG,21.7,2003,0.0,MIN,0.0,0.0
24.0,10.9,0.0,109.0,0.0,0.0,0.0,0.0,0.0,0.0,0.0,0.0,0.0,0.0,0.0,0.0,0.0,2.0,0.0,NBA,5.0,38.0,0.0,0.0,PG,0.0,2004,0.0,HOU,10.9,0.0
