age,ast_per_g,blk_per_g,drb_per_g,efg_pct,fg2_pct,fg2_per_g,fg2a_per_g,fg3_pct,fg3_per_g,fg3a_per_g,fg_pct,fg_per_g,fga_per_g,ft_pct,ft_per_g,fta_per_g,g,gs,lg_id,mp_per_g,orb_per_g,pf_per_g,pos,pts_per_g,season,stl_per_g,team_id,tov_per_g,trb_per_g
23.0,2.0,0.1,1.1,0.372,0.354,0.9,2.5,0.286,0.2,0.8,0.338,1.1,3.2,0.787,0.8,1.0,46.0,7.0,NBA,15.0,0.4,1.5,PG-SG,3.2,2003,0.6,TOT,0.6,1.5
23.0,2.8,0.1,2.1,0.395,0.359,1.5,4.3,0.353,0.4,1.1,0.358,1.9,5.4,0.724,1.4,1.9,15.0,7.0,NBA,24.3,0.6,2.5,SG,5.7,2003,1.1,ATL,1.1,2.7
23.0,1.6,0.1,0.6,0.343,0.347,0.5,1.6,0.222,0.1,0.6,0.313,0.7,2.2,0.889,0.5,0.6,31.0,0.0,NBA,10.5,0.4,1.0,PG,2.0,2003,0.4,MIN,0.4,1.0
24.0,0.7,0.0,0.5,0.556,0.423,0.4,1.0,0.6,0.2,0.4,0.472,0.7,1.4,0.833,0.4,0.5,26.0,0.0,NBA,5.6,0.1,0.6,PG,1.9,2004,0.1,HOU,0.3,0.6
25.0,0.7,0.0,0.4,0.448,0.443,0.6,1.3,0.313,0.1,0.3,0.416,0.7,1.6,0.75,0.3,0.3,48.0,0.0,NBA,5.8,0.1,0.5,PG,1.7,2005,0.3,SAS,0.3,0.5
26.0,0.7,0.0,0.6,0.339,0.366,0.6,1.5,0.158,0.1,0.4,0.322,0.6,1.9,0.61,0.5,0.9,47.0,0.0,NBA,7.4,0.2,0.7,PG,1.8,2006,0.3,TOT,0.5,0.8
26.0,0.5,0.0,0.6,0.305,0.333,0.4,1.2,0.143,0.1,0.4,0.288,0.5,1.6,0.5,0.2,0.3,37.0,0.0,NBA,6.6,0.2,0.7,PG,1.1,2006,0.2,CLE,0.4,0.7
26.0,1.4,0.0,0.9,0.403,0.423,1.1,2.6,0.2,0.1,0.5,0.387,1.2,3.1,0.655,1.9,2.9,10.0,0.0,NBA,10.5,0.3,0.7,PG,4.4,2006,0.6,SEA,0.9,1.2
27.0,1.7,0.1,0.8,0.486,0.484,1.3,2.7,0.333,0.1,0.3,0.468,1.4,3.0,0.786,0.7,0.9,47.0,4.0,NBA,11.4,0.3,1.1,PG,3.6,2007,0.3,SEA,0.7,1.1
28.0,0.9,0.0,0.9,0.514,0.5,0.9,1.9,0.375,0.2,0.5,0.472,1.1,2.4,1.0,0.3,0.3,15.0,0.0,NBA,12.5,0.3,0.9,PG,2.7,2008,0.6,TOT,0.6,1.3
28.0,0.8,0.0,1.0,0.478,0.444,1.0,2.3,0.4,0.3,0.6,0.435,1.3,2.9,1.0,0.3,0.3,8.0,0.0,NBA,15.3,0.5,1.1,PG,3.0,2008,0.6,DEN,0.6,1.5
28.0,0.8,0.0,1.3,0.625,0.5,0.3,0.5,0.5,0.3,0.5,0.5,0.5,1.0,0.0,0.0,0.0,4.0,0.0,NBA,11.0,0.3,0.5,PG,1.3,2008,0.8,WAS,0.3,1.5
28.0,1.7,0.0,0.3,0.556,0.625,1.7,2.7,0.0,0.0,0.3,0.556,1.7,3.0,1.0,0.7,0.7,3.0,0.0,NBA,7.3,0.0,0.7,PG,4.0,2008,0.3,SEA,1.0,0.3
30.0,1.0,0.0,0.8,0.583,0.444,1.0,2.3,0.667,0.5,0.8,0.5,1.5,3.0,0.5,0.5,1.0,4.0,0.0,NBA,14.8,0.3,1.3,PG,4.0,2010,0.0,OKC,1.0,1.0
