age,ast,ast_per_g,blk,college_id,fg,fg3,fg3_pct,fg3a,fg_pct,fga,ft,ft_pct,fta,g,mp,mp_per_g,orb,pf,pts,pts_per_g,season,stl,tov,trb,trb_per_g
18.0,72.0,2.6,2.0,RICE,46.0,7.0,0.304,23.0,0.357,129.0,36.0,0.621,58.0,28.0,0.0,0.0,0.0,0.0,135.0,4.8,1998,30.0,0.0,73.0,2.6
19.0,116.0,4.1,10.0,RICE,68.0,8.0,0.276,29.0,0.391,174.0,86.0,0.688,125.0,28.0,967.0,34.5,0.0,0.0,230.0,8.2,1999,57.0,0.0,124.0,4.4
20.0,70.0,2.3,2.0,RICE,112.0,36.0,0.321,112.0,0.399,281.0,71.0,0.732,97.0,31.0,783.0,25.3,0.0,0.0,331.0,10.7,2000,40.0,0.0,84.0,2.7
21.0,90.0,3.0,8.0,RICE,190.0,56.0,0.386,145.0,0.438,434.0,168.0,0.781,215.0,30.0,1114.0,37.1,0.0,0.0,604.0,20.1,2001,59.0,0.0,147.0,4.9
