lg_id,salary,season,team_name
NBA,3875040.0,2009,Memphis Grizzlies
NBA,4165560.0,2010,Memphis Grizzlies
NBA,4456200.0,2011,Memphis Grizzlies
NBA,5632637.0,2012,Memphis Grizzlies
NBA,4020000.0,2013,Dallas Mavericks
NBA,8000000.0,2014,Milwaukee Bucks
NBA,8000000.0,2015,Milwaukee Bucks
NBA,8000000.0,2016,Milwaukee Bucks
