age,ast_per_mp,blk_per_mp,drb_per_mp,fg2_pct,fg2_per_mp,fg2a_per_mp,fg3_pct,fg3_per_mp,fg3a_per_mp,fg_pct,fg_per_mp,fga_per_mp,ft_pct,ft_per_mp,fta_per_mp,g,gs,lg_id,mp,orb_per_mp,pf_per_mp,pos,pts_per_mp,season,stl_per_mp,team_id,tov_per_mp,trb_per_mp
23.0,3.1,0.4,3.1,0.376,3.2,8.5,0.408,2.0,4.9,0.388,5.2,13.3,0.793,2.3,2.9,13.0,2.0,NBA,362.0,1.0,4.2,SG,14.6,2011,1.1,MEM,1.7,4.1
24.0,3.3,0.2,5.1,0.263,2.2,8.4,0.292,1.5,5.3,0.274,3.8,13.7,0.778,4.6,6.0,7.0,0.0,NBA,163.0,0.4,4.0,SG,13.7,2012,2.0,MEM,4.0,5.5
27.0,4.2,0.2,4.4,0.343,2.8,8.1,0.316,1.4,4.4,0.333,4.2,12.5,1.0,2.8,2.8,6.0,0.0,NBA,156.0,0.2,3.2,SG,12.5,2015,1.6,MIL,2.1,4.6
