age,ast_per_g,blk_per_g,drb_per_g,efg_pct,fg2_pct,fg2_per_g,fg2a_per_g,fg3_pct,fg3_per_g,fg3a_per_g,fg_pct,fg_per_g,fga_per_g,ft_pct,ft_per_g,fta_per_g,g,gs,lg_id,mp_per_g,orb_per_g,pf_per_g,pos,pts_per_g,season,stl_per_g,team_id,tov_per_g,trb_per_g
23.0,2.4,0.3,2.4,0.463,0.376,2.5,6.5,0.408,1.5,3.8,0.388,4.0,10.3,0.793,1.8,2.2,13.0,2.0,NBA,27.8,0.8,3.2,SG,11.3,2011,0.8,MEM,1.3,3.2
24.0,2.1,0.1,3.3,0.331,0.263,1.4,5.4,0.292,1.0,3.4,0.274,2.4,8.9,0.778,3.0,3.9,7.0,0.0,NBA,23.3,0.3,2.6,SG,8.9,2012,1.3,MEM,2.6,3.6
27.0,3.0,0.2,3.2,0.389,0.343,2.0,5.8,0.316,1.0,3.2,0.333,3.0,9.0,1.0,2.0,2.0,6.0,0.0,NBA,26.0,0.2,2.3,SG,9.0,2015,1.2,MIL,1.5,3.3
