article_url,date,headline
https://allucanheat.com/2019/11/05/miami-heat-nuggets-preview-watch-odds/,2019/11/05,"All U Can Heat: Miami Heat vs Denver Nuggets: Preview, Watch/Listen, Odds & Info"
https://valleyofthesuns.com/2019/10/26/x-encouraging-signs-for-the-phoenix-suns/,2019/10/26,Sun-N-Gun: Five encouraging signs from the Phoenix Suns' first loss of the year
https://www.hoopsrumors.com/2019/10/2019-offseason-in-review-denver-nuggets.html,2019/10/20,HoopsRumors: 2019 Offseason In Review: Denver Nuggets
