age,and1s,astd_pts,drawn_offensive,drawn_shooting,fouls_offensive,fouls_shooting,g,lg_id,mp,own_shots_blk,pct_1,pct_2,pct_3,pct_4,pct_5,plus_minus_net,plus_minus_on,pos,season,team_id,tov_bad_pass,tov_lost_ball
27.0,0.0,59.0,4.0,10.0,2.0,36.0,39.0,NBA,629.0,14.0,0.0,8.0,86.0,6.0,0.0,-1.9,-0.3,SF,2018,DEN,8.0,6.0
28.0,6.0,176.0,8.0,23.0,11.0,91.0,75.0,NBA,1503.0,15.0,0.0,26.0,64.0,11.0,0.0,-0.6,3.3,SF,2019,DEN,17.0,7.0
29.0,0.0,22.0,1.0,2.0,2.0,10.0,7.0,NBA,135.0,1.0,0.0,0.0,100.0,0.0,0.0,-16.1,-6.8,SF,2020,DEN,1.0,0.0
