age,ast,blk,drb,fg,fg2,fg2a,fg3,fg3a,fga,ft,fta,game_score,lg_id,mp,orb,pf,pts,season,stl,team_id,tov,trb
22.0,16.0,2.0,9.0,7.0,7.0,11.0,3.0,5.0,12.0,9.0,10.0,24.4,NBA,0.0,4.0,5.0,21.0,1995,4.0,DEN,7.0,9.0
23.0,16.0,6.0,9.0,8.0,8.0,19.0,3.0,6.0,19.0,7.0,9.0,23.3,NBA,0.0,3.0,6.0,19.0,1996,4.0,DEN,7.0,10.0
24.0,11.0,3.0,6.0,10.0,9.0,14.0,2.0,4.0,15.0,8.0,10.0,16.8,NBA,0.0,2.0,6.0,21.0,1997,3.0,IND,6.0,6.0
25.0,8.0,1.0,7.0,11.0,11.0,16.0,2.0,5.0,16.0,12.0,14.0,20.8,NBA,0.0,2.0,5.0,26.0,1998,3.0,IND,4.0,7.0
26.0,7.0,3.0,9.0,10.0,9.0,15.0,3.0,4.0,17.0,7.0,10.0,28.2,NBA,0.0,2.0,5.0,28.0,1999,4.0,IND,4.0,9.0
27.0,11.0,3.0,12.0,14.0,12.0,24.0,3.0,5.0,24.0,12.0,14.0,27.9,NBA,0.0,3.0,6.0,35.0,2000,4.0,IND,6.0,13.0
28.0,20.0,3.0,10.0,17.0,17.0,30.0,3.0,6.0,34.0,15.0,15.0,31.1,NBA,0.0,3.0,6.0,42.0,2001,4.0,IND,6.0,11.0
29.0,13.0,2.0,9.0,18.0,16.0,30.0,4.0,8.0,34.0,10.0,12.0,37.0,NBA,0.0,3.0,6.0,44.0,2002,4.0,TOT,7.0,11.0
29.0,10.0,2.0,9.0,18.0,16.0,24.0,4.0,8.0,27.0,9.0,12.0,33.3,NBA,0.0,3.0,6.0,43.0,2002,4.0,IND,7.0,10.0
29.0,13.0,2.0,9.0,18.0,15.0,30.0,3.0,7.0,34.0,10.0,11.0,37.0,NBA,0.0,2.0,6.0,44.0,2002,3.0,CHI,7.0,11.0
30.0,13.0,3.0,13.0,15.0,12.0,26.0,7.0,10.0,31.0,11.0,15.0,32.2,NBA,0.0,4.0,6.0,38.0,2003,3.0,CHI,9.0,14.0
31.0,14.0,2.0,7.0,12.0,12.0,22.0,4.0,7.0,24.0,11.0,12.0,27.5,NBA,0.0,2.0,6.0,34.0,2004,2.0,TOT,7.0,9.0
31.0,7.0,1.0,7.0,10.0,6.0,13.0,4.0,7.0,16.0,10.0,12.0,27.5,NBA,0.0,1.0,5.0,34.0,2004,2.0,CHI,4.0,8.0
31.0,14.0,2.0,7.0,12.0,12.0,22.0,3.0,7.0,24.0,11.0,12.0,20.7,NBA,0.0,2.0,6.0,32.0,2004,2.0,TOR,7.0,9.0
32.0,8.0,1.0,8.0,12.0,11.0,21.0,4.0,8.0,26.0,15.0,18.0,30.2,NBA,0.0,3.0,5.0,35.0,2005,5.0,TOR,6.0,10.0
33.0,11.0,1.0,8.0,10.0,9.0,19.0,4.0,6.0,20.0,11.0,13.0,31.2,NBA,44.0,3.0,6.0,31.0,2006,3.0,TOT,5.0,8.0
33.0,7.0,1.0,7.0,10.0,9.0,19.0,3.0,6.0,20.0,11.0,13.0,31.2,NBA,44.0,2.0,6.0,31.0,2006,3.0,TOR,5.0,7.0
33.0,11.0,1.0,8.0,8.0,7.0,13.0,4.0,5.0,17.0,11.0,12.0,22.5,NBA,43.0,3.0,5.0,23.0,2006,1.0,NYK,5.0,8.0
34.0,3.0,1.0,4.0,4.0,3.0,4.0,3.0,6.0,9.0,2.0,2.0,9.3,NBA,25.0,1.0,3.0,11.0,2007,1.0,PHO,2.0,4.0
