age,and1s,astd_pts,drawn_offensive,drawn_shooting,fouls_offensive,fouls_shooting,g,lg_id,mp,own_shots_blk,pct_1,pct_2,pct_3,pct_4,pct_5,plus_minus_net,plus_minus_on,pos,season,team_id,tov_bad_pass,tov_lost_ball
28.0,27.0,958.0,0.0,118.0,42.0,81.0,72.0,NBA,2943.0,53.0,3.0,57.0,41.0,0.0,0.0,-2.6,-0.7,SF,2001,IND,112.0,43.0
29.0,29.0,770.0,0.0,121.0,35.0,101.0,83.0,NBA,3153.0,61.0,1.0,22.0,75.0,3.0,0.0,3.9,-2.4,SF,2002,TOT,109.0,43.0
29.0,18.0,431.0,0.0,66.0,22.0,64.0,53.0,NBA,1937.0,44.0,1.0,28.0,70.0,1.0,0.0,1.9,1.0,SF,2002,IND,54.0,20.0
29.0,11.0,339.0,0.0,55.0,13.0,37.0,30.0,NBA,1216.0,17.0,0.0,12.0,83.0,5.0,0.0,2.4,-7.9,SF,2002,CHI,55.0,23.0
30.0,39.0,857.0,0.0,167.0,54.0,94.0,82.0,NBA,3351.0,63.0,0.0,36.0,64.0,0.0,0.0,-4.2,-6.1,SF,2003,CHI,141.0,67.0
31.0,20.0,739.0,0.0,77.0,35.0,70.0,66.0,NBA,2497.0,39.0,70.0,20.0,10.0,0.0,0.0,3.5,-2.8,PG-SF,2004,TOT,110.0,46.0
31.0,4.0,118.0,0.0,15.0,6.0,16.0,16.0,NBA,529.0,8.0,7.0,46.0,47.0,0.0,0.0,-3.4,-9.9,SF,2004,CHI,14.0,11.0
31.0,16.0,621.0,0.0,62.0,29.0,54.0,50.0,NBA,1968.0,31.0,87.0,13.0,0.0,0.0,0.0,5.1,-0.8,PG,2004,TOR,96.0,35.0
32.0,41.0,489.0,0.0,130.0,36.0,74.0,81.0,NBA,2710.0,52.0,0.0,16.0,79.0,4.0,0.0,-7.5,-3.9,SF,2005,TOR,78.0,45.0
33.0,25.0,421.0,9.0,108.0,26.0,72.0,72.0,NBA,1983.0,38.0,1.0,24.0,72.0,3.0,0.0,-3.1,-7.6,SF-SG,2006,TOT,41.0,36.0
33.0,15.0,264.0,4.0,67.0,16.0,48.0,46.0,NBA,1236.0,22.0,0.0,8.0,88.0,4.0,0.0,-2.6,-5.3,SF,2006,TOR,18.0,23.0
33.0,10.0,157.0,5.0,41.0,10.0,24.0,26.0,NBA,747.0,16.0,2.0,52.0,46.0,0.0,0.0,-5.3,-11.3,SG,2006,NYK,23.0,13.0
34.0,0.0,36.0,3.0,2.0,0.0,13.0,29.0,NBA,246.0,2.0,0.0,20.0,58.0,23.0,0.0,-16.5,-7.7,SF,2007,PHO,6.0,2.0
