age,ast_per_mp,blk_per_mp,drb_per_mp,fg2_pct,fg2_per_mp,fg2a_per_mp,fg3_pct,fg3_per_mp,fg3a_per_mp,fg_pct,fg_per_mp,fga_per_mp,ft_pct,ft_per_mp,fta_per_mp,g,gs,lg_id,mp,orb_per_mp,pf_per_mp,pos,pts_per_mp,season,stl_per_mp,team_id,tov_per_mp,trb_per_mp
22.0,7.8,0.4,3.2,0.495,3.8,7.7,0.316,0.7,2.3,0.454,4.5,10.0,0.739,3.5,4.7,81.0,37.0,NBA,1798.0,1.1,4.1,SF,13.3,1995,1.3,DEN,3.2,4.3
23.0,8.4,0.7,3.6,0.52,4.4,8.4,0.296,0.5,1.8,0.48,4.9,10.2,0.69,3.2,4.7,80.0,37.0,NBA,2134.0,0.8,3.9,SG,13.5,1996,0.9,DEN,3.9,4.4
24.0,4.7,0.5,2.8,0.495,4.6,9.2,0.292,0.6,2.2,0.456,5.2,11.4,0.75,3.5,4.7,66.0,6.0,NBA,1188.0,0.8,4.1,SF,14.6,1997,1.7,IND,3.2,3.7
25.0,3.3,0.3,3.5,0.496,5.6,11.3,0.342,0.5,1.5,0.478,6.1,12.8,0.728,3.5,4.8,82.0,0.0,NBA,1706.0,0.6,3.6,SF,16.3,1998,1.2,IND,2.8,4.1
26.0,2.7,0.4,3.5,0.425,5.3,12.5,0.262,0.5,1.9,0.403,5.8,14.4,0.791,3.6,4.6,49.0,1.0,NBA,1238.0,1.0,3.7,SF,15.8,1999,1.5,IND,2.1,4.5
27.0,3.9,0.6,4.2,0.486,5.9,12.1,0.393,0.9,2.4,0.471,6.8,14.5,0.827,3.1,3.7,80.0,80.0,NBA,2978.0,0.5,2.8,SF,17.6,2000,1.0,IND,2.3,4.7
28.0,5.3,0.5,3.9,0.476,6.2,13.1,0.339,0.7,2.1,0.457,6.9,15.2,0.828,3.5,4.2,72.0,72.0,NBA,2943.0,0.5,2.8,SF,18.1,2001,0.8,IND,2.6,4.4
29.0,4.1,0.5,3.8,0.474,6.6,13.8,0.362,1.0,2.8,0.455,7.6,16.6,0.839,3.2,3.8,83.0,83.0,NBA,3153.0,0.5,2.9,SF,19.4,2002,0.9,TOT,2.3,4.3
29.0,3.7,0.5,4.1,0.462,6.2,13.5,0.356,1.0,2.7,0.444,7.2,16.2,0.839,2.9,3.5,53.0,53.0,NBA,1937.0,0.5,2.8,SF,18.3,2002,0.8,IND,2.0,4.6
29.0,4.7,0.5,3.3,0.491,7.1,14.4,0.37,1.1,3.0,0.47,8.2,17.4,0.839,3.7,4.4,30.0,30.0,NBA,1216.0,0.4,3.0,SF,21.1,2002,1.0,CHI,2.8,3.7
30.0,4.2,0.2,3.0,0.416,5.5,13.1,0.37,1.4,3.9,0.406,6.9,17.0,0.854,4.3,5.0,82.0,82.0,NBA,3351.0,0.7,2.9,SF,19.5,2003,0.8,CHI,3.1,3.8
31.0,4.7,0.3,3.3,0.419,4.5,10.8,0.342,1.0,2.9,0.402,5.5,13.7,0.81,2.7,3.3,66.0,64.0,NBA,2497.0,0.5,2.7,PG-SF,14.7,2004,0.7,TOT,3.0,3.8
31.0,3.8,0.3,3.9,0.356,3.5,9.9,0.426,1.6,3.7,0.375,5.1,13.6,0.765,2.7,3.5,16.0,14.0,NBA,529.0,0.5,3.1,SF,14.4,2004,0.8,CHI,2.5,4.4
31.0,5.0,0.3,3.2,0.434,4.8,11.0,0.311,0.8,2.7,0.41,5.6,13.8,0.822,2.7,3.3,50.0,50.0,NBA,1968.0,0.5,2.5,PG,14.8,2004,0.7,TOR,3.1,3.7
32.0,2.8,0.1,3.1,0.473,5.6,11.8,0.394,1.4,3.6,0.455,7.0,15.4,0.854,4.4,5.2,81.0,65.0,NBA,2710.0,0.6,2.5,SF,19.9,2005,0.8,TOR,2.4,3.7
33.0,3.3,0.2,3.3,0.45,4.2,9.3,0.343,1.1,3.1,0.423,5.3,12.4,0.78,4.5,5.8,72.0,45.0,NBA,1983.0,0.5,2.8,SF-SG,16.1,2006,0.5,TOT,2.1,3.8
33.0,3.3,0.3,3.3,0.45,4.3,9.6,0.27,0.9,3.3,0.404,5.2,13.0,0.765,4.8,6.3,46.0,22.0,NBA,1236.0,0.4,2.9,SF,16.2,2006,0.6,TOR,1.9,3.8
33.0,3.3,0.1,3.3,0.451,4.0,8.8,0.491,1.3,2.7,0.46,5.3,11.5,0.812,4.0,4.9,26.0,23.0,NBA,747.0,0.6,2.7,SG,15.9,2006,0.5,NYK,2.4,4.0
34.0,2.3,0.3,2.9,0.436,2.5,5.7,0.447,3.1,6.9,0.442,5.6,12.6,0.917,1.6,1.8,29.0,0.0,NBA,246.0,0.4,3.2,SF,15.8,2007,0.7,PHO,1.3,3.4
