age,ast_per_g,blk_per_g,drb_per_g,efg_pct,fg2_pct,fg2_per_g,fg2a_per_g,fg3_pct,fg3_per_g,fg3a_per_g,fg_pct,fg_per_g,fga_per_g,ft_pct,ft_per_g,fta_per_g,g,gs,lg_id,mp_per_g,orb_per_g,pf_per_g,pos,pts_per_g,season,stl_per_g,team_id,tov_per_g,trb_per_g
22.0,4.8,0.3,2.0,0.49,0.495,2.4,4.8,0.316,0.4,1.4,0.454,2.8,6.2,0.739,2.1,2.9,81.0,37.0,NBA,22.2,0.7,2.5,SF,8.2,1995,0.8,DEN,2.0,2.7
23.0,6.2,0.5,2.7,0.507,0.52,3.2,6.2,0.296,0.4,1.4,0.48,3.6,7.6,0.69,2.4,3.5,80.0,37.0,NBA,26.7,0.6,2.9,SG,10.0,1996,0.7,DEN,2.9,3.3
24.0,2.3,0.3,1.4,0.484,0.495,2.3,4.6,0.292,0.3,1.1,0.456,2.6,5.7,0.75,1.8,2.4,66.0,6.0,NBA,18.0,0.4,2.1,SF,7.3,1997,0.9,IND,1.6,1.8
25.0,1.9,0.2,2.0,0.498,0.496,3.2,6.5,0.342,0.3,0.9,0.478,3.5,7.4,0.728,2.0,2.8,82.0,0.0,NBA,20.8,0.3,2.1,SF,9.4,1998,0.7,IND,1.6,2.4
26.0,1.9,0.3,2.4,0.42,0.425,3.7,8.8,0.262,0.3,1.3,0.403,4.1,10.1,0.791,2.6,3.2,49.0,1.0,NBA,25.3,0.7,2.6,SF,11.1,1999,1.0,IND,1.5,3.1
27.0,4.0,0.6,4.3,0.503,0.486,6.1,12.5,0.393,1.0,2.5,0.471,7.0,15.0,0.827,3.2,3.8,80.0,80.0,NBA,37.2,0.5,2.9,SF,18.2,2000,1.1,IND,2.4,4.8
28.0,6.0,0.6,4.5,0.48,0.476,7.1,14.8,0.339,0.8,2.4,0.457,7.9,17.3,0.828,4.0,4.8,72.0,72.0,NBA,40.9,0.5,3.2,SF,20.5,2001,0.9,IND,2.9,5.0
29.0,4.3,0.5,4.0,0.485,0.474,6.9,14.6,0.362,1.1,3.0,0.455,8.0,17.6,0.839,3.4,4.0,83.0,83.0,NBA,38.0,0.5,3.0,SF,20.4,2002,0.9,TOT,2.4,4.5
29.0,3.7,0.5,4.2,0.474,0.462,6.3,13.7,0.356,1.0,2.8,0.444,7.3,16.4,0.839,2.9,3.5,53.0,53.0,NBA,36.5,0.5,2.8,SF,18.5,2002,0.8,IND,2.0,4.7
29.0,5.3,0.5,3.7,0.502,0.491,8.0,16.2,0.37,1.2,3.3,0.47,9.2,19.6,0.839,4.2,5.0,30.0,30.0,NBA,40.5,0.5,3.4,SF,23.8,2002,1.1,CHI,3.2,4.1
30.0,4.8,0.3,3.5,0.448,0.416,6.2,14.9,0.37,1.6,4.4,0.406,7.8,19.3,0.854,4.9,5.7,82.0,82.0,NBA,40.9,0.8,3.3,SF,22.1,2003,0.9,CHI,3.5,4.3
31.0,5.0,0.3,3.5,0.439,0.419,4.8,11.4,0.342,1.0,3.1,0.402,5.8,14.4,0.81,2.8,3.5,66.0,64.0,NBA,37.8,0.5,2.8,PG-SF,15.5,2004,0.8,TOT,3.2,4.0
31.0,3.5,0.3,3.6,0.433,0.356,3.3,9.1,0.426,1.4,3.4,0.375,4.7,12.5,0.765,2.4,3.2,16.0,14.0,NBA,33.1,0.4,2.8,SF,13.3,2004,0.8,CHI,2.3,4.0
31.0,5.5,0.4,3.5,0.44,0.434,5.2,12.1,0.311,0.9,3.0,0.41,6.2,15.0,0.822,3.0,3.6,50.0,50.0,NBA,39.4,0.5,2.8,PG,16.2,2004,0.8,TOR,3.4,4.0
32.0,2.6,0.1,2.9,0.501,0.473,5.2,10.9,0.394,1.3,3.4,0.455,6.5,14.3,0.854,4.1,4.8,81.0,65.0,NBA,33.5,0.5,2.3,SF,18.5,2005,0.8,TOR,2.2,3.4
33.0,2.5,0.2,2.5,0.466,0.45,3.2,7.1,0.343,0.8,2.4,0.423,4.0,9.5,0.78,3.4,4.4,72.0,45.0,NBA,27.5,0.4,2.2,SF-SG,12.3,2006,0.4,TOT,1.6,2.9
33.0,2.5,0.2,2.5,0.438,0.45,3.2,7.2,0.27,0.7,2.5,0.404,3.9,9.7,0.765,3.6,4.7,46.0,22.0,NBA,26.9,0.3,2.2,SF,12.1,2006,0.4,TOR,1.4,2.8
33.0,2.6,0.1,2.7,0.519,0.451,3.2,7.0,0.491,1.1,2.2,0.46,4.2,9.2,0.812,3.2,3.9,26.0,23.0,NBA,28.7,0.5,2.1,SG,12.7,2006,0.4,NYK,1.9,3.2
34.0,0.6,0.1,0.7,0.564,0.436,0.6,1.3,0.447,0.7,1.6,0.442,1.3,3.0,0.917,0.4,0.4,29.0,0.0,NBA,8.5,0.1,0.8,SF,3.7,2007,0.2,PHO,0.3,0.8
