age,ast,ast_per_g,blk,college_id,fg,fg3,fg3_pct,fg3a,fg_pct,fga,ft,ft_pct,fta,g,mp,mp_per_g,orb,pf,pts,pts_per_g,season,stl,tov,trb,trb_per_g
18.0,174.0,4.5,1.0,DUKE,92.0,44.0,0.361,122.0,0.424,217.0,52.0,0.65,80.0,39.0,1085.0,27.8,0.0,0.0,280.0,7.2,2001,77.0,0.0,124.0,3.2
19.0,208.0,5.9,3.0,DUKE,100.0,54.0,0.34,159.0,0.41,244.0,59.0,0.711,83.0,35.0,1229.0,35.1,0.0,0.0,313.0,8.9,2002,81.0,0.0,109.0,3.1
20.0,212.0,6.4,5.0,DUKE,102.0,35.0,0.273,128.0,0.386,264.0,66.0,0.688,96.0,33.0,1188.0,36.0,0.0,0.0,305.0,9.2,2003,62.0,0.0,106.0,3.2
21.0,225.0,6.1,7.0,DUKE,138.0,29.0,0.302,96.0,0.448,308.0,65.0,0.722,90.0,37.0,1311.0,35.4,0.0,0.0,370.0,10.0,2004,80.0,0.0,150.0,4.1
