age,ast_per_mp,blk_per_mp,drb_per_mp,fg2_pct,fg2_per_mp,fg2a_per_mp,fg3_pct,fg3_per_mp,fg3a_per_mp,fg_pct,fg_per_mp,fga_per_mp,ft_pct,ft_per_mp,fta_per_mp,g,gs,lg_id,mp,orb_per_mp,pf_per_mp,pos,pts_per_mp,season,stl_per_mp,team_id,tov_per_mp,trb_per_mp
22.0,4.8,0.0,4.5,0.333,1.1,3.4,0.273,1.4,5.0,0.297,2.5,8.4,0.818,2.0,2.5,6.0,5.0,NBA,159.0,1.4,1.4,PG,8.4,2005,0.5,CHI,2.7,5.9
23.0,3.6,0.0,4.1,0.222,0.5,2.5,0.438,1.9,4.4,0.36,2.5,6.9,0.833,1.4,1.6,6.0,0.0,NBA,131.0,0.3,3.6,PG,8.2,2006,0.5,CHI,1.4,4.4
24.0,4.4,0.2,2.7,0.25,0.6,2.5,0.316,1.3,4.0,0.29,1.9,6.5,0.8,1.7,2.1,9.0,0.0,NBA,172.0,0.6,2.5,PG,6.7,2007,0.6,CHI,1.5,3.3
28.0,0.0,0.0,0.0,0.0,0.0,0.0,0.5,9.0,18.0,0.5,9.0,18.0,1.0,18.0,18.0,1.0,0.0,NBA,4.0,0.0,0.0,PG,45.0,2011,0.0,ORL,0.0,0.0
29.0,5.3,0.6,4.1,0.0,0.0,1.2,0.333,0.6,1.8,0.2,0.6,3.0,0.0,0.0,1.2,5.0,0.0,NBA,61.0,0.0,3.0,PG,1.8,2012,3.0,ORL,4.1,4.1
30.0,3.7,0.5,1.1,0.333,0.5,1.6,0.375,1.6,4.2,0.364,2.1,5.8,0.0,0.0,0.0,2.0,0.0,NBA,68.0,0.5,2.1,PG,5.8,2013,1.1,LAL,2.6,1.6
