age,ast_per_mp,blk_per_mp,drb_per_mp,fg2_pct,fg2_per_mp,fg2a_per_mp,fg3_pct,fg3_per_mp,fg3a_per_mp,fg_pct,fg_per_mp,fga_per_mp,ft_pct,ft_per_mp,fta_per_mp,g,gs,lg_id,mp,orb_per_mp,pf_per_mp,pos,pts_per_mp,season,stl_per_mp,team_id,tov_per_mp,trb_per_mp
22.0,1.3,0.1,3.0,0.4,5.5,13.7,0.214,0.3,1.4,0.383,5.8,15.1,0.678,4.0,6.0,42.0,0.0,NBA,356.0,1.8,2.3,SG,15.9,1993,0.8,POR,2.8,4.9
23.0,1.2,0.0,2.1,0.321,5.1,16.0,0.0,0.0,0.3,0.315,5.1,16.3,0.619,3.9,6.4,17.0,0.0,NBA,119.0,2.7,2.1,SG,14.2,1994,1.2,CHI,2.7,4.8
