age,ast_per_mp,blk_per_mp,drb_per_mp,fg2_pct,fg2_per_mp,fg2a_per_mp,fg3_pct,fg3_per_mp,fg3a_per_mp,fg_pct,fg_per_mp,fga_per_mp,ft_pct,ft_per_mp,fta_per_mp,g,gs,lg_id,mp,orb_per_mp,pf_per_mp,pos,pts_per_mp,season,stl_per_mp,team_id,tov_per_mp,trb_per_mp
25.0,1.6,1.6,7.9,0.625,5.3,8.5,0.0,0.0,0.0,0.625,5.3,8.5,0.875,3.7,4.2,12.0,0.0,NBA,68.0,3.2,4.2,PF,14.3,2019,1.6,ORL,0.5,11.1
26.0,8.0,0.0,4.0,1.0,12.0,12.0,0.0,0.0,0.0,1.0,12.0,12.0,0.0,0.0,0.0,2.0,0.0,NBA,9.0,8.0,0.0,PF,24.0,2020,0.0,ORL,4.0,12.0
