age,ast,blk,drb,efg_pct,fg,fg2,fg2_pct,fg2a,fg3,fg3_pct,fg3a,fg_pct,fga,ft,ft_pct,fta,g,gs,lg_id,mp,orb,pf,pos,pts,season,stl,team_id,tov,trb
19.0,334.0,7.0,164.0,0.467,268.0,207.0,0.46,450.0,61.0,0.323,189.0,0.419,639.0,108.0,0.675,160.0,77.0,72.0,NBA,2267.0,33.0,166.0,PG,705.0,2002,89.0,SAS,151.0,197.0
20.0,432.0,4.0,183.0,0.503,484.0,402.0,0.503,800.0,82.0,0.337,243.0,0.464,1043.0,219.0,0.755,290.0,82.0,82.0,NBA,2774.0,33.0,174.0,PG,1269.0,2003,71.0,SAS,198.0,216.0
21.0,411.0,7.0,194.0,0.48,423.0,361.0,0.483,747.0,62.0,0.312,199.0,0.447,946.0,191.0,0.702,272.0,75.0,75.0,NBA,2577.0,43.0,148.0,PG,1099.0,2004,61.0,SAS,179.0,237.0
22.0,491.0,4.0,251.0,0.501,539.0,496.0,0.516,962.0,43.0,0.276,156.0,0.482,1118.0,210.0,0.65,323.0,80.0,80.0,NBA,2735.0,47.0,167.0,PG,1331.0,2005,98.0,SAS,215.0,298.0
23.0,460.0,4.0,223.0,0.553,623.0,612.0,0.556,1100.0,11.0,0.306,36.0,0.548,1136.0,253.0,0.707,358.0,80.0,80.0,NBA,2715.0,38.0,161.0,PG,1510.0,2006,83.0,SAS,249.0,261.0
24.0,420.0,6.0,216.0,0.527,570.0,555.0,0.525,1058.0,15.0,0.395,38.0,0.52,1096.0,274.0,0.783,350.0,77.0,77.0,NBA,2499.0,34.0,137.0,PG,1429.0,2007,82.0,SAS,191.0,250.0
25.0,411.0,8.0,191.0,0.502,515.0,498.0,0.51,977.0,17.0,0.258,66.0,0.494,1043.0,248.0,0.715,347.0,69.0,68.0,NBA,2312.0,30.0,93.0,PG,1295.0,2008,55.0,SAS,164.0,221.0
26.0,496.0,4.0,196.0,0.513,639.0,620.0,0.518,1198.0,19.0,0.292,65.0,0.506,1263.0,284.0,0.782,363.0,72.0,71.0,NBA,2456.0,27.0,110.0,PG,1581.0,2009,67.0,SAS,186.0,223.0
27.0,317.0,8.0,128.0,0.494,349.0,339.0,0.497,682.0,10.0,0.294,34.0,0.487,716.0,186.0,0.756,246.0,56.0,50.0,NBA,1728.0,7.0,96.0,PG,894.0,2010,29.0,SAS,149.0,135.0
28.0,513.0,3.0,208.0,0.531,555.0,530.0,0.531,999.0,25.0,0.357,70.0,0.519,1069.0,233.0,0.769,303.0,78.0,78.0,NBA,2528.0,30.0,135.0,PG,1368.0,2011,90.0,SAS,200.0,238.0
29.0,463.0,5.0,149.0,0.488,427.0,413.0,0.498,829.0,14.0,0.23,61.0,0.48,890.0,227.0,0.799,284.0,60.0,60.0,NBA,1923.0,22.0,75.0,PG,1095.0,2012,57.0,SAS,153.0,171.0
30.0,499.0,6.0,180.0,0.534,519.0,495.0,0.534,927.0,24.0,0.353,68.0,0.522,995.0,279.0,0.845,330.0,66.0,66.0,NBA,2174.0,18.0,92.0,PG,1341.0,2013,54.0,SAS,170.0,198.0
31.0,388.0,9.0,138.0,0.513,456.0,431.0,0.509,847.0,25.0,0.373,67.0,0.499,914.0,197.0,0.811,243.0,68.0,68.0,NBA,1997.0,17.0,86.0,PG,1134.0,2014,36.0,SAS,151.0,155.0
32.0,335.0,2.0,114.0,0.508,404.0,366.0,0.493,743.0,38.0,0.427,89.0,0.486,832.0,130.0,0.783,166.0,68.0,68.0,NBA,1953.0,15.0,108.0,PG,976.0,2015,44.0,SAS,146.0,129.0
33.0,379.0,11.0,159.0,0.512,350.0,323.0,0.501,645.0,27.0,0.415,65.0,0.493,710.0,130.0,0.76,171.0,72.0,72.0,NBA,1980.0,17.0,114.0,PG,857.0,2016,54.0,SAS,131.0,176.0
34.0,285.0,2.0,104.0,0.486,265.0,242.0,0.484,500.0,23.0,0.333,69.0,0.466,569.0,85.0,0.726,117.0,63.0,63.0,NBA,1587.0,9.0,92.0,PG,638.0,2017,34.0,SAS,89.0,113.0
35.0,195.0,1.0,88.0,0.472,178.0,168.0,0.479,351.0,10.0,0.27,37.0,0.459,388.0,55.0,0.705,78.0,55.0,21.0,NBA,1071.0,7.0,52.0,PG,421.0,2018,28.0,SAS,68.0,95.0
36.0,207.0,7.0,69.0,0.474,213.0,200.0,0.485,412.0,13.0,0.255,51.0,0.46,463.0,91.0,0.734,124.0,56.0,0.0,NBA,1003.0,14.0,53.0,PG,530.0,2019,21.0,CHO,75.0,83.0
