age,ast,blk,drb,fg,fg2,fg2a,fg3,fg3a,fga,ft,fta,game_score,lg_id,mp,orb,pf,pts,season,stl,team_id,tov,trb
23.0,1.0,3.0,5.0,3.0,3.0,3.0,0.0,0.0,3.0,6.0,9.0,4.9,NBA,24,4.0,4.0,8.0,2013,1.0,GSW,4.0,7.0
25.0,2.0,2.0,5.0,5.0,5.0,7.0,0.0,0.0,7.0,4.0,5.0,10.2,NBA,29,5.0,5.0,12.0,2015,1.0,GSW,3.0,9.0
26.0,1.0,1.0,5.0,5.0,5.0,5.0,0.0,0.0,5.0,4.0,8.0,10.0,NBA,15,3.0,4.0,12.0,2016,1.0,GSW,3.0,6.0
