article_url,date,headline
https://goldengatesports.com/2019/09/15/golden-state-warriors-shaun-livingston-best-moments/,2019/09/15,Golden Gate Sports: Golden State Warriors: Breaking down Shaun Livingston's best moments
https://bluemanhoop.com/2019/07/01/golden-state-warriors-season-review-offseason-predictions/,2019/07/01,Blue Man Hoop: Golden State Warriors: Reviewing the bigs in 2018/19 and their free agency projections
https://thunderousintentions.com/2019/06/18/okc-thunder-prospect-bruno-fernando/,2019/06/18,Thunderous Intentions: Should the OKC Thunder trade down to land forward prospect Bruno Fernando?
https://sfbay.ca/2019/06/10/warriors-guts-grit-killer-threes-grind-out-game-5-win/,2019/06/10,"SFBay: Warriors guts, grit, killer threes grind out Game 5 win"
https://www.hoopsrumors.com/2019/05/2019-offseason-salary-cap-digest-portland-trail-blazers.html,2019/05/20,HoopsRumors: 2019 Offseason Salary Cap Digest: Portland Trail Blazers
