age,ast_per_g,blk_per_g,drb_per_g,efg_pct,fg2_pct,fg2_per_g,fg2a_per_g,fg3_pct,fg3_per_g,fg3a_per_g,fg_pct,fg_per_g,fga_per_g,ft_pct,ft_per_g,fta_per_g,g,gs,lg_id,mp_per_g,orb_per_g,pf_per_g,pos,pts_per_g,season,stl_per_g,team_id,tov_per_g,trb_per_g
23.0,0.3,0.9,2.2,0.438,0.438,0.9,2.2,0.0,0.0,0.0,0.438,0.9,2.2,0.531,0.6,1.0,78.0,41.0,NBA,14.4,1.8,2.0,C,2.4,2013,0.3,GSW,0.8,4.0
25.0,0.2,0.9,2.1,0.547,0.547,1.7,3.0,0.0,0.0,0.0,0.547,1.7,3.0,0.628,1.1,1.7,46.0,7.0,NBA,11.0,1.3,1.7,C,4.4,2015,0.2,GSW,0.7,3.4
26.0,0.7,1.1,3.6,0.548,0.548,2.7,5.0,0.0,0.0,0.0,0.548,2.7,5.0,0.53,1.5,2.9,46.0,13.0,NBA,16.7,2.0,2.0,C,7.0,2016,0.4,GSW,0.8,5.6
