age,avg_dist,fg2_dunk,fg2_pct,fg2_pct_ast,fg2a_pct_fga,fg3_heave,fg3_pct,fg3_pct_ast,fg3_pct_corner,fg3a_heave,fg3a_pct_fga,fg_pct,fg_pct_00_03,fg_pct_03_10,fg_pct_10_16,fg_pct_16_xx,g,lg_id,mp,pct_fg2_dunk,pct_fg3a_corner,pct_fga_00_03,pct_fga_03_10,pct_fga_10_16,pct_fga_16_xx,pos,season,team_id
22.0,14.3,3.0,0.409,0.525,0.776,0.0,0.256,1.0,0.375,0.0,0.224,0.375,0.629,0.4,0.324,0.328,53.0,NBA,713.0,0.026,0.372,0.182,0.104,0.193,0.302,SG,2018,CHO
23.0,13.0,7.0,0.494,0.607,0.661,0.0,0.437,0.737,0.462,0.0,0.339,0.475,0.73,0.304,0.355,0.263,43.0,NBA,759.0,0.027,0.299,0.288,0.179,0.121,0.074,SG,2019,CHO
24.0,11.7,1.0,0.391,0.407,0.734,0.0,0.24,0.833,0.2,0.0,0.266,0.351,0.483,0.25,0.375,0.5,8.0,NBA,210.0,0.011,0.2,0.309,0.255,0.085,0.085,SG,2020,CHO
