age,ast_pct,blk_pct,bpm,bpm-dum,dbpm,drb_pct,dws,fg3a_per_fga_pct,fta_per_fga_pct,g,lg_id,mp,obpm,orb_pct,ows,per,pos,season,stl_pct,team_id,tov_pct,trb_pct,ts_pct,usg_pct,vorp,ws,ws-dum,ws_per_48
23.0,11.1,2.3,0.1,0.0,1.4,22.6,1.3,0.009,0.351,71.0,NBA,930.0,-1.3,14.0,1.4,15.9,PF,2004,1.6,NOH,15.4,18.2,0.519,15.3,0.5,2.8,0.0,0.143
24.0,7.6,2.3,-4.6,0.0,0.2,19.9,0.6,0.029,0.291,30.0,NBA,552.0,-4.7,8.2,-0.3,11.1,SF,2005,1.2,NOH,16.0,13.8,0.479,19.4,-0.4,0.2,0.0,0.022
25.0,7.2,2.1,1.0,0.0,0.1,18.4,2.6,0.011,0.228,74.0,NBA,2526.0,0.9,7.7,4.8,19.7,PF,2006,1.3,NOK,8.4,12.9,0.554,23.0,1.9,7.4,0.0,0.141
26.0,10.9,1.6,1.2,0.0,0.5,18.5,2.0,0.032,0.287,52.0,NBA,1900.0,0.7,7.5,3.1,18.9,PF,2007,1.2,NOK,9.9,12.9,0.532,23.8,1.5,5.2,0.0,0.131
27.0,10.6,2.7,1.1,0.0,1.4,20.6,4.0,0.019,0.27,76.0,NBA,2870.0,-0.2,7.2,4.3,19.9,PF,2008,1.2,NOH,10.2,13.7,0.535,26.3,2.3,8.4,0.0,0.14
28.0,10.9,1.9,-0.5,0.0,0.2,19.7,3.5,0.019,0.321,76.0,NBA,2982.0,-0.6,6.5,4.2,18.9,PF,2009,0.9,NOH,10.0,13.1,0.54,26.5,1.2,7.8,0.0,0.125
29.0,13.7,1.5,1.2,0.0,0.4,17.9,2.3,0.022,0.279,81.0,NBA,2949.0,0.8,6.4,5.2,18.9,PF,2010,1.3,NOH,11.2,12.0,0.56,24.0,2.4,7.5,0.0,0.122
30.0,12.7,2.1,2.7,0.0,1.5,18.7,3.4,0.009,0.314,70.0,NBA,2451.0,1.2,7.6,4.4,20.4,PF,2011,1.5,NOH,10.7,13.1,0.558,25.8,2.9,7.8,0.0,0.152
31.0,13.1,1.9,1.7,0.0,1.0,18.3,2.5,0.013,0.246,66.0,NBA,1925.0,0.7,6.9,3.4,17.8,PF,2012,1.4,IND,10.5,12.6,0.531,20.9,1.8,5.9,0.0,0.147
32.0,16.8,2.1,3.3,0.0,2.4,18.8,4.7,0.019,0.312,73.0,NBA,2435.0,0.9,6.8,4.4,20.1,PF,2013,1.6,IND,12.0,12.9,0.545,24.4,3.3,9.1,0.0,0.179
33.0,16.1,2.3,2.0,0.0,2.7,18.3,5.0,0.016,0.267,80.0,NBA,2472.0,-0.6,5.7,3.1,17.5,PF,2014,1.3,IND,11.2,12.3,0.533,21.9,2.5,8.1,0.0,0.157
34.0,20.1,2.0,1.7,0.0,2.4,19.7,2.8,0.029,0.235,66.0,NBA,1895.0,-0.7,6.4,1.4,16.0,PF,2015,1.3,IND,13.7,13.1,0.508,21.0,1.8,4.3,0.0,0.108
35.0,15.4,3.0,3.4,0.0,3.3,18.6,2.9,0.016,0.179,78.0,NBA,1404.0,0.1,6.0,2.4,17.6,PF,2016,1.6,SAS,12.3,12.5,0.573,18.0,1.9,5.4,0.0,0.184
36.0,24.1,4.4,2.2,0.0,3.9,18.8,1.7,0.032,0.222,68.0,NBA,854.0,-1.7,6.5,0.9,16.6,C,2017,2.4,GSW,22.0,13.0,0.571,17.9,0.9,2.6,0.0,0.148
37.0,20.5,5.9,3.0,0.0,3.2,18.2,1.7,0.021,0.209,73.0,NBA,999.0,-0.2,7.7,1.8,20.9,C,2018,2.3,GSW,16.2,13.3,0.6,21.7,1.3,3.5,0.0,0.168
