lg_id,salary,season,team_name
NBA,1160160.0,2004,New Orleans Hornets
NBA,1247160.0,2005,New Orleans Hornets
NBA,1334160.0,2006,New Orleans/Oklahoma City Hornets
NBA,2051938.0,2007,New Orleans/Oklahoma City Hornets
NBA,10650000.0,2008,New Orleans Hornets
NBA,9862500.0,2009,New Orleans Hornets
NBA,9075000.0,2010,New Orleans Hornets
NBA,8287500.0,2011,New Orleans Hornets
NBA,10000000.0,2012,Indiana Pacers
NBA,10000000.0,2013,Indiana Pacers
NBA,12000000.0,2014,Indiana Pacers
NBA,12000000.0,2015,Indiana Pacers
NBA,1499000.0,2016,San Antonio Spurs
NBA,1551659.0,2017,Golden State Warriors
NBA,1471382.0,2018,Golden State Warriors
