age,ast,blk,drb,fg,fg2,fg2a,fg3,fg3a,fga,ft,fta,game_score,lg_id,mp,orb,pf,pts,season,stl,team_id,tov,trb
22.0,5.0,2.0,3.0,6.0,4.0,8.0,2.0,3.0,10.0,3.0,4.0,14.1,NBA,0.0,2.0,5.0,14.0,2002,5.0,SEA,3.0,5.0
23.0,9.0,2.0,5.0,7.0,5.0,12.0,3.0,5.0,15.0,6.0,6.0,21.6,NBA,0.0,4.0,5.0,21.0,2003,5.0,MEM,7.0,8.0
24.0,14.0,3.0,6.0,6.0,6.0,12.0,3.0,6.0,16.0,7.0,8.0,18.5,NBA,0.0,4.0,6.0,20.0,2004,6.0,MEM,5.0,8.0
25.0,12.0,2.0,6.0,9.0,6.0,13.0,5.0,6.0,16.0,7.0,11.0,22.8,NBA,0.0,4.0,5.0,22.0,2005,4.0,MEM,6.0,7.0
26.0,10.0,2.0,6.0,7.0,5.0,9.0,6.0,10.0,15.0,5.0,9.0,19.1,NBA,47.0,2.0,6.0,23.0,2006,4.0,TOT,6.0,6.0
26.0,9.0,2.0,6.0,7.0,4.0,7.0,6.0,10.0,14.0,5.0,9.0,18.5,NBA,47.0,2.0,6.0,20.0,2006,4.0,DEN,5.0,6.0
26.0,10.0,1.0,6.0,7.0,5.0,9.0,6.0,8.0,15.0,5.0,6.0,19.1,NBA,32.0,2.0,5.0,23.0,2006,4.0,SEA,6.0,6.0
27.0,16.0,2.0,5.0,9.0,7.0,14.0,6.0,15.0,20.0,7.0,10.0,22.5,NBA,44.0,2.0,5.0,28.0,2007,5.0,SEA,6.0,6.0
28.0,14.0,1.0,10.0,11.0,9.0,17.0,3.0,5.0,19.0,7.0,8.0,26.1,NBA,44.0,3.0,6.0,26.0,2008,3.0,SEA,5.0,10.0
29.0,14.0,2.0,7.0,7.0,6.0,12.0,2.0,5.0,14.0,6.0,6.0,18.4,NBA,44.0,3.0,5.0,18.0,2009,3.0,OKC,6.0,7.0
30.0,13.0,2.0,8.0,7.0,7.0,12.0,3.0,7.0,14.0,8.0,8.0,17.5,NBA,41.0,5.0,5.0,20.0,2010,6.0,IND,6.0,10.0
31.0,13.0,2.0,8.0,5.0,5.0,8.0,3.0,6.0,12.0,5.0,8.0,16.3,NBA,46.0,4.0,5.0,14.0,2011,3.0,UTA,5.0,9.0
32.0,11.0,2.0,5.0,5.0,5.0,7.0,2.0,4.0,9.0,5.0,8.0,15.0,NBA,29.0,3.0,5.0,11.0,2012,5.0,UTA,5.0,7.0
33.0,9.0,2.0,5.0,3.0,3.0,6.0,1.0,3.0,7.0,5.0,6.0,11.4,NBA,32.0,3.0,5.0,9.0,2013,4.0,UTA,4.0,6.0
34.0,3.0,1.0,3.0,1.0,1.0,2.0,1.0,2.0,3.0,2.0,2.0,5.7,NBA,16.0,1.0,5.0,3.0,2014,2.0,POR,3.0,3.0
