age,ast_per_mp,blk_per_mp,drb_per_mp,fg2_pct,fg2_per_mp,fg2a_per_mp,fg3_pct,fg3_per_mp,fg3a_per_mp,fg_pct,fg_per_mp,fga_per_mp,ft_pct,ft_per_mp,fta_per_mp,g,gs,lg_id,mp,orb_per_mp,pf_per_mp,pos,pts_per_mp,season,stl_per_mp,team_id,tov_per_mp,trb_per_mp
24.0,4.1,0.0,2.9,0.667,4.6,7.0,0.0,0.0,1.7,0.533,4.6,8.7,1.0,1.7,1.7,4.0,0.0,NBA,62.0,2.3,4.6,PG,11.0,2004,2.9,MEM,3.5,5.2
25.0,7.3,0.5,3.4,0.467,3.4,7.3,0.111,0.5,4.4,0.333,3.9,11.7,1.0,1.0,1.0,4.0,0.0,NBA,74.0,1.5,5.4,PG,9.2,2005,1.5,MEM,1.0,4.9
34.0,2.6,0.0,2.6,0.0,0.0,0.0,0.0,0.0,2.6,0.0,0.0,2.6,0.0,0.0,0.0,4.0,0.0,NBA,14.0,0.0,2.6,PG,0.0,2014,0.0,POR,2.6,2.6
