age,ast_per_poss,blk_per_poss,def_rtg,drb_per_poss,fg2_pct,fg2_per_poss,fg2a_per_poss,fg3_pct,fg3_per_poss,fg3a_per_poss,fg_pct,fg_per_poss,fga_per_poss,ft_pct,ft_per_poss,fta_per_poss,g,gs,lg_id,mp,off_rtg,orb_per_poss,pf_per_poss,pos,pts_per_poss,season,stl_per_poss,team_id,tov_per_poss,trb_per_poss
23.0,8.7,0.1,115.0,3.8,0.421,2.9,6.8,0.281,2.4,8.7,0.343,5.3,15.5,0.761,2.5,3.3,46.0,3.0,NBA,676.0,104.0,0.7,3.5,PG,15.6,2019,1.7,CHO,2.2,4.5
24.0,10.9,0.3,114.0,4.0,0.381,3.3,8.6,0.422,4.8,11.3,0.404,8.1,20.0,0.789,6.2,7.8,11.0,1.0,NBA,347.0,115.0,1.1,2.7,PG,27.1,2020,1.2,CHO,4.2,5.1
