age,and1s,astd_pts,drawn_offensive,drawn_shooting,fouls_offensive,fouls_shooting,g,lg_id,mp,own_shots_blk,pct_1,pct_2,pct_3,pct_4,pct_5,plus_minus_net,plus_minus_on,pos,season,team_id,tov_bad_pass,tov_lost_ball
23.0,5.0,278.0,7.0,19.0,2.0,18.0,46.0,NBA,676.0,12.0,59.0,40.0,1.0,0.0,0.0,-6.7,-6.9,PG,2019,CHO,20.0,5.0
24.0,6.0,186.0,8.0,20.0,2.0,3.0,11.0,NBA,347.0,9.0,100.0,0.0,0.0,0.0,0.0,16.5,-1.4,PG,2020,CHO,22.0,4.0
