age,ast,ast_per_g,blk,college_id,fg,fg3,fg3_pct,fg3a,fg_pct,fga,ft,ft_pct,fta,g,mp,mp_per_g,orb,pf,pts,pts_per_g,season,stl,tov,trb,trb_per_g
18.0,0.0,0.0,16.0,LASALLE,83.0,0.0,0.0,0.0,0.477,174.0,61.0,0.61,100.0,25.0,0.0,0.0,0.0,50.0,227.0,9.1,1982,34.0,0.0,158.0,6.3
19.0,0.0,0.0,17.0,LASALLE,156.0,0.0,0.0,0.0,0.46,339.0,106.0,0.671,158.0,32.0,1071.0,33.5,0.0,87.0,418.0,13.1,1983,44.0,47.0,259.0,8.1
20.0,0.0,0.0,22.0,LASALLE,237.0,0.0,0.0,0.0,0.587,404.0,164.0,0.745,220.0,31.0,0.0,0.0,0.0,74.0,638.0,20.6,1984,70.0,54.0,281.0,9.1
21.0,0.0,0.0,39.0,LASALLE,201.0,0.0,0.0,0.0,0.558,360.0,122.0,0.739,165.0,28.0,0.0,0.0,0.0,88.0,524.0,18.7,1985,52.0,66.0,268.0,9.6
