age,ast,blk,drb,fg,fg2,fg2a,fg3,fg3a,fga,ft,fta,game_score,lg_id,mp,orb,pf,pts,season,stl,team_id,tov,trb
22.0,3.0,3.0,8.0,10.0,10.0,18.0,0.0,1.0,18.0,5.0,10.0,21.1,NBA,34,8.0,6.0,23.0,2011,3.0,CLE,5.0,10.0
23.0,2.0,2.0,9.0,7.0,7.0,12.0,0.0,0.0,12.0,6.0,8.0,13.7,NBA,29,4.0,6.0,17.0,2012,2.0,CLE,5.0,10.0
24.0,2.0,1.0,5.0,5.0,5.0,10.0,0.0,1.0,11.0,3.0,4.0,9.1,NBA,38,2.0,5.0,11.0,2013,2.0,CLE,2.0,7.0
