age,and1s,astd_pts,drawn_offensive,drawn_shooting,fouls_offensive,fouls_shooting,g,lg_id,mp,own_shots_blk,pct_1,pct_2,pct_3,pct_4,pct_5,plus_minus_net,plus_minus_on,pos,season,team_id,tov_bad_pass,tov_lost_ball
22.0,14.0,37.0,7.0,59.0,13.0,36.0,37.0,NBA,701.0,34.0,0.0,0.0,0.0,65.0,35.0,-2.2,-11.4,PF,2011,CLE,11.0,13.0
23.0,11.0,44.0,7.0,54.0,17.0,42.0,54.0,NBA,825.0,26.0,0.0,0.0,0.0,8.0,93.0,2.4,-5.7,C,2012,CLE,12.0,14.0
24.0,0.0,21.0,0.0,7.0,1.0,9.0,18.0,NBA,196.0,4.0,0.0,0.0,0.0,40.0,60.0,-3.6,-8.7,C,2013,CLE,3.0,1.0
