age,ast_per_g,blk_per_g,drb_per_g,efg_pct,fg2_pct,fg2_per_g,fg2a_per_g,fg3_pct,fg3_per_g,fg3a_per_g,fg_pct,fg_per_g,fga_per_g,ft_pct,ft_per_g,fta_per_g,g,gs,lg_id,mp_per_g,orb_per_g,pf_per_g,pos,pts_per_g,season,stl_per_g,team_id,tov_per_g,trb_per_g
22.0,2.1,0.0,0.7,0.489,0.425,0.8,1.8,0.418,0.4,0.8,0.423,1.1,2.7,0.824,0.6,0.8,65.0,2.0,NBA,10.5,0.2,1.4,PG,3.3,1997,0.3,PHO,1.0,1.0
23.0,3.4,0.1,1.7,0.528,0.481,2.5,5.1,0.415,1.1,2.6,0.459,3.5,7.7,0.86,1.0,1.1,76.0,9.0,NBA,21.9,0.4,1.9,PG,9.1,1998,0.8,PHO,1.3,2.1
24.0,5.5,0.1,2.1,0.441,0.355,1.6,4.6,0.374,1.2,3.3,0.363,2.9,7.9,0.826,1.0,1.2,40.0,40.0,NBA,31.7,0.8,2.5,PG,7.9,1999,0.9,DAL,2.1,2.9
25.0,4.9,0.1,1.6,0.559,0.528,2.0,3.8,0.403,1.1,2.7,0.477,3.1,6.5,0.882,1.3,1.5,56.0,27.0,NBA,27.4,0.6,2.2,PG,8.6,2000,0.7,DAL,1.8,2.2
26.0,7.3,0.1,2.5,0.544,0.518,4.2,8.2,0.406,1.3,3.1,0.487,5.5,11.3,0.895,3.3,3.7,70.0,70.0,NBA,34.1,0.7,2.3,PG,15.6,2001,1.0,DAL,2.9,3.2
27.0,7.7,0.0,2.5,0.554,0.495,4.5,9.1,0.455,1.9,4.2,0.483,6.4,13.3,0.887,3.2,3.6,82.0,82.0,NBA,34.6,0.6,2.0,PG,17.9,2002,0.6,DAL,2.8,3.1
28.0,7.3,0.1,2.1,0.515,0.482,5.0,10.3,0.413,1.4,3.3,0.465,6.3,13.6,0.909,3.8,4.1,82.0,82.0,NBA,33.1,0.8,1.6,PG,17.7,2003,1.0,DAL,2.3,2.9
29.0,8.8,0.1,2.2,0.531,0.498,3.8,7.5,0.405,1.3,3.3,0.47,5.1,10.8,0.916,2.9,3.2,78.0,78.0,NBA,33.5,0.8,1.8,PG,14.5,2004,0.9,DAL,2.7,3.0
30.0,11.5,0.1,2.6,0.557,0.526,4.5,8.5,0.431,1.3,2.9,0.502,5.7,11.4,0.887,2.8,3.2,75.0,75.0,NBA,34.3,0.8,1.8,PG,15.5,2005,1.0,PHO,3.3,3.3
31.0,10.5,0.2,3.6,0.583,0.548,4.9,9.0,0.439,1.9,4.3,0.512,6.8,13.4,0.921,3.3,3.5,79.0,79.0,NBA,35.4,0.6,1.5,PG,18.8,2006,0.8,PHO,3.5,4.2
32.0,11.6,0.1,3.1,0.613,0.575,4.8,8.3,0.455,2.1,4.5,0.532,6.8,12.8,0.899,2.9,3.3,76.0,76.0,NBA,35.3,0.4,1.5,PG,18.6,2007,0.8,PHO,3.8,3.5
33.0,11.1,0.1,3.1,0.597,0.527,3.8,7.2,0.47,2.2,4.7,0.504,6.0,11.9,0.906,2.7,3.0,81.0,81.0,NBA,34.3,0.3,1.4,PG,16.9,2008,0.7,PHO,3.6,3.5
34.0,9.7,0.1,2.8,0.566,0.529,4.3,8.2,0.439,1.5,3.3,0.503,5.8,11.5,0.933,2.6,2.8,74.0,74.0,NBA,33.6,0.3,1.5,PG,15.7,2009,0.7,PHO,3.4,3.0
35.0,11.0,0.1,2.9,0.57,0.54,4.6,8.6,0.426,1.5,3.6,0.507,6.2,12.2,0.938,2.6,2.8,81.0,81.0,NBA,32.8,0.4,1.3,PG,16.5,2010,0.5,PHO,3.6,3.3
36.0,11.4,0.1,2.9,0.542,0.525,4.2,8.1,0.395,1.1,2.7,0.492,5.3,10.8,0.912,3.0,3.3,75.0,75.0,NBA,33.3,0.5,1.2,PG,14.7,2011,0.6,PHO,3.5,3.5
37.0,10.7,0.1,2.6,0.581,0.58,3.9,6.7,0.39,0.9,2.3,0.532,4.8,9.0,0.894,2.0,2.3,62.0,62.0,NBA,31.6,0.4,0.9,PG,12.5,2012,0.6,PHO,3.7,3.0
38.0,6.7,0.1,2.3,0.557,0.519,3.6,6.9,0.438,1.1,2.6,0.497,4.7,9.5,0.922,2.1,2.3,50.0,50.0,NBA,32.5,0.5,1.4,PG,12.7,2013,0.6,LAL,2.5,2.8
39.0,5.7,0.1,1.7,0.426,0.4,1.9,4.7,0.333,0.5,1.6,0.383,2.4,6.3,0.917,1.5,1.6,15.0,10.0,NBA,20.9,0.3,1.2,PG,6.8,2014,0.5,LAL,2.1,1.9
