age,ast_per_mp,blk_per_mp,drb_per_mp,fg2_pct,fg2_per_mp,fg2a_per_mp,fg3_pct,fg3_per_mp,fg3a_per_mp,fg_pct,fg_per_mp,fga_per_mp,ft_pct,ft_per_mp,fta_per_mp,g,gs,lg_id,mp,orb_per_mp,pf_per_mp,pos,pts_per_mp,season,stl_per_mp,team_id,tov_per_mp,trb_per_mp
22.0,7.3,0.0,2.5,0.425,2.7,6.3,0.418,1.2,2.9,0.423,3.9,9.2,0.824,2.2,2.7,65.0,2.0,NBA,684.0,0.8,4.8,PG,11.2,1997,1.1,PHO,3.3,3.3
23.0,5.7,0.1,2.8,0.481,4.0,8.4,0.415,1.8,4.2,0.459,5.8,12.6,0.86,1.6,1.9,76.0,9.0,NBA,1664.0,0.7,3.1,PG,14.9,1998,1.4,PHO,2.1,3.5
24.0,6.2,0.1,2.3,0.355,1.8,5.2,0.374,1.4,3.7,0.363,3.2,8.9,0.826,1.1,1.3,40.0,40.0,NBA,1269.0,0.9,2.8,PG,8.9,1999,1.0,DAL,2.4,3.2
25.0,6.4,0.1,2.0,0.528,2.7,5.0,0.403,1.4,3.5,0.477,4.1,8.5,0.882,1.8,2.0,56.0,27.0,NBA,1532.0,0.8,2.9,PG,11.3,2000,0.9,DAL,2.4,2.8
26.0,7.7,0.1,2.7,0.518,4.5,8.6,0.406,1.3,3.3,0.487,5.8,11.9,0.895,3.5,3.9,70.0,70.0,NBA,2387.0,0.7,2.4,PG,16.5,2001,1.1,DAL,3.1,3.4
27.0,8.0,0.1,2.6,0.495,4.7,9.5,0.455,2.0,4.4,0.483,6.7,13.8,0.887,3.3,3.7,82.0,82.0,NBA,2837.0,0.6,2.1,PG,18.6,2002,0.7,DAL,2.9,3.2
28.0,7.9,0.1,2.3,0.482,5.4,11.2,0.413,1.5,3.6,0.465,6.9,14.8,0.909,4.1,4.5,82.0,82.0,NBA,2711.0,0.8,1.8,PG,19.3,2003,1.1,DAL,2.5,3.1
29.0,9.5,0.1,2.4,0.498,4.0,8.1,0.405,1.4,3.5,0.47,5.5,11.6,0.916,3.2,3.5,78.0,78.0,NBA,2612.0,0.8,1.9,PG,15.5,2004,0.9,DAL,2.9,3.2
30.0,12.0,0.1,2.7,0.526,4.7,8.9,0.431,1.3,3.1,0.502,6.0,12.0,0.887,3.0,3.3,75.0,75.0,NBA,2573.0,0.8,1.9,PG,16.3,2005,1.0,PHO,3.4,3.5
31.0,10.6,0.2,3.7,0.548,5.0,9.2,0.439,1.9,4.4,0.512,7.0,13.6,0.921,3.3,3.6,79.0,79.0,NBA,2796.0,0.6,1.5,PG,19.2,2006,0.8,PHO,3.6,4.3
32.0,11.9,0.1,3.2,0.575,4.8,8.4,0.455,2.1,4.6,0.532,6.9,13.0,0.899,3.0,3.3,76.0,76.0,NBA,2682.0,0.4,1.6,PG,19.0,2007,0.8,PHO,3.9,3.6
33.0,11.6,0.1,3.3,0.527,4.0,7.5,0.47,2.3,4.9,0.504,6.3,12.5,0.906,2.9,3.2,81.0,81.0,NBA,2780.0,0.4,1.5,PG,17.8,2008,0.7,PHO,3.8,3.7
34.0,10.4,0.1,3.0,0.529,4.6,8.8,0.439,1.6,3.6,0.503,6.2,12.3,0.933,2.8,3.0,74.0,74.0,NBA,2484.0,0.3,1.6,PG,16.8,2009,0.8,PHO,3.6,3.2
35.0,12.1,0.2,3.2,0.54,5.1,9.4,0.426,1.7,3.9,0.507,6.8,13.3,0.938,2.9,3.0,81.0,81.0,NBA,2660.0,0.5,1.5,PG,18.0,2010,0.6,PHO,4.0,3.6
36.0,12.3,0.1,3.2,0.525,4.6,8.7,0.395,1.2,3.0,0.492,5.8,11.7,0.912,3.3,3.6,75.0,75.0,NBA,2497.0,0.6,1.3,PG,15.9,2011,0.7,PHO,3.8,3.7
37.0,12.2,0.1,2.9,0.58,4.4,7.6,0.39,1.0,2.6,0.532,5.4,10.2,0.894,2.3,2.6,62.0,62.0,NBA,1961.0,0.5,1.0,PG,14.2,2012,0.7,PHO,4.2,3.4
38.0,7.4,0.1,2.6,0.519,4.0,7.6,0.438,1.3,2.9,0.497,5.2,10.5,0.922,2.4,2.6,50.0,50.0,NBA,1627.0,0.6,1.5,PG,14.1,2013,0.7,LAL,2.8,3.1
39.0,9.9,0.2,2.9,0.4,3.2,8.1,0.333,0.9,2.8,0.383,4.1,10.8,0.917,2.5,2.8,15.0,10.0,NBA,313.0,0.5,2.1,PG,11.7,2014,0.8,LAL,3.6,3.3
