lg_id,salary,season,team_name
NBA,412718.0,2007,Cleveland Cavaliers
NBA,687456.0,2008,Cleveland Cavaliers
NBA,3700000.0,2009,Cleveland Cavaliers
NBA,4088500.0,2010,Cleveland Cavaliers
NBA,4015334.0,2011,Cleveland Cavaliers
NBA,4403834.0,2012,Cleveland Cavaliers
NBA,4792332.0,2013,Cleveland Cavaliers
