age,ast,blk,drb,fg,fg2,fg2a,fg3,fg3a,fga,ft,fta,game_score,lg_id,mp,orb,pf,pts,season,stl,team_id,tov,trb
25.0,10.0,2.0,8.0,9.0,7.0,14.0,6.0,9.0,21.0,6.0,9.0,22.9,NBA,40,2.0,5.0,25.0,2018,4.0,SAC,5.0,8.0
26.0,11.0,1.0,8.0,10.0,7.0,14.0,5.0,11.0,22.0,8.0,9.0,25.5,NBA,44,4.0,6.0,28.0,2019,3.0,SAC,5.0,9.0
27.0,6.0,0.0,5.0,7.0,2.0,7.0,6.0,11.0,14.0,3.0,4.0,15.9,NBA,32,1.0,3.0,22.0,2020,3.0,SAC,3.0,5.0
