age,ast_per_mp,blk_per_mp,drb_per_mp,fg2_pct,fg2_per_mp,fg2a_per_mp,fg3_pct,fg3_per_mp,fg3a_per_mp,fg_pct,fg_per_mp,fga_per_mp,ft_pct,ft_per_mp,fta_per_mp,g,gs,lg_id,mp,orb_per_mp,pf_per_mp,pos,pts_per_mp,season,stl_per_mp,team_id,tov_per_mp,trb_per_mp
25.0,4.3,0.3,3.2,0.485,3.6,7.3,0.392,2.1,5.4,0.446,5.7,12.8,0.84,1.7,2.0,78.0,53.0,NBA,2175.0,0.5,2.8,SG,15.2,2018,1.2,SAC,2.1,3.7
26.0,4.9,0.3,3.8,0.462,4.2,9.1,0.36,2.5,6.9,0.418,6.7,16.0,0.827,2.5,3.0,70.0,17.0,NBA,1947.0,0.7,2.6,SG,18.3,2019,1.3,SAC,2.2,4.5
27.0,4.6,0.0,3.3,0.333,1.8,5.5,0.352,3.5,9.9,0.345,5.3,15.4,0.647,2.0,3.1,8.0,0.0,NBA,196.0,0.2,3.3,SG,16.2,2020,1.5,SAC,2.0,3.5
