age,ast_per_g,blk_per_g,drb_per_g,efg_pct,fg2_pct,fg2_per_g,fg2a_per_g,fg3_pct,fg3_per_g,fg3a_per_g,fg_pct,fg_per_g,fga_per_g,ft_pct,ft_per_g,fta_per_g,g,gs,lg_id,mp_per_g,orb_per_g,pf_per_g,pos,pts_per_g,season,stl_per_g,team_id,tov_per_g,trb_per_g
23.0,0.4,0.6,1.6,0.484,0.484,0.8,1.6,0.0,0.0,0.0,0.484,0.8,1.6,0.6,0.9,1.6,19.0,0.0,NBA,6.3,0.8,1.1,C,2.5,2009,0.1,MEM,0.5,2.5
24.0,0.3,0.4,1.4,0.387,0.407,0.7,1.6,0.0,0.0,0.1,0.387,0.7,1.7,0.737,0.4,0.5,36.0,0.0,NBA,6.7,0.7,1.6,C,1.7,2010,0.0,MEM,0.6,2.1
25.0,0.2,0.4,1.4,0.517,0.526,1.0,1.8,0.0,0.0,0.0,0.517,1.0,1.9,0.652,0.5,0.7,31.0,0.0,NBA,5.4,0.8,0.9,C,2.4,2011,0.1,MEM,0.4,2.2
26.0,0.2,0.7,1.2,0.542,0.553,0.7,1.3,0.0,0.0,0.0,0.542,0.7,1.4,0.692,0.5,0.7,35.0,0.0,NBA,5.9,0.8,1.2,C,2.0,2012,0.0,MEM,0.6,2.0
27.0,0.4,0.9,2.3,0.427,0.427,1.2,2.7,0.0,0.0,0.0,0.427,1.2,2.7,0.519,0.5,0.9,30.0,0.0,NBA,10.7,1.4,2.0,C,2.8,2013,0.2,TOT,1.0,3.7
27.0,0.3,0.5,1.1,0.333,0.333,0.5,1.6,0.0,0.0,0.0,0.333,0.5,1.6,0.5,0.1,0.2,13.0,0.0,NBA,6.7,0.8,1.2,C,1.2,2013,0.1,MEM,0.3,1.8
27.0,0.5,1.2,3.2,0.459,0.459,1.6,3.6,0.0,0.0,0.0,0.459,1.6,3.6,0.52,0.8,1.5,17.0,0.0,NBA,13.8,1.9,2.6,C,4.1,2013,0.3,PHO,1.6,5.1
