age,ast,blk,drb,efg_pct,fg,fg2,fg2_pct,fg2a,fg3,fg3_pct,fg3a,fg_pct,fga,ft,ft_pct,fta,g,gs,lg_id,mp,orb,pf,pos,pts,season,stl,team_id,tov,trb
23.0,8.0,12.0,31.0,0.484,15.0,15.0,0.484,31.0,0.0,0.0,0.0,0.484,31.0,18.0,0.6,30.0,19.0,0.0,NBA,120.0,16.0,20.0,C,48.0,2009,1.0,MEM,9.0,47.0
24.0,10.0,14.0,49.0,0.387,24.0,24.0,0.407,59.0,0.0,0.0,3.0,0.387,62.0,14.0,0.737,19.0,36.0,0.0,NBA,240.0,26.0,57.0,C,62.0,2010,1.0,MEM,20.0,75.0
25.0,5.0,13.0,44.0,0.517,30.0,30.0,0.526,57.0,0.0,0.0,1.0,0.517,58.0,15.0,0.652,23.0,31.0,0.0,NBA,168.0,24.0,29.0,C,75.0,2011,2.0,MEM,11.0,68.0
26.0,8.0,26.0,43.0,0.542,26.0,26.0,0.553,47.0,0.0,0.0,1.0,0.542,48.0,18.0,0.692,26.0,35.0,0.0,NBA,206.0,28.0,43.0,C,70.0,2012,1.0,MEM,21.0,71.0
27.0,12.0,27.0,68.0,0.427,35.0,35.0,0.427,82.0,0.0,0.0,0.0,0.427,82.0,14.0,0.519,27.0,30.0,0.0,NBA,322.0,43.0,60.0,C,84.0,2013,6.0,TOT,31.0,111.0
27.0,4.0,6.0,14.0,0.333,7.0,7.0,0.333,21.0,0.0,0.0,0.0,0.333,21.0,1.0,0.5,2.0,13.0,0.0,NBA,87.0,10.0,15.0,C,15.0,2013,1.0,MEM,4.0,24.0
27.0,8.0,21.0,54.0,0.459,28.0,28.0,0.459,61.0,0.0,0.0,0.0,0.459,61.0,13.0,0.52,25.0,17.0,0.0,NBA,235.0,33.0,45.0,C,69.0,2013,5.0,PHO,27.0,87.0
