age,ast_per_mp,blk_per_mp,drb_per_mp,fg2_pct,fg2_per_mp,fg2a_per_mp,fg3_pct,fg3_per_mp,fg3a_per_mp,fg_pct,fg_per_mp,fga_per_mp,ft_pct,ft_per_mp,fta_per_mp,g,gs,lg_id,mp,orb_per_mp,pf_per_mp,pos,pts_per_mp,season,stl_per_mp,team_id,tov_per_mp,trb_per_mp
22.0,6.0,0.2,2.7,0.471,4.7,9.9,0.351,0.6,1.8,0.453,5.3,11.7,0.754,2.4,3.2,78.0,22.0,NBA,1462.0,1.0,3.5,PG,13.7,1985,1.8,POR,2.8,3.7
23.0,5.0,0.2,2.6,0.477,4.7,9.9,0.325,0.5,1.6,0.456,5.2,11.5,0.823,2.6,3.2,81.0,51.0,NBA,1868.0,0.8,3.6,PG,13.6,1986,2.2,POR,2.2,3.4
24.0,5.7,0.3,2.3,0.434,4.5,10.3,0.235,0.1,0.5,0.426,4.6,10.8,0.766,2.2,2.9,70.0,31.0,NBA,1322.0,0.6,2.7,PG,11.5,1987,1.5,TOT,1.9,2.9
24.0,7.2,0.5,2.5,0.368,3.7,10.1,0.0,0.0,0.7,0.345,3.7,10.8,0.846,2.5,3.0,27.0,18.0,NBA,473.0,0.7,2.9,PG,10.0,1987,1.4,CHI,2.4,3.2
24.0,4.9,0.3,2.2,0.47,4.9,10.5,0.5,0.2,0.3,0.471,5.1,10.8,0.721,2.1,2.9,43.0,13.0,NBA,849.0,0.6,2.6,PG,12.4,1987,1.6,PHI,1.6,2.8
25.0,6.2,0.3,2.7,0.464,4.8,10.3,0.3,0.1,0.2,0.46,4.8,10.5,0.789,1.8,2.3,68.0,53.0,NBA,1513.0,1.4,3.1,PG,11.5,1988,1.5,TOT,2.1,4.1
25.0,6.2,0.0,2.6,0.375,3.6,9.5,0.0,0.0,0.0,0.375,3.6,9.5,0.778,1.7,2.1,12.0,0.0,NBA,152.0,1.7,4.7,PG,8.8,1988,1.4,PHI,2.6,4.3
25.0,6.2,0.4,2.8,0.473,4.9,10.3,0.3,0.1,0.3,0.469,5.0,10.6,0.791,1.8,2.3,56.0,53.0,NBA,1361.0,1.3,3.0,PG,11.8,1988,1.5,WSB,2.0,4.1
26.0,5.7,0.4,3.0,0.463,5.1,10.9,0.12,0.1,0.6,0.444,5.1,11.5,0.749,3.2,4.2,80.0,5.0,NBA,1425.0,1.6,4.0,PG,13.5,1989,1.7,WSB,1.6,4.6
27.0,5.5,0.4,4.5,0.486,5.2,10.8,0.0,0.0,0.2,0.478,5.2,10.9,0.811,2.8,3.5,73.0,1.0,NBA,977.0,2.0,3.6,PG,13.3,1990,1.7,WSB,1.4,6.5
28.0,5.3,0.1,3.0,0.429,2.6,6.0,0.357,0.7,2.0,0.411,3.3,8.0,0.7,1.0,1.4,19.0,0.0,NBA,251.0,0.7,3.9,PG,8.3,1991,1.6,SAC,1.6,3.7
32.0,4.8,0.3,2.2,0.44,2.8,6.4,0.229,0.4,1.7,0.396,3.2,8.1,0.761,2.6,3.4,57.0,7.0,NBA,752.0,0.6,2.5,PG,9.4,1995,1.4,CLE,1.7,2.8
