age,ast,ast_per_g,blk,college_id,fg,fg3,fg3_pct,fg3a,fg_pct,fga,ft,ft_pct,fta,g,mp,mp_per_g,orb,pf,pts,pts_per_g,season,stl,tov,trb,trb_per_g
18.0,84.0,2.5,22.0,PURDUE,119.0,42.0,0.447,94.0,0.484,246.0,96.0,0.865,111.0,33.0,0.0,0.0,0.0,0.0,376.0,11.4,2008,43.0,46.0,201.0,6.1
19.0,62.0,1.9,20.0,PURDUE,135.0,59.0,0.381,155.0,0.438,308.0,71.0,0.755,94.0,32.0,0.0,0.0,0.0,0.0,400.0,12.5,2009,36.0,32.0,223.0,7.0
20.0,56.0,2.1,28.0,PURDUE,135.0,43.0,0.364,118.0,0.456,296.0,110.0,0.902,122.0,27.0,817.0,30.3,44.0,57.0,423.0,15.7,2010,29.0,28.0,187.0,6.9
22.0,66.0,1.9,42.0,PURDUE,194.0,72.0,0.383,188.0,0.417,465.0,113.0,0.825,137.0,35.0,1128.0,32.2,55.0,73.0,573.0,16.4,2012,23.0,32.0,251.0,7.2
