age,ast_pct,blk_pct,bpm,bpm-dum,dbpm,drb_pct,dws,fg3a_per_fga_pct,fta_per_fga_pct,g,lg_id,mp,obpm,orb_pct,ows,per,pos,season,stl_pct,team_id,tov_pct,trb_pct,ts_pct,usg_pct,vorp,ws,ws-dum,ws_per_48
24.0,5.0,0.2,-2.1,0.0,-0.7,16.6,0.6,0.503,0.09,53.0,NBA,655.0,-1.4,5.7,0.6,9.6,SF,2014,1.2,MIN,5.2,11.0,0.492,12.6,0.0,1.1,0.0,0.084
25.0,5.6,1.0,-3.5,0.0,-1.6,16.4,0.1,0.297,0.169,45.0,NBA,742.0,-1.8,4.6,0.7,9.7,SF,2015,1.1,MIN,8.9,10.3,0.536,12.1,-0.3,0.8,0.0,0.05
