age,ast,blk,drb,efg_pct,fg,fg2,fg2_pct,fg2a,fg3,fg3_pct,fg3a,fg_pct,fga,ft,ft_pct,fta,g,gs,lg_id,mp,orb,pf,pos,pts,season,stl,team_id,tov,trb
23.0,47.0,6.0,43.0,0.457,48.0,38.0,0.447,85.0,10.0,0.323,31.0,0.414,116.0,26.0,0.743,35.0,64.0,1.0,NBA,504.0,16.0,53.0,PG,132.0,2003,17.0,PHI,29.0,59.0
24.0,134.0,16.0,158.0,0.447,161.0,111.0,0.413,269.0,50.0,0.34,147.0,0.387,416.0,71.0,0.772,92.0,77.0,24.0,NBA,1603.0,38.0,122.0,SG,443.0,2004,62.0,PHI,77.0,196.0
25.0,114.0,13.0,109.0,0.479,85.0,54.0,0.454,119.0,31.0,0.341,91.0,0.405,210.0,35.0,0.729,48.0,58.0,8.0,NBA,993.0,12.0,92.0,SG,236.0,2005,40.0,PHI,51.0,121.0
26.0,223.0,13.0,172.0,0.445,219.0,193.0,0.445,434.0,26.0,0.299,87.0,0.42,521.0,155.0,0.775,200.0,82.0,24.0,NBA,2059.0,48.0,178.0,SG,619.0,2006,73.0,PHI,125.0,220.0
27.0,254.0,27.0,217.0,0.495,236.0,196.0,0.484,405.0,40.0,0.357,112.0,0.456,517.0,159.0,0.779,204.0,79.0,19.0,NBA,2135.0,47.0,177.0,SG,671.0,2007,73.0,SAC,119.0,264.0
28.0,208.0,31.0,273.0,0.501,381.0,342.0,0.504,679.0,39.0,0.325,120.0,0.477,799.0,214.0,0.823,260.0,81.0,41.0,NBA,2517.0,76.0,171.0,SG,1015.0,2008,93.0,SAC,170.0,349.0
29.0,249.0,24.0,274.0,0.53,516.0,390.0,0.493,791.0,126.0,0.417,302.0,0.472,1093.0,288.0,0.83,347.0,79.0,74.0,NBA,2959.0,59.0,182.0,SF,1446.0,2009,83.0,TOT,165.0,333.0
29.0,196.0,9.0,178.0,0.524,351.0,274.0,0.489,560.0,77.0,0.418,184.0,0.472,744.0,191.0,0.823,232.0,53.0,53.0,NBA,1980.0,43.0,122.0,SF,970.0,2009,58.0,SAC,122.0,221.0
29.0,53.0,15.0,96.0,0.543,165.0,116.0,0.502,231.0,49.0,0.415,118.0,0.473,349.0,97.0,0.843,115.0,26.0,21.0,NBA,979.0,16.0,60.0,SF,476.0,2009,25.0,CHI,43.0,112.0
30.0,223.0,26.0,235.0,0.501,437.0,319.0,0.468,682.0,118.0,0.382,309.0,0.441,991.0,253.0,0.83,305.0,81.0,56.0,NBA,2824.0,35.0,166.0,SG,1245.0,2010,99.0,TOT,123.0,270.0
30.0,125.0,22.0,156.0,0.486,230.0,157.0,0.441,356.0,73.0,0.38,192.0,0.42,548.0,116.0,0.789,147.0,51.0,28.0,NBA,1695.0,18.0,101.0,SG,649.0,2010,65.0,CHI,70.0,174.0
30.0,98.0,4.0,79.0,0.518,207.0,162.0,0.497,326.0,45.0,0.385,117.0,0.467,443.0,137.0,0.867,158.0,30.0,28.0,NBA,1129.0,17.0,65.0,SG,596.0,2010,34.0,MIL,53.0,96.0
31.0,252.0,28.0,239.0,0.462,373.0,290.0,0.427,679.0,83.0,0.379,219.0,0.415,898.0,195.0,0.813,240.0,73.0,70.0,NBA,2554.0,27.0,157.0,SG,1024.0,2011,72.0,MIL,137.0,266.0
32.0,93.0,7.0,114.0,0.457,141.0,108.0,0.464,233.0,33.0,0.295,112.0,0.409,345.0,29.0,0.644,45.0,46.0,32.0,NBA,1250.0,20.0,77.0,SF,344.0,2012,37.0,SAC,45.0,134.0
33.0,226.0,25.0,174.0,0.48,244.0,145.0,0.42,345.0,99.0,0.371,267.0,0.399,612.0,85.0,0.773,110.0,76.0,72.0,NBA,2278.0,33.0,143.0,SF,672.0,2013,51.0,SAC,85.0,207.0
34.0,147.0,19.0,143.0,0.439,150.0,87.0,0.348,250.0,63.0,0.387,163.0,0.363,413.0,40.0,0.769,52.0,78.0,8.0,NBA,1726.0,20.0,124.0,SG-SF,403.0,2014,47.0,TOT,54.0,163.0
34.0,44.0,8.0,38.0,0.419,41.0,25.0,0.333,75.0,16.0,0.381,42.0,0.35,117.0,7.0,1.0,7.0,18.0,8.0,NBA,445.0,8.0,32.0,SF,105.0,2014,12.0,SAC,14.0,46.0
34.0,103.0,11.0,105.0,0.448,109.0,62.0,0.354,175.0,47.0,0.388,121.0,0.368,296.0,33.0,0.733,45.0,60.0,0.0,NBA,1281.0,12.0,92.0,SG,298.0,2014,35.0,TOR,40.0,117.0
35.0,13.0,4.0,17.0,0.417,16.0,8.0,0.364,22.0,8.0,0.308,26.0,0.333,48.0,2.0,0.5,4.0,21.0,0.0,NBA,270.0,4.0,25.0,SF,42.0,2015,9.0,NOP,5.0,21.0
