article_url,date,headline
https://allucanheat.com/2019/11/14/miami-heat-15-greatest-wade-moments/,2019/11/14,All U Can Heat: Miami Heat: The 15 Greatest Dwyane Wade moments of all time
https://aroyalpain.com/2019/09/13/sacramento-kings-all-decade-team/,2019/09/13,A Royal Pain: Sacramento Kings 2010s All-Decade Team
https://raptorsrapture.com/2019/06/04/kawhi-leonard-house-toronto-raptors/,2019/06/04,Raptors Rapture: Does Kawhi Leonard's house mean anything for the Toronto Raptors?
