age,avg_dist,fg2_dunk,fg2_pct,fg2_pct_ast,fg2a_pct_fga,fg3_heave,fg3_pct,fg3_pct_ast,fg3_pct_corner,fg3a_heave,fg3a_pct_fga,fg_pct,fg_pct_00_03,fg_pct_03_10,fg_pct_10_16,fg_pct_16_xx,g,lg_id,mp,pct_fg2_dunk,pct_fg3a_corner,pct_fga_00_03,pct_fga_03_10,pct_fga_10_16,pct_fga_16_xx,pos,season,team_id
22.0,5.2,5.0,0.375,0.444,1.0,0.0,0.0,0.0,0.0,0.0,0.0,0.375,0.52,0.167,0.3,0.0,34.0,NBA,226.0,0.167,0.0,0.521,0.25,0.208,0.021,C,2001,NJN
24.0,3.3,2.0,0.417,0.5,1.0,0.0,0.0,0.0,0.0,0.0,0.0,0.417,0.429,0.25,0.4,0.0,13.0,NBA,77.0,0.083,0.0,0.583,0.167,0.208,0.0,C,2003,LAL
