age,ast,blk,drb,fg,fg2,fg2a,fg3,fg3a,fga,ft,fta,game_score,lg_id,mp,orb,pf,pts,season,stl,team_id,tov,trb
22.0,1.0,2.0,5.0,2.0,2.0,5.0,0.0,0.0,5.0,2.0,4.0,4.1,NBA,0.0,4.0,5.0,5.0,2001,1.0,NJN,1.0,7.0
24.0,2.0,2.0,4.0,4.0,4.0,6.0,0.0,0.0,6.0,2.0,2.0,12.1,NBA,0.0,3.0,4.0,10.0,2003,0.0,LAL,1.0,7.0
