age,ast_pct,blk_pct,bpm,bpm-dum,dbpm,drb_pct,dws,fg3a_per_fga_pct,fta_per_fga_pct,g,lg_id,mp,obpm,orb_pct,ows,per,pos,season,stl_pct,team_id,tov_pct,trb_pct,ts_pct,usg_pct,vorp,ws,ws-dum,ws_per_48
22.0,0.7,4.6,-7.5,0.0,-1.5,16.2,0.2,0.0,0.5,34.0,NBA,226.0,-6.0,10.9,0.0,9.0,C,2001,0.5,NJN,6.4,13.5,0.393,12.6,-0.3,0.1,0.0,0.028
24.0,8.0,4.7,-3.3,0.0,-0.6,19.2,0.1,0.0,0.083,13.0,NBA,77.0,-2.7,14.5,0.1,12.9,C,2003,0.0,LAL,7.4,16.8,0.442,15.5,0.0,0.2,0.0,0.102
