age,ast,blk,drb,fg,fg2,fg2a,fg3,fg3a,fga,ft,fta,game_score,lg_id,mp,orb,pf,pts,season,stl,team_id,tov,trb
21.0,1.0,1.0,4.0,8.0,8.0,13.0,1.0,2.0,13.0,5.0,6.0,17.2,NBA,25,5.0,4.0,20.0,2014,2.0,MIN,4.0,7.0
22.0,5.0,1.0,9.0,12.0,12.0,21.0,5.0,6.0,21.0,6.0,9.0,25.3,NBA,39,5.0,4.0,30.0,2015,3.0,MIN,3.0,10.0
23.0,4.0,1.0,7.0,12.0,11.0,13.0,3.0,7.0,16.0,15.0,17.0,31.0,NBA,39,5.0,4.0,35.0,2016,2.0,MIN,3.0,9.0
24.0,2.0,1.0,6.0,9.0,8.0,16.0,4.0,6.0,18.0,7.0,9.0,20.6,NBA,34,8.0,4.0,24.0,2017,2.0,MIN,3.0,11.0
25.0,3.0,1.0,7.0,9.0,7.0,13.0,2.0,3.0,14.0,7.0,8.0,21.7,NBA,32,2.0,4.0,22.0,2018,2.0,TOT,1.0,8.0
25.0,1.0,1.0,4.0,7.0,7.0,13.0,2.0,3.0,14.0,5.0,8.0,10.0,NBA,32,2.0,4.0,14.0,2018,1.0,MIN,1.0,5.0
25.0,3.0,1.0,7.0,9.0,7.0,12.0,2.0,3.0,14.0,7.0,7.0,21.7,NBA,24,2.0,3.0,22.0,2018,2.0,MIL,1.0,8.0
