age,ast,blk,drb,efg_pct,fg,fg2,fg2_pct,fg2a,fg3,fg3_pct,fg3a,fg_pct,fga,ft,ft_pct,fta,g,gs,lg_id,mp,orb,pf,pos,pts,season,stl,team_id,tov,trb
22.0,2.0,1.0,2.0,0.381,8.0,8.0,0.4,20.0,0.0,0.0,1.0,0.381,21.0,7.0,0.875,8.0,17.0,0.0,NBA,67.0,2.0,11.0,SF,23.0,2002,1.0,PHI,9.0,4.0
23.0,3.0,0.0,12.0,0.314,11.0,11.0,0.333,33.0,0.0,0.0,2.0,0.314,35.0,6.0,0.75,8.0,5.0,3.0,NBA,115.0,3.0,14.0,PF,28.0,2003,1.0,TOR,6.0,15.0
24.0,0.0,0.0,2.0,0.1,1.0,1.0,0.1,10.0,0.0,0.0,0.0,0.1,10.0,1.0,0.5,2.0,3.0,0.0,NBA,17.0,3.0,2.0,PF,3.0,2004,2.0,NJN,1.0,5.0
25.0,14.0,6.0,18.0,0.403,23.0,19.0,0.373,51.0,4.0,0.364,11.0,0.371,62.0,4.0,0.444,9.0,14.0,0.0,NBA,152.0,10.0,17.0,SF,54.0,2005,1.0,WAS,15.0,28.0
