age,ast_per_mp,blk_per_mp,drb_per_mp,fg2_pct,fg2_per_mp,fg2a_per_mp,fg3_pct,fg3_per_mp,fg3a_per_mp,fg_pct,fg_per_mp,fga_per_mp,ft_pct,ft_per_mp,fta_per_mp,g,gs,lg_id,mp,orb_per_mp,pf_per_mp,pos,pts_per_mp,season,stl_per_mp,team_id,tov_per_mp,trb_per_mp
22.0,1.2,0.2,3.0,0.365,2.6,7.2,0.477,1.8,3.7,0.403,4.4,10.9,0.833,1.7,2.0,41.0,3.0,NBA,427.0,1.6,3.5,SF,12.2,2004,1.1,CLE,1.8,4.6
23.0,1.5,0.1,3.2,0.396,4.6,11.5,0.412,1.9,4.7,0.401,6.5,16.2,0.824,1.7,2.1,81.0,14.0,NBA,1491.0,0.8,3.2,SF,16.6,2005,1.0,CHA,1.1,4.0
24.0,2.0,0.2,3.2,0.468,3.1,6.7,0.396,1.1,2.9,0.446,4.3,9.6,0.848,1.5,1.8,51.0,2.0,NBA,665.0,0.6,4.8,SF,11.2,2006,0.4,MIA,1.1,3.8
25.0,1.7,0.0,3.1,0.482,3.5,7.2,0.514,2.2,4.3,0.494,5.7,11.5,0.892,1.3,1.5,67.0,35.0,NBA,1767.0,0.5,2.8,SF,14.9,2007,0.8,MIA,1.4,3.7
26.0,1.5,0.0,2.1,0.489,4.4,8.9,0.483,1.3,2.8,0.488,5.7,11.7,0.86,0.9,1.0,81.0,7.0,NBA,1530.0,0.7,3.1,SF,13.6,2008,0.8,TOR,1.4,2.8
27.0,2.1,0.1,2.7,0.435,3.2,7.4,0.428,1.9,4.5,0.432,5.1,11.9,0.81,0.7,0.8,80.0,12.0,NBA,1831.0,0.5,2.8,SG,12.9,2009,0.4,TOR,1.4,3.2
28.0,1.4,0.2,1.9,0.485,2.3,4.8,0.368,2.3,6.3,0.419,4.6,11.1,0.6,0.3,0.6,57.0,12.0,NBA,976.0,0.5,3.0,SF,12.0,2010,0.8,PHI,1.3,2.4
29.0,1.3,0.3,2.6,0.3,1.9,6.4,0.125,0.3,2.6,0.25,2.3,9.0,0.5,0.3,0.6,24.0,2.0,NBA,112.0,1.0,1.3,SF,5.1,2011,0.6,PHI,0.6,3.5
30.0,1.5,0.0,1.6,0.464,1.7,3.7,0.296,1.1,3.6,0.382,2.8,7.4,1.0,0.5,0.5,27.0,0.0,NBA,269.0,0.3,2.8,SG,7.2,2012,0.4,LAL,0.8,1.9
