age,ast_per_g,blk_per_g,drb_per_g,efg_pct,fg2_pct,fg2_per_g,fg2a_per_g,fg3_pct,fg3_per_g,fg3a_per_g,fg_pct,fg_per_g,fga_per_g,ft_pct,ft_per_g,fta_per_g,g,gs,lg_id,mp_per_g,orb_per_g,pf_per_g,pos,pts_per_g,season,stl_per_g,team_id,tov_per_g,trb_per_g
24.0,0.0,0.0,0.0,0.0,0.0,0.0,0.0,0.0,0.0,0.0,0.0,0.0,0.0,0.0,0.0,0.0,1.0,0.0,NBA,2.0,0.0,0.0,SF,0.0,2006,0.0,MIA,0.0,0.0
25.0,0.5,0.0,1.3,0.529,0.462,1.5,3.3,0.5,0.5,1.0,0.471,2.0,4.3,1.0,0.5,0.5,4.0,1.0,NBA,19.3,0.0,2.3,SF,5.0,2007,0.5,MIA,0.3,1.3
26.0,0.8,0.0,2.2,0.708,0.621,3.6,5.8,0.542,2.6,4.8,0.585,6.2,10.6,0.75,0.6,0.8,5.0,0.0,NBA,30.4,0.4,1.8,SF,15.6,2008,0.4,TOR,0.4,2.6
