article_url,date,headline
https://valleyofthesuns.com/2019/09/26/phoenix-suns-re-draft-part-two-2017/,2019/09/26,Sun-N-Gun: Phoenix Suns Re-draft Part Two: 2017
https://raptorsrapture.com/2019/08/03/toronto-raptors-fan-morris-peterson/,2019/08/03,Raptors Rapture: Celebrating Toronto Raptors fan favourite: Morris Peterson
https://raptorsrapture.com/2019/06/27/toronto-raptors-sign-danny-green/,2019/06/27,Raptors Rapture: Should the Toronto Raptors re-sign Danny Green if Kawhi Leonard stays?
https://thesixersense.com/2019/05/28/philadelphia-76ers-memories-why-process-worth-it/,2019/05/28,The Sixer Sense: 10 years of memories: Why 'The Process' will always be worth it
