age,ast_per_poss,blk_per_poss,def_rtg,drb_per_poss,fg2_pct,fg2_per_poss,fg2a_per_poss,fg3_pct,fg3_per_poss,fg3a_per_poss,fg_pct,fg_per_poss,fga_per_poss,ft_pct,ft_per_poss,fta_per_poss,g,gs,lg_id,mp,off_rtg,orb_per_poss,pf_per_poss,pos,pts_per_poss,season,stl_per_poss,team_id,tov_per_poss,trb_per_poss
23.0,2.8,0.9,108.0,8.8,0.48,5.6,11.6,0.0,0.0,0.0,0.479,5.6,11.7,0.729,2.2,3.1,81.0,47.0,NBA,1773.0,111.0,8.6,7.0,PF,13.4,1994,1.7,DAL,2.7,17.3
24.0,3.5,0.6,109.0,10.9,0.449,7.9,17.6,0.083,0.0,0.3,0.443,7.9,17.8,0.645,1.7,2.6,80.0,80.0,NBA,2385.0,105.0,7.0,5.7,PF,17.5,1995,0.7,DAL,2.6,17.9
25.0,2.9,0.6,109.0,10.3,0.451,6.8,15.0,0.359,0.3,0.8,0.446,7.1,15.9,0.767,2.2,2.9,68.0,68.0,NBA,2322.0,107.0,5.6,5.7,PF,16.7,1996,1.2,DAL,2.4,16.0
26.0,1.8,0.9,108.0,9.0,0.49,5.6,11.5,0.077,0.0,0.3,0.48,5.6,11.8,0.818,2.2,2.6,79.0,61.0,NBA,2421.0,108.0,5.9,5.9,PF,13.5,1997,1.3,TOR,2.5,14.9
27.0,2.7,0.4,111.0,7.7,0.403,7.4,18.3,0.667,0.3,0.4,0.409,7.7,18.7,0.737,2.1,2.8,14.0,4.0,NBA,352.0,101.0,7.4,5.7,PF,17.7,1998,1.5,TOR,2.4,15.0
28.0,3.8,0.0,105.0,6.1,0.4,5.1,12.7,0.0,0.0,0.3,0.392,5.1,13.0,0.824,3.6,4.3,18.0,2.0,NBA,206.0,111.0,7.1,7.9,PF,13.8,1999,1.3,BOS,1.8,13.2
29.0,2.9,0.9,106.0,9.5,0.416,6.4,15.5,0.667,0.3,0.5,0.423,6.8,16.0,0.737,2.1,2.9,40.0,1.0,NBA,330.0,105.0,6.3,7.7,PF,16.0,2000,0.5,DEN,2.0,15.8
30.0,2.5,0.6,105.0,11.1,0.401,4.8,11.9,0.167,0.1,0.5,0.392,4.9,12.4,0.745,3.3,4.5,45.0,1.0,NBA,638.0,108.0,6.7,7.7,PF,13.2,2001,1.5,WAS,1.7,17.9
31.0,3.6,0.5,105.0,9.8,0.439,6.2,14.1,0.364,0.1,0.3,0.437,6.3,14.4,0.815,3.0,3.7,79.0,40.0,NBA,1920.0,108.0,6.6,5.9,PF,15.7,2002,1.4,WAS,2.5,16.4
32.0,1.9,0.2,104.0,7.0,0.387,5.6,14.5,0.0,0.0,0.0,0.387,5.6,14.5,0.455,1.2,2.6,26.0,0.0,NBA,222.0,88.0,6.8,7.2,PF,12.4,2003,1.2,DAL,3.5,13.8
33.0,0.0,0.0,113.0,0.0,0.0,0.0,10.7,0.0,0.0,0.0,0.0,0.0,10.7,0.0,0.0,0.0,5.0,0.0,NBA,10.0,35.0,5.3,10.7,PF,0.0,2004,0.0,GSW,0.0,5.3
