age,ast_per_g,blk_per_g,drb_per_g,efg_pct,fg2_pct,fg2_per_g,fg2a_per_g,fg3_pct,fg3_per_g,fg3a_per_g,fg_pct,fg_per_g,fga_per_g,ft_pct,ft_per_g,fta_per_g,g,gs,lg_id,mp_per_g,orb_per_g,pf_per_g,pos,pts_per_g,season,stl_per_g,team_id,tov_per_g,trb_per_g
23.0,1.2,0.4,3.8,0.479,0.48,2.4,5.0,0.0,0.0,0.0,0.479,2.4,5.0,0.729,1.0,1.3,81.0,47.0,NBA,21.9,3.7,3.0,PF,5.8,1994,0.8,DAL,1.2,7.5
24.0,2.0,0.3,6.4,0.444,0.449,4.6,10.3,0.083,0.0,0.2,0.443,4.7,10.5,0.645,1.0,1.6,80.0,80.0,NBA,29.8,4.1,3.3,PF,10.3,1995,0.4,DAL,1.6,10.6
25.0,1.9,0.4,7.0,0.456,0.451,4.6,10.2,0.359,0.2,0.6,0.446,4.8,10.8,0.767,1.5,2.0,68.0,68.0,NBA,34.1,3.8,3.9,PF,11.3,1996,0.8,DAL,1.6,10.8
26.0,1.1,0.5,5.2,0.481,0.49,3.3,6.6,0.077,0.0,0.2,0.48,3.3,6.8,0.818,1.3,1.5,79.0,61.0,NBA,30.6,3.4,3.4,PF,7.8,1997,0.7,TOR,1.5,8.6
27.0,1.3,0.2,3.7,0.417,0.403,3.6,8.9,0.667,0.1,0.2,0.409,3.7,9.1,0.737,1.0,1.4,14.0,4.0,NBA,25.1,3.6,2.8,PF,8.6,1998,0.7,TOR,1.1,7.3
28.0,0.8,0.0,1.3,0.392,0.4,1.1,2.8,0.0,0.0,0.1,0.392,1.1,2.8,0.824,0.8,0.9,18.0,2.0,NBA,11.4,1.6,1.7,PF,3.0,1999,0.3,BOS,0.4,2.9
29.0,0.5,0.2,1.6,0.433,0.416,1.1,2.5,0.667,0.1,0.1,0.423,1.1,2.6,0.737,0.4,0.5,40.0,1.0,NBA,8.3,1.0,1.3,PF,2.6,2000,0.1,DEN,0.3,2.6
30.0,0.7,0.2,3.0,0.395,0.401,1.3,3.3,0.167,0.0,0.1,0.392,1.3,3.4,0.745,0.9,1.2,45.0,1.0,NBA,14.2,1.8,2.1,PF,3.6,2001,0.4,WAS,0.5,4.9
31.0,1.6,0.2,4.4,0.441,0.439,2.8,6.3,0.364,0.1,0.1,0.437,2.8,6.4,0.815,1.3,1.6,79.0,40.0,NBA,24.3,2.9,2.6,PF,7.0,2002,0.6,WAS,1.1,7.3
32.0,0.3,0.0,1.2,0.387,0.387,0.9,2.4,0.0,0.0,0.0,0.387,0.9,2.4,0.455,0.2,0.4,26.0,0.0,NBA,8.5,1.1,1.2,PF,2.0,2003,0.2,DAL,0.6,2.3
33.0,0.0,0.0,0.0,0.0,0.0,0.0,0.4,0.0,0.0,0.0,0.0,0.0,0.4,0.0,0.0,0.0,5.0,0.0,NBA,2.0,0.2,0.4,PF,0.0,2004,0.0,GSW,0.0,0.2
