age,avg_dist,fg2_dunk,fg2_pct,fg2_pct_ast,fg2a_pct_fga,fg3_heave,fg3_pct,fg3_pct_ast,fg3_pct_corner,fg3a_heave,fg3a_pct_fga,fg_pct,fg_pct_00_03,fg_pct_03_10,fg_pct_10_16,fg_pct_16_xx,g,lg_id,mp,pct_fg2_dunk,pct_fg3a_corner,pct_fga_00_03,pct_fga_03_10,pct_fga_10_16,pct_fga_16_xx,pos,season,team_id
30.0,9.3,0.0,0.401,0.627,0.961,0.0,0.167,1.0,0.333,0.0,0.039,0.392,0.571,0.324,0.281,0.344,45.0,NBA,638.0,0.0,0.5,0.32,0.222,0.209,0.209,PF,2001,WAS
31.0,9.9,2.0,0.439,0.661,0.978,0.0,0.364,1.0,0.75,2.0,0.022,0.437,0.556,0.384,0.442,0.365,79.0,NBA,1920.0,0.004,0.364,0.262,0.246,0.222,0.248,PF,2002,WAS
32.0,8.2,0.0,0.387,0.667,1.0,0.0,0.0,0.0,0.0,0.0,0.0,0.387,0.476,0.467,0.364,0.2,26.0,NBA,222.0,0.0,0.0,0.339,0.242,0.177,0.242,PF,2003,DAL
33.0,8.5,0.0,0.0,0.0,1.0,0.0,0.0,0.0,0.0,0.0,0.0,0.0,0.0,0.0,0.0,0.0,5.0,NBA,10.0,0.0,0.0,0.0,0.5,0.5,0.0,PF,2004,GSW
