article_url,date,headline
https://dailyknicks.com/2019/08/11/new-york-knicks-stephon-marbury-trade-welcomed-star/,2019/08/11,Daily Knicks: New York Knicks: The Stephon Marbury trade that welcomed a star
https://dailyknicks.com/2019/05/25/new-york-knicks-nba-draft-history-2004/,2019/05/25,Daily Knicks: New York Knicks NBA Draft History: 2004
