age,ast,blk,drb,fg,fg2,fg2a,fg3,fg3a,fga,ft,fta,game_score,lg_id,mp,orb,pf,pts,season,stl,team_id,tov,trb
21.0,3.0,3.0,3.0,6.0,5.0,12.0,2.0,3.0,14.0,6.0,6.0,9.5,NBA,0.0,5.0,5.0,15.0,2005,2.0,UTA,5.0,6.0
22.0,12.0,4.0,5.0,9.0,8.0,13.0,3.0,6.0,17.0,8.0,10.0,23.5,NBA,46.0,3.0,6.0,28.0,2006,2.0,NOK,5.0,6.0
23.0,4.0,2.0,6.0,6.0,5.0,7.0,1.0,5.0,10.0,6.0,8.0,12.5,NBA,35.0,3.0,4.0,15.0,2007,2.0,HOU,3.0,6.0
24.0,6.0,2.0,8.0,9.0,9.0,11.0,1.0,4.0,11.0,8.0,10.0,25.9,NBA,38.0,7.0,5.0,22.0,2008,5.0,TOT,6.0,11.0
24.0,3.0,1.0,4.0,3.0,3.0,4.0,1.0,4.0,8.0,3.0,5.0,7.8,NBA,20.0,2.0,3.0,8.0,2008,1.0,HOU,3.0,6.0
24.0,6.0,2.0,8.0,9.0,9.0,11.0,1.0,3.0,11.0,8.0,10.0,25.9,NBA,38.0,7.0,5.0,22.0,2008,5.0,MIN,6.0,11.0
