age,ast,blk,drb,efg_pct,fg,fg2,fg2_pct,fg2a,fg3,fg3_pct,fg3a,fg_pct,fga,ft,ft_pct,fta,g,gs,lg_id,mp,orb,pf,pos,pts,season,stl,team_id,tov,trb
21.0,36.0,19.0,71.0,0.418,122.0,92.0,0.379,243.0,30.0,0.353,85.0,0.372,328.0,64.0,0.667,96.0,68.0,7.0,NBA,906.0,50.0,116.0,SG,338.0,2005,26.0,UTA,58.0,121.0
22.0,102.0,23.0,106.0,0.503,205.0,159.0,0.491,324.0,46.0,0.357,129.0,0.453,453.0,86.0,0.735,117.0,68.0,45.0,NBA,1310.0,55.0,106.0,SG,542.0,2006,29.0,NOK,70.0,161.0
23.0,39.0,12.0,66.0,0.49,66.0,55.0,0.539,102.0,11.0,0.25,44.0,0.452,146.0,49.0,0.653,75.0,39.0,1.0,NBA,563.0,17.0,51.0,SF,192.0,2007,11.0,HOU,26.0,83.0
24.0,64.0,15.0,96.0,0.521,96.0,91.0,0.548,166.0,5.0,0.217,23.0,0.508,189.0,64.0,0.727,88.0,36.0,18.0,NBA,761.0,30.0,55.0,SF-PF,261.0,2008,20.0,TOT,52.0,126.0
24.0,8.0,1.0,7.0,0.5,13.0,11.0,0.579,19.0,2.0,0.222,9.0,0.464,28.0,6.0,0.545,11.0,9.0,0.0,NBA,81.0,5.0,6.0,PF,34.0,2008,1.0,HOU,4.0,12.0
24.0,56.0,14.0,89.0,0.525,83.0,80.0,0.544,147.0,3.0,0.214,14.0,0.516,161.0,58.0,0.753,77.0,27.0,18.0,NBA,680.0,25.0,49.0,SF,227.0,2008,19.0,MIN,48.0,114.0
