age,ast,blk,drb,fg,fg2,fg2a,fg3,fg3a,fga,ft,fta,game_score,lg_id,mp,orb,pf,pts,season,stl,team_id,tov,trb
23.0,1.0,0.0,0.0,1.0,1.0,2.0,0.0,0.0,2.0,1.0,4.0,1.7,NBA,0.0,2.0,1.0,2.0,1986,0.0,SEA,2.0,2.0
30.0,1.0,1.0,2.0,6.0,6.0,8.0,0.0,1.0,8.0,3.0,4.0,9.3,NBA,0.0,2.0,3.0,12.0,1993,1.0,TOT,2.0,4.0
30.0,1.0,1.0,2.0,6.0,6.0,8.0,0.0,1.0,8.0,0.0,0.0,8.6,NBA,0.0,1.0,3.0,12.0,1993,1.0,PHO,2.0,2.0
30.0,0.0,0.0,0.0,0.0,0.0,1.0,0.0,0.0,1.0,0.0,0.0,-0.7,NBA,0.0,0.0,0.0,0.0,1993,0.0,LAC,0.0,0.0
30.0,1.0,0.0,2.0,3.0,3.0,7.0,0.0,0.0,7.0,3.0,4.0,9.3,NBA,0.0,2.0,2.0,9.0,1993,1.0,MIL,1.0,4.0
30.0,0.0,1.0,2.0,1.0,1.0,3.0,0.0,1.0,3.0,0.0,0.0,2.3,NBA,0.0,2.0,0.0,2.0,1993,0.0,ATL,0.0,4.0
