age,avg_dist,fg2_dunk,fg2_pct,fg2_pct_ast,fg2a_pct_fga,fg3_heave,fg3_pct,fg3_pct_ast,fg3_pct_corner,fg3a_heave,fg3a_pct_fga,fg_pct,fg_pct_00_03,fg_pct_03_10,fg_pct_10_16,fg_pct_16_xx,g,lg_id,mp,pct_fg2_dunk,pct_fg3a_corner,pct_fga_00_03,pct_fga_03_10,pct_fga_10_16,pct_fga_16_xx,pos,season,team_id
26.0,17.9,2.0,0.371,0.538,0.556,0.0,0.339,0.895,0.375,1.0,0.444,0.357,0.474,0.714,0.333,0.231,60.0,NBA,478.0,0.016,0.286,0.151,0.056,0.143,0.206,PF,2001,BOS
27.0,17.9,9.0,0.506,0.561,0.45,0.0,0.394,1.0,0.457,2.0,0.55,0.444,0.833,0.333,0.316,0.3,56.0,NBA,718.0,0.05,0.465,0.167,0.067,0.106,0.111,PF,2002,BOS
28.0,17.6,22.0,0.482,0.659,0.407,0.0,0.367,0.989,0.392,1.0,0.593,0.414,0.582,0.385,0.5,0.333,82.0,NBA,1949.0,0.062,0.504,0.189,0.062,0.062,0.093,SF,2003,BOS
29.0,20.5,9.0,0.42,0.591,0.3,0.0,0.374,0.971,0.431,0.0,0.7,0.388,0.711,0.259,0.387,0.278,77.0,NBA,1900.0,0.023,0.336,0.086,0.052,0.059,0.103,PF,2004,BOS
30.0,20.1,1.0,0.5,0.8,0.34,0.0,0.355,1.0,0.314,0.0,0.66,0.404,0.5,0.455,0.4,0.567,72.0,NBA,906.0,0.004,0.226,0.102,0.047,0.064,0.128,PF,2005,TOT
30.0,19.0,1.0,0.533,0.813,0.4,0.0,0.333,1.0,0.238,0.0,0.6,0.413,0.476,0.714,0.333,0.609,44.0,NBA,553.0,0.007,0.233,0.14,0.047,0.06,0.153,PF,2005,BOS
30.0,22.0,0.0,0.4,0.75,0.235,0.0,0.385,1.0,0.429,0.0,0.765,0.388,0.667,0.0,0.5,0.429,28.0,NBA,353.0,0.0,0.215,0.035,0.047,0.071,0.082,PF,2005,PHO
31.0,17.0,1.0,0.426,0.696,0.545,0.0,0.222,1.0,0.0,1.0,0.455,0.333,0.45,0.286,0.429,0.462,36.0,NBA,353.0,0.01,0.133,0.202,0.071,0.141,0.131,SF,2006,LAC
