age,ast_per_g,blk_per_g,drb_per_g,efg_pct,fg2_pct,fg2_per_g,fg2a_per_g,fg3_pct,fg3_per_g,fg3a_per_g,fg_pct,fg_per_g,fga_per_g,ft_pct,ft_per_g,fta_per_g,g,gs,lg_id,mp_per_g,orb_per_g,pf_per_g,pos,pts_per_g,season,stl_per_g,team_id,tov_per_g,trb_per_g
21.0,2.7,2.5,8.6,0.549,0.553,8.6,15.6,0.0,0.0,0.1,0.549,8.6,15.7,0.662,3.9,5.9,82.0,82.0,NBA,39.1,3.3,3.1,PF,21.1,1998,0.7,SAS,3.4,11.9
22.0,2.4,2.5,8.2,0.495,0.498,8.3,16.8,0.143,0.0,0.1,0.495,8.4,16.9,0.69,4.9,7.2,50.0,50.0,NBA,39.3,3.2,2.9,PF,21.7,1999,0.9,SAS,2.9,11.4
23.0,3.2,2.2,8.9,0.491,0.494,8.5,17.2,0.091,0.0,0.1,0.49,8.5,17.3,0.761,6.2,8.1,74.0,74.0,NBA,38.9,3.5,2.8,PF,23.2,2000,0.9,SAS,3.3,12.4
24.0,3.0,2.3,9.0,0.502,0.504,8.5,16.8,0.259,0.1,0.3,0.499,8.6,17.1,0.618,5.0,8.1,82.0,82.0,NBA,38.7,3.2,3.0,PF,22.2,2001,0.9,SAS,3.0,12.2
25.0,3.7,2.5,9.4,0.508,0.511,9.3,18.2,0.1,0.0,0.1,0.508,9.3,18.3,0.799,6.8,8.5,82.0,82.0,NBA,40.6,3.3,2.6,PF,25.5,2002,0.7,SAS,3.2,12.7
26.0,3.9,2.9,9.7,0.515,0.517,8.7,16.9,0.273,0.1,0.3,0.513,8.8,17.2,0.71,5.6,7.8,81.0,81.0,NBA,39.3,3.2,2.9,PF,23.3,2003,0.7,SAS,3.1,12.9
27.0,3.1,2.7,9.2,0.502,0.505,8.6,16.9,0.167,0.0,0.2,0.501,8.6,17.1,0.599,5.1,8.5,69.0,68.0,NBA,36.6,3.3,2.4,PF,22.3,2004,0.9,SAS,2.7,12.4
28.0,2.7,2.6,8.0,0.498,0.498,7.8,15.7,0.333,0.0,0.1,0.496,7.8,15.8,0.67,4.6,6.9,66.0,66.0,NBA,33.4,3.1,2.2,PF,20.3,2005,0.7,SAS,1.9,11.1
29.0,3.2,2.0,8.1,0.485,0.485,7.2,14.8,0.4,0.0,0.1,0.484,7.2,14.8,0.629,4.2,6.7,80.0,80.0,NBA,34.8,2.9,2.7,PF,18.6,2006,0.9,SAS,2.5,11.0
30.0,3.4,2.4,7.9,0.547,0.55,7.7,14.0,0.111,0.0,0.1,0.546,7.7,14.1,0.637,4.5,7.1,80.0,80.0,NBA,34.1,2.7,2.5,C,20.0,2007,0.8,SAS,2.8,10.6
31.0,2.8,1.9,8.3,0.497,0.498,7.5,15.1,0.0,0.0,0.1,0.497,7.5,15.1,0.73,4.3,5.9,78.0,78.0,NBA,34.0,3.0,2.4,C,19.3,2008,0.7,SAS,2.3,11.3
32.0,3.5,1.7,8.0,0.504,0.505,7.4,14.7,0.0,0.0,0.0,0.504,7.4,14.8,0.692,4.5,6.4,75.0,75.0,NBA,33.7,2.7,2.3,C,19.3,2009,0.5,SAS,2.2,10.7
33.0,3.2,1.5,7.3,0.519,0.522,7.2,13.7,0.182,0.0,0.1,0.518,7.2,13.9,0.725,3.5,4.8,78.0,77.0,NBA,31.3,2.8,1.9,C,17.9,2010,0.6,SAS,1.8,10.1
34.0,2.7,1.9,6.7,0.5,0.502,5.5,11.0,0.0,0.0,0.1,0.5,5.5,11.0,0.716,2.4,3.4,76.0,76.0,NBA,28.4,2.2,1.6,C,13.4,2011,0.7,SAS,1.6,8.9
35.0,2.3,1.5,7.1,0.492,0.495,6.2,12.6,0.0,0.0,0.1,0.492,6.2,12.6,0.695,3.0,4.3,58.0,58.0,NBA,28.2,1.9,1.7,C,15.4,2012,0.7,SAS,1.7,9.0
36.0,2.7,2.7,8.1,0.503,0.504,7.1,14.0,0.286,0.0,0.1,0.502,7.1,14.1,0.817,3.6,4.3,69.0,69.0,NBA,30.1,1.8,1.7,C,17.8,2013,0.7,SAS,2.1,9.9
37.0,3.0,1.9,7.6,0.49,0.493,6.0,12.2,0.0,0.0,0.1,0.49,6.0,12.2,0.731,3.1,4.3,74.0,74.0,NBA,29.2,2.1,1.8,C,15.1,2014,0.6,SAS,2.1,9.7
38.0,3.0,2.0,6.9,0.513,0.514,5.4,10.5,0.286,0.0,0.1,0.512,5.4,10.6,0.74,3.0,4.0,77.0,77.0,NBA,28.9,2.2,2.1,C,13.9,2015,0.8,SAS,1.7,9.1
39.0,2.7,1.3,5.4,0.488,0.49,3.5,7.2,0.0,0.0,0.0,0.488,3.5,7.2,0.702,1.5,2.1,61.0,60.0,NBA,25.2,1.9,2.0,C,8.6,2016,0.8,SAS,1.5,7.3
