age,ast_per_mp,blk_per_mp,drb_per_mp,fg2_pct,fg2_per_mp,fg2a_per_mp,fg3_pct,fg3_per_mp,fg3a_per_mp,fg_pct,fg_per_mp,fga_per_mp,ft_pct,ft_per_mp,fta_per_mp,g,gs,lg_id,mp,orb_per_mp,pf_per_mp,pos,pts_per_mp,season,stl_per_mp,team_id,tov_per_mp,trb_per_mp
21.0,2.5,2.3,7.9,0.553,7.9,14.3,0.0,0.0,0.1,0.549,7.9,14.5,0.662,3.6,5.4,82.0,82.0,NBA,3204.0,3.1,2.9,PF,19.4,1998,0.6,SAS,3.1,11.0
22.0,2.2,2.3,7.6,0.498,7.6,15.4,0.143,0.0,0.1,0.495,7.7,15.5,0.69,4.5,6.6,50.0,50.0,NBA,1963.0,2.9,2.7,PF,19.9,1999,0.8,SAS,2.7,10.5
23.0,2.9,2.1,8.2,0.494,7.9,15.9,0.091,0.0,0.1,0.49,7.9,16.0,0.761,5.7,7.6,74.0,74.0,NBA,2875.0,3.3,2.6,PF,21.5,2000,0.8,SAS,3.0,11.5
24.0,2.8,2.2,8.4,0.504,7.9,15.6,0.259,0.1,0.3,0.499,8.0,15.9,0.618,4.6,7.5,82.0,82.0,NBA,3174.0,2.9,2.8,PF,20.6,2001,0.8,SAS,2.7,11.3
25.0,3.3,2.2,8.4,0.511,8.3,16.2,0.1,0.0,0.1,0.508,8.3,16.3,0.799,6.1,7.6,82.0,82.0,NBA,3329.0,2.9,2.3,PF,22.6,2002,0.7,SAS,2.8,11.3
26.0,3.6,2.7,8.9,0.517,8.0,15.5,0.273,0.1,0.2,0.513,8.1,15.8,0.71,5.1,7.2,81.0,81.0,NBA,3181.0,2.9,2.6,PF,21.3,2003,0.6,SAS,2.8,11.8
27.0,3.0,2.6,9.0,0.505,8.4,16.7,0.167,0.0,0.2,0.501,8.4,16.8,0.599,5.0,8.4,69.0,68.0,NBA,2527.0,3.2,2.3,PF,21.9,2004,0.9,SAS,2.6,12.2
28.0,2.9,2.8,8.7,0.498,8.4,16.9,0.333,0.0,0.1,0.496,8.4,17.0,0.67,5.0,7.4,66.0,66.0,NBA,2203.0,3.3,2.4,PF,21.9,2005,0.7,SAS,2.1,12.0
29.0,3.3,2.1,8.4,0.485,7.4,15.3,0.4,0.0,0.1,0.484,7.4,15.3,0.629,4.3,6.9,80.0,80.0,NBA,2784.0,3.0,2.8,PF,19.2,2006,0.9,SAS,2.6,11.4
30.0,3.6,2.5,8.4,0.55,8.1,14.8,0.111,0.0,0.1,0.546,8.2,14.9,0.637,4.8,7.5,80.0,80.0,NBA,2726.0,2.8,2.7,C,21.1,2007,0.9,SAS,3.0,11.2
31.0,3.0,2.1,8.7,0.498,7.9,15.9,0.0,0.0,0.1,0.497,7.9,16.0,0.73,4.6,6.3,78.0,78.0,NBA,2651.0,3.2,2.5,C,20.5,2008,0.8,SAS,2.4,12.0
32.0,3.8,1.8,8.5,0.505,8.0,15.8,0.0,0.0,0.0,0.504,8.0,15.8,0.692,4.8,6.9,75.0,75.0,NBA,2524.0,2.9,2.5,C,20.7,2009,0.5,SAS,2.4,11.4
33.0,3.6,1.7,8.4,0.522,8.3,15.8,0.182,0.0,0.2,0.518,8.3,16.0,0.725,4.0,5.5,78.0,77.0,NBA,2438.0,3.3,2.2,C,20.6,2010,0.7,SAS,2.1,11.6
34.0,3.4,2.4,8.5,0.502,7.0,13.9,0.0,0.0,0.1,0.5,7.0,14.0,0.716,3.1,4.3,76.0,76.0,NBA,2156.0,2.8,2.0,C,17.1,2011,0.8,SAS,2.0,11.3
35.0,2.9,1.9,9.0,0.495,8.0,16.1,0.0,0.0,0.1,0.492,8.0,16.1,0.695,3.8,5.5,58.0,58.0,NBA,1634.0,2.4,2.2,C,19.7,2012,0.8,SAS,2.1,11.5
36.0,3.2,3.2,9.7,0.504,8.5,16.8,0.286,0.0,0.1,0.502,8.5,16.9,0.817,4.2,5.2,69.0,69.0,NBA,2078.0,2.1,2.0,C,21.3,2013,0.9,SAS,2.5,11.9
37.0,3.7,2.3,9.4,0.493,7.4,15.0,0.0,0.0,0.1,0.49,7.4,15.1,0.731,3.9,5.3,74.0,74.0,NBA,2158.0,2.6,2.2,C,18.7,2014,0.7,SAS,2.7,12.0
38.0,3.7,2.4,8.6,0.514,6.7,13.1,0.286,0.0,0.1,0.512,6.8,13.2,0.74,3.7,5.0,77.0,77.0,NBA,2227.0,2.7,2.7,C,17.3,2015,1.0,SAS,2.1,11.4
39.0,3.8,1.8,7.8,0.49,5.0,10.3,0.0,0.0,0.0,0.488,5.0,10.3,0.702,2.2,3.1,61.0,60.0,NBA,1536.0,2.7,2.9,C,12.2,2016,1.1,SAS,2.1,10.5
