age,ast_pct,blk_pct,bpm,bpm-dum,dbpm,drb_pct,dws,fg3a_per_fga_pct,fta_per_fga_pct,g,lg_id,mp,obpm,orb_pct,ows,per,pos,season,stl_pct,team_id,tov_pct,trb_pct,ts_pct,usg_pct,vorp,ws,ws-dum,ws_per_48
21.0,7.1,0.9,-9.0,0.0,-1.6,11.7,0.3,0.0,0.225,34.0,NBA,368.0,-7.5,8.2,-0.8,3.8,PF,2015,0.7,MIL,15.9,10.0,0.379,19.2,-0.7,-0.5,0.0,-0.063
22.0,5.4,0.8,-6.0,0.0,-1.7,14.7,0.4,0.005,0.191,66.0,NBA,857.0,-4.3,8.7,-0.2,7.4,PF,2016,1.1,MIL,12.0,11.7,0.441,13.5,-0.9,0.3,0.0,0.014
23.0,12.7,1.0,-3.3,0.0,-3.1,13.7,0.0,0.2,0.2,11.0,NBA,80.0,-0.2,12.4,0.1,14.9,PF,2017,0.0,TOT,15.5,13.1,0.582,21.1,0.0,0.1,0.0,0.088
23.0,6.2,1.7,-4.0,0.0,-3.1,14.3,0.0,0.2,0.267,7.0,NBA,46.0,-0.8,12.1,0.1,14.4,PF,2017,0.0,DEN,15.2,13.2,0.597,18.3,0.0,0.1,0.0,0.096
23.0,21.6,0.0,-2.3,0.0,-3.1,13.0,0.0,0.2,0.133,4.0,NBA,34.0,0.7,12.9,0.0,15.5,PF,2017,0.0,CHO,15.9,12.9,0.567,25.0,0.0,0.1,0.0,0.078
24.0,5.9,1.3,-5.3,0.0,-2.0,18.6,0.4,0.251,0.146,36.0,NBA,379.0,-3.2,8.1,-0.1,11.9,PF,2018,1.2,CHO,7.6,13.3,0.47,22.5,-0.3,0.3,0.0,0.038
