age,ast_pct,blk_pct,bpm,bpm-dum,dbpm,drb_pct,dws,fg3a_per_fga_pct,fta_per_fga_pct,g,lg_id,mp,obpm,orb_pct,ows,per,pos,season,stl_pct,team_id,tov_pct,trb_pct,ts_pct,usg_pct,vorp,ws,ws-dum,ws_per_48
26.0,26.5,0.3,-4.4,0.0,-2.0,7.2,0.4,0.071,0.123,32.0,NBA,617.0,-2.3,1.8,-0.1,10.3,SG,1989,2.1,TOT,19.8,4.5,0.49,18.6,-0.4,0.3,0.0,0.021
26.0,22.0,0.0,-6.2,0.0,-2.1,7.3,0.1,0.079,0.095,9.0,NBA,144.0,-4.1,3.0,-0.2,8.5,SG,1989,2.4,MIA,16.5,5.1,0.434,22.2,-0.2,-0.1,0.0,-0.03
26.0,27.9,0.4,-3.8,0.0,-2.0,7.2,0.3,0.067,0.134,23.0,NBA,473.0,-1.8,1.5,0.1,10.9,SG,1989,2.0,BOS,21.0,4.4,0.513,17.6,-0.2,0.4,0.0,0.036
27.0,18.7,0.1,-3.4,0.0,-1.4,8.5,0.3,0.103,0.253,40.0,NBA,387.0,-2.1,2.6,0.0,11.9,SG,1990,3.2,TOT,14.3,5.7,0.493,19.9,-0.1,0.3,0.0,0.036
27.0,26.3,0.4,-8.4,0.0,-2.4,8.0,0.1,0.128,0.154,14.0,NBA,131.0,-6.0,2.7,-0.3,4.2,SG,1990,0.7,BOS,22.4,5.5,0.36,17.3,-0.2,-0.2,0.0,-0.063
27.0,0.0,0.0,-18.3,0.0,-10.0,0.0,0.0,0.333,0.0,3.0,NBA,4.0,-8.4,0.0,0.0,3.0,SG,1990,0.0,DAL,0.0,0.0,0.333,32.9,0.0,0.0,0.0,-0.193
27.0,15.1,0.0,-0.6,0.0,-0.7,8.9,0.2,0.087,0.298,23.0,NBA,252.0,0.1,2.7,0.2,16.1,SG,1990,4.5,GSW,11.3,5.9,0.544,21.0,0.1,0.5,0.0,0.091
28.0,27.1,0.6,-0.6,0.0,-1.7,7.8,0.4,0.126,0.277,48.0,NBA,514.0,1.1,4.4,0.6,17.2,SG,1991,2.8,DAL,13.1,6.1,0.521,25.7,0.2,1.0,0.0,0.094
