age,avg_dist,fg2_dunk,fg2_pct,fg2_pct_ast,fg2a_pct_fga,fg3_heave,fg3_pct,fg3_pct_ast,fg3_pct_corner,fg3a_heave,fg3a_pct_fga,fg_pct,fg_pct_00_03,fg_pct_03_10,fg_pct_10_16,fg_pct_16_xx,g,lg_id,mp,pct_fg2_dunk,pct_fg3a_corner,pct_fga_00_03,pct_fga_03_10,pct_fga_10_16,pct_fga_16_xx,pos,season,team_id
23.0,13.3,2.0,0.455,0.767,0.617,0.0,0.317,0.923,0.286,0.0,0.383,0.402,0.558,0.125,0.0,0.417,36.0,NBA,321.0,0.028,0.171,0.402,0.075,0.028,0.112,SF,2015,CHI
24.0,14.5,12.0,0.47,0.757,0.598,0.0,0.425,0.982,0.411,0.0,0.402,0.452,0.577,0.37,0.467,0.375,81.0,NBA,1861.0,0.019,0.282,0.242,0.126,0.093,0.137,SF,2016,CHI
25.0,15.9,8.0,0.5,0.766,0.584,0.0,0.372,0.987,0.391,0.0,0.416,0.447,0.62,0.433,0.439,0.459,66.0,NBA,1508.0,0.022,0.333,0.185,0.135,0.115,0.149,SF,2017,TOT
25.0,15.7,7.0,0.491,0.8,0.601,0.0,0.376,1.0,0.404,0.0,0.399,0.445,0.587,0.457,0.415,0.452,44.0,NBA,1078.0,0.024,0.349,0.201,0.123,0.11,0.166,SF,2017,CHI
25.0,16.4,1.0,0.53,0.657,0.532,0.0,0.362,0.952,0.353,0.0,0.468,0.452,0.765,0.381,0.5,0.5,22.0,NBA,430.0,0.016,0.293,0.137,0.169,0.129,0.097,SF,2017,OKC
26.0,14.1,17.0,0.497,0.841,0.575,0.0,0.426,1.0,0.508,0.0,0.425,0.467,0.652,0.372,0.303,0.276,81.0,NBA,1768.0,0.037,0.301,0.311,0.085,0.065,0.114,SF,2018,TOT
26.0,13.7,11.0,0.513,0.806,0.582,0.0,0.387,1.0,0.429,0.0,0.418,0.46,0.658,0.261,0.389,0.278,55.0,NBA,1172.0,0.04,0.307,0.348,0.07,0.055,0.11,SF,2018,NYK
26.0,14.8,6.0,0.465,0.915,0.561,0.0,0.494,1.0,0.652,0.0,0.439,0.478,0.636,0.5,0.2,0.273,26.0,NBA,596.0,0.033,0.291,0.244,0.111,0.083,0.122,SF,2018,DAL
27.0,16.1,16.0,0.569,0.919,0.512,0.0,0.408,1.0,0.456,1.0,0.488,0.491,0.681,0.588,0.5,0.333,77.0,NBA,1340.0,0.043,0.383,0.268,0.081,0.043,0.121,SF,2019,IND
28.0,16.7,0.0,0.452,0.895,0.488,0.0,0.409,1.0,0.385,0.0,0.512,0.43,0.545,0.429,0.2,0.375,11.0,NBA,227.0,0.012,0.295,0.256,0.081,0.058,0.093,PF,2020,IND
