age,ast_per_g,blk_per_g,drb_per_g,efg_pct,fg2_pct,fg2_per_g,fg2a_per_g,fg3_pct,fg3_per_g,fg3a_per_g,fg_pct,fg_per_g,fga_per_g,ft_pct,ft_per_g,fta_per_g,g,gs,lg_id,mp_per_g,orb_per_g,pf_per_g,pos,pts_per_g,season,stl_per_g,team_id,tov_per_g,trb_per_g
26.0,0.7,0.0,0.6,0.344,0.4,0.6,1.4,0.167,0.1,0.9,0.313,0.7,2.3,0.867,1.9,2.1,7.0,0.0,NBA,6.4,0.0,0.0,PG,3.4,2005,0.1,IND,0.4,0.6
27.0,0.0,0.0,0.0,0.0,0.0,0.0,0.0,0.0,0.0,0.0,0.0,0.0,0.0,0.0,0.0,0.0,2.0,0.0,NBA,0.5,0.0,0.0,PG,0.0,2006,0.0,IND,0.5,0.0
