age,ast_per_mp,blk_per_mp,drb_per_mp,fg2_pct,fg2_per_mp,fg2a_per_mp,fg3_pct,fg3_per_mp,fg3a_per_mp,fg_pct,fg_per_mp,fga_per_mp,ft_pct,ft_per_mp,fta_per_mp,g,gs,lg_id,mp,orb_per_mp,pf_per_mp,pos,pts_per_mp,season,stl_per_mp,team_id,tov_per_mp,trb_per_mp
24.0,2.1,0.5,7.4,0.5,1.1,2.1,0.2,0.5,2.6,0.333,1.6,4.8,0.25,0.5,2.1,8.0,0.0,NBA,68.0,0.0,5.3,SG,4.2,2013,0.5,OKC,1.1,7.4
29.0,0.0,0.0,2.6,0.0,0.0,2.6,0.0,0.0,0.0,0.0,0.0,2.6,0.5,2.6,5.1,3.0,0.0,NBA,14.0,0.0,0.0,SG,2.6,2018,0.0,NOP,5.1,2.6
