age,ast_per_g,blk_per_g,drb_per_g,efg_pct,fg2_pct,fg2_per_g,fg2a_per_g,fg3_pct,fg3_per_g,fg3a_per_g,fg_pct,fg_per_g,fga_per_g,ft_pct,ft_per_g,fta_per_g,g,gs,lg_id,mp_per_g,orb_per_g,pf_per_g,pos,pts_per_g,season,stl_per_g,team_id,tov_per_g,trb_per_g
26.0,2.4,0.4,3.4,0.545,0.473,2.4,5.0,0.422,1.7,4.1,0.45,4.1,9.1,0.722,1.2,1.6,11.0,3.0,NBA,30.0,2.4,4.0,PF,11.1,2007,1.5,GSW,1.8,5.7
29.0,1.4,0.2,3.6,0.48,0.419,1.3,3.1,0.375,0.9,2.3,0.4,2.1,5.4,0.85,1.2,1.4,14.0,14.0,NBA,23.3,1.1,2.0,SF,6.4,2010,0.7,ORL,0.7,4.7
30.0,0.5,0.2,1.7,0.421,0.5,1.3,2.6,0.167,0.2,1.2,0.395,1.5,3.8,0.571,0.4,0.7,10.0,0.0,NBA,13.1,1.1,2.3,SF,3.6,2011,0.7,LAL,0.6,2.8
31.0,1.5,0.5,2.5,0.314,0.393,1.0,2.5,0.161,0.5,2.8,0.271,1.5,5.4,0.5,0.2,0.4,11.0,0.0,NBA,16.8,0.8,2.6,SF,3.5,2012,0.9,LAL,1.4,3.3
32.0,0.5,0.3,3.8,0.625,0.63,2.8,4.5,0.412,1.2,2.8,0.545,4.0,7.3,0.842,2.7,3.2,6.0,0.0,NBA,27.0,1.2,3.8,SF,11.8,2013,0.7,LAC,0.8,5.0
33.0,1.8,0.2,2.8,0.509,0.553,2.0,3.6,0.317,1.5,4.6,0.421,3.5,8.2,0.684,1.0,1.5,13.0,13.0,NBA,31.1,1.7,3.2,SF,9.4,2014,0.9,LAC,1.3,4.5
34.0,1.6,0.7,3.9,0.46,0.55,1.6,2.9,0.267,1.1,4.3,0.38,2.7,7.1,0.75,1.1,1.4,14.0,14.0,NBA,29.2,1.1,3.9,SF,7.6,2015,1.4,LAC,1.1,5.1
35.0,2.8,0.3,6.0,0.38,0.464,3.3,7.0,0.167,0.8,4.5,0.348,4.0,11.5,0.8,2.0,2.5,4.0,4.0,NBA,34.8,1.3,3.3,SF,10.8,2016,1.0,MEM,3.3,7.3
36.0,0.6,0.0,0.8,0.3,0.429,0.3,0.6,0.125,0.1,0.7,0.267,0.3,1.3,0.0,0.0,0.0,12.0,0.0,NBA,5.1,0.0,0.8,SF,0.8,2017,0.2,GSW,0.3,0.8
