age,ast_per_g,blk_per_g,drb_per_g,efg_pct,fg2_pct,fg2_per_g,fg2a_per_g,fg3_pct,fg3_per_g,fg3a_per_g,fg_pct,fg_per_g,fga_per_g,ft_pct,ft_per_g,fta_per_g,g,gs,lg_id,mp_per_g,orb_per_g,pf_per_g,pos,pts_per_g,season,stl_per_g,team_id,tov_per_g,trb_per_g
23.0,1.3,0.1,2.6,0.464,0.488,1.6,3.3,0.154,0.1,0.3,0.457,1.7,3.6,0.705,1.1,1.6,38.0,9.0,NBA,19.1,1.4,2.0,SF,4.5,2004,0.7,LAC,1.2,4.0
24.0,1.3,0.2,2.0,0.427,0.442,1.3,3.0,0.227,0.1,0.5,0.411,1.4,3.5,0.603,0.8,1.3,43.0,9.0,NBA,16.6,1.1,1.9,SF,3.8,2005,0.7,SAC,1.0,3.1
25.0,0.5,0.1,1.3,0.511,0.536,1.2,2.2,0.2,0.1,0.3,0.5,1.3,2.5,0.681,0.6,0.8,56.0,5.0,NBA,11.3,0.9,1.8,PF-SF,3.1,2006,0.4,TOT,0.5,2.2
25.0,1.0,0.0,2.8,0.383,0.385,1.7,4.3,0.25,0.2,0.7,0.367,1.8,5.0,0.75,0.5,0.7,6.0,5.0,NBA,15.5,1.2,1.3,SF,4.3,2006,0.7,NYK,1.0,4.0
25.0,0.4,0.1,1.1,0.545,0.576,1.1,2.0,0.182,0.0,0.2,0.536,1.2,2.2,0.674,0.6,0.9,50.0,0.0,NBA,10.8,0.8,1.8,PF,3.0,2006,0.3,PHI,0.5,1.9
26.0,2.1,0.5,3.4,0.522,0.5,2.2,4.4,0.366,1.4,3.8,0.438,3.6,8.3,0.732,1.2,1.6,76.0,23.0,NBA,23.9,1.2,2.5,PF,9.8,2007,1.0,GSW,1.4,4.6
27.0,1.9,0.5,3.2,0.483,0.513,1.8,3.6,0.293,0.7,2.5,0.423,2.6,6.1,0.747,0.8,1.1,73.0,18.0,NBA,19.4,1.3,2.2,PF,6.7,2008,0.7,GSW,1.2,4.4
28.0,2.8,0.3,4.4,0.51,0.505,2.2,4.3,0.343,1.5,4.4,0.423,3.7,8.8,0.743,1.3,1.8,77.0,40.0,NBA,27.0,1.0,2.7,PF,10.2,2009,0.7,PHO,1.7,5.5
29.0,1.7,0.4,4.2,0.546,0.586,2.5,4.3,0.319,0.8,2.6,0.487,3.3,6.9,0.74,1.3,1.8,81.0,58.0,NBA,25.9,1.3,2.3,SF,8.8,2010,0.7,ORL,1.4,5.5
30.0,1.3,0.4,2.9,0.53,0.564,1.8,3.2,0.318,0.6,2.0,0.47,2.5,5.3,0.779,1.1,1.5,53.0,0.0,NBA,19.2,1.4,2.4,SF,6.7,2011,0.7,LAL,1.1,4.3
31.0,2.0,0.8,3.9,0.512,0.518,2.0,4.0,0.333,0.7,2.2,0.452,2.8,6.1,0.742,1.5,2.0,63.0,16.0,NBA,22.9,1.5,2.4,SF,7.8,2012,0.6,LAL,1.2,5.5
32.0,1.5,0.8,3.2,0.544,0.574,2.5,4.4,0.342,1.4,4.1,0.462,3.9,8.4,0.744,1.1,1.5,80.0,4.0,NBA,25.7,1.4,2.9,SF,10.3,2013,1.0,LAC,1.1,4.6
33.0,2.0,0.4,3.7,0.53,0.549,2.1,3.9,0.343,1.5,4.5,0.438,3.7,8.4,0.733,1.0,1.4,63.0,40.0,NBA,27.5,1.0,2.9,SF,9.9,2014,0.9,LAC,1.3,4.6
34.0,1.5,0.7,3.3,0.553,0.569,1.9,3.3,0.362,1.8,4.9,0.444,3.6,8.2,0.779,1.0,1.3,76.0,74.0,NBA,29.9,0.7,3.2,SF,10.1,2015,0.9,LAC,1.1,4.0
35.0,2.1,0.8,4.4,0.467,0.449,1.9,4.3,0.322,1.6,4.9,0.381,3.5,9.1,0.804,1.5,1.8,76.0,45.0,NBA,28.8,1.1,3.1,SF,10.0,2016,1.0,MEM,1.6,5.5
36.0,2.6,0.4,4.2,0.483,0.467,1.3,2.8,0.331,1.2,3.6,0.391,2.5,6.4,0.787,0.9,1.2,74.0,18.0,NBA,24.0,0.9,2.5,SF,7.1,2017,0.6,TOT,1.4,5.2
36.0,2.8,0.3,4.4,0.474,0.453,1.4,3.2,0.327,1.3,3.9,0.384,2.7,7.1,0.758,0.9,1.2,54.0,13.0,NBA,25.3,1.0,2.6,SF,7.6,2017,0.7,SAC,1.5,5.4
36.0,2.3,0.5,3.8,0.522,0.526,1.0,1.9,0.346,0.9,2.6,0.422,1.9,4.5,0.87,1.0,1.2,20.0,5.0,NBA,20.5,0.8,2.4,SF,5.7,2017,0.6,GSW,1.2,4.6
