age,ast,blk,drb,efg_pct,fg,fg2,fg2_pct,fg2a,fg3,fg3_pct,fg3a,fg_pct,fga,ft,ft_pct,fta,g,gs,lg_id,mp,orb,pf,pos,pts,season,stl,team_id,tov,trb
23.0,48.0,3.0,98.0,0.464,63.0,61.0,0.488,125.0,2.0,0.154,13.0,0.457,138.0,43.0,0.705,61.0,38.0,9.0,NBA,724.0,53.0,76.0,SF,171.0,2004,27.0,LAC,44.0,151.0
24.0,57.0,7.0,84.0,0.427,62.0,57.0,0.442,129.0,5.0,0.227,22.0,0.411,151.0,35.0,0.603,58.0,43.0,9.0,NBA,715.0,49.0,80.0,SF,164.0,2005,30.0,SAC,45.0,133.0
25.0,28.0,7.0,73.0,0.511,70.0,67.0,0.536,125.0,3.0,0.2,15.0,0.5,140.0,32.0,0.681,47.0,56.0,5.0,NBA,631.0,48.0,100.0,PF-SF,175.0,2006,20.0,TOT,30.0,121.0
25.0,6.0,0.0,17.0,0.383,11.0,10.0,0.385,26.0,1.0,0.25,4.0,0.367,30.0,3.0,0.75,4.0,6.0,5.0,NBA,93.0,7.0,8.0,SF,26.0,2006,4.0,NYK,6.0,24.0
25.0,22.0,7.0,56.0,0.545,59.0,57.0,0.576,99.0,2.0,0.182,11.0,0.536,110.0,29.0,0.674,43.0,50.0,0.0,NBA,538.0,41.0,92.0,PF,149.0,2006,16.0,PHI,24.0,97.0
26.0,156.0,41.0,259.0,0.522,275.0,169.0,0.5,338.0,106.0,0.366,290.0,0.438,628.0,90.0,0.732,123.0,76.0,23.0,NBA,1813.0,91.0,188.0,PF,746.0,2007,73.0,GSW,105.0,350.0
27.0,139.0,36.0,230.0,0.483,187.0,134.0,0.513,261.0,53.0,0.293,181.0,0.423,442.0,59.0,0.747,79.0,73.0,18.0,NBA,1414.0,94.0,159.0,PF,486.0,2008,48.0,GSW,85.0,324.0
28.0,212.0,26.0,342.0,0.51,285.0,168.0,0.505,333.0,117.0,0.343,341.0,0.423,674.0,101.0,0.743,136.0,77.0,40.0,NBA,2082.0,79.0,209.0,PF,788.0,2009,52.0,PHO,130.0,421.0
29.0,134.0,30.0,339.0,0.546,271.0,205.0,0.586,350.0,66.0,0.319,207.0,0.487,557.0,108.0,0.74,146.0,81.0,58.0,NBA,2097.0,106.0,185.0,SF,716.0,2010,59.0,ORL,112.0,445.0
30.0,71.0,22.0,155.0,0.53,131.0,97.0,0.564,172.0,34.0,0.318,107.0,0.47,279.0,60.0,0.779,77.0,53.0,0.0,NBA,1020.0,73.0,127.0,SF,356.0,2011,39.0,LAL,58.0,228.0
31.0,126.0,48.0,247.0,0.512,175.0,129.0,0.518,249.0,46.0,0.333,138.0,0.452,387.0,95.0,0.742,128.0,63.0,16.0,NBA,1440.0,97.0,152.0,SF,491.0,2012,35.0,LAL,73.0,344.0
32.0,123.0,63.0,255.0,0.544,312.0,201.0,0.574,350.0,111.0,0.342,325.0,0.462,675.0,87.0,0.744,117.0,80.0,4.0,NBA,2058.0,111.0,233.0,SF,822.0,2013,82.0,LAC,90.0,366.0
33.0,125.0,28.0,232.0,0.53,231.0,134.0,0.549,244.0,97.0,0.343,283.0,0.438,527.0,66.0,0.733,90.0,63.0,40.0,NBA,1735.0,60.0,185.0,SF,625.0,2014,56.0,LAC,85.0,292.0
34.0,114.0,50.0,251.0,0.553,277.0,141.0,0.569,248.0,136.0,0.362,376.0,0.444,624.0,74.0,0.779,95.0,76.0,74.0,NBA,2271.0,51.0,240.0,SF,764.0,2015,67.0,LAC,87.0,302.0
35.0,163.0,57.0,336.0,0.467,264.0,145.0,0.449,323.0,119.0,0.322,370.0,0.381,693.0,111.0,0.804,138.0,76.0,45.0,NBA,2190.0,84.0,234.0,SF,758.0,2016,78.0,MEM,121.0,420.0
36.0,195.0,26.0,314.0,0.483,185.0,98.0,0.467,210.0,87.0,0.331,263.0,0.391,473.0,70.0,0.787,89.0,74.0,18.0,NBA,1777.0,70.0,185.0,SF,527.0,2017,48.0,TOT,107.0,384.0
36.0,150.0,17.0,238.0,0.474,147.0,78.0,0.453,172.0,69.0,0.327,211.0,0.384,383.0,50.0,0.758,66.0,54.0,13.0,NBA,1367.0,55.0,138.0,SF,413.0,2017,36.0,SAC,83.0,293.0
36.0,45.0,9.0,76.0,0.522,38.0,20.0,0.526,38.0,18.0,0.346,52.0,0.422,90.0,20.0,0.87,23.0,20.0,5.0,NBA,410.0,15.0,47.0,SF,114.0,2017,12.0,GSW,24.0,91.0
