age,ast,blk,drb,fg,fg2,fg2a,fg3,fg3a,fga,ft,fta,game_score,lg_id,mp,orb,pf,pts,season,stl,team_id,tov,trb
26.0,7.0,1.0,8.0,8.0,5.0,10.0,3.0,6.0,15.0,5.0,6.0,19.3,NBA,44,4.0,6.0,20.0,2007,4.0,GSW,4.0,11.0
29.0,4.0,2.0,7.0,5.0,4.0,6.0,3.0,7.0,10.0,5.0,6.0,14.3,NBA,32,3.0,4.0,14.0,2010,3.0,ORL,3.0,8.0
30.0,1.0,1.0,4.0,4.0,4.0,5.0,2.0,2.0,7.0,3.0,4.0,9.2,NBA,19,4.0,3.0,9.0,2011,2.0,LAL,2.0,5.0
31.0,4.0,2.0,5.0,5.0,4.0,8.0,2.0,6.0,14.0,1.0,2.0,7.4,NBA,30,2.0,5.0,11.0,2012,4.0,LAL,3.0,6.0
32.0,1.0,1.0,9.0,11.0,5.0,7.0,6.0,7.0,14.0,7.0,8.0,26.0,NBA,37,3.0,5.0,30.0,2013,1.0,LAC,2.0,10.0
33.0,3.0,2.0,8.0,7.0,5.0,8.0,4.0,7.0,14.0,4.0,5.0,19.1,NBA,43,7.0,4.0,18.0,2014,4.0,LAC,4.0,11.0
34.0,5.0,2.0,10.0,8.0,5.0,5.0,3.0,8.0,13.0,4.0,4.0,20.9,NBA,43,5.0,6.0,20.0,2015,4.0,LAC,2.0,10.0
35.0,4.0,1.0,9.0,6.0,5.0,9.0,1.0,6.0,15.0,4.0,5.0,13.4,NBA,45,2.0,5.0,17.0,2016,2.0,MEM,6.0,11.0
36.0,1.0,0.0,3.0,1.0,1.0,3.0,1.0,3.0,6.0,0.0,0.0,2.7,NBA,15,0.0,2.0,3.0,2017,1.0,TOT,1.0,3.0
36.0,1.0,0.0,3.0,1.0,1.0,3.0,1.0,3.0,6.0,0.0,0.0,2.7,NBA,15,0.0,2.0,3.0,2017,1.0,GSW,1.0,3.0
