age,ast_per_g,blk_per_g,drb_per_g,efg_pct,fg2_pct,fg2_per_g,fg2a_per_g,fg3_pct,fg3_per_g,fg3a_per_g,fg_pct,fg_per_g,fga_per_g,ft_pct,ft_per_g,fta_per_g,g,gs,lg_id,mp_per_g,orb_per_g,pf_per_g,pos,pts_per_g,season,stl_per_g,team_id,tov_per_g,trb_per_g
22.0,5.0,0.9,4.6,0.479,0.486,7.2,14.8,0.148,0.1,0.4,0.477,7.3,15.2,0.732,5.3,7.3,70.0,69.0,NBA,38.3,1.8,2.9,SF,19.9,1995,1.8,DET,2.9,6.4
23.0,6.9,0.6,8.2,0.464,0.468,7.0,14.9,0.192,0.1,0.3,0.462,7.1,15.3,0.751,6.1,8.1,80.0,80.0,NBA,40.8,1.6,3.0,SF,20.2,1996,1.3,DET,3.3,9.8
24.0,7.3,0.6,7.5,0.5,0.502,7.7,15.3,0.303,0.1,0.4,0.496,7.8,15.7,0.711,5.6,7.9,80.0,80.0,NBA,39.3,1.5,2.3,SF,21.4,1997,1.8,DET,3.2,9.0
25.0,6.8,0.7,6.5,0.453,0.457,7.6,16.5,0.143,0.0,0.3,0.452,7.6,16.8,0.74,5.9,8.0,81.0,81.0,NBA,40.7,1.1,2.4,SF,21.1,1998,1.8,DET,3.5,7.7
26.0,6.0,0.5,5.8,0.479,0.487,7.7,15.8,0.0,0.0,0.3,0.479,7.7,16.0,0.752,5.7,7.6,50.0,50.0,NBA,37.0,1.3,2.3,SF,21.1,1999,1.6,DET,3.7,7.1
27.0,5.2,0.6,5.3,0.501,0.5,8.9,17.9,0.347,0.5,1.3,0.489,9.4,19.2,0.795,6.5,8.2,74.0,74.0,NBA,37.5,1.3,2.6,SF,25.8,2000,1.4,DET,3.2,6.6
28.0,6.3,0.5,4.3,0.453,0.429,4.5,10.5,1.0,0.3,0.3,0.442,4.8,10.8,0.615,4.0,6.5,4.0,4.0,NBA,33.3,2.0,2.3,SF,13.8,2001,1.3,ORL,2.8,6.3
29.0,4.6,0.3,6.9,0.426,0.43,5.9,13.8,0.0,0.0,0.1,0.426,5.9,13.9,0.863,4.9,5.7,14.0,14.0,NBA,36.6,2.1,2.9,SF,16.8,2002,0.6,ORL,2.6,8.9
30.0,4.2,0.4,5.7,0.493,0.495,5.2,10.4,0.25,0.0,0.1,0.492,5.2,10.6,0.819,4.1,5.0,29.0,29.0,NBA,29.1,1.4,1.6,SF,14.5,2003,1.0,ORL,2.9,7.1
32.0,3.3,0.4,3.6,0.511,0.513,7.7,15.0,0.231,0.0,0.2,0.509,7.7,15.1,0.821,4.2,5.1,67.0,67.0,NBA,34.9,1.1,2.1,SF,19.7,2005,1.4,ORL,2.4,4.7
33.0,2.3,0.3,3.1,0.494,0.498,5.6,11.2,0.25,0.1,0.4,0.49,5.7,11.6,0.765,3.7,4.9,21.0,17.0,NBA,29.2,0.7,2.4,SF,15.1,2006,1.1,ORL,1.7,3.8
34.0,2.1,0.4,2.8,0.52,0.525,5.2,10.0,0.167,0.0,0.2,0.518,5.3,10.2,0.765,3.8,5.0,65.0,64.0,NBA,30.9,0.8,2.2,SG,14.4,2007,0.9,ORL,2.2,3.6
35.0,2.9,0.8,4.0,0.526,0.535,4.6,8.7,0.317,0.5,1.5,0.503,5.1,10.2,0.867,2.4,2.8,70.0,68.0,NBA,31.7,1.1,2.2,SF,13.1,2008,0.9,PHO,1.4,5.0
36.0,2.3,0.7,4.2,0.54,0.547,4.5,8.2,0.316,0.3,0.9,0.523,4.8,9.1,0.808,2.2,2.7,82.0,68.0,NBA,29.8,0.8,2.2,SF,12.0,2009,1.1,PHO,1.5,4.9
37.0,2.4,0.4,4.6,0.503,0.483,3.7,7.7,0.438,0.4,1.0,0.478,4.1,8.7,0.817,2.5,3.1,81.0,81.0,NBA,30.0,0.9,2.0,SF,11.3,2010,0.7,PHO,1.3,5.5
38.0,2.5,0.4,3.3,0.511,0.498,4.4,8.9,0.395,0.6,1.4,0.484,5.0,10.3,0.829,2.7,3.2,80.0,80.0,NBA,30.1,1.0,2.3,SF,13.2,2011,0.8,PHO,1.7,4.2
39.0,2.2,0.6,2.9,0.461,0.47,3.8,8.1,0.264,0.3,1.1,0.446,4.1,9.2,0.761,1.7,2.2,49.0,46.0,NBA,28.1,0.6,1.8,SF,10.2,2012,0.8,PHO,1.3,3.5
40.0,0.9,0.2,1.5,0.403,0.402,1.2,3.0,0.273,0.1,0.4,0.388,1.3,3.4,0.583,0.5,0.8,29.0,0.0,NBA,15.1,0.2,1.3,SF,3.2,2013,0.4,LAC,0.9,1.7
