age,ast,blk,drb,fg,fg2,fg2a,fg3,fg3a,fga,ft,fta,game_score,lg_id,mp,orb,pf,pts,season,stl,team_id,tov,trb
22.0,11.0,3.0,11.0,13.0,13.0,27.0,2.0,2.0,27.0,16.0,18.0,32.0,NBA,0.0,8.0,6.0,33.0,1995,6.0,DET,8.0,16.0
23.0,13.0,3.0,17.0,13.0,13.0,24.0,2.0,3.0,24.0,15.0,19.0,34.1,NBA,0.0,6.0,6.0,35.0,1996,4.0,DET,8.0,17.0
24.0,14.0,3.0,15.0,13.0,13.0,27.0,1.0,3.0,27.0,14.0,21.0,35.4,NBA,0.0,7.0,5.0,38.0,1997,5.0,DET,8.0,18.0
25.0,14.0,4.0,15.0,15.0,15.0,29.0,1.0,2.0,29.0,15.0,18.0,32.0,NBA,0.0,5.0,6.0,37.0,1998,6.0,DET,10.0,16.0
26.0,11.0,3.0,10.0,14.0,14.0,27.0,0.0,2.0,29.0,18.0,22.0,40.9,NBA,0.0,5.0,5.0,46.0,1999,5.0,DET,8.0,14.0
27.0,12.0,4.0,12.0,17.0,16.0,32.0,3.0,5.0,35.0,17.0,18.0,37.5,NBA,0.0,6.0,5.0,42.0,2000,4.0,DET,8.0,13.0
28.0,10.0,1.0,8.0,7.0,7.0,14.0,1.0,1.0,15.0,5.0,8.0,17.6,NBA,0.0,5.0,4.0,19.0,2001,2.0,ORL,5.0,9.0
29.0,9.0,2.0,13.0,10.0,10.0,19.0,0.0,1.0,19.0,9.0,10.0,24.9,NBA,0.0,8.0,6.0,28.0,2002,2.0,ORL,6.0,16.0
30.0,9.0,3.0,13.0,11.0,11.0,18.0,1.0,2.0,18.0,17.0,17.0,27.8,NBA,0.0,5.0,5.0,29.0,2003,3.0,ORL,7.0,15.0
32.0,9.0,3.0,8.0,13.0,13.0,27.0,2.0,2.0,27.0,15.0,16.0,35.2,NBA,0.0,5.0,6.0,39.0,2005,5.0,ORL,7.0,12.0
33.0,5.0,2.0,6.0,10.0,10.0,18.0,1.0,2.0,19.0,11.0,13.0,27.0,NBA,39.0,3.0,5.0,28.0,2006,5.0,ORL,5.0,8.0
34.0,7.0,2.0,6.0,10.0,10.0,18.0,1.0,2.0,18.0,14.0,16.0,22.5,NBA,49.0,4.0,6.0,25.0,2007,4.0,ORL,7.0,8.0
35.0,10.0,3.0,9.0,13.0,12.0,18.0,3.0,8.0,18.0,10.0,11.0,27.6,NBA,44.0,6.0,5.0,28.0,2008,6.0,PHO,5.0,15.0
36.0,12.0,4.0,11.0,12.0,12.0,24.0,2.0,3.0,25.0,13.0,16.0,24.1,NBA,46.0,8.0,5.0,27.0,2009,6.0,PHO,7.0,11.0
37.0,8.0,3.0,10.0,9.0,9.0,16.0,3.0,5.0,17.0,10.0,10.0,21.8,NBA,43.0,4.0,6.0,23.0,2010,4.0,PHO,5.0,13.0
38.0,8.0,2.0,9.0,14.0,12.0,20.0,4.0,7.0,26.0,12.0,14.0,26.6,NBA,47.0,6.0,6.0,34.0,2011,3.0,PHO,5.0,12.0
39.0,7.0,3.0,7.0,9.0,8.0,15.0,2.0,4.0,16.0,6.0,7.0,17.4,NBA,39.0,3.0,5.0,22.0,2012,4.0,PHO,8.0,8.0
40.0,4.0,2.0,5.0,3.0,3.0,8.0,1.0,2.0,8.0,2.0,4.0,9.0,NBA,26.0,1.0,5.0,8.0,2013,2.0,LAC,3.0,5.0
