age,ast,ast_per_g,blk,college_id,fg,fg3,fg3_pct,fg3a,fg_pct,fga,ft,ft_pct,fta,g,mp,mp_per_g,orb,pf,pts,pts_per_g,season,stl,tov,trb,trb_per_g
18.0,43.0,1.4,14.0,MISSST,49.0,9.0,0.281,32.0,0.395,124.0,23.0,0.605,38.0,30.0,495.0,16.5,0.0,0.0,130.0,4.3,2000,36.0,0.0,62.0,2.1
19.0,89.0,2.9,20.0,MISSST,53.0,4.0,0.167,24.0,0.461,115.0,32.0,0.571,56.0,31.0,640.0,20.6,0.0,0.0,142.0,4.6,2001,36.0,0.0,85.0,2.7
20.0,210.0,6.0,29.0,MISSST,116.0,10.0,0.294,34.0,0.532,218.0,80.0,0.576,139.0,35.0,1143.0,32.7,0.0,0.0,322.0,9.2,2002,75.0,0.0,141.0,4.0
21.0,171.0,5.5,26.0,MISSST,99.0,15.0,0.288,52.0,0.476,208.0,63.0,0.649,97.0,31.0,1024.0,33.0,0.0,0.0,276.0,8.9,2003,58.0,0.0,130.0,4.2
