age,ast_per_poss,blk_per_poss,def_rtg,drb_per_poss,fg2_pct,fg2_per_poss,fg2a_per_poss,fg3_pct,fg3_per_poss,fg3a_per_poss,fg_pct,fg_per_poss,fga_per_poss,ft_pct,ft_per_poss,fta_per_poss,g,gs,lg_id,mp,off_rtg,orb_per_poss,pf_per_poss,pos,pts_per_poss,season,stl_per_poss,team_id,tov_per_poss,trb_per_poss
23.0,2.1,1.1,109.0,5.3,0.438,2.5,5.6,0.421,2.8,6.7,0.429,5.3,12.4,1.0,2.5,2.5,6.0,1.0,NBA,162.0,102.0,0.7,4.2,SG,15.9,2009,2.8,POR,3.2,6.0
24.0,3.7,0.0,123.0,3.7,0.25,0.5,1.8,0.478,5.1,10.6,0.444,5.5,12.5,0.75,2.8,3.7,6.0,3.0,NBA,119.0,122.0,0.9,3.2,SG,18.9,2010,0.5,POR,2.3,4.6
25.0,3.6,0.7,113.0,7.1,0.125,0.7,5.7,0.3,2.1,7.1,0.222,2.9,12.9,0.667,4.3,6.4,6.0,0.0,NBA,81.0,90.0,1.4,5.0,SG,12.1,2011,1.4,POR,1.4,8.6
