age,ast,blk,drb,efg_pct,fg,fg2,fg2_pct,fg2a,fg3,fg3_pct,fg3a,fg_pct,fga,ft,ft_pct,fta,g,gs,lg_id,mp,orb,pf,pos,pts,season,stl,team_id,tov,trb
23.0,159.0,12.0,160.0,0.552,268.0,109.0,0.47,232.0,159.0,0.399,398.0,0.425,630.0,120.0,0.839,143.0,78.0,4.0,NBA,1993.0,47.0,111.0,SG,815.0,2009,69.0,POR,86.0,207.0
24.0,127.0,11.0,129.0,0.494,160.0,62.0,0.395,157.0,98.0,0.368,266.0,0.378,423.0,85.0,0.867,98.0,62.0,2.0,NBA,1441.0,35.0,87.0,SG,503.0,2010,62.0,POR,72.0,164.0
25.0,193.0,14.0,135.0,0.471,213.0,97.0,0.453,214.0,116.0,0.321,361.0,0.37,575.0,126.0,0.863,146.0,78.0,3.0,NBA,1821.0,37.0,134.0,SG,668.0,2011,87.0,POR,88.0,172.0
26.0,75.0,3.0,56.0,0.529,99.0,59.0,0.573,103.0,40.0,0.328,122.0,0.44,225.0,30.0,0.698,43.0,31.0,1.0,NBA,710.0,9.0,37.0,SG,268.0,2012,31.0,DEN,40.0,65.0
