age,and1s,astd_pts,drawn_offensive,drawn_shooting,fouls_offensive,fouls_shooting,g,lg_id,mp,own_shots_blk,pct_1,pct_2,pct_3,pct_4,pct_5,plus_minus_net,plus_minus_on,pos,season,team_id,tov_bad_pass,tov_lost_ball
21.0,0.0,5.0,0.0,2.0,0.0,1.0,11.0,NBA,33.0,0.0,0.0,28.0,67.0,5.0,0.0,10.1,12.5,SG,2014,DAL,1.0,0.0
22.0,2.0,45.0,1.0,12.0,3.0,9.0,17.0,NBA,244.0,11.0,0.0,67.0,33.0,0.0,0.0,-10.1,-13.3,SG,2015,TOT,12.0,8.0
22.0,0.0,3.0,0.0,1.0,0.0,0.0,5.0,NBA,11.0,1.0,0.0,80.0,20.0,0.0,0.0,-38.6,-35.5,SG,2015,DAL,1.0,1.0
22.0,2.0,42.0,1.0,11.0,3.0,9.0,12.0,NBA,233.0,10.0,0.0,66.0,34.0,0.0,0.0,-2.0,-12.1,SG,2015,NYK,11.0,7.0
