age,ast_per_poss,blk_per_poss,def_rtg,drb_per_poss,fg2_pct,fg2_per_poss,fg2a_per_poss,fg3_pct,fg3_per_poss,fg3a_per_poss,fg_pct,fg_per_poss,fga_per_poss,ft_pct,ft_per_poss,fta_per_poss,g,gs,lg_id,mp,off_rtg,orb_per_poss,pf_per_poss,pos,pts_per_poss,season,stl_per_poss,team_id,tov_per_poss,trb_per_poss
23.0,6.3,0.0,118.0,9.5,0.333,3.2,9.5,1.0,3.2,3.2,0.5,6.3,12.6,0.0,0.0,0.0,3.0,0.0,NBA,16.0,134.0,15.8,6.3,SG,15.8,1990,0.0,NYK,3.2,25.2
24.0,4.4,0.0,118.0,1.5,0.6,4.4,7.3,0.333,1.5,4.4,0.5,5.8,11.6,0.0,0.0,0.0,3.0,0.0,NBA,36.0,98.0,0.0,2.9,SG,13.1,1991,1.5,NYK,2.9,1.5
