age,ast,blk,drb,fg,fg2,fg2a,fg3,fg3a,fga,ft,fta,game_score,lg_id,mp,orb,pf,pts,season,stl,team_id,tov,trb
23.0,2.0,1.0,4.0,3.0,3.0,6.0,0.0,1.0,6.0,2.0,2.0,6.0,NBA,0.0,1.0,5.0,6.0,1990,1.0,NYK,1.0,4.0
24.0,3.0,2.0,6.0,8.0,6.0,9.0,2.0,5.0,14.0,4.0,5.0,15.3,NBA,0.0,5.0,5.0,20.0,1991,2.0,NYK,3.0,9.0
25.0,1.0,1.0,5.0,6.0,4.0,7.0,3.0,5.0,10.0,3.0,4.0,12.4,NBA,0.0,2.0,4.0,14.0,1992,3.0,TOT,2.0,5.0
25.0,1.0,1.0,3.0,6.0,4.0,6.0,3.0,5.0,10.0,3.0,4.0,12.4,NBA,0.0,2.0,4.0,14.0,1992,1.0,NYK,1.0,3.0
25.0,1.0,1.0,5.0,4.0,4.0,7.0,1.0,3.0,7.0,2.0,4.0,7.7,NBA,0.0,1.0,3.0,8.0,1992,3.0,DAL,2.0,5.0
