age,ast,blk,drb,efg_pct,fg,fg2,fg2_pct,fg2a,fg3,fg3_pct,fg3a,fg_pct,fga,ft,ft_pct,fta,g,gs,lg_id,mp,orb,pf,pos,pts,season,stl,team_id,tov,trb
23.0,2.0,0.0,3.0,0.625,2.0,1.0,0.333,3.0,1.0,1.0,1.0,0.5,4.0,0.0,0.0,0.0,3.0,0.0,NBA,16.0,5.0,2.0,SG,5.0,1990,0.0,NYK,1.0,8.0
24.0,3.0,0.0,1.0,0.563,4.0,3.0,0.6,5.0,1.0,0.333,3.0,0.5,8.0,0.0,0.0,0.0,3.0,0.0,NBA,36.0,0.0,2.0,SG,9.0,1991,1.0,NYK,2.0,1.0
