age,ast_per_mp,blk_per_mp,drb_per_mp,fg2_pct,fg2_per_mp,fg2a_per_mp,fg3_pct,fg3_per_mp,fg3a_per_mp,fg_pct,fg_per_mp,fga_per_mp,ft_pct,ft_per_mp,fta_per_mp,g,gs,lg_id,mp,orb_per_mp,pf_per_mp,pos,pts_per_mp,season,stl_per_mp,team_id,tov_per_mp,trb_per_mp
24.0,2.0,0.5,4.3,0.385,1.3,3.3,0.261,1.5,5.9,0.306,2.8,9.2,0.5,1.0,2.0,7.0,0.0,NBA,141.0,0.5,4.1,SG,8.2,2007,0.8,HOU,1.8,4.9
25.0,3.3,0.8,0.8,0.125,0.8,6.5,0.0,0.0,4.9,0.071,0.8,11.5,1.0,1.6,1.6,5.0,0.0,NBA,44.0,0.8,2.5,SG,3.3,2008,1.6,HOU,3.3,1.6
