age,avg_dist,fg2_dunk,fg2_pct,fg2_pct_ast,fg2a_pct_fga,fg3_heave,fg3_pct,fg3_pct_ast,fg3_pct_corner,fg3a_heave,fg3a_pct_fga,fg_pct,fg_pct_00_03,fg_pct_03_10,fg_pct_10_16,fg_pct_16_xx,g,lg_id,mp,pct_fg2_dunk,pct_fg3a_corner,pct_fga_00_03,pct_fga_03_10,pct_fga_10_16,pct_fga_16_xx,pos,season,team_id
23.0,3.8,19.0,0.539,0.826,0.992,0.0,0.0,0.0,0.0,0.0,0.008,0.535,0.565,0.4,0.7,1.0,58.0,NBA,684.0,0.202,0.0,0.659,0.233,0.078,0.016,C,2014,NOP
24.0,4.3,8.0,0.5,0.844,1.0,0.0,0.0,0.0,0.0,0.0,0.0,0.5,0.611,0.278,0.429,0.667,37.0,NBA,259.0,0.141,0.0,0.563,0.281,0.109,0.047,C,2015,NOP
25.0,4.2,27.0,0.544,0.805,0.988,0.0,0.0,0.0,0.0,1.0,0.012,0.537,0.653,0.405,0.429,0.222,51.0,NBA,658.0,0.198,0.0,0.586,0.259,0.086,0.056,C,2016,UTA
26.0,3.3,5.0,0.539,0.6,0.99,0.0,0.0,0.0,0.0,1.0,0.01,0.534,0.6,0.235,1.0,0.333,51.0,NBA,432.0,0.068,0.0,0.777,0.165,0.019,0.029,C,2017,UTA
27.0,16.8,2.0,0.667,0.75,0.375,0.0,0.2,1.0,0.5,0.0,0.625,0.375,1.0,0.0,0.0,0.0,9.0,NBA,39.0,0.125,0.2,0.25,0.063,0.0,0.063,C,2018,DAL
