age,ast,blk,drb,fg,fg2,fg2a,fg3,fg3a,fga,ft,fta,game_score,lg_id,mp,orb,pf,pts,season,stl,team_id,tov,trb
23.0,3.0,5.0,7.0,7.0,7.0,12.0,0.0,1.0,12.0,5.0,6.0,16.5,NBA,33,4.0,5.0,17.0,2014,2.0,NOP,2.0,8.0
24.0,3.0,3.0,5.0,5.0,5.0,9.0,0.0,0.0,9.0,5.0,6.0,14.7,NBA,30,5.0,3.0,14.0,2015,1.0,NOP,2.0,8.0
25.0,2.0,4.0,8.0,5.0,5.0,10.0,0.0,1.0,10.0,4.0,6.0,13.8,NBA,35,5.0,6.0,13.0,2016,3.0,UTA,3.0,12.0
26.0,2.0,3.0,6.0,5.0,5.0,6.0,0.0,1.0,6.0,4.0,4.0,12.2,NBA,23,3.0,4.0,10.0,2017,2.0,UTA,2.0,7.0
27.0,0.0,1.0,2.0,1.0,1.0,2.0,1.0,2.0,3.0,1.0,2.0,2.3,NBA,9,1.0,1.0,4.0,2018,0.0,DAL,1.0,2.0
