age,ast_per_mp,blk_per_mp,drb_per_mp,fg2_pct,fg2_per_mp,fg2a_per_mp,fg3_pct,fg3_per_mp,fg3a_per_mp,fg_pct,fg_per_mp,fga_per_mp,ft_pct,ft_per_mp,fta_per_mp,g,gs,lg_id,mp,orb_per_mp,pf_per_mp,pos,pts_per_mp,season,stl_per_mp,team_id,tov_per_mp,trb_per_mp
23.0,1.4,2.6,5.3,0.539,3.6,6.7,0.0,0.0,0.1,0.535,3.6,6.8,0.712,2.7,3.8,58.0,4.0,NBA,684.0,2.6,3.8,C,10.0,2014,0.8,NOP,1.1,7.9
24.0,1.5,2.5,5.7,0.5,4.4,8.9,0.0,0.0,0.0,0.5,4.4,8.9,0.68,4.7,6.9,37.0,0.0,NBA,259.0,3.2,3.6,C,13.6,2015,0.6,NOP,1.7,8.9
25.0,1.1,2.9,6.4,0.544,4.8,8.8,0.0,0.0,0.1,0.537,4.8,8.9,0.729,2.4,3.2,51.0,10.0,NBA,658.0,3.1,4.1,C,11.9,2016,1.1,UTA,1.5,9.5
26.0,0.6,2.7,5.7,0.539,4.6,8.5,0.0,0.0,0.1,0.534,4.6,8.6,0.75,3.0,4.0,51.0,1.0,NBA,432.0,4.3,4.3,C,12.2,2017,1.3,UTA,1.2,10.1
27.0,0.0,2.8,8.3,0.667,3.7,5.5,0.2,1.8,9.2,0.375,5.5,14.8,0.5,0.9,1.8,9.0,0.0,NBA,39.0,0.9,2.8,C,13.8,2018,0.0,DAL,1.8,9.2
