age,ast_per_g,blk_per_g,drb_per_g,efg_pct,fg2_pct,fg2_per_g,fg2a_per_g,fg3_pct,fg3_per_g,fg3a_per_g,fg_pct,fg_per_g,fga_per_g,ft_pct,ft_per_g,fta_per_g,g,gs,lg_id,mp_per_g,orb_per_g,pf_per_g,pos,pts_per_g,season,stl_per_g,team_id,tov_per_g,trb_per_g
23.0,0.4,0.9,1.7,0.535,0.539,1.2,2.2,0.0,0.0,0.0,0.535,1.2,2.2,0.712,0.9,1.3,58.0,4.0,NBA,11.8,0.8,1.3,C,3.3,2014,0.3,NOP,0.3,2.6
24.0,0.3,0.5,1.1,0.5,0.5,0.9,1.7,0.0,0.0,0.0,0.5,0.9,1.7,0.68,0.9,1.4,37.0,0.0,NBA,7.0,0.6,0.7,C,2.6,2015,0.1,NOP,0.3,1.7
25.0,0.4,1.0,2.3,0.537,0.544,1.7,3.1,0.0,0.0,0.0,0.537,1.7,3.2,0.729,0.8,1.2,51.0,10.0,NBA,12.9,1.1,1.5,C,4.3,2016,0.4,UTA,0.5,3.4
26.0,0.1,0.6,1.4,0.534,0.539,1.1,2.0,0.0,0.0,0.0,0.534,1.1,2.0,0.75,0.7,0.9,51.0,1.0,NBA,8.5,1.0,1.0,C,2.9,2017,0.3,UTA,0.3,2.4
27.0,0.0,0.3,1.0,0.438,0.667,0.4,0.7,0.2,0.2,1.1,0.375,0.7,1.8,0.5,0.1,0.2,9.0,0.0,NBA,4.3,0.1,0.3,C,1.7,2018,0.0,DAL,0.2,1.1
