age,avg_dist,fg2_dunk,fg2_pct,fg2_pct_ast,fg2a_pct_fga,fg3_heave,fg3_pct,fg3_pct_ast,fg3_pct_corner,fg3a_heave,fg3a_pct_fga,fg_pct,fg_pct_00_03,fg_pct_03_10,fg_pct_10_16,fg_pct_16_xx,g,lg_id,mp,pct_fg2_dunk,pct_fg3a_corner,pct_fga_00_03,pct_fga_03_10,pct_fga_10_16,pct_fga_16_xx,pos,season,team_id
20.0,6.7,6.0,0.4,0.607,1.0,0.0,0.0,0.0,0.0,0.0,0.0,0.4,0.563,0.4,0.167,0.182,29.0,NBA,268.0,0.086,0.0,0.457,0.214,0.171,0.157,PF,2006,NOK
21.0,7.7,2.0,0.349,0.533,0.977,0.0,0.0,0.0,0.0,0.0,0.023,0.341,0.5,0.222,0.182,0.4,21.0,NBA,162.0,0.091,0.0,0.409,0.205,0.25,0.114,PF,2007,NOK
22.0,9.1,45.0,0.503,0.569,0.992,0.0,0.0,0.0,0.0,0.0,0.008,0.499,0.547,0.437,0.48,0.544,79.0,NBA,1557.0,0.103,0.0,0.3,0.209,0.3,0.183,C,2008,DAL
23.0,9.1,72.0,0.502,0.698,0.988,0.0,0.0,0.0,0.0,5.0,0.012,0.496,0.58,0.396,0.449,0.467,81.0,NBA,1574.0,0.157,0.0,0.404,0.104,0.211,0.27,C,2009,DAL
24.0,8.7,25.0,0.511,0.513,1.0,0.0,0.0,0.0,0.0,0.0,0.0,0.511,0.628,0.424,0.466,0.429,50.0,NBA,648.0,0.116,0.0,0.369,0.142,0.249,0.24,PF,2010,ORL
25.0,10.4,81.0,0.516,0.657,0.997,0.0,0.0,0.0,0.0,0.0,0.003,0.515,0.682,0.388,0.421,0.486,76.0,NBA,1980.0,0.138,0.0,0.298,0.132,0.236,0.332,PF,2011,ORL
26.0,11.8,52.0,0.479,0.772,1.0,0.0,0.0,0.0,0.0,0.0,0.0,0.479,0.553,0.286,0.5,0.471,59.0,NBA,1868.0,0.089,0.0,0.237,0.1,0.256,0.407,PF,2012,BOS
27.0,11.3,56.0,0.487,0.748,0.997,0.0,0.0,0.0,0.0,2.0,0.003,0.486,0.607,0.403,0.459,0.452,81.0,NBA,2239.0,0.104,0.0,0.255,0.122,0.267,0.353,PF,2013,BOS
28.0,9.3,75.0,0.487,0.603,0.992,0.0,0.333,0.5,0.0,1.0,0.008,0.486,0.603,0.29,0.562,0.385,82.0,NBA,2266.0,0.11,0.333,0.348,0.171,0.233,0.24,PF,2014,BOS
29.0,9.6,94.0,0.515,0.69,0.953,0.0,0.281,1.0,0.321,0.0,0.047,0.504,0.684,0.322,0.4,0.457,82.0,NBA,1929.0,0.149,0.875,0.366,0.132,0.183,0.272,PF,2015,BOS
30.0,5.1,86.0,0.552,0.764,0.994,0.0,0.0,0.0,0.0,0.0,0.006,0.549,0.667,0.381,0.396,0.361,66.0,NBA,1342.0,0.287,0.0,0.596,0.132,0.151,0.114,PF,2016,LAL
31.0,6.8,35.0,0.579,0.679,0.984,0.0,0.333,1.0,0.0,0.0,0.016,0.575,0.687,0.5,0.477,0.333,52.0,NBA,577.0,0.199,0.333,0.532,0.118,0.237,0.097,PF,2017,LAC
