age,ast,blk,drb,efg_pct,fg,fg2,fg2_pct,fg2a,fg3,fg3_pct,fg3a,fg_pct,fga,ft,ft_pct,fta,g,gs,lg_id,mp,orb,pf,pos,pts,season,stl,team_id,tov,trb
22.0,2.0,3.0,14.0,0.472,17.0,17.0,0.486,35.0,0.0,0.0,1.0,0.472,36.0,24.0,0.96,25.0,5.0,0.0,NBA,133.0,20.0,12.0,C,58.0,2008,3.0,DAL,3.0,34.0
23.0,7.0,4.0,28.0,0.55,33.0,33.0,0.55,60.0,0.0,0.0,0.0,0.55,60.0,28.0,0.903,31.0,10.0,0.0,NBA,192.0,13.0,22.0,C,94.0,2009,7.0,DAL,4.0,41.0
24.0,1.0,0.0,6.0,0.538,7.0,7.0,0.538,13.0,0.0,0.0,0.0,0.538,13.0,5.0,0.833,6.0,7.0,0.0,NBA,42.0,2.0,2.0,PF,19.0,2010,0.0,ORL,1.0,8.0
25.0,2.0,5.0,13.0,0.421,16.0,16.0,0.421,38.0,0.0,0.0,0.0,0.421,38.0,12.0,0.923,13.0,6.0,6.0,NBA,139.0,12.0,7.0,PF,44.0,2011,3.0,ORL,7.0,25.0
26.0,15.0,10.0,79.0,0.463,81.0,81.0,0.463,175.0,0.0,0.0,0.0,0.463,175.0,59.0,0.922,64.0,20.0,20.0,NBA,608.0,26.0,50.0,PF,221.0,2012,14.0,BOS,15.0,105.0
27.0,7.0,1.0,32.0,0.483,14.0,14.0,0.483,29.0,0.0,0.0,0.0,0.483,29.0,12.0,0.8,15.0,6.0,5.0,NBA,204.0,8.0,17.0,PF,40.0,2013,2.0,BOS,5.0,40.0
29.0,10.0,3.0,5.0,0.35,7.0,7.0,0.35,20.0,0.0,0.0,0.0,0.35,20.0,6.0,0.6,10.0,4.0,4.0,NBA,86.0,3.0,4.0,PF,20.0,2015,1.0,BOS,3.0,8.0
31.0,0.0,0.0,0.0,0.333,1.0,1.0,0.333,3.0,0.0,0.0,0.0,0.333,3.0,0.0,0.0,0.0,1.0,0.0,NBA,4.0,1.0,0.0,PF,2.0,2017,1.0,LAC,0.0,1.0
