age,ast_per_poss,blk_per_poss,def_rtg,drb_per_poss,fg2_pct,fg2_per_poss,fg2a_per_poss,fg3_pct,fg3_per_poss,fg3a_per_poss,fg_pct,fg_per_poss,fga_per_poss,ft_pct,ft_per_poss,fta_per_poss,g,gs,lg_id,mp,off_rtg,orb_per_poss,pf_per_poss,pos,pts_per_poss,season,stl_per_poss,team_id,tov_per_poss,trb_per_poss
20.0,0.6,1.4,106.0,10.1,0.4,5.6,14.1,0.0,0.0,0.0,0.4,5.6,14.1,0.632,2.4,3.8,29.0,1.0,NBA,268.0,90.0,3.6,3.6,PF,13.7,2006,0.6,NOK,2.2,13.7
21.0,1.0,1.0,106.0,9.9,0.349,4.9,14.1,0.0,0.0,0.3,0.341,4.9,14.4,0.75,3.9,5.3,21.0,3.0,NBA,162.0,86.0,4.3,5.3,PF,13.8,2007,0.7,NOK,3.3,14.1
22.0,2.0,1.6,106.0,7.8,0.503,8.4,16.7,0.0,0.0,0.1,0.499,8.4,16.9,0.822,5.5,6.7,79.0,1.0,NBA,1557.0,112.0,4.1,5.1,C,22.4,2008,0.8,DAL,2.8,11.9
23.0,1.4,1.8,108.0,7.9,0.502,8.4,16.7,0.0,0.0,0.2,0.496,8.4,16.9,0.867,6.1,7.0,81.0,0.0,NBA,1574.0,113.0,4.3,4.7,C,22.9,2009,0.9,DAL,2.9,12.2
24.0,1.5,2.2,104.0,5.9,0.511,9.6,18.8,0.0,0.0,0.0,0.511,9.6,18.8,0.825,4.2,5.1,50.0,3.0,NBA,648.0,112.0,4.3,5.6,PF,23.3,2010,1.0,ORL,2.5,10.2
25.0,1.5,1.4,103.0,7.7,0.516,8.8,17.1,0.0,0.0,0.1,0.515,8.8,17.1,0.815,5.0,6.2,76.0,51.0,NBA,1980.0,113.0,3.6,4.2,PF,22.7,2011,0.7,ORL,2.6,11.3
26.0,1.6,1.5,99.0,7.7,0.479,8.6,18.0,0.0,0.0,0.0,0.479,8.6,18.0,0.81,3.8,4.6,59.0,39.0,NBA,1868.0,103.0,2.7,3.8,PF,21.0,2012,1.0,BOS,1.8,10.4
27.0,2.0,1.5,104.0,6.9,0.487,6.7,13.7,0.0,0.0,0.0,0.486,6.7,13.8,0.86,3.0,3.5,81.0,69.0,NBA,2239.0,107.0,3.0,4.4,PF,16.4,2013,1.0,BOS,1.9,9.9
28.0,2.0,1.6,108.0,7.0,0.487,7.9,16.3,0.333,0.0,0.1,0.486,8.0,16.5,0.858,4.7,5.4,82.0,73.0,NBA,2266.0,111.0,3.7,4.3,PF,20.7,2014,0.8,BOS,2.3,10.7
29.0,2.7,0.8,106.0,6.7,0.515,8.7,16.9,0.281,0.2,0.8,0.504,8.9,17.7,0.79,4.4,5.6,82.0,43.0,NBA,1929.0,112.0,3.6,3.6,PF,22.5,2015,1.1,BOS,2.2,10.3
30.0,2.8,2.1,111.0,6.8,0.552,6.5,11.8,0.0,0.0,0.1,0.549,6.5,11.9,0.845,4.7,5.5,66.0,0.0,NBA,1342.0,127.0,3.9,4.7,PF,17.7,2016,1.2,LAL,1.6,10.7
31.0,1.8,1.0,109.0,7.4,0.579,9.2,15.8,0.333,0.1,0.3,0.575,9.3,16.1,0.875,6.7,7.6,52.0,0.0,NBA,577.0,125.0,3.7,3.9,PF,25.3,2017,1.2,LAC,2.5,11.2
