age,ast_per_g,blk_per_g,drb_per_g,efg_pct,fg2_pct,fg2_per_g,fg2a_per_g,fg3_pct,fg3_per_g,fg3a_per_g,fg_pct,fg_per_g,fga_per_g,ft_pct,ft_per_g,fta_per_g,g,gs,lg_id,mp_per_g,orb_per_g,pf_per_g,pos,pts_per_g,season,stl_per_g,team_id,tov_per_g,trb_per_g
31.0,0.0,0.0,0.7,1.0,1.0,0.3,0.3,0.0,0.0,0.0,1.0,0.3,0.3,0.0,0.0,0.0,3.0,0.0,NBA,2.0,0.0,0.0,C,0.7,2007,0.0,GSW,0.0,0.7
32.0,0.0,0.0,1.0,0.333,0.333,0.3,1.0,0.0,0.0,0.0,0.333,0.3,1.0,0.0,0.0,0.0,3.0,0.0,NBA,3.7,0.0,0.3,C,0.7,2008,0.0,ORL,0.7,1.0
33.0,0.0,0.0,0.5,0.0,0.0,0.0,0.5,0.0,0.0,0.0,0.0,0.0,0.5,0.0,0.0,0.0,2.0,0.0,NBA,2.0,0.0,0.5,C,0.0,2009,0.0,ORL,0.5,0.5
