age,ast,blk,drb,efg_pct,fg,fg2,fg2_pct,fg2a,fg3,fg3_pct,fg3a,fg_pct,fga,ft,ft_pct,fta,g,gs,lg_id,mp,orb,pf,pos,pts,season,stl,team_id,tov,trb
31.0,0.0,0.0,2.0,1.0,1.0,1.0,1.0,1.0,0.0,0.0,0.0,1.0,1.0,0.0,0.0,0.0,3.0,0.0,NBA,6.0,0.0,0.0,C,2.0,2007,0.0,GSW,0.0,2.0
32.0,0.0,0.0,3.0,0.333,1.0,1.0,0.333,3.0,0.0,0.0,0.0,0.333,3.0,0.0,0.0,0.0,3.0,0.0,NBA,11.0,0.0,1.0,C,2.0,2008,0.0,ORL,2.0,3.0
33.0,0.0,0.0,1.0,0.0,0.0,0.0,0.0,1.0,0.0,0.0,0.0,0.0,1.0,0.0,0.0,0.0,2.0,0.0,NBA,4.0,0.0,1.0,C,0.0,2009,0.0,ORL,1.0,1.0
