age,ast_pct,blk_pct,bpm,bpm-dum,dbpm,drb_pct,dws,fg3a_per_fga_pct,fta_per_fga_pct,g,lg_id,mp,obpm,orb_pct,ows,per,pos,season,stl_pct,team_id,tov_pct,trb_pct,ts_pct,usg_pct,vorp,ws,ws-dum,ws_per_48
22.0,13.5,0.6,-4.5,0.0,-1.0,8.0,0.6,0.037,0.161,73.0,NBA,1708.0,-3.5,4.4,-1.4,10.3,SG,1983,1.5,HOU,14.2,6.1,0.458,22.7,-1.1,-0.8,0.0,-0.022
23.0,14.5,0.4,-5.0,0.0,-2.7,8.7,0.4,0.086,0.14,68.0,NBA,616.0,-2.3,4.9,-0.2,11.8,SG,1984,1.0,HOU,15.6,6.8,0.508,25.3,-0.5,0.2,0.0,0.016
24.0,6.0,0.8,-1.7,0.0,-1.0,7.4,0.1,0.029,0.255,21.0,NBA,349.0,-0.7,6.5,0.7,15.5,SG,1985,1.7,TOT,9.0,6.9,0.574,18.8,0.0,0.7,0.0,0.103
24.0,0.0,0.0,-15.3,0.0,-4.5,0.0,0.0,0.0,0.0,2.0,NBA,5.0,-10.9,0.0,0.0,-7.1,SG,1985,0.0,DET,33.3,0.0,0.5,23.0,0.0,0.0,0.0,-0.213
24.0,6.1,0.8,-1.5,0.0,-0.9,7.5,0.1,0.03,0.259,19.0,NBA,344.0,-0.6,6.6,0.7,15.9,SG,1985,1.8,GSW,8.5,7.0,0.575,18.7,0.0,0.8,0.0,0.108
25.0,7.6,0.9,-2.0,0.0,-1.9,7.3,0.6,0.026,0.277,82.0,NBA,2158.0,0.0,4.6,2.5,14.2,SG,1986,1.5,GSW,11.2,5.9,0.542,22.0,0.0,3.1,0.0,0.069
26.0,9.5,0.5,-3.9,0.0,-2.2,7.2,0.8,0.012,0.29,82.0,NBA,1650.0,-1.7,4.5,0.4,13.2,SG,1987,1.9,GSW,11.4,5.8,0.506,25.1,-0.8,1.3,0.0,0.037
27.0,10.3,0.2,-6.4,0.0,-4.2,4.8,0.1,0.016,0.222,47.0,NBA,958.0,-2.2,4.6,-0.3,13.0,SG,1988,1.6,GSW,11.8,4.7,0.496,28.7,-1.1,-0.2,0.0,-0.012
28.0,9.0,0.6,-2.2,0.0,-1.9,9.7,1.4,0.014,0.262,66.0,NBA,1569.0,-0.3,7.0,1.7,16.7,SF,1989,2.3,GSW,10.8,8.4,0.523,25.9,-0.1,3.1,0.0,0.095
29.0,9.9,0.3,-2.7,0.0,-2.1,10.8,0.8,0.012,0.262,82.0,NBA,2376.0,-0.6,5.4,1.9,14.8,SF,1990,1.7,GSW,10.3,8.2,0.529,23.4,-0.4,2.7,0.0,0.054
30.0,8.8,0.3,-4.6,0.0,-2.5,7.3,1.3,0.012,0.234,82.0,NBA,1498.0,-2.2,6.6,0.7,12.8,SG,1991,1.1,LAL,9.0,7.0,0.488,26.7,-1.0,2.1,0.0,0.066
31.0,12.3,0.3,-3.7,0.0,-2.5,6.6,1.0,0.005,0.245,82.0,NBA,1602.0,-1.2,6.4,0.2,14.5,SG,1992,2.1,LAL,11.3,6.5,0.493,27.5,-0.7,1.3,0.0,0.038
32.0,10.7,0.0,-11.4,0.0,-2.1,12.8,0.0,0.0,0.286,2.0,NBA,25.0,-9.2,0.0,-0.1,2.1,SG,1993,0.0,HOU,11.3,6.8,0.317,15.7,-0.1,0.0,0.0,-0.078
