article_url,date,headline
https://raptorsrapture.com/2019/11/14/grades-toronto-raptors-impressive-trail-blazers/,2019/11/14,Raptors Rapture: Grades from Toronto Raptors impressive win vs Portland Trail Blazers
https://raptorsrapture.com/2019/11/13/toronto-raptors-johnson-holls-jefferson/,2019/11/13,Raptors Rapture: Toronto Raptors: Stanley Johnson and Rondae Hollis-Jefferson haven't been good enough
https://raptorsrapture.com/2019/11/12/toronto-raptors-loss-clippers/,2019/11/12,Raptors Rapture: Grades from Toronto Raptors narrow loss to Los Angeles Clippers
https://raptorsrapture.com/2019/11/11/toronto-raptors-win-lakers-takeaways/,2019/11/11,Raptors Rapture: Three takeaways from shprthanded Toronto Raptors win over Lakers
https://raptorsrapture.com/2019/11/11/grades-toronto-raptors-lakers/,2019/11/11,Raptors Rapture: Grades as Toronto Raptors grind it out to beat the Los Angeles Lakers
