age,and1s,astd_pts,drawn_offensive,drawn_shooting,fouls_offensive,fouls_shooting,g,lg_id,mp,own_shots_blk,pct_1,pct_2,pct_3,pct_4,pct_5,plus_minus_net,plus_minus_on,pos,season,team_id,tov_bad_pass,tov_lost_ball
30.0,10.0,397.0,0.0,66.0,14.0,72.0,78.0,NBA,2504.0,43.0,1.0,97.0,3.0,0.0,0.0,-2.3,-3.3,SG,2001,BOS,43.0,24.0
31.0,11.0,88.0,0.0,24.0,5.0,22.0,50.0,NBA,665.0,15.0,2.0,88.0,11.0,0.0,0.0,-6.1,-8.8,SG,2002,CLE,15.0,5.0
