age,ast,blk,drb,fg,fg2,fg2a,fg3,fg3a,fga,ft,fta,game_score,lg_id,mp,orb,pf,pts,season,stl,team_id,tov,trb
22.0,6.0,1.0,8.0,10.0,10.0,18.0,0.0,0.0,18.0,5.0,9.0,22.5,NBA,0.0,5.0,5.0,25.0,1992,3.0,GSW,3.0,12.0
24.0,6.0,1.0,9.0,13.0,13.0,23.0,0.0,1.0,23.0,8.0,10.0,24.5,NBA,0.0,8.0,5.0,27.0,1994,2.0,GSW,4.0,17.0
26.0,6.0,1.0,8.0,6.0,6.0,8.0,0.0,2.0,9.0,2.0,3.0,9.2,NBA,0.0,2.0,6.0,12.0,1996,2.0,TOT,5.0,10.0
26.0,6.0,1.0,8.0,6.0,6.0,8.0,0.0,2.0,9.0,2.0,3.0,9.2,NBA,0.0,2.0,6.0,12.0,1996,2.0,SAC,5.0,10.0
