age,ast_per_poss,blk_per_poss,def_rtg,drb_per_poss,fg2_pct,fg2_per_poss,fg2a_per_poss,fg3_pct,fg3_per_poss,fg3a_per_poss,fg_pct,fg_per_poss,fga_per_poss,ft_pct,ft_per_poss,fta_per_poss,g,gs,lg_id,mp,off_rtg,orb_per_poss,pf_per_poss,pos,pts_per_poss,season,stl_per_poss,team_id,tov_per_poss,trb_per_poss
22.0,3.5,1.2,109.0,7.3,0.529,8.6,16.3,0.111,0.0,0.2,0.525,8.7,16.5,0.654,3.8,5.8,80.0,77.0,NBA,2510.0,111.0,4.5,5.1,PF,21.1,1992,1.7,GSW,3.3,11.8
23.0,5.8,1.1,110.0,6.3,0.51,9.9,19.4,0.091,0.0,0.4,0.501,9.9,19.8,0.639,4.7,7.3,37.0,37.0,NBA,1201.0,107.0,4.3,4.2,PF,24.6,1993,1.4,GSW,4.3,10.6
24.0,5.8,1.1,107.0,7.3,0.512,8.7,16.9,0.2,0.1,0.3,0.507,8.7,17.2,0.61,3.5,5.8,79.0,72.0,NBA,2738.0,106.0,4.1,4.8,PF,21.0,1994,1.5,GSW,3.8,11.3
25.0,5.5,0.7,109.0,6.7,0.503,9.0,18.0,0.091,0.0,0.5,0.491,9.1,18.5,0.62,4.4,7.0,70.0,60.0,NBA,2296.0,103.0,4.6,4.6,SG,22.5,1995,1.8,MIA,4.6,11.3
26.0,5.4,1.0,106.0,7.1,0.485,8.4,17.3,0.278,0.1,0.5,0.48,8.5,17.8,0.636,4.1,6.5,62.0,51.0,NBA,1982.0,102.0,3.8,5.1,SF,21.3,1996,1.3,TOT,4.3,10.8
26.0,5.1,0.8,104.0,7.3,0.512,9.1,17.7,0.0,0.0,0.2,0.505,9.1,18.0,0.633,4.3,6.7,40.0,40.0,NBA,1388.0,103.0,3.6,5.0,SF,22.4,1996,1.1,MIA,4.3,10.9
26.0,6.1,1.4,108.0,6.6,0.42,6.8,16.3,0.417,0.4,1.0,0.42,7.3,17.3,0.643,3.9,6.1,22.0,11.0,NBA,594.0,97.0,4.2,5.2,SF,18.9,1996,1.6,SAC,4.4,10.8
27.0,4.9,0.7,108.0,6.8,0.482,7.2,15.0,0.347,0.7,1.9,0.467,7.9,16.9,0.697,2.7,3.8,66.0,56.0,NBA,1995.0,103.0,3.5,4.9,SF,19.1,1997,1.6,SAC,3.5,10.4
28.0,4.9,0.8,104.0,9.1,0.474,6.9,14.6,0.371,0.6,1.6,0.464,7.5,16.2,0.589,2.6,4.4,78.0,78.0,NBA,2348.0,100.0,3.8,5.1,SF,18.2,1998,2.1,SAC,3.4,12.9
29.0,4.5,0.5,108.0,5.3,0.39,7.1,18.3,0.455,0.6,1.3,0.394,7.7,19.6,0.8,3.3,4.2,21.0,19.0,NBA,451.0,95.0,4.2,4.4,SF,19.4,1999,1.4,SEA,3.9,9.5
30.0,3.8,0.8,103.0,7.9,0.429,5.5,12.7,0.324,0.4,1.3,0.419,5.9,14.1,0.594,2.5,4.2,62.0,11.0,NBA,1305.0,94.0,3.9,6.5,PF-SF,14.7,2000,1.3,TOT,3.3,11.8
30.0,3.3,0.9,101.0,7.3,0.446,5.8,13.0,0.333,0.5,1.5,0.434,6.3,14.5,0.594,2.1,3.6,46.0,7.0,NBA,919.0,93.0,3.6,6.7,PF,15.3,2000,1.5,PHI,3.4,10.8
30.0,5.0,0.7,108.0,9.5,0.387,4.7,12.1,0.286,0.3,0.9,0.38,5.0,13.0,0.595,3.3,5.5,16.0,4.0,NBA,386.0,95.0,4.7,6.1,SF,13.4,2000,0.9,GSW,3.1,14.2
31.0,3.5,0.8,101.0,7.7,0.405,5.4,13.4,0.15,0.2,1.3,0.383,5.6,14.7,0.475,1.2,2.6,45.0,14.0,NBA,793.0,91.0,5.4,5.9,PF,12.7,2001,2.0,DET,2.5,13.1
