age,ast_per_poss,blk_per_poss,def_rtg,drb_per_poss,fg2_pct,fg2_per_poss,fg2a_per_poss,fg3_pct,fg3_per_poss,fg3a_per_poss,fg_pct,fg_per_poss,fga_per_poss,ft_pct,ft_per_poss,fta_per_poss,g,gs,lg_id,mp,off_rtg,orb_per_poss,pf_per_poss,pos,pts_per_poss,season,stl_per_poss,team_id,tov_per_poss,trb_per_poss
23.0,0.0,0.0,104.0,13.1,0.75,13.1,17.5,0.0,0.0,4.4,0.6,13.1,21.8,1.0,8.7,8.7,2.0,0.0,NBA,12.0,116.0,0.0,8.7,PG,34.9,1999,0.0,LAL,4.4,13.1
24.0,2.4,0.2,110.0,3.4,0.527,7.3,13.9,0.375,0.7,1.8,0.509,8.0,15.7,0.732,2.2,3.0,52.0,5.0,NBA,681.0,106.0,1.8,8.4,PG,18.8,2000,2.2,TOT,2.4,5.2
24.0,5.7,0.0,100.0,2.9,0.556,14.3,25.7,0.0,0.0,0.0,0.556,14.3,25.7,0.0,0.0,5.7,3.0,0.0,NBA,18.0,86.0,0.0,2.9,PG,28.6,2000,2.9,LAL,5.7,2.9
24.0,2.3,0.2,110.0,3.4,0.525,7.1,13.6,0.375,0.7,1.8,0.507,7.8,15.4,0.769,2.3,3.0,49.0,5.0,NBA,663.0,107.0,1.9,8.5,PG,18.6,2000,2.2,GSW,2.4,5.3
25.0,3.5,0.0,105.0,2.7,0.5,8.0,15.9,0.0,0.0,0.0,0.5,8.0,15.9,0.667,1.8,2.7,14.0,0.0,NBA,59.0,120.0,2.7,16.8,PG,17.7,2001,2.7,MIN,0.0,5.3
