age,ast_per_g,blk_per_g,drb_per_g,efg_pct,fg2_pct,fg2_per_g,fg2a_per_g,fg3_pct,fg3_per_g,fg3a_per_g,fg_pct,fg_per_g,fga_per_g,ft_pct,ft_per_g,fta_per_g,g,gs,lg_id,mp_per_g,orb_per_g,pf_per_g,pos,pts_per_g,season,stl_per_g,team_id,tov_per_g,trb_per_g
23.0,1.6,0.1,0.6,0.448,0.442,1.0,2.3,0.32,0.1,0.4,0.423,1.2,2.8,0.833,1.3,1.5,59.0,1.0,NBA,9.7,0.2,1.4,PG,3.7,1996,0.3,IND,1.1,0.7
24.0,4.2,0.1,1.7,0.488,0.467,2.9,6.1,0.368,0.8,2.0,0.442,3.6,8.2,0.756,2.0,2.6,76.0,46.0,NBA,27.2,0.5,2.9,PG,9.9,1997,1.3,IND,2.0,2.2
25.0,3.4,0.1,1.1,0.441,0.439,2.2,5.0,0.3,0.3,0.9,0.419,2.5,5.9,0.855,1.4,1.6,82.0,0.0,NBA,18.9,0.3,2.4,PG,6.5,1998,1.0,IND,1.4,1.5
26.0,3.4,0.1,1.2,0.452,0.427,2.1,5.0,0.373,0.4,1.2,0.416,2.6,6.2,0.843,1.4,1.7,49.0,0.0,NBA,21.3,0.4,2.3,PG,7.1,1999,0.9,IND,1.3,1.6
27.0,3.3,0.1,1.5,0.514,0.504,2.9,5.7,0.376,0.4,1.1,0.483,3.3,6.8,0.821,1.9,2.3,82.0,0.0,NBA,20.6,0.2,2.5,PG,8.9,2000,0.9,IND,1.3,1.7
28.0,6.1,0.1,2.4,0.464,0.449,4.0,9.0,0.381,0.5,1.3,0.44,4.5,10.2,0.827,2.4,2.9,77.0,21.0,NBA,31.9,0.5,3.2,PG,11.9,2001,1.4,IND,1.6,2.9
29.0,4.4,0.1,1.8,0.46,0.451,2.8,6.2,0.356,0.3,0.8,0.44,3.1,7.0,0.897,1.4,1.6,74.0,21.0,NBA,23.6,0.3,2.3,PG,7.9,2002,1.2,TOT,1.3,2.0
29.0,4.0,0.1,1.4,0.464,0.448,2.3,5.2,0.382,0.3,0.8,0.439,2.6,6.0,0.877,1.3,1.5,44.0,3.0,NBA,21.7,0.2,2.3,PG,6.9,2002,1.3,IND,1.3,1.6
29.0,5.0,0.0,2.4,0.457,0.454,3.5,7.6,0.32,0.3,0.8,0.441,3.7,8.5,0.922,1.6,1.7,30.0,18.0,NBA,26.4,0.3,2.4,PG,9.3,2002,1.1,CHI,1.3,2.7
30.0,3.5,0.1,1.7,0.427,0.411,2.7,6.6,0.33,0.5,1.5,0.396,3.2,8.1,0.854,1.5,1.7,72.0,52.0,NBA,25.1,0.4,2.4,PG,8.4,2003,0.6,MIA,1.5,2.0
31.0,1.8,0.1,0.8,0.381,0.401,1.0,2.5,0.15,0.0,0.3,0.372,1.0,2.8,0.87,0.7,0.8,61.0,1.0,NBA,12.5,0.3,1.1,PG,2.8,2004,0.5,DAL,0.5,1.1
32.0,1.9,0.1,1.2,0.449,0.447,2.2,4.8,0.306,0.3,1.1,0.42,2.5,5.9,0.885,1.4,1.6,76.0,6.0,NBA,19.2,0.3,1.9,PG,6.8,2005,0.9,NJN,0.9,1.4
