age,ast_per_g,blk_per_g,drb_per_g,efg_pct,fg2_pct,fg2_per_g,fg2a_per_g,fg3_pct,fg3_per_g,fg3a_per_g,fg_pct,fg_per_g,fga_per_g,ft_pct,ft_per_g,fta_per_g,g,gs,lg_id,mp_per_g,orb_per_g,pf_per_g,pos,pts_per_g,season,stl_per_g,team_id,tov_per_g,trb_per_g
23.0,1.8,0.0,1.6,0.523,0.625,2.0,3.2,0.167,0.2,1.2,0.5,2.2,4.4,0.857,1.2,1.4,5.0,0.0,NBA,16.8,0.6,2.0,PG,5.8,1996,1.2,IND,2.0,2.2
25.0,1.9,0.2,0.9,0.41,0.407,1.4,3.4,0.278,0.3,1.1,0.375,1.7,4.5,0.884,2.4,2.7,16.0,0.0,NBA,17.5,0.1,2.3,PG,6.1,1998,0.7,IND,1.2,1.0
26.0,1.9,0.1,0.9,0.37,0.389,1.3,3.3,0.2,0.2,0.9,0.348,1.5,4.2,0.923,1.1,1.2,11.0,0.0,NBA,13.6,0.6,3.1,PG,4.2,1999,0.4,IND,1.3,1.5
27.0,2.9,0.2,1.8,0.466,0.43,2.8,6.5,0.433,0.6,1.3,0.43,3.3,7.8,0.841,1.6,1.9,23.0,0.0,NBA,20.1,0.7,2.7,PG,8.9,2000,0.8,IND,1.1,2.5
28.0,9.3,0.0,3.3,0.449,0.444,4.0,9.0,0.333,0.3,0.8,0.436,4.3,9.8,1.0,1.0,1.0,4.0,4.0,NBA,40.8,1.5,3.8,PG,9.8,2001,1.0,IND,1.5,4.8
32.0,2.3,0.0,1.0,0.432,0.615,2.0,3.3,0.111,0.3,2.3,0.409,2.3,5.5,0.889,2.0,2.3,4.0,0.0,NBA,20.5,0.5,2.3,PG,6.8,2005,0.3,NJN,0.8,1.5
