age,ast,blk,drb,fg,fg2,fg2a,fg3,fg3a,fga,ft,fta,game_score,lg_id,mp,orb,pf,pts,season,stl,team_id,tov,trb
20.0,16.0,1.0,11.0,11.0,11.0,19.0,3.0,6.0,21.0,14.0,17.0,31.9,NBA,48,4.0,5.0,28.0,2006,7.0,NOK,6.0,12.0
21.0,18.0,1.0,12.0,14.0,13.0,22.0,4.0,6.0,23.0,12.0,15.0,33.1,NBA,49,3.0,5.0,35.0,2007,5.0,NOK,7.0,12.0
22.0,21.0,1.0,8.0,18.0,14.0,24.0,5.0,9.0,33.0,13.0,14.0,40.5,NBA,51,4.0,5.0,43.0,2008,9.0,NOH,7.0,10.0
23.0,20.0,1.0,10.0,16.0,13.0,26.0,5.0,9.0,29.0,12.0,15.0,41.2,NBA,48,3.0,6.0,43.0,2009,8.0,NOH,7.0,10.0
24.0,19.0,2.0,10.0,14.0,13.0,19.0,4.0,7.0,23.0,14.0,15.0,33.8,NBA,48,3.0,6.0,39.0,2010,8.0,NOH,7.0,11.0
25.0,19.0,1.0,8.0,13.0,12.0,18.0,3.0,5.0,21.0,12.0,14.0,38.3,NBA,51,2.0,5.0,33.0,2011,7.0,NOH,7.0,9.0
26.0,16.0,1.0,8.0,15.0,12.0,19.0,4.0,7.0,24.0,17.0,19.0,37.9,NBA,45,3.0,5.0,36.0,2012,8.0,LAC,5.0,9.0
27.0,16.0,2.0,7.0,12.0,11.0,21.0,5.0,8.0,25.0,19.0,20.0,31.8,NBA,44,3.0,6.0,33.0,2013,7.0,LAC,7.0,7.0
28.0,17.0,1.0,8.0,16.0,14.0,26.0,5.0,9.0,29.0,16.0,17.0,42.5,NBA,45,2.0,6.0,42.0,2014,6.0,LAC,6.0,10.0
29.0,17.0,2.0,10.0,14.0,12.0,23.0,6.0,11.0,29.0,12.0,12.0,47.5,NBA,44,4.0,6.0,41.0,2015,5.0,LAC,6.0,10.0
30.0,19.0,1.0,7.0,13.0,11.0,17.0,5.0,9.0,23.0,11.0,13.0,42.7,NBA,48,3.0,5.0,40.0,2016,7.0,LAC,6.0,8.0
31.0,20.0,2.0,10.0,11.0,9.0,19.0,5.0,11.0,26.0,14.0,15.0,31.9,NBA,45,3.0,5.0,33.0,2017,6.0,LAC,6.0,11.0
32.0,14.0,2.0,10.0,13.0,10.0,18.0,6.0,11.0,29.0,12.0,12.0,34.2,NBA,43,3.0,6.0,38.0,2018,7.0,HOU,6.0,11.0
33.0,17.0,2.0,9.0,13.0,8.0,15.0,6.0,12.0,27.0,8.0,9.0,29.1,NBA,42,3.0,6.0,32.0,2019,6.0,HOU,8.0,11.0
34.0,9.0,0.0,7.0,7.0,5.0,10.0,4.0,7.0,15.0,10.0,11.0,18.5,NBA,34,1.0,4.0,22.0,2020,3.0,OKC,6.0,8.0
