age,ast_per_g,blk_per_g,drb_per_g,efg_pct,fg2_pct,fg2_per_g,fg2a_per_g,fg3_pct,fg3_per_g,fg3a_per_g,fg_pct,fg_per_g,fga_per_g,ft_pct,ft_per_g,fta_per_g,g,gs,lg_id,mp_per_g,orb_per_g,pf_per_g,pos,pts_per_g,season,stl_per_g,team_id,tov_per_g,trb_per_g
20.0,7.8,0.1,4.3,0.456,0.464,4.6,9.9,0.282,0.6,2.3,0.43,5.2,12.1,0.847,5.1,6.0,78.0,78.0,NBA,36.0,0.8,2.8,PG,16.1,2006,2.2,NOK,2.3,5.1
21.0,8.9,0.0,3.5,0.466,0.455,5.2,11.4,0.35,0.8,2.2,0.437,6.0,13.6,0.818,4.6,5.6,64.0,64.0,NBA,36.8,0.8,2.4,PG,17.3,2007,1.8,NOK,2.5,4.4
22.0,11.6,0.1,3.2,0.524,0.516,6.7,13.0,0.369,1.2,3.1,0.488,7.9,16.1,0.851,4.2,4.9,80.0,80.0,NBA,37.6,0.8,2.3,PG,21.1,2008,2.7,NOH,2.5,4.0
23.0,11.0,0.1,4.7,0.528,0.525,7.3,13.8,0.364,0.8,2.3,0.503,8.1,16.1,0.868,5.8,6.7,78.0,78.0,NBA,38.5,0.9,2.7,PG,22.8,2009,2.8,NOH,3.0,5.5
24.0,10.7,0.2,3.8,0.534,0.514,5.8,11.3,0.409,1.2,2.8,0.493,7.0,14.2,0.847,3.6,4.2,45.0,45.0,NBA,38.0,0.4,2.6,PG,18.7,2010,2.1,NOH,2.5,4.2
25.0,9.8,0.1,3.6,0.502,0.482,4.5,9.3,0.388,0.9,2.3,0.463,5.4,11.6,0.878,4.2,4.8,80.0,80.0,NBA,36.0,0.5,2.5,PG,15.9,2011,2.4,NOH,2.2,4.1
26.0,9.1,0.1,2.9,0.522,0.511,5.8,11.3,0.371,1.3,3.6,0.478,7.1,14.8,0.861,4.3,5.0,60.0,60.0,NBA,36.4,0.7,2.3,PG,19.8,2012,2.5,LAC,2.1,3.6
27.0,9.7,0.1,3.0,0.526,0.538,4.8,8.9,0.328,1.1,3.3,0.481,5.9,12.2,0.885,4.1,4.6,70.0,70.0,NBA,33.4,0.8,2.0,PG,16.9,2013,2.4,LAC,2.3,3.7
28.0,10.7,0.1,3.7,0.511,0.498,5.3,10.6,0.368,1.3,3.4,0.467,6.5,14.0,0.855,4.8,5.6,62.0,62.0,NBA,35.0,0.6,2.5,PG,19.1,2014,2.5,LAC,2.3,4.3
29.0,10.2,0.2,4.0,0.545,0.523,5.2,10.0,0.398,1.7,4.3,0.485,6.9,14.3,0.9,3.5,3.9,82.0,82.0,NBA,34.8,0.6,2.5,PG,19.1,2015,1.9,LAC,2.3,4.6
30.0,10.0,0.2,3.7,0.517,0.501,5.3,10.6,0.371,1.6,4.4,0.462,7.0,15.1,0.896,4.0,4.4,74.0,74.0,NBA,32.7,0.5,2.5,PG,19.5,2016,2.1,LAC,2.6,4.2
31.0,9.2,0.1,4.3,0.555,0.518,4.1,7.9,0.411,2.0,5.0,0.476,6.1,12.9,0.892,3.8,4.3,61.0,61.0,NBA,31.5,0.7,2.4,PG,18.1,2017,2.0,LAC,2.4,5.0
32.0,7.9,0.2,4.8,0.55,0.532,3.8,7.2,0.38,2.5,6.5,0.46,6.3,13.8,0.919,3.5,3.8,58.0,58.0,NBA,31.8,0.6,2.4,PG,18.6,2018,1.7,HOU,2.2,5.4
33.0,8.2,0.3,3.9,0.508,0.479,3.0,6.3,0.358,2.2,6.1,0.419,5.2,12.4,0.862,3.0,3.5,58.0,58.0,NBA,32.0,0.6,2.5,PG,15.6,2019,2.0,HOU,2.6,4.6
34.0,5.5,0.0,3.5,0.533,0.466,3.1,6.6,0.426,1.8,4.3,0.45,4.9,10.9,0.833,3.6,4.4,11.0,11.0,NBA,29.5,0.2,2.0,PG,15.3,2020,1.8,OKC,2.6,3.6
