age,and1s,astd_pts,drawn_offensive,drawn_shooting,fouls_offensive,fouls_shooting,g,lg_id,mp,own_shots_blk,pct_1,pct_2,pct_3,pct_4,pct_5,plus_minus_net,plus_minus_on,pos,season,team_id,tov_bad_pass,tov_lost_ball
20.0,2.0,66.0,1.0,6.0,2.0,8.0,28.0,NBA,237.0,9.0,99.0,1.0,0.0,0.0,0.0,-10.9,-7.8,PG,2012,MEM,14.0,9.0
21.0,0.0,9.0,1.0,4.0,1.0,3.0,10.0,NBA,59.0,3.0,98.0,2.0,0.0,0.0,0.0,-40.1,-34.8,PG,2013,MEM,3.0,3.0
