age,ast,blk,drb,fg,fg2,fg2a,fg3,fg3a,fga,ft,fta,game_score,lg_id,mp,orb,pf,pts,season,stl,team_id,tov,trb
22.0,0.0,0.0,3.0,3.0,3.0,5.0,0.0,1.0,5.0,5.0,6.0,7.1,NBA,12,3.0,3.0,11.0,2010,2.0,POR,3.0,5.0
24.0,0.0,1.0,2.0,2.0,2.0,5.0,0.0,0.0,5.0,0.0,0.0,4.3,NBA,13,2.0,1.0,4.0,2012,1.0,MEM,1.0,4.0
27.0,2.0,2.0,6.0,4.0,4.0,4.0,0.0,0.0,4.0,2.0,2.0,12.9,NBA,26,2.0,3.0,10.0,2015,2.0,NOP,0.0,8.0
31.0,0.0,0.0,2.0,1.0,0.0,1.0,1.0,1.0,1.0,0.0,0.0,3.3,NBA,6,1.0,0.0,3.0,2019,0.0,SAS,0.0,3.0
