age,ast_per_poss,blk_per_poss,def_rtg,drb_per_poss,fg2_pct,fg2_per_poss,fg2a_per_poss,fg3_pct,fg3_per_poss,fg3a_per_poss,fg_pct,fg_per_poss,fga_per_poss,ft_pct,ft_per_poss,fta_per_poss,g,gs,lg_id,mp,off_rtg,orb_per_poss,pf_per_poss,pos,pts_per_poss,season,stl_per_poss,team_id,tov_per_poss,trb_per_poss
23.0,4.0,1.0,108.0,5.5,0.421,6.2,14.6,0.333,0.1,0.4,0.419,6.3,15.0,0.657,3.0,4.5,51.0,16.0,NBA,767.0,96.0,3.0,5.6,SF,15.7,1994,2.4,CHH,2.9,8.5
24.0,4.2,1.0,105.0,7.1,0.506,4.7,9.4,0.409,2.5,6.1,0.467,7.2,15.5,0.694,2.6,3.8,65.0,62.0,NBA,2014.0,113.0,2.5,4.9,SF,19.6,1995,2.0,CHH,2.2,9.6
25.0,3.6,1.0,111.0,5.4,0.509,4.2,8.2,0.378,2.8,7.4,0.447,7.0,15.6,0.75,3.2,4.2,20.0,20.0,NBA,693.0,108.0,2.0,5.7,SF,19.9,1996,2.0,CHH,3.3,7.4
26.0,4.2,1.1,110.0,6.2,0.368,3.2,8.8,0.353,2.3,6.6,0.362,5.6,15.4,0.75,3.2,4.3,57.0,2.0,NBA,939.0,101.0,2.8,6.8,SF,16.7,1997,1.6,TOT,3.0,9.0
26.0,4.4,1.2,109.0,6.2,0.342,2.9,8.5,0.345,2.1,6.2,0.344,5.1,14.7,0.792,4.7,6.0,28.0,2.0,NBA,482.0,103.0,2.7,6.7,SF,17.0,1997,1.6,CHH,2.8,8.9
26.0,4.0,0.9,112.0,6.2,0.392,3.5,9.0,0.361,2.5,7.0,0.379,6.1,16.0,0.652,1.7,2.6,29.0,0.0,NBA,457.0,98.0,2.9,6.9,SF,16.3,1997,1.6,GSW,3.2,9.0
27.0,3.2,1.8,97.0,5.8,0.468,5.3,11.4,0.354,2.5,7.1,0.424,7.8,18.4,0.734,2.3,3.1,80.0,3.0,NBA,1096.0,109.0,3.9,6.4,SF,20.5,1998,3.1,CHI,2.5,9.7
28.0,3.3,0.8,102.0,6.5,0.346,3.5,10.1,0.389,2.1,5.4,0.361,5.6,15.5,0.81,2.5,3.1,32.0,10.0,NBA,706.0,103.0,2.4,6.1,SF,15.8,1999,3.0,NJN,1.7,8.8
29.0,2.8,1.7,103.0,7.4,0.444,3.2,7.3,0.353,3.2,9.0,0.394,6.4,16.3,0.78,1.5,1.9,74.0,9.0,NBA,1336.0,109.0,2.5,6.7,SF,17.5,2000,2.6,NJN,1.5,9.9
30.0,1.3,0.0,99.0,2.6,0.556,6.5,11.8,0.333,2.6,7.9,0.467,9.2,19.6,0.25,1.3,5.2,4.0,0.0,NBA,41.0,107.0,1.3,10.5,SF,22.3,2001,3.9,CHH,0.0,3.9
