age,ast_per_mp,blk_per_mp,drb_per_mp,fg2_pct,fg2_per_mp,fg2a_per_mp,fg3_pct,fg3_per_mp,fg3a_per_mp,fg_pct,fg_per_mp,fga_per_mp,ft_pct,ft_per_mp,fta_per_mp,g,gs,lg_id,mp,orb_per_mp,pf_per_mp,pos,pts_per_mp,season,stl_per_mp,team_id,tov_per_mp,trb_per_mp
23.0,2.1,1.2,4.3,0.42,3.0,7.1,0.5,0.0,0.1,0.421,3.0,7.1,0.701,2.9,4.2,77.0,9.0,NBA,1407.0,3.4,4.4,C,9.0,2002,0.7,NJN,1.8,7.7
24.0,1.6,0.8,4.4,0.419,2.7,6.3,0.0,0.0,0.1,0.414,2.7,6.4,0.763,3.4,4.5,81.0,66.0,NBA,1900.0,2.6,4.8,C,8.7,2003,0.9,NJN,1.6,7.0
25.0,2.5,0.9,4.2,0.427,2.6,6.2,0.0,0.0,0.0,0.424,2.6,6.2,0.739,2.2,3.0,78.0,78.0,NBA,2220.0,2.3,4.1,C,7.5,2004,1.1,NJN,1.6,6.5
26.0,1.5,1.0,4.7,0.413,2.6,6.3,0.333,0.0,0.1,0.412,2.6,6.4,0.656,1.9,3.0,80.0,80.0,NBA,2542.0,2.2,4.6,C,7.2,2005,1.0,NJN,1.3,6.9
27.0,1.3,0.8,4.7,0.404,1.9,4.7,0.25,0.1,0.2,0.397,2.0,5.0,0.512,0.8,1.6,71.0,70.0,NBA,1895.0,1.8,4.8,C,4.8,2006,0.9,NJN,1.2,6.5
28.0,0.9,0.7,4.4,0.369,1.1,2.9,0.0,0.0,0.0,0.364,1.1,2.9,0.465,1.2,2.5,80.0,78.0,NBA,1844.0,1.8,5.3,PF,3.3,2007,0.8,NJN,1.4,6.2
29.0,0.8,0.8,3.5,0.473,1.6,3.4,0.0,0.0,0.0,0.469,1.6,3.5,0.459,1.0,2.3,74.0,26.0,NBA,1172.0,2.0,6.0,C,4.3,2008,0.7,TOT,1.5,5.5
29.0,1.0,0.4,2.8,0.426,1.2,2.8,0.0,0.0,0.0,0.426,1.2,2.8,0.389,0.7,1.9,43.0,23.0,NBA,684.0,1.8,5.8,C,3.2,2008,0.6,NJN,1.2,4.7
29.0,0.4,1.3,4.4,0.517,2.2,4.3,0.0,0.0,0.1,0.508,2.2,4.4,0.526,1.5,2.8,31.0,3.0,NBA,488.0,2.1,6.2,C,5.9,2008,0.9,MEM,1.8,6.6
30.0,0.9,1.1,3.6,0.314,1.9,6.0,0.0,0.0,0.0,0.314,1.9,6.0,0.464,1.1,2.4,31.0,22.0,NBA,422.0,2.4,6.2,C,4.9,2009,0.8,MIN,1.0,6.0
31.0,1.3,0.6,2.8,0.364,2.5,6.9,0.0,0.0,0.3,0.348,2.5,7.2,0.0,0.0,0.6,24.0,0.0,NBA,115.0,1.6,6.6,C,5.0,2010,0.9,ATL,1.6,4.4
32.0,1.3,0.5,4.4,0.471,2.0,4.2,1.0,0.1,0.1,0.479,2.1,4.3,0.659,1.6,2.5,49.0,28.0,NBA,593.0,1.8,5.9,C,5.8,2011,0.5,ATL,1.6,6.2
33.0,1.2,0.4,4.2,0.4,1.9,4.7,0.0,0.0,0.0,0.4,1.9,4.7,0.467,0.8,1.8,30.0,10.0,NBA,308.0,1.4,4.0,C,4.6,2012,0.5,ATL,1.2,5.6
34.0,0.7,0.9,3.6,0.31,0.8,2.7,0.0,0.0,0.0,0.31,0.8,2.7,0.719,2.2,3.0,38.0,9.0,NBA,384.0,2.1,8.0,C,3.8,2013,1.1,TOT,1.7,5.6
34.0,0.7,0.7,3.4,0.348,0.9,2.5,0.0,0.0,0.0,0.348,0.9,2.5,0.7,2.3,3.3,32.0,7.0,NBA,330.0,2.3,8.1,C,4.0,2013,1.1,BOS,1.7,5.7
34.0,1.3,2.7,4.7,0.167,0.7,4.0,0.0,0.0,0.0,0.167,0.7,4.0,1.0,1.3,1.3,6.0,2.0,NBA,54.0,0.7,7.3,C,2.7,2013,1.3,WAS,1.3,5.3
35.0,0.8,0.2,2.5,0.524,2.3,4.4,0.0,0.0,0.6,0.458,2.3,5.0,0.75,0.6,0.8,22.0,1.0,NBA,172.0,1.5,6.3,C,5.2,2014,1.7,BRK,1.5,4.0
