age,ast_per_g,blk_per_g,drb_per_g,efg_pct,fg2_pct,fg2_per_g,fg2a_per_g,fg3_pct,fg3_per_g,fg3a_per_g,fg_pct,fg_per_g,fga_per_g,ft_pct,ft_per_g,fta_per_g,g,gs,lg_id,mp_per_g,orb_per_g,pf_per_g,pos,pts_per_g,season,stl_per_g,team_id,tov_per_g,trb_per_g
19.0,0.1,0.4,0.3,0.455,0.455,0.3,0.7,0.0,0.0,0.0,0.455,0.3,0.7,0.556,0.3,0.6,16.0,0.0,NBA,4.5,0.1,1.0,C,0.9,2005,0.1,SEA,0.3,0.3
20.0,0.2,1.2,3.6,0.515,0.515,2.6,5.1,0.0,0.0,0.0,0.515,2.6,5.1,0.582,1.1,1.9,47.0,20.0,NBA,21.0,2.0,3.0,C,6.4,2006,0.3,SEA,1.0,5.6
22.0,0.1,0.8,1.5,0.353,0.353,0.8,2.1,0.0,0.0,0.0,0.353,0.8,2.1,1.0,0.3,0.3,8.0,4.0,NBA,12.3,0.8,2.0,C,1.8,2008,0.6,SEA,1.3,2.3
23.0,0.3,0.7,2.6,0.521,0.521,1.4,2.7,0.0,0.0,0.0,0.521,1.4,2.7,0.75,0.5,0.6,26.0,10.0,NBA,13.2,0.8,1.9,C,3.3,2009,0.2,OKC,0.3,3.4
