age,ast_per_mp,blk_per_mp,drb_per_mp,fg2_pct,fg2_per_mp,fg2a_per_mp,fg3_pct,fg3_per_mp,fg3a_per_mp,fg_pct,fg_per_mp,fga_per_mp,ft_pct,ft_per_mp,fta_per_mp,g,gs,lg_id,mp,orb_per_mp,pf_per_mp,pos,pts_per_mp,season,stl_per_mp,team_id,tov_per_mp,trb_per_mp
27.0,2.4,0.4,2.8,0.517,3.7,7.1,0.321,1.9,6.0,0.428,5.6,13.1,0.809,1.9,2.4,68.0,5.0,NBA,1016.0,1.7,2.8,SF,15.1,2017,1.0,NYK,1.8,4.5
28.0,0.0,0.0,0.0,0.0,0.0,36.0,0.0,0.0,0.0,0.0,0.0,36.0,0.0,0.0,0.0,1.0,0.0,NBA,2.0,0.0,0.0,SF,0.0,2018,0.0,NYK,0.0,0.0
