age,ast_per_mp,blk_per_mp,drb_per_mp,fg2_pct,fg2_per_mp,fg2a_per_mp,fg3_pct,fg3_per_mp,fg3a_per_mp,fg_pct,fg_per_mp,fga_per_mp,ft_pct,ft_per_mp,fta_per_mp,g,gs,lg_id,mp,orb_per_mp,pf_per_mp,pos,pts_per_mp,season,stl_per_mp,team_id,tov_per_mp,trb_per_mp
24.0,0.4,2.5,6.2,0.486,3.3,6.8,0.0,0.0,0.0,0.483,3.3,6.9,0.518,1.4,2.7,49.0,30.0,NBA,760.0,3.1,5.9,C,8.0,2003,1.0,MIL,1.3,9.3
25.0,0.8,3.0,6.3,0.526,5.2,9.9,0.0,0.0,0.0,0.524,5.2,10.0,0.492,1.7,3.4,75.0,0.0,NBA,1260.0,3.6,5.3,C,12.1,2004,1.5,MIL,1.3,9.9
26.0,0.6,2.1,8.3,0.539,4.9,9.1,0.0,0.0,0.0,0.539,4.9,9.1,0.538,2.2,4.0,81.0,81.0,NBA,1783.0,5.3,4.5,C,12.0,2005,0.9,MIL,1.6,13.6
27.0,1.0,1.7,5.7,0.555,7.0,12.5,0.0,0.0,0.0,0.553,7.0,12.6,0.461,1.7,3.6,74.0,0.0,NBA,885.0,3.7,7.0,C,15.6,2006,1.0,MIL,1.4,9.4
28.0,1.2,1.4,6.5,0.476,4.6,9.7,0.0,0.0,0.0,0.474,4.6,9.8,0.467,1.8,3.9,54.0,8.0,NBA,840.0,4.0,6.0,C,11.1,2007,0.9,MIL,2.1,10.5
29.0,0.7,1.6,5.2,0.418,4.3,10.3,0.0,0.0,0.1,0.416,4.3,10.4,0.524,2.2,4.2,51.0,4.0,NBA,534.0,4.5,5.6,C,10.9,2008,1.3,MIL,2.3,9.7
30.0,1.5,1.6,6.1,0.483,4.5,9.3,0.0,0.0,0.1,0.48,4.5,9.3,0.544,1.4,2.6,67.0,26.0,NBA,941.0,3.6,6.2,C,10.4,2009,1.2,MIL,1.6,9.8
31.0,1.4,1.5,6.2,0.438,4.5,10.2,0.0,0.0,0.0,0.438,4.5,10.2,0.4,1.1,2.9,32.0,6.0,NBA,314.0,4.4,7.2,C,10.1,2010,1.0,MIL,1.7,10.5
32.0,1.1,2.3,5.0,0.422,4.2,10.0,0.0,0.0,0.1,0.419,4.2,10.0,0.37,0.8,2.1,42.0,9.0,NBA,463.0,5.5,7.1,C-PF,9.2,2011,1.0,TOT,2.3,10.5
32.0,1.3,2.2,4.0,0.425,4.5,10.5,0.0,0.0,0.1,0.42,4.5,10.7,0.357,0.6,1.7,28.0,4.0,NBA,297.0,6.4,7.6,C,9.6,2011,1.2,GSW,2.5,10.4
32.0,0.7,2.4,6.7,0.415,3.7,8.9,0.0,0.0,0.0,0.415,3.7,8.9,0.385,1.1,2.8,14.0,5.0,NBA,166.0,3.9,6.1,PF,8.5,2011,0.7,NJN,1.7,10.6
33.0,0.0,2.8,11.1,0.0,0.0,5.5,0.0,0.0,0.0,0.0,0.0,5.5,0.0,0.0,5.5,2.0,0.0,NBA,13.0,2.8,11.1,C,0.0,2012,2.8,NYK,2.8,13.8
