age,ast_per_g,blk_per_g,drb_per_g,efg_pct,fg2_pct,fg2_per_g,fg2a_per_g,fg3_pct,fg3_per_g,fg3a_per_g,fg_pct,fg_per_g,fga_per_g,ft_pct,ft_per_g,fta_per_g,g,gs,lg_id,mp_per_g,orb_per_g,pf_per_g,pos,pts_per_g,season,stl_per_g,team_id,tov_per_g,trb_per_g
22.0,1.3,0.0,0.8,0.545,0.5,0.5,1.0,0.4,0.3,0.8,0.455,0.8,1.8,0.0,0.0,0.0,6.0,0.0,NBA,4.7,0.0,0.3,SG,2.0,2018,0.2,OKC,0.3,0.8
23.0,1.2,0.1,1.9,0.45,0.405,0.8,1.9,0.348,0.4,1.2,0.383,1.2,3.2,0.5,0.2,0.3,19.0,3.0,NBA,10.7,0.5,1.0,SG,3.0,2019,0.3,ATL,0.8,2.5
