age,ast,ast_per_g,blk,college_id,fg,fg3,fg3_pct,fg3a,fg_pct,fga,ft,ft_pct,fta,g,mp,mp_per_g,orb,pf,pts,pts_per_g,season,stl,tov,trb,trb_per_g
19.0,49.0,1.5,5.0,RHODEISLE,105.0,30.0,0.319,94.0,0.371,283.0,65.0,0.714,91.0,33.0,893.0,27.1,15.0,105.0,305.0,9.2,2015,46.0,58.0,80.0,2.4
20.0,82.0,2.6,8.0,RHODEISLE,148.0,41.0,0.347,118.0,0.397,373.0,99.0,0.75,132.0,32.0,1137.0,35.5,14.0,80.0,436.0,13.6,2016,38.0,62.0,109.0,3.4
21.0,70.0,2.0,6.0,RHODEISLE,142.0,46.0,0.346,133.0,0.419,339.0,111.0,0.75,148.0,35.0,1074.0,30.7,34.0,90.0,441.0,12.6,2017,36.0,54.0,100.0,2.9
22.0,80.0,2.4,7.0,RHODEISLE,191.0,75.0,0.414,181.0,0.427,447.0,115.0,0.821,140.0,34.0,1128.0,33.2,32.0,78.0,572.0,16.8,2018,50.0,59.0,119.0,3.5
