age,ast_pct,blk_pct,bpm,bpm-dum,dbpm,drb_pct,dws,fg3a_per_fga_pct,fta_per_fga_pct,g,lg_id,mp,obpm,orb_pct,ows,per,pos,season,stl_pct,team_id,tov_pct,trb_pct,ts_pct,usg_pct,vorp,ws,ws-dum,ws_per_48
20.0,7.1,1.1,-2.8,0.0,-0.4,20.2,1.7,0.294,0.188,80.0,NBA,1382.0,-2.4,5.0,0.6,11.6,PF,2016,1.0,UTA,12.1,12.6,0.517,17.9,-0.3,2.3,0.0,0.079
21.0,9.5,1.4,-3.0,0.0,-0.1,18.1,1.6,0.465,0.18,71.0,NBA,1158.0,-3.0,4.9,-0.9,9.9,PF,2017,1.2,UTA,11.9,11.7,0.464,21.7,-0.3,0.8,0.0,0.031
22.0,10.1,2.0,-0.8,0.0,-1.4,23.5,1.2,0.396,0.26,73.0,NBA,1391.0,0.6,4.5,2.7,17.9,PF,2018,1.1,DEN,9.1,14.0,0.591,21.1,0.4,3.9,0.0,0.135
23.0,11.3,1.8,-3.3,0.0,-0.7,19.6,1.4,0.404,0.234,64.0,NBA,1120.0,-2.6,4.2,-0.2,12.7,PF,2019,1.3,DEN,11.1,11.9,0.5,23.4,-0.4,1.2,0.0,0.05
24.0,8.6,1.1,-0.8,0.0,0.1,32.9,0.2,0.463,0.171,11.0,NBA,223.0,-0.9,9.1,0.3,12.7,PF,2020,0.4,SAS,17.0,20.6,0.578,9.8,0.1,0.4,0.0,0.093
