age,ast,blk,drb,fg,fg2,fg2a,fg3,fg3a,fga,ft,fta,game_score,lg_id,mp,orb,pf,pts,season,stl,team_id,tov,trb
20.0,3.0,2.0,4.0,3.0,3.0,6.0,1.0,1.0,7.0,4.0,5.0,6.3,NBA,21,5.0,6.0,10.0,2018,2.0,POR,3.0,8.0
21.0,3.0,1.0,9.0,4.0,4.0,6.0,1.0,2.0,6.0,3.0,3.0,9.7,NBA,21,4.0,5.0,11.0,2019,2.0,TOT,3.0,11.0
21.0,1.0,0.0,9.0,4.0,4.0,6.0,1.0,2.0,6.0,3.0,3.0,9.7,NBA,21,4.0,5.0,11.0,2019,1.0,POR,3.0,11.0
21.0,3.0,1.0,4.0,2.0,2.0,4.0,0.0,1.0,5.0,0.0,2.0,8.6,NBA,18,3.0,3.0,4.0,2019,2.0,SAC,1.0,7.0
22.0,0.0,1.0,2.0,1.0,1.0,1.0,0.0,0.0,1.0,1.0,2.0,1.0,NBA,5,1.0,1.0,2.0,2020,1.0,SAC,2.0,2.0
