age,ast_per_mp,blk_per_mp,drb_per_mp,fg2_pct,fg2_per_mp,fg2a_per_mp,fg3_pct,fg3_per_mp,fg3a_per_mp,fg_pct,fg_per_mp,fga_per_mp,ft_pct,ft_per_mp,fta_per_mp,g,gs,lg_id,mp,orb_per_mp,pf_per_mp,pos,pts_per_mp,season,stl_per_mp,team_id,tov_per_mp,trb_per_mp
20.0,2.7,0.6,7.4,0.442,4.4,9.9,0.125,0.2,1.5,0.4,4.6,11.4,0.667,2.3,3.4,27.0,3.0,NBA,189.0,2.9,7.0,PF,11.6,2018,1.0,POR,3.4,10.3
21.0,2.2,0.2,9.5,0.37,3.4,9.3,0.143,0.2,1.4,0.34,3.6,10.7,0.667,1.2,1.8,21.0,0.0,NBA,178.0,3.4,5.7,PF,8.7,2019,1.2,TOT,3.6,12.9
21.0,1.7,0.0,9.7,0.333,3.2,9.7,0.2,0.2,1.2,0.318,3.5,10.9,0.857,1.5,1.7,18.0,0.0,NBA,145.0,3.2,5.5,PF,8.7,2019,1.0,POR,4.0,12.9
21.0,4.4,1.1,8.7,0.571,4.4,7.6,0.0,0.0,2.2,0.444,4.4,9.8,0.0,0.0,2.2,3.0,0.0,NBA,33.0,4.4,6.5,PF,8.7,2019,2.2,SAC,2.2,13.1
22.0,0.0,6.5,9.8,0.5,3.3,6.5,0.0,0.0,0.0,0.5,3.3,6.5,0.5,3.3,6.5,4.0,0.0,NBA,11.0,3.3,9.8,PF,9.8,2020,3.3,SAC,9.8,13.1
