age,ast,ast_per_g,blk,college_id,fg,fg3,fg3_pct,fg3a,fg_pct,fga,ft,ft_pct,fta,g,mp,mp_per_g,orb,pf,pts,pts_per_g,season,stl,tov,trb,trb_per_g
18.0,10.0,0.3,24.0,DREXEL,144.0,0.0,0.0,0.0,0.502,287.0,107.0,0.563,190.0,29.0,820.0,28.3,0.0,111.0,395.0,13.6,1993,13.0,75.0,330.0,11.4
19.0,20.0,0.7,29.0,DREXEL,154.0,0.0,0.0,0.0,0.52,296.0,110.0,0.545,202.0,30.0,875.0,29.2,0.0,103.0,418.0,13.9,1994,10.0,76.0,371.0,12.4
20.0,36.0,1.2,38.0,DREXEL,216.0,0.0,0.0,3.0,0.563,384.0,152.0,0.714,213.0,30.0,984.0,32.8,0.0,103.0,584.0,19.5,1995,34.0,102.0,404.0,13.5
21.0,53.0,1.7,30.0,DREXEL,219.0,7.0,0.333,21.0,0.595,368.0,182.0,0.714,255.0,31.0,972.0,31.4,0.0,83.0,627.0,20.2,1996,35.0,87.0,409.0,13.2
