age,ast,blk,drb,fg,fg2,fg2a,fg3,fg3a,fga,ft,fta,game_score,lg_id,mp,orb,pf,pts,season,stl,team_id,tov,trb
22.0,6.0,1.0,3.0,10.0,8.0,14.0,6.0,9.0,18.0,6.0,6.0,20.2,NBA,0.0,3.0,4.0,26.0,1994,3.0,LAC,4.0,5.0
23.0,10.0,1.0,6.0,9.0,8.0,14.0,4.0,10.0,18.0,12.0,14.0,22.3,NBA,0.0,3.0,5.0,25.0,1995,3.0,LAC,6.0,6.0
24.0,12.0,2.0,4.0,9.0,5.0,10.0,6.0,9.0,18.0,9.0,13.0,26.9,NBA,0.0,2.0,6.0,31.0,1996,5.0,LAC,8.0,5.0
25.0,8.0,1.0,4.0,8.0,5.0,12.0,4.0,8.0,15.0,8.0,8.0,22.1,NBA,0.0,2.0,5.0,25.0,1997,2.0,LAC,4.0,4.0
26.0,9.0,1.0,6.0,8.0,7.0,10.0,4.0,5.0,12.0,5.0,8.0,21.4,NBA,0.0,2.0,5.0,21.0,1998,4.0,SAC,4.0,6.0
27.0,5.0,1.0,3.0,4.0,3.0,6.0,2.0,4.0,10.0,2.0,2.0,7.2,NBA,0.0,2.0,4.0,9.0,1999,1.0,TOT,2.0,4.0
27.0,1.0,0.0,0.0,2.0,1.0,2.0,1.0,2.0,4.0,0.0,0.0,3.4,NBA,0.0,2.0,1.0,5.0,1999,1.0,SAC,2.0,2.0
27.0,5.0,1.0,3.0,4.0,3.0,6.0,2.0,4.0,10.0,2.0,2.0,7.2,NBA,0.0,1.0,4.0,9.0,1999,1.0,VAN,2.0,4.0
