age,ast,ast_per_g,blk,college_id,fg,fg3,fg3_pct,fg3a,fg_pct,fga,ft,ft_pct,fta,g,mp,mp_per_g,orb,pf,pts,pts_per_g,season,stl,tov,trb,trb_per_g
19.0,3.0,0.2,3.0,UNC,17.0,0.0,0.0,0.0,0.472,36.0,13.0,0.765,17.0,15.0,0.0,0.0,0.0,0.0,47.0,3.1,2009,3.0,8.0,30.0,2.0
20.0,7.0,0.3,24.0,UNC,100.0,0.0,0.0,2.0,0.521,192.0,52.0,0.722,72.0,27.0,468.0,17.3,52.0,49.0,252.0,9.3,2010,14.0,34.0,125.0,4.6
21.0,23.0,0.6,45.0,UNC,211.0,0.0,0.0,0.0,0.549,384.0,161.0,0.759,212.0,37.0,1041.0,28.1,107.0,100.0,583.0,15.8,2011,27.0,50.0,268.0,7.2
22.0,36.0,0.9,58.0,UNC,220.0,0.0,0.0,0.0,0.553,398.0,181.0,0.808,224.0,38.0,1070.0,28.2,146.0,102.0,621.0,16.3,2012,34.0,73.0,365.0,9.6
