age,ast_pct,blk_pct,bpm,bpm-dum,dbpm,drb_pct,dws,fg3a_per_fga_pct,fta_per_fga_pct,g,lg_id,mp,obpm,orb_pct,ows,per,pos,season,stl_pct,team_id,tov_pct,trb_pct,ts_pct,usg_pct,vorp,ws,ws-dum,ws_per_48
23.0,7.4,2.8,-2.3,0.0,0.4,16.7,1.2,0.007,0.281,77.0,NBA,2033.0,-2.7,8.7,0.8,11.0,C,2013,0.9,CLE,13.1,12.5,0.486,15.9,-0.1,2.0,0.0,0.048
24.0,5.6,3.0,-1.7,0.0,0.2,19.6,1.1,0.003,0.417,70.0,NBA,1049.0,-1.9,10.8,1.5,15.4,C,2014,0.9,CLE,14.9,15.1,0.581,17.1,0.1,2.6,0.0,0.12
25.0,10.8,2.3,0.9,0.0,0.4,20.5,2.0,0.0,0.3,82.0,NBA,1731.0,0.4,9.1,4.5,18.9,C,2015,0.5,BOS,9.8,14.7,0.594,19.6,1.2,6.5,0.0,0.179
26.0,6.6,2.4,-4.4,0.0,-1.1,17.6,0.9,0.0,0.372,60.0,NBA,710.0,-3.2,9.1,0.8,15.4,C,2016,0.7,BOS,12.0,13.3,0.539,23.0,-0.4,1.7,0.0,0.114
27.0,12.2,3.3,-2.5,0.0,0.8,17.0,0.6,0.006,0.247,51.0,NBA,525.0,-3.3,9.2,0.5,13.0,C,2017,0.7,BOS,10.2,13.2,0.508,16.5,-0.1,1.0,0.0,0.094
28.0,6.7,2.5,-1.6,0.0,-0.5,19.4,0.9,0.084,0.237,66.0,NBA,1109.0,-1.1,11.0,2.0,16.0,C,2018,0.7,TOT,11.3,15.2,0.598,16.4,0.1,2.9,0.0,0.126
28.0,6.5,2.2,-2.5,0.0,-0.6,20.0,0.6,0.114,0.262,42.0,NBA,703.0,-1.9,9.4,1.0,15.3,C,2018,0.6,BRK,12.1,14.7,0.587,17.9,-0.1,1.5,0.0,0.105
28.0,7.0,2.9,-0.1,0.0,-0.4,18.4,0.3,0.019,0.181,24.0,NBA,406.0,0.3,13.6,1.1,17.1,C,2018,0.9,MIL,9.6,16.0,0.622,13.9,0.2,1.4,0.0,0.163
29.0,6.7,3.1,-2.2,0.0,-1.2,15.7,0.1,0.033,0.6,6.0,NBA,93.0,-1.0,12.9,0.2,17.3,C,2019,0.5,TOT,9.5,14.2,0.607,20.1,0.0,0.3,0.0,0.167
29.0,10.6,0.0,-7.2,0.0,-0.4,39.1,0.0,0.5,0.0,2.0,NBA,11.0,-6.8,18.7,0.0,1.5,C,2019,0.0,ATL,0.0,28.7,0.0,7.4,0.0,0.0,0.0,-0.013
29.0,6.2,3.5,-1.5,0.0,-1.3,12.5,0.1,0.0,0.643,4.0,NBA,82.0,-0.3,12.1,0.2,19.4,C,2019,0.6,MEM,10.0,12.3,0.64,21.8,0.0,0.3,0.0,0.191
