lg_id,salary,season,team_name
NBA,398762.0,2006,Miami Heat
NBA,744551.0,2007,Miami Heat
NBA,973328.0,2008,Miami Heat
NBA,188558.0,2011,Phoenix Suns
NBA,185588.0,2012,Golden State Warriors
NBA,358600.0,2013,Washington Wizards
NBA,107676.0,2015,Phoenix Suns
