age,ast,blk,drb,fg,fg2,fg2a,fg3,fg3a,fga,ft,fta,game_score,lg_id,mp,orb,pf,pts,season,stl,team_id,tov,trb
23.0,1.0,0.0,6.0,3.0,3.0,5.0,0.0,0.0,5.0,3.0,3.0,7.0,NBA,0.0,2.0,3.0,9.0,1980,1.0,MIL,2.0,6.0
24.0,1.0,0.0,0.0,3.0,3.0,9.0,0.0,0.0,9.0,2.0,2.0,0.0,NBA,0.0,0.0,1.0,7.0,1981,1.0,MIL,1.0,4.0
25.0,1.0,2.0,0.0,2.0,2.0,4.0,0.0,0.0,4.0,1.0,2.0,0.0,NBA,0.0,0.0,2.0,4.0,1982,0.0,MIL,1.0,4.0
27.0,3.0,2.0,8.0,8.0,8.0,16.0,0.0,0.0,16.0,4.0,4.0,11.7,NBA,0.0,6.0,5.0,16.0,1984,1.0,DAL,2.0,14.0
31.0,2.0,0.0,3.0,1.0,1.0,3.0,0.0,0.0,3.0,3.0,4.0,3.3,NBA,0.0,2.0,5.0,5.0,1988,0.0,NYK,0.0,3.0
