age,ast,blk,drb,efg_pct,fg,fg2,fg2_pct,fg2a,fg3,fg3_pct,fg3a,fg_pct,fga,ft,ft_pct,fta,g,gs,lg_id,mp,orb,pf,pos,pts,season,stl,team_id,tov,trb
22.0,3.0,1.0,5.0,0.478,9.0,5.0,0.333,15.0,4.0,0.5,8.0,0.391,23.0,2.0,0.5,4.0,8.0,0.0,NBA,41.0,5.0,2.0,SG,24.0,1996,3.0,ATL,6.0,10.0
23.0,13.0,4.0,8.0,0.349,21.0,19.0,0.404,47.0,2.0,0.125,16.0,0.333,63.0,11.0,0.5,22.0,22.0,2.0,NBA,154.0,7.0,17.0,SG,55.0,1997,10.0,ATL,16.0,15.0
