age,ast,blk,drb,fg,fg2,fg2a,fg3,fg3a,fga,ft,fta,game_score,lg_id,mp,orb,pf,pts,season,stl,team_id,tov,trb
22.0,1.0,1.0,1.0,3.0,2.0,6.0,2.0,3.0,6.0,1.0,2.0,7.7,NBA,0.0,2.0,2.0,8.0,1996,1.0,ATL,2.0,3.0
23.0,2.0,3.0,1.0,4.0,4.0,7.0,1.0,3.0,8.0,2.0,4.0,7.1,NBA,0.0,3.0,3.0,8.0,1997,3.0,ATL,3.0,4.0
