age,ast_per_g,blk_per_g,drb_per_g,efg_pct,fg2_pct,fg2_per_g,fg2a_per_g,fg3_pct,fg3_per_g,fg3a_per_g,fg_pct,fg_per_g,fga_per_g,ft_pct,ft_per_g,fta_per_g,g,gs,lg_id,mp_per_g,orb_per_g,pf_per_g,pos,pts_per_g,season,stl_per_g,team_id,tov_per_g,trb_per_g
22.0,0.4,0.1,0.6,0.478,0.333,0.6,1.9,0.5,0.5,1.0,0.391,1.1,2.9,0.5,0.3,0.5,8.0,0.0,NBA,5.1,0.6,0.3,SG,3.0,1996,0.4,ATL,0.8,1.3
23.0,0.6,0.2,0.4,0.349,0.404,0.9,2.1,0.125,0.1,0.7,0.333,1.0,2.9,0.5,0.5,1.0,22.0,2.0,NBA,7.0,0.3,0.8,SG,2.5,1997,0.5,ATL,0.7,0.7
