age,ast_pct,blk_pct,bpm,bpm-dum,dbpm,drb_pct,dws,fg3a_per_fga_pct,fta_per_fga_pct,g,lg_id,mp,obpm,orb_pct,ows,per,pos,season,stl_pct,team_id,tov_pct,trb_pct,ts_pct,usg_pct,vorp,ws,ws-dum,ws_per_48
23.0,7.4,1.2,-2.7,0.0,0.3,13.0,0.7,0.305,0.271,47.0,NBA,781.0,-3.0,2.3,-0.2,9.1,SG,2015,2.1,BRK,10.3,7.7,0.459,15.3,-0.1,0.5,0.0,0.031
24.0,13.9,1.2,-2.6,0.0,-1.3,11.5,0.4,0.376,0.292,62.0,NBA,982.0,-1.4,2.6,0.2,11.3,SG,2016,2.0,BRK,12.9,7.0,0.5,18.9,-0.2,0.6,0.0,0.031
26.0,8.7,0.0,-8.4,0.0,-1.7,14.4,0.0,0.714,0.0,4.0,NBA,31.0,-6.7,3.7,-0.1,-1.2,SG,2018,0.0,HOU,22.2,9.1,0.357,12.8,-0.1,0.0,0.0,-0.063
