lg_id,salary,season,team_name
NBA,1028400.0,2012,San Antonio Spurs
NBA,1105560.0,2013,San Antonio Spurs
NBA,1120920.0,2014,San Antonio Spurs
NBA,2023261.0,2015,San Antonio Spurs
NBA,7000000.0,2016,Toronto Raptors
NBA,7330000.0,2017,Toronto Raptors
NBA,7630000.0,2018,Indiana Pacers
NBA,7945000.0,2019,Indiana Pacers
