age,ast,ast_per_g,blk,college_id,fg,fg3,fg3_pct,fg3a,fg_pct,fga,ft,ft_pct,fta,g,mp,mp_per_g,orb,pf,pts,pts_per_g,season,stl,tov,trb,trb_per_g
19.0,45.0,1.2,68.0,SYRACUSE,173.0,0.0,0.0,0.0,0.56,309.0,107.0,0.686,156.0,38.0,1163.0,30.6,0.0,120.0,453.0,11.9,1987,45.0,67.0,333.0,8.8
20.0,76.0,2.2,57.0,SYRACUSE,176.0,1.0,0.167,6.0,0.587,300.0,121.0,0.63,192.0,35.0,1133.0,32.4,0.0,84.0,474.0,13.5,1988,45.0,76.0,384.0,11.0
21.0,106.0,2.9,127.0,SYRACUSE,227.0,0.0,0.0,8.0,0.575,395.0,171.0,0.692,247.0,37.0,1226.0,33.1,0.0,120.0,625.0,16.9,1989,46.0,89.0,422.0,11.4
22.0,95.0,2.9,67.0,SYRACUSE,194.0,15.0,0.366,41.0,0.551,352.0,188.0,0.715,263.0,33.0,1166.0,35.3,0.0,102.0,591.0,17.9,1990,51.0,90.0,398.0,12.1
