article_url,date,headline
https://valleyofthesuns.com/2019/09/27/the-phoenix-suns-longest-game-in-history/,2019/09/27,Sun-N-Gun: In honor of the Arizona Diamondbacks: the Phoenix Suns' longest game in history
https://raptorsrapture.com/2019/06/26/toronto-raptors-kawhi-leonard-staying/,2019/06/26,Raptors Rapture: 74 reasons why Kawhi Leonard is staying with the Toronto Raptors
https://valleyofthesuns.com/2019/05/30/john-gambadoro-julius-randle-likes-phoenix-how-would-he-fit/,2019/05/30,Sun-N-Gun: John Gambadoro: Julius Randle likes Phoenix. How would he fit?
