lg_id,salary,season,team_name
NBA,1650000.0,1989,Los Angeles Clippers
NBA,2100000.0,1990,Los Angeles Clippers
NBA,2200000.0,1991,Los Angeles Clippers
NBA,2300000.0,1992,Los Angeles Clippers
NBA,2600000.0,1993,Los Angeles Clippers
NBA,3250000.0,1994,Los Angeles Clippers
NBA,1000000.0,1995,Phoenix Suns
NBA,6833000.0,1996,Phoenix Suns
NBA,6833000.0,1997,Phoenix Suns
NBA,6833333.0,1998,Phoenix Suns
NBA,6833000.0,1999,Phoenix Suns
NBA,6833333.0,2000,Milwaukee Bucks
NBA,6830000.0,2001,Milwaukee Bucks
NBA,1200000.0,2001,Utah Jazz
NBA,1500000.0,2002,Dallas Mavericks
NBA,900000.0,2003,Dallas Mavericks
