age,ast,ast_per_g,blk,college_id,fg,fg3,fg3_pct,fg3a,fg_pct,fga,ft,ft_pct,fta,g,mp,mp_per_g,orb,pf,pts,pts_per_g,season,stl,tov,trb,trb_per_g
19.0,17.0,0.6,21.0,TOLEDO,109.0,0.0,0.0,0.0,0.556,196.0,58.0,0.542,107.0,27.0,795.0,29.4,0.0,77.0,276.0,10.2,1995,5.0,42.0,180.0,6.7
20.0,45.0,1.4,20.0,TOLEDO,188.0,0.0,0.0,1.0,0.519,362.0,86.0,0.642,134.0,32.0,1049.0,32.8,0.0,94.0,462.0,14.4,1996,13.0,79.0,179.0,5.6
21.0,41.0,1.5,30.0,TOLEDO,162.0,0.0,0.0,0.0,0.589,275.0,117.0,0.574,204.0,27.0,880.0,32.6,0.0,80.0,441.0,16.3,1997,19.0,80.0,242.0,9.0
22.0,33.0,1.2,39.0,TOLEDO,138.0,0.0,0.0,1.0,0.529,261.0,107.0,0.611,175.0,27.0,0.0,0.0,0.0,0.0,383.0,14.2,1998,16.0,0.0,270.0,10.0
