age,ast_per_mp,blk_per_mp,drb_per_mp,fg2_pct,fg2_per_mp,fg2a_per_mp,fg3_pct,fg3_per_mp,fg3a_per_mp,fg_pct,fg_per_mp,fga_per_mp,ft_pct,ft_per_mp,fta_per_mp,g,gs,lg_id,mp,orb_per_mp,pf_per_mp,pos,pts_per_mp,season,stl_per_mp,team_id,tov_per_mp,trb_per_mp
21.0,2.1,1.1,5.5,0.466,2.4,5.2,0.344,2.0,5.7,0.402,4.4,10.9,0.711,1.4,2.0,46.0,11.0,NBA,805.0,3.2,3.0,PF,12.2,2019,1.2,ATL,1.4,8.7
22.0,3.1,1.2,7.0,0.447,4.3,9.6,0.214,0.6,2.9,0.393,4.9,12.5,0.857,3.7,4.3,11.0,0.0,NBA,176.0,5.5,2.5,PF,14.1,2020,1.8,GSW,2.9,12.5
