age,ast_per_poss,blk_per_poss,def_rtg,drb_per_poss,fg2_pct,fg2_per_poss,fg2a_per_poss,fg3_pct,fg3_per_poss,fg3a_per_poss,fg_pct,fg_per_poss,fga_per_poss,ft_pct,ft_per_poss,fta_per_poss,g,gs,lg_id,mp,off_rtg,orb_per_poss,pf_per_poss,pos,pts_per_poss,season,stl_per_poss,team_id,tov_per_poss,trb_per_poss
19.0,0.0,0.0,95.0,0.0,1.0,42.4,42.4,0.0,0.0,0.0,1.0,42.4,42.4,1.0,21.2,21.2,3.0,0.0,NBA,5.0,170.0,0.0,0.0,C,105.9,2005,10.6,NYK,10.6,0.0
20.0,1.8,2.2,109.0,8.3,0.544,8.4,15.4,0.0,0.0,0.0,0.544,8.4,15.4,0.753,4.1,5.5,55.0,0.0,NBA,740.0,105.0,4.8,9.1,C,20.9,2006,1.2,NYK,4.4,13.1
21.0,2.6,0.0,101.0,8.3,0.457,8.3,18.2,0.0,0.0,0.0,0.457,8.3,18.2,0.9,4.7,5.2,11.0,2.0,NBA,103.0,93.0,3.1,8.3,C,21.3,2007,1.0,SAS,5.2,11.4
