age,and1s,astd_pts,drawn_offensive,drawn_shooting,fouls_offensive,fouls_shooting,g,lg_id,mp,own_shots_blk,pct_1,pct_2,pct_3,pct_4,pct_5,plus_minus_net,plus_minus_on,pos,season,team_id,tov_bad_pass,tov_lost_ball
19.0,2.0,0.0,0.0,2.0,0.0,0.0,3.0,NBA,5.0,0.0,0.0,0.0,0.0,100.0,0.0,28.5,25.6,C,2005,NYK,0.0,0.0
20.0,12.0,56.0,2.0,33.0,19.0,60.0,55.0,NBA,740.0,29.0,0.0,0.0,0.0,35.0,65.0,18.0,7.7,C,2006,NYK,10.0,20.0
21.0,2.0,10.0,1.0,5.0,3.0,11.0,11.0,NBA,103.0,2.0,0.0,0.0,0.0,40.0,60.0,-27.3,-17.3,C,2007,SAS,2.0,2.0
