age,ast,blk,drb,efg_pct,fg,fg2,fg2_pct,fg2a,fg3,fg3_pct,fg3a,fg_pct,fga,ft,ft_pct,fta,g,gs,lg_id,mp,orb,pf,pos,pts,season,stl,team_id,tov,trb
19.0,0.0,0.0,0.0,1.0,4.0,4.0,1.0,4.0,0.0,0.0,0.0,1.0,4.0,2.0,1.0,2.0,3.0,0.0,NBA,5.0,0.0,0.0,C,10.0,2005,1.0,NYK,1.0,0.0
20.0,25.0,31.0,116.0,0.544,117.0,117.0,0.544,215.0,0.0,0.0,0.0,0.544,215.0,58.0,0.753,77.0,55.0,0.0,NBA,740.0,67.0,127.0,C,292.0,2006,17.0,NYK,62.0,183.0
21.0,5.0,0.0,16.0,0.457,16.0,16.0,0.457,35.0,0.0,0.0,0.0,0.457,35.0,9.0,0.9,10.0,11.0,2.0,NBA,103.0,6.0,16.0,C,41.0,2007,2.0,SAS,10.0,22.0
