age,ast,blk,drb,fg,fg2,fg2a,fg3,fg3a,fga,ft,fta,game_score,lg_id,mp,orb,pf,pts,season,stl,team_id,tov,trb
19.0,0.0,0.0,0.0,2.0,2.0,2.0,0.0,0.0,2.0,2.0,2.0,6.4,NBA,0.0,0.0,0.0,6.0,2005,1.0,NYK,1.0,0.0
20.0,3.0,4.0,7.0,8.0,8.0,13.0,0.0,0.0,13.0,9.0,10.0,20.1,NBA,33.0,7.0,5.0,22.0,2006,2.0,NYK,5.0,9.0
21.0,2.0,0.0,7.0,5.0,5.0,11.0,0.0,0.0,11.0,2.0,3.0,8.3,NBA,29.0,4.0,5.0,12.0,2007,1.0,SAS,3.0,10.0
