age,ast,blk,drb,efg_pct,fg,fg2,fg2_pct,fg2a,fg3,fg3_pct,fg3a,fg_pct,fga,ft,ft_pct,fta,g,gs,lg_id,mp,orb,pf,pos,pts,season,stl,team_id,tov,trb
23.0,25.0,23.0,104.0,0.454,93.0,93.0,0.456,204.0,0.0,0.0,1.0,0.454,205.0,33.0,0.516,64.0,52.0,0.0,NBA,528.0,51.0,68.0,C,219.0,1981,20.0,PHI,29.0,155.0
24.0,32.0,27.0,180.0,0.487,149.0,149.0,0.49,304.0,0.0,0.0,2.0,0.487,306.0,51.0,0.543,94.0,66.0,8.0,NBA,956.0,90.0,142.0,PF,349.0,1982,31.0,PHI,44.0,270.0
25.0,43.0,24.0,185.0,0.419,108.0,108.0,0.419,258.0,0.0,0.0,0.0,0.419,258.0,33.0,0.493,67.0,73.0,3.0,NBA,987.0,84.0,144.0,C,249.0,1983,37.0,PHI,76.0,269.0
26.0,36.0,31.0,201.0,0.458,81.0,81.0,0.46,176.0,0.0,0.0,1.0,0.458,177.0,31.0,0.525,59.0,73.0,0.0,NBA,907.0,86.0,143.0,C,193.0,1984,24.0,DET,55.0,287.0
27.0,83.0,42.0,250.0,0.484,207.0,207.0,0.487,425.0,0.0,0.0,3.0,0.484,428.0,82.0,0.569,144.0,81.0,1.0,NBA,1642.0,169.0,216.0,C,496.0,1985,56.0,DET,114.0,419.0
28.0,137.0,58.0,306.0,0.505,285.0,285.0,0.507,562.0,0.0,0.0,2.0,0.505,564.0,117.0,0.555,211.0,80.0,19.0,NBA,2017.0,198.0,239.0,PF,687.0,1986,58.0,DET,150.0,504.0
29.0,122.0,56.0,240.0,0.476,243.0,243.0,0.478,508.0,0.0,0.0,2.0,0.476,510.0,82.0,0.539,152.0,78.0,47.0,NBA,1973.0,212.0,188.0,C,568.0,1987,33.0,TOT,80.0,452.0
29.0,70.0,26.0,114.0,0.467,129.0,129.0,0.469,275.0,0.0,0.0,1.0,0.467,276.0,39.0,0.534,73.0,43.0,36.0,NBA,1105.0,113.0,102.0,C,297.0,1987,15.0,CHI,45.0,227.0
29.0,52.0,30.0,126.0,0.487,114.0,114.0,0.489,233.0,0.0,0.0,1.0,0.487,234.0,43.0,0.544,79.0,35.0,11.0,NBA,868.0,99.0,86.0,C,271.0,1987,18.0,LAC,35.0,225.0
30.0,63.0,36.0,174.0,0.429,133.0,133.0,0.433,307.0,0.0,0.0,3.0,0.429,310.0,33.0,0.524,63.0,69.0,11.0,NBA,1128.0,97.0,135.0,PF,299.0,1988,32.0,LAC,58.0,271.0
31.0,130.0,61.0,300.0,0.501,233.0,233.0,0.502,464.0,0.0,0.0,1.0,0.501,465.0,66.0,0.537,123.0,82.0,41.0,NBA,2047.0,188.0,230.0,C,532.0,1989,50.0,CHH,114.0,488.0
33.0,3.0,3.0,30.0,0.333,8.0,8.0,0.348,23.0,0.0,0.0,1.0,0.333,24.0,1.0,0.333,3.0,9.0,1.0,NBA,159.0,6.0,16.0,PF,17.0,1991,0.0,CHH,6.0,36.0
36.0,0.0,0.0,8.0,0.25,2.0,2.0,0.25,8.0,0.0,0.0,0.0,0.25,8.0,0.0,0.0,2.0,2.0,0.0,NBA,30.0,4.0,4.0,PF,4.0,1994,0.0,HOU,1.0,12.0
39.0,4.0,0.0,5.0,0.375,3.0,3.0,0.375,8.0,0.0,0.0,0.0,0.375,8.0,1.0,0.333,3.0,9.0,0.0,NBA,46.0,4.0,10.0,PF,7.0,1997,0.0,TOR,1.0,9.0
