age,ast_per_g,blk_per_g,drb_per_g,efg_pct,fg2_pct,fg2_per_g,fg2a_per_g,fg3_pct,fg3_per_g,fg3a_per_g,fg_pct,fg_per_g,fga_per_g,ft_pct,ft_per_g,fta_per_g,g,gs,lg_id,mp_per_g,orb_per_g,pf_per_g,pos,pts_per_g,season,stl_per_g,team_id,tov_per_g,trb_per_g
21.0,0.3,0.1,1.1,0.5,0.458,1.6,3.4,1.0,0.1,0.1,0.48,1.7,3.6,0.583,1.0,1.7,7.0,0.0,NBA,5.6,0.1,1.3,PF,4.6,2001,0.1,LAL,0.4,1.3
22.0,0.6,0.2,1.0,0.477,0.483,2.0,4.2,0.0,0.0,0.1,0.477,2.0,4.3,0.661,0.6,0.9,71.0,6.0,NBA,10.3,1.2,1.7,C,4.7,2002,0.4,LAL,0.6,2.2
23.0,0.3,0.1,1.3,0.434,0.438,1.9,4.4,0.0,0.0,0.0,0.434,1.9,4.4,0.721,0.5,0.7,58.0,10.0,NBA,10.7,1.1,2.0,PF,4.4,2003,0.2,LAL,0.6,2.4
24.0,0.8,0.3,2.9,0.441,0.444,3.5,7.9,0.0,0.0,0.0,0.441,3.5,7.9,0.767,1.3,1.7,68.0,38.0,NBA,21.2,2.2,2.8,PF,8.3,2004,0.6,LAL,0.9,5.0
25.0,0.3,0.0,1.1,0.455,0.458,1.7,3.6,0.0,0.0,0.0,0.455,1.7,3.6,0.821,0.5,0.7,43.0,4.0,NBA,9.8,0.7,1.5,PF,3.8,2005,0.2,LAL,0.3,1.8
26.0,0.5,0.0,0.0,0.5,0.5,0.5,1.0,0.0,0.0,0.0,0.5,0.5,1.0,0.0,0.0,0.0,2.0,0.0,NBA,3.0,0.0,0.5,PF,1.0,2006,0.0,LAL,0.0,0.0
27.0,0.1,0.1,0.7,0.431,0.407,0.8,1.9,0.5,0.1,0.1,0.414,0.9,2.1,0.85,1.2,1.4,14.0,0.0,NBA,5.8,0.3,1.1,C,3.0,2007,0.0,ATL,0.4,1.0
