age,ast_per_poss,blk_per_poss,def_rtg,drb_per_poss,fg2_pct,fg2_per_poss,fg2a_per_poss,fg3_pct,fg3_per_poss,fg3a_per_poss,fg_pct,fg_per_poss,fga_per_poss,ft_pct,ft_per_poss,fta_per_poss,g,gs,lg_id,mp,off_rtg,orb_per_poss,pf_per_poss,pos,pts_per_poss,season,stl_per_poss,team_id,tov_per_poss,trb_per_poss
21.0,2.7,1.3,102.0,10.7,0.458,14.8,32.2,1.0,1.3,1.3,0.48,16.1,33.5,0.583,9.4,16.1,7.0,0.0,NBA,39.0,102.0,1.3,12.1,PF,42.9,2001,1.3,LAL,4.0,12.1
22.0,3.1,0.8,103.0,5.2,0.483,10.4,21.4,0.0,0.0,0.3,0.477,10.4,21.7,0.661,2.9,4.4,71.0,6.0,NBA,729.0,104.0,6.1,8.5,C,23.7,2002,2.1,LAL,3.0,11.3
23.0,1.5,0.7,107.0,6.3,0.438,9.4,21.4,0.0,0.0,0.2,0.434,9.4,21.6,0.721,2.6,3.6,58.0,10.0,NBA,620.0,96.0,5.5,9.9,PF,21.3,2003,0.9,LAL,3.1,11.8
24.0,2.1,0.6,102.0,7.0,0.444,8.5,19.3,0.0,0.0,0.1,0.441,8.5,19.4,0.767,3.2,4.2,68.0,38.0,NBA,1442.0,103.0,5.3,6.9,PF,20.3,2004,1.4,LAL,2.1,12.4
25.0,1.6,0.2,113.0,6.0,0.458,8.9,19.4,0.0,0.0,0.1,0.455,8.9,19.5,0.821,2.9,3.5,43.0,4.0,NBA,423.0,106.0,3.9,8.0,PF,20.6,2005,1.1,LAL,1.6,9.9
26.0,8.8,0.0,114.0,0.0,0.5,8.8,17.6,0.0,0.0,0.0,0.5,8.8,17.6,0.0,0.0,0.0,2.0,0.0,NBA,6.0,123.0,0.0,8.8,PF,17.6,2006,0.0,LAL,0.0,0.0
27.0,1.3,1.3,111.0,6.6,0.407,7.2,17.8,0.5,0.7,1.3,0.414,7.9,19.1,0.85,11.2,13.2,14.0,0.0,NBA,81.0,110.0,2.6,10.5,C,27.7,2007,0.0,ATL,3.3,9.2
