age,ast_per_mp,blk_per_mp,drb_per_mp,fg2_pct,fg2_per_mp,fg2a_per_mp,fg3_pct,fg3_per_mp,fg3a_per_mp,fg_pct,fg_per_mp,fga_per_mp,ft_pct,ft_per_mp,fta_per_mp,g,gs,lg_id,mp,orb_per_mp,pf_per_mp,pos,pts_per_mp,season,stl_per_mp,team_id,tov_per_mp,trb_per_mp
22.0,0.0,0.0,5.1,0.6,5.1,8.6,0.0,0.0,0.0,0.6,5.1,8.6,0.0,0.0,0.0,7.0,0.0,NBA,21.0,1.7,13.7,C,10.3,2002,0.0,LAL,1.7,6.9
23.0,0.5,0.5,6.9,0.556,7.4,13.3,0.0,0.0,0.0,0.556,7.4,13.3,0.667,2.0,3.0,9.0,0.0,NBA,73.0,2.0,6.9,PF,16.8,2003,0.5,LAL,1.5,8.9
24.0,1.5,0.6,4.6,0.44,5.0,11.4,0.0,0.0,0.0,0.44,5.0,11.4,0.81,2.6,3.2,21.0,1.0,NBA,237.0,3.5,7.6,PF,12.6,2004,0.6,LAL,0.8,8.1
