age,avg_dist,fg2_dunk,fg2_pct,fg2_pct_ast,fg2a_pct_fga,fg3_heave,fg3_pct,fg3_pct_ast,fg3_pct_corner,fg3a_heave,fg3a_pct_fga,fg_pct,fg_pct_00_03,fg_pct_03_10,fg_pct_10_16,fg_pct_16_xx,g,lg_id,mp,pct_fg2_dunk,pct_fg3a_corner,pct_fga_00_03,pct_fga_03_10,pct_fga_10_16,pct_fga_16_xx,pos,season,team_id
27.0,13.6,62.0,0.487,0.75,0.743,0.0,0.405,0.908,0.333,3.0,0.257,0.466,0.623,0.286,0.348,0.432,82.0,NBA,2601.0,0.071,0.087,0.307,0.067,0.095,0.273,SG,2002,NJN
28.0,13.7,44.0,0.516,0.776,0.692,0.0,0.356,0.949,0.667,0.0,0.308,0.467,0.693,0.306,0.381,0.376,65.0,NBA,1951.0,0.068,0.11,0.321,0.069,0.059,0.243,SG,2003,NJN
29.0,14.3,40.0,0.493,0.831,0.712,0.0,0.351,0.907,0.333,2.0,0.288,0.453,0.656,0.289,0.371,0.41,82.0,NBA,2842.0,0.044,0.12,0.282,0.047,0.101,0.283,SG,2004,NJN
30.0,15.7,1.0,0.404,0.762,0.712,0.0,0.333,1.0,1.0,0.0,0.288,0.384,0.571,0.667,0.375,0.25,11.0,NBA,243.0,0.027,0.095,0.192,0.082,0.11,0.329,SG,2005,LAC
