age,ast_per_poss,blk_per_poss,def_rtg,drb_per_poss,fg2_pct,fg2_per_poss,fg2a_per_poss,fg3_pct,fg3_per_poss,fg3a_per_poss,fg_pct,fg_per_poss,fga_per_poss,ft_pct,ft_per_poss,fta_per_poss,g,gs,lg_id,mp,off_rtg,orb_per_poss,pf_per_poss,pos,pts_per_poss,season,stl_per_poss,team_id,tov_per_poss,trb_per_poss
23.0,3.6,0.9,114.0,6.7,0.444,5.3,12.0,0.385,2.2,5.8,0.425,7.6,17.8,0.909,4.5,4.9,3.0,3.0,NBA,126.0,108.0,0.0,5.3,SG,21.8,1998,1.8,NJN,3.1,6.7
27.0,4.0,0.8,102.0,3.9,0.514,6.8,13.3,0.265,1.6,6.1,0.435,8.4,19.4,0.778,3.1,4.0,20.0,20.0,NBA,580.0,108.0,1.7,3.3,SG,21.6,2002,2.9,NJN,1.5,5.7
28.0,3.5,0.4,99.0,4.4,0.387,4.6,11.9,0.413,2.3,5.5,0.395,6.9,17.4,0.762,2.8,3.7,20.0,20.0,NBA,613.0,107.0,1.7,3.4,SG,18.8,2003,2.5,NJN,1.5,6.1
29.0,3.0,1.3,94.0,4.8,0.524,5.6,10.7,0.327,2.2,6.8,0.448,7.8,17.4,0.618,2.7,4.4,11.0,11.0,NBA,415.0,108.0,1.3,3.6,SG,20.6,2004,2.9,NJN,1.4,6.1
