age,ast_per_poss,blk_per_poss,def_rtg,drb_per_poss,fg2_pct,fg2_per_poss,fg2a_per_poss,fg3_pct,fg3_per_poss,fg3a_per_poss,fg_pct,fg_per_poss,fga_per_poss,ft_pct,ft_per_poss,fta_per_poss,g,gs,lg_id,mp,off_rtg,orb_per_poss,pf_per_poss,pos,pts_per_poss,season,stl_per_poss,team_id,tov_per_poss,trb_per_poss
25.0,0.0,0.0,108.0,4.7,0.667,9.3,14.0,0.0,0.0,0.0,0.667,9.3,14.0,0.333,9.3,28.0,4.0,0.0,NBA,12.0,62.0,0.0,9.3,SG,28.0,2002,0.0,TOR,14.0,4.7
29.0,27.1,0.0,129.0,0.0,0.0,0.0,27.1,0.0,0.0,0.0,0.0,0.0,27.1,0.0,0.0,0.0,2.0,0.0,NBA,4.0,53.0,0.0,13.6,PG,0.0,2006,0.0,MIL,0.0,0.0
