lg_id,salary,season,team_name
NBA,302875.0,2000,Detroit Pistons
NBA,423500.0,2001,Philadelphia 76ers
NBA,171932.0,2003,Toronto Raptors
NBA,771123.0,2006,Chicago Bulls
NBA,583944.0,2006,Milwaukee Bucks
