age,ast,ast_per_g,blk,college_id,fg,fg3,fg3_pct,fg3a,fg_pct,fga,ft,ft_pct,fta,g,mp,mp_per_g,orb,pf,pts,pts_per_g,season,stl,tov,trb,trb_per_g
19.0,100.0,3.7,10.0,DETROIT,83.0,21.0,0.362,58.0,0.415,200.0,53.0,0.646,82.0,27.0,955.0,35.4,0.0,47.0,240.0,8.9,1996,28.0,65.0,106.0,3.9
20.0,120.0,4.1,6.0,DETROIT,90.0,39.0,0.402,97.0,0.413,218.0,76.0,0.704,108.0,29.0,1003.0,34.6,0.0,54.0,295.0,10.2,1997,31.0,57.0,106.0,3.7
21.0,149.0,4.8,8.0,DETROIT,124.0,16.0,0.32,50.0,0.451,275.0,110.0,0.701,157.0,31.0,993.0,32.0,0.0,58.0,374.0,12.1,1998,45.0,80.0,143.0,4.6
22.0,140.0,4.5,7.0,DETROIT,131.0,24.0,0.32,75.0,0.43,305.0,146.0,0.753,194.0,31.0,1081.0,34.9,0.0,56.0,432.0,13.9,1999,37.0,91.0,198.0,6.4
