age,ast,blk,drb,fg,fg2,fg2a,fg3,fg3a,fga,ft,fta,game_score,lg_id,mp,orb,pf,pts,season,stl,team_id,tov,trb
25.0,0.0,0.0,1.0,2.0,2.0,3.0,0.0,0.0,3.0,2.0,6.0,0.0,NBA,0.0,0.0,1.0,6.0,2002,0.0,TOR,3.0,1.0
29.0,1.0,0.0,0.0,0.0,0.0,1.0,0.0,0.0,1.0,0.0,0.0,0.0,NBA,3.0,0.0,1.0,0.0,2006,0.0,MIL,0.0,0.0
