age,ast,blk,drb,efg_pct,fg,fg2,fg2_pct,fg2a,fg3,fg3_pct,fg3a,fg_pct,fga,ft,ft_pct,fta,g,gs,lg_id,mp,orb,pf,pos,pts,season,stl,team_id,tov,trb
23.0,4.0,0.0,10.0,0.091,1.0,1.0,0.1,10.0,0.0,0.0,1.0,0.091,11.0,5.0,0.625,8.0,7.0,0.0,NBA,73.0,1.0,7.0,SG,7.0,2000,3.0,DET,7.0,11.0
25.0,57.0,1.0,24.0,0.488,20.0,19.0,0.475,40.0,1.0,0.5,2.0,0.476,42.0,16.0,0.667,24.0,24.0,0.0,NBA,280.0,3.0,24.0,SG,57.0,2002,9.0,TOR,14.0,27.0
26.0,74.0,6.0,38.0,0.368,40.0,39.0,0.39,100.0,1.0,0.1,10.0,0.364,110.0,40.0,0.727,55.0,53.0,1.0,NBA,559.0,19.0,51.0,SG,121.0,2003,19.0,TOT,34.0,57.0
26.0,39.0,3.0,15.0,0.316,21.0,20.0,0.339,59.0,1.0,0.111,9.0,0.309,68.0,23.0,0.852,27.0,24.0,1.0,NBA,286.0,10.0,24.0,SG,66.0,2003,9.0,TOR,19.0,25.0
26.0,35.0,3.0,23.0,0.452,19.0,19.0,0.463,41.0,0.0,0.0,1.0,0.452,42.0,17.0,0.607,28.0,29.0,0.0,NBA,273.0,9.0,27.0,SG,55.0,2003,10.0,ATL,15.0,32.0
28.0,24.0,1.0,20.0,0.515,17.0,17.0,0.548,31.0,0.0,0.0,2.0,0.515,33.0,8.0,0.615,13.0,21.0,0.0,NBA,230.0,3.0,26.0,SG,42.0,2005,7.0,NYK,10.0,23.0
29.0,25.0,1.0,19.0,0.442,11.0,10.0,0.455,22.0,1.0,0.25,4.0,0.423,26.0,12.0,0.857,14.0,30.0,2.0,NBA,202.0,8.0,19.0,PG,35.0,2006,4.0,MIL,13.0,27.0
