age,avg_dist,fg2_dunk,fg2_pct,fg2_pct_ast,fg2a_pct_fga,fg3_heave,fg3_pct,fg3_pct_ast,fg3_pct_corner,fg3a_heave,fg3a_pct_fga,fg_pct,fg_pct_00_03,fg_pct_03_10,fg_pct_10_16,fg_pct_16_xx,g,lg_id,mp,pct_fg2_dunk,pct_fg3a_corner,pct_fga_00_03,pct_fga_03_10,pct_fga_10_16,pct_fga_16_xx,pos,season,team_id
21.0,10.3,122.0,0.55,0.662,0.74,0.0,0.331,0.957,0.306,1.0,0.26,0.493,0.698,0.234,0.333,0.333,82.0,NBA,2686.0,0.244,0.507,0.462,0.086,0.077,0.115,SG,2005,PHI
22.0,9.5,129.0,0.543,0.622,0.77,0.0,0.354,0.929,0.411,3.0,0.23,0.5,0.645,0.372,0.364,0.388,82.0,NBA,3086.0,0.206,0.57,0.48,0.113,0.08,0.097,SF,2006,PHI
23.0,11.9,120.0,0.472,0.468,0.844,0.0,0.31,0.792,0.263,2.0,0.156,0.447,0.64,0.259,0.302,0.372,76.0,NBA,3062.0,0.126,0.245,0.367,0.054,0.107,0.315,SG,2007,PHI
24.0,14.1,141.0,0.496,0.466,0.76,1.0,0.329,0.772,0.326,9.0,0.24,0.456,0.689,0.387,0.289,0.414,82.0,NBA,3242.0,0.114,0.29,0.28,0.059,0.106,0.316,SF,2008,PHI
25.0,13.0,153.0,0.521,0.491,0.772,1.0,0.307,0.65,0.289,5.0,0.228,0.473,0.727,0.279,0.291,0.375,82.0,NBA,3269.0,0.137,0.172,0.354,0.053,0.075,0.29,SF,2009,PHI
26.0,14.5,122.0,0.492,0.415,0.729,0.0,0.31,0.809,0.3,7.0,0.271,0.443,0.683,0.367,0.308,0.406,82.0,NBA,3193.0,0.112,0.165,0.276,0.054,0.116,0.284,SF,2010,PHI
27.0,14.4,102.0,0.479,0.448,0.762,0.0,0.337,0.836,0.476,4.0,0.238,0.445,0.744,0.254,0.356,0.363,67.0,NBA,2469.0,0.14,0.232,0.257,0.078,0.119,0.308,SF,2011,PHI
28.0,15.5,70.0,0.481,0.412,0.695,0.0,0.394,0.75,0.472,2.0,0.305,0.454,0.752,0.362,0.434,0.32,62.0,NBA,2209.0,0.111,0.187,0.229,0.074,0.084,0.307,SF,2012,PHI
29.0,13.9,134.0,0.515,0.541,0.673,0.0,0.317,0.802,0.26,4.0,0.327,0.451,0.752,0.329,0.278,0.333,80.0,NBA,2779.0,0.159,0.348,0.307,0.093,0.102,0.171,SG,2013,DEN
30.0,14.2,58.0,0.558,0.506,0.618,0.0,0.354,0.887,0.391,1.0,0.382,0.48,0.725,0.348,0.425,0.424,63.0,NBA,2040.0,0.131,0.394,0.301,0.1,0.087,0.129,SF,2014,GSW
31.0,15.2,64.0,0.553,0.643,0.573,0.0,0.349,0.905,0.325,6.0,0.427,0.466,0.75,0.286,0.359,0.379,77.0,NBA,2069.0,0.141,0.377,0.29,0.071,0.079,0.133,SF,2015,GSW
32.0,14.5,49.0,0.57,0.631,0.582,0.0,0.351,0.944,0.431,3.0,0.418,0.478,0.728,0.348,0.407,0.4,65.0,NBA,1732.0,0.141,0.377,0.31,0.063,0.073,0.136,SF,2016,GSW
33.0,14.1,76.0,0.651,0.703,0.573,0.0,0.362,0.922,0.372,2.0,0.427,0.528,0.767,0.333,0.286,0.545,76.0,NBA,1998.0,0.195,0.441,0.361,0.043,0.034,0.133,SF,2017,GSW
34.0,13.7,52.0,0.567,0.591,0.634,0.0,0.282,0.848,0.143,3.0,0.366,0.463,0.76,0.389,0.385,0.366,64.0,NBA,1622.0,0.166,0.179,0.313,0.113,0.081,0.128,SF,2018,GSW
35.0,14.9,69.0,0.652,0.757,0.523,0.0,0.333,0.958,0.407,1.0,0.477,0.5,0.856,0.2,0.294,0.273,68.0,NBA,1578.0,0.228,0.41,0.344,0.05,0.056,0.073,SF,2019,GSW
