age,ast_pct,blk_pct,bpm,bpm-dum,dbpm,drb_pct,dws,fg3a_per_fga_pct,fta_per_fga_pct,g,lg_id,mp,obpm,orb_pct,ows,per,pos,season,stl_pct,team_id,tov_pct,trb_pct,ts_pct,usg_pct,vorp,ws,ws-dum,ws_per_48
21.0,6.7,4.2,2.9,0.0,2.6,19.8,2.3,0.008,0.523,82.0,NBA,1472.0,0.3,15.1,2.4,17.6,PF,2007,2.4,UTA,16.1,17.5,0.571,17.8,1.8,4.7,0.0,0.153
22.0,7.0,3.5,1.9,0.0,2.1,20.8,2.7,0.008,0.456,82.0,NBA,1702.0,-0.2,12.1,2.5,16.1,PF,2008,2.2,UTA,12.6,16.5,0.548,18.1,1.7,5.2,0.0,0.148
23.0,9.8,2.5,3.3,0.0,1.9,21.0,3.3,0.005,0.435,76.0,NBA,2290.0,1.3,13.1,4.5,18.6,PF,2009,1.8,UTA,12.6,17.0,0.576,20.0,3.0,7.7,0.0,0.162
24.0,8.9,3.5,2.1,0.0,2.1,18.9,3.5,0.013,0.369,82.0,NBA,2277.0,0.1,9.9,3.7,16.7,PF,2010,1.4,UTA,12.2,14.5,0.573,18.7,2.4,7.2,0.0,0.151
25.0,12.6,2.2,2.4,0.0,0.7,19.4,2.5,0.023,0.342,76.0,NBA,2605.0,1.6,7.5,5.2,19.8,PF,2011,2.1,UTA,11.3,13.4,0.578,22.6,2.9,7.7,0.0,0.143
26.0,12.4,2.0,5.0,0.0,2.1,21.2,2.9,0.036,0.296,64.0,NBA,2100.0,2.9,9.7,4.9,21.8,PF,2012,2.9,UTA,10.3,15.4,0.545,23.2,3.7,7.8,0.0,0.179
27.0,14.5,2.7,3.8,0.0,2.0,18.8,2.9,0.045,0.407,78.0,NBA,2375.0,1.8,8.6,4.8,19.8,PF,2013,2.3,UTA,11.8,13.7,0.55,22.4,3.5,7.6,0.0,0.154
28.0,16.2,2.5,3.1,0.0,2.4,21.9,4.0,0.202,0.373,74.0,NBA,2482.0,0.7,7.2,2.7,19.8,PF,2014,2.6,ATL,13.2,14.6,0.545,25.7,3.2,6.7,0.0,0.129
29.0,15.4,2.4,4.2,0.0,2.6,20.0,4.3,0.232,0.362,73.0,NBA,2390.0,1.6,6.9,4.0,20.0,PF,2015,2.8,ATL,13.3,13.6,0.565,23.8,3.7,8.3,0.0,0.166
30.0,16.4,4.1,5.3,0.0,4.2,21.5,6.0,0.218,0.383,81.0,NBA,2647.0,1.1,8.4,4.1,21.3,PF,2016,2.7,ATL,13.3,15.1,0.556,24.3,4.9,10.1,0.0,0.183
31.0,17.9,2.3,2.7,0.0,2.1,19.5,3.8,0.248,0.417,69.0,NBA,2343.0,0.5,5.3,2.6,17.8,PF,2017,1.9,ATL,12.1,12.5,0.542,24.4,2.7,6.4,0.0,0.132
32.0,13.9,3.2,0.8,0.0,0.7,17.6,1.1,0.26,0.37,38.0,NBA,1143.0,0.1,6.4,1.4,17.0,PF,2018,1.7,DEN,12.6,12.1,0.549,22.0,0.8,2.5,0.0,0.107
33.0,10.6,2.5,2.4,0.0,1.9,20.2,2.9,0.239,0.374,70.0,NBA,1895.0,0.5,8.7,3.2,17.9,PF,2019,2.2,DEN,10.9,14.4,0.57,19.6,2.1,6.1,0.0,0.155
34.0,7.9,2.4,2.1,0.0,0.9,16.8,0.5,0.291,0.408,11.0,NBA,296.0,1.2,8.0,0.7,18.1,PF,2020,1.0,DEN,9.7,12.3,0.601,19.5,0.3,1.2,0.0,0.194
