age,and1s,astd_pts,drawn_offensive,drawn_shooting,fouls_offensive,fouls_shooting,g,lg_id,mp,own_shots_blk,pct_1,pct_2,pct_3,pct_4,pct_5,plus_minus_net,plus_minus_on,pos,season,team_id,tov_bad_pass,tov_lost_ball
21.0,18.0,128.0,13.0,90.0,24.0,117.0,82.0,NBA,1472.0,53.0,0.0,0.0,9.0,89.0,2.0,4.5,6.1,PF,2007,UTA,29.0,20.0
22.0,23.0,185.0,10.0,105.0,22.0,155.0,82.0,NBA,1702.0,57.0,0.0,0.0,1.0,96.0,4.0,-0.8,7.0,PF,2008,UTA,28.0,24.0
23.0,32.0,293.0,16.0,156.0,27.0,159.0,76.0,NBA,2290.0,64.0,0.0,0.0,0.0,86.0,14.0,7.5,6.0,PF,2009,UTA,43.0,37.0
24.0,25.0,287.0,20.0,122.0,23.0,172.0,82.0,NBA,2277.0,61.0,0.0,0.0,1.0,94.0,5.0,5.0,7.7,PF,2010,UTA,44.0,27.0
25.0,48.0,421.0,5.0,161.0,24.0,158.0,76.0,NBA,2605.0,68.0,0.0,0.0,4.0,95.0,1.0,6.6,0.3,PF,2011,UTA,56.0,44.0
26.0,28.0,339.0,4.0,113.0,22.0,110.0,64.0,NBA,2100.0,65.0,0.0,0.0,7.0,93.0,0.0,12.0,4.8,PF,2012,UTA,40.0,32.0
27.0,21.0,485.0,12.0,147.0,23.0,105.0,78.0,NBA,2375.0,78.0,0.0,0.0,5.0,94.0,1.0,0.9,0.2,PF,2013,UTA,50.0,45.0
28.0,38.0,549.0,7.0,177.0,29.0,101.0,74.0,NBA,2482.0,69.0,0.0,0.0,0.0,93.0,7.0,6.8,2.2,PF,2014,ATL,69.0,59.0
29.0,32.0,529.0,2.0,141.0,28.0,103.0,73.0,NBA,2390.0,65.0,0.0,0.0,0.0,94.0,6.0,5.5,8.0,PF,2015,ATL,53.0,63.0
30.0,39.0,640.0,10.0,183.0,26.0,117.0,81.0,NBA,2647.0,71.0,0.0,0.0,2.0,92.0,6.0,-0.4,3.5,PF,2016,ATL,59.0,87.0
31.0,37.0,598.0,7.0,177.0,20.0,95.0,69.0,NBA,2343.0,55.0,0.0,0.0,0.0,91.0,9.0,7.5,1.8,PF,2017,ATL,81.0,48.0
32.0,16.0,254.0,1.0,67.0,7.0,53.0,38.0,NBA,1143.0,24.0,0.0,0.0,1.0,94.0,5.0,4.2,4.3,PF,2018,DEN,30.0,23.0
33.0,21.0,342.0,13.0,103.0,12.0,103.0,70.0,NBA,1895.0,51.0,0.0,0.0,20.0,80.0,0.0,8.6,8.2,PF,2019,DEN,34.0,35.0
34.0,6.0,37.0,2.0,18.0,3.0,18.0,11.0,NBA,296.0,13.0,0.0,0.0,1.0,97.0,2.0,21.3,12.4,PF,2020,DEN,6.0,4.0
