age,avg_dist,fg2_dunk,fg2_pct,fg2_pct_ast,fg2a_pct_fga,fg3_heave,fg3_pct,fg3_pct_ast,fg3_pct_corner,fg3a_heave,fg3a_pct_fga,fg_pct,fg_pct_00_03,fg_pct_03_10,fg_pct_10_16,fg_pct_16_xx,g,lg_id,mp,pct_fg2_dunk,pct_fg3a_corner,pct_fga_00_03,pct_fga_03_10,pct_fga_10_16,pct_fga_16_xx,pos,season,team_id
21.0,9.3,15.0,0.507,0.553,0.798,0.0,0.263,1.0,0.167,0.0,0.202,0.457,0.737,0.296,0.25,0.167,19.0,NBA,276.0,0.181,0.316,0.404,0.287,0.043,0.064,PF,2013,HOU
22.0,7.1,122.0,0.581,0.648,0.858,0.0,0.307,0.903,0.333,0.0,0.142,0.542,0.724,0.389,0.391,0.273,76.0,NBA,2078.0,0.181,0.327,0.508,0.271,0.032,0.046,PF,2014,HOU
23.0,6.8,30.0,0.553,0.6,0.876,0.0,0.351,1.0,0.0,1.0,0.124,0.528,0.691,0.416,0.091,0.2,33.0,NBA,889.0,0.1,0.054,0.508,0.298,0.037,0.033,PF,2015,HOU
24.0,8.5,29.0,0.49,0.716,0.785,0.0,0.316,0.92,0.25,1.0,0.215,0.452,0.638,0.293,0.2,0.375,50.0,NBA,1044.0,0.093,0.203,0.444,0.27,0.027,0.044,PF,2016,HOU
25.0,8.6,41.0,0.51,0.642,0.847,0.0,0.253,1.0,0.0,0.0,0.153,0.47,0.677,0.364,0.37,0.357,54.0,NBA,1270.0,0.086,0.093,0.397,0.308,0.055,0.086,PF,2017,TOT
25.0,8.6,41.0,0.513,0.642,0.846,0.0,0.253,1.0,0.0,0.0,0.154,0.473,0.677,0.369,0.37,0.366,51.0,NBA,1264.0,0.086,0.093,0.4,0.305,0.055,0.084,PF,2017,NOP
25.0,8.3,0.0,0.0,0.0,1.0,0.0,0.0,0.0,0.0,0.0,0.0,0.0,0.0,0.0,0.0,0.0,3.0,NBA,6.0,0.0,0.0,0.0,0.667,0.0,0.333,PF,2017,MIL
27.0,13.8,0.0,0.5,1.0,0.5,0.0,0.0,0.0,0.0,0.0,0.5,0.25,1.0,0.0,0.0,0.0,2.0,NBA,5.0,0.0,0.0,0.25,0.25,0.0,0.0,PF,2019,HOU
