age,ast_pct,blk_pct,bpm,bpm-dum,dbpm,drb_pct,dws,fg3a_per_fga_pct,fta_per_fga_pct,g,lg_id,mp,obpm,orb_pct,ows,per,pos,season,stl_pct,team_id,tov_pct,trb_pct,ts_pct,usg_pct,vorp,ws,ws-dum,ws_per_48
21.0,8.6,5.2,2.1,0.0,2.6,15.0,0.4,0.202,0.181,19.0,NBA,276.0,-0.5,11.6,0.3,17.1,PF,2013,2.2,HOU,11.4,13.4,0.512,18.1,0.3,0.7,0.0,0.128
22.0,7.0,3.5,2.2,0.0,1.3,18.5,2.7,0.142,0.274,76.0,NBA,2078.0,0.9,9.2,4.6,19.1,PF,2014,1.3,HOU,8.2,14.1,0.577,18.3,2.2,7.3,0.0,0.169
23.0,6.9,5.2,1.3,0.0,1.9,17.6,1.3,0.124,0.314,33.0,NBA,889.0,-0.6,9.7,1.7,18.3,PF,2015,1.0,HOU,9.8,13.7,0.567,18.4,0.7,3.0,0.0,0.16
24.0,6.3,3.1,-3.4,0.0,-1.0,15.9,0.7,0.215,0.316,50.0,NBA,1044.0,-2.4,6.5,0.8,13.5,PF,2016,1.1,HOU,10.5,11.1,0.519,19.3,-0.4,1.5,0.0,0.068
25.0,7.5,3.5,-1.3,0.0,1.3,20.2,1.9,0.152,0.346,54.0,NBA,1270.0,-2.7,5.4,0.4,16.1,PF,2017,1.5,TOT,7.8,12.7,0.515,21.4,0.2,2.3,0.0,0.086
25.0,7.5,3.4,-1.3,0.0,1.3,20.0,1.8,0.153,0.348,51.0,NBA,1264.0,-2.6,5.4,0.5,16.2,PF,2017,1.5,NOP,7.8,12.6,0.518,21.4,0.2,2.3,0.0,0.088
25.0,0.0,14.7,-20.1,0.0,6.6,57.6,0.0,0.0,0.0,3.0,NBA,6.0,-26.7,0.0,-0.1,1.5,PF,2017,8.5,MIL,0.0,29.1,0.0,22.8,0.0,0.0,0.0,-0.312
27.0,0.0,0.0,-52.3,0.0,-16.2,90.3,0.0,0.5,0.25,2.0,NBA,5.0,-36.1,0.0,-0.1,-15.8,PF,2019,0.0,HOU,18.4,44.2,0.225,47.2,-0.1,-0.1,0.0,-0.661
