age,ast,blk,drb,efg_pct,fg,fg2,fg2_pct,fg2a,fg3,fg3_pct,fg3a,fg_pct,fga,ft,ft_pct,fta,g,gs,lg_id,mp,orb,pf,pos,pts,season,stl,team_id,tov,trb
21.0,15.0,19.0,37.0,0.484,43.0,38.0,0.507,75.0,5.0,0.263,19.0,0.457,94.0,13.0,0.765,17.0,19.0,0.0,NBA,276.0,28.0,21.0,PF,104.0,2013,12.0,HOU,13.0,65.0
22.0,87.0,99.0,366.0,0.564,386.0,355.0,0.581,611.0,31.0,0.307,101.0,0.542,712.0,118.0,0.605,195.0,76.0,71.0,NBA,2078.0,162.0,139.0,PF,921.0,2014,53.0,HOU,71.0,528.0
23.0,36.0,59.0,142.0,0.55,158.0,145.0,0.553,262.0,13.0,0.351,37.0,0.528,299.0,57.0,0.606,94.0,33.0,24.0,NBA,889.0,78.0,78.0,PF,386.0,2015,18.0,HOU,37.0,220.0
24.0,41.0,39.0,149.0,0.486,166.0,141.0,0.49,288.0,25.0,0.316,79.0,0.452,367.0,77.0,0.664,116.0,50.0,11.0,NBA,1044.0,62.0,86.0,PF,434.0,2016,23.0,HOU,49.0,211.0
25.0,59.0,54.0,241.0,0.489,231.0,212.0,0.508,417.0,19.0,0.253,75.0,0.47,492.0,103.0,0.606,170.0,54.0,12.0,NBA,1270.0,65.0,67.0,PF,584.0,2017,40.0,TOT,48.0,306.0
25.0,59.0,53.0,238.0,0.492,231.0,212.0,0.512,414.0,19.0,0.253,75.0,0.472,489.0,103.0,0.606,170.0,51.0,12.0,NBA,1264.0,65.0,67.0,PF,584.0,2017,39.0,NOP,48.0,303.0
25.0,0.0,1.0,3.0,0.0,0.0,0.0,0.0,3.0,0.0,0.0,0.0,0.0,3.0,0.0,0.0,0.0,3.0,0.0,NBA,6.0,0.0,0.0,PF,0.0,2017,1.0,MIL,0.0,3.0
27.0,0.0,0.0,4.0,0.25,1.0,1.0,0.5,2.0,0.0,0.0,2.0,0.25,4.0,0.0,0.0,1.0,2.0,0.0,NBA,5.0,0.0,1.0,PF,2.0,2019,0.0,HOU,1.0,4.0
