age,ast_per_g,blk_per_g,drb_per_g,efg_pct,fg2_pct,fg2_per_g,fg2a_per_g,fg3_pct,fg3_per_g,fg3a_per_g,fg_pct,fg_per_g,fga_per_g,ft_pct,ft_per_g,fta_per_g,g,gs,lg_id,mp_per_g,orb_per_g,pf_per_g,pos,pts_per_g,season,stl_per_g,team_id,tov_per_g,trb_per_g
21.0,0.8,1.0,1.9,0.484,0.507,2.0,3.9,0.263,0.3,1.0,0.457,2.3,4.9,0.765,0.7,0.9,19.0,0.0,NBA,14.5,1.5,1.1,PF,5.5,2013,0.6,HOU,0.7,3.4
22.0,1.1,1.3,4.8,0.564,0.581,4.7,8.0,0.307,0.4,1.3,0.542,5.1,9.4,0.605,1.6,2.6,76.0,71.0,NBA,27.3,2.1,1.8,PF,12.1,2014,0.7,HOU,0.9,6.9
23.0,1.1,1.8,4.3,0.55,0.553,4.4,7.9,0.351,0.4,1.1,0.528,4.8,9.1,0.606,1.7,2.8,33.0,24.0,NBA,26.9,2.4,2.4,PF,11.7,2015,0.5,HOU,1.1,6.7
24.0,0.8,0.8,3.0,0.486,0.49,2.8,5.8,0.316,0.5,1.6,0.452,3.3,7.3,0.664,1.5,2.3,50.0,11.0,NBA,20.9,1.2,1.7,PF,8.7,2016,0.5,HOU,1.0,4.2
25.0,1.1,1.0,4.5,0.489,0.508,3.9,7.7,0.253,0.4,1.4,0.47,4.3,9.1,0.606,1.9,3.1,54.0,12.0,NBA,23.5,1.2,1.2,PF,10.8,2017,0.7,TOT,0.9,5.7
25.0,1.2,1.0,4.7,0.492,0.512,4.2,8.1,0.253,0.4,1.5,0.472,4.5,9.6,0.606,2.0,3.3,51.0,12.0,NBA,24.8,1.3,1.3,PF,11.5,2017,0.8,NOP,0.9,5.9
25.0,0.0,0.3,1.0,0.0,0.0,0.0,1.0,0.0,0.0,0.0,0.0,0.0,1.0,0.0,0.0,0.0,3.0,0.0,NBA,2.0,0.0,0.0,PF,0.0,2017,0.3,MIL,0.0,1.0
27.0,0.0,0.0,2.0,0.25,0.5,0.5,1.0,0.0,0.0,1.0,0.25,0.5,2.0,0.0,0.0,0.5,2.0,0.0,NBA,2.5,0.0,0.5,PF,1.0,2019,0.0,HOU,0.5,2.0
