age,ast,ast_per_g,blk,college_id,fg,fg3,fg3_pct,fg3a,fg_pct,fga,ft,ft_pct,fta,g,mp,mp_per_g,orb,pf,pts,pts_per_g,season,stl,tov,trb,trb_per_g
18.0,4.0,0.1,35.0,STJOHNS,37.0,0.0,0.0,0.0,0.435,85.0,23.0,0.676,34.0,30.0,505.0,16.8,0.0,86.0,97.0,3.2,1982,8.0,20.0,126.0,4.2
19.0,9.0,0.3,31.0,STJOHNS,69.0,0.0,0.0,0.0,0.605,114.0,44.0,0.698,63.0,33.0,656.0,19.9,0.0,92.0,182.0,5.5,1983,9.0,29.0,146.0,4.4
20.0,32.0,1.2,34.0,STJOHNS,124.0,0.0,0.0,0.0,0.593,209.0,56.0,0.675,83.0,26.0,735.0,28.3,0.0,82.0,304.0,11.7,1984,16.0,43.0,148.0,5.7
21.0,55.0,1.6,51.0,STJOHNS,168.0,0.0,0.0,0.0,0.602,279.0,102.0,0.816,125.0,35.0,1099.0,31.4,0.0,119.0,438.0,12.5,1985,21.0,57.0,224.0,6.4
