age,ast,blk,drb,efg_pct,fg,fg2,fg2_pct,fg2a,fg3,fg3_pct,fg3a,fg_pct,fga,ft,ft_pct,fta,g,gs,lg_id,mp,orb,pf,pos,pts,season,stl,team_id,tov,trb
22.0,21.0,22.0,100.0,0.471,72.0,72.0,0.483,149.0,0.0,0.0,4.0,0.471,153.0,45.0,0.726,62.0,56.0,3.0,NBA,562.0,32.0,83.0,C,189.0,1986,11.0,DAL,21.0,132.0
23.0,24.0,10.0,76.0,0.424,56.0,56.0,0.431,130.0,0.0,0.0,2.0,0.424,132.0,45.0,0.75,60.0,58.0,0.0,NBA,560.0,53.0,95.0,C,157.0,1987,13.0,DAL,39.0,129.0
24.0,4.0,9.0,25.0,0.52,25.0,24.0,0.511,47.0,1.0,0.5,2.0,0.51,49.0,12.0,0.632,19.0,30.0,0.0,NBA,125.0,14.0,33.0,C,63.0,1988,5.0,DAL,9.0,39.0
25.0,46.0,35.0,204.0,0.435,119.0,118.0,0.444,266.0,1.0,0.111,9.0,0.433,275.0,61.0,0.744,82.0,65.0,9.0,NBA,1074.0,82.0,211.0,C,300.0,1989,16.0,DAL,54.0,286.0
26.0,41.0,21.0,134.0,0.449,105.0,105.0,0.457,230.0,0.0,0.0,4.0,0.449,234.0,60.0,0.8,75.0,60.0,2.0,NBA,814.0,64.0,144.0,C,270.0,1990,20.0,DAL,50.0,198.0
27.0,69.0,59.0,239.0,0.437,181.0,180.0,0.439,410.0,1.0,0.2,5.0,0.436,415.0,74.0,0.787,94.0,77.0,23.0,NBA,1455.0,101.0,230.0,C,437.0,1991,46.0,SAC,51.0,340.0
30.0,70.0,29.0,236.0,0.488,235.0,235.0,0.49,480.0,0.0,0.0,2.0,0.488,482.0,72.0,0.818,88.0,76.0,0.0,NBA,1371.0,117.0,214.0,C,542.0,1994,43.0,CHI,75.0,353.0
31.0,40.0,17.0,126.0,0.492,156.0,156.0,0.498,313.0,0.0,0.0,4.0,0.492,317.0,51.0,0.81,63.0,73.0,1.0,NBA,956.0,64.0,198.0,C,363.0,1995,22.0,CHI,39.0,190.0
32.0,46.0,16.0,116.0,0.494,169.0,168.0,0.491,342.0,1.0,1.0,1.0,0.493,343.0,37.0,0.86,43.0,71.0,20.0,NBA,1065.0,58.0,171.0,C,376.0,1996,21.0,CHI,37.0,174.0
33.0,41.0,11.0,83.0,0.498,118.0,118.0,0.502,235.0,0.0,0.0,2.0,0.498,237.0,44.0,0.83,53.0,61.0,19.0,NBA,783.0,46.0,132.0,C,280.0,1997,10.0,CHI,31.0,129.0
34.0,19.0,5.0,48.0,0.436,75.0,75.0,0.436,172.0,0.0,0.0,0.0,0.436,172.0,17.0,0.81,21.0,48.0,8.0,NBA,467.0,32.0,77.0,C,167.0,1998,4.0,CHI,16.0,80.0
35.0,18.0,12.0,59.0,0.351,62.0,61.0,0.345,177.0,1.0,1.0,1.0,0.348,178.0,18.0,0.818,22.0,38.0,3.0,NBA,451.0,20.0,79.0,C,143.0,1999,13.0,CHI,17.0,79.0
36.0,1.0,2.0,14.0,0.316,6.0,6.0,0.316,19.0,0.0,0.0,0.0,0.316,19.0,2.0,1.0,2.0,7.0,0.0,NBA,57.0,5.0,13.0,C,14.0,2000,2.0,SAC,1.0,19.0
