age,ast_pct,blk_pct,bpm,bpm-dum,dbpm,drb_pct,dws,fg3a_per_fga_pct,fta_per_fga_pct,g,lg_id,mp,obpm,orb_pct,ows,per,pos,season,stl_pct,team_id,tov_pct,trb_pct,ts_pct,usg_pct,vorp,ws,ws-dum,ws_per_48
23.0,18.5,1.0,5.3,0.0,1.8,23.6,5.6,0.098,0.246,82.0,NBA,2955.0,3.6,8.3,5.6,20.5,PF,1980,2.3,BOS,14.0,16.0,0.538,25.3,5.4,11.2,0.0,0.182
24.0,20.4,1.1,5.1,0.0,2.3,23.8,6.1,0.049,0.218,82.0,NBA,3239.0,2.8,7.0,4.7,19.9,PF,1981,2.4,BOS,14.9,15.7,0.528,24.3,5.8,10.8,0.0,0.16
25.0,22.5,1.2,7.5,0.0,2.5,23.4,5.7,0.037,0.269,77.0,NBA,2923.0,4.9,7.7,6.8,22.6,PF,1982,2.3,BOS,13.8,15.8,0.557,25.2,7.0,12.5,0.0,0.205
26.0,22.4,1.3,7.6,0.0,2.2,24.2,5.6,0.052,0.282,79.0,NBA,2982.0,5.4,7.0,8.4,24.1,PF,1983,2.3,BOS,12.6,15.7,0.561,25.0,7.2,14.0,0.0,0.225
27.0,26.2,1.3,7.8,0.0,2.3,22.3,5.6,0.047,0.273,79.0,NBA,3028.0,5.5,7.0,7.9,24.2,PF,1984,2.3,BOS,12.1,14.9,0.552,26.7,7.4,13.6,0.0,0.215
28.0,25.7,1.7,8.5,0.0,2.0,22.6,5.2,0.074,0.26,80.0,NBA,3161.0,6.5,6.0,10.5,26.5,SF,1985,1.9,BOS,11.2,14.7,0.585,28.5,8.4,15.7,0.0,0.238
29.0,26.3,0.9,9.1,0.0,2.8,20.4,6.2,0.121,0.306,82.0,NBA,3113.0,6.4,7.2,9.6,25.6,SF,1986,2.5,BOS,12.7,14.2,0.58,27.6,8.7,15.8,0.0,0.244
30.0,28.6,1.3,9.2,0.0,2.1,19.2,4.8,0.15,0.304,74.0,NBA,3005.0,7.1,5.1,10.4,26.4,SF,1987,2.2,BOS,12.4,12.8,0.612,27.5,8.5,15.2,0.0,0.243
31.0,25.7,1.1,8.8,0.0,1.3,22.3,3.8,0.142,0.271,76.0,NBA,2965.0,7.5,4.6,11.2,27.8,SF,1988,2.1,BOS,10.2,14.0,0.608,30.2,8.1,15.0,0.0,0.243
32.0,24.3,1.6,0.5,0.0,-0.1,21.6,0.2,0.0,0.183,6.0,NBA,189.0,0.6,0.6,0.3,19.8,SF,1989,1.6,BOS,8.9,11.2,0.516,27.1,0.1,0.5,0.0,0.129
33.0,28.9,1.2,6.1,0.0,2.2,22.2,4.1,0.129,0.226,75.0,NBA,2944.0,3.9,3.6,5.3,21.9,SF,1990,1.8,BOS,12.7,13.4,0.546,27.4,6.1,9.5,0.0,0.154
34.0,25.9,1.5,4.7,0.0,2.3,20.4,3.6,0.195,0.18,60.0,NBA,2277.0,2.4,2.8,3.0,19.7,SF,1991,2.3,BOS,14.6,12.3,0.53,23.7,3.8,6.6,0.0,0.14
35.0,26.9,1.2,5.5,0.0,2.2,24.6,2.5,0.169,0.214,45.0,NBA,1662.0,3.3,3.2,3.0,21.0,SF,1992,1.3,BOS,13.1,14.4,0.547,24.7,3.1,5.5,0.0,0.159
