age,ast_per_g,blk_per_g,drb_per_g,efg_pct,fg2_pct,fg2_per_g,fg2a_per_g,fg3_pct,fg3_per_g,fg3a_per_g,fg_pct,fg_per_g,fga_per_g,ft_pct,ft_per_g,fta_per_g,g,gs,lg_id,mp_per_g,orb_per_g,pf_per_g,pos,pts_per_g,season,stl_per_g,team_id,tov_per_g,trb_per_g
24.0,0.5,0.0,0.6,0.481,0.526,0.7,1.3,0.25,0.1,0.5,0.444,0.8,1.8,0.571,0.5,0.9,15.0,0.0,NBA,8.3,0.3,1.3,SG,2.3,2001,1.0,PHI,0.3,0.9
25.0,0.0,0.0,0.0,0.333,1.0,0.3,0.3,0.0,0.0,0.7,0.333,0.3,1.0,0.0,0.0,0.0,3.0,0.0,NBA,2.7,0.3,0.0,SG,0.7,2002,0.0,PHI,0.0,0.3
26.0,1.6,0.0,2.2,0.589,0.567,2.0,3.5,0.462,0.4,0.8,0.548,2.4,4.3,0.55,0.6,1.2,17.0,7.0,NBA,17.9,0.8,2.4,SG,5.7,2003,0.3,DAL,0.4,3.0
29.0,2.2,0.2,2.4,0.6,0.494,2.3,4.6,0.465,2.4,5.1,0.479,4.6,9.7,0.829,2.0,2.4,17.0,17.0,NBA,39.6,0.5,4.1,SG,13.6,2006,0.6,PHO,0.6,2.8
30.0,1.8,0.2,2.5,0.575,0.476,1.8,3.8,0.444,1.8,4.1,0.46,3.6,7.9,0.857,1.1,1.3,11.0,11.0,NBA,39.8,0.5,3.6,SG,10.2,2007,0.9,PHO,1.4,3.0
31.0,2.2,0.2,4.4,0.743,0.471,1.6,3.4,0.65,2.6,4.0,0.568,4.2,7.4,0.813,2.6,3.2,5.0,5.0,NBA,43.0,1.2,3.8,SG,13.6,2008,0.4,PHO,1.0,5.6
