article_url,date,headline
https://thesmokingcuban.com/2019/08/29/dallas-mavericks-2019-mark-cuban-luka-doncic-kanell-bell/,2019/08/29,The Smoking Cuban: Dallas Mavericks owner Mark Cuban praises Luka Doncic and more
https://thunderousintentions.com/2019/08/28/okc-thunder-kanter-westbrook-best-player-teammate/,2019/08/28,Thunderous Intentions: Enes Kanter calls Russell Westbrook the best player and teammate he's ever played with
https://clipperholics.com/2019/08/26/la-clippers-la-destination-team/,2019/08/26,"Fully Clips: Don't look now, but the LA Clippers are becoming LA's destination team"
https://valleyofthesuns.com/2019/06/27/phoenix-suns-do-not-make-kelly-oubre-a-primary-offseason-focus/,2019/06/27,Sun-N-Gun: The Phoenix Suns should not make Kelly Oubre a primary offseason focus
