age,ast_per_mp,blk_per_mp,drb_per_mp,fg2_pct,fg2_per_mp,fg2a_per_mp,fg3_pct,fg3_per_mp,fg3a_per_mp,fg_pct,fg_per_mp,fga_per_mp,ft_pct,ft_per_mp,fta_per_mp,g,gs,lg_id,mp,orb_per_mp,pf_per_mp,pos,pts_per_mp,season,stl_per_mp,team_id,tov_per_mp,trb_per_mp
24.0,0.0,0.0,1.2,0.25,1.2,4.8,0.333,1.2,3.6,0.286,2.4,8.4,0.0,0.0,0.0,5.0,0.0,NBA,30.0,0.0,1.2,SG,6.0,2001,1.2,PHI,2.4,1.2
25.0,2.9,0.2,3.2,0.464,3.7,7.9,0.273,0.5,1.8,0.429,4.2,9.7,0.75,1.5,1.9,74.0,12.0,NBA,890.0,1.3,4.4,SG,10.3,2002,0.8,PHI,1.9,4.5
26.0,1.7,0.2,3.0,0.45,2.2,4.9,0.412,0.6,1.6,0.441,2.9,6.5,0.676,0.7,1.0,75.0,32.0,NBA,1173.0,1.4,4.1,SG,7.1,2003,1.6,DAL,1.3,4.5
27.0,1.9,0.2,3.2,0.418,4.8,11.4,0.373,1.1,3.0,0.409,5.9,14.3,0.786,3.5,4.4,82.0,4.0,NBA,2020.0,1.1,4.7,SG,16.3,2004,1.1,UTA,2.0,4.3
28.0,1.8,0.2,3.1,0.467,5.0,10.7,0.403,1.1,2.7,0.454,6.1,13.4,0.747,2.3,3.0,63.0,32.0,NBA,1790.0,1.0,4.1,SG,15.5,2005,0.9,UTA,1.6,4.0
29.0,2.5,0.3,2.5,0.471,2.8,5.9,0.442,2.4,5.4,0.457,5.2,11.3,0.788,1.4,1.8,79.0,79.0,NBA,2959.0,0.5,3.0,SG,14.1,2006,0.9,PHO,1.1,3.1
30.0,2.4,0.3,2.5,0.452,2.5,5.6,0.413,2.5,6.1,0.432,5.1,11.7,0.776,1.5,1.9,78.0,78.0,NBA,2917.0,0.6,2.9,SG,14.1,2007,0.6,PHO,1.0,3.1
31.0,2.3,0.4,3.1,0.449,1.9,4.3,0.401,2.4,6.0,0.421,4.3,10.2,0.868,1.1,1.2,75.0,75.0,NBA,2646.0,0.6,3.0,SG,12.1,2008,0.7,PHO,0.9,3.7
32.0,2.2,0.1,3.1,0.448,2.9,6.4,0.421,1.8,4.2,0.437,4.6,10.6,0.853,1.4,1.6,67.0,66.0,NBA,2315.0,0.6,2.6,SG,12.4,2009,0.8,TOT,1.3,3.8
32.0,1.5,0.1,2.8,0.386,1.6,4.2,0.468,2.2,4.8,0.429,3.8,8.9,0.762,0.8,1.1,22.0,22.0,NBA,712.0,0.4,2.9,SG,10.7,2009,0.7,PHO,0.9,3.2
32.0,2.5,0.1,3.3,0.464,3.4,7.4,0.395,1.6,4.0,0.44,5.0,11.4,0.877,1.6,1.8,45.0,44.0,NBA,1603.0,0.7,2.4,SG,13.2,2009,0.8,CHA,1.5,4.0
33.0,2.6,0.4,3.6,0.471,3.2,6.8,0.444,2.4,5.4,0.459,5.6,12.2,1.0,0.6,0.6,6.0,5.0,NBA,180.0,1.0,3.0,SG,14.2,2010,0.8,TOT,1.0,4.6
33.0,2.3,0.5,3.7,0.484,3.4,7.1,0.375,2.1,5.5,0.436,5.5,12.6,1.0,0.7,0.7,5.0,5.0,NBA,157.0,1.1,3.0,SG,13.8,2010,0.9,CHA,1.1,4.8
33.0,4.7,0.0,3.1,0.333,1.6,4.7,1.0,4.7,4.7,0.667,6.3,9.4,0.0,0.0,0.0,1.0,0.0,NBA,23.0,0.0,3.1,SG,17.2,2010,0.0,GSW,0.0,3.1
34.0,2.0,0.2,2.5,0.449,2.1,4.7,0.352,1.2,3.3,0.409,3.3,8.0,0.892,1.6,1.8,68.0,63.0,NBA,2097.0,0.5,2.9,SG,9.3,2011,1.0,UTA,1.1,3.0
35.0,1.7,0.1,1.9,0.54,2.1,3.9,0.391,1.5,3.9,0.466,3.7,7.9,0.84,0.9,1.1,34.0,33.0,NBA,796.0,0.3,3.5,SG,9.8,2012,0.6,UTA,0.9,2.2
