age,ast_pct,blk_pct,bpm,bpm-dum,dbpm,drb_pct,dws,fg3a_per_fga_pct,fta_per_fga_pct,g,lg_id,mp,obpm,orb_pct,ows,per,pos,season,stl_pct,team_id,tov_pct,trb_pct,ts_pct,usg_pct,vorp,ws,ws-dum,ws_per_48
23.0,11.7,0.0,-2.0,0.0,-1.7,8.6,0.1,0.475,0.275,10.0,NBA,145.0,-0.3,3.0,0.2,10.9,SG,2000,1.7,CLE,11.8,5.8,0.546,15.2,0.0,0.3,0.0,0.098
24.0,11.9,0.6,-1.5,0.0,-1.7,8.0,0.5,0.396,0.243,65.0,NBA,1116.0,0.3,1.2,1.5,11.8,SG,2001,1.8,CLE,13.1,4.6,0.561,16.1,0.2,2.0,0.0,0.086
25.0,21.1,0.8,-2.8,0.0,-3.1,10.3,0.1,0.42,0.261,44.0,NBA,477.0,0.3,3.2,0.4,13.5,SG,2002,1.4,CLE,16.9,6.8,0.533,22.7,-0.1,0.6,0.0,0.055
