age,ast_per_poss,blk_per_poss,def_rtg,drb_per_poss,fg2_pct,fg2_per_poss,fg2a_per_poss,fg3_pct,fg3_per_poss,fg3a_per_poss,fg_pct,fg_per_poss,fga_per_poss,ft_pct,ft_per_poss,fta_per_poss,g,gs,lg_id,mp,off_rtg,orb_per_poss,pf_per_poss,pos,pts_per_poss,season,stl_per_poss,team_id,tov_per_poss,trb_per_poss
22.0,4.6,1.5,97.0,7.7,0.588,15.4,26.1,0.333,1.5,4.6,0.55,16.9,30.7,0.444,12.3,27.7,7.0,0.0,NBA,35.0,96.0,6.1,7.7,SF,47.6,1999,1.5,POR,9.2,13.8
23.0,4.5,0.6,100.0,4.8,0.506,9.9,19.6,0.377,0.9,2.4,0.492,10.8,22.1,0.682,4.0,5.9,66.0,0.0,NBA,1162.0,103.0,3.6,7.0,SF,26.7,2000,3.2,POR,4.5,8.4
24.0,5.6,0.5,101.0,6.7,0.547,10.0,18.2,0.34,0.5,1.3,0.533,10.4,19.6,0.663,4.3,6.5,75.0,46.0,NBA,1995.0,106.0,3.2,5.5,SF,25.6,2001,2.5,POR,4.6,9.9
25.0,4.7,0.6,103.0,7.4,0.486,9.6,19.8,0.384,1.5,3.9,0.469,11.1,23.8,0.741,4.9,6.6,74.0,69.0,NBA,2348.0,104.0,2.8,4.8,SG,28.7,2002,2.6,POR,4.4,10.2
26.0,5.5,0.4,101.0,6.6,0.464,8.9,19.3,0.292,0.9,2.9,0.441,9.8,22.2,0.722,5.1,7.0,75.0,65.0,NBA,2396.0,98.0,2.2,4.9,SG,25.5,2003,2.8,POR,4.8,8.8
27.0,3.9,0.5,103.0,5.2,0.437,9.7,22.2,0.319,0.6,2.0,0.427,10.3,24.2,0.754,3.9,5.2,72.0,27.0,NBA,1872.0,92.0,2.2,5.6,SG,25.2,2004,2.6,TOT,4.6,7.4
27.0,4.8,0.4,105.0,5.5,0.401,9.2,23.0,0.125,0.1,1.1,0.389,9.4,24.1,0.778,2.9,3.7,13.0,10.0,NBA,404.0,87.0,2.9,5.2,SG,21.8,2004,2.8,POR,4.4,8.4
27.0,3.7,0.6,103.0,5.1,0.446,9.8,22.0,0.344,0.8,2.2,0.437,10.6,24.2,0.75,4.2,5.6,59.0,17.0,NBA,1468.0,93.0,2.0,5.7,SG,26.1,2004,2.5,MEM,4.6,7.1
28.0,2.9,1.0,101.0,6.6,0.46,8.6,18.7,0.346,1.3,3.8,0.441,9.9,22.5,0.75,5.1,6.9,69.0,19.0,NBA,1489.0,100.0,1.8,6.0,SG,26.3,2005,3.1,MEM,3.3,8.3
29.0,4.5,0.8,101.0,8.0,0.482,8.5,17.6,0.222,0.3,1.4,0.463,8.8,19.0,0.679,4.0,5.9,52.0,41.0,NBA,1684.0,101.0,4.4,4.8,SG,21.9,2006,2.9,SAC,3.9,12.4
30.0,2.8,1.2,98.0,8.4,0.42,7.5,17.9,0.143,0.1,0.6,0.411,7.6,18.6,0.561,4.1,7.4,28.0,1.0,NBA,590.0,82.0,2.3,5.6,SF,19.5,2007,2.2,HOU,5.1,10.8
31.0,3.3,1.1,100.0,8.4,0.462,8.2,17.7,0.24,0.4,1.7,0.443,8.6,19.4,0.643,5.0,7.7,73.0,7.0,NBA,1562.0,99.0,2.9,5.3,SG,22.5,2008,2.6,TOT,3.5,11.3
31.0,3.8,1.1,99.0,9.3,0.447,7.9,17.7,0.211,0.4,1.8,0.425,8.3,19.5,0.638,5.2,8.2,51.0,7.0,NBA,1124.0,97.0,3.0,5.3,SG,22.2,2008,2.4,HOU,3.6,12.3
31.0,2.1,1.0,103.0,6.1,0.503,8.9,17.7,0.333,0.5,1.5,0.49,9.4,19.1,0.66,4.3,6.5,22.0,0.0,NBA,438.0,102.0,2.6,5.4,SG,23.5,2008,2.9,NOH,3.3,8.7
