age,ast_per_g,blk_per_g,drb_per_g,efg_pct,fg2_pct,fg2_per_g,fg2a_per_g,fg3_pct,fg3_per_g,fg3a_per_g,fg_pct,fg_per_g,fga_per_g,ft_pct,ft_per_g,fta_per_g,g,gs,lg_id,mp_per_g,orb_per_g,pf_per_g,pos,pts_per_g,season,stl_per_g,team_id,tov_per_g,trb_per_g
22.0,4.2,0.3,2.0,0.387,0.395,3.9,9.8,0.225,0.4,1.6,0.371,4.2,11.4,0.778,1.3,1.6,50.0,17.0,NBA,25.3,0.8,2.2,PG,10.1,1990,1.6,NJN,2.2,2.8
23.0,6.1,0.6,2.5,0.423,0.441,5.8,13.2,0.154,0.2,1.3,0.416,6.0,14.4,0.79,1.9,2.4,72.0,70.0,NBA,35.9,0.9,2.5,PG,14.1,1991,2.3,NJN,2.9,3.5
24.0,6.8,0.6,2.3,0.438,0.444,5.8,13.0,0.222,0.2,0.8,0.432,6.0,13.8,0.712,1.8,2.5,72.0,67.0,NBA,35.4,1.4,2.5,PG,13.8,1992,2.4,NJN,2.1,3.7
25.0,8.4,0.3,2.4,0.491,0.456,3.7,8.1,0.375,1.5,3.9,0.429,5.2,12.1,0.728,1.5,2.1,80.0,78.0,NBA,35.3,1.1,2.0,PG,13.4,1993,2.5,ATL,2.3,3.5
26.0,9.7,0.5,3.8,0.464,0.447,4.1,9.1,0.334,1.4,4.2,0.411,5.5,13.3,0.73,1.4,2.0,81.0,81.0,NBA,36.0,1.4,1.8,PG,13.8,1994,2.6,ATL,2.4,5.2
27.0,7.7,0.3,3.5,0.508,0.482,3.9,8.0,0.359,2.5,6.9,0.425,6.4,15.0,0.729,2.0,2.7,80.0,80.0,NBA,38.4,1.5,2.1,PG,17.2,1995,2.5,ATL,3.0,4.9
28.0,5.9,0.2,2.7,0.508,0.448,2.8,6.2,0.371,2.9,7.7,0.405,5.6,13.9,0.747,1.6,2.1,81.0,81.0,NBA,35.7,1.4,1.9,PG,15.7,1996,2.6,ATL,2.3,4.1
29.0,5.9,0.3,3.8,0.528,0.505,3.6,7.1,0.366,2.8,7.7,0.432,6.4,14.9,0.753,1.7,2.2,78.0,78.0,NBA,39.2,1.5,1.8,PG,17.4,1997,2.7,ATL,2.4,5.3
30.0,6.7,0.3,3.7,0.44,0.46,4.0,8.6,0.269,1.3,4.8,0.392,5.3,13.4,0.709,1.4,1.9,70.0,69.0,NBA,38.6,1.2,1.7,PG,13.2,1998,2.6,ATL,2.5,4.9
31.0,5.8,0.2,3.7,0.439,0.425,3.5,8.3,0.307,1.6,5.2,0.379,5.1,13.6,0.758,1.4,1.9,48.0,48.0,NBA,36.7,0.9,1.3,PG,13.3,1999,2.1,ATL,2.4,4.7
32.0,6.7,0.3,2.9,0.451,0.422,3.1,7.3,0.336,1.4,4.1,0.391,4.5,11.5,0.705,0.9,1.3,73.0,72.0,NBA,33.7,0.8,1.7,PG,11.3,2000,2.0,GSW,2.0,3.7
33.0,6.7,0.3,2.9,0.441,0.424,3.5,8.3,0.324,1.1,3.3,0.396,4.6,11.6,0.697,0.8,1.1,69.0,59.0,NBA,34.1,1.0,1.9,PG,11.0,2001,2.4,GSW,1.9,3.9
34.0,3.3,0.1,1.3,0.394,0.337,1.0,3.0,0.357,0.4,1.2,0.342,1.4,4.2,0.5,0.1,0.2,35.0,0.0,NBA,17.1,0.2,0.6,PG,3.4,2002,0.7,GSW,1.1,1.5
