age,ast,blk,drb,efg_pct,fg,fg2,fg2_pct,fg2a,fg3,fg3_pct,fg3a,fg_pct,fga,ft,ft_pct,fta,g,gs,lg_id,mp,orb,pf,pos,pts,season,stl,team_id,tov,trb
24.0,31.0,2.0,11.0,0.318,17.0,16.0,0.327,49.0,1.0,0.167,6.0,0.309,55.0,3.0,0.75,4.0,4.0,4.0,NBA,148.0,5.0,16.0,PG,38.0,1992,15.0,NJN,7.0,16.0
25.0,13.0,4.0,11.0,0.44,9.0,5.0,0.385,13.0,4.0,0.333,12.0,0.36,25.0,5.0,0.833,6.0,3.0,3.0,NBA,99.0,2.0,9.0,PG,27.0,1993,3.0,ATL,11.0,13.0
26.0,98.0,5.0,39.0,0.418,48.0,26.0,0.338,77.0,22.0,0.344,64.0,0.34,141.0,25.0,0.833,30.0,11.0,11.0,NBA,415.0,16.0,22.0,PG,143.0,1994,24.0,ATL,32.0,55.0
27.0,17.0,0.0,6.0,0.48,18.0,7.0,0.333,21.0,11.0,0.393,28.0,0.367,49.0,7.0,0.636,11.0,3.0,3.0,NBA,121.0,7.0,6.0,PG,54.0,1995,4.0,ATL,9.0,13.0
28.0,64.0,8.0,30.0,0.534,61.0,28.0,0.459,61.0,33.0,0.393,84.0,0.421,145.0,16.0,0.667,24.0,10.0,10.0,NBA,426.0,13.0,15.0,PG,171.0,1996,22.0,ATL,29.0,43.0
29.0,65.0,2.0,58.0,0.487,61.0,33.0,0.478,69.0,28.0,0.329,85.0,0.396,154.0,14.0,0.667,21.0,10.0,10.0,NBA,441.0,12.0,15.0,PG,164.0,1997,21.0,ATL,35.0,70.0
30.0,33.0,1.0,14.0,0.491,22.0,14.0,0.538,26.0,8.0,0.296,27.0,0.415,53.0,7.0,0.583,12.0,4.0,4.0,NBA,153.0,6.0,8.0,PG,59.0,1998,9.0,ATL,9.0,20.0
31.0,36.0,2.0,30.0,0.393,44.0,26.0,0.31,84.0,18.0,0.353,51.0,0.326,135.0,7.0,0.467,15.0,9.0,9.0,NBA,358.0,6.0,11.0,PG,113.0,1999,18.0,ATL,30.0,36.0
