age,ast,blk,drb,fg,fg2,fg2a,fg3,fg3a,fga,ft,fta,game_score,lg_id,mp,orb,pf,pts,season,stl,team_id,tov,trb
23.0,12.0,3.0,10.0,13.0,13.0,23.0,2.0,3.0,24.0,8.0,9.0,27.3,NBA,0.0,3.0,5.0,34.0,1989,6.0,MIA,11.0,10.0
24.0,9.0,3.0,8.0,14.0,14.0,25.0,1.0,2.0,25.0,7.0,9.0,29.9,NBA,0.0,4.0,6.0,33.0,1990,5.0,MIA,6.0,10.0
25.0,7.0,4.0,6.0,12.0,11.0,25.0,3.0,8.0,26.0,10.0,12.0,21.8,NBA,0.0,6.0,6.0,34.0,1991,5.0,MIA,6.0,10.0
26.0,7.0,2.0,8.0,11.0,11.0,16.0,1.0,2.0,18.0,12.0,12.0,23.6,NBA,0.0,4.0,6.0,26.0,1992,6.0,MIA,7.0,9.0
27.0,7.0,2.0,5.0,13.0,13.0,23.0,1.0,3.0,24.0,13.0,15.0,24.8,NBA,0.0,4.0,4.0,26.0,1993,6.0,MIA,5.0,8.0
28.0,9.0,3.0,8.0,10.0,10.0,21.0,2.0,4.0,22.0,9.0,10.0,23.9,NBA,0.0,4.0,5.0,28.0,1994,5.0,NJN,6.0,12.0
29.0,5.0,1.0,4.0,7.0,6.0,11.0,3.0,7.0,14.0,7.0,8.0,17.2,NBA,0.0,3.0,5.0,22.0,1995,3.0,NJN,5.0,7.0
30.0,5.0,1.0,6.0,11.0,8.0,15.0,4.0,6.0,21.0,7.0,9.0,19.4,NBA,0.0,3.0,5.0,26.0,1996,5.0,NJN,7.0,7.0
31.0,5.0,1.0,7.0,8.0,7.0,16.0,2.0,5.0,18.0,5.0,6.0,14.2,NBA,0.0,2.0,4.0,21.0,1997,2.0,NJN,6.0,8.0
32.0,5.0,1.0,5.0,6.0,5.0,13.0,2.0,2.0,13.0,4.0,4.0,14.0,NBA,0.0,3.0,4.0,15.0,1998,3.0,TOT,3.0,5.0
32.0,4.0,0.0,5.0,6.0,5.0,10.0,2.0,2.0,10.0,3.0,4.0,14.0,NBA,0.0,2.0,4.0,15.0,1998,3.0,NJN,2.0,5.0
32.0,5.0,1.0,4.0,5.0,5.0,13.0,1.0,2.0,13.0,4.0,4.0,7.4,NBA,0.0,3.0,2.0,12.0,1998,2.0,ORL,3.0,4.0
35.0,5.0,2.0,5.0,6.0,6.0,11.0,2.0,3.0,13.0,7.0,8.0,11.5,NBA,0.0,3.0,4.0,13.0,2001,2.0,VAN,4.0,5.0
