age,ast_pct,blk_pct,bpm,bpm-dum,dbpm,drb_pct,dws,fg3a_per_fga_pct,fta_per_fga_pct,g,lg_id,mp,obpm,orb_pct,ows,per,pos,season,stl_pct,team_id,tov_pct,trb_pct,ts_pct,usg_pct,vorp,ws,ws-dum,ws_per_48
22.0,3.1,1.7,-4.7,0.0,-0.5,20.0,1.4,0.0,0.514,75.0,NBA,779.0,-4.2,7.4,0.1,9.7,C,1989,0.5,UTA,20.4,14.2,0.591,18.4,-0.5,1.5,0.0,0.093
23.0,3.7,1.9,-3.1,0.0,-0.3,20.8,1.1,0.0,0.491,77.0,NBA,764.0,-2.8,7.9,0.6,12.1,C,1990,1.0,UTA,18.9,14.7,0.613,19.0,-0.2,1.7,0.0,0.107
24.0,5.0,1.2,-6.2,0.0,-0.8,22.4,1.0,0.0,0.378,72.0,NBA,1122.0,-5.4,8.1,-0.8,7.5,C,1991,0.6,TOT,16.8,15.1,0.473,15.8,-1.2,0.2,0.0,0.007
24.0,7.0,1.9,-7.0,0.0,-0.5,18.5,0.3,0.0,0.281,32.0,NBA,378.0,-6.6,7.9,-0.5,5.6,C,1991,0.5,SAC,18.8,13.0,0.436,15.4,-0.5,-0.1,0.0,-0.018
24.0,4.0,0.9,-5.8,0.0,-1.0,24.3,0.6,0.0,0.424,40.0,NBA,744.0,-4.8,8.3,-0.3,8.4,C,1991,0.7,CHH,15.8,16.1,0.489,16.0,-0.7,0.3,0.0,0.02
25.0,5.4,1.5,-4.6,0.0,-0.5,24.0,0.6,0.006,0.331,59.0,NBA,716.0,-4.2,7.2,0.3,9.4,C,1992,0.6,CHH,18.1,15.5,0.555,12.2,-0.5,0.9,0.0,0.06
27.0,11.1,1.8,-3.8,0.0,-0.1,19.6,0.8,0.007,0.455,71.0,NBA,1163.0,-3.7,7.1,0.1,10.4,C,1994,0.8,PHI,20.0,13.3,0.527,16.0,-0.5,0.9,0.0,0.036
28.0,3.5,1.8,-6.2,0.0,-2.0,24.0,0.5,0.012,0.436,57.0,NBA,623.0,-4.3,8.8,0.4,12.2,C,1995,1.2,DET,16.5,16.3,0.572,17.0,-0.7,0.9,0.0,0.069
29.0,1.1,2.0,-6.2,0.0,-0.9,19.5,0.2,0.0,0.448,18.0,NBA,155.0,-5.3,6.5,0.0,8.8,C,1996,0.7,DET,24.1,13.3,0.634,14.1,-0.2,0.2,0.0,0.075
30.0,6.4,1.2,-10.8,0.0,-1.7,29.0,0.1,0.0,0.364,20.0,NBA,126.0,-9.1,4.6,-0.3,4.9,C,1997,1.3,TOT,20.7,16.6,0.444,17.8,-0.3,-0.1,0.0,-0.045
30.0,12.1,0.0,-16.0,0.0,-2.8,10.7,0.0,0.0,0.0,1.0,NBA,11.0,-13.2,0.0,-0.1,-10.1,C,1997,0.0,CHH,0.0,5.5,0.0,12.8,0.0,-0.1,0.0,-0.241
30.0,5.9,1.3,-10.3,0.0,-1.6,30.7,0.1,0.0,0.4,19.0,NBA,115.0,-8.7,5.0,-0.2,6.3,C,1997,1.4,VAN,22.1,17.7,0.482,18.3,-0.2,-0.1,0.0,-0.026
