age,ast,blk,drb,efg_pct,fg,fg2,fg2_pct,fg2a,fg3,fg3_pct,fg3a,fg_pct,fga,ft,ft_pct,fta,g,gs,lg_id,mp,orb,pf,pos,pts,season,stl,team_id,tov,trb
22.0,0.0,0.0,1.0,0.25,1.0,1.0,0.25,4.0,0.0,0.0,0.0,0.25,4.0,0.0,0.0,0.0,3.0,0.0,NBA,10.0,1.0,2.0,C,2.0,1989,0.0,UTA,3.0,2.0
23.0,2.0,0.0,6.0,0.65,6.0,5.0,0.556,9.0,1.0,1.0,1.0,0.6,10.0,5.0,0.556,9.0,3.0,0.0,NBA,28.0,2.0,8.0,C,18.0,1990,0.0,UTA,1.0,8.0
29.0,0.0,0.0,0.0,0.0,0.0,0.0,0.0,0.0,0.0,0.0,0.0,0.0,0.0,0.0,0.0,0.0,1.0,0.0,NBA,3.0,0.0,2.0,C,0.0,1996,0.0,DET,0.0,0.0
