age,ast,blk,drb,efg_pct,fg,fg2,fg2_pct,fg2a,fg3,fg3_pct,fg3a,fg_pct,fga,ft,ft_pct,fta,g,gs,lg_id,mp,orb,pf,pos,pts,season,stl,team_id,tov,trb
19.0,429.0,25.0,477.0,0.497,506.0,338.0,0.503,672.0,168.0,0.327,514.0,0.427,1186.0,346.0,0.713,485.0,72.0,72.0,NBA,2318.0,86.0,137.0,SG,1526.0,2019,77.0,DAL,247.0,563.0
20.0,64.0,1.0,57.0,0.541,62.0,42.0,0.583,72.0,20.0,0.328,61.0,0.466,133.0,43.0,0.811,53.0,7.0,7.0,NBA,251.0,12.0,18.0,PG,187.0,2020,9.0,DAL,34.0,69.0
