age,avg_dist,fg2_dunk,fg2_pct,fg2_pct_ast,fg2a_pct_fga,fg3_heave,fg3_pct,fg3_pct_ast,fg3_pct_corner,fg3a_heave,fg3a_pct_fga,fg_pct,fg_pct_00_03,fg_pct_03_10,fg_pct_10_16,fg_pct_16_xx,g,lg_id,mp,pct_fg2_dunk,pct_fg3a_corner,pct_fga_00_03,pct_fga_03_10,pct_fga_10_16,pct_fga_16_xx,pos,season,team_id
19.0,15.5,25.0,0.503,0.195,0.567,1.0,0.327,0.423,0.5,14.0,0.433,0.427,0.637,0.448,0.377,0.42,72.0,NBA,2318.0,0.022,0.058,0.209,0.212,0.103,0.042,SG,2019,DAL
20.0,15.4,1.0,0.583,0.167,0.541,0.0,0.328,0.35,0.667,2.0,0.459,0.466,0.697,0.448,0.625,0.5,7.0,NBA,251.0,0.008,0.049,0.248,0.218,0.06,0.015,PG,2020,DAL
