age,ast,ast_per_g,blk,college_id,fg,fg3,fg3_pct,fg3a,fg_pct,fga,ft,ft_pct,fta,g,mp,mp_per_g,orb,pf,pts,pts_per_g,season,stl,tov,trb,trb_per_g
20.0,56.0,1.8,82.0,PEPPERDINE,152.0,0.0,0.0,0.0,0.503,302.0,73.0,0.533,137.0,32.0,1027.0,32.1,0.0,104.0,377.0,11.8,1985,42.0,92.0,230.0,7.2
21.0,70.0,2.3,63.0,PEPPERDINE,123.0,0.0,0.0,0.0,0.547,225.0,36.0,0.621,58.0,30.0,936.0,31.2,0.0,96.0,282.0,9.4,1986,39.0,63.0,207.0,6.9
