age,and1s,astd_pts,drawn_offensive,drawn_shooting,fouls_offensive,fouls_shooting,g,lg_id,mp,own_shots_blk,pct_1,pct_2,pct_3,pct_4,pct_5,plus_minus_net,plus_minus_on,pos,season,team_id,tov_bad_pass,tov_lost_ball
22.0,13.0,57.0,0.0,57.0,4.0,67.0,54.0,NBA,863.0,22.0,0.0,0.0,0.0,83.0,17.0,5.4,5.1,PF,2005,CLE,11.0,6.0
23.0,15.0,42.0,32.0,55.0,5.0,63.0,48.0,NBA,760.0,11.0,0.0,0.0,0.0,18.0,82.0,7.2,8.4,C,2006,CLE,7.0,8.0
24.0,22.0,166.0,99.0,111.0,13.0,154.0,81.0,NBA,1932.0,44.0,0.0,0.0,0.0,31.0,69.0,7.3,8.2,C,2007,CLE,18.0,12.0
25.0,13.0,115.0,33.0,40.0,7.0,74.0,48.0,NBA,1320.0,25.0,0.0,0.0,0.0,28.0,72.0,6.6,4.3,C,2008,CLE,21.0,23.0
26.0,25.0,185.0,51.0,113.0,7.0,119.0,81.0,NBA,2306.0,36.0,0.0,0.0,0.0,57.0,43.0,2.1,11.2,PF,2009,CLE,27.0,30.0
27.0,25.0,199.0,28.0,79.0,12.0,107.0,76.0,NBA,2166.0,36.0,0.0,0.0,0.0,61.0,39.0,12.9,13.3,PF,2010,CLE,23.0,19.0
28.0,9.0,103.0,12.0,35.0,9.0,38.0,31.0,NBA,994.0,21.0,0.0,0.0,0.0,0.0,100.0,1.4,-8.5,C,2011,CLE,14.0,9.0
29.0,10.0,95.0,8.0,29.0,5.0,30.0,25.0,NBA,785.0,22.0,0.0,0.0,0.0,0.0,100.0,8.5,-1.1,C,2012,CLE,19.0,17.0
30.0,9.0,200.0,8.0,41.0,5.0,30.0,25.0,NBA,901.0,17.0,0.0,0.0,0.0,30.0,70.0,0.8,-4.7,C,2013,CLE,19.0,12.0
31.0,11.0,324.0,21.0,51.0,9.0,73.0,65.0,NBA,1800.0,25.0,0.0,0.0,0.0,21.0,79.0,9.2,1.6,C,2014,CLE,33.0,26.0
32.0,3.0,79.0,9.0,22.0,4.0,24.0,26.0,NBA,636.0,16.0,0.0,0.0,0.0,0.0,100.0,-4.9,0.5,C,2015,CLE,15.0,12.0
33.0,6.0,86.0,11.0,23.0,4.0,31.0,53.0,NBA,496.0,5.0,0.0,0.0,0.0,7.0,93.0,-7.4,1.9,C,2016,TOT,8.0,6.0
33.0,1.0,49.0,8.0,8.0,1.0,13.0,31.0,NBA,310.0,2.0,0.0,0.0,0.0,12.0,89.0,0.6,7.0,C,2016,CLE,7.0,4.0
33.0,5.0,37.0,3.0,15.0,3.0,18.0,22.0,NBA,186.0,3.0,0.0,0.0,0.0,0.0,100.0,-18.2,-6.3,C,2016,GSW,1.0,2.0
34.0,1.0,24.0,2.0,5.0,2.0,9.0,14.0,NBA,92.0,0.0,0.0,0.0,0.0,19.0,81.0,-23.4,-11.1,C,2017,GSW,4.0,2.0
