age,ast_per_mp,blk_per_mp,drb_per_mp,fg2_pct,fg2_per_mp,fg2a_per_mp,fg3_pct,fg3_per_mp,fg3a_per_mp,fg_pct,fg_per_mp,fga_per_mp,ft_pct,ft_per_mp,fta_per_mp,g,gs,lg_id,mp,orb_per_mp,pf_per_mp,pos,pts_per_mp,season,stl_per_mp,team_id,tov_per_mp,trb_per_mp
22.0,1.1,1.6,6.2,0.518,4.1,8.0,0.0,0.0,0.1,0.513,4.1,8.1,0.535,2.8,5.3,54.0,0.0,NBA,863.0,4.5,5.1,PF,11.1,2005,1.7,CLE,1.1,10.7
23.0,0.9,0.9,7.5,0.53,3.7,7.1,0.0,0.0,0.0,0.527,3.7,7.1,0.513,2.9,5.6,48.0,4.0,NBA,760.0,3.6,5.6,C,10.4,2006,1.5,CLE,1.3,11.1
24.0,1.4,1.0,6.6,0.487,3.6,7.3,0.0,0.0,0.2,0.476,3.6,7.5,0.616,3.1,5.0,81.0,6.0,NBA,1932.0,3.6,5.0,C,10.2,2007,1.4,CLE,1.2,10.2
25.0,1.4,0.7,7.2,0.464,3.7,8.0,0.0,0.0,0.1,0.461,3.7,8.0,0.598,1.3,2.2,48.0,13.0,NBA,1320.0,3.7,3.7,C,8.8,2008,1.0,CLE,1.6,10.9
26.0,1.3,1.0,6.5,0.538,4.2,7.8,0.0,0.0,0.0,0.536,4.2,7.9,0.616,2.4,3.9,81.0,42.0,NBA,2306.0,2.6,3.7,PF,10.8,2009,1.2,CLE,1.2,9.1
27.0,1.4,1.1,6.5,0.576,4.4,7.7,0.2,0.0,0.1,0.572,4.4,7.8,0.663,1.9,2.9,76.0,7.0,NBA,2166.0,3.1,3.7,PF,10.8,2010,1.2,CLE,1.1,9.6
28.0,1.6,1.4,7.4,0.533,4.1,7.8,0.0,0.0,0.1,0.528,4.1,7.8,0.667,2.0,2.9,31.0,31.0,NBA,994.0,3.5,3.2,C,10.2,2011,1.0,CLE,1.4,10.9
29.0,2.0,0.8,8.2,0.523,5.2,10.0,0.0,0.0,0.2,0.514,5.2,10.2,0.672,2.0,2.9,25.0,25.0,NBA,785.0,5.0,2.8,C,12.4,2012,1.6,CLE,2.1,13.2
30.0,3.4,0.6,8.9,0.486,5.5,11.3,0.0,0.0,0.2,0.478,5.5,11.5,0.755,3.1,4.1,25.0,25.0,NBA,901.0,5.5,2.7,C,14.1,2013,1.5,CLE,1.8,14.4
31.0,2.8,0.8,8.8,0.502,4.5,9.0,0.0,0.0,0.1,0.495,4.5,9.2,0.681,1.8,2.7,65.0,29.0,NBA,1800.0,3.7,3.3,C,10.9,2014,1.4,CLE,1.4,12.6
32.0,2.0,0.9,6.4,0.561,6.3,11.2,0.0,0.0,0.1,0.555,6.3,11.3,0.733,1.9,2.5,26.0,26.0,NBA,636.0,3.2,3.3,C,14.4,2015,1.1,CLE,2.0,9.6
33.0,2.5,0.7,7.5,0.431,3.8,8.9,0.0,0.0,0.1,0.427,3.8,9.0,0.64,2.3,3.6,53.0,0.0,NBA,496.0,2.7,5.1,C,10.0,2016,1.2,TOT,1.6,10.2
33.0,2.3,0.6,7.8,0.427,3.7,8.7,0.0,0.0,0.1,0.421,3.7,8.8,0.762,1.9,2.4,31.0,0.0,NBA,310.0,2.8,4.1,C,9.3,2016,1.3,CLE,1.9,10.6
33.0,2.9,1.0,7.2,0.438,4.1,9.3,0.0,0.0,0.0,0.438,4.1,9.3,0.552,3.1,5.6,22.0,0.0,NBA,186.0,2.5,6.8,C,11.2,2016,1.0,GSW,1.2,9.7
34.0,3.9,1.2,5.9,0.357,2.0,5.5,0.0,0.0,0.0,0.357,2.0,5.5,0.727,3.1,4.3,14.0,1.0,NBA,92.0,4.7,6.3,C,7.0,2017,1.2,GSW,3.1,10.6
