age,ast,blk,drb,efg_pct,fg,fg2,fg2_pct,fg2a,fg3,fg3_pct,fg3a,fg_pct,fga,ft,ft_pct,fta,g,gs,lg_id,mp,orb,pf,pos,pts,season,stl,team_id,tov,trb
22.0,2.0,1.0,2.0,0.667,4.0,4.0,0.667,6.0,0.0,0.0,0.0,0.667,6.0,2.0,0.5,4.0,2.0,1.0,NBA,24.0,2.0,5.0,PF,10.0,2003,2.0,MIL,1.0,4.0
23.0,0.0,0.0,0.0,1.0,1.0,1.0,1.0,1.0,0.0,0.0,0.0,1.0,1.0,0.0,0.0,0.0,1.0,0.0,NBA,3.0,1.0,0.0,PF,2.0,2004,0.0,MIL,0.0,1.0
