lg_id,salary,season,team_name
NBA,1439400.0,2003,Milwaukee Bucks
NBA,1547280.0,2004,Milwaukee Bucks
NBA,1400000.0,2005,Milwaukee Bucks
NBA,576380.0,2005,Indiana Pacers
NBA,825497.0,2010,San Antonio Spurs
