age,ast_pct,blk_pct,bpm,bpm-dum,dbpm,drb_pct,dws,fg3a_per_fga_pct,fta_per_fga_pct,g,lg_id,mp,obpm,orb_pct,ows,per,pos,season,stl_pct,team_id,tov_pct,trb_pct,ts_pct,usg_pct,vorp,ws,ws-dum,ws_per_48
23.0,29.0,0.2,-3.1,0.0,-0.8,10.1,1.1,0.123,0.346,80.0,NBA,1561.0,-2.3,3.0,0.1,11.2,SG,1987,2.1,PHO,27.5,6.6,0.526,14.5,-0.4,1.2,0.0,0.036
24.0,31.5,0.3,0.3,0.0,-0.8,9.6,1.3,0.096,0.306,82.0,NBA,2243.0,1.1,3.5,3.7,15.9,SG,1988,2.3,PHO,18.5,6.6,0.569,15.3,1.3,5.0,0.0,0.106
25.0,24.2,0.2,3.2,0.0,0.7,7.8,2.8,0.091,0.2,78.0,NBA,2487.0,2.5,3.4,4.9,16.3,SG,1989,2.4,PHO,10.3,5.7,0.545,17.2,3.3,7.7,0.0,0.149
26.0,21.7,0.3,5.2,0.0,1.0,10.3,2.8,0.109,0.224,67.0,NBA,2278.0,4.2,4.4,5.8,19.6,SG,1990,2.4,PHO,11.2,7.5,0.596,20.2,4.1,8.7,0.0,0.182
27.0,21.2,0.3,3.7,0.0,0.1,9.4,2.8,0.139,0.213,80.0,NBA,2733.0,3.6,3.1,6.9,17.8,SG,1991,1.9,PHO,10.2,6.4,0.587,19.1,4.0,9.7,0.0,0.171
28.0,19.3,0.6,5.1,0.0,1.0,10.3,3.8,0.152,0.254,81.0,NBA,3078.0,4.1,4.0,7.8,18.9,SG,1992,2.5,PHO,11.0,7.3,0.592,20.9,5.5,11.6,0.0,0.181
29.0,31.6,0.4,2.3,0.0,-1.0,9.7,1.8,0.201,0.233,79.0,NBA,2860.0,3.3,3.2,4.5,18.2,PG,1993,2.2,PHI,14.0,6.5,0.553,23.5,3.1,6.3,0.0,0.106
30.0,23.9,0.3,1.5,0.0,-0.8,8.6,1.8,0.207,0.295,80.0,NBA,2820.0,2.3,2.4,5.1,16.7,SG,1994,2.3,TOT,13.1,5.5,0.562,20.2,2.5,6.9,0.0,0.117
30.0,25.5,0.3,0.9,0.0,-1.0,9.4,1.0,0.232,0.285,53.0,NBA,1994.0,1.9,2.3,2.7,16.3,SG,1994,2.4,PHI,14.6,5.8,0.547,20.5,1.5,3.7,0.0,0.09
30.0,20.0,0.3,2.8,0.0,-0.6,6.6,0.8,0.145,0.318,27.0,NBA,826.0,3.3,2.7,2.4,17.6,SG,1994,2.0,UTA,9.1,4.7,0.598,19.4,1.0,3.1,0.0,0.182
31.0,20.1,0.5,4.5,0.0,0.1,6.9,2.9,0.234,0.344,81.0,NBA,2696.0,4.4,2.6,7.2,18.6,SG,1995,2.5,UTA,11.8,4.9,0.62,20.6,4.4,10.1,0.0,0.179
32.0,21.2,0.6,4.3,0.0,-0.3,6.8,2.4,0.253,0.33,82.0,NBA,2588.0,4.7,3.0,7.9,19.1,SG,1996,2.2,UTA,11.2,5.0,0.619,20.1,4.2,10.2,0.0,0.19
33.0,22.1,0.8,4.0,0.0,0.3,8.2,3.0,0.228,0.381,82.0,NBA,2592.0,3.8,3.1,7.2,18.8,SG,1997,2.6,UTA,11.8,5.8,0.596,20.3,4.0,10.2,0.0,0.19
34.0,23.9,0.5,3.7,0.0,-0.3,9.7,2.1,0.153,0.389,80.0,NBA,2460.0,4.0,3.5,7.4,19.3,SG,1998,2.4,UTA,12.0,6.8,0.587,20.8,3.5,9.5,0.0,0.186
35.0,24.7,0.7,3.1,0.0,0.4,10.1,1.8,0.18,0.312,48.0,NBA,1435.0,2.7,3.0,3.5,17.8,SG,1999,2.0,UTA,13.8,6.8,0.575,19.7,1.8,5.3,0.0,0.176
36.0,16.3,0.6,1.7,0.0,-0.7,7.4,1.8,0.19,0.247,77.0,NBA,2133.0,2.4,2.9,4.7,16.3,SG,2000,1.7,UTA,12.3,5.2,0.59,19.9,2.0,6.5,0.0,0.147
