age,ast_per_mp,blk_per_mp,drb_per_mp,fg2_pct,fg2_per_mp,fg2a_per_mp,fg3_pct,fg3_per_mp,fg3a_per_mp,fg_pct,fg_per_mp,fga_per_mp,ft_pct,ft_per_mp,fta_per_mp,g,gs,lg_id,mp,orb_per_mp,pf_per_mp,pos,pts_per_mp,season,stl_per_mp,team_id,tov_per_mp,trb_per_mp
25.0,6.0,0.3,4.2,0.521,7.1,13.7,0.0,0.0,0.7,0.497,7.1,14.3,0.84,2.0,2.4,12.0,12.0,NBA,374.0,2.4,3.3,SG,16.3,1989,1.5,PHO,1.7,6.6
26.0,4.5,0.0,3.0,0.544,6.5,12.0,0.25,0.4,1.5,0.511,6.9,13.5,0.932,4.2,4.5,16.0,16.0,NBA,583.0,0.8,2.7,SG,18.4,1990,1.5,PHO,2.1,3.8
27.0,2.0,0.5,5.5,0.422,4.7,11.2,0.5,0.7,1.5,0.431,5.5,12.7,0.929,6.5,7.0,4.0,4.0,NBA,145.0,0.7,3.2,SG,18.1,1991,0.7,PHO,0.7,6.2
28.0,4.4,0.2,4.1,0.486,5.7,11.7,0.471,0.8,1.8,0.484,6.5,13.4,0.912,3.3,3.6,8.0,8.0,NBA,343.0,1.3,2.4,SG,17.1,1992,1.5,PHO,2.0,5.4
30.0,4.1,0.4,1.8,0.483,4.5,9.4,0.441,1.0,2.2,0.475,5.5,11.5,0.912,4.0,4.4,16.0,16.0,NBA,558.0,0.7,2.9,SG,15.9,1994,1.5,UTA,1.8,2.5
31.0,4.0,0.2,0.6,0.5,3.8,7.7,0.538,1.4,2.6,0.51,5.3,10.3,0.786,2.2,2.8,5.0,5.0,NBA,178.0,0.6,3.8,SG,14.2,1995,1.6,UTA,1.4,1.2
32.0,3.4,0.2,2.4,0.47,3.9,8.3,0.586,1.9,3.2,0.502,5.8,11.6,0.89,4.1,4.6,18.0,18.0,NBA,644.0,1.2,2.3,SG,17.6,1996,1.1,UTA,1.5,3.6
33.0,3.7,0.2,3.4,0.458,3.6,7.9,0.358,1.0,2.7,0.433,4.6,10.6,0.876,4.7,5.4,20.0,20.0,NBA,704.0,1.1,2.7,SG,14.9,1997,1.1,UTA,1.8,4.6
34.0,3.6,0.2,2.4,0.405,3.4,8.4,0.467,0.8,1.7,0.416,4.2,10.1,0.846,3.1,3.7,20.0,20.0,NBA,636.0,0.4,2.9,SG,12.3,1998,1.1,UTA,1.8,2.8
35.0,3.1,0.0,3.8,0.477,5.0,10.4,0.389,0.8,2.1,0.462,5.8,12.6,0.879,3.4,3.9,11.0,11.0,NBA,304.0,1.1,4.0,SG,15.9,1999,1.3,UTA,1.4,4.9
36.0,4.0,0.0,2.5,0.425,4.1,9.7,0.409,1.1,2.7,0.422,5.2,12.4,0.833,2.4,2.9,10.0,10.0,NBA,297.0,1.1,3.4,SG,13.9,2000,1.2,UTA,1.8,3.6
