age,ast,blk,drb,fg,fg2,fg2a,fg3,fg3a,fga,ft,fta,game_score,lg_id,mp,orb,pf,pts,season,stl,team_id,tov,trb
23.0,18.0,1.0,6.0,5.0,5.0,8.0,2.0,4.0,10.0,7.0,7.0,17.4,NBA,0.0,4.0,5.0,14.0,1987,4.0,PHO,7.0,7.0
24.0,17.0,1.0,7.0,10.0,9.0,15.0,3.0,3.0,15.0,6.0,8.0,27.9,NBA,0.0,5.0,5.0,21.0,1988,6.0,PHO,6.0,9.0
25.0,18.0,1.0,9.0,12.0,12.0,21.0,3.0,5.0,25.0,6.0,6.0,30.9,NBA,0.0,4.0,5.0,32.0,1989,6.0,PHO,5.0,11.0
26.0,15.0,2.0,10.0,13.0,13.0,20.0,4.0,7.0,23.0,7.0,8.0,33.3,NBA,0.0,4.0,6.0,30.0,1990,6.0,PHO,6.0,12.0
27.0,16.0,2.0,8.0,13.0,13.0,20.0,5.0,7.0,23.0,12.0,12.0,26.0,NBA,0.0,3.0,6.0,31.0,1991,4.0,PHO,5.0,10.0
28.0,14.0,2.0,10.0,14.0,12.0,20.0,4.0,7.0,22.0,9.0,9.0,32.0,NBA,0.0,5.0,6.0,35.0,1992,6.0,PHO,6.0,14.0
29.0,16.0,2.0,9.0,14.0,13.0,19.0,5.0,9.0,27.0,12.0,12.0,40.2,NBA,0.0,4.0,6.0,39.0,1993,7.0,PHI,7.0,9.0
30.0,12.0,2.0,8.0,13.0,11.0,19.0,4.0,7.0,20.0,10.0,11.0,34.1,NBA,0.0,3.0,5.0,36.0,1994,5.0,TOT,6.0,11.0
30.0,12.0,2.0,8.0,13.0,11.0,19.0,4.0,7.0,20.0,10.0,11.0,34.1,NBA,0.0,3.0,5.0,36.0,1994,5.0,PHI,6.0,11.0
30.0,8.0,1.0,5.0,10.0,10.0,18.0,4.0,4.0,18.0,8.0,9.0,23.5,NBA,0.0,3.0,5.0,28.0,1994,4.0,UTA,4.0,5.0
31.0,10.0,1.0,6.0,14.0,12.0,15.0,8.0,8.0,18.0,14.0,14.0,33.9,NBA,0.0,2.0,6.0,40.0,1995,5.0,UTA,5.0,8.0
32.0,11.0,2.0,5.0,11.0,9.0,14.0,4.0,7.0,18.0,11.0,12.0,28.4,NBA,0.0,4.0,6.0,29.0,1996,4.0,UTA,5.0,7.0
33.0,12.0,2.0,6.0,11.0,11.0,16.0,5.0,8.0,20.0,9.0,11.0,25.8,NBA,0.0,4.0,6.0,30.0,1997,5.0,UTA,5.0,8.0
34.0,11.0,2.0,7.0,11.0,10.0,17.0,4.0,5.0,17.0,11.0,12.0,27.4,NBA,0.0,5.0,6.0,31.0,1998,5.0,UTA,5.0,8.0
35.0,8.0,2.0,7.0,10.0,10.0,13.0,2.0,4.0,13.0,7.0,8.0,23.3,NBA,0.0,3.0,5.0,23.0,1999,3.0,UTA,5.0,7.0
36.0,6.0,2.0,5.0,10.0,10.0,14.0,5.0,6.0,15.0,8.0,8.0,26.5,NBA,0.0,4.0,6.0,27.0,2000,4.0,UTA,4.0,7.0
