age,ast_per_poss,blk_per_poss,def_rtg,drb_per_poss,fg2_pct,fg2_per_poss,fg2a_per_poss,fg3_pct,fg3_per_poss,fg3a_per_poss,fg_pct,fg_per_poss,fga_per_poss,ft_pct,ft_per_poss,fta_per_poss,g,gs,lg_id,mp,off_rtg,orb_per_poss,pf_per_poss,pos,pts_per_poss,season,stl_per_poss,team_id,tov_per_poss,trb_per_poss
21.0,3.3,0.3,107.0,2.5,0.432,3.2,7.4,0.315,2.4,7.5,0.373,5.6,14.9,0.686,3.3,4.8,72.0,0.0,NBA,1147.0,100.0,1.3,4.1,SF,16.8,2003,1.6,PHO,2.5,3.8
22.0,2.8,0.3,109.0,4.5,0.417,2.1,5.1,0.417,2.1,5.1,0.417,4.3,10.2,0.82,2.6,3.1,78.0,13.0,NBA,1828.0,110.0,1.2,4.1,SF,13.2,2004,1.4,PHO,1.9,5.7
23.0,3.3,0.2,112.0,3.9,0.429,2.9,6.8,0.373,1.9,5.2,0.404,4.8,12.0,0.786,4.4,5.6,84.0,1.0,NBA,1798.0,111.0,1.0,3.0,SG-SF,16.0,2005,1.0,TOT,2.1,4.9
23.0,2.4,0.1,113.0,3.3,0.456,2.0,4.4,0.382,2.2,5.8,0.414,4.2,10.2,0.774,3.1,4.0,40.0,0.0,NBA,768.0,114.0,1.1,3.6,SF,13.8,2005,0.7,PHO,1.8,4.4
23.0,4.0,0.4,111.0,4.4,0.417,3.6,8.7,0.364,1.7,4.7,0.398,5.3,13.4,0.792,5.5,6.9,44.0,1.0,NBA,1030.0,109.0,1.0,2.6,SG,17.8,2005,1.2,NOH,2.3,5.3
26.0,1.8,0.1,115.0,4.9,0.535,2.1,4.0,0.222,1.5,6.6,0.339,3.6,10.6,0.765,1.2,1.6,53.0,0.0,NBA,547.0,91.0,1.1,3.1,SG,9.9,2008,0.5,MEM,1.5,6.0
