age,avg_dist,fg2_dunk,fg2_pct,fg2_pct_ast,fg2a_pct_fga,fg3_heave,fg3_pct,fg3_pct_ast,fg3_pct_corner,fg3a_heave,fg3a_pct_fga,fg_pct,fg_pct_00_03,fg_pct_03_10,fg_pct_10_16,fg_pct_16_xx,g,lg_id,mp,pct_fg2_dunk,pct_fg3a_corner,pct_fga_00_03,pct_fga_03_10,pct_fga_10_16,pct_fga_16_xx,pos,season,team_id
25.0,14.1,0.0,0.444,0.357,0.802,0.0,0.385,0.467,0.5,1.0,0.198,0.433,0.532,0.435,0.345,0.403,82.0,NBA,1620.0,0.0,0.077,0.277,0.059,0.074,0.392,PG,2001,UTA
26.0,12.7,0.0,0.474,0.423,0.877,0.0,0.444,0.833,0.5,0.0,0.123,0.47,0.598,0.171,0.487,0.438,82.0,NBA,1856.0,0.0,0.259,0.301,0.08,0.089,0.406,PG,2002,ATL
27.0,11.2,0.0,0.467,0.409,0.917,0.0,0.235,0.875,0.182,0.0,0.083,0.448,0.513,0.471,0.5,0.414,80.0,NBA,1686.0,0.0,0.647,0.375,0.041,0.107,0.394,PG,2003,ORL
28.0,14.6,0.0,0.405,0.49,0.928,0.0,0.15,1.0,0.429,0.0,0.072,0.386,0.449,0.3,0.377,0.407,71.0,NBA,1271.0,0.0,0.35,0.177,0.036,0.191,0.523,PG,2004,ATL
29.0,13.0,0.0,0.455,0.652,0.954,0.0,0.333,1.0,0.4,0.0,0.046,0.449,0.478,0.267,0.414,0.466,71.0,NBA,1410.0,0.0,0.667,0.283,0.046,0.089,0.535,SG,2005,NJN
30.0,13.1,0.0,0.444,0.613,0.976,0.0,0.167,1.0,0.0,0.0,0.024,0.437,0.662,0.4,0.105,0.393,80.0,NBA,1234.0,0.0,0.5,0.265,0.041,0.078,0.592,SG,2006,NJN
31.0,12.5,0.0,0.424,0.543,0.988,0.0,0.5,1.0,0.5,0.0,0.012,0.425,0.409,0.357,0.316,0.466,64.0,NBA,760.0,0.0,1.0,0.263,0.084,0.114,0.527,PG,2007,SAS
32.0,12.4,0.0,0.432,0.458,0.965,0.0,0.3,0.667,0.4,1.0,0.035,0.428,0.598,0.179,0.364,0.397,74.0,NBA,1139.0,0.0,0.5,0.29,0.099,0.078,0.498,PG,2008,SAS
33.0,11.6,0.0,0.311,0.478,0.987,0.0,1.0,0.0,0.0,0.0,0.013,0.32,0.227,0.2,0.4,0.378,30.0,NBA,292.0,0.0,0.0,0.293,0.133,0.067,0.493,PG,2009,SAS
