age,ast,blk,drb,efg_pct,fg,fg2,fg2_pct,fg2a,fg3,fg3_pct,fg3a,fg_pct,fga,ft,ft_pct,fta,g,gs,lg_id,mp,orb,pf,pos,pts,season,stl,team_id,tov,trb
24.0,7.0,1.0,3.0,0.456,31.0,31.0,0.525,59.0,0.0,0.0,9.0,0.456,68.0,14.0,0.875,16.0,4.0,2.0,NBA,113.0,8.0,16.0,SF,76.0,1988,6.0,NYK,6.0,11.0
25.0,17.0,1.0,12.0,0.5,50.0,43.0,0.544,79.0,7.0,0.25,28.0,0.467,107.0,38.0,0.776,49.0,9.0,9.0,NBA,258.0,13.0,27.0,SF,145.0,1989,8.0,NYK,18.0,25.0
26.0,10.0,3.0,10.0,0.471,38.0,34.0,0.453,75.0,4.0,0.4,10.0,0.447,85.0,37.0,0.755,49.0,10.0,0.0,NBA,231.0,11.0,41.0,SF,117.0,1990,9.0,NYK,17.0,21.0
29.0,18.0,1.0,12.0,0.518,28.0,27.0,0.54,50.0,1.0,0.2,5.0,0.509,55.0,11.0,0.688,16.0,9.0,9.0,NBA,173.0,7.0,19.0,SF,68.0,1993,10.0,CHH,15.0,19.0
30.0,2.0,2.0,3.0,0.269,3.0,2.0,0.222,9.0,1.0,0.25,4.0,0.231,13.0,5.0,0.714,7.0,4.0,0.0,NBA,54.0,2.0,11.0,SF,12.0,1994,2.0,NJN,3.0,5.0
38.0,2.0,0.0,0.0,0.214,1.0,0.0,0.0,1.0,1.0,0.167,6.0,0.143,7.0,0.0,0.0,0.0,3.0,2.0,NBA,22.0,0.0,5.0,SF,3.0,2002,0.0,DAL,0.0,0.0
