age,ast_per_poss,blk_per_poss,def_rtg,drb_per_poss,fg2_pct,fg2_per_poss,fg2a_per_poss,fg3_pct,fg3_per_poss,fg3a_per_poss,fg_pct,fg_per_poss,fga_per_poss,ft_pct,ft_per_poss,fta_per_poss,g,gs,lg_id,mp,off_rtg,orb_per_poss,pf_per_poss,pos,pts_per_poss,season,stl_per_poss,team_id,tov_per_poss,trb_per_poss
24.0,3.2,0.5,118.0,1.4,0.525,14.0,26.6,0.0,0.0,4.1,0.456,14.0,30.6,0.875,6.3,7.2,4.0,2.0,NBA,113.0,107.0,3.6,7.2,SF,34.2,1988,2.7,NYK,2.7,5.0
25.0,3.3,0.2,115.0,2.4,0.544,8.5,15.5,0.25,1.4,5.5,0.467,9.8,21.1,0.776,7.5,9.6,9.0,9.0,NBA,258.0,112.0,2.6,5.3,SF,28.5,1989,1.6,NYK,3.5,4.9
26.0,2.2,0.7,118.0,2.2,0.453,7.4,16.4,0.4,0.9,2.2,0.447,8.3,18.6,0.755,8.1,10.7,10.0,0.0,NBA,231.0,105.0,2.4,9.0,SF,25.5,1990,2.0,NYK,3.7,4.6
29.0,5.4,0.3,106.0,3.6,0.54,8.2,15.1,0.2,0.3,1.5,0.509,8.5,16.6,0.688,3.3,4.8,9.0,9.0,NBA,173.0,100.0,2.1,5.7,SF,20.5,1993,3.0,CHH,4.5,5.7
30.0,2.0,2.0,104.0,3.0,0.222,2.0,9.0,0.25,1.0,4.0,0.231,3.0,13.0,0.714,5.0,7.0,4.0,0.0,NBA,54.0,79.0,2.0,11.0,SF,12.0,1994,2.0,NJN,3.0,5.0
38.0,4.5,0.0,119.0,0.0,0.0,0.0,2.3,0.167,2.3,13.6,0.143,2.3,15.8,0.0,0.0,0.0,3.0,2.0,NBA,22.0,64.0,0.0,11.3,SF,6.8,2002,0.0,DAL,0.0,0.0
