age,ast_per_mp,blk_per_mp,drb_per_mp,fg2_pct,fg2_per_mp,fg2a_per_mp,fg3_pct,fg3_per_mp,fg3a_per_mp,fg_pct,fg_per_mp,fga_per_mp,ft_pct,ft_per_mp,fta_per_mp,g,gs,lg_id,mp,orb_per_mp,pf_per_mp,pos,pts_per_mp,season,stl_per_mp,team_id,tov_per_mp,trb_per_mp
25.0,2.4,0.0,2.4,0.469,4.5,9.6,0.0,0.0,1.2,0.417,4.5,10.8,0.7,2.1,3.0,3.0,3.0,NBA,120.0,2.1,3.3,PF,11.1,1992,1.5,MIA,1.5,4.5
27.0,2.3,0.7,2.6,0.389,4.6,11.8,0.0,0.0,0.0,0.389,4.6,11.8,0.778,6.9,8.8,4.0,2.0,NBA,110.0,3.3,5.2,PF,16.0,1994,1.0,MIA,3.3,5.9
28.0,1.3,0.3,6.9,0.519,4.6,8.8,0.0,0.0,0.3,0.5,4.6,9.2,0.722,4.3,5.9,3.0,3.0,NBA,110.0,4.3,3.6,PF,13.4,1995,1.3,ATL,2.6,11.1
29.0,2.8,0.3,5.6,0.437,3.8,8.7,0.25,0.6,2.4,0.396,4.4,11.0,0.8,2.0,2.5,10.0,10.0,NBA,362.0,3.0,2.7,PF,11.3,1996,0.7,ATL,1.9,8.6
30.0,1.3,0.0,2.9,0.5,3.3,6.7,0.0,0.0,0.8,0.444,3.3,7.5,0.818,3.8,4.6,5.0,0.0,NBA,86.0,1.7,4.6,PF,10.5,1997,1.7,DET,0.0,4.6
32.0,0.8,0.4,4.6,0.417,3.5,8.4,0.25,0.1,0.4,0.409,3.6,8.8,0.727,3.2,4.4,9.0,9.0,NBA,358.0,2.8,2.7,PF,10.6,1999,1.8,ATL,2.3,7.4
36.0,1.1,0.0,2.1,0.25,1.1,4.2,0.0,0.0,0.0,0.25,1.1,4.2,0.0,0.0,0.0,8.0,0.0,NBA,34.0,3.2,1.1,PF,2.1,2003,0.0,BOS,1.1,5.3
