age,ast,blk,drb,fg,fg2,fg2a,fg3,fg3a,fga,ft,fta,game_score,lg_id,mp,orb,pf,pts,season,stl,team_id,tov,trb
25.0,4.0,0.0,5.0,7.0,7.0,13.0,0.0,2.0,15.0,4.0,6.0,10.6,NBA,0.0,4.0,5.0,17.0,1992,2.0,MIA,3.0,9.0
27.0,2.0,1.0,3.0,5.0,5.0,15.0,0.0,0.0,15.0,12.0,14.0,19.1,NBA,0.0,7.0,6.0,22.0,1994,2.0,MIA,4.0,10.0
28.0,2.0,1.0,10.0,6.0,6.0,12.0,0.0,1.0,12.0,8.0,10.0,16.9,NBA,0.0,6.0,5.0,18.0,1995,2.0,TOT,4.0,13.0
28.0,2.0,1.0,10.0,6.0,6.0,12.0,0.0,1.0,12.0,8.0,10.0,16.9,NBA,0.0,6.0,5.0,18.0,1995,2.0,ATL,4.0,13.0
29.0,6.0,1.0,11.0,10.0,8.0,13.0,2.0,5.0,16.0,9.0,10.0,19.5,NBA,0.0,6.0,6.0,24.0,1996,2.0,ATL,3.0,14.0
30.0,2.0,0.0,4.0,4.0,4.0,6.0,0.0,1.0,7.0,9.0,9.0,18.9,NBA,0.0,2.0,4.0,17.0,1997,2.0,DET,0.0,6.0
32.0,3.0,2.0,8.0,7.0,7.0,14.0,1.0,2.0,15.0,12.0,14.0,19.7,NBA,0.0,6.0,5.0,26.0,1999,6.0,ATL,6.0,11.0
36.0,1.0,0.0,1.0,1.0,1.0,1.0,0.0,0.0,1.0,0.0,0.0,1.4,NBA,0.0,2.0,1.0,2.0,2003,0.0,BOS,1.0,2.0
