age,ast_per_poss,blk_per_poss,def_rtg,drb_per_poss,fg2_pct,fg2_per_poss,fg2a_per_poss,fg3_pct,fg3_per_poss,fg3a_per_poss,fg_pct,fg_per_poss,fga_per_poss,ft_pct,ft_per_poss,fta_per_poss,g,gs,lg_id,mp,off_rtg,orb_per_poss,pf_per_poss,pos,pts_per_poss,season,stl_per_poss,team_id,tov_per_poss,trb_per_poss
21.0,2.5,1.4,110.0,7.1,0.521,5.1,9.8,0.286,2.3,8.0,0.415,7.4,17.8,0.811,4.5,5.5,43.0,5.0,NBA,446.0,96.0,1.8,5.9,C,21.6,2019,1.1,LAL,4.1,8.9
22.0,0.9,2.9,110.0,9.2,0.667,8.1,12.1,0.368,2.0,5.5,0.574,10.1,17.6,0.875,6.1,6.9,9.0,0.0,NBA,160.0,106.0,3.5,10.4,C,28.3,2020,1.7,WAS,6.3,12.7
