age,ast_per_poss,blk_per_poss,def_rtg,drb_per_poss,fg2_pct,fg2_per_poss,fg2a_per_poss,fg3_pct,fg3_per_poss,fg3a_per_poss,fg_pct,fg_per_poss,fga_per_poss,ft_pct,ft_per_poss,fta_per_poss,g,gs,lg_id,mp,off_rtg,orb_per_poss,pf_per_poss,pos,pts_per_poss,season,stl_per_poss,team_id,tov_per_poss,trb_per_poss
23.0,2.6,0.0,114.0,5.2,0.667,5.2,7.8,0.222,1.7,7.8,0.444,6.9,15.6,0.9,7.8,8.7,5.0,0.0,NBA,63.0,123.0,2.6,4.3,SG,23.4,2005,0.9,PHI,1.7,7.8
26.0,4.7,1.6,110.0,2.4,0.457,8.3,18.1,0.2,0.4,2.0,0.431,8.6,20.0,0.643,3.5,5.5,6.0,6.0,NBA,142.0,95.0,0.8,7.5,SG,21.2,2008,2.0,PHI,3.5,3.1
27.0,2.6,0.4,116.0,2.2,0.425,6.3,14.7,0.364,1.5,4.1,0.412,7.7,18.8,0.333,0.4,1.1,6.0,6.0,NBA,148.0,88.0,0.0,4.8,SG,17.3,2009,0.0,PHI,1.8,2.2
29.0,2.7,0.0,117.0,2.7,0.444,8.0,18.1,0.222,1.3,6.0,0.389,9.4,24.1,0.571,2.7,4.7,6.0,0.0,NBA,84.0,87.0,0.7,9.4,SG,22.8,2011,1.3,NOH,2.0,3.3
30.0,2.6,0.0,102.0,6.1,0.556,4.3,7.8,0.25,0.9,3.5,0.462,5.2,11.3,0.0,0.0,0.0,5.0,0.0,NBA,63.0,95.0,0.9,5.2,SG,11.3,2012,0.0,ATL,1.7,6.9
31.0,5.5,0.0,111.0,8.2,1.0,5.5,5.5,0.0,0.0,2.7,0.667,5.5,8.2,1.0,5.5,5.5,3.0,0.0,NBA,20.0,171.0,0.0,0.0,SG,16.4,2013,2.7,LAC,0.0,8.2
32.0,2.6,0.0,90.0,18.4,0.0,0.0,2.6,0.25,2.6,10.5,0.2,2.6,13.2,1.0,5.3,5.3,5.0,0.0,NBA,19.0,86.0,0.0,7.9,SG,13.2,2014,7.9,LAC,2.6,18.4
