age,ast_per_g,blk_per_g,drb_per_g,efg_pct,fg2_pct,fg2_per_g,fg2a_per_g,fg3_pct,fg3_per_g,fg3a_per_g,fg_pct,fg_per_g,fga_per_g,ft_pct,ft_per_g,fta_per_g,g,gs,lg_id,mp_per_g,orb_per_g,pf_per_g,pos,pts_per_g,season,stl_per_g,team_id,tov_per_g,trb_per_g
23.0,0.6,0.0,1.2,0.5,0.667,1.2,1.8,0.222,0.4,1.8,0.444,1.6,3.6,0.9,1.8,2.0,5.0,0.0,NBA,12.6,0.6,1.0,SG,5.4,2005,0.2,PHI,0.4,1.8
26.0,2.0,0.7,1.0,0.441,0.457,3.5,7.7,0.2,0.2,0.8,0.431,3.7,8.5,0.643,1.5,2.3,6.0,6.0,NBA,23.7,0.3,3.2,SG,9.0,2008,0.8,PHI,1.5,1.3
27.0,1.2,0.2,1.0,0.451,0.425,2.8,6.7,0.364,0.7,1.8,0.412,3.5,8.5,0.333,0.2,0.5,6.0,6.0,NBA,24.7,0.0,2.2,SG,7.8,2009,0.0,PHI,0.8,1.0
29.0,0.7,0.0,0.7,0.417,0.444,2.0,4.5,0.222,0.3,1.5,0.389,2.3,6.0,0.571,0.7,1.2,6.0,0.0,NBA,14.0,0.2,2.3,SG,5.7,2011,0.3,NOH,0.5,0.8
30.0,0.6,0.0,1.4,0.5,0.556,1.0,1.8,0.25,0.2,0.8,0.462,1.2,2.6,0.0,0.0,0.0,5.0,0.0,NBA,12.6,0.2,1.2,SG,2.6,2012,0.0,ATL,0.4,1.6
31.0,0.7,0.0,1.0,0.667,1.0,0.7,0.7,0.0,0.0,0.3,0.667,0.7,1.0,1.0,0.7,0.7,3.0,0.0,NBA,6.7,0.0,0.0,SG,2.0,2013,0.3,LAC,0.0,1.0
32.0,0.2,0.0,1.4,0.3,0.0,0.0,0.2,0.25,0.2,0.8,0.2,0.2,1.0,1.0,0.4,0.4,5.0,0.0,NBA,3.8,0.0,0.6,SG,1.0,2014,0.6,LAC,0.2,1.4
