age,ast,blk,drb,efg_pct,fg,fg2,fg2_pct,fg2a,fg3,fg3_pct,fg3a,fg_pct,fga,ft,ft_pct,fta,g,gs,lg_id,mp,orb,pf,pos,pts,season,stl,team_id,tov,trb
22.0,4.0,1.0,3.0,0.316,6.0,6.0,0.316,19.0,0.0,0.0,0.0,0.316,19.0,7.0,0.583,12.0,12.0,0.0,NBA,52.0,6.0,7.0,PF,19.0,1991,1.0,CLE,5.0,9.0
23.0,6.0,0.0,9.0,0.462,6.0,6.0,0.462,13.0,0.0,0.0,0.0,0.462,13.0,6.0,0.75,8.0,9.0,0.0,NBA,35.0,2.0,0.0,C,18.0,1992,1.0,MIA,5.0,11.0
