age,ast,blk,drb,efg_pct,fg,fg2,fg2_pct,fg2a,fg3,fg3_pct,fg3a,fg_pct,fga,ft,ft_pct,fta,g,gs,lg_id,mp,orb,pf,pos,pts,season,stl,team_id,tov,trb
22.0,253.0,11.0,124.0,0.456,294.0,222.0,0.421,527.0,72.0,0.365,197.0,0.406,724.0,255.0,0.77,331.0,64.0,55.0,NBA,2145.0,54.0,169.0,PG,915.0,1991,81.0,SAC,159.0,178.0
23.0,1.0,0.0,1.0,0.536,6.0,3.0,0.375,8.0,3.0,0.5,6.0,0.429,14.0,2.0,1.0,2.0,2.0,0.0,NBA,32.0,1.0,4.0,PG,17.0,1992,0.0,ATL,3.0,2.0
24.0,72.0,3.0,33.0,0.464,129.0,100.0,0.444,225.0,29.0,0.345,84.0,0.417,309.0,54.0,0.659,82.0,49.0,9.0,NBA,787.0,20.0,59.0,PG,341.0,1993,21.0,ATL,51.0,53.0
