age,avg_dist,fg2_dunk,fg2_pct,fg2_pct_ast,fg2a_pct_fga,fg3_heave,fg3_pct,fg3_pct_ast,fg3_pct_corner,fg3a_heave,fg3a_pct_fga,fg_pct,fg_pct_00_03,fg_pct_03_10,fg_pct_10_16,fg_pct_16_xx,g,lg_id,mp,pct_fg2_dunk,pct_fg3a_corner,pct_fga_00_03,pct_fga_03_10,pct_fga_10_16,pct_fga_16_xx,pos,season,team_id
24.0,18.0,2.0,0.358,0.643,0.611,0.0,0.433,0.969,0.449,0.0,0.389,0.387,0.481,0.341,0.365,0.322,76.0,NBA,1579.0,0.005,0.219,0.094,0.071,0.128,0.318,SF,2001,ORL
25.0,20.6,4.0,0.426,0.772,0.484,0.0,0.427,0.982,0.41,0.0,0.516,0.426,0.514,0.429,0.256,0.441,80.0,NBA,2406.0,0.007,0.21,0.048,0.037,0.056,0.343,PF,2002,ORL
26.0,20.6,4.0,0.448,0.868,0.453,0.0,0.396,0.988,0.387,0.0,0.547,0.419,0.551,0.4,0.455,0.43,81.0,NBA,2584.0,0.008,0.152,0.066,0.027,0.044,0.316,PF,2003,ORL
27.0,19.3,0.0,0.333,1.0,1.0,0.0,0.0,0.0,0.0,0.0,0.0,0.333,0.0,0.0,0.0,0.333,2.0,NBA,22.0,0.0,0.0,0.0,0.0,0.0,1.0,PF,2004,ORL
28.0,19.1,3.0,0.465,0.77,0.52,0.0,0.333,1.0,0.379,0.0,0.48,0.402,0.533,0.385,0.615,0.411,71.0,NBA,955.0,0.01,0.197,0.098,0.042,0.085,0.294,PF,2005,ORL
29.0,20.0,1.0,0.451,0.725,0.467,0.0,0.388,1.0,0.429,0.0,0.533,0.417,0.471,0.5,0.36,0.475,57.0,NBA,938.0,0.004,0.163,0.07,0.041,0.103,0.252,PF,2006,ORL
30.0,18.4,0.0,0.289,0.727,0.543,0.0,0.344,1.0,0.0,0.0,0.457,0.314,0.222,0.5,0.0,0.333,33.0,NBA,277.0,0.0,0.0,0.129,0.057,0.057,0.3,PF,2007,ORL
31.0,19.0,0.0,0.442,0.789,0.538,0.0,0.216,1.0,0.286,0.0,0.463,0.338,0.8,0.333,0.333,0.423,31.0,NBA,284.0,0.0,0.189,0.063,0.075,0.075,0.325,PF,2008,ORL
