age,ast,ast_per_g,blk,college_id,fg,fg3,fg3_pct,fg3a,fg_pct,fga,ft,ft_pct,fta,g,mp,mp_per_g,orb,pf,pts,pts_per_g,season,stl,tov,trb,trb_per_g
18.0,27.0,0.8,6.0,TEXAS,133.0,0.0,0.0,0.0,0.547,243.0,76.0,0.65,117.0,33.0,742.0,22.5,0.0,0.0,342.0,10.4,2004,29.0,0.0,225.0,6.8
19.0,37.0,2.2,4.0,TEXAS,80.0,0.0,0.0,1.0,0.526,152.0,73.0,0.716,102.0,17.0,500.0,29.4,0.0,0.0,233.0,13.7,2005,21.0,0.0,136.0,8.0
20.0,106.0,2.9,13.0,TEXAS,225.0,2.0,0.667,3.0,0.515,437.0,142.0,0.747,190.0,37.0,1276.0,34.5,0.0,0.0,594.0,16.1,2006,66.0,0.0,353.0,9.5
