age,ast,blk,drb,fg,fg2,fg2a,fg3,fg3a,fga,ft,fta,game_score,lg_id,mp,orb,pf,pts,season,stl,team_id,tov,trb
21.0,3.0,0.0,5.0,5.0,5.0,8.0,0.0,0.0,8.0,3.0,5.0,11.9,NBA,20,4.0,2.0,12.0,2007,1.0,TOR,1.0,9.0
27.0,6.0,2.0,8.0,8.0,8.0,12.0,3.0,5.0,13.0,5.0,7.0,20.4,NBA,41,7.0,6.0,21.0,2013,3.0,PHO,4.0,10.0
28.0,6.0,2.0,12.0,8.0,8.0,11.0,4.0,7.0,14.0,9.0,11.0,24.1,NBA,43,7.0,6.0,22.0,2014,5.0,PHO,7.0,15.0
29.0,5.0,4.0,12.0,8.0,7.0,9.0,4.0,8.0,15.0,6.0,6.0,18.7,NBA,42,6.0,5.0,20.0,2015,5.0,PHO,5.0,14.0
30.0,8.0,3.0,11.0,10.0,8.0,12.0,3.0,6.0,18.0,6.0,7.0,23.5,NBA,46,7.0,6.0,24.0,2016,5.0,PHO,4.0,13.0
31.0,6.0,2.0,11.0,6.0,5.0,8.0,3.0,6.0,13.0,6.0,8.0,19.3,NBA,43,7.0,5.0,21.0,2017,7.0,TOT,4.0,17.0
31.0,6.0,2.0,11.0,6.0,5.0,8.0,3.0,6.0,13.0,6.0,8.0,19.3,NBA,43,7.0,5.0,21.0,2017,7.0,PHO,4.0,17.0
31.0,3.0,1.0,10.0,4.0,4.0,7.0,3.0,6.0,10.0,4.0,6.0,13.0,NBA,38,3.0,5.0,9.0,2017,4.0,TOR,2.0,12.0
32.0,4.0,2.0,12.0,6.0,4.0,8.0,5.0,9.0,11.0,5.0,6.0,16.3,NBA,42,6.0,6.0,20.0,2018,4.0,HOU,5.0,13.0
33.0,7.0,2.0,11.0,7.0,4.0,6.0,7.0,11.0,14.0,4.0,6.0,20.4,NBA,45,5.0,5.0,21.0,2019,7.0,HOU,4.0,16.0
34.0,4.0,2.0,8.0,9.0,5.0,6.0,5.0,8.0,14.0,3.0,3.0,21.1,NBA,39,5.0,5.0,22.0,2020,3.0,HOU,3.0,11.0
