age,ast_pct,blk_pct,bpm,bpm-dum,dbpm,drb_pct,dws,fg3a_per_fga_pct,fta_per_fga_pct,g,lg_id,mp,obpm,orb_pct,ows,per,pos,season,stl_pct,team_id,tov_pct,trb_pct,ts_pct,usg_pct,vorp,ws,ws-dum,ws_per_48
22.0,28.8,0.5,0.3,0.0,-2.4,8.0,0.7,0.391,0.249,82.0,NBA,3167.0,2.7,1.5,5.1,16.4,PG,2013,1.2,POR,14.5,4.7,0.546,24.2,1.9,5.8,0.0,0.088
23.0,25.1,0.5,2.7,0.0,-1.7,9.2,1.8,0.425,0.327,82.0,NBA,2937.0,4.4,1.3,7.8,18.6,PG,2014,1.1,POR,11.5,5.3,0.568,25.0,3.5,9.6,0.0,0.157
24.0,29.0,0.5,5.1,0.0,0.0,11.8,3.3,0.421,0.293,82.0,NBA,2925.0,5.0,1.8,7.3,20.7,PG,2015,1.7,POR,12.6,6.9,0.56,26.9,5.2,10.6,0.0,0.174
25.0,33.6,0.8,3.7,0.0,-2.2,10.4,1.4,0.414,0.315,75.0,NBA,2676.0,5.9,1.8,7.7,22.2,PG,2016,1.2,POR,12.6,6.1,0.56,31.3,3.8,9.2,0.0,0.165
26.0,28.7,0.6,4.3,0.0,-2.0,13.3,1.5,0.389,0.366,75.0,NBA,2694.0,6.4,1.9,8.8,24.1,PG,2017,1.3,POR,10.2,7.6,0.586,31.5,4.3,10.4,0.0,0.185
27.0,30.9,0.8,6.7,0.0,-1.0,10.6,2.7,0.445,0.38,73.0,NBA,2670.0,7.7,2.6,9.9,25.2,PG,2018,1.4,POR,11.1,6.6,0.594,30.6,5.9,12.6,0.0,0.227
28.0,30.6,1.0,5.5,0.0,-1.1,11.1,2.4,0.419,0.335,80.0,NBA,2838.0,6.6,2.6,9.7,23.7,PG,2019,1.5,POR,10.8,7.0,0.588,29.3,5.4,12.1,0.0,0.205
29.0,30.8,1.4,7.8,0.0,-1.4,11.5,0.3,0.465,0.384,12.0,NBA,461.0,9.2,1.1,2.3,28.7,PG,2020,1.5,POR,10.6,6.3,0.639,28.8,1.1,2.6,0.0,0.269
