age,avg_dist,fg2_dunk,fg2_pct,fg2_pct_ast,fg2a_pct_fga,fg3_heave,fg3_pct,fg3_pct_ast,fg3_pct_corner,fg3a_heave,fg3a_pct_fga,fg_pct,fg_pct_00_03,fg_pct_03_10,fg_pct_10_16,fg_pct_16_xx,g,lg_id,mp,pct_fg2_dunk,pct_fg3a_corner,pct_fga_00_03,pct_fga_03_10,pct_fga_10_16,pct_fga_16_xx,pos,season,team_id
22.0,16.0,22.0,0.469,0.236,0.609,0.0,0.368,0.535,0.348,3.0,0.391,0.429,0.531,0.378,0.449,0.427,82.0,NBA,3167.0,0.023,0.046,0.262,0.064,0.061,0.224,PG,2013,POR
23.0,15.1,22.0,0.447,0.269,0.575,0.0,0.394,0.596,0.442,1.0,0.425,0.424,0.512,0.29,0.389,0.447,82.0,NBA,2937.0,0.021,0.094,0.289,0.1,0.055,0.13,PG,2014,POR
24.0,15.3,30.0,0.5,0.241,0.579,0.0,0.343,0.51,0.353,2.0,0.421,0.434,0.642,0.261,0.444,0.39,82.0,NBA,2925.0,0.024,0.119,0.285,0.088,0.06,0.147,PG,2015,POR
25.0,15.0,11.0,0.45,0.203,0.586,0.0,0.375,0.472,0.382,3.0,0.414,0.419,0.546,0.315,0.368,0.423,75.0,NBA,2676.0,0.009,0.056,0.26,0.11,0.072,0.145,PG,2016,POR
26.0,15.1,4.0,0.491,0.235,0.612,0.0,0.37,0.495,0.577,2.0,0.388,0.444,0.6,0.335,0.437,0.451,75.0,NBA,2694.0,0.003,0.045,0.269,0.126,0.08,0.137,PG,2017,POR
27.0,15.6,11.0,0.501,0.18,0.555,0.0,0.361,0.436,0.4,0.0,0.445,0.439,0.552,0.452,0.429,0.473,73.0,NBA,2670.0,0.009,0.04,0.271,0.088,0.079,0.117,PG,2018,POR
28.0,15.7,24.0,0.499,0.194,0.581,0.0,0.369,0.46,0.313,3.0,0.419,0.444,0.564,0.357,0.429,0.473,80.0,NBA,2838.0,0.023,0.05,0.297,0.073,0.078,0.132,PG,2019,POR
29.0,16.1,4.0,0.565,0.122,0.535,0.0,0.386,0.136,0.0,1.0,0.465,0.482,0.685,0.25,0.455,0.563,12.0,NBA,461.0,0.016,0.035,0.298,0.082,0.09,0.065,PG,2020,POR
