age,ast,blk,drb,fg,fg2,fg2a,fg3,fg3a,fga,ft,fta,game_score,lg_id,mp,orb,pf,pts,season,stl,team_id,tov,trb
21.0,22.0,2.0,6.0,9.0,9.0,14.0,0.0,1.0,14.0,9.0,11.0,22.0,NBA,0.0,4.0,6.0,21.0,1984,6.0,CHI,8.0,8.0
22.0,21.0,1.0,4.0,5.0,5.0,11.0,1.0,2.0,12.0,5.0,8.0,15.2,NBA,0.0,3.0,6.0,12.0,1985,5.0,CHI,7.0,4.0
23.0,5.0,1.0,2.0,6.0,6.0,8.0,0.0,0.0,8.0,2.0,3.0,12.3,NBA,0.0,1.0,3.0,14.0,1986,2.0,TOT,3.0,3.0
23.0,5.0,0.0,2.0,6.0,6.0,8.0,0.0,0.0,8.0,2.0,3.0,12.3,NBA,0.0,1.0,3.0,14.0,1986,2.0,CLE,2.0,3.0
23.0,5.0,1.0,2.0,2.0,2.0,8.0,0.0,0.0,8.0,1.0,2.0,4.0,NBA,0.0,1.0,1.0,5.0,1986,0.0,WSB,0.0,3.0
23.0,3.0,0.0,0.0,1.0,1.0,2.0,0.0,0.0,2.0,0.0,0.0,0.1,NBA,0.0,0.0,1.0,2.0,1986,0.0,SAS,3.0,0.0
24.0,11.0,2.0,7.0,8.0,8.0,16.0,0.0,1.0,16.0,7.0,8.0,22.6,NBA,0.0,4.0,5.0,20.0,1987,6.0,WSB,6.0,8.0
25.0,1.0,0.0,2.0,1.0,1.0,3.0,0.0,0.0,3.0,2.0,2.0,2.7,NBA,0.0,0.0,1.0,3.0,1988,1.0,ATL,3.0,2.0
26.0,4.0,1.0,3.0,3.0,3.0,7.0,0.0,0.0,7.0,5.0,5.0,8.5,NBA,0.0,1.0,4.0,11.0,1989,2.0,LAC,3.0,4.0
29.0,5.0,2.0,4.0,4.0,4.0,8.0,0.0,1.0,8.0,8.0,8.0,13.4,NBA,0.0,2.0,2.0,12.0,1992,3.0,POR,3.0,5.0
31.0,7.0,1.0,5.0,6.0,6.0,10.0,0.0,1.0,11.0,4.0,4.0,14.9,NBA,0.0,2.0,5.0,14.0,1994,4.0,ATL,5.0,5.0
32.0,8.0,0.0,5.0,4.0,3.0,9.0,1.0,2.0,10.0,2.0,4.0,14.2,NBA,0.0,3.0,4.0,11.0,1995,6.0,ATL,5.0,5.0
34.0,2.0,0.0,2.0,2.0,2.0,2.0,0.0,0.0,2.0,0.0,0.0,1.5,NBA,0.0,0.0,4.0,4.0,1997,0.0,POR,1.0,2.0
