age,ast_per_g,blk_per_g,drb_per_g,efg_pct,fg2_pct,fg2_per_g,fg2a_per_g,fg3_pct,fg3_per_g,fg3a_per_g,fg_pct,fg_per_g,fga_per_g,ft_pct,ft_per_g,fta_per_g,g,gs,lg_id,mp_per_g,orb_per_g,pf_per_g,pos,pts_per_g,season,stl_per_g,team_id,tov_per_g,trb_per_g
24.0,3.0,0.0,1.0,0.25,0.25,1.5,6.0,0.0,0.0,0.0,0.25,1.5,6.0,0.0,0.0,0.0,2.0,2.0,NBA,16.0,0.5,1.0,PG,3.0,1987,1.0,WSB,4.0,1.5
29.0,0.9,0.0,0.7,0.3,0.316,0.4,1.3,0.0,0.0,0.1,0.3,0.4,1.3,1.0,0.3,0.3,15.0,0.0,NBA,6.4,0.0,0.7,PG,1.1,1992,0.5,POR,0.3,0.7
31.0,1.1,0.0,1.0,0.321,0.321,0.8,2.5,0.0,0.0,0.0,0.321,0.8,2.5,0.75,0.5,0.7,11.0,0.0,NBA,10.3,0.3,1.6,PG,2.2,1994,0.6,ATL,0.8,1.3
32.0,0.3,0.0,1.0,0.0,0.0,0.0,1.3,0.0,0.0,0.0,0.0,0.0,1.3,0.0,0.0,0.0,3.0,0.0,NBA,6.3,0.3,0.7,PG,0.0,1995,0.0,ATL,0.0,1.3
