age,ast,blk,drb,efg_pct,fg,fg2,fg2_pct,fg2a,fg3,fg3_pct,fg3a,fg_pct,fga,ft,ft_pct,fta,g,gs,lg_id,mp,orb,pf,pos,pts,season,stl,team_id,tov,trb
21.0,662.0,17.0,134.0,0.469,261.0,261.0,0.471,554.0,0.0,0.0,2.0,0.469,556.0,146.0,0.73,200.0,80.0,73.0,NBA,2159.0,63.0,223.0,PG,668.0,1984,119.0,CHI,268.0,197.0
22.0,381.0,10.0,67.0,0.449,140.0,139.0,0.457,304.0,1.0,0.111,9.0,0.447,313.0,68.0,0.791,86.0,70.0,44.0,NBA,1385.0,34.0,141.0,PG,349.0,1985,66.0,CHI,144.0,101.0
23.0,23.0,1.0,10.0,0.429,15.0,15.0,0.429,35.0,0.0,0.0,0.0,0.429,35.0,5.0,0.5,10.0,14.0,1.0,NBA,107.0,4.0,10.0,PG,35.0,1986,5.0,TOT,10.0,14.0
23.0,13.0,0.0,5.0,0.474,9.0,9.0,0.474,19.0,0.0,0.0,0.0,0.474,19.0,4.0,0.571,7.0,8.0,0.0,NBA,66.0,2.0,8.0,PG,22.0,1986,5.0,CLE,6.0,7.0
23.0,7.0,1.0,5.0,0.357,5.0,5.0,0.357,14.0,0.0,0.0,0.0,0.357,14.0,1.0,0.333,3.0,4.0,0.0,NBA,27.0,2.0,1.0,PG,11.0,1986,0.0,WSB,0.0,7.0
23.0,3.0,0.0,0.0,0.5,1.0,1.0,0.5,2.0,0.0,0.0,0.0,0.5,2.0,0.0,0.0,0.0,2.0,1.0,NBA,14.0,0.0,1.0,PG,2.0,1986,0.0,SAS,4.0,0.0
24.0,392.0,10.0,136.0,0.478,246.0,246.0,0.48,513.0,0.0,0.0,2.0,0.478,515.0,126.0,0.764,165.0,73.0,72.0,NBA,1816.0,58.0,172.0,PG,618.0,1987,92.0,WSB,138.0,194.0
25.0,2.0,0.0,4.0,0.444,4.0,4.0,0.444,9.0,0.0,0.0,0.0,0.444,9.0,3.0,0.75,4.0,5.0,0.0,NBA,24.0,0.0,3.0,PG,11.0,1988,2.0,ATL,4.0,4.0
26.0,22.0,1.0,14.0,0.364,12.0,12.0,0.364,33.0,0.0,0.0,0.0,0.364,33.0,10.0,0.909,11.0,8.0,0.0,NBA,90.0,2.0,15.0,PG,34.0,1989,7.0,LAC,11.0,16.0
29.0,34.0,3.0,15.0,0.412,21.0,21.0,0.447,47.0,0.0,0.0,4.0,0.412,51.0,27.0,0.871,31.0,23.0,0.0,NBA,209.0,6.0,12.0,PG,69.0,1992,14.0,POR,14.0,21.0
31.0,181.0,2.0,77.0,0.508,120.0,120.0,0.522,230.0,0.0,0.0,6.0,0.508,236.0,52.0,0.788,66.0,82.0,1.0,NBA,1004.0,22.0,93.0,PG,292.0,1994,59.0,ATL,78.0,99.0
32.0,54.0,0.0,21.0,0.472,24.0,22.0,0.489,45.0,2.0,0.25,8.0,0.453,53.0,20.0,0.625,32.0,27.0,2.0,NBA,292.0,9.0,37.0,PG,70.0,1995,19.0,ATL,19.0,30.0
34.0,3.0,0.0,3.0,0.5,2.0,2.0,0.5,4.0,0.0,0.0,0.0,0.5,4.0,0.0,0.0,0.0,3.0,0.0,NBA,22.0,0.0,5.0,PG,4.0,1997,0.0,POR,1.0,3.0
