age,ast,blk,drb,efg_pct,fg,fg2,fg2_pct,fg2a,fg3,fg3_pct,fg3a,fg_pct,fga,ft,ft_pct,fta,g,gs,lg_id,mp,orb,pf,pos,pts,season,stl,team_id,tov,trb
24.0,5.0,0.0,4.0,0.25,2.0,2.0,0.25,8.0,0.0,0.0,0.0,0.25,8.0,1.0,0.5,2.0,5.0,0.0,NBA,33.0,3.0,8.0,PG,5.0,1996,1.0,CHH,4.0,7.0
26.0,98.0,7.0,63.0,0.465,73.0,71.0,0.458,155.0,2.0,0.5,4.0,0.459,159.0,43.0,0.729,59.0,59.0,14.0,NBA,738.0,27.0,100.0,PG,191.0,1998,33.0,CHH,70.0,90.0
27.0,20.0,2.0,22.0,0.474,18.0,17.0,0.447,38.0,1.0,1.0,1.0,0.462,39.0,8.0,0.533,15.0,24.0,0.0,NBA,180.0,6.0,26.0,PG,45.0,1999,9.0,TOT,13.0,28.0
27.0,0.0,0.0,2.0,0.5,4.0,4.0,0.5,8.0,0.0,0.0,0.0,0.5,8.0,2.0,1.0,2.0,8.0,0.0,NBA,30.0,3.0,5.0,PG,10.0,1999,2.0,DET,2.0,5.0
27.0,20.0,2.0,20.0,0.468,14.0,13.0,0.433,30.0,1.0,1.0,1.0,0.452,31.0,6.0,0.462,13.0,16.0,0.0,NBA,150.0,3.0,21.0,PG,35.0,1999,7.0,CHH,11.0,23.0
