age,ast,blk,drb,fg,fg2,fg2a,fg3,fg3a,fga,ft,fta,game_score,lg_id,mp,orb,pf,pts,season,stl,team_id,tov,trb
24.0,2.0,0.0,1.0,2.0,2.0,4.0,0.0,0.0,4.0,1.0,2.0,5.0,NBA,0.0,2.0,4.0,5.0,1996,1.0,CHH,2.0,3.0
26.0,7.0,2.0,5.0,7.0,7.0,8.0,1.0,1.0,8.0,4.0,4.0,16.7,NBA,0.0,3.0,5.0,16.0,1998,3.0,CHH,4.0,6.0
27.0,4.0,1.0,3.0,5.0,4.0,7.0,1.0,1.0,8.0,2.0,6.0,10.0,NBA,0.0,3.0,4.0,11.0,1999,2.0,TOT,2.0,6.0
27.0,0.0,0.0,1.0,2.0,2.0,2.0,0.0,0.0,2.0,2.0,2.0,6.4,NBA,0.0,1.0,2.0,6.0,1999,1.0,DET,1.0,2.0
27.0,4.0,1.0,3.0,5.0,4.0,7.0,1.0,1.0,8.0,2.0,6.0,10.0,NBA,0.0,3.0,4.0,11.0,1999,2.0,CHH,2.0,6.0
