age,ast_per_g,blk_per_g,drb_per_g,efg_pct,fg2_pct,fg2_per_g,fg2a_per_g,fg3_pct,fg3_per_g,fg3a_per_g,fg_pct,fg_per_g,fga_per_g,ft_pct,ft_per_g,fta_per_g,g,gs,lg_id,mp_per_g,orb_per_g,pf_per_g,pos,pts_per_g,season,stl_per_g,team_id,tov_per_g,trb_per_g
21.0,0.3,0.5,1.5,0.417,0.417,1.3,3.1,0.0,0.0,0.0,0.417,1.3,3.1,0.485,0.4,0.8,43.0,4.0,NBA,12.4,1.0,1.7,PF,2.9,2007,0.2,NOK,0.5,2.5
22.0,0.0,0.4,0.9,0.286,0.286,0.3,1.0,0.0,0.0,0.0,0.286,0.3,1.0,0.0,0.0,0.7,14.0,0.0,NBA,6.2,0.4,0.6,PF,0.6,2008,0.1,TOT,0.4,1.3
22.0,0.0,0.7,1.4,0.333,0.333,0.3,0.9,0.0,0.0,0.0,0.333,0.3,0.9,0.0,0.0,1.1,7.0,0.0,NBA,9.7,0.7,1.0,PF,0.6,2008,0.3,CLE,0.6,2.1
22.0,0.0,0.0,0.3,0.25,0.25,0.3,1.1,0.0,0.0,0.0,0.25,0.3,1.1,0.0,0.0,0.3,7.0,0.0,NBA,2.7,0.1,0.1,PF,0.6,2008,0.0,CHI,0.3,0.4
23.0,0.1,0.2,0.6,0.44,0.44,0.6,1.4,0.0,0.0,0.0,0.44,0.6,1.4,0.438,0.4,0.9,18.0,0.0,NBA,4.7,0.3,0.4,PF,1.6,2009,0.1,TOT,0.1,0.9
23.0,0.2,0.4,0.7,0.524,0.524,1.0,1.9,0.0,0.0,0.0,0.524,1.0,1.9,0.429,0.5,1.3,11.0,0.0,NBA,5.5,0.4,0.5,PF,2.5,2009,0.1,CHI,0.0,1.1
23.0,0.0,0.0,0.4,0.0,0.0,0.0,0.6,0.0,0.0,0.0,0.0,0.0,0.6,0.5,0.1,0.3,7.0,0.0,NBA,3.3,0.1,0.3,PF,0.1,2009,0.0,SAC,0.3,0.6
