age,ast,ast_per_g,blk,college_id,fg,fg3,fg3_pct,fg3a,fg_pct,fga,ft,ft_pct,fta,g,mp,mp_per_g,orb,pf,pts,pts_per_g,season,stl,tov,trb,trb_per_g
19.0,63.0,2.0,17.0,WKENTUCKY,176.0,57.0,0.399,143.0,0.45,391.0,52.0,0.722,72.0,31.0,1028.0,33.2,0.0,0.0,461.0,14.9,2005,55.0,0.0,160.0,5.2
20.0,86.0,2.9,10.0,WKENTUCKY,180.0,62.0,0.408,152.0,0.451,399.0,100.0,0.847,118.0,30.0,932.0,31.1,0.0,0.0,522.0,17.4,2006,77.0,0.0,189.0,6.3
21.0,57.0,1.9,23.0,WKENTUCKY,187.0,57.0,0.401,142.0,0.472,396.0,89.0,0.84,106.0,30.0,918.0,30.6,0.0,0.0,520.0,17.3,2007,45.0,0.0,139.0,4.6
22.0,75.0,2.1,28.0,WKENTUCKY,259.0,69.0,0.397,174.0,0.477,543.0,148.0,0.822,180.0,36.0,1079.0,30.0,0.0,0.0,735.0,20.4,2008,65.0,84.0,175.0,4.9
