age,avg_dist,fg2_dunk,fg2_pct,fg2_pct_ast,fg2a_pct_fga,fg3_heave,fg3_pct,fg3_pct_ast,fg3_pct_corner,fg3a_heave,fg3a_pct_fga,fg_pct,fg_pct_00_03,fg_pct_03_10,fg_pct_10_16,fg_pct_16_xx,g,lg_id,mp,pct_fg2_dunk,pct_fg3a_corner,pct_fga_00_03,pct_fga_03_10,pct_fga_10_16,pct_fga_16_xx,pos,season,team_id
23.0,14.5,20.0,0.478,0.534,0.624,0.0,0.404,0.963,0.448,0.0,0.376,0.45,0.611,0.4,0.304,0.376,77.0,NBA,1939.0,0.043,0.473,0.291,0.046,0.085,0.202,SG,2009,ORL
24.0,13.9,17.0,0.476,0.492,0.71,1.0,0.338,0.974,0.365,3.0,0.29,0.436,0.61,0.22,0.388,0.44,71.0,NBA,2375.0,0.026,0.511,0.275,0.065,0.133,0.237,SG,2010,NJN
25.0,14.5,21.0,0.453,0.522,0.698,0.0,0.408,0.972,0.389,0.0,0.302,0.439,0.634,0.338,0.45,0.336,81.0,NBA,1723.0,0.04,0.31,0.233,0.123,0.104,0.238,SG,2011,HOU
26.0,15.7,13.0,0.452,0.427,0.626,0.0,0.401,0.977,0.495,1.0,0.374,0.433,0.636,0.343,0.451,0.356,58.0,NBA,1757.0,0.029,0.465,0.19,0.121,0.088,0.228,SG,2012,HOU
27.0,13.5,16.0,0.503,0.516,0.706,0.0,0.372,0.966,0.447,1.0,0.294,0.464,0.629,0.327,0.375,0.461,78.0,NBA,1941.0,0.034,0.545,0.3,0.098,0.091,0.217,SG,2013,BOS
28.0,15.3,6.0,0.531,0.498,0.684,0.0,0.371,0.917,0.371,2.0,0.316,0.48,0.667,0.409,0.451,0.523,79.0,NBA,1973.0,0.011,0.361,0.191,0.107,0.134,0.252,SG,2014,TOT
28.0,15.1,2.0,0.511,0.463,0.716,0.0,0.442,0.783,0.471,2.0,0.284,0.492,0.575,0.412,0.565,0.471,30.0,NBA,504.0,0.011,0.327,0.219,0.093,0.126,0.279,SG,2014,BOS
28.0,15.4,4.0,0.54,0.513,0.671,0.0,0.345,0.98,0.34,0.0,0.329,0.476,0.714,0.408,0.407,0.548,49.0,NBA,1469.0,0.012,0.373,0.179,0.114,0.137,0.241,SG,2014,MEM
29.0,16.2,1.0,0.473,0.601,0.652,0.0,0.402,0.989,0.392,2.0,0.348,0.448,0.65,0.273,0.452,0.456,77.0,NBA,2354.0,0.002,0.353,0.156,0.103,0.145,0.249,SG,2015,MEM
30.0,15.2,3.0,0.493,0.606,0.66,0.0,0.378,1.0,0.325,1.0,0.34,0.454,0.607,0.466,0.414,0.458,79.0,NBA,2334.0,0.006,0.369,0.191,0.091,0.136,0.243,SG,2016,TOT
30.0,15.0,3.0,0.502,0.631,0.671,0.0,0.37,1.0,0.255,0.0,0.329,0.458,0.597,0.568,0.406,0.465,51.0,NBA,1489.0,0.01,0.399,0.172,0.105,0.153,0.241,SG,2016,MEM
30.0,15.5,0.0,0.475,0.552,0.641,0.0,0.392,1.0,0.48,1.0,0.359,0.445,0.62,0.143,0.435,0.444,28.0,NBA,845.0,0.0,0.316,0.227,0.064,0.105,0.245,SG,2016,CHO
31.0,16.0,9.0,0.49,0.521,0.618,0.0,0.401,0.889,0.459,0.0,0.382,0.456,0.574,0.427,0.486,0.444,77.0,NBA,2459.0,0.014,0.405,0.163,0.107,0.152,0.202,SG,2017,NYK
32.0,15.8,4.0,0.482,0.491,0.632,0.0,0.406,0.796,0.47,0.0,0.368,0.454,0.648,0.44,0.491,0.368,76.0,NBA,2310.0,0.007,0.299,0.166,0.099,0.151,0.216,SG,2018,NYK
33.0,16.8,1.0,0.5,0.649,0.574,0.0,0.291,0.813,0.5,0.0,0.426,0.411,0.524,0.6,0.429,0.5,34.0,NBA,428.0,0.016,0.327,0.163,0.078,0.163,0.171,SG,2019,TOT
33.0,16.4,0.0,0.516,0.75,0.66,0.0,0.313,0.8,0.667,0.0,0.34,0.447,0.625,0.333,0.333,0.571,12.0,NBA,160.0,0.0,0.375,0.17,0.064,0.128,0.298,SG,2019,NYK
33.0,17.0,1.0,0.488,0.571,0.524,0.0,0.282,0.818,0.417,0.0,0.476,0.39,0.462,0.714,0.467,0.375,22.0,NBA,268.0,0.024,0.308,0.159,0.085,0.183,0.098,SG,2019,DAL
34.0,14.8,0.0,0.667,0.75,0.667,0.0,0.0,0.0,0.0,0.0,0.333,0.444,1.0,0.667,0.0,0.5,3.0,NBA,26.0,0.0,0.333,0.111,0.333,0.0,0.222,SG,2020,DAL
