age,ast_per_mp,blk_per_mp,drb_per_mp,fg2_pct,fg2_per_mp,fg2a_per_mp,fg3_pct,fg3_per_mp,fg3a_per_mp,fg_pct,fg_per_mp,fga_per_mp,ft_pct,ft_per_mp,fta_per_mp,g,gs,lg_id,mp,orb_per_mp,pf_per_mp,pos,pts_per_mp,season,stl_per_mp,team_id,tov_per_mp,trb_per_mp
23.0,1.7,0.3,3.0,0.478,3.0,6.3,0.404,1.5,3.8,0.45,4.5,10.0,0.83,1.4,1.7,77.0,42.0,NBA,1939.0,0.3,2.9,SG,12.0,2009,1.4,ORL,1.3,3.3
24.0,1.8,0.3,2.9,0.476,4.0,8.3,0.338,1.2,3.4,0.436,5.1,11.7,0.869,2.0,2.3,71.0,66.0,NBA,2375.0,0.9,2.0,SG,13.4,2010,1.4,NJN,1.2,3.8
25.0,2.1,0.4,3.3,0.453,3.8,8.4,0.408,1.5,3.6,0.439,5.3,12.0,0.792,2.0,2.5,81.0,1.0,NBA,1723.0,1.1,2.1,SG,14.0,2011,1.2,HOU,1.4,4.4
26.0,1.8,0.5,2.7,0.452,3.4,7.4,0.401,1.8,4.4,0.433,5.1,11.9,0.826,1.5,1.8,58.0,26.0,NBA,1757.0,0.5,2.2,SG,13.5,2012,1.4,HOU,1.3,3.3
27.0,2.7,0.4,2.9,0.503,3.5,6.9,0.372,1.1,2.9,0.464,4.6,9.8,0.861,1.1,1.3,78.0,39.0,NBA,1941.0,0.6,2.6,SG,11.4,2013,1.7,BOS,1.6,3.5
28.0,2.1,0.5,2.9,0.531,4.1,7.7,0.371,1.3,3.5,0.48,5.4,11.2,0.884,1.8,2.0,79.0,47.0,NBA,1973.0,0.5,2.3,SG,13.9,2014,1.2,TOT,1.3,3.4
28.0,2.3,0.6,2.9,0.511,4.8,9.4,0.442,1.6,3.7,0.492,6.4,13.1,0.818,1.3,1.6,30.0,0.0,NBA,504.0,0.6,2.6,SG,15.8,2014,1.4,BOS,1.8,3.5
28.0,2.0,0.5,2.9,0.54,3.8,7.1,0.345,1.2,3.5,0.476,5.0,10.6,0.9,2.0,2.2,49.0,47.0,NBA,1469.0,0.5,2.2,SG,13.2,2014,1.1,MEM,1.2,3.4
29.0,2.3,0.2,2.4,0.473,3.0,6.4,0.402,1.4,3.4,0.448,4.4,9.8,0.86,1.7,2.0,77.0,74.0,NBA,2354.0,0.3,2.0,SG,11.9,2015,1.1,MEM,1.2,2.7
30.0,2.1,0.4,2.7,0.493,3.2,6.5,0.378,1.3,3.3,0.454,4.5,9.9,0.839,1.5,1.8,79.0,65.0,NBA,2334.0,0.4,2.1,SG,11.7,2016,1.3,TOT,1.1,3.2
30.0,1.8,0.4,2.4,0.502,3.4,6.8,0.37,1.2,3.3,0.458,4.6,10.1,0.826,1.8,2.2,51.0,37.0,NBA,1489.0,0.5,1.9,SG,12.4,2016,1.3,MEM,1.2,2.9
30.0,2.6,0.5,3.3,0.475,2.9,6.0,0.392,1.3,3.4,0.445,4.2,9.4,0.885,1.0,1.1,28.0,28.0,NBA,845.0,0.4,2.3,SG,10.7,2016,1.4,CHO,1.0,3.7
31.0,2.6,0.4,3.0,0.49,3.1,6.4,0.401,1.6,3.9,0.456,4.7,10.3,0.867,1.2,1.4,77.0,74.0,NBA,2459.0,0.8,2.1,SG,12.2,2017,1.2,NYK,1.0,3.8
32.0,2.8,0.3,3.0,0.482,3.6,7.4,0.406,1.8,4.3,0.454,5.3,11.8,0.919,1.8,1.9,76.0,69.0,NBA,2310.0,0.5,1.7,SG,14.2,2018,1.2,NYK,1.3,3.5
33.0,3.1,0.3,3.8,0.5,3.1,6.2,0.291,1.3,4.6,0.411,4.5,10.9,0.667,1.2,1.8,34.0,6.0,NBA,428.0,0.8,2.7,SG,11.4,2019,1.8,TOT,1.2,4.5
33.0,3.6,0.5,4.7,0.516,3.6,7.0,0.313,1.1,3.6,0.447,4.7,10.6,0.643,2.0,3.2,12.0,2.0,NBA,160.0,1.4,2.9,SG,12.6,2019,1.8,NYK,1.1,6.1
33.0,2.8,0.1,3.2,0.488,2.8,5.8,0.282,1.5,5.2,0.39,4.3,11.0,0.714,0.7,0.9,22.0,4.0,NBA,268.0,0.4,2.6,SG,10.7,2019,1.7,DAL,1.2,3.6
34.0,0.0,0.0,1.4,0.667,5.5,8.3,0.0,0.0,4.2,0.444,5.5,12.5,0.0,0.0,0.0,3.0,3.0,NBA,26.0,0.0,2.8,SG,11.1,2020,0.0,DAL,0.0,1.4
