age,ast_per_g,blk_per_g,drb_per_g,efg_pct,fg2_pct,fg2_per_g,fg2a_per_g,fg3_pct,fg3_per_g,fg3a_per_g,fg_pct,fg_per_g,fga_per_g,ft_pct,ft_per_g,fta_per_g,g,gs,lg_id,mp_per_g,orb_per_g,pf_per_g,pos,pts_per_g,season,stl_per_g,team_id,tov_per_g,trb_per_g
23.0,1.3,0.1,1.6,0.474,0.5,2.6,5.2,0.273,0.6,2.1,0.435,3.2,7.3,0.885,1.1,1.2,21.0,16.0,NBA,26.2,0.3,2.0,SG,8.0,2009,0.9,ORL,1.0,1.9
27.0,0.3,0.0,0.5,0.2,0.333,0.3,0.8,0.0,0.0,0.5,0.2,0.3,1.3,1.0,1.0,1.0,4.0,0.0,NBA,9.8,0.0,0.8,SG,1.5,2013,0.5,BOS,0.0,0.5
28.0,1.6,0.3,1.6,0.467,0.463,2.7,5.9,0.316,0.9,2.7,0.417,3.6,8.6,0.778,2.0,2.6,7.0,7.0,NBA,32.0,0.4,2.9,SG,10.0,2014,0.7,MEM,0.9,2.0
29.0,2.2,0.0,2.3,0.62,0.586,3.7,6.4,0.467,1.3,2.7,0.55,5.0,9.1,0.957,2.0,2.1,11.0,11.0,NBA,33.4,0.3,2.2,SG,13.3,2015,1.1,MEM,1.2,2.5
30.0,1.3,0.4,2.1,0.451,0.405,2.4,6.0,0.444,0.6,1.3,0.412,3.0,7.3,0.933,2.0,2.1,7.0,7.0,NBA,36.7,0.7,2.7,SG,8.6,2016,0.9,CHO,0.7,2.9
