age,ast_pct,blk_pct,bpm,bpm-dum,dbpm,drb_pct,dws,fg3a_per_fga_pct,fta_per_fga_pct,g,lg_id,mp,obpm,orb_pct,ows,per,pos,season,stl_pct,team_id,tov_pct,trb_pct,ts_pct,usg_pct,vorp,ws,ws-dum,ws_per_48
23.0,14.8,0.0,-5.9,0.0,-1.6,10.6,0.2,0.152,0.47,13.0,NBA,230.0,-4.3,1.6,-0.2,7.3,PG,1986,1.2,TOT,21.6,6.2,0.502,17.7,-0.2,0.0,0.0,-0.001
23.0,0.0,0.0,-13.3,0.0,-1.5,9.2,0.0,0.0,0.143,3.0,NBA,24.0,-11.8,0.0,-0.1,-5.5,PG,1986,2.0,ATL,28.7,4.6,0.336,17.8,-0.1,-0.1,0.0,-0.169
23.0,16.6,0.0,-5.1,0.0,-1.7,10.7,0.1,0.169,0.508,10.0,NBA,206.0,-3.4,1.7,-0.1,8.8,PG,1986,1.1,PHO,20.8,6.4,0.519,17.6,-0.2,0.1,0.0,0.018
25.0,24.7,0.4,-2.3,0.0,-1.7,4.3,0.2,0.292,0.229,21.0,NBA,139.0,-0.6,2.4,0.1,12.8,PG,1988,3.1,NYK,18.5,3.3,0.539,18.9,0.0,0.3,0.0,0.099
26.0,0.0,0.0,-28.8,0.0,-10.2,11.7,0.0,0.6,0.2,2.0,NBA,9.0,-18.6,13.1,-0.1,-14.9,PG,1989,0.0,IND,26.9,12.3,0.184,34.6,-0.1,-0.1,0.0,-0.586
27.0,23.8,0.0,-6.0,0.0,-2.7,5.4,0.4,0.252,0.332,64.0,NBA,968.0,-3.3,1.6,-0.4,8.0,PG,1990,1.7,TOT,20.3,3.5,0.461,15.9,-1.0,0.0,0.0,-0.001
27.0,23.9,0.0,-5.3,0.0,-3.7,4.5,0.0,0.181,0.347,32.0,NBA,286.0,-1.6,1.2,0.2,10.1,PG,1990,1.8,ATL,20.2,2.8,0.53,15.3,-0.2,0.3,0.0,0.047
27.0,23.8,0.0,-6.3,0.0,-2.3,5.8,0.3,0.281,0.326,32.0,NBA,682.0,-4.0,1.8,-0.6,7.1,PG,1990,1.7,SAC,20.4,3.8,0.432,16.2,-0.7,-0.3,0.0,-0.021
31.0,22.7,0.0,-13.2,0.0,-4.0,3.6,0.0,0.083,0.167,12.0,NBA,64.0,-9.2,1.8,-0.2,-0.9,PG,1994,0.0,CLE,28.0,2.7,0.233,12.5,-0.2,-0.2,0.0,-0.117
