age,ast_per_mp,blk_per_mp,drb_per_mp,fg2_pct,fg2_per_mp,fg2a_per_mp,fg3_pct,fg3_per_mp,fg3a_per_mp,fg_pct,fg_per_mp,fga_per_mp,ft_pct,ft_per_mp,fta_per_mp,g,gs,lg_id,mp,orb_per_mp,pf_per_mp,pos,pts_per_mp,season,stl_per_mp,team_id,tov_per_mp,trb_per_mp
18.0,1.6,3.4,7.2,0.266,3.8,14.5,0.0,0.0,0.2,0.262,3.8,14.7,0.583,3.2,5.4,34.0,0.0,NBA,159.0,2.5,7.5,C,10.9,2004,1.6,DET,2.9,9.7
19.0,1.0,2.4,5.7,0.329,3.5,10.8,0.0,0.0,0.0,0.329,3.5,10.8,0.708,2.4,3.4,37.0,2.0,NBA,254.0,0.4,4.4,C,9.5,2005,0.3,DET,2.3,6.1
20.0,1.9,3.6,5.0,0.513,5.6,10.9,0.0,0.0,0.1,0.509,5.6,11.0,0.56,1.3,2.3,55.0,1.0,NBA,767.0,2.1,4.3,C,12.5,2006,0.7,TOT,2.4,7.1
20.0,2.3,3.9,4.6,0.548,4.4,8.0,0.0,0.0,0.5,0.515,4.4,8.5,0.375,0.8,2.1,25.0,0.0,NBA,140.0,2.6,6.4,C,9.5,2006,0.8,DET,3.9,7.2
20.0,1.8,3.6,5.1,0.507,5.9,11.5,0.0,0.0,0.0,0.507,5.9,11.5,0.595,1.4,2.4,30.0,1.0,NBA,627.0,2.0,3.8,C,13.1,2006,0.6,ORL,2.1,7.1
21.0,1.7,2.6,5.5,0.455,4.7,10.3,0.0,0.0,0.0,0.454,4.7,10.3,0.613,2.7,4.3,80.0,16.0,NBA,1913.0,2.7,4.1,PF,12.0,2007,0.8,ORL,2.3,8.2
22.0,1.3,2.5,6.4,0.439,4.7,10.8,0.0,0.0,0.0,0.438,4.7,10.8,0.554,1.5,2.6,70.0,64.0,NBA,1663.0,2.7,4.0,C,10.9,2008,0.7,MEM,2.2,9.2
23.0,1.2,1.8,6.3,0.515,4.8,9.3,0.0,0.0,0.0,0.515,4.8,9.3,0.562,2.1,3.7,61.0,15.0,NBA,1034.0,2.9,4.7,C,11.6,2009,0.8,MEM,1.7,9.2
24.0,2.5,1.8,5.5,0.493,5.3,10.7,0.0,0.0,0.1,0.49,5.3,10.7,0.536,0.8,1.5,32.0,18.0,NBA,685.0,2.5,4.3,C,11.3,2010,1.2,TOT,1.8,7.9
24.0,2.0,0.5,6.6,0.471,4.1,8.6,0.0,0.0,0.0,0.471,4.1,8.6,0.0,0.0,0.0,8.0,0.0,NBA,71.0,2.5,3.5,C,8.1,2010,2.0,NYK,1.0,9.1
24.0,2.5,1.9,5.3,0.495,5.4,10.9,0.0,0.0,0.1,0.492,5.4,11.0,0.536,0.9,1.6,24.0,18.0,NBA,614.0,2.5,4.4,C,11.7,2010,1.1,MIN,1.9,7.8
25.0,2.2,3.0,4.8,0.469,5.8,12.3,0.0,0.0,0.0,0.469,5.8,12.3,0.557,1.4,2.5,69.0,69.0,NBA,1686.0,2.8,4.9,C,12.9,2011,1.2,MIN,3.2,7.7
26.0,1.3,1.9,4.7,0.454,4.5,9.9,0.0,0.0,0.0,0.454,4.5,9.9,0.432,1.2,2.8,29.0,23.0,NBA,472.0,2.7,4.5,C,10.2,2012,0.7,MIN,2.4,7.4
27.0,0.0,0.0,7.2,0.0,0.0,7.2,0.0,0.0,0.0,0.0,0.0,7.2,0.0,0.0,0.0,1.0,0.0,NBA,5.0,0.0,7.2,C,0.0,2013,0.0,BOS,14.4,7.2
