age,and1s,astd_pts,drawn_offensive,drawn_shooting,fouls_offensive,fouls_shooting,g,lg_id,mp,own_shots_blk,pct_1,pct_2,pct_3,pct_4,pct_5,plus_minus_net,plus_minus_on,pos,season,team_id,tov_bad_pass,tov_lost_ball
18.0,2.0,16.0,0.0,11.0,2.0,18.0,34.0,NBA,159.0,10.0,0.0,0.0,0.0,6.0,94.0,-20.3,-12.9,C,2004,DET,3.0,6.0
19.0,0.0,15.0,0.0,10.0,0.0,15.0,37.0,NBA,254.0,2.0,0.0,0.0,0.0,0.0,100.0,-2.0,2.8,C,2005,DET,5.0,9.0
20.0,2.0,88.0,4.0,21.0,6.0,64.0,55.0,NBA,767.0,12.0,0.0,0.0,0.0,1.0,99.0,-6.9,-2.8,C,2006,TOT,29.0,10.0
20.0,0.0,21.0,0.0,3.0,2.0,17.0,25.0,NBA,140.0,0.0,0.0,0.0,0.0,0.0,100.0,-36.4,-27.0,C,2006,DET,6.0,3.0
20.0,2.0,67.0,4.0,18.0,4.0,47.0,30.0,NBA,627.0,12.0,0.0,0.0,0.0,1.0,99.0,4.8,2.9,C,2006,ORL,23.0,7.0
21.0,14.0,202.0,10.0,89.0,17.0,140.0,80.0,NBA,1913.0,38.0,0.0,0.0,0.0,61.0,39.0,-0.8,0.6,PF,2007,ORL,42.0,38.0
22.0,11.0,137.0,7.0,60.0,22.0,113.0,70.0,NBA,1663.0,39.0,0.0,0.0,0.0,1.0,100.0,-3.0,-8.5,C,2008,MEM,26.0,43.0
23.0,12.0,77.0,4.0,53.0,9.0,75.0,61.0,NBA,1034.0,26.0,0.0,0.0,0.0,17.0,83.0,1.9,-4.4,C,2009,MEM,19.0,16.0
24.0,4.0,107.0,2.0,13.0,2.0,42.0,32.0,NBA,685.0,8.0,0.0,0.0,0.0,0.0,100.0,-1.1,-8.0,C,2010,TOT,20.0,11.0
24.0,0.0,11.0,0.0,0.0,1.0,3.0,8.0,NBA,71.0,1.0,0.0,0.0,0.0,0.0,100.0,-13.4,-17.0,C,2010,NYK,1.0,0.0
24.0,4.0,96.0,2.0,13.0,1.0,39.0,24.0,NBA,614.0,7.0,0.0,0.0,0.0,0.0,100.0,3.6,-7.0,C,2010,MIN,19.0,11.0
25.0,13.0,227.0,5.0,60.0,14.0,130.0,69.0,NBA,1686.0,41.0,0.0,0.0,0.0,1.0,99.0,-0.4,-7.2,C,2011,MIN,41.0,77.0
26.0,1.0,36.0,0.0,16.0,7.0,30.0,29.0,NBA,472.0,13.0,0.0,0.0,0.0,0.0,100.0,-2.6,-4.3,C,2012,MIN,8.0,13.0
27.0,0.0,0.0,0.0,0.0,1.0,0.0,1.0,NBA,5.0,0.0,0.0,0.0,0.0,0.0,100.0,-22.9,-23.3,C,2013,BOS,0.0,1.0
