age,ast_per_g,blk_per_g,drb_per_g,efg_pct,fg2_pct,fg2_per_g,fg2a_per_g,fg3_pct,fg3_per_g,fg3a_per_g,fg_pct,fg_per_g,fga_per_g,ft_pct,ft_per_g,fta_per_g,g,gs,lg_id,mp_per_g,orb_per_g,pf_per_g,pos,pts_per_g,season,stl_per_g,team_id,tov_per_g,trb_per_g
27.0,0.0,0.0,1.0,0.444,0.2,0.2,0.8,0.5,0.3,0.7,0.333,0.5,1.5,0.0,0.0,0.3,6.0,0.0,NBA,8.5,0.2,0.7,SF,1.3,2016,0.2,OKC,0.0,1.2
28.0,0.0,0.0,1.0,0.0,0.0,0.0,1.0,0.0,0.0,0.0,0.0,0.0,1.0,0.0,0.0,0.0,1.0,0.0,NBA,10.0,0.0,2.0,SF,0.0,2017,0.0,OKC,0.0,1.0
