age,avg_dist,fg2_dunk,fg2_pct,fg2_pct_ast,fg2a_pct_fga,fg3_heave,fg3_pct,fg3_pct_ast,fg3_pct_corner,fg3a_heave,fg3a_pct_fga,fg_pct,fg_pct_00_03,fg_pct_03_10,fg_pct_10_16,fg_pct_16_xx,g,lg_id,mp,pct_fg2_dunk,pct_fg3a_corner,pct_fga_00_03,pct_fga_03_10,pct_fga_10_16,pct_fga_16_xx,pos,season,team_id
24.0,14.6,10.0,0.48,0.714,0.54,0.0,0.287,1.0,0.273,1.0,0.46,0.392,0.548,0.353,0.6,0.333,49.0,NBA,812.0,0.058,0.379,0.328,0.09,0.026,0.095,SF,2013,POR
25.0,13.5,2.0,0.583,0.857,0.571,0.0,0.167,1.0,0.167,0.0,0.429,0.405,0.813,0.0,0.0,0.25,21.0,NBA,184.0,0.048,0.333,0.381,0.071,0.024,0.095,SF,2014,POR
26.0,16.1,1.0,0.333,1.0,0.45,0.0,0.545,1.0,0.667,0.0,0.55,0.45,0.333,0.0,0.0,0.5,10.0,NBA,76.0,0.05,0.273,0.3,0.05,0.0,0.1,SF,2015,POR
