age,ast_per_poss,blk_per_poss,def_rtg,drb_per_poss,fg2_pct,fg2_per_poss,fg2a_per_poss,fg3_pct,fg3_per_poss,fg3a_per_poss,fg_pct,fg_per_poss,fga_per_poss,ft_pct,ft_per_poss,fta_per_poss,g,gs,lg_id,mp,off_rtg,orb_per_poss,pf_per_poss,pos,pts_per_poss,season,stl_per_poss,team_id,tov_per_poss,trb_per_poss
24.0,2.8,0.8,110.0,5.7,0.48,3.2,6.6,0.287,1.6,5.6,0.392,4.8,12.2,0.467,0.9,1.9,49.0,16.0,NBA,812.0,89.0,2.0,4.9,SF,12.1,2013,1.7,POR,2.8,7.7
25.0,3.3,0.8,108.0,8.2,0.583,3.8,6.6,0.167,0.8,4.9,0.405,4.7,11.5,0.909,2.7,3.0,21.0,0.0,NBA,184.0,99.0,2.5,4.4,SF,12.9,2014,0.8,POR,3.0,10.7
26.0,0.7,0.7,103.0,11.4,0.333,2.0,6.0,0.545,4.0,7.4,0.45,6.0,13.4,0.0,0.0,0.0,10.0,0.0,NBA,76.0,102.0,2.0,8.0,SF,16.1,2015,0.7,POR,2.7,13.4
