age,ast,blk,drb,fg,fg2,fg2a,fg3,fg3a,fga,ft,fta,game_score,lg_id,mp,orb,pf,pts,season,stl,team_id,tov,trb
19.0,6.0,4.0,11.0,11.0,11.0,18.0,2.0,3.0,21.0,7.0,8.0,24.7,NBA,43,6.0,6.0,28.0,2019,3.0,CHI,3.0,13.0
20.0,2.0,3.0,9.0,9.0,9.0,12.0,1.0,2.0,14.0,6.0,7.0,21.8,NBA,33,5.0,6.0,20.0,2020,2.0,CHI,3.0,11.0
