age,ast_per_mp,blk_per_mp,drb_per_mp,fg2_pct,fg2_per_mp,fg2a_per_mp,fg3_pct,fg3_per_mp,fg3a_per_mp,fg_pct,fg_per_mp,fga_per_mp,ft_pct,ft_per_mp,fta_per_mp,g,gs,lg_id,mp,orb_per_mp,pf_per_mp,pos,pts_per_mp,season,stl_per_mp,team_id,tov_per_mp,trb_per_mp
22.0,3.0,1.4,4.4,0.375,3.2,8.6,0.308,0.3,0.8,0.369,3.5,9.4,0.638,4.7,7.3,57.0,0.0,NBA,571.0,3.5,5.8,SF,11.9,1996,2.5,MIN,4.3,7.9
23.0,2.9,0.7,3.9,0.514,4.8,9.3,0.258,0.5,2.0,0.469,5.3,11.3,0.673,2.4,3.5,75.0,17.0,NBA,1705.0,2.9,4.9,SF,13.5,1997,1.8,PHI,2.5,6.8
24.0,2.9,0.7,3.7,0.458,4.3,9.5,0.0,0.0,0.2,0.447,4.3,9.7,0.634,2.5,4.0,71.0,12.0,NBA,906.0,2.5,3.8,SF,11.2,1998,1.9,PHI,3.6,6.3
25.0,1.0,0.0,5.1,0.333,2.1,6.2,0.0,0.0,0.0,0.333,2.1,6.2,0.833,5.1,6.2,4.0,1.0,NBA,35.0,2.1,12.3,SF,9.3,1999,1.0,MIA,7.2,7.2
26.0,2.9,0.3,4.1,0.415,4.3,10.5,0.0,0.0,0.2,0.409,4.3,10.6,0.66,2.4,3.6,23.0,7.0,NBA,464.0,2.4,4.0,SF,11.1,2000,1.9,GSW,3.1,6.5
