article_url,date,headline
https://thescorecrow.com/2019/08/30/so-trey-burke-was-just-drafted-by-the-pelicans-g-league-team/,2019/08/30,"The Scorecrow: So, Trey Burke Was Just Drafted by the Pelicans’ G League Team…"
https://www.hoopsrumors.com/2019/08/2019-nba-g-league-expansion-draft-results.html,2019/08/20,HoopsRumors: 2019 NBA G League Expansion Draft Results
https://orlandomagicdaily.com/2019/07/14/orlando-magic-summer-league-grades-look-closely-might-see-something/,2019/07/14,Orlando Magic Daily: Orlando Magic Summer League Grades: Look closely and you might see something
https://orlandomagicdaily.com/2019/07/14/orlando-magic-should-add-daquan-jeffries-to-roster-after-summer-league-run/,2019/07/14,Orlando Magic Daily: Orlando Magic should add DaQuan Jeffries to roster after Summer League run
https://orlandomagicdaily.com/2019/07/10/mohamed-bamba-summer-league-diamonds-begin-form-orlando-magic/,2019/07/10,"Orlando Magic Daily: With Mohamed Bamba out for Summer League, diamonds begin to form for Orlando Magic"
