age,ast,ast_per_g,blk,college_id,fg,fg3,fg3_pct,fg3a,fg_pct,fga,ft,ft_pct,fta,g,mp,mp_per_g,orb,pf,pts,pts_per_g,season,stl,tov,trb,trb_per_g
19.0,4.0,0.2,1.0,MURRAYST,15.0,2.0,0.154,13.0,0.341,44.0,6.0,1.0,6.0,24.0,203.0,8.5,19.0,27.0,38.0,1.6,2013,6.0,15.0,45.0,1.9
21.0,21.0,0.6,16.0,LATECH,150.0,34.0,0.327,104.0,0.473,317.0,75.0,0.708,106.0,36.0,878.0,24.4,51.0,69.0,409.0,11.4,2015,26.0,55.0,202.0,5.6
22.0,38.0,1.3,16.0,LATECH,165.0,48.0,0.348,138.0,0.442,373.0,108.0,0.715,151.0,30.0,955.0,31.8,39.0,68.0,486.0,16.2,2016,20.0,74.0,223.0,7.4
23.0,44.0,1.3,15.0,LATECH,202.0,54.0,0.362,149.0,0.476,424.0,127.0,0.77,165.0,33.0,1046.0,31.7,53.0,53.0,585.0,17.7,2017,15.0,84.0,295.0,8.9
