age,ast,blk,drb,fg,fg2,fg2a,fg3,fg3a,fga,ft,fta,game_score,lg_id,mp,orb,pf,pts,season,stl,team_id,tov,trb
23.0,4.0,1.0,2.0,5.0,2.0,2.0,3.0,5.0,7.0,2.0,2.0,12.3,NBA,0.0,1.0,5.0,13.0,2003,2.0,LAL,3.0,2.0
25.0,4.0,0.0,2.0,6.0,2.0,6.0,4.0,11.0,17.0,2.0,3.0,7.5,NBA,0.0,1.0,5.0,18.0,2005,1.0,CHI,3.0,2.0
26.0,2.0,0.0,4.0,2.0,2.0,4.0,2.0,4.0,6.0,4.0,5.0,8.6,NBA,10.0,1.0,0.0,10.0,2006,0.0,CHI,2.0,4.0
28.0,5.0,2.0,6.0,12.0,8.0,13.0,4.0,8.0,20.0,5.0,5.0,19.7,NBA,33.0,2.0,3.0,30.0,2008,2.0,NOH,3.0,6.0
30.0,1.0,0.0,0.0,1.0,0.0,2.0,1.0,2.0,4.0,0.0,0.0,1.3,NBA,5.0,0.0,0.0,3.0,2010,0.0,CHI,0.0,0.0
32.0,3.0,0.0,3.0,4.0,1.0,3.0,3.0,8.0,11.0,0.0,0.0,7.1,NBA,21.0,1.0,2.0,11.0,2012,1.0,ATL,2.0,3.0
34.0,1.0,0.0,1.0,0.0,0.0,0.0,0.0,0.0,0.0,0.0,0.0,0.0,NBA,3.0,0.0,0.0,0.0,2014,0.0,CHA,1.0,1.0
