age,ast_per_mp,blk_per_mp,drb_per_mp,fg2_pct,fg2_per_mp,fg2a_per_mp,fg3_pct,fg3_per_mp,fg3a_per_mp,fg_pct,fg_per_mp,fga_per_mp,ft_pct,ft_per_mp,fta_per_mp,g,gs,lg_id,mp,orb_per_mp,pf_per_mp,pos,pts_per_mp,season,stl_per_mp,team_id,tov_per_mp,trb_per_mp
23.0,5.8,0.0,2.3,0.625,5.8,9.3,0.0,0.0,4.6,0.417,5.8,13.9,0.5,1.2,2.3,6.0,0.0,NBA,31.0,2.3,1.2,PG,12.8,1989,4.6,SEA,0.0,4.6
25.0,7.6,0.0,0.0,0.0,0.0,7.6,0.0,0.0,1.9,0.0,0.0,9.5,1.0,3.8,3.8,3.0,0.0,NBA,19.0,0.0,5.7,PG,3.8,1991,1.9,SAS,0.0,0.0
27.0,9.3,0.1,2.6,0.522,4.1,7.9,0.0,0.0,0.1,0.514,4.1,8.0,0.714,1.1,1.6,10.0,10.0,NBA,314.0,0.9,3.1,PG,9.4,1993,1.1,SAS,2.6,3.6
28.0,8.8,0.9,2.6,0.563,7.9,14.0,0.0,0.0,0.9,0.529,7.9,14.9,0.0,0.0,0.0,3.0,0.0,NBA,41.0,0.0,1.8,PG,15.8,1994,3.5,GSW,2.6,2.6
29.0,7.8,0.4,1.4,0.52,5.7,11.0,0.0,0.0,0.1,0.517,5.7,11.0,0.621,2.3,3.6,15.0,15.0,NBA,575.0,0.6,1.8,PG,13.6,1995,1.3,SAS,1.9,2.0
30.0,8.3,0.1,2.7,0.437,4.6,10.5,0.0,0.0,0.2,0.43,4.6,10.7,0.704,1.7,2.4,10.0,10.0,NBA,407.0,0.5,1.9,PG,10.9,1996,1.8,SAS,2.1,3.2
32.0,5.8,0.0,1.1,0.616,6.4,10.4,0.0,0.0,0.2,0.604,6.4,10.6,0.667,3.6,5.4,9.0,9.0,NBA,342.0,0.3,2.8,PG,16.4,1998,0.9,SAS,2.2,1.4
33.0,6.9,0.1,1.8,0.489,5.0,10.1,0.333,0.1,0.2,0.487,5.0,10.3,0.681,1.8,2.6,17.0,17.0,NBA,653.0,0.5,1.7,PG,11.9,1999,1.1,SAS,2.8,2.3
34.0,5.2,0.0,1.7,0.452,4.7,10.5,0.0,0.0,0.0,0.452,4.7,10.5,0.714,2.5,3.5,4.0,4.0,NBA,144.0,0.5,2.5,PG,12.0,2000,1.0,SAS,2.5,2.3
35.0,5.3,0.1,1.7,0.391,4.4,11.1,0.0,0.0,0.1,0.386,4.4,11.3,0.533,1.0,1.9,13.0,0.0,NBA,281.0,0.4,3.1,PG,9.7,2001,1.3,SAS,1.3,2.0
