age,ast,ast_per_g,blk,college_id,fg,fg3,fg3_pct,fg3a,fg_pct,fga,ft,ft_pct,fta,g,mp,mp_per_g,orb,pf,pts,pts_per_g,season,stl,tov,trb,trb_per_g
19.0,111.0,3.4,0.0,CAMERONOK,54.0,0.0,0.0,0.0,0.509,106.0,34.0,0.618,55.0,33.0,0.0,0.0,0.0,0.0,142.0,4.3,1985,0.0,0.0,31.0,0.9
21.0,333.0,10.7,0.0,SOUTHERNU,86.0,7.0,0.292,24.0,0.439,196.0,40.0,0.615,65.0,31.0,1111.0,35.8,0.0,0.0,219.0,7.1,1987,0.0,0.0,73.0,2.4
22.0,399.0,13.3,0.0,SOUTHERNU,138.0,22.0,0.468,47.0,0.537,257.0,44.0,0.688,64.0,30.0,1145.0,38.2,0.0,0.0,342.0,11.4,1988,0.0,0.0,84.0,2.8
