age,and1s,astd_pts,drawn_offensive,drawn_shooting,fouls_offensive,fouls_shooting,g,lg_id,mp,own_shots_blk,pct_1,pct_2,pct_3,pct_4,pct_5,plus_minus_net,plus_minus_on,pos,season,team_id,tov_bad_pass,tov_lost_ball
35.0,4.0,526.0,0.0,20.0,2.0,28.0,55.0,NBA,1290.0,18.0,100.0,0.0,0.0,0.0,0.0,-2.3,7.3,PG,2001,SAS,41.0,9.0
36.0,12.0,651.0,0.0,71.0,5.0,28.0,68.0,NBA,1352.0,45.0,100.0,0.0,0.0,0.0,0.0,-6.9,-6.7,PG,2002,TOT,47.0,21.0
36.0,12.0,587.0,0.0,63.0,4.0,24.0,51.0,NBA,1200.0,42.0,100.0,0.0,0.0,0.0,0.0,-1.3,-7.5,PG,2002,DEN,40.0,20.0
36.0,0.0,64.0,0.0,8.0,1.0,4.0,17.0,NBA,152.0,3.0,100.0,0.0,0.0,0.0,0.0,-4.9,-0.1,PG,2002,DAL,7.0,1.0
37.0,7.0,146.0,0.0,20.0,2.0,10.0,48.0,NBA,430.0,10.0,100.0,0.0,0.0,0.0,0.0,-15.0,-5.1,PG,2003,DAL,17.0,8.0
38.0,5.0,245.0,0.0,35.0,4.0,12.0,46.0,NBA,637.0,14.0,97.0,3.0,0.0,0.0,0.0,-4.7,-4.7,PG,2004,GSW,20.0,21.0
