age,ast_per_poss,blk_per_poss,def_rtg,drb_per_poss,fg2_pct,fg2_per_poss,fg2a_per_poss,fg3_pct,fg3_per_poss,fg3a_per_poss,fg_pct,fg_per_poss,fga_per_poss,ft_pct,ft_per_poss,fta_per_poss,g,gs,lg_id,mp,off_rtg,orb_per_poss,pf_per_poss,pos,pts_per_poss,season,stl_per_poss,team_id,tov_per_poss,trb_per_poss
21.0,2.2,3.7,101.0,10.2,0.388,6.7,17.2,1.0,0.1,0.1,0.39,6.7,17.2,0.637,5.5,8.6,72.0,21.0,NBA,1052.0,91.0,4.9,7.8,C,19.0,1997,1.0,IND,4.3,15.1
22.0,1.9,2.7,104.0,8.8,0.446,7.0,15.6,0.0,0.0,0.0,0.445,7.0,15.6,0.669,5.3,7.9,82.0,82.0,NBA,2656.0,100.0,5.4,5.6,C,19.2,1998,0.8,GSW,3.5,14.1
23.0,2.1,2.2,101.0,8.3,0.389,6.1,15.8,0.0,0.0,0.0,0.389,6.1,15.8,0.588,4.6,7.8,50.0,50.0,NBA,1414.0,93.0,6.3,6.3,C,16.9,1999,1.0,GSW,3.5,14.6
24.0,1.9,1.5,108.0,8.7,0.405,7.1,17.6,0.0,0.0,0.0,0.405,7.1,17.6,0.529,2.7,5.2,21.0,12.0,NBA,495.0,90.0,4.9,7.6,C,17.0,2000,0.8,GSW,2.9,13.6
25.0,2.9,2.9,107.0,7.5,0.404,6.2,15.3,0.0,0.0,0.1,0.401,6.2,15.4,0.532,3.3,6.2,43.0,26.0,NBA,1038.0,86.0,4.8,6.0,C,15.7,2001,0.8,GSW,4.0,12.3
26.0,2.5,4.9,108.0,6.4,0.435,6.1,14.0,0.0,0.0,0.0,0.435,6.1,14.0,0.645,4.0,6.2,73.0,46.0,NBA,1740.0,92.0,4.9,6.9,C,16.2,2002,0.5,GSW,4.6,11.3
27.0,1.5,4.0,108.0,7.6,0.498,6.7,13.4,0.0,0.0,0.1,0.496,6.7,13.4,0.698,4.0,5.7,82.0,82.0,NBA,1978.0,111.0,6.4,6.2,C,17.3,2003,0.7,GSW,2.9,14.0
28.0,1.3,3.0,100.0,12.1,0.537,7.7,14.4,0.0,0.0,0.0,0.535,7.7,14.5,0.654,4.8,7.4,74.0,74.0,NBA,2403.0,114.0,7.7,5.1,C,20.3,2004,0.7,GSW,2.9,19.7
29.0,1.6,2.6,103.0,10.2,0.555,6.5,11.7,0.0,0.0,0.1,0.55,6.5,11.8,0.605,4.4,7.3,59.0,56.0,NBA,1609.0,111.0,5.9,6.6,C,17.4,2005,0.5,DAL,3.3,16.1
30.0,1.4,3.0,103.0,10.4,0.493,4.8,9.8,0.0,0.0,0.0,0.493,4.8,9.8,0.591,3.6,6.1,82.0,36.0,NBA,1934.0,108.0,7.7,7.4,C,13.3,2006,0.8,DAL,3.3,18.1
31.0,1.2,2.3,102.0,9.8,0.626,5.9,9.4,0.0,0.0,0.0,0.626,5.9,9.4,0.623,3.3,5.3,76.0,73.0,NBA,1915.0,118.0,6.1,6.7,C,15.0,2007,0.7,DAL,3.0,15.8
32.0,1.9,3.2,103.0,10.1,0.643,5.4,8.4,0.0,0.0,0.0,0.643,5.4,8.4,0.575,2.5,4.4,72.0,64.0,NBA,1755.0,123.0,6.3,6.9,C,13.3,2008,0.7,DAL,2.4,16.4
33.0,2.2,2.7,107.0,10.0,0.65,5.2,8.0,0.0,0.0,0.0,0.65,5.2,8.0,0.638,2.6,4.0,80.0,80.0,NBA,1836.0,129.0,6.2,5.5,C,13.0,2009,0.7,DAL,2.1,16.1
34.0,1.3,3.1,104.0,11.0,0.629,5.4,8.5,0.333,0.0,0.1,0.624,5.4,8.6,0.604,2.5,4.1,55.0,47.0,NBA,1280.0,118.0,5.2,6.2,C,13.3,2010,0.6,DAL,2.5,16.2
35.0,1.4,3.0,102.0,8.0,0.591,3.4,5.7,0.0,0.0,0.1,0.584,3.4,5.8,0.545,1.6,2.9,51.0,22.0,NBA,815.0,110.0,3.4,5.3,C,8.3,2011,0.9,MIA,2.1,11.5
36.0,2.6,2.6,100.0,9.6,0.125,0.6,5.1,0.0,0.0,0.0,0.125,0.6,5.1,0.0,0.0,0.0,15.0,0.0,NBA,83.0,80.0,6.4,5.8,C,1.3,2012,0.6,ATL,1.9,16.0
