age,ast,blk,drb,efg_pct,fg,fg2,fg2_pct,fg2a,fg3,fg3_pct,fg3a,fg_pct,fga,ft,ft_pct,fta,g,gs,lg_id,mp,orb,pf,pos,pts,season,stl,team_id,tov,trb
29.0,7.0,18.0,46.0,0.597,40.0,40.0,0.606,66.0,0.0,0.0,1.0,0.597,67.0,11.0,0.393,28.0,13.0,13.0,NBA,308.0,51.0,54.0,C,91.0,2005,7.0,DAL,12.0,97.0
30.0,6.0,24.0,72.0,0.54,34.0,34.0,0.548,62.0,0.0,0.0,1.0,0.54,63.0,27.0,0.614,44.0,19.0,2.0,NBA,454.0,55.0,75.0,C,95.0,2006,11.0,DAL,12.0,127.0
31.0,1.0,0.0,8.0,0.667,2.0,2.0,0.667,3.0,0.0,0.0,0.0,0.667,3.0,1.0,0.5,2.0,5.0,2.0,NBA,38.0,9.0,9.0,C,5.0,2007,0.0,DAL,4.0,17.0
32.0,0.0,3.0,9.0,0.412,7.0,7.0,0.412,17.0,0.0,0.0,0.0,0.412,17.0,4.0,0.4,10.0,5.0,5.0,NBA,95.0,12.0,15.0,C,18.0,2008,1.0,DAL,3.0,21.0
33.0,7.0,9.0,36.0,0.611,22.0,22.0,0.611,36.0,0.0,0.0,0.0,0.611,36.0,13.0,0.619,21.0,10.0,10.0,NBA,255.0,25.0,41.0,C,57.0,2009,4.0,DAL,19.0,61.0
34.0,3.0,5.0,15.0,0.0,0.0,0.0,0.0,8.0,0.0,0.0,0.0,0.0,8.0,5.0,0.417,12.0,5.0,4.0,NBA,118.0,18.0,19.0,C,5.0,2010,1.0,DAL,6.0,33.0
36.0,0.0,1.0,7.0,0.538,7.0,7.0,0.538,13.0,0.0,0.0,0.0,0.538,13.0,2.0,0.667,3.0,4.0,0.0,NBA,55.0,7.0,6.0,C,16.0,2012,0.0,ATL,3.0,14.0
