age,ast,blk,drb,fg,fg2,fg2a,fg3,fg3a,fga,ft,fta,game_score,lg_id,mp,orb,pf,pts,season,stl,team_id,tov,trb
22.0,1.0,1.0,1.0,1.0,1.0,2.0,0.0,0.0,2.0,2.0,2.0,3.0,NBA,0.0,2.0,2.0,2.0,1984,0.0,BOS,1.0,3.0
23.0,2.0,0.0,4.0,3.0,3.0,5.0,0.0,0.0,5.0,1.0,2.0,5.2,NBA,0.0,2.0,3.0,7.0,1985,1.0,BOS,1.0,5.0
24.0,1.0,3.0,4.0,4.0,4.0,5.0,0.0,0.0,5.0,2.0,3.0,8.2,NBA,0.0,2.0,5.0,8.0,1986,1.0,BOS,1.0,6.0
25.0,2.0,1.0,4.0,1.0,1.0,3.0,0.0,0.0,3.0,1.0,2.0,2.6,NBA,0.0,5.0,6.0,3.0,1987,1.0,BOS,1.0,9.0
33.0,0.0,0.0,2.0,1.0,1.0,2.0,0.0,0.0,2.0,2.0,2.0,2.8,NBA,0.0,3.0,4.0,4.0,1995,1.0,TOT,1.0,4.0
33.0,0.0,0.0,2.0,1.0,1.0,2.0,0.0,0.0,2.0,2.0,2.0,2.8,NBA,0.0,3.0,4.0,4.0,1995,1.0,IND,1.0,4.0
