age,ast,blk,drb,fg,fg2,fg2a,fg3,fg3a,fga,ft,fta,game_score,lg_id,mp,orb,pf,pts,season,stl,team_id,tov,trb
22.0,2.0,1.0,6.0,6.0,6.0,9.0,0.0,0.0,9.0,2.0,4.0,12.5,NBA,0.0,4.0,5.0,13.0,1984,1.0,BOS,2.0,10.0
23.0,2.0,1.0,6.0,4.0,4.0,8.0,0.0,0.0,8.0,6.0,7.0,11.7,NBA,0.0,4.0,6.0,14.0,1985,1.0,BOS,4.0,10.0
24.0,3.0,3.0,7.0,3.0,3.0,6.0,0.0,1.0,7.0,3.0,6.0,6.9,NBA,0.0,4.0,6.0,8.0,1986,1.0,BOS,2.0,10.0
25.0,2.0,3.0,6.0,4.0,4.0,6.0,0.0,1.0,6.0,3.0,6.0,10.9,NBA,0.0,5.0,6.0,10.0,1987,2.0,BOS,3.0,9.0
26.0,5.0,5.0,10.0,7.0,7.0,13.0,0.0,1.0,13.0,5.0,8.0,13.8,NBA,0.0,5.0,6.0,16.0,1988,2.0,TOT,5.0,13.0
26.0,1.0,2.0,4.0,2.0,2.0,6.0,0.0,0.0,6.0,1.0,4.0,4.0,NBA,0.0,3.0,4.0,4.0,1988,1.0,BOS,2.0,5.0
26.0,5.0,5.0,10.0,7.0,7.0,13.0,0.0,1.0,13.0,5.0,8.0,13.8,NBA,0.0,5.0,6.0,16.0,1988,2.0,LAC,5.0,13.0
27.0,2.0,5.0,9.0,4.0,4.0,6.0,0.0,0.0,6.0,2.0,3.0,9.6,NBA,0.0,5.0,6.0,9.0,1989,3.0,TOT,6.0,12.0
27.0,2.0,5.0,9.0,4.0,4.0,6.0,0.0,0.0,6.0,2.0,3.0,9.6,NBA,0.0,5.0,5.0,9.0,1989,3.0,LAC,6.0,12.0
27.0,2.0,2.0,6.0,3.0,3.0,5.0,0.0,0.0,5.0,1.0,2.0,6.5,NBA,0.0,3.0,6.0,6.0,1989,2.0,CHH,3.0,7.0
28.0,4.0,4.0,11.0,5.0,5.0,11.0,1.0,1.0,11.0,4.0,6.0,13.7,NBA,0.0,8.0,6.0,10.0,1990,3.0,SAC,3.0,15.0
29.0,3.0,4.0,12.0,6.0,6.0,11.0,0.0,0.0,11.0,4.0,7.0,18.9,NBA,0.0,8.0,6.0,16.0,1991,5.0,ORL,4.0,16.0
30.0,6.0,4.0,11.0,5.0,5.0,8.0,0.0,1.0,8.0,5.0,6.0,13.5,NBA,0.0,8.0,6.0,11.0,1992,2.0,ORL,5.0,14.0
31.0,2.0,1.0,6.0,5.0,5.0,7.0,0.0,1.0,7.0,2.0,4.0,9.4,NBA,0.0,5.0,6.0,10.0,1993,2.0,ORL,4.0,10.0
32.0,2.0,2.0,7.0,2.0,2.0,4.0,0.0,0.0,4.0,3.0,4.0,4.5,NBA,0.0,4.0,5.0,4.0,1994,1.0,ORL,3.0,10.0
33.0,1.0,0.0,2.0,3.0,3.0,7.0,0.0,0.0,7.0,1.0,6.0,4.9,NBA,0.0,3.0,4.0,6.0,1995,0.0,TOT,1.0,5.0
33.0,0.0,0.0,1.0,0.0,0.0,2.0,0.0,0.0,2.0,0.0,0.0,-0.1,NBA,0.0,1.0,1.0,0.0,1995,0.0,NYK,1.0,2.0
33.0,1.0,0.0,2.0,3.0,3.0,7.0,0.0,0.0,7.0,1.0,6.0,4.9,NBA,0.0,3.0,4.0,6.0,1995,0.0,IND,1.0,5.0
