age,ast,blk,drb,efg_pct,fg,fg2,fg2_pct,fg2a,fg3,fg3_pct,fg3a,fg_pct,fga,ft,ft_pct,fta,g,gs,lg_id,mp,orb,pf,pos,pts,season,stl,team_id,tov,trb
24.0,14.0,0.0,9.0,0.45,16.0,12.0,0.4,30.0,4.0,0.4,10.0,0.4,40.0,11.0,0.688,16.0,4.0,0.0,NBA,123.0,3.0,7.0,SF,47.0,2004,2.0,BOS,12.0,12.0
25.0,14.0,2.0,20.0,0.453,32.0,29.0,0.446,65.0,3.0,0.333,9.0,0.432,74.0,20.0,0.769,26.0,7.0,2.0,NBA,240.0,5.0,23.0,SG,87.0,2005,9.0,BOS,21.0,25.0
