age,ast_per_mp,blk_per_mp,drb_per_mp,fg2_pct,fg2_per_mp,fg2a_per_mp,fg3_pct,fg3_per_mp,fg3a_per_mp,fg_pct,fg_per_mp,fga_per_mp,ft_pct,ft_per_mp,fta_per_mp,g,gs,lg_id,mp,orb_per_mp,pf_per_mp,pos,pts_per_mp,season,stl_per_mp,team_id,tov_per_mp,trb_per_mp
19.0,3.7,0.5,2.8,0.42,5.1,12.2,0.167,0.1,0.8,0.405,5.2,12.9,0.763,2.9,3.8,46.0,1.0,NBA,557.0,2.6,3.0,SG,13.5,1999,1.9,CHH,3.5,5.4
20.0,3.9,0.5,3.4,0.514,5.9,11.6,0.0,0.0,0.3,0.503,5.9,11.8,0.765,2.5,3.2,48.0,4.0,NBA,570.0,1.8,2.5,SG,14.3,2000,1.9,CHH,2.9,5.2
21.0,5.7,1.0,3.1,0.393,5.7,14.4,1.0,0.5,0.5,0.414,6.2,14.9,0.875,3.6,4.1,7.0,0.0,NBA,70.0,0.5,3.6,SG,16.5,2001,2.6,MIA,2.6,3.6
22.0,3.3,0.4,3.3,0.489,6.7,13.7,0.314,0.2,0.6,0.481,6.9,14.4,0.79,3.6,4.6,82.0,8.0,NBA,1954.0,1.2,2.7,SF,17.7,2002,1.3,CLE,2.7,4.5
23.0,5.0,0.4,3.4,0.417,6.1,14.6,0.363,0.9,2.3,0.41,6.9,16.9,0.748,4.0,5.3,79.0,76.0,NBA,3131.0,1.1,2.1,SG,18.7,2003,1.4,CLE,3.2,4.5
24.0,3.8,0.3,4.1,0.486,5.7,11.8,0.371,0.8,2.0,0.469,6.5,13.8,0.718,2.9,4.0,79.0,27.0,NBA,2474.0,1.1,2.5,SF-SG,16.6,2004,1.4,TOT,2.8,5.2
24.0,5.0,0.4,4.7,0.445,5.3,11.9,0.354,0.8,2.2,0.431,6.1,14.1,0.68,2.3,3.4,22.0,22.0,NBA,796.0,0.8,2.3,SG,15.2,2004,1.1,CLE,3.1,5.5
24.0,3.2,0.3,3.8,0.506,5.9,11.7,0.38,0.8,2.0,0.488,6.7,13.7,0.732,3.1,4.2,57.0,5.0,NBA,1678.0,1.3,2.6,SF,17.2,2004,1.5,BOS,2.6,5.1
25.0,3.3,0.4,2.4,0.488,5.6,11.5,0.339,0.8,2.4,0.462,6.4,13.9,0.815,3.8,4.7,82.0,11.0,NBA,2696.0,0.9,2.3,SG,17.5,2005,1.2,BOS,2.7,3.3
26.0,4.4,0.2,3.2,0.481,5.7,11.9,0.302,0.8,2.7,0.448,6.6,14.6,0.797,3.1,3.9,78.0,78.0,NBA,3207.0,0.7,2.1,SG-SF,17.0,2006,1.0,TOT,2.4,3.9
26.0,4.6,0.2,3.0,0.495,6.0,12.0,0.32,0.8,2.6,0.464,6.8,14.6,0.787,2.7,3.4,42.0,42.0,NBA,1747.0,0.8,1.9,SG,17.0,2006,1.0,BOS,2.4,3.9
26.0,4.3,0.2,3.4,0.464,5.5,11.8,0.282,0.8,2.9,0.429,6.3,14.7,0.807,3.6,4.5,36.0,36.0,NBA,1460.0,0.6,2.4,SF,17.0,2006,1.0,MIN,2.4,4.0
27.0,4.6,0.3,3.1,0.492,4.6,9.3,0.397,1.5,3.7,0.465,6.0,13.0,0.839,2.8,3.4,81.0,81.0,NBA,3021.0,0.6,2.3,SF,16.4,2007,1.0,MIN,2.5,3.8
28.0,3.4,0.2,3.6,0.447,3.5,7.8,0.405,1.6,4.0,0.433,5.1,11.8,0.787,1.9,2.4,82.0,47.0,NBA,2963.0,0.7,2.3,SF,13.7,2008,1.1,MIA,2.3,4.3
29.0,3.8,0.2,2.3,0.358,2.2,6.1,0.315,1.6,5.1,0.339,3.8,11.2,0.861,1.4,1.7,36.0,9.0,NBA,785.0,0.4,2.9,SG,10.6,2009,0.9,LAC,1.8,2.8
30.0,2.8,0.2,3.4,0.455,3.3,7.3,0.381,1.2,3.0,0.434,4.5,10.3,0.581,1.3,2.2,36.0,2.0,NBA,499.0,0.7,2.8,SF,11.4,2010,0.8,LAC,2.1,4.1
