age,and1s,astd_pts,drawn_offensive,drawn_shooting,fouls_offensive,fouls_shooting,g,lg_id,mp,own_shots_blk,pct_1,pct_2,pct_3,pct_4,pct_5,plus_minus_net,plus_minus_on,pos,season,team_id,tov_bad_pass,tov_lost_ball
21.0,0.0,24.0,0.0,2.0,0.0,2.0,7.0,NBA,70.0,2.0,3.0,44.0,53.0,0.0,0.0,17.4,19.6,SG,2001,MIA,3.0,2.0
22.0,23.0,401.0,0.0,108.0,6.0,74.0,82.0,NBA,1954.0,48.0,0.0,30.0,68.0,2.0,0.0,-1.0,-4.2,SF,2002,CLE,68.0,50.0
23.0,33.0,940.0,0.0,157.0,17.0,100.0,79.0,NBA,3131.0,74.0,1.0,82.0,17.0,0.0,0.0,-0.9,-10.6,SG,2003,CLE,143.0,78.0
24.0,19.0,587.0,0.0,111.0,16.0,82.0,79.0,NBA,2474.0,49.0,22.0,10.0,58.0,10.0,0.0,-2.7,-4.1,SF-SG,2004,TOT,97.0,52.0
24.0,4.0,231.0,0.0,32.0,7.0,29.0,22.0,NBA,796.0,18.0,69.0,28.0,3.0,0.0,0.0,-4.8,-6.8,SG,2004,CLE,41.0,14.0
24.0,15.0,356.0,0.0,79.0,9.0,53.0,57.0,NBA,1678.0,31.0,0.0,1.0,84.0,15.0,0.0,-2.5,-2.8,SF,2004,BOS,56.0,38.0
25.0,25.0,556.0,0.0,139.0,14.0,82.0,82.0,NBA,2696.0,50.0,1.0,71.0,27.0,1.0,0.0,-7.0,-1.3,SG,2005,BOS,105.0,56.0
26.0,26.0,860.0,19.0,121.0,21.0,93.0,78.0,NBA,3207.0,71.0,0.0,49.0,46.0,5.0,0.0,1.5,-1.0,SG-SF,2006,TOT,104.0,63.0
26.0,16.0,496.0,7.0,60.0,13.0,42.0,42.0,NBA,1747.0,37.0,0.0,85.0,14.0,1.0,0.0,3.9,0.5,SG,2006,BOS,55.0,33.0
26.0,10.0,364.0,12.0,61.0,8.0,51.0,36.0,NBA,1460.0,34.0,0.0,5.0,85.0,9.0,0.0,-1.2,-2.9,SF,2006,MIN,49.0,30.0
27.0,22.0,837.0,20.0,113.0,14.0,100.0,81.0,NBA,3021.0,37.0,0.0,1.0,97.0,2.0,0.0,0.6,-4.1,SF,2007,MIN,123.0,40.0
28.0,14.0,631.0,20.0,76.0,4.0,99.0,82.0,NBA,2963.0,46.0,0.0,30.0,67.0,4.0,0.0,-5.1,-10.8,SF,2008,MIA,112.0,43.0
29.0,3.0,193.0,8.0,14.0,2.0,31.0,36.0,NBA,785.0,9.0,6.0,48.0,44.0,2.0,0.0,-6.7,-15.4,SG,2009,LAC,29.0,6.0
30.0,1.0,85.0,3.0,12.0,0.0,19.0,36.0,NBA,499.0,2.0,0.0,75.0,25.0,0.0,0.0,-5.9,-12.2,SF,2010,LAC,19.0,8.0
