age,ast_per_mp,blk_per_mp,drb_per_mp,fg2_pct,fg2_per_mp,fg2a_per_mp,fg3_pct,fg3_per_mp,fg3a_per_mp,fg_pct,fg_per_mp,fga_per_mp,ft_pct,ft_per_mp,fta_per_mp,g,gs,lg_id,mp,orb_per_mp,pf_per_mp,pos,pts_per_mp,season,stl_per_mp,team_id,tov_per_mp,trb_per_mp
22.0,0.9,0.9,7.5,0.567,4.0,7.0,0.0,0.0,0.1,0.562,4.0,7.1,0.644,2.0,3.0,40.0,0.0,NBA,535.0,4.5,5.1,PF,9.9,2006,1.7,HOU,0.8,12.0
23.0,1.0,0.4,6.7,0.573,4.0,7.0,0.0,0.0,0.0,0.573,4.0,7.0,0.618,1.2,1.9,78.0,43.0,NBA,1714.0,4.3,5.9,PF,9.2,2007,1.5,HOU,1.3,10.9
24.0,2.1,1.0,6.7,0.518,2.6,5.0,0.0,0.0,0.1,0.511,2.6,5.1,0.458,0.3,0.5,79.0,44.0,NBA,1575.0,3.0,4.8,PF,5.4,2008,1.9,HOU,1.4,9.8
25.0,1.8,0.8,7.4,0.385,1.8,4.6,0.0,0.0,0.2,0.372,1.8,4.7,0.368,0.3,0.8,71.0,1.0,NBA,858.0,3.1,5.6,C,3.8,2009,1.4,HOU,1.0,10.5
26.0,2.8,0.9,6.4,0.489,3.3,6.7,0.0,0.0,0.0,0.489,3.3,6.7,0.545,0.7,1.3,82.0,82.0,NBA,1773.0,3.1,4.4,C,7.3,2010,1.5,HOU,1.5,9.4
27.0,3.5,0.8,6.6,0.529,4.2,8.0,0.0,0.0,0.0,0.527,4.2,8.0,0.662,1.6,2.5,74.0,63.0,NBA,2079.0,3.8,3.5,C,10.1,2011,1.4,HOU,1.5,10.4
28.0,2.7,0.6,5.6,0.435,2.5,5.8,0.0,0.0,0.1,0.429,2.5,5.9,0.667,0.9,1.4,54.0,9.0,NBA,1039.0,2.5,3.8,C,6.0,2012,1.2,SAC,1.7,8.1
29.0,3.3,0.5,5.5,0.444,2.5,5.6,0.0,0.0,0.0,0.442,2.5,5.7,0.625,0.9,1.4,74.0,1.0,NBA,1209.0,3.4,3.4,C,5.9,2013,0.9,SAC,1.3,8.9
30.0,1.7,0.6,6.7,0.434,2.7,6.2,0.0,0.0,0.0,0.431,2.7,6.2,0.8,1.0,1.2,61.0,1.0,NBA,754.0,3.3,4.5,C,6.3,2014,1.6,TOT,1.6,10.0
30.0,1.2,0.4,5.4,0.438,2.8,6.4,0.0,0.0,0.0,0.438,2.8,6.4,0.714,1.0,1.4,16.0,1.0,NBA,179.0,4.0,3.6,C,6.6,2014,2.2,SAC,1.4,9.5
30.0,1.8,0.6,7.1,0.433,2.6,6.1,0.0,0.0,0.1,0.429,2.6,6.1,0.833,0.9,1.1,45.0,0.0,NBA,575.0,3.1,4.8,C,6.2,2014,1.4,TOR,1.6,10.2
31.0,2.8,0.6,4.7,0.478,3.1,6.5,0.0,0.0,0.0,0.478,3.1,6.5,0.545,0.8,1.6,29.0,0.0,NBA,255.0,2.5,5.2,C,7.1,2015,1.4,TOR,1.1,7.2
32.0,3.0,0.0,12.0,0.5,1.5,3.0,0.0,0.0,0.0,0.5,1.5,3.0,1.0,3.0,3.0,2.0,0.0,NBA,24.0,0.0,9.0,C,6.0,2016,0.0,HOU,4.5,12.0
