age,ast,blk,drb,fg,fg2,fg2a,fg3,fg3a,fga,ft,fta,game_score,lg_id,mp,orb,pf,pts,season,stl,team_id,tov,trb
23.0,2.0,2.0,8.0,5.0,5.0,5.0,0.0,1.0,5.0,2.0,2.0,16.5,NBA,32,7.0,4.0,12.0,2007,3.0,HOU,2.0,12.0
24.0,2.0,2.0,8.0,2.0,2.0,3.0,0.0,1.0,3.0,0.0,0.0,6.8,NBA,27,2.0,5.0,4.0,2008,2.0,HOU,2.0,10.0
25.0,2.0,1.0,6.0,4.0,4.0,7.0,0.0,1.0,8.0,0.0,0.0,9.5,NBA,35,3.0,5.0,8.0,2009,5.0,HOU,2.0,9.0
30.0,1.0,0.0,3.0,1.0,1.0,4.0,0.0,0.0,4.0,2.0,2.0,3.7,NBA,11,2.0,3.0,4.0,2014,1.0,TOT,1.0,4.0
30.0,1.0,0.0,3.0,1.0,1.0,4.0,0.0,0.0,4.0,2.0,2.0,3.7,NBA,11,2.0,3.0,4.0,2014,1.0,TOR,1.0,4.0
