age,ast_per_g,blk_per_g,drb_per_g,efg_pct,fg2_pct,fg2_per_g,fg2a_per_g,fg3_pct,fg3_per_g,fg3a_per_g,fg_pct,fg_per_g,fga_per_g,ft_pct,ft_per_g,fta_per_g,g,gs,lg_id,mp_per_g,orb_per_g,pf_per_g,pos,pts_per_g,season,stl_per_g,team_id,tov_per_g,trb_per_g
18.0,0.4,0.8,2.4,0.577,0.584,1.5,2.6,0.0,0.0,0.0,0.577,1.5,2.6,0.475,0.6,1.3,30.0,1.0,NBA,12.8,1.6,2.9,C,3.6,2005,0.4,GSW,0.4,3.9
19.0,0.4,0.7,2.3,0.638,0.638,1.7,2.7,0.0,0.0,0.0,0.638,1.7,2.7,0.306,0.3,1.1,68.0,2.0,NBA,14.7,1.8,2.8,C,3.8,2006,0.3,GSW,0.5,4.2
20.0,1.1,1.7,6.2,0.599,0.599,4.2,7.1,0.0,0.0,0.0,0.599,4.2,7.1,0.521,1.1,2.0,82.0,63.0,NBA,29.0,3.1,3.7,C,9.5,2007,0.8,GSW,1.5,9.3
21.0,1.0,1.2,6.4,0.626,0.626,4.5,7.1,0.0,0.0,0.0,0.626,4.5,7.1,0.62,1.5,2.5,76.0,59.0,NBA,27.3,3.4,3.4,C,10.5,2008,0.7,GSW,1.1,9.8
22.0,2.0,1.5,7.6,0.578,0.579,5.0,8.6,0.0,0.0,0.0,0.578,5.0,8.6,0.551,1.9,3.5,62.0,58.0,NBA,30.0,3.6,3.8,C,11.9,2009,1.0,GSW,1.8,11.2
23.0,1.7,1.3,5.9,0.591,0.591,2.5,4.2,0.0,0.0,0.0,0.591,2.5,4.2,0.16,0.1,0.8,33.0,29.0,NBA,23.1,1.9,3.5,C,5.0,2010,0.6,GSW,1.0,7.8
24.0,1.0,0.9,4.8,0.534,0.534,2.4,4.5,0.0,0.0,0.0,0.534,2.4,4.5,0.323,0.2,0.5,59.0,55.0,NBA,23.7,2.5,3.4,C,5.0,2011,0.9,GSW,1.0,7.2
25.0,0.3,1.0,2.8,0.609,0.609,0.8,1.4,0.0,0.0,0.0,0.609,0.8,1.4,0.111,0.0,0.2,47.0,35.0,NBA,15.7,1.0,2.7,C,1.7,2012,0.5,GSW,0.3,3.7
26.0,0.3,0.8,2.2,0.476,0.476,0.2,0.4,0.0,0.0,0.0,0.476,0.2,0.4,0.308,0.1,0.2,53.0,9.0,NBA,9.3,0.6,1.9,C,0.5,2013,0.3,GSW,0.3,2.9
27.0,0.0,0.0,2.5,1.0,1.0,0.2,0.2,0.0,0.0,0.0,1.0,0.2,0.2,0.167,0.2,1.0,6.0,0.0,NBA,7.5,0.3,1.0,C,0.5,2014,0.0,UTA,0.3,2.8
