lg_id,salary,season,team_name
NBA,600491.0,2013,Dallas Mavericks
NBA,788872.0,2014,Dallas Mavericks
NBA,915243.0,2015,Boston Celtics
NBA,6000000.0,2016,Boston Celtics
NBA,6286408.0,2017,Boston Celtics
NBA,6796117.0,2018,Utah Jazz
NBA,7305825.0,2019,Utah Jazz
