age,and1s,astd_pts,drawn_offensive,drawn_shooting,fouls_offensive,fouls_shooting,g,lg_id,mp,own_shots_blk,pct_1,pct_2,pct_3,pct_4,pct_5,plus_minus_net,plus_minus_on,pos,season,team_id,tov_bad_pass,tov_lost_ball
22.0,8.0,213.0,7.0,30.0,7.0,65.0,78.0,NBA,1353.0,18.0,0.0,0.0,80.0,20.0,0.0,1.3,0.1,SF,2013,DAL,29.0,8.0
23.0,6.0,140.0,7.0,29.0,7.0,51.0,78.0,NBA,1254.0,13.0,0.0,1.0,88.0,11.0,0.0,14.5,12.3,SF,2014,DAL,18.0,11.0
24.0,13.0,223.0,7.0,60.0,6.0,64.0,82.0,NBA,1647.0,26.0,0.0,11.0,66.0,23.0,0.0,2.6,3.6,SF,2015,TOT,33.0,6.0
24.0,2.0,30.0,2.0,4.0,2.0,12.0,25.0,NBA,265.0,5.0,0.0,47.0,51.0,2.0,0.0,0.7,3.6,SF,2015,DAL,8.0,0.0
24.0,11.0,193.0,5.0,56.0,4.0,52.0,57.0,NBA,1382.0,21.0,0.0,4.0,69.0,27.0,0.0,5.4,3.6,SF,2015,BOS,25.0,6.0
25.0,29.0,305.0,9.0,104.0,15.0,95.0,73.0,NBA,2308.0,20.0,0.0,1.0,77.0,22.0,0.0,4.0,5.0,SF,2016,BOS,39.0,18.0
26.0,17.0,373.0,6.0,84.0,9.0,73.0,72.0,NBA,2335.0,12.0,0.0,12.0,75.0,13.0,0.0,10.9,7.5,SF,2017,BOS,53.0,16.0
27.0,5.0,243.0,5.0,61.0,15.0,86.0,80.0,NBA,2090.0,34.0,0.0,11.0,80.0,9.0,0.0,-3.3,0.4,SF,2018,TOT,39.0,15.0
27.0,4.0,143.0,4.0,38.0,9.0,58.0,53.0,NBA,1346.0,20.0,0.0,11.0,85.0,4.0,0.0,-8.8,-4.8,SF,2018,CLE,23.0,8.0
27.0,1.0,100.0,1.0,23.0,6.0,28.0,27.0,NBA,744.0,14.0,0.0,11.0,71.0,17.0,0.0,6.4,9.9,SF,2018,UTA,16.0,7.0
28.0,18.0,328.0,18.0,78.0,12.0,75.0,80.0,NBA,2166.0,27.0,0.0,2.0,64.0,33.0,0.0,-2.8,4.1,SF,2019,UTA,45.0,17.0
29.0,2.0,41.0,6.0,7.0,2.0,8.0,7.0,NBA,216.0,1.0,0.0,57.0,38.0,5.0,0.0,7.3,-4.6,SF,2020,MEM,5.0,2.0
