age,avg_dist,fg2_dunk,fg2_pct,fg2_pct_ast,fg2a_pct_fga,fg3_heave,fg3_pct,fg3_pct_ast,fg3_pct_corner,fg3a_heave,fg3a_pct_fga,fg_pct,fg_pct_00_03,fg_pct_03_10,fg_pct_10_16,fg_pct_16_xx,g,lg_id,mp,pct_fg2_dunk,pct_fg3a_corner,pct_fga_00_03,pct_fga_03_10,pct_fga_10_16,pct_fga_16_xx,pos,season,team_id
22.0,17.9,5.0,0.446,0.667,0.477,0.0,0.328,0.937,0.488,3.0,0.523,0.384,0.677,0.231,0.286,0.343,78.0,NBA,1353.0,0.016,0.224,0.177,0.071,0.038,0.191,SF,2013,DAL
23.0,16.1,12.0,0.552,0.55,0.49,0.0,0.331,0.96,0.435,1.0,0.51,0.439,0.722,0.381,0.4,0.378,78.0,NBA,1254.0,0.041,0.411,0.243,0.071,0.051,0.125,SF,2014,DAL
24.0,15.1,14.0,0.499,0.679,0.618,0.0,0.293,0.967,0.302,2.0,0.382,0.42,0.618,0.395,0.453,0.368,82.0,NBA,1647.0,0.031,0.255,0.279,0.07,0.097,0.174,SF,2015,TOT
24.0,17.2,1.0,0.526,0.45,0.5,0.0,0.342,0.923,0.5,0.0,0.5,0.434,0.667,0.667,0.333,0.429,25.0,NBA,265.0,0.013,0.368,0.197,0.039,0.079,0.184,SF,2015,DAL
24.0,14.8,13.0,0.495,0.709,0.638,0.0,0.282,0.979,0.231,2.0,0.362,0.418,0.613,0.371,0.468,0.358,57.0,NBA,1382.0,0.034,0.229,0.292,0.075,0.1,0.173,SF,2015,BOS
25.0,15.1,19.0,0.529,0.756,0.554,0.0,0.336,0.943,0.329,1.0,0.446,0.443,0.704,0.246,0.346,0.416,73.0,NBA,2308.0,0.023,0.226,0.274,0.075,0.064,0.139,SF,2016,BOS
26.0,17.9,13.0,0.54,0.761,0.453,0.0,0.398,0.93,0.478,1.0,0.547,0.463,0.739,0.321,0.444,0.356,72.0,NBA,2335.0,0.018,0.228,0.213,0.039,0.038,0.164,SF,2017,BOS
27.0,16.1,3.0,0.488,0.807,0.492,0.0,0.323,0.927,0.382,0.0,0.508,0.404,0.661,0.283,0.345,0.298,80.0,NBA,2090.0,0.007,0.261,0.255,0.069,0.043,0.125,SF,2018,TOT
27.0,15.9,0.0,0.508,0.832,0.497,0.0,0.328,0.952,0.396,0.0,0.503,0.418,0.676,0.25,0.222,0.327,53.0,NBA,1346.0,0.003,0.254,0.279,0.064,0.024,0.13,SF,2018,CLE
27.0,16.4,3.0,0.462,0.773,0.485,0.0,0.316,0.896,0.366,0.0,0.515,0.386,0.636,0.318,0.4,0.257,27.0,NBA,744.0,0.014,0.27,0.224,0.075,0.068,0.119,SF,2018,UTA
28.0,18.7,22.0,0.527,0.869,0.345,0.0,0.331,0.942,0.352,4.0,0.655,0.399,0.671,0.244,0.167,0.451,80.0,NBA,2166.0,0.031,0.239,0.202,0.056,0.023,0.064,SF,2019,UTA
29.0,20.3,0.0,0.471,0.625,0.274,0.0,0.289,0.615,0.2,0.0,0.726,0.339,0.583,0.0,0.0,0.333,7.0,NBA,216.0,0.0,0.111,0.194,0.016,0.016,0.048,SF,2020,MEM
