age,ast_per_mp,blk_per_mp,drb_per_mp,fg2_pct,fg2_per_mp,fg2a_per_mp,fg3_pct,fg3_per_mp,fg3a_per_mp,fg_pct,fg_per_mp,fga_per_mp,ft_pct,ft_per_mp,fta_per_mp,g,gs,lg_id,mp,orb_per_mp,pf_per_mp,pos,pts_per_mp,season,stl_per_mp,team_id,tov_per_mp,trb_per_mp
19.0,2.5,0.0,4.0,0.488,5.2,10.7,0.222,0.5,2.2,0.442,5.7,12.9,0.615,2.0,3.2,30.0,0.0,NBA,145.0,0.7,3.2,PG,13.9,2006,1.2,PHI,3.2,4.7
20.0,5.8,0.1,2.8,0.466,4.2,9.1,0.324,0.6,1.9,0.441,4.9,11.0,0.696,3.3,4.8,61.0,0.0,NBA,688.0,0.9,2.2,PG,13.7,2007,1.2,PHI,2.4,3.7
21.0,4.9,0.3,2.4,0.441,5.1,11.6,0.359,1.1,3.0,0.424,6.2,14.5,0.783,4.4,5.6,80.0,0.0,NBA,1862.0,0.8,2.5,PG,17.8,2008,1.6,PHI,2.4,3.2
22.0,4.5,0.3,2.4,0.438,5.1,11.7,0.286,1.2,4.1,0.398,6.3,15.8,0.79,5.7,7.2,81.0,0.0,NBA,1919.0,0.7,2.4,SG,19.5,2009,1.6,PHI,2.8,3.1
23.0,5.0,0.3,3.1,0.527,4.7,8.9,0.34,1.3,3.9,0.47,6.0,12.7,0.824,3.6,4.4,64.0,38.0,NBA,1912.0,0.5,2.1,PG,16.9,2010,1.5,PHI,2.0,3.5
24.0,5.2,0.4,2.4,0.434,4.8,11.2,0.348,1.8,5.2,0.406,6.7,16.4,0.823,6.0,7.3,75.0,0.0,NBA,1747.0,0.7,2.6,SG,21.2,2011,1.0,PHI,2.1,3.1
25.0,4.7,0.4,2.7,0.425,5.0,11.8,0.362,1.8,4.9,0.407,6.8,16.7,0.812,5.1,6.2,64.0,0.0,NBA,1682.0,0.6,1.9,PG,20.5,2012,1.1,PHI,1.5,3.3
26.0,4.5,0.3,2.3,0.466,3.7,7.9,0.367,2.3,6.3,0.422,6.0,14.3,0.868,3.4,3.9,39.0,9.0,NBA,1119.0,0.3,1.8,SG,17.7,2013,1.4,ATL,2.4,2.6
27.0,5.2,0.1,2.8,0.45,2.9,6.5,0.342,2.0,5.8,0.4,4.9,12.3,0.849,3.8,4.5,60.0,7.0,NBA,1445.0,0.2,1.6,PG,15.6,2014,1.1,ATL,2.3,3.1
28.0,2.9,0.2,2.3,0.464,4.0,8.6,0.34,2.7,8.0,0.404,6.7,16.6,0.861,6.1,7.1,80.0,0.0,NBA,2016.0,0.4,1.8,SG,22.2,2015,1.6,TOR,1.8,2.7
29.0,3.2,0.4,2.6,0.464,3.3,7.0,0.344,2.1,6.0,0.408,5.3,13.1,0.83,6.6,8.0,67.0,35.0,NBA,1907.0,0.6,2.0,SG,19.4,2016,1.2,LAL,2.0,3.2
30.0,4.3,0.4,3.2,0.48,4.8,10.0,0.365,2.9,8.1,0.429,7.7,18.0,0.88,7.3,8.3,81.0,1.0,NBA,1994.0,0.5,1.7,SG,25.7,2017,1.4,TOT,2.9,3.6
30.0,4.7,0.3,3.0,0.489,5.2,10.7,0.385,3.1,8.1,0.444,8.4,18.8,0.884,7.8,8.8,58.0,1.0,NBA,1403.0,0.4,1.7,SG,27.7,2017,1.7,LAL,3.1,3.4
30.0,3.4,0.5,3.5,0.452,3.7,8.2,0.318,2.5,7.9,0.386,6.2,16.1,0.867,6.0,6.9,23.0,0.0,NBA,591.0,0.7,1.5,SG,20.9,2017,0.9,HOU,2.4,4.3
31.0,5.8,0.3,2.2,0.484,5.5,11.4,0.359,2.6,7.2,0.435,8.1,18.6,0.88,6.0,6.8,79.0,19.0,NBA,2589.0,0.6,1.5,SG,24.8,2018,1.2,LAC,3.3,2.8
32.0,7.3,0.2,3.3,0.447,6.8,15.3,0.361,1.9,5.3,0.425,8.7,20.6,0.876,7.7,8.8,75.0,1.0,NBA,1993.0,0.7,1.4,SG,27.1,2019,1.0,LAC,3.3,4.0
33.0,6.3,0.3,3.4,0.446,6.3,14.2,0.339,1.7,5.1,0.418,8.1,19.3,0.837,7.0,8.3,12.0,3.0,NBA,397.0,0.8,1.6,SG,24.8,2020,0.5,LAC,3.0,4.2
