age,ast_per_g,blk_per_g,drb_per_g,efg_pct,fg2_pct,fg2_per_g,fg2a_per_g,fg3_pct,fg3_per_g,fg3a_per_g,fg_pct,fg_per_g,fga_per_g,ft_pct,ft_per_g,fta_per_g,g,gs,lg_id,mp_per_g,orb_per_g,pf_per_g,pos,pts_per_g,season,stl_per_g,team_id,tov_per_g,trb_per_g
22.0,0.9,0.0,0.7,0.407,0.407,1.6,3.9,0.0,0.0,0.0,0.407,1.6,3.9,1.0,0.1,0.1,7.0,0.0,NBA,9.0,0.6,1.9,SG,3.3,1984,0.4,HOU,0.4,1.3
23.0,0.6,0.1,0.4,0.493,0.515,0.8,1.5,0.0,0.0,0.1,0.493,0.8,1.5,0.633,0.4,0.7,45.0,0.0,NBA,4.2,0.2,0.6,SG,1.9,1985,0.2,HOU,0.5,0.6
24.0,0.8,0.1,0.8,0.446,0.44,0.9,2.1,0.333,0.1,0.3,0.429,1.0,2.3,0.793,0.6,0.8,36.0,0.0,NBA,5.5,0.5,0.6,SG,2.7,1986,0.3,HOU,0.4,1.3
25.0,2.1,0.7,2.4,0.425,0.448,2.1,4.8,0.172,0.1,0.7,0.414,2.3,5.4,0.707,1.6,2.3,44.0,15.0,NBA,20.2,1.3,1.8,SG,6.2,1987,0.9,CLE,1.4,3.7
26.0,2.6,0.4,2.4,0.489,0.485,2.6,5.3,0.344,0.3,0.8,0.466,2.9,6.1,0.674,1.1,1.7,79.0,27.0,NBA,21.6,1.1,2.3,SG,7.1,1988,1.0,CLE,1.4,3.5
27.0,3.2,0.2,2.4,0.512,0.495,2.6,5.2,0.39,0.5,1.2,0.475,3.0,6.4,0.607,0.9,1.4,82.0,4.0,NBA,22.8,1.2,2.0,SG,7.4,1989,1.3,CLE,1.4,3.6
28.0,4.6,0.3,3.6,0.519,0.48,4.1,8.5,0.419,1.3,3.1,0.464,5.4,11.6,0.681,1.6,2.3,81.0,64.0,NBA,35.7,1.8,2.8,SG,13.6,1990,1.6,CLE,2.0,5.4
29.0,4.6,0.4,3.0,0.477,0.473,3.6,7.6,0.329,0.6,1.8,0.445,4.2,9.4,0.679,1.2,1.7,82.0,68.0,NBA,33.7,1.7,2.5,SG,10.1,1991,1.5,CLE,2.0,4.7
30.0,3.8,0.3,3.4,0.504,0.466,3.8,8.2,0.413,1.1,2.7,0.453,4.9,10.9,0.707,1.4,2.0,63.0,62.0,NBA,32.0,1.5,2.4,SG,12.3,1992,1.2,CLE,1.7,4.9
31.0,3.1,0.3,3.5,0.55,0.54,3.6,6.6,0.381,1.1,3.0,0.49,4.7,9.6,0.717,1.0,1.5,82.0,73.0,NBA,31.2,1.4,2.1,SG,11.6,1993,1.3,CLE,1.5,4.9
32.0,3.3,0.3,2.5,0.501,0.491,2.9,5.9,0.348,0.9,2.7,0.446,3.9,8.6,0.727,1.4,1.9,82.0,0.0,NBA,26.2,0.9,2.0,SG,10.0,1994,1.7,ATL,1.6,3.4
33.0,2.3,0.1,1.9,0.513,0.486,2.9,5.9,0.381,1.0,2.7,0.453,3.9,8.6,0.62,0.9,1.4,49.0,0.0,NBA,23.8,1.1,1.8,SG,9.7,1995,0.9,ATL,1.5,3.0
34.0,1.7,0.1,2.4,0.497,0.462,2.2,4.7,0.371,1.0,2.8,0.428,3.2,7.5,0.786,1.0,1.3,79.0,8.0,NBA,22.3,0.8,1.7,SG,8.5,1996,1.1,ATL,1.3,3.2
35.0,1.1,0.1,1.1,0.405,0.392,1.0,2.5,0.284,0.4,1.5,0.351,1.4,4.0,0.5,0.2,0.4,62.0,0.0,NBA,13.7,0.6,1.1,SG,3.5,1997,0.6,SEA,0.7,1.8
