age,ast_per_mp,blk_per_mp,drb_per_mp,fg2_pct,fg2_per_mp,fg2a_per_mp,fg3_pct,fg3_per_mp,fg3a_per_mp,fg_pct,fg_per_mp,fga_per_mp,ft_pct,ft_per_mp,fta_per_mp,g,gs,lg_id,mp,orb_per_mp,pf_per_mp,pos,pts_per_mp,season,stl_per_mp,team_id,tov_per_mp,trb_per_mp
23.0,0.0,0.0,0.0,1.0,6.0,6.0,0.0,0.0,0.0,1.0,6.0,6.0,1.0,12.0,12.0,3.0,0.0,NBA,6.0,0.0,18.0,SG,24.0,1985,24.0,HOU,0.0,0.0
24.0,5.7,0.9,1.9,0.533,7.6,14.2,0.0,0.0,0.9,0.5,7.6,15.2,0.8,3.8,4.7,10.0,0.0,NBA,38.0,0.9,3.8,SG,18.9,1986,3.8,HOU,2.8,2.8
26.0,4.8,0.0,4.2,0.531,4.8,9.0,0.0,0.0,2.3,0.425,4.8,11.3,0.625,2.8,4.5,5.0,1.0,NBA,128.0,0.8,3.9,SG,12.4,1988,1.4,CLE,3.4,5.1
27.0,4.8,0.4,1.5,0.462,4.5,9.6,0.385,1.9,4.8,0.436,6.3,14.5,0.818,3.3,4.1,4.0,1.0,NBA,97.0,0.7,3.7,SG,17.8,1989,1.1,CLE,1.9,2.2
28.0,5.9,0.0,4.6,0.447,3.9,8.6,0.333,0.9,2.8,0.419,4.8,11.4,0.632,2.2,3.5,5.0,5.0,NBA,196.0,1.3,3.3,SG,12.7,1990,1.1,CLE,2.2,5.9
30.0,5.0,0.3,3.6,0.416,2.7,6.6,0.412,1.4,3.3,0.414,4.1,9.9,0.762,1.0,1.4,17.0,14.0,NBA,552.0,1.4,2.6,SG,10.6,1992,1.4,CLE,1.2,5.0
31.0,3.1,0.5,2.6,0.431,3.5,8.1,0.385,1.2,3.2,0.418,4.7,11.3,0.8,1.5,1.9,9.0,9.0,NBA,289.0,1.2,2.4,SG,12.2,1993,1.5,CLE,2.1,3.9
32.0,4.5,0.0,2.2,0.442,4.8,10.8,0.348,0.9,2.6,0.424,5.7,13.4,0.708,1.9,2.7,11.0,0.0,NBA,317.0,1.2,3.6,SG,14.2,1994,1.2,ATL,1.5,3.4
33.0,2.2,0.0,5.1,0.167,0.7,4.4,0.167,0.7,4.4,0.167,1.5,8.8,1.0,2.9,2.9,3.0,0.0,NBA,49.0,0.0,0.0,SG,6.6,1995,1.5,ATL,2.9,5.1
34.0,1.9,0.4,3.6,0.278,1.1,3.8,0.304,1.5,4.8,0.293,2.5,8.6,0.714,1.1,1.5,9.0,0.0,NBA,171.0,0.2,2.9,SG,7.6,1996,1.9,ATL,1.9,3.8
