lg_id,salary,season,team_name
NBA,80000.0,1985,Houston Rockets
NBA,105000.0,1986,Houston Rockets
NBA,175000.0,1988,Cleveland Cavaliers
NBA,300000.0,1989,Cleveland Cavaliers
NBA,925000.0,1991,Cleveland Cavaliers
NBA,925000.0,1992,Cleveland Cavaliers
NBA,1075000.0,1993,Cleveland Cavaliers
NBA,1200000.0,1994,Atlanta Hawks
NBA,2650000.0,1995,Atlanta Hawks
NBA,1855000.0,1996,Atlanta Hawks
NBA,360000.0,1997,Seattle SuperSonics
NBA,432081.0,1998,Seattle SuperSonics
NBA,504082.0,1999,Seattle SuperSonics
