age,ast,ast_per_g,blk,college_id,fg,fg3,fg3_pct,fg3a,fg_pct,fga,ft,ft_pct,fta,g,mp,mp_per_g,orb,pf,pts,pts_per_g,season,stl,tov,trb,trb_per_g
19.0,6.0,6.0,0.0,BOSTONCOLL,3.0,0.0,0.0,0.0,0.75,4.0,8.0,1.0,8.0,1.0,21.0,21.0,0.0,0.0,14.0,14.0,1995,3.0,3.0,2.0,2.0
21.0,146.0,4.6,4.0,FRESNOST,194.0,68.0,0.362,188.0,0.475,408.0,104.0,0.654,159.0,32.0,971.0,30.3,0.0,103.0,560.0,17.5,1997,59.0,93.0,74.0,2.3
22.0,138.0,4.8,1.0,FRESNOST,162.0,54.0,0.362,149.0,0.467,347.0,75.0,0.564,133.0,29.0,0.0,0.0,0.0,0.0,453.0,15.6,1998,54.0,0.0,67.0,2.3
23.0,181.0,7.2,1.0,FRESNOST,91.0,44.0,0.383,115.0,0.408,223.0,58.0,0.682,85.0,25.0,685.0,27.4,0.0,64.0,284.0,11.4,1999,25.0,69.0,41.0,1.6
