age,ast,blk,drb,efg_pct,fg,fg2,fg2_pct,fg2a,fg3,fg3_pct,fg3a,fg_pct,fga,ft,ft_pct,fta,g,gs,lg_id,mp,orb,pf,pos,pts,season,stl,team_id,tov,trb
24.0,6.0,1.0,14.0,0.417,7.0,6.0,0.4,15.0,1.0,0.333,3.0,0.389,18.0,4.0,0.571,7.0,12.0,0.0,NBA,133.0,7.0,14.0,PF,19.0,2001,2.0,CHI,8.0,21.0
25.0,5.0,2.0,4.0,0.2,2.0,2.0,0.2,10.0,0.0,0.0,0.0,0.2,10.0,1.0,0.5,2.0,9.0,0.0,NBA,50.0,1.0,10.0,SF,5.0,2002,1.0,NJN,3.0,5.0
