age,ast,ast_per_g,blk,college_id,fg,fg3,fg3_pct,fg3a,fg_pct,fga,ft,ft_pct,fta,g,mp,mp_per_g,orb,pf,pts,pts_per_g,season,stl,tov,trb,trb_per_g
19.0,11.0,0.4,27.0,GEORGEWASH,103.0,0.0,0.0,0.0,0.585,176.0,86.0,0.667,129.0,29.0,716.0,24.7,0.0,0.0,292.0,10.1,2003,29.0,0.0,164.0,5.7
20.0,12.0,0.4,30.0,GEORGEWASH,125.0,0.0,0.0,0.0,0.616,203.0,98.0,0.685,143.0,30.0,636.0,21.2,0.0,0.0,348.0,11.6,2004,25.0,0.0,161.0,5.4
21.0,24.0,0.8,46.0,GEORGEWASH,141.0,0.0,0.0,0.0,0.571,247.0,97.0,0.571,170.0,30.0,730.0,24.3,0.0,0.0,379.0,12.6,2005,26.0,0.0,197.0,6.6
22.0,18.0,0.8,38.0,GEORGEWASH,101.0,0.0,0.0,0.0,0.564,179.0,87.0,0.534,163.0,23.0,583.0,25.3,0.0,0.0,289.0,12.6,2006,10.0,0.0,154.0,6.7
