age,ast_pct,blk_pct,bpm,bpm-dum,dbpm,drb_pct,dws,fg3a_per_fga_pct,fta_per_fga_pct,g,lg_id,mp,obpm,orb_pct,ows,per,pos,season,stl_pct,team_id,tov_pct,trb_pct,ts_pct,usg_pct,vorp,ws,ws-dum,ws_per_48
23.0,0.0,0.0,-11.7,0.0,-5.7,19.9,0.1,0.0,1.059,12.0,NBA,71.0,-6.0,15.6,-0.1,11.6,PF,2007,0.8,DAL,26.5,17.8,0.582,22.3,-0.2,0.0,0.0,0.022
25.0,3.3,1.4,-6.2,0.0,-2.7,23.8,0.4,0.019,0.466,22.0,NBA,283.0,-3.6,23.1,0.0,14.5,PF,2009,1.7,TOT,13.3,23.5,0.447,23.4,-0.3,0.3,0.0,0.058
25.0,0.0,3.7,-2.9,0.0,-5.6,29.4,0.1,0.0,1.0,3.0,NBA,20.0,2.7,30.2,0.1,35.8,PF,2009,2.7,SAS,16.6,29.8,0.744,29.3,0.0,0.2,0.0,0.418
25.0,3.6,1.2,-6.5,0.0,-2.4,23.4,0.3,0.021,0.427,19.0,NBA,263.0,-4.0,22.5,-0.1,12.9,PF,2009,1.6,TOR,13.0,23.0,0.421,23.0,-0.3,0.2,0.0,0.031
26.0,3.6,5.7,-4.8,0.0,0.2,18.3,0.1,0.0,0.727,20.0,NBA,120.0,-5.0,16.1,-0.1,11.4,PF,2010,1.7,TOT,18.7,17.2,0.448,20.3,-0.1,0.0,0.0,0.006
26.0,11.0,5.6,-1.1,0.0,3.8,27.5,0.0,0.0,1.5,4.0,NBA,13.0,-4.9,8.5,0.0,15.2,PF,2010,3.9,HOU,0.0,17.6,0.377,22.6,0.0,0.0,0.0,0.108
26.0,2.7,5.7,-5.2,0.0,-0.2,17.2,0.1,0.0,0.621,16.0,NBA,107.0,-5.0,17.0,-0.1,11.0,PF,2010,1.4,TOR,21.3,17.1,0.46,20.0,-0.1,0.0,0.0,-0.006
27.0,8.0,0.0,-5.4,0.0,1.2,28.0,0.0,0.0,0.0,7.0,NBA,35.0,-6.6,10.4,0.0,-0.1,PF,2011,0.0,NOH,40.0,19.1,0.333,6.8,0.0,0.0,0.0,0.013
