age,ast,blk,drb,efg_pct,fg,fg2,fg2_pct,fg2a,fg3,fg3_pct,fg3a,fg_pct,fga,ft,ft_pct,fta,g,gs,lg_id,mp,orb,pf,pos,pts,season,stl,team_id,tov,trb
22.0,0.0,6.0,24.0,0.519,28.0,28.0,0.528,53.0,0.0,0.0,1.0,0.519,54.0,11.0,0.324,34.0,4.0,4.0,NBA,131.0,12.0,8.0,C,67.0,2016,1.0,DET,4.0,36.0
25.0,9.0,5.0,32.0,0.444,24.0,24.0,0.453,53.0,0.0,0.0,1.0,0.444,54.0,9.0,0.429,21.0,4.0,4.0,NBA,127.0,20.0,17.0,C,57.0,2019,6.0,DET,11.0,52.0
