age,ast_pct,blk_pct,bpm,bpm-dum,dbpm,drb_pct,dws,fg3a_per_fga_pct,fta_per_fga_pct,g,lg_id,mp,obpm,orb_pct,ows,per,pos,season,stl_pct,team_id,tov_pct,trb_pct,ts_pct,usg_pct,vorp,ws,ws-dum,ws_per_48
19.0,4.1,6.1,2.4,0.0,2.6,27.2,2.3,0.006,0.465,60.0,NBA,1243.0,-0.3,15.4,2.2,21.6,C,2013,2.5,DET,12.2,21.2,0.578,17.2,1.4,4.5,0.0,0.172
20.0,2.2,4.0,1.6,0.0,0.5,27.7,3.5,0.003,0.427,81.0,NBA,2619.0,1.1,17.5,6.4,22.6,C,2014,2.0,DET,10.7,22.3,0.599,16.7,2.4,9.9,0.0,0.182
21.0,3.9,4.8,-0.2,0.0,1.1,30.1,4.3,0.002,0.38,82.0,NBA,2502.0,-1.2,18.3,3.4,21.4,C,2015,1.5,DET,9.7,24.0,0.504,22.0,1.2,7.7,0.0,0.147
22.0,4.4,3.2,-0.5,0.0,1.6,34.2,5.5,0.006,0.553,81.0,NBA,2666.0,-2.1,15.6,2.0,21.2,C,2016,2.3,DET,10.5,24.5,0.499,24.1,1.0,7.4,0.0,0.133
23.0,6.0,3.1,0.9,0.0,2.9,36.2,5.3,0.008,0.39,81.0,NBA,2409.0,-2.1,15.1,1.4,20.9,C,2017,2.6,DET,12.5,25.2,0.518,22.4,1.8,6.7,0.0,0.133
24.0,14.3,4.3,5.5,0.0,5.3,36.4,5.7,0.012,0.448,78.0,NBA,2625.0,0.2,16.4,4.6,22.9,C,2018,2.2,DET,15.9,26.2,0.555,21.2,5.0,10.3,0.0,0.189
25.0,7.2,4.4,2.9,0.0,3.6,34.7,5.9,0.036,0.392,79.0,NBA,2647.0,-0.7,16.8,4.1,23.4,C,2019,2.5,DET,12.4,25.4,0.555,22.9,3.3,10.0,0.0,0.181
26.0,15.3,5.0,5.4,0.0,4.0,43.2,0.6,0.043,0.348,9.0,NBA,323.0,1.4,16.5,0.7,27.4,C,2020,2.2,DET,18.1,30.3,0.606,26.5,0.6,1.3,0.0,0.193
