age,ast_per_g,blk_per_g,drb_per_g,efg_pct,fg2_pct,fg2_per_g,fg2a_per_g,fg3_pct,fg3_per_g,fg3a_per_g,fg_pct,fg_per_g,fga_per_g,ft_pct,ft_per_g,fta_per_g,g,gs,lg_id,mp_per_g,orb_per_g,pf_per_g,pos,pts_per_g,season,stl_per_g,team_id,tov_per_g,trb_per_g
22.0,0.0,1.5,6.0,0.519,0.528,7.0,13.3,0.0,0.0,0.3,0.519,7.0,13.5,0.324,2.8,8.5,4.0,4.0,NBA,32.8,3.0,2.0,C,16.8,2016,0.3,DET,1.0,9.0
25.0,2.3,1.3,8.0,0.444,0.453,6.0,13.3,0.0,0.0,0.3,0.444,6.0,13.5,0.429,2.3,5.3,4.0,4.0,NBA,31.8,5.0,4.3,C,14.3,2019,1.5,DET,2.8,13.0
