age,ast_pct,blk_pct,bpm,bpm-dum,dbpm,drb_pct,dws,fg3a_per_fga_pct,fta_per_fga_pct,g,lg_id,mp,obpm,orb_pct,ows,per,pos,season,stl_pct,team_id,tov_pct,trb_pct,ts_pct,usg_pct,vorp,ws,ws-dum,ws_per_48
23.0,3.8,2.9,-0.6,0.0,0.4,11.8,0.8,0.02,0.323,62.0,NBA,614.0,-1.0,11.0,0.6,14.4,C,1989,1.4,PHO,13.9,11.4,0.56,17.2,0.2,1.4,0.0,0.109
24.0,3.8,2.0,-1.6,0.0,-0.4,12.3,0.8,0.005,0.462,60.0,NBA,612.0,-1.2,15.1,0.4,13.5,C,1990,1.6,PHO,16.7,13.6,0.541,19.0,0.1,1.2,0.0,0.094
25.0,5.9,4.2,1.5,0.0,2.5,12.9,0.9,0.035,0.486,46.0,NBA,587.0,-0.9,10.4,0.5,13.8,C,1991,1.9,PHO,15.5,11.7,0.552,14.4,0.5,1.4,0.0,0.116
26.0,7.4,2.7,1.1,0.0,1.3,14.7,3.0,0.01,0.272,80.0,NBA,2483.0,-0.2,9.5,2.7,13.8,PF,1992,0.9,PHO,13.8,12.2,0.556,17.2,2.0,5.7,0.0,0.11
27.0,8.9,2.5,-1.8,0.0,0.3,13.1,1.3,0.08,0.338,81.0,NBA,2104.0,-2.1,8.0,0.7,12.0,PF,1993,0.9,PHI,14.9,10.5,0.519,16.6,0.1,2.0,0.0,0.046
28.0,6.0,2.1,-1.2,0.0,0.0,13.5,1.3,0.32,0.282,80.0,NBA,2336.0,-1.2,5.5,1.3,11.5,PF,1994,1.3,PHI,10.2,9.5,0.512,14.6,0.5,2.6,0.0,0.054
29.0,3.9,2.5,-4.7,0.0,0.2,13.4,0.3,0.179,0.513,42.0,NBA,446.0,-4.9,9.9,-0.4,6.4,PF,1995,1.2,PHI,18.0,11.6,0.397,11.7,-0.3,-0.1,0.0,-0.006
30.0,5.3,3.9,-2.9,0.0,0.2,12.1,0.2,0.123,0.138,30.0,NBA,254.0,-3.1,9.0,0.1,12.0,PF,1996,0.8,TOT,12.7,10.5,0.515,13.7,-0.1,0.3,0.0,0.062
30.0,3.7,2.5,-5.2,0.0,-0.9,9.5,0.0,0.056,0.167,8.0,NBA,87.0,-4.3,7.8,0.0,9.1,PF,1996,1.2,PHI,13.4,8.6,0.492,11.5,-0.1,0.0,0.0,0.015
30.0,6.1,4.6,-1.7,0.0,0.8,13.5,0.2,0.149,0.128,22.0,NBA,167.0,-2.4,9.7,0.1,13.5,PF,1996,0.6,NJN,12.4,11.5,0.524,14.8,0.0,0.3,0.0,0.087
