age,ast,blk,drb,efg_pct,fg,fg2,fg2_pct,fg2a,fg3,fg3_pct,fg3a,fg_pct,fga,ft,ft_pct,fta,g,gs,lg_id,mp,orb,pf,pos,pts,season,stl,team_id,tov,trb
23.0,18.0,32.0,71.0,0.54,108.0,107.0,0.543,197.0,1.0,0.25,4.0,0.537,201.0,40.0,0.615,65.0,62.0,15.0,NBA,614.0,61.0,47.0,C,257.0,1989,19.0,PHO,37.0,132.0
24.0,17.0,22.0,73.0,0.515,100.0,99.0,0.51,194.0,1.0,1.0,1.0,0.513,195.0,53.0,0.589,90.0,60.0,18.0,NBA,612.0,79.0,76.0,C,254.0,1990,21.0,PHO,47.0,152.0
25.0,27.0,43.0,73.0,0.521,75.0,75.0,0.54,139.0,0.0,0.0,5.0,0.521,144.0,43.0,0.614,70.0,46.0,2.0,NBA,587.0,53.0,60.0,C,193.0,1991,23.0,PHO,32.0,126.0
26.0,134.0,116.0,347.0,0.525,413.0,410.0,0.525,781.0,3.0,0.375,8.0,0.523,789.0,153.0,0.712,215.0,80.0,69.0,NBA,2483.0,204.0,237.0,PF,982.0,1992,44.0,PHO,141.0,551.0
27.0,126.0,91.0,255.0,0.476,287.0,277.0,0.491,564.0,10.0,0.204,49.0,0.468,613.0,147.0,0.71,207.0,81.0,51.0,NBA,2104.0,154.0,159.0,PF,731.0,1993,40.0,PHI,123.0,409.0
28.0,94.0,82.0,287.0,0.494,272.0,199.0,0.468,425.0,73.0,0.365,200.0,0.435,625.0,102.0,0.58,176.0,80.0,68.0,NBA,2336.0,117.0,154.0,PF,719.0,1994,60.0,PHI,80.0,404.0
29.0,12.0,15.0,51.0,0.346,27.0,27.0,0.422,64.0,0.0,0.0,14.0,0.346,78.0,22.0,0.55,40.0,42.0,1.0,NBA,446.0,38.0,51.0,PF,76.0,1995,10.0,PHI,21.0,89.0
30.0,8.0,13.0,27.0,0.508,31.0,27.0,0.474,57.0,4.0,0.5,8.0,0.477,65.0,5.0,0.556,9.0,30.0,1.0,NBA,254.0,21.0,16.0,PF,71.0,1996,4.0,TOT,10.0,48.0
30.0,2.0,3.0,7.0,0.472,8.0,7.0,0.412,17.0,1.0,1.0,1.0,0.444,18.0,2.0,0.667,3.0,8.0,0.0,NBA,87.0,6.0,5.0,PF,19.0,1996,2.0,PHI,3.0,13.0
30.0,6.0,10.0,20.0,0.521,23.0,20.0,0.5,40.0,3.0,0.429,7.0,0.489,47.0,3.0,0.5,6.0,22.0,1.0,NBA,167.0,15.0,11.0,PF,52.0,1996,2.0,NJN,7.0,35.0
