age,ast_per_g,blk_per_g,drb_per_g,efg_pct,fg2_pct,fg2_per_g,fg2a_per_g,fg3_pct,fg3_per_g,fg3a_per_g,fg_pct,fg_per_g,fga_per_g,ft_pct,ft_per_g,fta_per_g,g,gs,lg_id,mp_per_g,orb_per_g,pf_per_g,pos,pts_per_g,season,stl_per_g,team_id,tov_per_g,trb_per_g
27.0,0.1,0.5,1.0,0.316,0.325,0.7,2.3,0.0,0.0,0.1,0.316,0.7,2.3,0.735,0.7,1.0,34.0,1.0,NBA,9.0,0.4,1.1,PF,2.2,2001,0.2,SEA,0.4,1.4
29.0,0.1,0.0,0.1,0.5,0.667,0.3,0.4,0.0,0.0,0.1,0.5,0.3,0.6,0.25,0.1,0.6,7.0,0.0,NBA,3.4,0.0,0.4,PF,0.7,2003,0.0,BOS,0.1,0.1
