age,ast_per_mp,blk_per_mp,drb_per_mp,fg2_pct,fg2_per_mp,fg2a_per_mp,fg3_pct,fg3_per_mp,fg3a_per_mp,fg_pct,fg_per_mp,fga_per_mp,ft_pct,ft_per_mp,fta_per_mp,g,gs,lg_id,mp,orb_per_mp,pf_per_mp,pos,pts_per_mp,season,stl_per_mp,team_id,tov_per_mp,trb_per_mp
22.0,0.7,1.3,6.5,0.478,2.9,6.0,0.339,1.3,3.9,0.423,4.2,9.9,0.615,1.1,1.7,37.0,4.0,NBA,540.0,3.1,3.2,PF,10.8,2012,1.5,NYK,1.3,9.6
23.0,0.0,1.2,4.6,0.75,3.5,4.6,0.2,1.2,5.8,0.444,4.6,10.5,0.5,1.2,2.3,6.0,0.0,NBA,31.0,3.5,4.6,C,11.6,2013,1.2,MIA,3.5,8.1
24.0,1.7,1.7,5.2,0.51,3.0,5.8,0.387,1.4,3.5,0.463,4.3,9.3,0.714,0.6,0.8,32.0,0.0,NBA,317.0,3.4,5.0,C,10.6,2014,0.7,DET,1.1,8.6
