age,ast_per_g,blk_per_g,drb_per_g,efg_pct,fg2_pct,fg2_per_g,fg2a_per_g,fg3_pct,fg3_per_g,fg3a_per_g,fg_pct,fg_per_g,fga_per_g,ft_pct,ft_per_g,fta_per_g,g,gs,lg_id,mp_per_g,orb_per_g,pf_per_g,pos,pts_per_g,season,stl_per_g,team_id,tov_per_g,trb_per_g
22.0,0.3,0.5,2.6,0.49,0.478,1.2,2.4,0.339,0.5,1.6,0.423,1.7,4.0,0.615,0.4,0.7,37.0,4.0,NBA,14.6,1.3,1.3,PF,4.4,2012,0.6,NYK,0.5,3.9
23.0,0.0,0.2,0.7,0.5,0.75,0.5,0.7,0.2,0.2,0.8,0.444,0.7,1.5,0.5,0.2,0.3,6.0,0.0,NBA,5.2,0.5,0.7,C,1.7,2013,0.2,MIA,0.5,1.2
24.0,0.5,0.5,1.4,0.537,0.51,0.8,1.6,0.387,0.4,1.0,0.463,1.2,2.6,0.714,0.2,0.2,32.0,0.0,NBA,9.9,0.9,1.4,C,2.9,2014,0.2,DET,0.3,2.4
