age,ast,blk,fg,fg3,fg3_pct,fg3a,fg_pct,fga,ft,ft_pct,fta,g,gs,lg_id,mp,orb,pf,pos,pts,season,stl,team_id,tov,trb
26.0,1.0,0.0,0.0,0.0,0.0,0.0,0.0,2.0,0.0,0.0,0.0,1.0,0.0,NBA,6,0.0,0.0,SF,0.0,2012,0.0,CHI,0.0,0.0
27.0,1.0,0.0,4.0,1.0,0.2,5.0,0.4,10.0,1.0,1.0,1.0,1.0,0.0,NBA,18,0.0,0.0,SF,10.0,2013,0.0,CHI,2.0,2.0
