age,ast,blk,drb,fg,fg2,fg2a,fg3,fg3a,fga,ft,fta,game_score,lg_id,mp,orb,pf,pts,season,stl,team_id,tov,trb
23.0,6.0,2.0,5.0,10.0,4.0,6.0,8.0,12.0,18.0,4.0,4.0,26.0,NBA,35,3.0,4.0,32.0,2019,3.0,MEM,4.0,6.0
24.0,6.0,1.0,4.0,4.0,1.0,4.0,3.0,7.0,11.0,4.0,4.0,10.8,NBA,33,1.0,5.0,15.0,2020,3.0,PHO,4.0,4.0
