age,ast,blk,drb,efg_pct,fg,fg2,fg2_pct,fg2a,fg3,fg3_pct,fg3a,fg_pct,fga,ft,ft_pct,fta,g,gs,lg_id,mp,orb,pf,pos,pts,season,stl,team_id,tov,trb
23.0,69.0,11.0,52.0,0.395,56.0,22.0,0.265,83.0,34.0,0.333,102.0,0.303,185.0,26.0,0.813,32.0,39.0,3.0,NBA,577.0,14.0,55.0,PG,172.0,2019,26.0,MEM,33.0,66.0
24.0,19.0,2.0,15.0,0.5,14.0,4.0,0.333,12.0,10.0,0.385,26.0,0.368,38.0,4.0,1.0,4.0,8.0,1.0,NBA,148.0,2.0,18.0,PG,42.0,2020,9.0,PHO,13.0,17.0
