age,ast_per_poss,blk_per_poss,def_rtg,drb_per_poss,fg2_pct,fg2_per_poss,fg2a_per_poss,fg3_pct,fg3_per_poss,fg3a_per_poss,fg_pct,fg_per_poss,fga_per_poss,ft_pct,ft_per_poss,fta_per_poss,g,gs,lg_id,mp,off_rtg,orb_per_poss,pf_per_poss,pos,pts_per_poss,season,stl_per_poss,team_id,tov_per_poss,trb_per_poss
21.0,7.2,0.0,102.0,3.6,0.0,0.0,3.6,0.0,0.0,3.6,0.0,0.0,7.2,0.5,3.6,7.2,6.0,0.0,NBA,15.0,40.0,0.0,7.2,SG,3.6,2004,0.0,NJN,7.2,3.6
22.0,0.0,0.0,121.0,0.0,0.0,0.0,0.0,0.0,0.0,0.0,0.0,0.0,0.0,0.0,0.0,0.0,3.0,0.0,NBA,3.0,0.0,0.0,0.0,PG,0.0,2005,0.0,NJN,0.0,0.0
23.0,18.1,0.0,91.0,9.0,0.0,0.0,9.0,0.0,0.0,0.0,0.0,0.0,9.0,0.0,0.0,18.1,3.0,0.0,NBA,6.0,33.0,0.0,9.0,PG,0.0,2006,9.0,NJN,9.0,9.0
