age,ast_per_poss,blk_per_poss,def_rtg,drb_per_poss,fg2_pct,fg2_per_poss,fg2a_per_poss,fg3_pct,fg3_per_poss,fg3a_per_poss,fg_pct,fg_per_poss,fga_per_poss,ft_pct,ft_per_poss,fta_per_poss,g,gs,lg_id,mp,off_rtg,orb_per_poss,pf_per_poss,pos,pts_per_poss,season,stl_per_poss,team_id,tov_per_poss,trb_per_poss
21.0,7.7,0.3,101.0,4.7,0.454,5.0,11.0,0.281,1.0,3.6,0.411,6.0,14.6,0.633,4.3,6.8,49.0,1.0,NBA,473.0,96.0,1.6,7.9,SG,17.4,2004,1.5,NJN,4.1,6.2
22.0,4.6,0.0,103.0,5.2,0.47,6.6,14.0,0.375,1.6,4.2,0.448,8.2,18.2,0.697,4.8,6.9,43.0,8.0,NBA,515.0,98.0,2.0,7.9,PG,22.7,2005,2.6,NJN,4.3,7.2
23.0,4.8,0.4,103.0,5.4,0.417,4.8,11.4,0.232,1.2,5.0,0.361,5.9,16.4,0.697,4.1,5.9,56.0,1.0,NBA,596.0,87.0,1.3,8.2,PG,17.1,2006,1.8,NJN,3.9,6.6
