age,ast,blk,drb,fg,fg2,fg2a,fg3,fg3a,fga,ft,fta,game_score,lg_id,mp,orb,pf,pts,season,stl,team_id,tov,trb
21.0,7.0,1.0,4.0,6.0,5.0,8.0,1.0,3.0,9.0,7.0,8.0,14.7,NBA,0.0,3.0,6.0,14.0,2004,2.0,NJN,3.0,4.0
22.0,4.0,0.0,6.0,7.0,6.0,13.0,2.0,4.0,15.0,5.0,6.0,11.4,NBA,0.0,4.0,6.0,16.0,2005,3.0,NJN,6.0,9.0
23.0,7.0,2.0,5.0,6.0,5.0,13.0,1.0,6.0,15.0,6.0,6.0,9.6,NBA,32.0,3.0,6.0,13.0,2006,2.0,NJN,4.0,5.0
