age,ast,blk,drb,efg_pct,fg,fg2,fg2_pct,fg2a,fg3,fg3_pct,fg3a,fg_pct,fga,ft,ft_pct,fta,g,gs,lg_id,mp,orb,pf,pos,pts,season,stl,team_id,tov,trb
23.0,0.0,1.0,1.0,0.5,1.0,1.0,0.5,2.0,0.0,0.0,0.0,0.5,2.0,0.0,0.0,0.0,5.0,0.0,NBA,11.0,2.0,1.0,PF,2.0,2013,1.0,MEM,0.0,3.0
24.0,2.0,0.0,6.0,0.5,3.0,2.0,0.4,5.0,1.0,0.5,2.0,0.429,7.0,2.0,1.0,2.0,3.0,0.0,NBA,23.0,2.0,2.0,PF,9.0,2014,1.0,MEM,0.0,8.0
25.0,0.0,0.0,3.0,0.5,2.0,2.0,0.5,4.0,0.0,0.0,0.0,0.5,4.0,0.0,0.0,0.0,4.0,0.0,NBA,9.0,2.0,1.0,PF,4.0,2015,0.0,MEM,0.0,5.0
29.0,0.0,0.0,0.0,0.5,1.0,1.0,0.5,2.0,0.0,0.0,0.0,0.5,2.0,0.0,0.0,1.0,1.0,0.0,NBA,5.0,0.0,1.0,PF,2.0,2019,0.0,DET,0.0,0.0
