age,ast,blk,drb,efg_pct,fg,fg2,fg2_pct,fg2a,fg3,fg3_pct,fg3a,fg_pct,fga,ft,ft_pct,fta,g,gs,lg_id,mp,orb,pf,pos,pts,season,stl,team_id,tov,trb
20.0,1.0,3.0,10.0,0.75,9.0,9.0,0.818,11.0,0.0,0.0,1.0,0.75,12.0,3.0,0.5,6.0,8.0,0.0,NBA,43.0,3.0,7.0,PF,21.0,2008,0.0,DET,2.0,13.0
21.0,0.0,1.0,2.0,1.0,1.0,1.0,1.0,1.0,0.0,0.0,0.0,1.0,1.0,0.0,0.0,0.0,3.0,0.0,NBA,13.0,1.0,3.0,PF,2.0,2009,0.0,DET,0.0,3.0
26.0,7.0,4.0,26.0,0.654,34.0,34.0,0.68,50.0,0.0,0.0,2.0,0.654,52.0,9.0,0.75,12.0,7.0,7.0,NBA,191.0,16.0,29.0,PF,77.0,2014,3.0,TOR,12.0,42.0
27.0,4.0,3.0,21.0,0.69,20.0,20.0,0.714,28.0,0.0,0.0,1.0,0.69,29.0,6.0,0.5,12.0,4.0,2.0,NBA,112.0,7.0,16.0,PF,46.0,2015,1.0,TOR,7.0,28.0
28.0,4.0,8.0,32.0,0.667,22.0,22.0,0.71,31.0,0.0,0.0,2.0,0.667,33.0,7.0,0.778,9.0,6.0,6.0,NBA,134.0,11.0,13.0,PF,51.0,2016,1.0,BOS,10.0,43.0
29.0,3.0,6.0,13.0,0.517,15.0,14.0,0.519,27.0,1.0,0.333,3.0,0.5,30.0,5.0,0.625,8.0,14.0,9.0,NBA,142.0,17.0,24.0,PF,36.0,2017,4.0,BOS,6.0,30.0
30.0,9.0,1.0,9.0,0.524,11.0,11.0,0.524,21.0,0.0,0.0,0.0,0.524,21.0,4.0,0.8,5.0,8.0,1.0,NBA,94.0,14.0,10.0,C,26.0,2018,2.0,PHI,3.0,23.0
31.0,2.0,0.0,2.0,1.0,4.0,4.0,1.0,4.0,0.0,0.0,0.0,1.0,4.0,0.0,0.0,0.0,4.0,0.0,NBA,20.0,3.0,3.0,C,8.0,2019,1.0,PHI,1.0,5.0
