age,avg_dist,fg2_dunk,fg2_pct,fg2_pct_ast,fg2a_pct_fga,fg3_heave,fg3_pct,fg3_pct_ast,fg3_pct_corner,fg3a_heave,fg3a_pct_fga,fg_pct,fg_pct_00_03,fg_pct_03_10,fg_pct_10_16,fg_pct_16_xx,g,lg_id,mp,pct_fg2_dunk,pct_fg3a_corner,pct_fga_00_03,pct_fga_03_10,pct_fga_10_16,pct_fga_16_xx,pos,season,team_id
18.0,8.2,2.0,0.714,0.6,0.7,0.0,0.667,1.0,0.667,0.0,0.3,0.7,0.833,0.0,0.0,0.0,3.0,NBA,39.0,0.2,1.0,0.6,0.0,0.1,0.0,SF,2006,DET
19.0,4.3,7.0,0.6,0.5,0.909,0.0,0.0,0.0,0.0,0.0,0.091,0.545,0.773,0.125,0.0,0.0,8.0,NBA,124.0,0.242,0.333,0.667,0.242,0.0,0.0,PF,2007,DET
20.0,2.8,30.0,0.558,0.511,1.0,0.0,0.0,0.0,0.0,0.0,0.0,0.558,0.678,0.321,0.25,0.0,62.0,NBA,764.0,0.182,0.0,0.715,0.17,0.073,0.042,PF,2008,DET
21.0,4.1,32.0,0.595,0.577,1.0,0.0,0.0,0.0,0.0,0.0,0.0,0.595,0.676,0.462,0.333,0.391,62.0,NBA,911.0,0.209,0.0,0.681,0.16,0.018,0.141,PF,2009,DET
22.0,4.3,49.0,0.63,0.678,0.988,0.0,0.0,0.0,0.0,3.0,0.012,0.623,0.732,0.413,0.375,0.481,82.0,NBA,1453.0,0.153,0.25,0.659,0.225,0.024,0.081,PF,2010,TOR
23.0,6.2,67.0,0.569,0.641,0.998,0.0,0.0,0.0,0.0,0.0,0.002,0.568,0.699,0.381,0.231,0.443,72.0,NBA,1853.0,0.145,1.0,0.564,0.212,0.026,0.196,PF,2011,TOR
24.0,7.5,49.0,0.579,0.696,0.985,0.0,0.4,0.5,0.667,0.0,0.015,0.576,0.734,0.484,0.353,0.37,64.0,NBA,1553.0,0.162,0.6,0.509,0.188,0.05,0.238,PF,2012,TOR
25.0,7.6,63.0,0.558,0.71,0.979,0.0,0.385,1.0,0.4,1.0,0.021,0.554,0.687,0.541,0.324,0.362,81.0,NBA,2325.0,0.111,0.385,0.464,0.244,0.056,0.215,PF,2013,TOR
26.0,7.8,57.0,0.593,0.71,0.892,0.0,0.303,0.95,0.188,0.0,0.108,0.562,0.712,0.478,0.586,0.441,77.0,NBA,2214.0,0.103,0.242,0.436,0.297,0.047,0.111,PF,2014,TOR
27.0,5.8,42.0,0.59,0.685,0.911,0.0,0.413,1.0,0.333,0.0,0.089,0.574,0.701,0.467,0.385,0.478,75.0,NBA,1979.0,0.089,0.196,0.489,0.351,0.025,0.044,PF,2015,TOR
28.0,5.2,56.0,0.624,0.665,0.899,0.0,0.233,1.0,0.5,1.0,0.101,0.585,0.712,0.508,0.4,0.333,79.0,NBA,1800.0,0.134,0.233,0.547,0.305,0.035,0.014,PF,2016,BOS
29.0,7.0,41.0,0.612,0.758,0.822,0.0,0.409,1.0,0.316,0.0,0.178,0.576,0.716,0.434,0.4,0.4,80.0,NBA,1608.0,0.124,0.288,0.524,0.268,0.014,0.014,PF,2017,BOS
30.0,6.5,17.0,0.57,0.654,0.877,0.0,0.313,1.0,0.333,1.0,0.123,0.538,0.714,0.45,0.2,0.429,74.0,NBA,1171.0,0.077,0.281,0.431,0.385,0.038,0.027,C,2018,PHI
31.0,9.6,12.0,0.573,0.687,0.745,0.0,0.3,1.0,0.143,1.0,0.255,0.503,0.687,0.409,0.667,0.333,51.0,NBA,529.0,0.089,0.175,0.427,0.28,0.019,0.019,C,2019,PHI
