age,ast_per_poss,blk_per_poss,def_rtg,drb_per_poss,fg2_pct,fg2_per_poss,fg2a_per_poss,fg3_pct,fg3_per_poss,fg3a_per_poss,fg_pct,fg_per_poss,fga_per_poss,ft_pct,ft_per_poss,fta_per_poss,g,gs,lg_id,mp,off_rtg,orb_per_poss,pf_per_poss,pos,pts_per_poss,season,stl_per_poss,team_id,tov_per_poss,trb_per_poss
22.0,9.5,0.2,114.0,2.1,0.487,7.0,14.4,0.308,0.3,0.9,0.477,7.3,15.2,0.819,3.7,4.5,61.0,60.0,NBA,2170.0,106.0,0.9,3.1,PG,18.4,1988,2.0,SAC,4.0,3.0
23.0,9.4,0.1,113.0,2.7,0.475,7.6,16.0,0.359,0.7,1.9,0.462,8.3,18.0,0.737,4.0,5.4,81.0,81.0,NBA,3145.0,106.0,0.7,2.6,PG,21.3,1989,1.5,SAC,3.8,3.4
24.0,9.1,0.2,113.0,2.9,0.484,7.2,15.0,0.313,0.5,1.7,0.466,7.8,16.7,0.821,3.3,4.0,79.0,51.0,NBA,2421.0,105.0,0.4,2.9,PG,19.4,1990,1.6,TOT,3.5,3.2
24.0,8.6,0.2,113.0,3.1,0.471,7.3,15.6,0.373,0.6,1.7,0.461,8.0,17.2,0.809,3.0,3.7,46.0,46.0,NBA,1747.0,102.0,0.3,2.8,PG,19.5,1990,1.6,SAC,3.5,3.4
24.0,10.6,0.1,116.0,2.2,0.522,7.0,13.4,0.167,0.3,1.8,0.48,7.3,15.2,0.846,4.1,4.8,33.0,5.0,NBA,674.0,114.0,0.5,3.3,PG,18.9,1990,1.6,ATL,3.5,2.7
25.0,10.0,0.2,108.0,2.3,0.545,8.5,15.7,0.363,0.9,2.4,0.52,9.4,18.1,0.844,5.2,6.1,78.0,78.0,NBA,2699.0,117.0,0.7,2.4,PG,24.9,1991,1.9,HOU,4.3,2.9
26.0,10.4,0.1,112.0,2.6,0.489,7.0,14.3,0.394,1.0,2.5,0.475,8.0,16.8,0.866,4.0,4.7,81.0,80.0,NBA,2735.0,109.0,0.6,2.1,PG,21.0,1992,1.9,HOU,4.2,3.3
27.0,9.4,0.1,109.0,2.8,0.554,6.1,11.0,0.438,2.0,4.6,0.52,8.1,15.6,0.878,4.1,4.7,82.0,82.0,NBA,2422.0,121.0,0.6,2.3,PG,22.4,1993,1.7,HOU,3.4,3.4
28.0,7.5,0.1,107.0,2.6,0.513,5.8,11.2,0.405,2.0,5.0,0.48,7.8,16.3,0.871,3.1,3.5,78.0,78.0,NBA,2209.0,114.0,0.5,2.8,PG,20.7,1994,1.3,HOU,2.9,3.2
29.0,8.1,0.3,111.0,3.2,0.553,3.6,6.6,0.429,3.6,8.3,0.484,7.2,14.9,0.851,3.2,3.7,81.0,81.0,NBA,2030.0,122.0,0.7,2.7,PG,21.1,1995,1.8,HOU,3.1,3.9
30.0,7.8,0.1,112.0,2.4,0.487,3.5,7.2,0.382,2.9,7.6,0.433,6.4,14.8,0.821,2.8,3.4,68.0,56.0,NBA,1617.0,111.0,0.7,3.7,PG,18.5,1996,1.5,HOU,3.2,3.1
31.0,8.0,0.0,115.0,2.7,0.404,2.9,7.1,0.437,4.0,9.3,0.423,6.9,16.4,0.867,2.7,3.1,48.0,3.0,NBA,765.0,104.0,0.3,2.1,PG,20.6,1997,1.3,TOT,4.9,3.0
31.0,8.9,0.0,109.0,4.4,0.3,2.7,8.9,0.5,4.4,8.9,0.4,7.1,17.7,1.0,1.8,1.8,9.0,0.0,NBA,64.0,115.0,0.0,1.8,PG,20.4,1997,0.9,DET,2.7,4.4
31.0,4.6,0.0,115.0,1.2,0.375,3.5,9.2,0.6,3.5,5.8,0.462,6.9,15.0,1.0,2.3,2.3,6.0,0.0,NBA,47.0,92.0,1.2,3.5,PG,19.7,1997,0.0,ORL,6.9,2.3
31.0,8.1,0.0,115.0,2.7,0.419,2.9,6.8,0.425,4.1,9.5,0.422,6.9,16.4,0.854,2.8,3.3,33.0,3.0,NBA,654.0,104.0,0.2,2.0,PG,20.7,1997,1.4,DEN,4.9,2.9
