age,ast,blk,drb,efg_pct,fg,fg2,fg2_pct,fg2a,fg3,fg3_pct,fg3a,fg_pct,fga,ft,ft_pct,fta,g,gs,lg_id,mp,orb,pf,pos,pts,season,stl,team_id,tov,trb
22.0,434.0,8.0,98.0,0.486,331.0,319.0,0.487,655.0,12.0,0.308,39.0,0.477,694.0,167.0,0.819,204.0,61.0,60.0,NBA,2170.0,40.0,140.0,PG,841.0,1988,92.0,SAC,184.0,138.0
23.0,621.0,7.0,177.0,0.482,547.0,501.0,0.475,1055.0,46.0,0.359,128.0,0.462,1183.0,263.0,0.737,357.0,81.0,81.0,NBA,3145.0,49.0,173.0,PG,1403.0,1989,102.0,SAC,249.0,226.0
24.0,445.0,8.0,139.0,0.482,378.0,352.0,0.484,728.0,26.0,0.313,83.0,0.466,811.0,161.0,0.821,196.0,79.0,51.0,NBA,2421.0,18.0,143.0,PG,943.0,1990,79.0,TOT,169.0,157.0
24.0,303.0,7.0,109.0,0.479,280.0,258.0,0.471,548.0,22.0,0.373,59.0,0.461,607.0,106.0,0.809,131.0,46.0,46.0,NBA,1747.0,11.0,98.0,PG,688.0,1990,57.0,SAC,122.0,120.0
24.0,142.0,1.0,30.0,0.49,98.0,94.0,0.522,180.0,4.0,0.167,24.0,0.48,204.0,55.0,0.846,65.0,33.0,5.0,NBA,674.0,7.0,45.0,PG,255.0,1990,22.0,ATL,47.0,37.0
25.0,554.0,11.0,127.0,0.545,522.0,473.0,0.545,868.0,49.0,0.363,135.0,0.52,1003.0,287.0,0.844,340.0,78.0,78.0,NBA,2699.0,36.0,131.0,PG,1380.0,1991,106.0,HOU,237.0,163.0
26.0,562.0,7.0,143.0,0.504,432.0,378.0,0.489,773.0,54.0,0.394,137.0,0.475,910.0,219.0,0.866,253.0,81.0,80.0,NBA,2735.0,34.0,112.0,PG,1137.0,1992,104.0,HOU,227.0,177.0
27.0,446.0,7.0,132.0,0.585,387.0,291.0,0.554,525.0,96.0,0.438,219.0,0.52,744.0,195.0,0.878,222.0,82.0,82.0,NBA,2422.0,28.0,110.0,PG,1065.0,1993,80.0,HOU,163.0,160.0
28.0,327.0,4.0,114.0,0.542,341.0,252.0,0.513,491.0,89.0,0.405,220.0,0.48,711.0,135.0,0.871,155.0,78.0,78.0,NBA,2209.0,24.0,121.0,PG,906.0,1994,59.0,HOU,126.0,138.0
29.0,323.0,10.0,128.0,0.604,287.0,145.0,0.553,262.0,142.0,0.429,331.0,0.484,593.0,126.0,0.851,148.0,81.0,81.0,NBA,2030.0,27.0,109.0,PG,842.0,1995,71.0,HOU,123.0,155.0
30.0,245.0,3.0,75.0,0.531,201.0,110.0,0.487,226.0,91.0,0.382,238.0,0.433,464.0,87.0,0.821,106.0,68.0,56.0,NBA,1617.0,21.0,116.0,PG,580.0,1996,47.0,HOU,100.0,96.0
31.0,116.0,0.0,40.0,0.546,101.0,42.0,0.404,104.0,59.0,0.437,135.0,0.423,239.0,39.0,0.867,45.0,48.0,3.0,NBA,765.0,4.0,30.0,PG,300.0,1997,19.0,TOT,71.0,44.0
31.0,10.0,0.0,5.0,0.525,8.0,3.0,0.3,10.0,5.0,0.5,10.0,0.4,20.0,2.0,1.0,2.0,9.0,0.0,NBA,64.0,0.0,2.0,PG,23.0,1997,1.0,DET,3.0,5.0
31.0,4.0,0.0,1.0,0.577,6.0,3.0,0.375,8.0,3.0,0.6,5.0,0.462,13.0,2.0,1.0,2.0,6.0,0.0,NBA,47.0,1.0,3.0,PG,17.0,1997,0.0,ORL,6.0,2.0
31.0,102.0,0.0,34.0,0.546,87.0,36.0,0.419,86.0,51.0,0.425,120.0,0.422,206.0,35.0,0.854,41.0,33.0,3.0,NBA,654.0,3.0,25.0,PG,260.0,1997,18.0,DEN,62.0,37.0
