age,ast,blk,drb,fg,fg2,fg2a,fg3,fg3a,fga,ft,fta,game_score,lg_id,mp,orb,pf,pts,season,stl,team_id,tov,trb
25.0,12.0,1.0,2.0,7.0,6.0,13.0,1.0,3.0,16.0,4.0,4.0,16.4,NBA,0.0,2.0,2.0,19.0,1991,2.0,HOU,3.0,3.0
27.0,7.0,1.0,5.0,13.0,9.0,12.0,4.0,6.0,16.0,8.0,8.0,28.1,NBA,0.0,1.0,3.0,30.0,1993,3.0,HOU,7.0,5.0
28.0,8.0,2.0,6.0,9.0,6.0,10.0,6.0,9.0,15.0,7.0,7.0,27.5,NBA,0.0,1.0,4.0,27.0,1994,3.0,HOU,3.0,7.0
29.0,10.0,1.0,6.0,10.0,5.0,9.0,7.0,11.0,16.0,6.0,6.0,31.5,NBA,0.0,2.0,5.0,32.0,1995,2.0,HOU,3.0,7.0
30.0,11.0,0.0,2.0,8.0,3.0,5.0,5.0,10.0,15.0,6.0,6.0,27.4,NBA,0.0,2.0,5.0,27.0,1996,2.0,HOU,2.0,4.0
