age,ast_per_mp,blk_per_mp,drb_per_mp,fg2_pct,fg2_per_mp,fg2a_per_mp,fg3_pct,fg3_per_mp,fg3a_per_mp,fg_pct,fg_per_mp,fga_per_mp,ft_pct,ft_per_mp,fta_per_mp,g,gs,lg_id,mp,orb_per_mp,pf_per_mp,pos,pts_per_mp,season,stl_per_mp,team_id,tov_per_mp,trb_per_mp
22.0,7.2,0.1,1.6,0.487,5.3,10.9,0.308,0.2,0.6,0.477,5.5,11.5,0.819,2.8,3.4,61.0,60.0,NBA,2170.0,0.7,2.3,PG,14.0,1988,1.5,SAC,3.1,2.3
23.0,7.1,0.1,2.0,0.475,5.7,12.1,0.359,0.5,1.5,0.462,6.3,13.5,0.737,3.0,4.1,81.0,81.0,NBA,3145.0,0.6,2.0,PG,16.1,1989,1.2,SAC,2.9,2.6
24.0,6.6,0.1,2.1,0.484,5.2,10.8,0.313,0.4,1.2,0.466,5.6,12.1,0.821,2.4,2.9,79.0,51.0,NBA,2421.0,0.3,2.1,PG,14.0,1990,1.2,TOT,2.5,2.3
24.0,6.2,0.1,2.2,0.471,5.3,11.3,0.373,0.5,1.2,0.461,5.8,12.5,0.809,2.2,2.7,46.0,46.0,NBA,1747.0,0.2,2.0,PG,14.2,1990,1.2,SAC,2.5,2.5
24.0,7.6,0.1,1.6,0.522,5.0,9.6,0.167,0.2,1.3,0.48,5.2,10.9,0.846,2.9,3.5,33.0,5.0,NBA,674.0,0.4,2.4,PG,13.6,1990,1.2,ATL,2.5,2.0
25.0,7.4,0.1,1.7,0.545,6.3,11.6,0.363,0.7,1.8,0.52,7.0,13.4,0.844,3.8,4.5,78.0,78.0,NBA,2699.0,0.5,1.7,PG,18.4,1991,1.4,HOU,3.2,2.2
26.0,7.4,0.1,1.9,0.489,5.0,10.2,0.394,0.7,1.8,0.475,5.7,12.0,0.866,2.9,3.3,81.0,80.0,NBA,2735.0,0.4,1.5,PG,15.0,1992,1.4,HOU,3.0,2.3
27.0,6.6,0.1,2.0,0.554,4.3,7.8,0.438,1.4,3.3,0.52,5.8,11.1,0.878,2.9,3.3,82.0,82.0,NBA,2422.0,0.4,1.6,PG,15.8,1993,1.2,HOU,2.4,2.4
28.0,5.3,0.1,1.9,0.513,4.1,8.0,0.405,1.5,3.6,0.48,5.6,11.6,0.871,2.2,2.5,78.0,78.0,NBA,2209.0,0.4,2.0,PG,14.8,1994,1.0,HOU,2.1,2.2
29.0,5.7,0.2,2.3,0.553,2.6,4.6,0.429,2.5,5.9,0.484,5.1,10.5,0.851,2.2,2.6,81.0,81.0,NBA,2030.0,0.5,1.9,PG,14.9,1995,1.3,HOU,2.2,2.7
30.0,5.5,0.1,1.7,0.487,2.4,5.0,0.382,2.0,5.3,0.433,4.5,10.3,0.821,1.9,2.4,68.0,56.0,NBA,1617.0,0.5,2.6,PG,12.9,1996,1.0,HOU,2.2,2.1
31.0,5.5,0.0,1.9,0.404,2.0,4.9,0.437,2.8,6.4,0.423,4.8,11.2,0.867,1.8,2.1,48.0,3.0,NBA,765.0,0.2,1.4,PG,14.1,1997,0.9,TOT,3.3,2.1
31.0,5.6,0.0,2.8,0.3,1.7,5.6,0.5,2.8,5.6,0.4,4.5,11.3,1.0,1.1,1.1,9.0,0.0,NBA,64.0,0.0,1.1,PG,12.9,1997,0.6,DET,1.7,2.8
31.0,3.1,0.0,0.8,0.375,2.3,6.1,0.6,2.3,3.8,0.462,4.6,10.0,1.0,1.5,1.5,6.0,0.0,NBA,47.0,0.8,2.3,PG,13.0,1997,0.0,ORL,4.6,1.5
31.0,5.6,0.0,1.9,0.419,2.0,4.7,0.425,2.8,6.6,0.422,4.8,11.3,0.854,1.9,2.3,33.0,3.0,NBA,654.0,0.2,1.4,PG,14.3,1997,1.0,DEN,3.4,2.0
