age,ast_per_mp,blk_per_mp,drb_per_mp,fg2_pct,fg2_per_mp,fg2a_per_mp,fg3_pct,fg3_per_mp,fg3a_per_mp,fg_pct,fg_per_mp,fga_per_mp,ft_pct,ft_per_mp,fta_per_mp,g,gs,lg_id,mp,orb_per_mp,pf_per_mp,pos,pts_per_mp,season,stl_per_mp,team_id,tov_per_mp,trb_per_mp
19.0,1.7,2.1,5.9,0.519,5.4,10.3,0.053,0.0,0.3,0.505,5.4,10.6,0.521,2.1,4.0,81.0,21.0,NBA,2133.0,2.1,3.2,SF,12.8,2001,0.9,LAC,2.5,8.1
20.0,3.0,1.7,5.6,0.491,4.9,10.1,0.158,0.0,0.3,0.481,5.0,10.4,0.62,2.6,4.1,82.0,6.0,NBA,2227.0,1.8,3.0,SF,12.6,2002,1.1,LAC,2.6,7.3
21.0,3.2,1.2,4.5,0.419,4.7,11.3,0.0,0.0,0.3,0.41,4.7,11.5,0.594,1.6,2.8,67.0,62.0,NBA,2008.0,2.0,2.9,SF,11.1,2003,1.2,CLE,3.2,6.5
22.0,2.8,1.1,4.3,0.502,6.2,12.3,0.175,0.1,0.7,0.485,6.3,13.0,0.642,2.1,3.3,79.0,56.0,NBA,2079.0,1.9,2.9,SF,14.9,2004,1.2,TOT,2.3,6.2
22.0,3.2,1.1,4.8,0.458,5.6,12.2,0.167,0.2,1.2,0.432,5.8,13.4,0.542,1.6,2.9,37.0,16.0,NBA,888.0,1.9,3.4,SF,13.4,2004,1.0,CLE,2.3,6.8
22.0,2.5,1.0,3.9,0.534,6.6,12.5,0.2,0.1,0.3,0.526,6.7,12.8,0.702,2.6,3.7,42.0,40.0,NBA,1191.0,1.9,2.5,SF,16.1,2004,1.3,POR,2.2,5.8
23.0,2.7,1.7,4.8,0.487,6.9,14.3,0.348,0.2,0.5,0.482,7.1,14.8,0.6,2.7,4.6,63.0,22.0,NBA,1699.0,1.5,4.0,SF,17.1,2005,1.6,POR,3.3,6.3
24.0,2.0,1.1,4.4,0.466,6.5,14.0,0.2,0.1,0.3,0.461,6.6,14.3,0.534,2.4,4.6,40.0,23.0,NBA,1286.0,0.7,2.8,SF,15.6,2006,1.2,POR,2.8,5.1
27.0,2.1,2.4,4.6,0.505,5.7,11.2,0.167,0.1,0.7,0.485,5.8,12.0,0.742,2.8,3.7,34.0,0.0,NBA,298.0,2.3,3.9,SF,14.5,2009,1.3,MEM,2.5,6.9
