age,ast_per_g,blk_per_g,drb_per_g,efg_pct,fg2_pct,fg2_per_g,fg2a_per_g,fg3_pct,fg3_per_g,fg3a_per_g,fg_pct,fg_per_g,fga_per_g,ft_pct,ft_per_g,fta_per_g,g,gs,lg_id,mp_per_g,orb_per_g,pf_per_g,pos,pts_per_g,season,stl_per_g,team_id,tov_per_g,trb_per_g
20.0,0.6,0.1,1.0,0.5,0.508,1.9,3.7,0.3,0.2,0.6,0.478,2.1,4.3,0.784,0.9,1.2,32.0,3.0,NBA,11.7,0.3,1.3,SG,5.2,2006,0.4,BOS,0.7,1.3
21.0,1.0,0.3,1.7,0.484,0.447,2.7,5.9,0.368,1.2,3.2,0.419,3.8,9.1,0.805,1.6,2.0,81.0,26.0,NBA,22.0,0.8,2.4,SF,10.4,2007,0.5,BOS,1.5,2.6
22.0,1.0,0.1,1.7,0.394,0.33,1.2,3.7,0.385,0.5,1.3,0.344,1.7,5.0,0.829,1.1,1.4,30.0,0.0,NBA,12.1,0.4,1.5,SF,5.1,2008,0.3,TOT,1.1,2.1
22.0,1.0,0.1,1.8,0.382,0.312,1.2,3.8,0.385,0.5,1.3,0.331,1.7,5.1,0.829,1.2,1.4,29.0,0.0,NBA,12.3,0.4,1.5,SF,5.1,2008,0.3,MIN,1.1,2.1
22.0,0.0,0.0,0.0,1.0,1.0,3.0,3.0,0.0,0.0,0.0,1.0,3.0,3.0,0.0,0.0,0.0,1.0,0.0,NBA,4.0,2.0,2.0,SF,6.0,2008,0.0,HOU,0.0,2.0
23.0,0.4,0.1,1.1,0.478,0.485,1.7,3.5,0.304,0.4,1.2,0.439,2.1,4.7,0.844,0.7,0.8,38.0,12.0,NBA,9.9,0.4,1.3,SG,5.2,2009,0.3,DAL,0.9,1.4
26.0,1.1,0.5,3.0,0.548,0.529,3.6,6.8,0.391,1.4,3.5,0.481,5.0,10.3,0.754,1.6,2.1,31.0,2.0,NBA,25.2,0.5,2.6,SF,12.9,2012,0.9,NJN,1.8,3.5
27.0,0.8,0.4,1.8,0.435,0.407,1.6,3.9,0.314,1.0,3.1,0.366,2.6,7.1,0.8,0.9,1.1,60.0,7.0,NBA,18.0,0.5,1.1,SF,7.0,2013,0.3,IND,0.9,2.4
28.0,1.5,0.5,2.8,0.547,0.492,3.0,6.0,0.4,2.5,6.2,0.445,5.5,12.3,0.848,2.4,2.8,82.0,48.0,NBA,28.4,0.6,2.7,SG,15.8,2014,0.9,PHO,1.8,3.4
29.0,1.2,0.2,2.1,0.504,0.478,2.5,5.3,0.354,1.9,5.2,0.416,4.4,10.5,0.825,1.3,1.6,74.0,4.0,NBA,19.5,0.4,2.0,SG,11.9,2015,0.6,PHO,1.4,2.5
30.0,0.8,0.3,2.0,0.463,0.446,2.1,4.7,0.323,1.2,3.8,0.392,3.3,8.5,0.783,1.0,1.3,69.0,14.0,NBA,22.6,0.4,1.8,SG,8.9,2016,0.6,MIA,0.7,2.4
31.0,0.7,0.1,1.4,0.494,0.463,1.2,2.6,0.351,0.8,2.4,0.409,2.0,4.9,0.805,0.7,0.9,47.0,0.0,NBA,11.4,0.3,1.0,SF,5.6,2017,0.2,BOS,0.5,1.8
32.0,0.6,0.4,2.9,0.54,0.504,1.4,2.8,0.369,2.7,7.3,0.407,4.1,10.1,0.85,1.2,1.5,41.0,2.0,NBA,22.7,0.4,2.1,SG,12.1,2018,0.6,HOU,0.8,3.2
33.0,0.5,0.4,2.1,0.535,0.547,1.0,1.9,0.354,2.1,6.0,0.4,3.2,7.9,0.838,0.8,0.9,73.0,0.0,NBA,20.2,0.4,1.7,SG,9.2,2019,0.5,HOU,0.8,2.5
