age,ast,blk,drb,efg_pct,fg,fg2,fg2_pct,fg2a,fg3,fg3_pct,fg3a,fg_pct,fga,ft,ft_pct,fta,g,gs,lg_id,mp,orb,pf,pos,pts,season,stl,team_id,tov,trb
22.0,202.0,4.0,84.0,0.435,173.0,150.0,0.424,354.0,23.0,0.329,70.0,0.408,424.0,95.0,0.833,114.0,67.0,0.0,NBA,1217.0,33.0,75.0,PG,464.0,1987,43.0,CLE,105.0,117.0
23.0,480.0,12.0,126.0,0.543,493.0,421.0,0.51,826.0,72.0,0.486,148.0,0.506,974.0,221.0,0.877,252.0,80.0,79.0,NBA,2626.0,54.0,119.0,PG,1279.0,1988,99.0,CLE,184.0,180.0
24.0,631.0,7.0,178.0,0.572,529.0,436.0,0.548,795.0,93.0,0.441,211.0,0.526,1006.0,263.0,0.901,292.0,75.0,74.0,NBA,2728.0,48.0,98.0,PG,1414.0,1989,115.0,CLE,212.0,226.0
25.0,666.0,5.0,185.0,0.53,489.0,337.0,0.487,692.0,152.0,0.406,374.0,0.459,1066.0,300.0,0.888,338.0,73.0,73.0,NBA,2706.0,66.0,89.0,PG,1430.0,1990,114.0,CLE,214.0,251.0
26.0,166.0,2.0,37.0,0.544,97.0,79.0,0.556,142.0,18.0,0.34,53.0,0.497,195.0,59.0,0.952,62.0,16.0,16.0,NBA,571.0,8.0,23.0,PG,271.0,1991,42.0,CLE,56.0,45.0
27.0,535.0,12.0,135.0,0.545,438.0,337.0,0.53,636.0,101.0,0.387,261.0,0.488,897.0,270.0,0.947,285.0,72.0,72.0,NBA,2138.0,38.0,113.0,PG,1247.0,1992,94.0,CLE,159.0,173.0
28.0,602.0,11.0,164.0,0.546,477.0,355.0,0.512,693.0,122.0,0.416,293.0,0.484,986.0,289.0,0.948,305.0,75.0,74.0,NBA,2380.0,37.0,105.0,PG,1365.0,1993,89.0,CLE,196.0,201.0
29.0,589.0,11.0,189.0,0.536,480.0,362.0,0.511,708.0,118.0,0.397,297.0,0.478,1005.0,238.0,0.888,268.0,76.0,73.0,NBA,2386.0,39.0,93.0,PG,1316.0,1994,103.0,CLE,189.0,228.0
30.0,335.0,4.0,87.0,0.498,253.0,150.0,0.418,359.0,103.0,0.407,253.0,0.413,612.0,148.0,0.914,162.0,48.0,34.0,NBA,1375.0,25.0,50.0,PG,757.0,1995,35.0,CLE,142.0,112.0
31.0,18.0,0.0,6.0,0.383,18.0,8.0,0.267,30.0,10.0,0.333,30.0,0.3,60.0,10.0,1.0,10.0,7.0,1.0,NBA,127.0,1.0,7.0,PG,56.0,1996,6.0,WSB,10.0,7.0
32.0,342.0,3.0,143.0,0.542,263.0,151.0,0.493,306.0,112.0,0.396,283.0,0.447,589.0,155.0,0.906,171.0,70.0,49.0,NBA,1876.0,36.0,100.0,PG,793.0,1997,67.0,GSW,161.0,179.0
33.0,297.0,5.0,105.0,0.48,229.0,177.0,0.471,376.0,52.0,0.335,155.0,0.431,531.0,87.0,0.845,103.0,63.0,33.0,NBA,1430.0,24.0,92.0,PG,597.0,1998,53.0,ORL,162.0,129.0
