age,ast,blk,drb,fg,fg2,fg2a,fg3,fg3a,fga,ft,fta,game_score,lg_id,mp,orb,pf,pts,season,stl,team_id,tov,trb
26.0,4.0,1.0,5.0,5.0,3.0,4.0,2.0,3.0,6.0,2.0,2.0,9.6,NBA,0.0,1.0,3.0,12.0,2002,2.0,MIA,4.0,5.0
27.0,9.0,1.0,6.0,7.0,7.0,10.0,4.0,9.0,15.0,8.0,10.0,17.9,NBA,0.0,3.0,6.0,20.0,2003,4.0,MIA,6.0,9.0
28.0,10.0,1.0,6.0,10.0,6.0,12.0,7.0,11.0,20.0,6.0,8.0,19.9,NBA,0.0,3.0,5.0,24.0,2004,4.0,TOT,5.0,7.0
28.0,10.0,1.0,6.0,10.0,6.0,12.0,7.0,11.0,20.0,6.0,8.0,19.9,NBA,0.0,3.0,5.0,24.0,2004,4.0,BOS,5.0,7.0
28.0,9.0,1.0,6.0,8.0,4.0,9.0,5.0,7.0,12.0,6.0,6.0,17.2,NBA,0.0,2.0,4.0,21.0,2004,3.0,DET,5.0,7.0
29.0,11.0,1.0,6.0,11.0,9.0,15.0,8.0,13.0,22.0,8.0,10.0,25.6,NBA,0.0,3.0,6.0,28.0,2005,3.0,TOT,6.0,8.0
29.0,11.0,1.0,6.0,10.0,9.0,15.0,8.0,13.0,19.0,5.0,7.0,19.6,NBA,0.0,2.0,6.0,28.0,2005,3.0,MIL,6.0,8.0
29.0,7.0,1.0,5.0,11.0,7.0,15.0,4.0,8.0,22.0,8.0,10.0,25.6,NBA,0.0,3.0,5.0,26.0,2005,3.0,HOU,4.0,7.0
30.0,13.0,1.0,9.0,15.0,14.0,21.0,7.0,11.0,28.0,18.0,18.0,34.2,NBA,49.0,4.0,6.0,39.0,2006,5.0,TOR,6.0,11.0
31.0,11.0,1.0,6.0,10.0,8.0,14.0,4.0,7.0,19.0,10.0,12.0,20.6,NBA,51.0,2.0,6.0,28.0,2007,4.0,MIN,5.0,7.0
32.0,7.0,1.0,6.0,8.0,7.0,10.0,3.0,7.0,14.0,8.0,9.0,18.4,NBA,30.0,2.0,4.0,19.0,2008,3.0,TOT,3.0,7.0
32.0,7.0,1.0,6.0,8.0,7.0,10.0,3.0,7.0,14.0,8.0,9.0,18.4,NBA,30.0,2.0,4.0,19.0,2008,3.0,HOU,3.0,7.0
32.0,1.0,0.0,2.0,4.0,3.0,4.0,2.0,5.0,8.0,3.0,3.0,7.2,NBA,22.0,2.0,2.0,12.0,2008,2.0,NOH,2.0,3.0
33.0,11.0,1.0,5.0,10.0,6.0,13.0,5.0,8.0,16.0,6.0,6.0,18.7,NBA,41.0,3.0,6.0,26.0,2009,3.0,TOT,5.0,8.0
33.0,2.0,0.0,2.0,4.0,3.0,6.0,2.0,2.0,7.0,1.0,2.0,6.9,NBA,13.0,1.0,2.0,10.0,2009,1.0,NOH,1.0,2.0
33.0,11.0,1.0,5.0,10.0,6.0,13.0,5.0,8.0,16.0,6.0,6.0,18.7,NBA,41.0,3.0,6.0,26.0,2009,3.0,WAS,5.0,8.0
34.0,3.0,0.0,1.0,4.0,2.0,7.0,2.0,5.0,11.0,2.0,4.0,4.8,NBA,23.0,1.0,1.0,11.0,2010,2.0,WAS,3.0,1.0
36.0,10.0,1.0,2.0,6.0,5.0,11.0,2.0,2.0,13.0,3.0,4.0,13.1,NBA,25.0,1.0,6.0,16.0,2012,1.0,CHI,3.0,3.0
37.0,7.0,1.0,6.0,7.0,4.0,8.0,4.0,8.0,14.0,2.0,4.0,16.8,NBA,36.0,1.0,6.0,19.0,2013,4.0,DAL,4.0,6.0
38.0,5.0,0.0,2.0,2.0,1.0,3.0,1.0,3.0,5.0,0.0,2.0,4.6,NBA,18.0,0.0,4.0,5.0,2014,1.0,CHI,1.0,2.0
