age,ast_per_mp,blk_per_mp,drb_per_mp,fg2_pct,fg2_per_mp,fg2a_per_mp,fg3_pct,fg3_per_mp,fg3a_per_mp,fg_pct,fg_per_mp,fga_per_mp,ft_pct,ft_per_mp,fta_per_mp,g,gs,lg_id,mp,orb_per_mp,pf_per_mp,pos,pts_per_mp,season,stl_per_mp,team_id,tov_per_mp,trb_per_mp
23.0,0.7,1.1,7.2,0.413,4.2,10.1,0.0,0.0,0.2,0.404,4.2,10.3,0.667,3.5,5.3,15.0,0.0,NBA,164.0,2.6,6.1,PF,11.9,1991,0.9,TOT,2.4,9.9
23.0,0.0,0.0,9.0,0.667,3.6,5.4,0.0,0.0,0.0,0.667,3.6,5.4,1.0,1.8,1.8,4.0,0.0,NBA,20.0,1.8,5.4,PF,9.0,1991,0.0,ATL,3.6,10.8
23.0,0.8,1.3,7.1,0.366,4.0,10.9,0.0,0.0,0.0,0.366,4.0,10.9,0.619,3.4,5.6,8.0,0.0,NBA,136.0,2.6,6.1,PF,11.4,1991,0.8,ORL,2.4,9.8
23.0,0.0,0.0,4.5,1.0,9.0,9.0,0.0,0.0,4.5,0.667,9.0,13.5,1.0,9.0,9.0,3.0,0.0,NBA,8.0,4.5,9.0,PF,27.0,1991,4.5,DAL,0.0,9.0
25.0,0.0,0.0,3.6,0.8,14.4,18.0,0.0,0.0,0.0,0.8,14.4,18.0,0.0,0.0,7.2,4.0,0.0,NBA,10.0,3.6,0.0,PF,28.8,1993,0.0,ORL,0.0,7.2
