age,ast,ast_per_g,blk,college_id,fg,fg3,fg3_pct,fg3a,fg_pct,fga,ft,ft_pct,fta,g,mp,mp_per_g,orb,pf,pts,pts_per_g,season,stl,tov,trb,trb_per_g
18.0,40.0,1.3,0.0,STANFORD,99.0,0.0,0.0,0.0,0.463,214.0,92.0,0.609,151.0,30.0,832.0,27.7,0.0,0.0,290.0,9.7,1986,0.0,0.0,189.0,6.3
19.0,30.0,1.1,0.0,STANFORD,107.0,0.0,0.0,0.0,0.505,212.0,100.0,0.645,155.0,28.0,842.0,30.1,0.0,0.0,314.0,11.2,1987,0.0,0.0,190.0,6.8
20.0,76.0,2.3,0.0,STANFORD,196.0,0.0,0.0,0.0,0.622,315.0,126.0,0.649,194.0,33.0,1098.0,33.3,0.0,0.0,518.0,15.7,1988,0.0,0.0,255.0,7.7
21.0,51.0,1.5,0.0,STANFORD,190.0,0.0,0.0,0.0,0.578,329.0,97.0,0.61,159.0,33.0,1002.0,30.4,0.0,0.0,477.0,14.5,1989,0.0,0.0,226.0,6.8
