age,ast,blk,drb,efg_pct,fg,fg2,fg2_pct,fg2a,fg3,fg3_pct,fg3a,fg_pct,fga,ft,ft_pct,fta,g,gs,lg_id,mp,orb,pf,pos,pts,season,stl,team_id,tov,trb
23.0,3.0,5.0,33.0,0.404,19.0,19.0,0.413,46.0,0.0,0.0,1.0,0.404,47.0,16.0,0.667,24.0,15.0,0.0,NBA,164.0,12.0,28.0,PF,54.0,1991,4.0,TOT,11.0,45.0
23.0,0.0,0.0,5.0,0.667,2.0,2.0,0.667,3.0,0.0,0.0,0.0,0.667,3.0,1.0,1.0,1.0,4.0,0.0,NBA,20.0,1.0,3.0,PF,5.0,1991,0.0,ATL,2.0,6.0
23.0,3.0,5.0,27.0,0.366,15.0,15.0,0.366,41.0,0.0,0.0,0.0,0.366,41.0,13.0,0.619,21.0,8.0,0.0,NBA,136.0,10.0,23.0,PF,43.0,1991,3.0,ORL,9.0,37.0
23.0,0.0,0.0,1.0,0.667,2.0,2.0,1.0,2.0,0.0,0.0,1.0,0.667,3.0,2.0,1.0,2.0,3.0,0.0,NBA,8.0,1.0,2.0,PF,6.0,1991,1.0,DAL,0.0,2.0
25.0,0.0,0.0,1.0,0.8,4.0,4.0,0.8,5.0,0.0,0.0,0.0,0.8,5.0,0.0,0.0,2.0,4.0,0.0,NBA,10.0,1.0,0.0,PF,8.0,1993,0.0,ORL,0.0,2.0
