age,ast_per_g,blk_per_g,drb_per_g,efg_pct,fg2_pct,fg2_per_g,fg2a_per_g,fg3_pct,fg3_per_g,fg3a_per_g,fg_pct,fg_per_g,fga_per_g,ft_pct,ft_per_g,fta_per_g,g,gs,lg_id,mp_per_g,orb_per_g,pf_per_g,pos,pts_per_g,season,stl_per_g,team_id,tov_per_g,trb_per_g
21.0,2.5,0.2,1.4,0.459,0.445,1.5,3.3,0.322,0.6,1.8,0.402,2.1,5.1,0.831,1.5,1.8,66.0,18.0,NBA,16.7,0.4,1.6,PG,6.2,2003,0.7,CLE,2.0,1.8
23.0,0.9,0.0,0.5,0.453,0.5,0.9,1.9,0.231,0.2,0.8,0.419,1.1,2.7,0.692,0.6,0.8,16.0,1.0,NBA,9.0,0.3,1.0,PG,3.0,2005,0.3,TOT,1.2,0.8
23.0,1.0,0.0,0.6,0.429,0.474,0.8,1.7,0.222,0.2,0.8,0.393,1.0,2.5,0.692,0.8,1.2,11.0,1.0,NBA,10.0,0.2,1.2,PG,3.0,2005,0.3,DET,0.9,0.8
23.0,0.8,0.0,0.2,0.5,0.545,1.2,2.2,0.25,0.2,0.8,0.467,1.4,3.0,0.0,0.0,0.0,5.0,0.0,NBA,6.8,0.4,0.6,PG,3.0,2005,0.4,PHO,1.8,0.6
24.0,3.7,0.2,2.9,0.524,0.506,2.8,5.5,0.366,1.5,4.0,0.447,4.2,9.5,0.694,1.5,2.2,82.0,82.0,NBA,33.8,0.5,2.6,PG,11.5,2006,1.7,LAL,1.8,3.3
25.0,2.8,0.1,2.0,0.506,0.479,2.8,5.9,0.365,1.3,3.7,0.436,4.2,9.6,0.646,1.4,2.1,82.0,80.0,NBA,30.0,0.5,2.6,PG,11.1,2007,1.5,LAL,1.9,2.5
26.0,3.0,0.2,1.7,0.397,0.434,1.6,3.8,0.231,0.6,2.8,0.348,2.3,6.6,0.679,0.7,1.0,28.0,2.0,NBA,21.1,0.1,2.1,PG,5.9,2008,0.9,TOT,1.6,1.8
26.0,1.7,0.3,1.9,0.37,0.367,1.2,3.3,0.25,0.7,2.7,0.315,1.9,6.0,0.75,0.3,0.4,9.0,0.0,NBA,20.3,0.2,1.4,PG,4.8,2008,0.6,MIA,0.9,2.1
26.0,3.6,0.2,1.6,0.408,0.461,1.8,4.0,0.222,0.6,2.8,0.362,2.5,6.8,0.667,0.8,1.3,19.0,2.0,NBA,21.5,0.1,2.5,PG,6.4,2008,1.0,LAC,1.9,1.7
