age,ast,blk,drb,efg_pct,fg,fg2,fg2_pct,fg2a,fg3,fg3_pct,fg3a,fg_pct,fga,ft,ft_pct,fta,g,gs,lg_id,mp,orb,pf,pos,pts,season,stl,team_id,tov,trb
24.0,11.0,1.0,12.0,0.361,24.0,20.0,0.435,46.0,4.0,0.154,26.0,0.333,72.0,10.0,1.0,10.0,7.0,7.0,NBA,258.0,9.0,24.0,PG,62.0,2006,15.0,LAL,12.0,21.0
25.0,3.0,1.0,3.0,0.192,2.0,1.0,0.143,7.0,1.0,0.167,6.0,0.154,13.0,4.0,1.0,4.0,5.0,0.0,NBA,59.0,4.0,8.0,PG,9.0,2007,3.0,LAL,3.0,7.0
