lg_id,salary,season,team_name
NBA,349458.0,2003,Cleveland Cavaliers
NBA,695046.0,2005,Detroit Pistons
NBA,745248.0,2006,Los Angeles Lakers
NBA,798112.0,2007,Los Angeles Lakers
NBA,2250000.0,2008,Miami Heat
NBA,1660000.0,2009,Miami Heat
