age,ast_per_mp,blk_per_mp,drb_per_mp,fg2_pct,fg2_per_mp,fg2a_per_mp,fg3_pct,fg3_per_mp,fg3a_per_mp,fg_pct,fg_per_mp,fga_per_mp,ft_pct,ft_per_mp,fta_per_mp,g,gs,lg_id,mp,orb_per_mp,pf_per_mp,pos,pts_per_mp,season,stl_per_mp,team_id,tov_per_mp,trb_per_mp
21.0,1.2,1.9,8.0,0.568,6.1,10.7,0.0,0.0,0.7,0.532,6.1,11.4,0.333,1.0,2.9,14.0,3.0,NBA,148.0,3.6,5.6,PF,13.1,2019,2.2,TOT,2.2,11.7
21.0,0.0,0.0,0.0,0.0,0.0,0.0,0.0,0.0,0.0,0.0,0.0,0.0,0.0,0.0,0.0,1.0,0.0,NBA,1.0,0.0,0.0,PF,0.0,2019,0.0,DAL,0.0,0.0
21.0,1.2,2.0,8.1,0.568,6.1,10.8,0.0,0.0,0.7,0.532,6.1,11.5,0.333,1.0,2.9,13.0,3.0,NBA,147.0,3.7,5.6,PF,13.2,2019,2.2,PHO,2.2,11.8
