lg_id,salary,season,team_name
NBA,2002680.0,2004,Milwaukee Bucks
NBA,2152800.0,2005,Milwaukee Bucks
NBA,2303040.0,2006,Milwaukee Bucks
NBA,2929467.0,2007,Toronto Raptors
NBA,8000000.0,2008,Toronto Raptors
NBA,8000000.0,2009,Indiana Pacers
NBA,8500000.0,2010,Indiana Pacers
NBA,8500000.0,2011,Indiana Pacers
NBA,1146337.0,2012,San Antonio Spurs
