age,ast_pct,blk_pct,bpm,bpm-dum,dbpm,drb_pct,dws,fg3a_per_fga_pct,fta_per_fga_pct,g,lg_id,mp,obpm,orb_pct,ows,per,pos,season,stl_pct,team_id,tov_pct,trb_pct,ts_pct,usg_pct,vorp,ws,ws-dum,ws_per_48
20.0,37.4,0.1,-2.6,0.0,-0.9,10.8,0.9,0.053,0.246,55.0,NBA,1472.0,-1.6,2.9,-0.2,12.1,PG,2004,2.1,MIL,24.0,6.8,0.443,17.9,-0.2,0.7,0.0,0.022
22.0,29.8,0.2,-0.8,0.0,0.2,11.7,2.1,0.132,0.314,72.0,NBA,2557.0,-0.9,2.9,0.4,13.1,PG,2006,2.1,MIL,19.6,7.2,0.489,20.0,0.8,2.5,0.0,0.047
23.0,44.8,0.3,0.6,0.0,-0.5,9.7,2.3,0.076,0.325,75.0,NBA,2243.0,1.1,2.7,2.0,18.2,PG,2007,2.3,TOR,18.3,6.2,0.508,26.1,1.5,4.3,0.0,0.091
24.0,44.4,0.0,0.9,0.0,-1.7,7.7,1.1,0.097,0.239,51.0,NBA,1199.0,2.7,2.3,2.1,20.3,PG,2008,2.4,TOR,15.0,4.9,0.533,26.8,0.9,3.3,0.0,0.13
25.0,27.6,0.5,-0.2,0.0,-0.9,9.8,1.7,0.114,0.308,74.0,NBA,2258.0,0.7,2.9,2.6,16.6,PG,2009,2.0,IND,14.8,6.3,0.533,23.5,1.0,4.3,0.0,0.092
26.0,24.8,0.7,-1.8,0.0,-0.3,10.0,1.1,0.12,0.323,47.0,NBA,1189.0,-1.5,3.7,0.3,13.4,PG,2010,1.8,IND,15.9,6.8,0.507,21.0,0.1,1.4,0.0,0.058
27.0,28.4,0.8,-3.8,0.0,-0.3,9.1,0.8,0.136,0.203,41.0,NBA,773.0,-3.5,2.5,-0.7,9.9,PG,2011,2.3,IND,19.7,5.8,0.434,18.3,-0.3,0.2,0.0,0.011
28.0,32.7,0.8,-3.6,0.0,-0.6,8.8,0.2,0.186,0.326,14.0,NBA,191.0,-3.1,1.8,0.0,11.0,PG,2012,2.4,SAS,31.9,5.4,0.519,17.2,-0.1,0.2,0.0,0.053
