age,ast,ast_per_g,blk,college_id,fg,fg3,fg3_pct,fg3a,fg_pct,fga,ft,ft_pct,fta,g,mp,mp_per_g,orb,pf,pts,pts_per_g,season,stl,tov,trb,trb_per_g
19.0,84.0,2.6,5.0,MICHIGAN,52.0,7.0,0.179,39.0,0.406,128.0,29.0,0.63,46.0,32.0,777.0,24.3,14.0,61.0,140.0,4.4,2010,20.0,51.0,58.0,1.8
20.0,235.0,6.7,1.0,MICHIGAN,201.0,16.0,0.25,64.0,0.489,411.0,108.0,0.715,151.0,35.0,1219.0,34.8,31.0,74.0,526.0,15.0,2011,36.0,103.0,139.0,4.0
