age,ast_per_mp,blk_per_mp,drb_per_mp,fg2_pct,fg2_per_mp,fg2a_per_mp,fg3_pct,fg3_per_mp,fg3a_per_mp,fg_pct,fg_per_mp,fga_per_mp,ft_pct,ft_per_mp,fta_per_mp,g,gs,lg_id,mp,orb_per_mp,pf_per_mp,pos,pts_per_mp,season,stl_per_mp,team_id,tov_per_mp,trb_per_mp
21.0,13.5,0.0,0.0,1.0,9.0,9.0,1.0,4.5,4.5,1.0,13.5,13.5,0.75,13.5,18.0,4.0,0.0,NBA,8.0,0.0,4.5,PG,45.0,2012,0.0,LAL,4.5,0.0
22.0,4.1,0.0,1.4,0.5,4.5,8.9,0.333,1.0,3.1,0.457,5.5,12.0,0.778,2.4,3.1,4.0,2.0,NBA,105.0,0.3,2.1,PG,14.4,2013,0.7,LAL,2.1,1.7
24.0,0.0,0.0,0.0,0.0,0.0,7.2,0.0,0.0,0.0,0.0,0.0,7.2,0.0,0.0,0.0,1.0,0.0,NBA,5.0,0.0,0.0,PG,0.0,2015,0.0,BRK,0.0,0.0
