age,ast,blk,drb,fg,fg2,fg2a,fg3,fg3a,fga,ft,fta,game_score,lg_id,mp,orb,pf,pts,season,stl,team_id,tov,trb
23.0,2.0,0.0,2.0,2.0,2.0,7.0,0.0,1.0,7.0,4.0,4.0,4.4,NBA,0.0,3.0,3.0,8.0,1990,1.0,PHO,2.0,5.0
24.0,4.0,0.0,3.0,6.0,4.0,12.0,2.0,3.0,15.0,4.0,4.0,9.1,NBA,0.0,3.0,5.0,14.0,1991,1.0,DEN,1.0,4.0
26.0,5.0,1.0,3.0,7.0,6.0,10.0,3.0,5.0,14.0,10.0,12.0,17.9,NBA,0.0,3.0,4.0,20.0,1993,3.0,TOT,2.0,6.0
26.0,0.0,0.0,1.0,1.0,1.0,1.0,0.0,0.0,1.0,0.0,0.0,1.7,NBA,0.0,0.0,0.0,2.0,1993,0.0,UTA,0.0,1.0
26.0,5.0,1.0,3.0,7.0,6.0,10.0,3.0,5.0,14.0,10.0,12.0,17.9,NBA,0.0,3.0,4.0,20.0,1993,3.0,DAL,2.0,6.0
27.0,6.0,2.0,5.0,9.0,7.0,11.0,4.0,6.0,15.0,6.0,8.0,19.8,NBA,0.0,2.0,5.0,25.0,1994,4.0,DAL,4.0,6.0
28.0,5.0,1.0,4.0,10.0,6.0,7.0,5.0,6.0,12.0,8.0,9.0,20.4,NBA,0.0,4.0,5.0,24.0,1995,3.0,GSW,3.0,7.0
29.0,7.0,2.0,5.0,7.0,5.0,7.0,5.0,8.0,11.0,6.0,6.0,20.0,NBA,0.0,2.0,5.0,21.0,1996,3.0,WSB,3.0,5.0
30.0,1.0,2.0,4.0,3.0,2.0,3.0,2.0,5.0,6.0,2.0,2.0,5.4,NBA,0.0,0.0,5.0,9.0,1997,1.0,WSB,2.0,4.0
31.0,2.0,0.0,1.0,1.0,1.0,5.0,0.0,3.0,5.0,3.0,4.0,3.2,NBA,0.0,2.0,4.0,5.0,1998,1.0,WAS,2.0,2.0
32.0,4.0,1.0,4.0,5.0,4.0,7.0,3.0,7.0,10.0,1.0,2.0,10.8,NBA,0.0,2.0,4.0,13.0,1999,1.0,WAS,2.0,4.0
33.0,4.0,1.0,4.0,5.0,4.0,9.0,3.0,4.0,11.0,4.0,4.0,10.3,NBA,0.0,1.0,5.0,14.0,2000,1.0,GSW,2.0,4.0
