age,ast,ast_per_g,blk,college_id,fg,fg3,fg3_pct,fg3a,fg_pct,fga,ft,ft_pct,fta,g,mp,mp_per_g,orb,pf,pts,pts_per_g,season,stl,tov,trb,trb_per_g
19.0,20.0,0.7,0.0,UNC,12.0,6.0,0.3,20.0,0.387,31.0,18.0,0.857,21.0,29.0,132.0,4.6,0.0,9.0,48.0,1.7,1995,7.0,22.0,12.0,0.4
20.0,65.0,2.0,0.0,UNC,84.0,46.0,0.397,116.0,0.452,186.0,53.0,0.768,69.0,32.0,663.0,20.7,0.0,46.0,267.0,8.3,1996,16.0,58.0,82.0,2.6
21.0,153.0,4.4,0.0,UNC,155.0,95.0,0.419,227.0,0.422,367.0,88.0,0.815,108.0,35.0,1146.0,32.7,0.0,66.0,493.0,14.1,1997,31.0,94.0,115.0,3.3
22.0,161.0,4.2,2.0,UNC,209.0,86.0,0.4,215.0,0.488,428.0,133.0,0.911,146.0,38.0,0.0,0.0,0.0,0.0,637.0,16.8,1998,39.0,0.0,123.0,3.2
