age,ast_per_g,blk_per_g,drb_per_g,efg_pct,fg2_pct,fg2_per_g,fg2a_per_g,fg3_pct,fg3_per_g,fg3a_per_g,fg_pct,fg_per_g,fga_per_g,ft_pct,ft_per_g,fta_per_g,g,gs,lg_id,mp_per_g,orb_per_g,pf_per_g,pos,pts_per_g,season,stl_per_g,team_id,tov_per_g,trb_per_g
24.0,3.6,0.0,1.8,0.652,0.5,2.2,4.4,0.636,1.4,2.2,0.545,3.6,6.6,0.727,1.6,2.2,5.0,2.0,NBA,19.8,0.4,0.6,PG,10.2,2000,1.6,SEA,1.2,2.2
26.0,1.0,0.0,1.0,0.5,0.4,1.3,3.3,0.5,0.7,1.3,0.429,2.0,4.7,0.667,0.7,1.0,3.0,0.0,NBA,12.7,0.3,0.3,SG,5.3,2002,0.7,SEA,1.3,1.3
28.0,1.3,0.0,0.0,0.4,0.5,0.7,1.3,0.0,0.0,0.3,0.4,0.7,1.7,0.75,1.0,1.3,3.0,0.0,NBA,6.0,0.0,1.7,PG,2.3,2004,0.3,NOH,1.3,0.0
31.0,1.8,0.3,0.3,0.45,0.5,1.5,3.0,0.25,0.5,2.0,0.4,2.0,5.0,0.0,0.0,0.0,4.0,0.0,NBA,20.0,0.5,1.5,PG,4.5,2007,0.0,LAL,0.5,0.8
