age,ast_per_g,blk_per_g,drb_per_g,efg_pct,fg2_pct,fg2_per_g,fg2a_per_g,fg3_pct,fg3_per_g,fg3a_per_g,fg_pct,fg_per_g,fga_per_g,ft_pct,ft_per_g,fta_per_g,g,gs,lg_id,mp_per_g,orb_per_g,pf_per_g,pos,pts_per_g,season,stl_per_g,team_id,tov_per_g,trb_per_g
21.0,1.6,0.1,1.9,0.433,0.376,1.4,3.6,0.37,0.6,1.7,0.374,2.0,5.4,0.763,1.3,1.7,54.0,15.0,NBA,17.3,0.7,1.2,SG,5.9,2011,0.6,CLE,1.2,2.6
22.0,1.2,0.2,2.3,0.44,0.421,1.8,4.4,0.333,0.5,1.4,0.4,2.3,5.8,0.695,1.6,2.3,26.0,5.0,NBA,17.5,0.4,1.1,SG,6.7,2012,0.5,CLE,1.0,2.7
24.0,1.2,0.1,3.0,0.45,0.42,2.3,5.6,0.35,0.8,2.2,0.4,3.1,7.8,0.833,1.1,1.3,9.0,0.0,NBA,20.0,0.8,1.1,SG,8.1,2014,0.4,LAL,1.0,3.8
27.0,0.5,0.0,1.5,0.2,0.231,0.8,3.3,0.0,0.0,0.5,0.2,0.8,3.8,0.5,0.5,1.0,4.0,0.0,NBA,6.3,0.8,0.3,SG,2.0,2017,0.0,DAL,0.5,2.3
