age,ast_per_poss,blk_per_poss,def_rtg,drb_per_poss,fg2_pct,fg2_per_poss,fg2a_per_poss,fg3_pct,fg3_per_poss,fg3a_per_poss,fg_pct,fg_per_poss,fga_per_poss,ft_pct,ft_per_poss,fta_per_poss,g,gs,lg_id,mp,off_rtg,orb_per_poss,pf_per_poss,pos,pts_per_poss,season,stl_per_poss,team_id,tov_per_poss,trb_per_poss
22.0,9.3,0.1,107.0,3.5,0.421,6.4,15.3,0.0,0.0,0.3,0.413,6.4,15.6,0.76,5.2,6.9,82.0,14.0,NBA,1387.0,100.0,1.7,6.4,PG,18.1,1982,3.2,POR,4.4,5.1
23.0,10.7,0.2,103.0,3.0,0.455,7.7,16.8,0.0,0.0,0.0,0.454,7.7,16.9,0.793,6.2,7.8,47.0,36.0,NBA,1298.0,105.0,1.2,5.1,PG,21.5,1983,3.7,POR,4.8,4.3
24.0,9.9,0.2,109.0,2.0,0.45,6.3,14.0,0.0,0.0,0.1,0.447,6.3,14.1,0.789,4.9,6.2,68.0,60.0,NBA,1893.0,109.0,1.2,4.5,PG,17.5,1984,2.7,POR,3.7,3.2
25.0,10.6,0.1,108.0,3.4,0.474,6.5,13.8,0.0,0.0,0.0,0.473,6.5,13.8,0.793,4.7,5.9,75.0,59.0,NBA,2278.0,109.0,1.1,3.8,PG,17.7,1985,2.9,POR,3.9,4.5
26.0,9.4,0.1,110.0,3.5,0.42,6.0,14.2,0.286,0.2,0.5,0.415,6.1,14.7,0.743,4.9,6.7,62.0,29.0,NBA,1217.0,99.0,1.2,4.7,PG,17.3,1986,2.7,TOT,4.4,4.8
26.0,8.7,0.1,108.0,3.3,0.448,5.7,12.7,0.333,0.1,0.2,0.447,5.8,12.9,0.71,4.4,6.3,28.0,27.0,NBA,734.0,104.0,1.3,4.9,PG,16.0,1986,3.1,POR,3.6,4.5
26.0,10.4,0.1,113.0,4.0,0.386,6.4,16.5,0.273,0.3,1.1,0.379,6.7,17.6,0.787,5.7,7.3,34.0,2.0,NBA,483.0,94.0,1.2,4.4,PG,19.4,1986,2.2,LAC,5.5,5.1
27.0,11.9,0.3,112.0,3.0,0.426,7.0,16.3,0.232,0.3,1.5,0.41,7.3,17.8,0.815,4.3,5.3,65.0,52.0,NBA,1759.0,100.0,1.0,3.9,PG,19.3,1987,3.1,LAC,4.4,4.0
28.0,11.1,0.2,106.0,3.5,0.416,6.1,14.6,0.455,0.4,1.0,0.418,6.5,15.5,0.743,2.9,4.0,79.0,31.0,NBA,1636.0,97.0,1.1,3.9,PG,16.4,1988,3.6,LAC,4.3,4.5
29.0,7.8,0.3,105.0,3.7,0.436,6.0,13.8,0.214,0.1,0.6,0.426,6.1,14.4,0.813,4.1,5.1,77.0,4.0,NBA,1086.0,100.0,1.0,4.0,SG,16.5,1989,2.6,CLE,3.7,4.6
31.0,9.6,0.3,109.0,3.7,0.476,6.1,12.9,0.24,0.2,0.7,0.464,6.3,13.6,0.831,3.9,4.7,65.0,60.0,NBA,1841.0,107.0,1.0,4.7,PG,16.7,1991,2.7,CLE,3.5,4.7
