age,ast_per_mp,blk_per_mp,drb_per_mp,fg2_pct,fg2_per_mp,fg2a_per_mp,fg3_pct,fg3_per_mp,fg3a_per_mp,fg_pct,fg_per_mp,fga_per_mp,ft_pct,ft_per_mp,fta_per_mp,g,gs,lg_id,mp,orb_per_mp,pf_per_mp,pos,pts_per_mp,season,stl_per_mp,team_id,tov_per_mp,trb_per_mp
22.0,7.0,0.1,2.6,0.421,4.9,11.5,0.0,0.0,0.2,0.413,4.9,11.8,0.76,3.9,5.2,82.0,14.0,NBA,1387.0,1.2,4.9,PG,13.7,1982,2.4,POR,3.3,3.9
23.0,8.1,0.1,2.3,0.455,5.8,12.7,0.0,0.0,0.0,0.454,5.8,12.8,0.793,4.7,5.9,47.0,36.0,NBA,1298.0,0.9,3.9,PG,16.3,1983,2.8,POR,3.6,3.2
24.0,7.5,0.1,1.5,0.45,4.8,10.6,0.0,0.0,0.1,0.447,4.8,10.7,0.789,3.7,4.7,68.0,60.0,NBA,1893.0,0.9,3.4,PG,13.2,1984,2.0,POR,2.8,2.4
25.0,8.2,0.1,2.6,0.474,5.1,10.7,0.0,0.0,0.0,0.473,5.1,10.7,0.793,3.6,4.6,75.0,59.0,NBA,2278.0,0.9,3.0,PG,13.8,1985,2.3,POR,3.1,3.5
26.0,7.3,0.1,2.8,0.42,4.6,11.1,0.286,0.1,0.4,0.415,4.8,11.5,0.743,3.8,5.2,62.0,29.0,NBA,1217.0,0.9,3.6,PG,13.5,1986,2.1,TOT,3.4,3.7
26.0,6.8,0.0,2.6,0.448,4.5,10.0,0.333,0.0,0.1,0.447,4.5,10.1,0.71,3.5,4.9,28.0,27.0,NBA,734.0,1.0,3.8,PG,12.6,1986,2.4,POR,2.8,3.5
26.0,8.0,0.1,3.1,0.386,4.9,12.7,0.273,0.2,0.8,0.379,5.1,13.6,0.787,4.4,5.6,34.0,2.0,NBA,483.0,0.9,3.4,PG,14.9,1986,1.7,LAC,4.2,4.0
27.0,9.1,0.2,2.3,0.426,5.4,12.6,0.232,0.3,1.1,0.41,5.6,13.7,0.815,3.3,4.1,65.0,52.0,NBA,1759.0,0.8,3.0,PG,14.9,1987,2.4,LAC,3.4,3.1
28.0,8.4,0.2,2.6,0.416,4.6,11.0,0.455,0.3,0.7,0.418,4.9,11.7,0.743,2.2,3.0,79.0,31.0,NBA,1636.0,0.8,3.0,PG,12.4,1988,2.7,LAC,3.3,3.4
29.0,5.8,0.2,2.7,0.436,4.4,10.1,0.214,0.1,0.5,0.426,4.5,10.6,0.813,3.0,3.7,77.0,4.0,NBA,1086.0,0.7,2.9,SG,12.1,1989,1.9,CLE,2.8,3.4
31.0,6.9,0.2,2.6,0.476,4.4,9.2,0.24,0.1,0.5,0.464,4.5,9.7,0.831,2.8,3.4,65.0,60.0,NBA,1841.0,0.7,3.3,PG,11.9,1991,1.9,CLE,2.5,3.4
