age,ast_per_mp,blk_per_mp,drb_per_mp,fg2_pct,fg2_per_mp,fg2a_per_mp,fg3_pct,fg3_per_mp,fg3a_per_mp,fg_pct,fg_per_mp,fga_per_mp,ft_pct,ft_per_mp,fta_per_mp,g,gs,lg_id,mp,orb_per_mp,pf_per_mp,pos,pts_per_mp,season,stl_per_mp,team_id,tov_per_mp,trb_per_mp
23.0,10.7,0.5,1.8,0.423,5.8,13.7,0.5,0.2,0.4,0.425,6.0,14.0,0.762,2.8,3.7,7.0,0.0,NBA,205.0,0.9,3.7,PG,14.9,1983,1.8,POR,3.3,2.6
24.0,8.5,0.2,1.6,0.5,6.1,12.1,0.0,0.0,0.0,0.5,6.1,12.1,0.914,6.5,7.1,5.0,0.0,NBA,178.0,0.6,4.7,PG,18.6,1984,1.8,POR,2.2,2.2
25.0,8.6,0.0,1.6,0.489,6.3,13.0,0.0,0.0,0.0,0.489,6.3,13.0,0.935,4.3,4.6,9.0,9.0,NBA,244.0,0.9,4.1,PG,17.0,1985,2.4,POR,3.1,2.5
29.0,7.2,0.0,1.8,0.35,3.2,9.0,0.0,0.0,0.0,0.35,3.2,9.0,0.875,3.2,3.6,5.0,0.0,NBA,80.0,1.4,3.2,SG,9.5,1989,2.3,CLE,2.3,3.2
