age,ast,ast_per_g,blk,college_id,fg,fg3,fg3_pct,fg3a,fg_pct,fga,ft,ft_pct,fta,g,mp,mp_per_g,orb,pf,pts,pts_per_g,season,stl,tov,trb,trb_per_g
19.0,73.0,2.4,9.0,PURDUE,60.0,26.0,0.394,66.0,0.435,138.0,18.0,0.581,31.0,31.0,565.0,18.2,0.0,43.0,164.0,5.3,1989,11.0,36.0,74.0,2.4
20.0,59.0,2.0,4.0,PURDUE,88.0,20.0,0.345,58.0,0.489,180.0,43.0,0.642,67.0,30.0,705.0,23.5,0.0,33.0,239.0,8.0,1990,16.0,40.0,76.0,2.5
21.0,89.0,3.1,10.0,PURDUE,189.0,79.0,0.429,184.0,0.466,406.0,99.0,0.861,115.0,29.0,1026.0,35.4,0.0,45.0,556.0,19.2,1991,20.0,72.0,133.0,4.6
