article_url,date,headline
https://lakeshowlife.com/2019/08/31/los-angeles-lakers-6-reasons-kobe-bryant-wrong-winning-12-rings/,2019/08/31,Lake Show Life: Los Angeles Lakers: 6 reasons why Kobe Bryant was wrong about winning 12 rings
https://8points9seconds.com/2019/06/29/indiana-pacers-darren-collison-retires/,2019/06/29,"8 Points, 9 Seconds: Indiana Pacers: Darren Collison calls it a career"
