age,ast_pct,blk_pct,bpm,bpm-dum,dbpm,drb_pct,dws,fg3a_per_fga_pct,fta_per_fga_pct,g,lg_id,mp,obpm,orb_pct,ows,per,pos,season,stl_pct,team_id,tov_pct,trb_pct,ts_pct,usg_pct,vorp,ws,ws-dum,ws_per_48
20.0,19.0,0.5,-2.9,0.0,-1.4,10.3,0.7,0.466,0.129,72.0,NBA,1090.0,-1.6,2.4,0.2,10.8,PG,2007,2.1,LAL,19.0,6.4,0.515,15.8,-0.3,0.9,0.0,0.038
21.0,20.5,0.2,0.7,0.0,-1.2,9.1,1.8,0.487,0.124,82.0,NBA,1690.0,1.9,2.7,2.1,15.4,PG,2008,2.3,LAL,14.0,6.0,0.563,20.2,1.2,3.9,0.0,0.111
22.0,18.6,0.6,-2.9,0.0,-0.5,8.9,1.5,0.354,0.187,65.0,NBA,1192.0,-2.4,2.1,-0.7,9.9,PG,2009,2.4,LAL,16.3,5.5,0.466,19.6,-0.3,0.8,0.0,0.034
23.0,13.4,0.6,-1.4,0.0,-1.0,8.8,1.8,0.445,0.165,82.0,NBA,1474.0,-0.5,1.1,1.0,12.3,PG,2010,1.8,LAL,11.5,5.0,0.535,19.0,0.2,2.8,0.0,0.093
24.0,34.9,0.3,-0.9,0.0,-2.1,10.1,1.0,0.467,0.154,73.0,NBA,1796.0,1.2,1.5,0.8,14.1,PG,2011,1.8,NJN,16.7,5.7,0.504,21.6,0.5,1.9,0.0,0.05
25.0,29.0,0.2,-1.8,0.0,-4.1,7.8,0.0,0.397,0.2,39.0,NBA,831.0,2.4,1.0,1.8,17.4,PG,2012,1.5,NJN,16.6,4.3,0.592,22.6,0.1,1.8,0.0,0.104
27.0,34.6,0.6,-1.1,0.0,-2.0,9.8,0.4,0.44,0.162,41.0,NBA,912.0,0.9,2.3,0.4,15.0,PG,2014,2.0,LAL,19.6,6.1,0.533,23.2,0.2,0.7,0.0,0.039
28.0,18.0,0.8,-2.0,0.0,-1.3,7.1,0.4,0.614,0.07,36.0,NBA,529.0,-0.7,1.7,0.2,9.9,PG,2015,1.9,LAC,16.4,4.5,0.513,16.6,0.0,0.6,0.0,0.053
29.0,20.6,0.6,-1.2,0.0,-1.4,8.6,0.2,0.45,0.1,12.0,NBA,291.0,0.2,1.5,0.2,13.2,PG,2016,2.7,MEM,14.7,4.9,0.527,18.9,0.1,0.4,0.0,0.064
30.0,38.6,0.0,-3.0,0.0,-3.7,6.5,0.0,0.75,0.0,2.0,NBA,35.0,0.7,3.3,0.0,14.4,PG,2017,2.9,SAC,20.0,5.0,0.5,19.4,0.0,0.0,0.0,0.063
