age,ast,blk,drb,efg_pct,fg,fg2,fg2_pct,fg2a,fg3,fg3_pct,fg3a,fg_pct,fga,ft,ft_pct,fta,g,gs,lg_id,mp,orb,pf,pos,pts,season,stl,team_id,tov,trb
25.0,10.0,0.0,3.0,0.36,9.0,9.0,0.391,23.0,0.0,0.0,2.0,0.36,25.0,1.0,0.5,2.0,6.0,0.0,NBA,65.0,1.0,8.0,PG,19.0,1992,0.0,BOS,4.0,4.0
26.0,38.0,0.0,14.0,0.378,17.0,17.0,0.405,42.0,0.0,0.0,3.0,0.378,45.0,10.0,0.667,15.0,4.0,4.0,NBA,166.0,12.0,10.0,PG,44.0,1993,4.0,BOS,12.0,26.0
28.0,33.0,1.0,16.0,0.382,24.0,20.0,0.357,56.0,4.0,0.333,12.0,0.353,68.0,8.0,0.727,11.0,4.0,4.0,NBA,168.0,4.0,12.0,PG,60.0,1995,4.0,BOS,17.0,20.0
31.0,25.0,0.0,7.0,0.545,23.0,21.0,0.538,39.0,2.0,0.4,5.0,0.523,44.0,7.0,0.7,10.0,3.0,2.0,NBA,125.0,1.0,5.0,PG,55.0,1998,6.0,NJN,13.0,8.0
