age,ast_per_mp,blk_per_mp,drb_per_mp,fg2_pct,fg2_per_mp,fg2a_per_mp,fg3_pct,fg3_per_mp,fg3a_per_mp,fg_pct,fg_per_mp,fga_per_mp,ft_pct,ft_per_mp,fta_per_mp,g,gs,lg_id,mp,orb_per_mp,pf_per_mp,pos,pts_per_mp,season,stl_per_mp,team_id,tov_per_mp,trb_per_mp
22.0,4.5,0.0,13.5,0.0,0.0,9.0,0.0,0.0,0.0,0.0,0.0,9.0,0.0,0.0,0.0,4.0,0.0,NBA,8.0,13.5,13.5,C,0.0,1989,0.0,PHO,13.5,27.0
23.0,0.8,3.9,6.2,0.667,2.3,3.5,0.0,0.0,0.0,0.667,2.3,3.5,0.571,1.5,2.7,12.0,0.0,NBA,93.0,1.5,6.6,C,6.2,1990,1.2,PHO,1.9,7.7
24.0,0.7,2.0,9.2,0.545,3.9,7.2,0.0,0.0,0.0,0.545,3.9,7.2,0.824,9.2,11.1,4.0,0.0,NBA,55.0,2.6,7.9,C,17.0,1991,0.7,PHO,1.3,11.8
25.0,0.4,2.8,3.2,0.375,2.8,7.5,0.0,0.0,0.0,0.375,2.8,7.5,0.789,2.8,3.6,8.0,8.0,NBA,192.0,2.8,6.2,C,8.4,1992,0.6,PHO,1.5,6.0
27.0,0.8,3.1,4.9,0.468,4.5,9.5,0.0,0.0,0.2,0.46,4.5,9.7,0.773,2.6,3.4,11.0,0.0,NBA,234.0,2.3,5.4,C,11.5,1994,0.9,ATL,2.3,7.2
28.0,0.4,0.7,3.2,0.429,4.3,10.0,0.0,0.0,0.0,0.429,4.3,10.0,0.778,2.5,3.2,3.0,3.0,NBA,101.0,1.1,4.3,C,11.0,1995,0.7,ATL,2.1,4.3
