age,ast_per_g,blk_per_g,drb_per_g,efg_pct,fg2_pct,fg2_per_g,fg2a_per_g,fg3_pct,fg3_per_g,fg3a_per_g,fg_pct,fg_per_g,fga_per_g,ft_pct,ft_per_g,fta_per_g,g,gs,lg_id,mp_per_g,orb_per_g,pf_per_g,pos,pts_per_g,season,stl_per_g,team_id,tov_per_g,trb_per_g
22.0,4.8,0.1,0.7,0.485,0.485,3.4,7.1,0.313,0.1,0.2,0.481,3.5,7.3,0.798,2.3,2.9,82.0,45.0,NBA,23.9,0.7,2.4,SG,9.4,1986,0.8,DET,1.9,1.5
23.0,4.5,0.1,1.5,0.499,0.495,4.6,9.2,0.409,0.1,0.3,0.493,4.7,9.5,0.748,2.3,3.1,79.0,75.0,NBA,30.9,0.6,2.5,SG,11.8,1987,1.1,DET,2.2,2.1
24.0,4.7,0.2,1.7,0.474,0.477,5.5,11.5,0.211,0.0,0.2,0.472,5.5,11.7,0.815,3.1,3.8,82.0,82.0,NBA,33.3,0.8,1.9,SG,14.2,1988,1.1,DET,2.1,2.4
25.0,5.7,0.1,1.7,0.513,0.506,6.4,12.7,0.483,0.2,0.4,0.505,6.6,13.1,0.85,3.8,4.4,69.0,67.0,NBA,34.9,0.8,1.5,SG,17.2,1989,0.9,DET,2.6,2.5
26.0,4.9,0.0,2.0,0.491,0.485,6.5,13.4,0.4,0.3,0.7,0.48,6.8,14.1,0.9,4.0,4.4,75.0,71.0,NBA,34.4,0.8,1.7,SG,17.8,1990,0.8,DET,1.9,2.8
27.0,5.5,0.1,1.6,0.487,0.488,7.6,15.6,0.311,0.2,0.6,0.481,7.8,16.2,0.89,4.6,5.2,80.0,80.0,NBA,38.1,0.8,1.7,SG,20.4,1991,1.1,DET,2.4,2.3
28.0,4.6,0.1,1.3,0.466,0.452,6.6,14.5,0.408,0.6,1.5,0.448,7.2,16.0,0.867,5.0,5.8,82.0,82.0,NBA,38.9,1.0,1.8,SG,19.9,1992,0.9,DET,2.4,2.3
29.0,4.0,0.1,1.1,0.504,0.489,7.3,15.0,0.375,1.5,3.9,0.466,8.8,18.9,0.864,4.5,5.2,77.0,77.0,NBA,40.2,0.8,1.8,SG,23.5,1993,1.0,DET,1.8,1.9
30.0,3.8,0.1,1.7,0.507,0.477,5.5,11.6,0.388,1.8,4.6,0.452,7.3,16.2,0.836,4.0,4.8,69.0,69.0,NBA,37.6,0.5,1.7,SG,20.4,1994,0.9,DET,2.3,2.2
31.0,5.5,0.1,1.7,0.483,0.497,4.7,9.4,0.305,1.5,5.0,0.43,6.2,14.5,0.805,4.1,5.1,67.0,67.0,NBA,38.0,0.7,2.3,SG,18.1,1995,1.1,DET,3.3,2.4
32.0,4.0,0.0,1.6,0.528,0.447,2.0,4.5,0.406,1.8,4.4,0.426,3.8,8.9,0.822,2.4,2.9,67.0,40.0,NBA,32.7,0.4,1.6,PG,11.8,1996,0.6,DET,1.4,2.1
33.0,4.0,0.0,1.9,0.535,0.446,2.8,6.2,0.432,2.1,4.9,0.44,4.9,11.1,0.867,2.8,3.2,79.0,79.0,NBA,37.0,0.5,1.2,SG,14.7,1997,0.7,DET,1.6,2.4
34.0,3.5,0.0,1.3,0.516,0.468,2.4,5.1,0.371,2.2,5.9,0.416,4.6,11.0,0.825,1.8,2.1,72.0,72.0,NBA,32.3,0.2,1.4,SG,13.1,1998,0.6,DET,1.2,1.4
35.0,3.5,0.1,1.5,0.539,0.426,1.4,3.4,0.403,2.3,5.8,0.411,3.8,9.2,0.836,1.3,1.6,38.0,38.0,NBA,29.4,0.3,1.3,SG,11.3,1999,0.6,DET,1.4,1.8
