age,ast_per_mp,blk_per_mp,drb_per_mp,fg2_pct,fg2_per_mp,fg2a_per_mp,fg3_pct,fg3_per_mp,fg3a_per_mp,fg_pct,fg_per_mp,fga_per_mp,ft_pct,ft_per_mp,fta_per_mp,g,gs,lg_id,mp,orb_per_mp,pf_per_mp,pos,pts_per_mp,season,stl_per_mp,team_id,tov_per_mp,trb_per_mp
22.0,6.1,0.0,1.7,0.61,6.1,10.0,0.0,0.0,0.0,0.61,6.1,10.0,0.667,2.4,3.7,4.0,4.0,NBA,147.0,1.5,3.9,SG,14.7,1986,1.0,DET,1.7,3.2
23.0,5.5,0.1,0.8,0.535,5.8,10.8,0.667,0.2,0.2,0.538,5.9,11.0,0.78,2.4,3.1,15.0,15.0,NBA,473.0,0.6,2.0,SG,14.5,1987,0.9,DET,2.1,1.4
24.0,5.0,0.1,1.4,0.461,5.0,10.8,0.333,0.1,0.3,0.457,5.1,11.1,0.889,2.5,2.8,23.0,23.0,NBA,804.0,0.8,2.2,SG,12.7,1988,0.6,DET,1.8,2.2
25.0,5.6,0.1,1.9,0.475,6.1,12.8,0.083,0.1,0.7,0.455,6.2,13.5,0.861,5.1,5.9,17.0,17.0,NBA,620.0,0.6,1.8,SG,17.4,1989,0.7,DET,1.8,2.6
26.0,4.5,0.0,1.2,0.472,6.0,12.7,0.263,0.2,0.9,0.458,6.2,13.6,0.876,4.7,5.4,20.0,20.0,NBA,754.0,0.9,1.8,SG,17.4,1990,1.1,DET,2.6,2.1
27.0,3.8,0.1,1.8,0.433,5.4,12.4,0.405,1.0,2.6,0.429,6.4,15.0,0.845,5.0,5.9,15.0,15.0,NBA,588.0,1.3,2.0,SG,18.9,1991,1.0,DET,1.0,3.1
28.0,2.6,0.2,0.5,0.466,4.4,9.4,0.5,0.8,1.6,0.471,5.2,11.1,0.789,2.4,3.1,5.0,5.0,NBA,221.0,0.8,1.8,SG,13.7,1992,0.8,DET,1.1,1.3
32.0,3.2,0.0,2.3,0.524,3.2,6.1,0.357,1.5,4.1,0.457,4.7,10.2,1.0,1.2,1.2,3.0,3.0,NBA,123.0,1.5,1.5,PG,12.0,1996,0.0,DET,2.0,3.8
33.0,1.7,0.0,1.2,0.421,2.7,6.4,0.261,1.0,3.9,0.361,3.7,10.3,0.95,3.2,3.4,5.0,5.0,NBA,214.0,0.3,1.5,SG,11.6,1997,0.8,DET,1.0,1.5
35.0,3.1,0.0,1.4,0.45,2.1,4.7,0.526,2.4,4.5,0.487,4.5,9.2,1.0,0.7,0.7,5.0,5.0,NBA,153.0,0.2,2.1,SG,12.0,1999,0.5,DET,2.1,1.6
