article_url,date,headline
https://aroyalpain.com/2019/11/15/sacramento-kings-lakers-defense/,2019/11/15,A Royal Pain: Defense Will Be Key In Game Against Lakers
https://lakeshowlife.com/2019/11/15/los-angeles-lakers-game-12-preview-vs-sacramento-kings/,2019/11/15,Lake Show Life: Los Angeles Lakers: Game 12 preview vs. Sacramento Kings
https://fansided.com/2019/11/15/lakers-role-players-rondo-kuzma-howard-caruso/,2019/11/15,FanSided: The Lakers' role players have cemented them as championship contenders
https://lasportshub.com/2019/11/14/los-angeles-lakers-rumors-trading-jj-redick/,2019/11/14,LA Sports Hub: Los Angeles Lakers: Why trading for J.J. Redick is inevitable
