age,ast_per_g,blk_per_g,drb_per_g,efg_pct,fg2_pct,fg2_per_g,fg2a_per_g,fg3_pct,fg3_per_g,fg3a_per_g,fg_pct,fg_per_g,fga_per_g,ft_pct,ft_per_g,fta_per_g,g,gs,lg_id,mp_per_g,orb_per_g,pf_per_g,pos,pts_per_g,season,stl_per_g,team_id,tov_per_g,trb_per_g
22.0,0.3,0.2,0.5,0.462,0.529,0.5,0.9,0.273,0.3,1.1,0.385,0.8,2.0,0.667,0.2,0.3,20.0,0.0,NBA,5.8,0.4,0.5,SG,2.0,2010,0.3,CLE,0.3,0.9
23.0,0.3,0.1,1.5,0.586,0.625,1.3,2.0,0.368,0.9,2.4,0.486,2.1,4.4,0.0,0.0,0.0,8.0,0.0,NBA,11.5,0.4,0.9,SG,5.1,2011,0.3,SAS,0.6,1.9
24.0,1.3,0.7,2.6,0.549,0.449,1.7,3.7,0.436,1.5,3.5,0.442,3.2,7.2,0.79,1.2,1.5,66.0,38.0,NBA,23.1,0.8,1.6,SG,9.1,2012,0.9,SAS,1.0,3.5
25.0,1.8,0.7,2.6,0.581,0.48,1.5,3.1,0.429,2.2,5.2,0.448,3.7,8.3,0.848,0.8,1.0,80.0,80.0,NBA,27.5,0.5,1.6,SG,10.5,2013,1.2,SAS,1.2,3.1
26.0,1.5,0.9,3.0,0.562,0.46,1.3,2.8,0.415,1.9,4.7,0.432,3.2,7.4,0.794,0.7,0.9,68.0,59.0,NBA,24.3,0.4,1.6,SG,9.1,2014,1.0,SAS,1.1,3.4
27.0,2.0,1.1,3.6,0.566,0.466,1.6,3.5,0.418,2.4,5.6,0.436,4.0,9.1,0.874,1.4,1.6,81.0,80.0,NBA,28.5,0.7,2.0,SG,11.7,2015,1.2,SAS,1.1,4.2
28.0,1.8,0.8,3.2,0.48,0.448,1.2,2.7,0.332,1.5,4.4,0.376,2.7,7.1,0.739,0.4,0.6,79.0,79.0,NBA,26.1,0.6,1.8,SG,7.2,2016,1.0,SAS,0.9,3.8
29.0,1.8,0.8,2.8,0.523,0.42,0.9,2.0,0.379,1.7,4.6,0.392,2.6,6.6,0.844,0.4,0.5,68.0,68.0,NBA,26.6,0.5,1.8,SG,7.3,2017,1.0,SAS,1.1,3.3
30.0,1.6,1.1,3.0,0.49,0.419,1.4,3.4,0.363,1.7,4.6,0.387,3.1,8.0,0.769,0.7,0.9,70.0,60.0,NBA,25.6,0.6,1.7,SG,8.6,2018,0.9,SAS,1.1,3.6
31.0,1.6,0.7,3.2,0.622,0.487,1.2,2.4,0.455,2.5,5.4,0.465,3.7,7.9,0.841,0.5,0.6,80.0,80.0,NBA,27.7,0.8,2.1,SG,10.3,2019,0.9,TOR,0.9,4.0
32.0,1.3,0.4,2.2,0.596,0.462,1.1,2.4,0.442,2.1,4.7,0.449,3.2,7.1,0.625,0.5,0.7,11.0,11.0,NBA,25.8,0.5,2.9,SG,8.9,2020,1.3,LAL,1.1,2.6
