age,avg_dist,fg2_dunk,fg2_pct,fg2_pct_ast,fg2a_pct_fga,fg3_heave,fg3_pct,fg3_pct_ast,fg3_pct_corner,fg3a_heave,fg3a_pct_fga,fg_pct,fg_pct_00_03,fg_pct_03_10,fg_pct_10_16,fg_pct_16_xx,g,lg_id,mp,pct_fg2_dunk,pct_fg3a_corner,pct_fga_00_03,pct_fga_03_10,pct_fga_10_16,pct_fga_16_xx,pos,season,team_id
22.0,21.4,0.0,0.6,0.333,0.455,0.0,0.0,0.0,0.0,0.0,0.545,0.273,0.0,0.0,1.0,0.5,7.0,NBA,44.0,0.0,0.167,0.0,0.0,0.091,0.364,SG,2002,TOT
22.0,21.4,0.0,0.6,0.333,0.455,0.0,0.0,0.0,0.0,0.0,0.545,0.273,0.0,0.0,1.0,0.5,5.0,NBA,42.0,0.0,0.167,0.0,0.0,0.091,0.364,SG,2002,PHO
22.0,0.0,0.0,0.0,0.0,0.0,0.0,0.0,0.0,0.0,0.0,0.0,0.0,0.0,0.0,0.0,0.0,2.0,NBA,2.0,0.0,0.0,0.0,0.0,0.0,0.0,SG,2002,DAL
26.0,15.7,3.0,0.45,0.495,0.59,0.0,0.423,0.915,0.382,0.0,0.41,0.439,0.563,0.3,0.308,0.372,59.0,NBA,1283.0,0.01,0.327,0.273,0.024,0.063,0.229,SG,2006,MIL
27.0,15.2,11.0,0.488,0.542,0.629,0.0,0.352,0.913,0.38,0.0,0.371,0.437,0.627,0.286,0.471,0.367,82.0,NBA,2848.0,0.013,0.335,0.275,0.036,0.072,0.246,SG,2007,MIL
28.0,17.3,5.0,0.413,0.423,0.553,0.0,0.341,0.824,0.423,2.0,0.447,0.381,0.481,0.4,0.414,0.357,68.0,NBA,1628.0,0.012,0.327,0.214,0.021,0.06,0.259,SG,2008,MIL
29.0,18.5,1.0,0.458,0.523,0.542,0.0,0.363,0.839,0.449,3.0,0.458,0.414,0.538,0.556,0.375,0.429,70.0,NBA,1783.0,0.004,0.446,0.153,0.017,0.061,0.311,SG,2009,MIL
30.0,17.3,0.0,0.395,0.615,0.549,0.0,0.365,0.945,0.41,1.0,0.451,0.381,0.476,0.214,0.394,0.36,71.0,NBA,1611.0,0.002,0.525,0.185,0.032,0.074,0.257,SG,2010,MIL
31.0,19.7,0.0,0.273,0.833,0.512,0.0,0.286,1.0,0.364,1.0,0.488,0.279,0.333,0.25,0.0,0.333,19.0,NBA,171.0,0.0,0.524,0.07,0.093,0.07,0.279,SG,2011,GSW
