age,ast,blk,drb,efg_pct,fg,fg2,fg2_pct,fg2a,fg3,fg3_pct,fg3a,fg_pct,fga,ft,ft_pct,fta,g,gs,lg_id,mp,orb,pf,pos,pts,season,stl,team_id,tov,trb
26.0,7.0,2.0,1.0,0.453,17.0,12.0,0.375,32.0,5.0,0.455,11.0,0.395,43.0,7.0,1.0,7.0,5.0,0.0,NBA,108.0,2.0,15.0,SG,46.0,2006,3.0,MIL,4.0,3.0
30.0,0.0,0.0,0.0,0.0,0.0,0.0,0.0,1.0,0.0,0.0,1.0,0.0,2.0,0.0,0.0,0.0,3.0,0.0,NBA,8.0,0.0,2.0,SG,0.0,2010,0.0,MIL,0.0,0.0
