age,ast_per_poss,blk_per_poss,def_rtg,drb_per_poss,fg2_pct,fg2_per_poss,fg2a_per_poss,fg3_pct,fg3_per_poss,fg3a_per_poss,fg_pct,fg_per_poss,fga_per_poss,ft_pct,ft_per_poss,fta_per_poss,g,gs,lg_id,mp,off_rtg,orb_per_poss,pf_per_poss,pos,pts_per_poss,season,stl_per_poss,team_id,tov_per_poss,trb_per_poss
25.0,1.1,0.0,110.0,9.8,0.5,3.3,6.6,0.222,2.2,9.8,0.333,5.5,16.4,0.0,0.0,3.3,6.0,0.0,NBA,47.0,66.0,0.0,1.1,SF,13.1,1996,1.1,HOU,2.2,9.8
28.0,3.0,0.0,112.0,3.4,0.25,1.3,5.2,0.385,4.3,11.2,0.342,5.6,16.3,0.824,6.0,7.3,4.0,0.0,NBA,123.0,112.0,0.4,4.7,SF,21.5,1999,1.7,HOU,2.1,3.9
