age,and1s,astd_pts,drawn_offensive,drawn_shooting,fouls_offensive,fouls_shooting,g,lg_id,mp,own_shots_blk,pct_1,pct_2,pct_3,pct_4,pct_5,plus_minus_net,plus_minus_on,pos,season,team_id,tov_bad_pass,tov_lost_ball
24.0,5.0,22.0,0.0,26.0,16.0,34.0,54.0,NBA,581.0,21.0,0.0,0.0,0.0,2.0,98.0,-3.1,-0.2,C,2001,PHO,9.0,12.0
25.0,0.0,5.0,0.0,0.0,0.0,2.0,3.0,NBA,24.0,1.0,0.0,0.0,0.0,0.0,100.0,-17.6,-18.3,C,2002,PHO,1.0,1.0
27.0,6.0,54.0,0.0,44.0,5.0,51.0,54.0,NBA,708.0,25.0,0.0,0.0,0.0,0.0,100.0,1.7,2.7,C,2004,MIL,13.0,8.0
28.0,1.0,2.0,0.0,4.0,3.0,14.0,11.0,NBA,105.0,2.0,0.0,0.0,0.0,0.0,100.0,-16.7,-19.5,C,2005,MIL,1.0,0.0
