age,ast,ast_per_g,blk,college_id,fg,fg3,fg3_pct,fg3a,fg_pct,fga,ft,ft_pct,fta,g,mp,mp_per_g,orb,pf,pts,pts_per_g,season,stl,tov,trb,trb_per_g
19.0,5.0,0.4,7.0,SYRACUSE,16.0,7.0,0.292,24.0,0.41,39.0,2.0,0.5,4.0,13.0,97.0,7.5,3.0,6.0,41.0,3.2,2010,8.0,8.0,16.0,1.2
20.0,13.0,0.5,16.0,SYRACUSE,52.0,25.0,0.368,68.0,0.43,121.0,7.0,0.7,10.0,28.0,396.0,14.1,15.0,35.0,136.0,4.9,2011,14.0,6.0,63.0,2.3
21.0,14.0,0.4,34.0,SYRACUSE,96.0,37.0,0.336,110.0,0.466,206.0,23.0,0.697,33.0,37.0,593.0,16.0,33.0,49.0,252.0,6.8,2012,31.0,13.0,115.0,3.1
22.0,36.0,1.1,28.0,SYRACUSE,161.0,84.0,0.398,211.0,0.45,358.0,45.0,0.789,57.0,34.0,1003.0,29.5,44.0,79.0,451.0,13.3,2013,49.0,39.0,177.0,5.2
