age,ast_per_mp,blk_per_mp,drb_per_mp,fg2_pct,fg2_per_mp,fg2a_per_mp,fg3_pct,fg3_per_mp,fg3a_per_mp,fg_pct,fg_per_mp,fga_per_mp,ft_pct,ft_per_mp,fta_per_mp,g,gs,lg_id,mp,orb_per_mp,pf_per_mp,pos,pts_per_mp,season,stl_per_mp,team_id,tov_per_mp,trb_per_mp
22.0,2.7,0.5,4.3,0.683,2.5,3.6,0.265,1.9,7.3,0.403,4.4,10.9,0.75,0.8,1.1,27.0,0.0,NBA,411.0,1.4,3.3,SG,11.5,2019,1.1,MIL,1.7,5.7
23.0,2.9,1.0,5.8,0.357,2.4,6.7,0.5,4.3,8.6,0.438,6.7,15.4,0.5,1.0,1.9,5.0,0.0,NBA,75.0,1.9,3.8,SG,18.7,2020,1.9,MIL,2.4,7.7
