age,ast_per_poss,blk_per_poss,def_rtg,drb_per_poss,fg2_pct,fg2_per_poss,fg2a_per_poss,fg3_pct,fg3_per_poss,fg3a_per_poss,fg_pct,fg_per_poss,fga_per_poss,ft_pct,ft_per_poss,fta_per_poss,g,gs,lg_id,mp,off_rtg,orb_per_poss,pf_per_poss,pos,pts_per_poss,season,stl_per_poss,team_id,tov_per_poss,trb_per_poss
24.0,6.9,0.9,109.0,6.5,0.541,6.6,12.2,0.231,0.7,3.2,0.476,7.4,15.5,0.737,3.5,4.7,23.0,2.0,NBA,384.0,109.0,1.1,5.2,PG,18.9,2018,3.2,PHO,2.7,7.6
25.0,4.7,1.0,110.0,6.4,0.475,5.4,11.4,0.27,0.8,3.0,0.432,6.2,14.4,0.667,2.8,4.2,73.0,11.0,NBA,1430.0,101.0,1.1,4.2,PG,16.1,2019,3.0,CHI,2.0,7.5
26.0,3.9,1.9,104.0,15.5,0.3,5.8,19.3,0.0,0.0,1.9,0.273,5.8,21.3,0.667,7.7,11.6,7.0,0.0,NBA,24.0,87.0,0.0,7.7,PG,19.3,2020,0.0,CHI,0.0,15.5
