lg_id,salary,season,team_name
NBA,600000.0,2007,Houston Rockets
NBA,687456.0,2008,Houston Rockets
NBA,797581.0,2009,Los Angeles Clippers
NBA,855189.0,2010,Los Angeles Clippers
NBA,384766.0,2011,Dallas Mavericks
NBA,350179.0,2011,San Antonio Spurs
NBA,992680.0,2012,New York Knicks
NBA,4054055.0,2013,New York Knicks
NBA,3750000.0,2014,Toronto Raptors
NBA,3445946.0,2015,Oklahoma City Thunder
NBA,3750000.0,2016,Denver Nuggets
NBA,416886.0,2016,Milwaukee Bucks
NBA,1551659.0,2017,Milwaukee Bucks
