article_url,date,headline
https://bluemanhoop.com/2019/10/07/golden-state-warriors-prediction-stephen-curry/,2019/10/07,Blue Man Hoop: Golden State Warriors: 3 bold prediction for two-time MVP Stephen Curry
https://thunderousintentions.com/2019/08/29/okc-thunder-perry-jones-return-europe/,2019/08/29,Thunderous Intentions: Former OKC Thunder forward Perry Jones NBA return bid fails as he returns to Europe
https://dailyknicks.com/2019/08/23/new-york-knicks-reviewing-andrea-bargnani-debacle/,2019/08/23,Daily Knicks: New York Knicks: Reviewing the Andrea Bargnani debacle of 2013
https://raptorsrapture.com/2019/08/03/toronto-raptors-fan-morris-peterson/,2019/08/03,Raptors Rapture: Celebrating Toronto Raptors fan favourite: Morris Peterson
https://dailyknicks.com/2019/07/23/new-york-knicks-carmelo-anthony-retire-jersey/,2019/07/23,Daily Knicks: Carmelo Anthony: The superstar who wanted to play at the Garden
