age,ast_per_g,blk_per_g,drb_per_g,efg_pct,fg2_pct,fg2_per_g,fg2a_per_g,fg3_pct,fg3_per_g,fg3a_per_g,fg_pct,fg_per_g,fga_per_g,ft_pct,ft_per_g,fta_per_g,g,gs,lg_id,mp_per_g,orb_per_g,pf_per_g,pos,pts_per_g,season,stl_per_g,team_id,tov_per_g,trb_per_g
23.0,1.2,0.4,2.4,0.401,0.392,2.3,5.8,0.444,0.1,0.2,0.394,2.4,6.0,0.629,1.4,2.2,47.0,8.0,NBA,19.0,1.2,2.9,SF,6.2,2004,0.7,CHI,1.1,3.6
24.0,0.5,0.2,1.3,0.484,0.48,1.3,2.7,0.5,0.0,0.0,0.48,1.3,2.7,0.617,0.6,1.0,47.0,0.0,NBA,10.0,0.7,1.3,SF,3.2,2005,0.1,DET,0.5,2.0
25.0,0.4,0.0,0.8,0.524,0.532,0.9,1.7,0.0,0.0,0.0,0.524,0.9,1.8,0.341,0.4,1.1,36.0,0.0,NBA,7.4,0.6,1.2,SF,2.2,2006,0.3,MIN,0.4,1.4
26.0,0.3,0.1,0.6,0.355,0.355,0.6,1.6,0.0,0.0,0.0,0.355,0.6,1.6,0.333,0.2,0.5,19.0,0.0,NBA,4.9,0.3,0.6,SF,1.3,2007,0.3,DET,0.2,0.9
27.0,0.2,0.0,1.4,0.333,0.333,0.2,0.6,0.0,0.0,0.0,0.333,0.2,0.6,1.0,0.4,0.4,5.0,0.0,NBA,4.2,0.2,0.0,SF,0.8,2008,0.2,TOT,0.0,1.6
27.0,0.0,0.0,0.0,0.0,0.0,0.0,0.0,0.0,0.0,0.0,0.0,0.0,0.0,0.0,0.0,0.0,1.0,0.0,NBA,3.0,0.0,0.0,SF,0.0,2008,0.0,DET,0.0,0.0
27.0,0.3,0.0,1.8,0.333,0.333,0.3,0.8,0.0,0.0,0.0,0.333,0.3,0.8,1.0,0.5,0.5,4.0,0.0,NBA,4.5,0.3,0.0,SF,1.0,2008,0.3,SEA,0.0,2.0
30.0,0.3,0.0,1.0,0.25,0.333,0.3,1.0,0.0,0.0,0.3,0.25,0.3,1.3,0.0,0.0,0.0,3.0,0.0,NBA,4.3,0.0,0.7,SF,0.7,2011,0.0,TOR,0.0,1.0
