lg_id,salary,season,team_name
NBA,620046.0,2005,Detroit Pistons
NBA,719373.0,2006,Minnesota Timberwolves
NBA,771331.0,2007,Detroit Pistons
NBA,826046.0,2008,Detroit Pistons
NBA,58393.0,2011,Toronto Raptors
