age,ast_per_mp,blk_per_mp,drb_per_mp,fg2_pct,fg2_per_mp,fg2a_per_mp,fg3_pct,fg3_per_mp,fg3a_per_mp,fg_pct,fg_per_mp,fga_per_mp,ft_pct,ft_per_mp,fta_per_mp,g,gs,lg_id,mp,orb_per_mp,pf_per_mp,pos,pts_per_mp,season,stl_per_mp,team_id,tov_per_mp,trb_per_mp
23.0,2.2,0.7,4.5,0.392,4.3,11.0,0.444,0.2,0.4,0.394,4.5,11.4,0.629,2.7,4.2,47.0,8.0,NBA,893.0,2.2,5.4,SF,11.8,2004,1.3,CHI,2.1,6.7
24.0,1.8,0.8,4.7,0.48,4.6,9.5,0.5,0.1,0.2,0.48,4.7,9.7,0.617,2.2,3.6,47.0,0.0,NBA,472.0,2.6,4.6,SF,11.6,2005,0.5,DET,1.7,7.2
25.0,1.9,0.0,3.8,0.532,4.5,8.4,0.0,0.0,0.1,0.524,4.5,8.6,0.341,1.9,5.6,36.0,0.0,NBA,265.0,2.9,6.0,SF,10.9,2006,1.6,MIN,1.9,6.7
26.0,1.9,0.4,4.6,0.355,4.2,11.9,0.0,0.0,0.0,0.355,4.2,11.9,0.333,1.1,3.4,19.0,0.0,NBA,94.0,1.9,4.6,SF,9.6,2007,1.9,DET,1.1,6.5
27.0,1.7,0.0,12.0,0.333,1.7,5.1,0.0,0.0,0.0,0.333,1.7,5.1,1.0,3.4,3.4,5.0,0.0,NBA,21.0,1.7,0.0,SF,6.9,2008,1.7,TOT,0.0,13.7
27.0,0.0,0.0,0.0,0.0,0.0,0.0,0.0,0.0,0.0,0.0,0.0,0.0,0.0,0.0,0.0,1.0,0.0,NBA,3.0,0.0,0.0,SF,0.0,2008,0.0,DET,0.0,0.0
27.0,2.0,0.0,14.0,0.333,2.0,6.0,0.0,0.0,0.0,0.333,2.0,6.0,1.0,4.0,4.0,4.0,0.0,NBA,18.0,2.0,0.0,SF,8.0,2008,2.0,SEA,0.0,16.0
30.0,2.8,0.0,8.3,0.333,2.8,8.3,0.0,0.0,2.8,0.25,2.8,11.1,0.0,0.0,0.0,3.0,0.0,NBA,13.0,0.0,5.5,SF,5.5,2011,0.0,TOR,0.0,8.3
