age,avg_dist,fg2_dunk,fg2_pct,fg2_pct_ast,fg2a_pct_fga,fg3_heave,fg3_pct,fg3_pct_ast,fg3_pct_corner,fg3a_heave,fg3a_pct_fga,fg_pct,fg_pct_00_03,fg_pct_03_10,fg_pct_10_16,fg_pct_16_xx,g,lg_id,mp,pct_fg2_dunk,pct_fg3a_corner,pct_fga_00_03,pct_fga_03_10,pct_fga_10_16,pct_fga_16_xx,pos,season,team_id
20.0,3.2,26.0,0.503,0.613,1.0,0.0,0.0,0,0,0.0,0.0,0.503,0.615,0.296,0.25,0.0,81.0,NBA,1197.0,0.162,0.0,0.659,0.292,0.043,0.005,C,2014,OKC
21.0,3.3,72.0,0.547,0.65,0.995,0.0,0.0,0,0,1.0,0.005,0.544,0.644,0.408,0.333,0.0,70.0,NBA,1771.0,0.213,0.0,0.599,0.356,0.038,0.003,C,2015,OKC
22.0,2.2,101.0,0.613,0.762,1.0,0.0,0.0,0,0,0.0,0.0,0.613,0.655,0.5,0.571,0.5,80.0,NBA,2014.0,0.277,0.0,0.721,0.258,0.016,0.005,C,2016,OKC
23.0,3.7,112.0,0.572,0.668,0.998,0.0,0.0,0,0,1.0,0.002,0.571,0.655,0.488,0.367,0.0,80.0,NBA,2389.0,0.198,0.0,0.557,0.388,0.046,0.005,C,2017,OKC
24.0,2.6,150.0,0.631,0.69,0.997,0.0,0.0,0,0,2.0,0.003,0.629,0.688,0.494,0.514,0.0,76.0,NBA,2487.0,0.242,0.0,0.708,0.233,0.052,0.004,C,2018,OKC
25.0,3.5,131.0,0.596,0.642,0.998,0.0,0.0,0,0,2.0,0.002,0.595,0.667,0.458,0.511,0.0,80.0,NBA,2669.0,0.19,0.0,0.645,0.294,0.058,0.0,C,2019,OKC
26.0,3.9,5.0,0.385,0.667,1.0,0.0,0.0,0,0,0.0,0.0,0.385,0.714,0.0,0.0,0.0,5.0,NBA,135.0,0.128,0.0,0.538,0.41,0.051,0.0,C,2020,OKC
