age,ast_per_g,blk_per_g,drb_per_g,efg_pct,fg2_pct,fg2_per_g,fg2a_per_g,fg3_pct,fg3_per_g,fg3a_per_g,fg_pct,fg_per_g,fga_per_g,ft_pct,ft_per_g,fta_per_g,g,gs,lg_id,mp_per_g,orb_per_g,pf_per_g,pos,pts_per_g,season,stl_per_g,team_id,tov_per_g,trb_per_g
20.0,0.5,0.7,2.3,0.503,0.503,1.1,2.3,0.0,0.0,0.0,0.503,1.1,2.3,0.581,1.0,1.7,81.0,20.0,NBA,14.8,1.8,2.5,C,3.3,2014,0.5,OKC,0.9,4.1
21.0,0.9,1.2,4.6,0.544,0.547,3.1,5.7,0.0,0.0,0.0,0.544,3.1,5.7,0.502,1.5,2.9,70.0,67.0,NBA,25.3,2.8,3.2,C,7.7,2015,0.5,OKC,1.4,7.5
22.0,0.8,1.1,3.9,0.613,0.613,3.3,5.3,0.0,0.0,0.0,0.613,3.3,5.3,0.582,1.4,2.5,80.0,80.0,NBA,25.2,2.7,2.8,C,8.0,2016,0.5,OKC,1.1,6.7
23.0,1.1,1.0,4.2,0.571,0.572,4.7,8.2,0.0,0.0,0.0,0.571,4.7,8.2,0.611,2.0,3.2,80.0,80.0,NBA,29.9,3.5,2.4,C,11.3,2017,1.1,OKC,1.8,7.7
24.0,1.2,1.0,4.0,0.629,0.631,5.9,9.3,0.0,0.0,0.0,0.629,5.9,9.4,0.559,2.1,3.8,76.0,76.0,NBA,32.7,5.1,2.8,C,13.9,2018,1.2,OKC,1.7,9.0
25.0,1.6,1.0,4.6,0.595,0.596,6.0,10.1,0.0,0.0,0.0,0.595,6.0,10.1,0.5,1.8,3.7,80.0,80.0,NBA,33.4,4.9,2.6,C,13.9,2019,1.5,OKC,1.7,9.5
26.0,1.8,0.8,8.0,0.385,0.385,3.0,7.8,0.0,0.0,0.0,0.385,3.0,7.8,0.313,1.0,3.2,5.0,5.0,NBA,27.0,3.6,2.2,C,7.0,2020,0.4,OKC,1.2,11.6
