age,ast_per_poss,blk_per_poss,def_rtg,drb_per_poss,fg2_pct,fg2_per_poss,fg2a_per_poss,fg3_pct,fg3_per_poss,fg3a_per_poss,fg_pct,fg_per_poss,fga_per_poss,ft_pct,ft_per_poss,fta_per_poss,g,gs,lg_id,mp,off_rtg,orb_per_poss,pf_per_poss,pos,pts_per_poss,season,stl_per_poss,team_id,tov_per_poss,trb_per_poss
23.0,3.4,0.0,116.0,0.0,0.0,0.0,6.7,0.0,0.0,3.4,0.0,0.0,10.1,0.0,0.0,6.7,4.0,0.0,NBA,16.0,11.0,0.0,0.0,PG,0.0,2000,0.0,MIL,3.4,0.0
24.0,6.8,0.0,116.0,0.0,0.0,0.0,6.8,0.0,0.0,0.0,0.0,0.0,6.8,0.0,0.0,0.0,5.0,0.0,NBA,8.0,17.0,0.0,0.0,PG,0.0,2001,0.0,MIL,13.6,0.0
27.0,4.1,0.2,102.0,4.7,0.436,3.2,7.3,0.231,2.3,9.8,0.319,5.5,17.1,0.84,4.0,4.7,13.0,0.0,NBA,295.0,96.0,0.8,4.1,PG,17.1,2004,0.9,MIA,1.9,5.5
30.0,6.2,0.5,102.0,7.4,0.375,1.6,4.3,0.32,2.8,8.9,0.338,4.4,13.1,0.769,1.8,2.3,7.0,7.0,NBA,309.0,95.0,1.1,4.1,PG,13.5,2007,2.3,HOU,3.0,8.5
31.0,8.1,0.0,111.0,1.8,0.435,4.5,10.3,0.44,4.9,11.2,0.438,9.4,21.6,0.8,1.8,2.2,4.0,4.0,NBA,126.0,117.0,0.9,3.1,PG,25.6,2008,1.8,HOU,2.7,2.7
32.0,6.8,0.3,106.0,3.9,0.422,5.1,12.1,0.319,2.6,8.2,0.38,7.7,20.3,0.75,2.4,3.2,23.0,23.0,NBA,740.0,97.0,0.2,3.9,PG,20.4,2009,2.4,ORL,2.9,4.1
