age,ast_per_poss,blk_per_poss,def_rtg,drb_per_poss,fg2_pct,fg2_per_poss,fg2a_per_poss,fg3_pct,fg3_per_poss,fg3a_per_poss,fg_pct,fg_per_poss,fga_per_poss,ft_pct,ft_per_poss,fta_per_poss,g,gs,lg_id,mp,off_rtg,orb_per_poss,pf_per_poss,pos,pts_per_poss,season,stl_per_poss,team_id,tov_per_poss,trb_per_poss
23.0,6.1,1.3,105.0,3.4,0.47,11.0,23.5,0.213,0.3,1.5,0.455,11.4,25.0,0.684,6.0,8.7,82.0,82.0,NBA,3064.0,99.0,2.6,3.8,SG,29.0,1987,3.2,CLE,5.3,6.1
24.0,7.6,1.4,104.0,4.3,0.473,9.1,19.2,0.15,0.1,0.5,0.464,9.2,19.7,0.705,5.3,7.5,57.0,52.0,NBA,1830.0,102.0,1.7,4.2,SG,23.7,1988,3.3,CLE,4.3,6.0
25.0,7.5,1.3,102.0,4.9,0.54,9.6,17.7,0.25,0.5,2.0,0.511,10.1,19.7,0.751,5.5,7.4,82.0,82.0,NBA,2851.0,112.0,2.1,3.8,SG,26.2,1989,3.2,CLE,4.0,7.0
26.0,6.5,1.5,106.0,4.7,0.49,10.2,20.9,0.275,0.5,1.8,0.473,10.7,22.7,0.788,6.5,8.2,35.0,35.0,NBA,1367.0,110.0,2.6,3.7,SG,28.5,1990,2.9,TOT,3.6,7.4
26.0,9.5,1.7,105.0,5.6,0.451,11.6,25.7,0.2,0.2,1.0,0.442,11.8,26.6,0.756,6.0,7.9,7.0,7.0,NBA,262.0,108.0,3.7,4.8,SG,29.7,1990,2.7,CLE,3.5,9.3
26.0,5.8,1.4,106.0,4.5,0.501,9.9,19.8,0.283,0.6,2.0,0.481,10.5,21.9,0.795,6.6,8.3,28.0,28.0,NBA,1105.0,111.0,2.4,3.5,SG,28.2,1990,2.9,LAC,3.6,6.9
27.0,7.3,1.2,107.0,4.5,0.408,8.2,20.2,0.324,1.7,5.1,0.391,9.9,25.3,0.668,5.0,7.5,39.0,34.0,NBA,1383.0,96.0,2.0,3.9,SG,26.5,1991,2.3,LAC,4.5,6.5
28.0,6.6,1.1,105.0,5.2,0.467,8.0,17.1,0.303,1.0,3.3,0.44,9.0,20.4,0.736,4.6,6.3,82.0,82.0,NBA,3144.0,102.0,1.9,3.1,SG,23.6,1992,2.4,LAC,4.0,7.1
29.0,5.9,1.2,106.0,5.0,0.482,8.0,16.6,0.28,0.8,3.0,0.451,8.8,19.6,0.769,5.0,6.5,80.0,77.0,NBA,2970.0,105.0,1.9,3.5,SG,23.5,1993,2.9,LAC,3.6,6.9
30.0,5.8,0.9,108.0,5.6,0.453,8.4,18.5,0.301,1.2,4.0,0.426,9.6,22.5,0.715,5.0,7.1,75.0,75.0,NBA,2856.0,99.0,2.2,2.8,SG,25.4,1994,2.4,LAC,4.1,7.8
31.0,5.3,0.9,103.0,4.4,0.467,6.0,12.9,0.282,1.1,3.7,0.426,7.1,16.7,0.618,2.8,4.4,77.0,53.0,NBA,1536.0,98.0,1.7,4.5,SG,18.0,1995,3.3,CHI,3.4,6.1
32.0,5.8,0.9,102.0,3.9,0.519,5.8,11.1,0.269,0.8,2.9,0.467,6.5,14.0,0.705,2.7,3.9,80.0,80.0,NBA,1886.0,117.0,2.1,3.8,PG,16.6,1996,2.9,CHI,2.0,6.0
33.0,5.9,1.2,102.0,4.5,0.5,3.3,6.7,0.362,2.1,5.8,0.436,5.4,12.4,0.707,1.8,2.5,76.0,74.0,NBA,1740.0,120.0,1.4,4.2,PG,14.7,1997,2.6,CHI,1.5,5.9
34.0,5.7,1.1,100.0,4.3,0.477,6.5,13.7,0.19,0.4,2.0,0.441,6.9,15.7,0.75,3.8,5.1,82.0,82.0,NBA,2284.0,111.0,2.5,4.3,PG,18.0,1998,2.5,CHI,2.1,6.8
35.0,5.7,1.7,100.0,6.4,0.393,5.9,15.0,0.318,1.3,4.2,0.377,7.2,19.2,0.703,3.5,5.0,35.0,35.0,NBA,1107.0,93.0,2.4,3.9,SG,19.3,1999,3.0,CHI,3.2,8.9
36.0,6.8,1.0,98.0,6.1,0.421,4.5,10.7,0.311,0.8,2.7,0.399,5.3,13.4,0.68,2.5,3.7,80.0,78.0,NBA,2042.0,98.0,2.4,4.1,PG,14.0,2000,2.1,LAL,3.3,8.5
37.0,5.2,1.1,105.0,5.5,0.543,5.0,9.1,0.264,0.9,3.3,0.469,5.8,12.4,0.708,1.6,2.2,47.0,46.0,NBA,1139.0,104.0,2.1,3.2,PG,14.1,2001,1.8,LAL,2.8,7.6
