age,ast,ast_per_g,blk,college_id,fg,fg3,fg3_pct,fg3a,fg_pct,fga,ft,ft_pct,fta,g,mp,mp_per_g,orb,pf,pts,pts_per_g,season,stl,tov,trb,trb_per_g
20.0,40.0,1.2,15.0,ALABAMA,194.0,64.0,0.418,153.0,0.47,413.0,102.0,0.699,146.0,33.0,917.0,27.8,0.0,98.0,554.0,16.8,1991,35.0,76.0,130.0,3.9
21.0,79.0,2.3,10.0,ALABAMA,237.0,83.0,0.358,232.0,0.445,533.0,104.0,0.712,146.0,34.0,1217.0,35.8,0.0,78.0,661.0,19.4,1992,38.0,108.0,138.0,4.1
22.0,68.0,2.3,21.0,ALABAMA,202.0,78.0,0.351,222.0,0.42,481.0,116.0,0.682,170.0,29.0,1000.0,34.5,0.0,67.0,598.0,20.6,1993,47.0,93.0,130.0,4.5
