age,ast_per_g,blk_per_g,drb_per_g,efg_pct,fg2_pct,fg2_per_g,fg2a_per_g,fg3_pct,fg3_per_g,fg3a_per_g,fg_pct,fg_per_g,fga_per_g,ft_pct,ft_per_g,fta_per_g,g,gs,lg_id,mp_per_g,orb_per_g,pf_per_g,pos,pts_per_g,season,stl_per_g,team_id,tov_per_g,trb_per_g
24.0,4.1,1.3,6.9,0.452,0.462,5.8,12.4,0.288,1.9,6.5,0.403,7.6,18.9,0.764,7.5,9.8,16.0,16.0,NBA,42.0,1.7,3.3,SG,24.6,2002,1.7,BOS,3.8,8.6
25.0,6.7,0.8,7.9,0.44,0.412,6.1,14.8,0.356,1.6,4.5,0.399,7.7,19.3,0.863,10.1,11.7,10.0,10.0,NBA,44.5,1.1,3.8,SG,27.1,2003,2.1,BOS,4.4,9.0
26.0,2.5,1.0,7.3,0.375,0.356,5.3,14.8,0.294,1.3,4.3,0.342,6.5,19.0,0.839,6.5,7.8,4.0,4.0,NBA,40.5,1.5,3.0,SG,20.8,2004,1.3,BOS,6.3,8.8
27.0,4.6,1.4,6.7,0.543,0.606,5.7,9.4,0.259,1.0,3.9,0.505,6.7,13.3,0.868,8.4,9.7,7.0,7.0,NBA,39.6,1.0,2.6,SF,22.9,2005,1.9,BOS,2.7,7.7
30.0,4.6,0.3,4.2,0.499,0.478,4.6,9.7,0.361,1.7,4.6,0.441,6.3,14.2,0.802,5.5,6.8,26.0,26.0,NBA,38.1,0.8,3.5,SF,19.7,2008,1.1,BOS,3.2,5.0
31.0,3.1,0.4,5.5,0.473,0.463,5.4,11.7,0.333,1.4,4.1,0.43,6.8,15.8,0.842,6.1,7.2,14.0,14.0,NBA,39.7,0.3,3.1,SF,21.0,2009,1.1,BOS,2.4,5.8
32.0,3.4,0.6,5.1,0.497,0.457,4.5,9.8,0.392,1.7,4.3,0.438,6.1,14.0,0.824,4.9,5.9,24.0,24.0,NBA,38.8,0.8,3.3,SF,18.8,2010,1.0,BOS,2.7,6.0
33.0,2.8,0.4,4.4,0.53,0.465,5.2,11.2,0.447,2.3,5.2,0.459,7.6,16.4,0.882,3.3,3.8,9.0,9.0,NBA,38.1,0.6,3.3,SF,20.8,2011,1.3,BOS,2.7,5.0
34.0,3.1,0.9,5.4,0.429,0.415,4.7,11.2,0.31,1.4,4.4,0.386,6.0,15.6,0.894,5.5,6.2,20.0,20.0,NBA,38.9,0.7,3.4,SF,18.9,2012,1.5,BOS,2.8,6.1
35.0,5.3,0.5,5.0,0.42,0.431,4.7,10.8,0.268,1.8,6.8,0.368,6.5,17.7,0.897,4.3,4.8,6.0,6.0,NBA,42.5,0.7,3.5,SF,19.2,2013,0.8,BOS,5.3,5.7
36.0,2.0,0.3,4.2,0.539,0.539,3.4,6.3,0.358,1.6,4.4,0.465,5.0,10.8,0.781,2.1,2.7,12.0,12.0,NBA,30.7,0.3,3.7,SF,13.7,2014,1.2,BRK,1.7,4.5
37.0,0.9,0.7,4.2,0.652,0.417,1.5,3.6,0.524,3.3,6.3,0.485,4.8,9.9,0.85,1.7,2.0,10.0,10.0,NBA,29.8,0.0,3.3,SF,14.6,2015,0.6,WAS,1.0,4.2
38.0,0.2,0.0,1.2,0.208,0.143,0.2,1.4,0.2,0.2,1.0,0.167,0.4,2.4,0.25,0.2,0.8,5.0,1.0,NBA,10.8,0.0,1.2,SF,1.2,2016,0.4,LAC,0.4,1.2
39.0,1.0,0.0,1.7,0.556,0.5,0.6,1.1,0.4,0.6,1.4,0.444,1.1,2.6,1.0,0.1,0.1,7.0,0.0,NBA,14.4,0.3,1.6,SF,3.0,2017,0.3,LAC,0.6,2.0
