age,avg_dist,fg2_dunk,fg2_pct,fg2_pct_ast,fg2a_pct_fga,fg3_heave,fg3_pct,fg3_pct_ast,fg3_pct_corner,fg3a_heave,fg3a_pct_fga,fg_pct,fg_pct_00_03,fg_pct_03_10,fg_pct_10_16,fg_pct_16_xx,g,lg_id,mp,pct_fg2_dunk,pct_fg3a_corner,pct_fga_00_03,pct_fga_03_10,pct_fga_10_16,pct_fga_16_xx,pos,season,team_id
23.0,13.4,16.0,0.478,0.576,0.746,0.0,0.383,0.891,0.397,2.0,0.254,0.454,0.592,0.374,0.423,0.435,82.0,NBA,3120.0,0.014,0.19,0.261,0.115,0.147,0.223,SF,2001,BOS
24.0,14.9,50.0,0.461,0.543,0.675,1.0,0.404,0.767,0.281,6.0,0.325,0.442,0.6,0.289,0.354,0.411,82.0,NBA,3302.0,0.033,0.11,0.26,0.071,0.118,0.225,SG,2002,BOS
25.0,13.6,46.0,0.454,0.415,0.754,0.0,0.302,0.703,0.229,5.0,0.246,0.416,0.637,0.246,0.388,0.343,79.0,NBA,3096.0,0.032,0.09,0.287,0.074,0.143,0.251,SG,2003,BOS
26.0,15.0,36.0,0.438,0.446,0.743,0.0,0.299,0.791,0.156,4.0,0.257,0.402,0.564,0.27,0.386,0.415,80.0,NBA,3099.0,0.026,0.083,0.214,0.074,0.149,0.306,SG,2004,BOS
27.0,13.5,32.0,0.481,0.404,0.761,0.0,0.37,0.778,0.321,1.0,0.239,0.455,0.627,0.33,0.39,0.421,82.0,NBA,2960.0,0.029,0.182,0.28,0.084,0.134,0.262,SF,2005,BOS
28.0,12.6,49.0,0.503,0.413,0.785,0.0,0.354,0.829,0.447,2.0,0.215,0.471,0.617,0.232,0.436,0.456,79.0,NBA,3084.0,0.036,0.121,0.341,0.068,0.133,0.243,SF,2006,BOS
29.0,15.2,9.0,0.463,0.417,0.676,0.0,0.389,0.897,0.516,2.0,0.324,0.439,0.553,0.297,0.439,0.412,47.0,NBA,1740.0,0.011,0.113,0.258,0.044,0.115,0.26,SG,2007,BOS
30.0,14.2,16.0,0.499,0.322,0.668,0.0,0.392,0.881,0.436,1.0,0.332,0.464,0.61,0.418,0.41,0.421,80.0,NBA,2874.0,0.016,0.107,0.287,0.072,0.131,0.178,SF,2008,BOS
31.0,13.8,10.0,0.48,0.363,0.743,0.0,0.391,0.924,0.452,1.0,0.257,0.457,0.551,0.425,0.452,0.435,81.0,NBA,3035.0,0.008,0.138,0.266,0.062,0.187,0.228,SF,2009,BOS
32.0,13.3,21.0,0.497,0.41,0.697,0.0,0.414,0.917,0.444,0.0,0.303,0.472,0.629,0.375,0.369,0.399,71.0,NBA,2411.0,0.025,0.103,0.321,0.065,0.141,0.171,SF,2010,BOS
33.0,13.6,38.0,0.547,0.455,0.709,0.0,0.374,0.892,0.606,1.0,0.291,0.497,0.718,0.366,0.484,0.418,80.0,NBA,2774.0,0.038,0.111,0.288,0.091,0.152,0.178,SF,2011,BOS
34.0,14.4,20.0,0.476,0.469,0.693,0.0,0.366,0.88,0.351,0.0,0.307,0.443,0.67,0.317,0.389,0.35,61.0,NBA,2075.0,0.025,0.136,0.262,0.071,0.162,0.199,SF,2012,BOS
35.0,15.1,18.0,0.466,0.417,0.65,0.0,0.38,0.924,0.314,0.0,0.35,0.436,0.593,0.297,0.463,0.382,77.0,NBA,2575.0,0.018,0.092,0.232,0.083,0.16,0.175,SF,2013,BOS
36.0,15.7,19.0,0.507,0.474,0.579,0.0,0.373,0.946,0.545,0.0,0.421,0.451,0.639,0.34,0.424,0.449,75.0,NBA,2098.0,0.031,0.073,0.237,0.074,0.129,0.138,SF,2014,BRK
37.0,17.1,12.0,0.496,0.571,0.538,0.0,0.389,1.0,0.431,0.0,0.462,0.447,0.62,0.405,0.411,0.439,73.0,NBA,1914.0,0.02,0.191,0.197,0.056,0.111,0.174,SF,2015,WAS
38.0,19.6,1.0,0.445,0.493,0.39,0.0,0.31,0.96,0.222,0.0,0.61,0.363,0.407,0.318,0.438,0.517,68.0,NBA,1231.0,0.003,0.112,0.068,0.055,0.121,0.146,SF,2016,LAC
39.0,20.0,1.0,0.481,0.615,0.386,0.0,0.349,1.0,0.6,0.0,0.614,0.4,0.5,1.0,0.556,0.3,25.0,NBA,277.0,0.014,0.116,0.086,0.029,0.129,0.143,SF,2017,LAC
