lg_id,salary,season,team_name
NBA,1165000.0,1999,Boston Celtics
NBA,1503960.0,2000,Boston Celtics
NBA,1608840.0,2001,Boston Celtics
NBA,2051271.0,2002,Boston Celtics
NBA,10067750.0,2003,Boston Celtics
NBA,11326219.0,2004,Boston Celtics
NBA,12584688.0,2005,Boston Celtics
NBA,13843156.0,2006,Boston Celtics
NBA,15101625.0,2007,Boston Celtics
NBA,16360094.0,2008,Boston Celtics
NBA,18077903.0,2009,Boston Celtics
NBA,19795712.0,2010,Boston Celtics
NBA,13876321.0,2011,Boston Celtics
NBA,15333334.0,2012,Boston Celtics
NBA,16790345.0,2013,Boston Celtics
NBA,15333334.0,2014,Brooklyn Nets
NBA,5305000.0,2015,Washington Wizards
NBA,3400000.0,2016,Los Angeles Clippers
NBA,3500000.0,2017,Los Angeles Clippers
NBA,1096080.0,2018,Los Angeles Clippers
