age,ast,blk,drb,efg_pct,fg,fg2,fg2_pct,fg2a,fg3,fg3_pct,fg3a,fg_pct,fga,ft,ft_pct,fta,g,gs,lg_id,mp,orb,pf,pos,pts,season,stl,team_id,tov,trb
24.0,66.0,20.0,110.0,0.452,122.0,92.0,0.462,199.0,30.0,0.288,104.0,0.403,303.0,120.0,0.764,157.0,16.0,16.0,NBA,672.0,27.0,52.0,SG,394.0,2002,27.0,BOS,61.0,137.0
25.0,67.0,8.0,79.0,0.44,77.0,61.0,0.412,148.0,16.0,0.356,45.0,0.399,193.0,101.0,0.863,117.0,10.0,10.0,NBA,445.0,11.0,38.0,SG,271.0,2003,21.0,BOS,44.0,90.0
26.0,10.0,4.0,29.0,0.375,26.0,21.0,0.356,59.0,5.0,0.294,17.0,0.342,76.0,26.0,0.839,31.0,4.0,4.0,NBA,162.0,6.0,12.0,SG,83.0,2004,5.0,BOS,25.0,35.0
27.0,32.0,10.0,47.0,0.543,47.0,40.0,0.606,66.0,7.0,0.259,27.0,0.505,93.0,59.0,0.868,68.0,7.0,7.0,NBA,277.0,7.0,18.0,SF,160.0,2005,13.0,BOS,19.0,54.0
30.0,119.0,8.0,108.0,0.499,163.0,120.0,0.478,251.0,43.0,0.361,119.0,0.441,370.0,142.0,0.802,177.0,26.0,26.0,NBA,990.0,21.0,90.0,SF,511.0,2008,28.0,BOS,82.0,129.0
31.0,43.0,5.0,77.0,0.473,95.0,76.0,0.463,164.0,19.0,0.333,57.0,0.43,221.0,85.0,0.842,101.0,14.0,14.0,NBA,556.0,4.0,44.0,SF,294.0,2009,15.0,BOS,33.0,81.0
32.0,82.0,14.0,123.0,0.497,147.0,107.0,0.457,234.0,40.0,0.392,102.0,0.438,336.0,117.0,0.824,142.0,24.0,24.0,NBA,930.0,20.0,80.0,SF,451.0,2010,24.0,BOS,64.0,143.0
33.0,25.0,4.0,40.0,0.53,68.0,47.0,0.465,101.0,21.0,0.447,47.0,0.459,148.0,30.0,0.882,34.0,9.0,9.0,NBA,343.0,5.0,30.0,SF,187.0,2011,12.0,BOS,24.0,45.0
34.0,62.0,18.0,107.0,0.429,120.0,93.0,0.415,224.0,27.0,0.31,87.0,0.386,311.0,110.0,0.894,123.0,20.0,20.0,NBA,778.0,14.0,68.0,SF,377.0,2012,30.0,BOS,56.0,121.0
35.0,32.0,3.0,30.0,0.42,39.0,28.0,0.431,65.0,11.0,0.268,41.0,0.368,106.0,26.0,0.897,29.0,6.0,6.0,NBA,255.0,4.0,21.0,SF,115.0,2013,5.0,BOS,32.0,34.0
36.0,24.0,4.0,50.0,0.539,60.0,41.0,0.539,76.0,19.0,0.358,53.0,0.465,129.0,25.0,0.781,32.0,12.0,12.0,NBA,368.0,4.0,44.0,SF,164.0,2014,14.0,BRK,20.0,54.0
37.0,9.0,7.0,42.0,0.652,48.0,15.0,0.417,36.0,33.0,0.524,63.0,0.485,99.0,17.0,0.85,20.0,10.0,10.0,NBA,298.0,0.0,33.0,SF,146.0,2015,6.0,WAS,10.0,42.0
38.0,1.0,0.0,6.0,0.208,2.0,1.0,0.143,7.0,1.0,0.2,5.0,0.167,12.0,1.0,0.25,4.0,5.0,1.0,NBA,54.0,0.0,6.0,SF,6.0,2016,2.0,LAC,2.0,6.0
39.0,7.0,0.0,12.0,0.556,8.0,4.0,0.5,8.0,4.0,0.4,10.0,0.444,18.0,1.0,1.0,1.0,7.0,0.0,NBA,101.0,2.0,11.0,SF,21.0,2017,2.0,LAC,4.0,14.0
