age,ast,blk,drb,fg,fg2,fg2a,fg3,fg3a,fga,ft,fta,game_score,lg_id,mp,orb,pf,pts,season,stl,team_id,tov,trb
21.0,6.0,4.0,9.0,12.0,9.0,17.0,5.0,11.0,21.0,10.0,14.0,26.0,NBA,0.0,9.0,6.0,31.0,1999,7.0,BOS,5.0,13.0
22.0,9.0,4.0,10.0,12.0,12.0,20.0,5.0,10.0,25.0,12.0,17.0,33.7,NBA,0.0,4.0,6.0,38.0,2000,9.0,BOS,7.0,12.0
23.0,7.0,3.0,12.0,16.0,14.0,24.0,5.0,9.0,30.0,18.0,21.0,35.8,NBA,0.0,6.0,6.0,44.0,2001,6.0,BOS,9.0,15.0
24.0,8.0,5.0,12.0,15.0,11.0,26.0,8.0,14.0,34.0,17.0,20.0,33.7,NBA,0.0,5.0,6.0,48.0,2002,7.0,BOS,7.0,13.0
25.0,13.0,4.0,13.0,16.0,12.0,25.0,5.0,10.0,34.0,20.0,21.0,38.5,NBA,0.0,4.0,6.0,46.0,2003,5.0,BOS,9.0,15.0
26.0,13.0,4.0,13.0,13.0,13.0,26.0,4.0,12.0,32.0,16.0,23.0,36.2,NBA,0.0,4.0,6.0,41.0,2004,5.0,BOS,9.0,14.0
27.0,10.0,3.0,13.0,14.0,13.0,21.0,5.0,8.0,26.0,18.0,20.0,34.0,NBA,0.0,4.0,6.0,38.0,2005,5.0,BOS,7.0,15.0
28.0,10.0,3.0,12.0,17.0,17.0,32.0,5.0,9.0,36.0,18.0,24.0,36.2,NBA,55.0,5.0,6.0,50.0,2006,6.0,BOS,7.0,15.0
29.0,9.0,1.0,18.0,12.0,11.0,21.0,7.0,14.0,28.0,19.0,22.0,32.1,NBA,53.0,3.0,5.0,39.0,2007,3.0,BOS,12.0,19.0
30.0,12.0,3.0,11.0,12.0,10.0,20.0,6.0,11.0,27.0,14.0,14.0,30.7,NBA,47.0,5.0,5.0,37.0,2008,5.0,BOS,6.0,13.0
31.0,8.0,2.0,11.0,14.0,12.0,21.0,7.0,9.0,26.0,15.0,16.0,29.3,NBA,50.0,4.0,5.0,39.0,2009,3.0,BOS,7.0,12.0
32.0,7.0,4.0,10.0,12.0,12.0,17.0,6.0,7.0,19.0,12.0,13.0,29.0,NBA,44.0,5.0,6.0,35.0,2010,6.0,BOS,8.0,11.0
33.0,12.0,3.0,13.0,11.0,9.0,16.0,4.0,8.0,20.0,12.0,13.0,31.1,NBA,44.0,4.0,5.0,33.0,2011,4.0,BOS,6.0,14.0
34.0,14.0,3.0,10.0,13.0,9.0,18.0,4.0,10.0,23.0,17.0,18.0,33.8,NBA,49.0,3.0,6.0,43.0,2012,4.0,BOS,7.0,10.0
35.0,14.0,3.0,14.0,13.0,10.0,17.0,6.0,10.0,25.0,10.0,12.0,41.8,NBA,55.0,4.0,6.0,40.0,2013,4.0,BOS,7.0,15.0
36.0,6.0,3.0,10.0,10.0,7.0,14.0,7.0,11.0,18.0,14.0,14.0,28.9,NBA,45.0,2.0,5.0,33.0,2014,6.0,BRK,6.0,10.0
37.0,5.0,3.0,8.0,9.0,6.0,11.0,4.0,9.0,16.0,10.0,14.0,26.4,NBA,39.0,4.0,6.0,28.0,2015,3.0,WAS,4.0,12.0
38.0,5.0,3.0,8.0,7.0,4.0,7.0,5.0,8.0,12.0,6.0,6.0,16.4,NBA,33.0,1.0,5.0,20.0,2016,3.0,LAC,5.0,9.0
39.0,3.0,1.0,6.0,4.0,2.0,4.0,2.0,5.0,7.0,2.0,2.0,8.7,NBA,29.0,1.0,5.0,10.0,2017,1.0,LAC,2.0,6.0
