age,ast,blk,drb,fg,fg2,fg2a,fg3,fg3a,fga,ft,fta,game_score,lg_id,mp,orb,pf,pts,season,stl,team_id,tov,trb
23.0,7.0,1.0,8.0,13.0,13.0,21.0,1.0,2.0,21.0,7.0,9.0,26.9,NBA,0.0,3.0,6.0,30.0,1990,2.0,SAS,4.0,10.0
24.0,7.0,2.0,7.0,18.0,18.0,22.0,2.0,5.0,25.0,5.0,9.0,30.1,NBA,0.0,1.0,5.0,38.0,1991,3.0,SAS,6.0,7.0
26.0,6.0,1.0,4.0,8.0,7.0,16.0,2.0,4.0,17.0,6.0,6.0,16.6,NBA,0.0,1.0,5.0,19.0,1993,3.0,SAS,4.0,5.0
27.0,7.0,1.0,3.0,6.0,6.0,13.0,1.0,1.0,13.0,3.0,4.0,14.2,NBA,0.0,2.0,3.0,15.0,1994,4.0,SAS,2.0,3.0
28.0,5.0,0.0,3.0,3.0,3.0,7.0,0.0,1.0,7.0,2.0,3.0,7.6,NBA,0.0,2.0,5.0,8.0,1995,3.0,SAS,3.0,5.0
29.0,1.0,0.0,4.0,3.0,3.0,8.0,1.0,2.0,9.0,2.0,3.0,3.8,NBA,0.0,1.0,3.0,6.0,1996,2.0,TOT,3.0,5.0
29.0,1.0,0.0,4.0,3.0,3.0,8.0,1.0,2.0,9.0,2.0,3.0,3.8,NBA,0.0,1.0,3.0,6.0,1996,2.0,NYK,3.0,5.0
30.0,4.0,1.0,5.0,4.0,3.0,6.0,1.0,3.0,6.0,3.0,4.0,7.9,NBA,0.0,1.0,5.0,9.0,1997,2.0,MIA,4.0,6.0
