age,ast_per_poss,blk_per_poss,def_rtg,drb_per_poss,fg2_pct,fg2_per_poss,fg2a_per_poss,fg3_pct,fg3_per_poss,fg3a_per_poss,fg_pct,fg_per_poss,fga_per_poss,ft_pct,ft_per_poss,fta_per_poss,g,gs,lg_id,mp,off_rtg,orb_per_poss,pf_per_poss,pos,pts_per_poss,season,stl_per_poss,team_id,tov_per_poss,trb_per_poss
21.0,0.0,0.5,114.0,6.1,0.543,9.6,17.8,0.0,0.0,0.0,0.543,9.6,17.8,1.0,4.6,4.6,6.0,6.0,NBA,104.0,127.0,6.1,5.6,C,23.9,2010,1.0,PHO,1.5,12.2
25.0,1.2,2.8,112.0,7.5,0.489,5.9,12.2,0.0,0.0,0.0,0.489,5.9,12.2,0.667,3.3,5.0,11.0,11.0,NBA,367.0,118.0,6.5,5.5,C,15.2,2014,0.8,POR,1.5,14.0
26.0,1.3,2.2,110.0,5.8,0.6,4.0,6.7,0.0,0.0,0.0,0.6,4.0,6.7,1.0,3.6,3.6,5.0,5.0,NBA,117.0,126.0,4.0,6.7,C,11.6,2015,0.4,POR,2.2,9.8
28.0,1.6,1.9,114.0,4.8,0.654,10.9,16.7,0.0,0.0,0.0,0.654,10.9,16.7,1.0,2.6,2.6,6.0,6.0,NBA,162.0,134.0,9.0,4.2,C,24.4,2017,1.0,CHI,2.6,13.8
