lg_id,salary,season,team_name
NBA,1623720.0,2009,Phoenix Suns
NBA,1745520.0,2010,Phoenix Suns
NBA,1867320.0,2011,Phoenix Suns
NBA,2862602.0,2012,Phoenix Suns
NBA,4899293.0,2013,New Orleans Hornets
NBA,5904261.0,2014,Portland Trail Blazers
NBA,6124728.0,2015,Portland Trail Blazers
NBA,13000000.0,2016,New York Knicks
NBA,13219250.0,2017,Chicago Bulls
NBA,13788500.0,2018,Chicago Bulls
NBA,14357750.0,2019,Chicago Bulls
