age,ast_per_mp,blk_per_mp,drb_per_mp,fg2_pct,fg2_per_mp,fg2a_per_mp,fg3_pct,fg3_per_mp,fg3a_per_mp,fg_pct,fg_per_mp,fga_per_mp,ft_pct,ft_per_mp,fta_per_mp,g,gs,lg_id,mp,orb_per_mp,pf_per_mp,pos,pts_per_mp,season,stl_per_mp,team_id,tov_per_mp,trb_per_mp
22.0,3.1,0.0,4.1,0.5,2.1,4.1,0.0,0.0,0.0,0.5,2.1,4.1,0.0,0.0,0.0,4.0,0.0,NBA,35.0,1.0,3.1,SG,4.1,1978,1.0,POR,1.0,5.1
23.0,2.8,0.0,2.8,0.455,3.5,7.6,0.0,0.0,0.0,0.455,3.5,7.6,0.0,0.0,0.0,3.0,0.0,NBA,52.0,1.4,4.8,SG,6.9,1979,3.5,POR,0.7,4.2
24.0,6.0,0.0,4.5,0.25,3.0,12.0,0.0,0.0,0.0,0.25,3.0,12.0,1.0,3.0,3.0,3.0,0.0,NBA,24.0,1.5,4.5,SG,9.0,1980,1.5,POR,1.5,6.0
26.0,4.4,0.4,3.6,0.462,2.7,5.8,0.0,0.0,0.0,0.462,2.7,5.8,0.875,3.1,3.6,3.0,0.0,NBA,81.0,4.4,4.9,SG,8.4,1982,3.6,DEN,2.2,8.0
27.0,2.4,0.4,6.1,0.439,2.2,4.9,0.0,0.0,0.0,0.439,2.2,4.9,0.625,0.6,1.0,8.0,0.0,NBA,300.0,3.2,2.5,SG,4.9,1983,1.4,DEN,1.7,9.4
28.0,1.6,0.8,3.8,0.56,2.8,5.1,0.0,0.0,0.0,0.56,2.8,5.1,0.714,1.0,1.4,5.0,0.0,NBA,178.0,4.0,3.8,SG,6.7,1984,2.0,DEN,1.6,7.9
29.0,3.3,0.3,3.2,0.415,2.6,6.3,0.0,0.0,0.0,0.415,2.6,6.3,0.737,1.4,1.8,15.0,15.0,NBA,371.0,2.6,4.4,SG,6.6,1985,2.3,DEN,1.0,5.8
30.0,1.7,0.0,4.0,0.435,2.6,6.0,0.0,0.0,0.0,0.435,2.6,6.0,0.643,1.2,1.8,10.0,10.0,NBA,276.0,2.9,4.4,SG,6.4,1986,2.1,DEN,0.4,6.9
31.0,3.3,1.6,3.3,0.25,1.6,6.5,0.0,0.0,0.0,0.25,1.6,6.5,0.0,0.0,0.0,3.0,0.0,NBA,22.0,1.6,4.9,SG,3.3,1987,1.6,DEN,1.6,4.9
32.0,0.6,0.0,3.5,0.55,2.1,3.9,0.0,0.0,0.0,0.55,2.1,3.9,0.5,0.8,1.6,11.0,3.0,NBA,185.0,2.1,3.9,SG,5.1,1988,1.6,DEN,0.8,5.6
33.0,0.5,0.0,3.6,0.429,1.4,3.2,0.0,0.0,0.0,0.429,1.4,3.2,0.5,0.5,0.9,8.0,0.0,NBA,79.0,3.2,5.0,SG,3.2,1989,2.3,PHO,0.9,6.8
34.0,2.3,1.2,7.0,0.0,0.0,0.0,0.0,0.0,0.0,0.0,0.0,0.0,0.0,0.0,0.0,3.0,0.0,NBA,31.0,1.2,3.5,SF,0.0,1990,4.6,DEN,1.2,8.1
