age,avg_dist,fg2_dunk,fg2_pct,fg2_pct_ast,fg2a_pct_fga,fg3_heave,fg3_pct,fg3_pct_ast,fg3_pct_corner,fg3a_heave,fg3a_pct_fga,fg_pct,fg_pct_00_03,fg_pct_03_10,fg_pct_10_16,fg_pct_16_xx,g,lg_id,mp,pct_fg2_dunk,pct_fg3a_corner,pct_fga_00_03,pct_fga_03_10,pct_fga_10_16,pct_fga_16_xx,pos,season,team_id
22.0,14.9,13.0,0.507,0.635,0.551,0.0,0.401,0.94,0.46,1.0,0.449,0.46,0.634,0.25,0.444,0.41,77.0,NBA,1742.0,0.043,0.299,0.301,0.097,0.048,0.105,SF,2014,PHI
23.0,17.2,4.0,0.426,0.67,0.471,0.0,0.401,0.983,0.421,0.0,0.529,0.413,0.579,0.319,0.515,0.25,71.0,NBA,1776.0,0.011,0.199,0.175,0.133,0.061,0.103,SG,2015,PHI
24.0,17.8,3.0,0.42,0.645,0.424,0.0,0.38,0.973,0.45,1.0,0.576,0.397,0.576,0.371,0.357,0.303,77.0,NBA,2154.0,0.004,0.306,0.146,0.103,0.062,0.112,SG,2016,PHI
25.0,15.6,2.0,0.429,0.733,0.525,0.0,0.337,0.969,0.351,0.0,0.475,0.385,0.553,0.375,0.4,0.211,40.0,NBA,752.0,0.01,0.389,0.235,0.12,0.075,0.095,SG,2017,TOT
25.0,15.4,2.0,0.455,0.75,0.553,0.0,0.366,1.0,0.417,0.0,0.447,0.415,0.615,0.333,0.429,0.235,31.0,NBA,561.0,0.013,0.338,0.245,0.113,0.088,0.107,SG,2017,PHI
25.0,16.4,0.0,0.294,0.6,0.415,0.0,0.25,0.833,0.231,0.0,0.585,0.268,0.25,0.5,0.0,0.0,9.0,NBA,191.0,0.0,0.542,0.195,0.146,0.024,0.049,SG,2017,NOP
