age,ast_pct,blk_pct,bpm,bpm-dum,dbpm,drb_pct,dws,fg3a_per_fga_pct,fta_per_fga_pct,g,lg_id,mp,obpm,orb_pct,ows,per,pos,season,stl_pct,team_id,tov_pct,trb_pct,ts_pct,usg_pct,vorp,ws,ws-dum,ws_per_48
22.0,6.1,0.5,-3.0,0.0,-1.2,11.2,0.6,0.449,0.196,77.0,NBA,1742.0,-1.8,4.4,1.4,9.5,SF,2014,1.5,PHI,12.9,7.7,0.57,11.3,-0.4,2.0,0.0,0.055
23.0,8.4,1.2,-2.1,0.0,-0.9,9.3,1.3,0.529,0.164,71.0,NBA,1776.0,-1.1,3.1,1.3,10.9,SG,2015,1.6,PHI,10.2,6.0,0.538,15.9,0.0,2.6,0.0,0.07
24.0,7.4,0.8,-3.1,0.0,-2.0,11.4,0.5,0.576,0.141,77.0,NBA,2154.0,-1.1,2.6,0.7,9.2,SG,2016,0.8,PHI,9.5,6.9,0.525,16.2,-0.6,1.2,0.0,0.026
25.0,6.8,0.6,-3.3,0.0,-0.5,13.5,0.6,0.475,0.145,40.0,NBA,752.0,-2.8,2.8,0.1,7.9,SG,2017,1.3,TOT,4.9,8.1,0.482,13.0,-0.2,0.7,0.0,0.047
25.0,7.0,0.8,-3.0,0.0,-0.8,13.6,0.4,0.447,0.126,31.0,NBA,561.0,-2.3,2.9,0.3,9.0,SG,2017,1.2,PHI,5.1,8.2,0.51,13.7,-0.1,0.7,0.0,0.06
25.0,6.3,0.0,-4.1,0.0,0.2,13.3,0.2,0.585,0.22,9.0,NBA,191.0,-4.3,2.2,-0.2,4.7,SG,2017,1.5,NOP,4.3,7.7,0.378,10.9,-0.1,0.0,0.0,0.007
