age,and1s,astd_pts,drawn_offensive,drawn_shooting,fouls_offensive,fouls_shooting,g,lg_id,mp,own_shots_blk,pct_1,pct_2,pct_3,pct_4,pct_5,plus_minus_net,plus_minus_on,pos,season,team_id,tov_bad_pass,tov_lost_ball
22.0,0.0,0.0,0.0,2.0,1.0,1.0,8.0,NBA,28.0,3.0,5.0,95.0,0.0,0.0,0.0,-21.5,-18.5,SG,2005,MEM,0.0,0.0
29.0,0.0,2.0,0.0,4.0,1.0,0.0,6.0,NBA,45.0,0.0,0.0,0.0,83.0,17.0,0.0,4.5,-2.3,SF,2012,NJN,0.0,0.0
