age,ast_per_mp,blk_per_mp,drb_per_mp,fg2_pct,fg2_per_mp,fg2a_per_mp,fg3_pct,fg3_per_mp,fg3a_per_mp,fg_pct,fg_per_mp,fga_per_mp,ft_pct,ft_per_mp,fta_per_mp,g,gs,lg_id,mp,orb_per_mp,pf_per_mp,pos,pts_per_mp,season,stl_per_mp,team_id,tov_per_mp,trb_per_mp
24.0,3.7,0.3,1.4,0.37,3.7,10.0,0.25,0.1,0.3,0.367,3.8,10.3,0.617,3.7,6.1,58.0,13.0,NBA,1070.0,0.9,4.2,SF,11.3,1998,2.1,HOU,3.3,2.4
25.0,2.5,0.5,1.8,0.267,2.8,10.4,0.143,0.2,1.6,0.25,3.0,12.0,0.64,3.7,5.8,13.0,1.0,NBA,156.0,2.1,4.8,SG-SF,9.9,1999,1.2,TOT,4.6,3.9
25.0,1.1,0.0,2.2,0.25,2.2,8.7,0.0,0.0,0.0,0.25,2.2,8.7,0.833,5.5,6.5,3.0,0.0,NBA,33.0,2.2,5.5,SF,9.8,1999,1.1,HOU,5.5,4.4
25.0,2.9,0.6,1.8,0.27,2.9,10.8,0.143,0.3,2.0,0.25,3.2,12.9,0.579,3.2,5.6,10.0,1.0,NBA,123.0,2.0,4.7,SG,10.0,1999,1.2,VAN,4.4,3.8
26.0,0.0,0.0,0.0,0.0,0.0,13.5,0.0,0.0,0.0,0.0,0.0,13.5,0.0,0.0,0.0,1.0,0.0,NBA,8.0,4.5,0.0,SF,0.0,2000,9.0,DAL,9.0,4.5
