lg_id,salary,season,team_name
NBA,130000.0,1992,Philadelphia 76ers
NBA,420000.0,1994,Milwaukee Bucks
NBA,500000.0,1995,Boston Celtics
NBA,1000000.0,1996,Los Angeles Lakers
NBA,247500.0,1997,Orlando Magic
NBA,326700.0,1998,Orlando Magic
NBA,3000000.0,1999,Orlando Magic
NBA,3159000.0,2000,Orlando Magic
NBA,3510000.0,2001,Los Angeles Clippers
NBA,3861000.0,2002,Los Angeles Clippers
NBA,4212000.0,2003,Los Angeles Clippers
