age,ast_per_poss,blk_per_poss,def_rtg,drb_per_poss,fg2_pct,fg2_per_poss,fg2a_per_poss,fg3_pct,fg3_per_poss,fg3a_per_poss,fg_pct,fg_per_poss,fga_per_poss,ft_pct,ft_per_poss,fta_per_poss,g,gs,lg_id,mp,off_rtg,orb_per_poss,pf_per_poss,pos,pts_per_poss,season,stl_per_poss,team_id,tov_per_poss,trb_per_poss
26.0,2.0,0.7,110.0,7.5,0.333,2.7,8.2,0.0,0.0,0.0,0.333,2.7,8.2,0.5,2.0,4.1,4.0,1.0,NBA,81.0,87.0,8.8,4.8,PF,7.5,1995,2.0,BOS,3.4,16.3
28.0,1.2,0.6,109.0,8.7,0.538,6.1,11.3,0.0,0.0,0.3,0.525,6.1,11.6,0.76,5.5,7.3,5.0,5.0,NBA,195.0,108.0,5.8,5.8,PF,17.7,1997,0.6,ORL,4.1,14.5
30.0,0.0,0.0,110.0,0.0,0.5,3.4,6.9,0.0,0.0,0.0,0.5,3.4,6.9,1.0,6.9,6.9,1.0,0.0,NBA,16.0,107.0,0.0,6.9,PF,13.7,1999,3.4,ORL,3.4,0.0
