age,ast_per_g,blk_per_g,drb_per_g,efg_pct,fg2_pct,fg2_per_g,fg2a_per_g,fg3_pct,fg3_per_g,fg3a_per_g,fg_pct,fg_per_g,fga_per_g,ft_pct,ft_per_g,fta_per_g,g,gs,lg_id,mp_per_g,orb_per_g,pf_per_g,pos,pts_per_g,season,stl_per_g,team_id,tov_per_g,trb_per_g
23.0,1.8,1.4,5.2,0.456,0.456,6.2,13.6,0.0,0.0,0.0,0.456,6.2,13.6,0.765,2.6,3.4,5.0,5.0,NBA,37.0,2.2,4.0,C,15.0,2004,0.4,HOU,2.6,7.4
24.0,0.7,2.7,4.4,0.655,0.655,7.9,12.0,0.0,0.0,0.0,0.655,7.9,12.0,0.727,5.7,7.9,7.0,7.0,NBA,31.4,3.3,4.4,C,21.4,2005,0.3,HOU,2.7,7.7
26.0,0.9,0.7,7.0,0.44,0.44,7.9,17.9,0.0,0.0,0.0,0.44,7.9,17.9,0.88,9.4,10.7,7.0,7.0,NBA,37.1,3.3,3.9,C,25.1,2007,0.1,HOU,4.7,10.3
28.0,1.0,1.2,8.8,0.545,0.545,6.0,11.0,0.0,0.0,0.0,0.545,6.0,11.0,0.902,5.1,5.7,9.0,9.0,NBA,35.9,2.1,3.0,C,17.1,2009,0.4,HOU,1.9,10.9
