age,ast,blk,drb,efg_pct,fg,fg2,fg2_pct,fg2a,fg3,fg3_pct,fg3a,fg_pct,fga,ft,ft_pct,fta,g,gs,lg_id,mp,orb,pf,pos,pts,season,stl,team_id,tov,trb
22.0,137.0,147.0,479.0,0.499,401.0,400.0,0.498,803.0,1.0,0.5,2.0,0.498,805.0,301.0,0.811,371.0,82.0,72.0,NBA,2382.0,196.0,230.0,C,1104.0,2003,31.0,HOU,173.0,675.0
23.0,122.0,156.0,538.0,0.522,535.0,535.0,0.523,1023.0,0.0,0.0,2.0,0.522,1025.0,361.0,0.809,446.0,82.0,82.0,NBA,2692.0,197.0,273.0,C,1431.0,2004,22.0,HOU,204.0,735.0
24.0,61.0,160.0,461.0,0.552,538.0,538.0,0.552,975.0,0.0,0.0,0.0,0.552,975.0,389.0,0.783,497.0,80.0,80.0,NBA,2447.0,208.0,298.0,C,1465.0,2005,34.0,HOU,196.0,669.0
25.0,85.0,94.0,433.0,0.519,467.0,467.0,0.519,899.0,0.0,0.0,1.0,0.519,900.0,337.0,0.853,395.0,57.0,57.0,NBA,1949.0,148.0,195.0,C,1271.0,2006,30.0,HOU,147.0,581.0
26.0,94.0,94.0,351.0,0.516,423.0,423.0,0.518,817.0,0.0,0.0,2.0,0.516,819.0,356.0,0.862,413.0,48.0,48.0,NBA,1624.0,101.0,159.0,C,1202.0,2007,17.0,HOU,167.0,452.0
27.0,129.0,111.0,422.0,0.507,432.0,432.0,0.508,850.0,0.0,0.0,2.0,0.507,852.0,345.0,0.85,406.0,55.0,55.0,NBA,2044.0,172.0,171.0,C,1209.0,2008,25.0,HOU,183.0,594.0
28.0,137.0,150.0,557.0,0.549,566.0,565.0,0.548,1031.0,1.0,1.0,1.0,0.548,1032.0,381.0,0.866,440.0,77.0,77.0,NBA,2589.0,204.0,257.0,C,1514.0,2009,30.0,HOU,234.0,761.0
30.0,4.0,8.0,20.0,0.486,18.0,18.0,0.486,37.0,0.0,0.0,0.0,0.486,37.0,15.0,0.938,16.0,5.0,5.0,NBA,91.0,7.0,13.0,C,51.0,2011,0.0,HOU,7.0,27.0
