age,ast_per_poss,blk_per_poss,def_rtg,drb_per_poss,fg2_pct,fg2_per_poss,fg2a_per_poss,fg3_pct,fg3_per_poss,fg3a_per_poss,fg_pct,fg_per_poss,fga_per_poss,ft_pct,ft_per_poss,fta_per_poss,g,gs,lg_id,mp,off_rtg,orb_per_poss,pf_per_poss,pos,pts_per_poss,season,stl_per_poss,team_id,tov_per_poss,trb_per_poss
22.0,3.1,3.3,100.0,10.9,0.498,9.1,18.2,0.5,0.0,0.0,0.498,9.1,18.3,0.811,6.8,8.4,82.0,72.0,NBA,2382.0,111.0,4.4,5.2,C,25.1,2003,0.7,HOU,3.9,15.3
23.0,2.5,3.2,97.0,10.9,0.523,10.9,20.8,0.0,0.0,0.0,0.522,10.9,20.8,0.809,7.3,9.1,82.0,82.0,NBA,2692.0,110.0,4.0,5.5,C,29.1,2004,0.4,HOU,4.1,14.9
24.0,1.3,3.5,99.0,10.2,0.552,11.9,21.5,0.0,0.0,0.0,0.552,11.9,21.5,0.783,8.6,11.0,80.0,80.0,NBA,2447.0,113.0,4.6,6.6,C,32.4,2005,0.8,HOU,4.3,14.8
25.0,2.4,2.6,100.0,12.1,0.519,13.1,25.2,0.0,0.0,0.0,0.519,13.1,25.2,0.853,9.4,11.1,57.0,57.0,NBA,1949.0,113.0,4.1,5.5,C,35.6,2006,0.8,HOU,4.1,16.3
26.0,3.1,3.1,98.0,11.4,0.518,13.8,26.6,0.0,0.0,0.1,0.516,13.8,26.7,0.862,11.6,13.5,48.0,48.0,NBA,1624.0,111.0,3.3,5.2,C,39.2,2007,0.6,HOU,5.4,14.7
27.0,3.4,2.9,99.0,11.0,0.508,11.2,22.1,0.0,0.0,0.1,0.507,11.2,22.1,0.85,9.0,10.6,55.0,55.0,NBA,2044.0,112.0,4.5,4.4,C,31.4,2008,0.6,HOU,4.8,15.4
28.0,2.8,3.1,101.0,11.4,0.548,11.6,21.2,1.0,0.0,0.0,0.548,11.6,21.2,0.866,7.8,9.0,77.0,77.0,NBA,2589.0,114.0,4.2,5.3,C,31.1,2009,0.6,HOU,4.8,15.6
30.0,2.2,4.5,105.0,11.2,0.486,10.1,20.7,0.0,0.0,0.0,0.486,10.1,20.7,0.938,8.4,9.0,5.0,5.0,NBA,91.0,111.0,3.9,7.3,C,28.6,2011,0.0,HOU,3.9,15.1
