age,ast_per_mp,blk_per_mp,drb_per_mp,fg2_pct,fg2_per_mp,fg2a_per_mp,fg3_pct,fg3_per_mp,fg3a_per_mp,fg_pct,fg_per_mp,fga_per_mp,ft_pct,ft_per_mp,fta_per_mp,g,gs,lg_id,mp,orb_per_mp,pf_per_mp,pos,pts_per_mp,season,stl_per_mp,team_id,tov_per_mp,trb_per_mp
21.0,1.6,6.3,7.8,0.5,9.4,18.8,0.0,0.0,0.0,0.5,9.4,18.8,1.0,14.1,14.1,6.0,0.0,NBA,23.0,0.0,6.3,C,32.9,2008,0.0,SAS,3.1,7.8
23.0,0.4,1.7,8.5,0.636,7.6,12.0,0.0,0.0,0.0,0.636,7.6,12.0,0.66,6.8,10.3,26.0,0.0,NBA,165.0,2.8,7.0,C,22.0,2010,0.7,SAS,3.3,11.3
24.0,0.6,1.1,5.7,0.573,4.1,7.1,0.0,0.0,0.1,0.561,4.1,7.2,0.768,4.6,6.0,56.0,0.0,NBA,488.0,3.2,7.7,C,12.8,2011,1.0,DAL,1.8,8.9
25.0,0.4,1.0,5.7,0.549,4.1,7.5,0.0,0.0,0.0,0.546,4.1,7.5,0.639,3.0,4.6,61.0,12.0,NBA,1139.0,3.4,5.6,C,11.2,2012,1.2,DAL,1.6,9.1
26.0,0.7,1.8,5.3,0.456,4.1,8.9,0.0,0.0,0.1,0.453,4.1,9.0,0.608,2.8,4.7,80.0,2.0,NBA,1322.0,3.1,5.5,C,10.9,2013,1.1,IND,2.5,8.5
27.0,0.7,2.1,4.3,0.484,2.6,5.4,0.0,0.0,0.0,0.481,2.6,5.5,0.621,2.6,4.2,77.0,1.0,NBA,1248.0,3.1,6.0,C,7.8,2014,1.2,IND,1.7,7.4
28.0,1.0,1.4,7.9,0.552,3.7,6.7,0.0,0.0,0.0,0.552,3.7,6.7,0.304,1.0,3.2,61.0,6.0,NBA,1146.0,3.3,5.4,C,8.3,2015,0.9,IND,1.9,11.2
29.0,2.1,1.5,7.3,0.589,5.2,8.9,0.0,0.0,0.0,0.589,5.2,8.9,0.587,2.6,4.5,71.0,71.0,NBA,1816.0,2.7,4.4,C,13.1,2016,1.3,IND,2.0,10.1
30.0,1.2,1.6,6.7,0.586,4.2,7.2,0.0,0.0,0.0,0.586,4.2,7.2,0.573,2.8,4.9,31.0,0.0,NBA,555.0,3.0,5.8,C,11.2,2017,2.1,WAS,2.2,9.7
31.0,1.7,1.3,5.6,0.561,4.3,7.7,0.0,0.0,0.1,0.556,4.3,7.8,0.703,2.8,4.0,77.0,0.0,NBA,1145.0,4.2,7.2,C,11.5,2018,1.2,WAS,3.1,9.8
32.0,1.8,1.2,5.8,0.5,3.2,6.4,0.188,0.2,1.2,0.452,3.4,7.5,0.689,3.0,4.4,34.0,6.0,NBA,498.0,3.5,6.1,C,10.0,2019,1.8,WAS,1.5,9.3
