age,ast,blk,drb,fg,fg2,fg2a,fg3,fg3a,fga,ft,fta,game_score,lg_id,mp,orb,pf,pts,season,stl,team_id,tov,trb
21.0,1.0,2.0,2.0,4.0,4.0,7.0,0.0,0.0,7.0,4.0,4.0,9.1,NBA,11,0.0,3.0,12.0,2008,0.0,SAS,2.0,2.0
23.0,1.0,1.0,7.0,6.0,6.0,9.0,0.0,0.0,9.0,6.0,12.0,14.7,NBA,21,4.0,6.0,15.0,2010,2.0,SAS,3.0,9.0
24.0,2.0,2.0,11.0,6.0,6.0,6.0,0.0,1.0,7.0,8.0,10.0,17.4,NBA,26,7.0,6.0,17.0,2011,2.0,DAL,3.0,13.0
25.0,2.0,3.0,8.0,6.0,6.0,8.0,0.0,1.0,8.0,9.0,12.0,17.5,NBA,36,6.0,6.0,19.0,2012,3.0,DAL,4.0,10.0
26.0,3.0,3.0,8.0,6.0,6.0,10.0,0.0,1.0,10.0,7.0,10.0,11.4,NBA,35,6.0,5.0,14.0,2013,3.0,IND,4.0,11.0
27.0,4.0,4.0,6.0,4.0,4.0,7.0,0.0,1.0,7.0,6.0,6.0,13.4,NBA,25,4.0,6.0,11.0,2014,4.0,IND,4.0,9.0
28.0,3.0,4.0,9.0,6.0,6.0,9.0,0.0,0.0,9.0,6.0,10.0,12.9,NBA,30,6.0,6.0,14.0,2015,3.0,IND,3.0,14.0
29.0,4.0,4.0,12.0,9.0,9.0,18.0,0.0,0.0,18.0,7.0,10.0,22.6,NBA,36,7.0,6.0,19.0,2016,3.0,IND,4.0,14.0
30.0,3.0,3.0,10.0,8.0,8.0,11.0,0.0,0.0,11.0,6.0,8.0,20.6,NBA,26,5.0,6.0,16.0,2017,7.0,WAS,4.0,11.0
31.0,5.0,3.0,7.0,7.0,7.0,9.0,0.0,1.0,9.0,6.0,8.0,19.8,NBA,27,6.0,6.0,17.0,2018,3.0,WAS,4.0,11.0
32.0,5.0,2.0,8.0,4.0,4.0,10.0,2.0,3.0,13.0,5.0,6.0,13.4,NBA,29,4.0,6.0,11.0,2019,5.0,WAS,2.0,12.0
