article_url,date,headline
https://orlandomagicdaily.com/2019/10/03/tracy-mcgrady-pays-it-forward-with-important-lessons-for-orlando-magic/,2019/10/03,Orlando Magic Daily: Tracy McGrady pays it forward with important lessons for Orlando Magic
https://thejnotes.com/2019/07/20/utah-jazz-sefolosha-story-reinforces-fears-luring-free-agents/,2019/07/20,Purple and Blues: Utah Jazz: Sefolosha story reinforces fears about luring free agents
