age,ast_per_poss,blk_per_poss,def_rtg,drb_per_poss,fg2_pct,fg2_per_poss,fg2a_per_poss,fg3_pct,fg3_per_poss,fg3a_per_poss,fg_pct,fg_per_poss,fga_per_poss,ft_pct,ft_per_poss,fta_per_poss,g,gs,lg_id,mp,off_rtg,orb_per_poss,pf_per_poss,pos,pts_per_poss,season,stl_per_poss,team_id,tov_per_poss,trb_per_poss
23.0,1.4,2.4,107.0,8.5,0.449,8.2,18.3,0.25,0.0,0.1,0.448,8.2,18.4,0.511,4.5,8.7,78.0,62.0,NBA,1962.0,89.0,5.0,6.4,C,20.9,1989,1.1,MIA,4.9,13.6
24.0,1.5,2.4,105.0,10.1,0.503,9.6,19.1,0.0,0.0,0.0,0.502,9.6,19.1,0.594,5.1,8.5,74.0,72.0,NBA,2409.0,99.0,5.0,5.1,C,24.2,1990,1.5,MIA,4.7,15.1
25.0,2.1,1.9,105.0,11.2,0.482,8.8,18.2,0.333,0.0,0.1,0.481,8.8,18.3,0.619,5.7,9.3,64.0,59.0,NBA,2171.0,99.0,4.6,4.7,C,23.4,1991,1.1,MIA,4.6,15.8
26.0,1.9,2.1,108.0,11.0,0.49,8.1,16.6,0.0,0.0,0.1,0.489,8.1,16.6,0.733,6.5,8.9,79.0,78.0,NBA,2800.0,109.0,5.4,4.9,C,22.7,1992,0.7,MIA,3.8,16.4
27.0,2.1,1.7,106.0,12.1,0.484,8.6,17.8,0.125,0.0,0.2,0.48,8.6,17.9,0.735,8.2,11.2,72.0,64.0,NBA,2456.0,109.0,5.4,5.4,C,25.5,1993,0.8,MIA,4.2,17.5
28.0,2.9,2.1,103.0,10.5,0.489,8.3,17.0,0.0,0.0,0.0,0.488,8.3,17.1,0.72,6.5,9.0,72.0,60.0,NBA,2410.0,108.0,5.2,5.9,C,23.1,1994,1.3,MIA,4.1,15.7
29.0,2.1,1.8,111.0,9.0,0.516,7.7,14.9,0.0,0.0,0.0,0.516,7.7,14.9,0.694,5.3,7.6,36.0,35.0,NBA,1035.0,99.0,3.6,5.8,C,20.6,1995,0.9,GSW,4.9,12.6
30.0,2.0,2.0,108.0,9.4,0.501,8.0,16.0,0.667,0.1,0.1,0.502,8.1,16.1,0.723,5.8,8.0,64.0,60.0,NBA,1813.0,101.0,4.7,6.2,C,22.0,1996,1.1,GSW,5.1,14.1
31.0,1.9,2.2,105.0,8.9,0.509,9.6,18.8,0.0,0.0,0.1,0.507,9.6,18.8,0.714,7.4,10.4,74.0,68.0,NBA,2615.0,107.0,5.7,5.7,C,26.5,1997,1.0,ORL,4.5,14.6
32.0,2.6,1.4,104.0,8.3,0.433,8.4,19.3,0.0,0.0,0.1,0.432,8.4,19.4,0.741,8.2,11.1,56.0,49.0,NBA,1636.0,100.0,4.9,5.5,C,25.0,1998,0.9,TOT,4.9,13.2
32.0,2.6,1.4,104.0,8.4,0.442,8.8,19.9,0.0,0.0,0.1,0.441,8.8,20.0,0.754,8.5,11.3,47.0,47.0,NBA,1484.0,101.0,4.8,5.1,C,26.1,1998,0.9,ORL,5.0,13.3
32.0,2.8,1.4,107.0,6.9,0.317,4.5,14.2,0.0,0.0,0.0,0.317,4.5,14.2,0.593,5.5,9.4,9.0,2.0,NBA,152.0,87.0,5.5,9.4,C,14.6,1998,1.0,NJN,4.2,12.5
33.0,1.2,3.6,98.0,9.5,0.2,2.4,11.9,0.0,0.0,0.0,0.2,2.4,11.9,0.389,4.2,10.7,9.0,0.0,NBA,88.0,52.0,3.0,8.9,C,8.9,1999,2.4,NJN,6.0,12.5
