age,ast_pct,blk_pct,bpm,bpm-dum,dbpm,drb_pct,dws,fg3a_per_fga_pct,fta_per_fga_pct,g,lg_id,mp,obpm,orb_pct,ows,per,pos,season,stl_pct,team_id,tov_pct,trb_pct,ts_pct,usg_pct,vorp,ws,ws-dum,ws_per_48
22.0,7.0,0.1,-2.4,0.0,-1.4,8.4,0.3,0.151,0.322,48.0,NBA,967.0,-1.0,3.6,0.6,13.0,SG,2007,2.8,MEM,11.7,6.0,0.532,18.4,-0.1,0.9,0.0,0.046
23.0,3.4,0.0,-7.2,0.0,-3.7,10.6,0.0,0.184,0.158,11.0,NBA,96.0,-3.5,3.5,0.0,10.3,SG,2008,1.6,MEM,6.9,7.0,0.492,20.2,-0.1,0.0,0.0,0.02
24.0,5.5,0.0,-3.3,0.0,-0.4,11.6,0.5,0.261,0.551,50.0,NBA,277.0,-2.8,4.5,0.2,11.0,SG,2009,2.3,CLE,20.4,8.2,0.595,18.3,-0.1,0.6,0.0,0.105
