age,ast,blk,drb,fg,fg2,fg2a,fg3,fg3a,fga,ft,fta,game_score,lg_id,mp,orb,pf,pts,season,stl,team_id,tov,trb
22.0,7.0,1.0,8.0,10.0,10.0,18.0,2.0,5.0,19.0,14.0,15.0,27.3,NBA,49,4.0,5.0,28.0,2007,5.0,MEM,4.0,9.0
23.0,1.0,0.0,4.0,6.0,6.0,8.0,2.0,3.0,9.0,2.0,2.0,7.9,NBA,15,1.0,3.0,12.0,2008,1.0,MEM,2.0,4.0
24.0,2.0,0.0,3.0,4.0,3.0,5.0,2.0,3.0,6.0,5.0,7.0,9.0,NBA,28,2.0,6.0,11.0,2009,2.0,CLE,3.0,4.0
