age,ast_per_g,blk_per_g,drb_per_g,efg_pct,fg2_pct,fg2_per_g,fg2a_per_g,fg3_pct,fg3_per_g,fg3a_per_g,fg_pct,fg_per_g,fga_per_g,ft_pct,ft_per_g,fta_per_g,g,gs,lg_id,mp_per_g,orb_per_g,pf_per_g,pos,pts_per_g,season,stl_per_g,team_id,tov_per_g,trb_per_g
23.0,0.4,0.3,1.0,0.408,0.404,1.0,2.5,0.333,0.0,0.1,0.4,1.0,2.6,0.759,1.0,1.3,23.0,9.0,NBA,10.5,0.3,0.7,SF,3.1,2006,0.3,DAL,0.7,1.3
24.0,0.3,0.1,0.5,0.382,0.394,0.7,1.8,0.222,0.1,0.5,0.36,0.8,2.2,0.689,0.8,1.1,40.0,2.0,NBA,9.0,0.2,0.6,SG,2.5,2007,0.3,IND,0.5,0.7
