age,and1s,astd_pts,drawn_offensive,drawn_shooting,fouls_offensive,fouls_shooting,g,lg_id,mp,own_shots_blk,pct_1,pct_2,pct_3,pct_4,pct_5,plus_minus_net,plus_minus_on,pos,season,team_id,tov_bad_pass,tov_lost_ball
21.0,22.0,433.0,66.0,84.0,15.0,150.0,82.0,NBA,2348.0,55.0,0.0,0.0,0.0,80.0,20.0,6.8,1.5,PF,2006,MIL,63.0,26.0
22.0,21.0,433.0,77.0,88.0,14.0,102.0,66.0,NBA,2258.0,47.0,0.0,0.0,0.0,0.0,100.0,3.6,-3.2,C,2007,MIL,69.0,37.0
23.0,29.0,436.0,53.0,146.0,15.0,163.0,78.0,NBA,2720.0,61.0,0.0,0.0,0.0,0.0,100.0,1.8,-7.0,C,2008,MIL,68.0,49.0
24.0,12.0,158.0,30.0,45.0,18.0,65.0,36.0,NBA,1124.0,25.0,0.0,0.0,0.0,0.0,100.0,7.5,4.1,C,2009,MIL,23.0,33.0
25.0,33.0,302.0,51.0,114.0,28.0,132.0,69.0,NBA,2229.0,64.0,0.0,0.0,0.0,0.0,100.0,7.8,5.4,C,2010,MIL,41.0,44.0
26.0,15.0,297.0,14.0,89.0,22.0,116.0,65.0,NBA,2297.0,36.0,0.0,0.0,0.0,0.0,100.0,2.4,0.1,C,2011,MIL,49.0,28.0
27.0,3.0,70.0,10.0,11.0,2.0,16.0,12.0,NBA,364.0,4.0,0.0,0.0,0.0,0.0,100.0,2.7,2.6,C,2012,MIL,11.0,8.0
28.0,2.0,150.0,5.0,12.0,11.0,46.0,32.0,NBA,786.0,14.0,0.0,0.0,0.0,0.0,100.0,0.4,1.4,C,2013,GSW,14.0,8.0
29.0,6.0,263.0,18.0,24.0,29.0,108.0,67.0,NBA,1769.0,14.0,0.0,0.0,0.0,0.0,100.0,7.7,9.2,C,2014,GSW,42.0,15.0
30.0,10.0,425.0,10.0,20.0,27.0,92.0,67.0,NBA,1583.0,19.0,0.0,0.0,0.0,0.0,100.0,9.6,16.6,C,2015,GSW,53.0,21.0
31.0,2.0,392.0,3.0,12.0,15.0,102.0,70.0,NBA,1451.0,7.0,0.0,0.0,0.0,0.0,100.0,4.4,13.9,C,2016,GSW,43.0,19.0
32.0,1.0,116.0,3.0,3.0,15.0,33.0,27.0,NBA,583.0,2.0,0.0,0.0,0.0,0.0,100.0,-3.2,-2.9,C,2017,TOT,23.0,4.0
32.0,1.0,116.0,3.0,3.0,15.0,33.0,26.0,NBA,582.0,2.0,0.0,0.0,0.0,0.0,100.0,0.6,-2.7,C,2017,DAL,23.0,4.0
32.0,0.0,0.0,0.0,0.0,0.0,0.0,1.0,NBA,1.0,0.0,0.0,0.0,0.0,0.0,100.0,-203.3,-200.0,C,2017,CLE,0.0,0.0
33.0,0.0,35.0,1.0,0.0,9.0,15.0,24.0,NBA,216.0,1.0,0.0,0.0,0.0,1.0,99.0,-4.0,-5.4,C,2018,LAL,9.0,1.0
34.0,1.0,25.0,3.0,1.0,2.0,11.0,11.0,NBA,134.0,1.0,0.0,0.0,0.0,0.0,100.0,-2.9,4.0,C,2019,GSW,3.0,2.0
