age,ast_per_mp,blk_per_mp,drb_per_mp,fg2_pct,fg2_per_mp,fg2a_per_mp,fg3_pct,fg3_per_mp,fg3a_per_mp,fg_pct,fg_per_mp,fga_per_mp,ft_pct,ft_per_mp,fta_per_mp,g,gs,lg_id,mp,orb_per_mp,pf_per_mp,pos,pts_per_mp,season,stl_per_mp,team_id,tov_per_mp,trb_per_mp
21.0,5.1,0.9,2.5,0.297,3.4,11.4,0.0,0.0,0.0,0.297,3.4,11.4,0.727,1.2,1.7,14.0,2.0,NBA,234.0,0.9,1.8,SG,8.0,1988,1.5,PHI,1.8,3.4
24.0,5.5,0.0,1.7,0.48,5.1,10.6,0.0,0.0,0.0,0.48,5.1,10.6,0.818,3.8,4.7,7.0,0.0,NBA,85.0,3.0,8.9,SG,14.0,1991,0.8,GSW,2.5,4.7
25.0,4.5,0.6,3.5,0.52,4.6,8.9,0.1,0.0,0.2,0.509,4.6,9.1,0.694,2.7,3.9,80.0,10.0,NBA,1496.0,2.1,3.1,SG,12.0,1992,1.1,GSW,2.0,5.6
26.0,3.9,0.6,3.2,0.495,4.8,9.7,0.333,0.1,0.2,0.492,4.8,9.9,0.705,3.3,4.8,73.0,4.0,NBA,1129.0,2.0,4.3,SG,13.1,1993,1.3,TOT,2.2,5.1
26.0,2.4,0.5,1.9,0.471,3.8,8.1,0.0,0.0,0.0,0.471,3.8,8.1,0.733,5.2,7.1,9.0,0.0,NBA,76.0,3.3,5.2,SG,12.8,1993,0.9,SAC,3.8,5.2
26.0,4.0,0.6,3.2,0.497,4.9,9.8,0.333,0.1,0.2,0.493,4.9,10.0,0.701,3.2,4.6,64.0,4.0,NBA,1053.0,1.9,4.2,SG,13.1,1993,1.3,SEA,2.1,5.1
27.0,4.1,0.4,2.6,0.498,5.7,11.4,0.194,0.1,0.7,0.481,5.8,12.1,0.829,3.7,4.5,80.0,3.0,NBA,1690.0,1.3,3.1,SG,15.5,1994,1.6,SEA,1.5,3.9
28.0,3.7,0.3,2.4,0.529,4.5,8.6,0.33,0.6,2.0,0.492,5.2,10.5,0.739,3.7,5.0,71.0,1.0,NBA,1721.0,1.4,4.0,SG,14.7,1995,1.0,SEA,1.8,3.8
29.0,3.4,0.3,3.2,0.531,3.9,7.3,0.337,0.6,1.8,0.493,4.5,9.1,0.764,2.6,3.4,69.0,2.0,NBA,1725.0,1.4,3.7,SG,12.1,1996,1.0,SEA,2.0,4.5
30.0,3.9,0.3,3.1,0.457,3.2,7.0,0.292,0.3,1.0,0.435,3.5,8.0,0.795,3.0,3.8,43.0,0.0,NBA,838.0,1.1,5.3,SG,10.3,1997,0.7,TOT,2.0,4.2
30.0,0.0,0.0,0.0,0.0,0.0,0.0,0.0,0.0,0.0,0.0,0.0,0.0,0.0,0.0,0.0,1.0,0.0,NBA,7.0,0.0,5.1,SG,0.0,1997,0.0,NJN,0.0,0.0
30.0,3.9,0.3,3.2,0.453,3.2,7.0,0.292,0.3,1.1,0.432,3.5,8.0,0.791,3.0,3.8,41.0,0.0,NBA,822.0,1.1,5.3,SG,10.2,1997,0.7,IND,1.8,4.3
30.0,0.0,0.0,0.0,0.667,8.0,12.0,0.0,0.0,0.0,0.667,8.0,12.0,1.0,8.0,8.0,1.0,0.0,NBA,9.0,0.0,0.0,SG,24.0,1997,0.0,DEN,16.0,0.0
31.0,3.1,0.4,3.8,0.365,1.5,4.2,0.0,0.0,0.2,0.352,1.5,4.4,0.718,2.3,3.2,30.0,5.0,NBA,443.0,1.7,3.2,SG,5.4,1998,1.5,POR,2.8,5.5
