age,and1s,astd_pts,drawn_offensive,drawn_shooting,fouls_offensive,fouls_shooting,g,lg_id,mp,own_shots_blk,pct_1,pct_2,pct_3,pct_4,pct_5,plus_minus_net,plus_minus_on,pos,season,team_id,tov_bad_pass,tov_lost_ball
23.0,3.0,185.0,0.0,19.0,2.0,24.0,35.0,NBA,605.0,20.0,66.0,34.0,0.0,0.0,0.0,2.8,-4.9,PG,2001,WAS,31.0,8.0
27.0,1.0,85.0,0.0,9.0,1.0,17.0,42.0,NBA,428.0,9.0,2.0,27.0,64.0,7.0,0.0,-5.1,-4.8,SF,2005,WAS,16.0,8.0
28.0,1.0,35.0,0.0,8.0,2.0,4.0,25.0,NBA,279.0,3.0,9.0,87.0,5.0,0.0,0.0,-8.8,-5.7,SG,2006,LAL,9.0,12.0
