age,ast_per_mp,blk_per_mp,drb_per_mp,fg2_pct,fg2_per_mp,fg2a_per_mp,fg3_pct,fg3_per_mp,fg3a_per_mp,fg_pct,fg_per_mp,fga_per_mp,ft_pct,ft_per_mp,fta_per_mp,g,gs,lg_id,mp,orb_per_mp,pf_per_mp,pos,pts_per_mp,season,stl_per_mp,team_id,tov_per_mp,trb_per_mp
23.0,2.0,0.2,4.3,0.434,2.3,5.4,0.358,1.3,3.8,0.403,3.7,9.1,0.631,1.3,2.1,73.0,36.0,NBA,1787.0,2.1,2.6,SF,10.0,2004,0.9,ORL,1.5,6.4
24.0,2.7,0.2,3.0,0.398,4.1,10.4,0.329,1.1,3.5,0.381,5.3,13.8,0.727,2.7,3.7,74.0,42.0,NBA,1791.0,1.5,3.4,SG,14.4,2005,1.4,CHA,2.5,4.5
25.0,2.4,0.2,3.8,0.436,2.8,6.5,0.325,1.2,3.8,0.395,4.0,10.2,0.683,2.4,3.5,72.0,31.0,NBA,1912.0,1.0,3.1,SG-SF,11.7,2006,1.3,TOT,1.7,4.8
25.0,1.9,0.1,3.3,0.426,3.4,8.1,0.337,1.4,4.2,0.396,4.8,12.2,0.762,3.4,4.5,39.0,9.0,NBA,848.0,1.2,3.3,SG,14.5,2006,1.7,CHA,1.7,4.5
25.0,2.8,0.2,4.2,0.448,2.3,5.2,0.314,1.1,3.5,0.395,3.4,8.7,0.58,1.6,2.7,33.0,22.0,NBA,1064.0,0.9,3.0,SF,9.5,2006,1.1,HOU,1.7,5.0
26.0,2.1,0.1,2.8,0.426,1.7,3.9,0.387,1.9,5.0,0.404,3.6,8.9,0.746,1.7,2.3,59.0,18.0,NBA,990.0,0.6,3.6,SG,10.8,2007,1.0,ORL,1.7,3.4
27.0,1.7,0.2,3.7,0.52,1.5,2.9,0.362,2.4,6.7,0.41,3.9,9.6,0.736,1.3,1.8,82.0,35.0,NBA,2198.0,0.7,2.7,SG,11.6,2008,1.0,ORL,0.9,4.4
28.0,1.8,0.1,4.8,0.425,1.3,3.0,0.339,2.1,6.2,0.367,3.4,9.2,0.912,1.5,1.6,65.0,15.0,NBA,1272.0,0.9,3.0,SG,10.3,2009,1.2,TOT,1.2,5.7
28.0,1.4,0.1,4.4,0.429,1.0,2.2,0.333,1.9,5.8,0.36,2.9,8.0,0.875,1.0,1.1,36.0,15.0,NBA,787.0,0.7,2.8,SG,8.6,2009,1.1,ORL,0.9,5.1
28.0,2.4,0.1,5.6,0.421,1.8,4.2,0.348,2.4,6.8,0.376,4.2,11.1,0.939,2.3,2.4,29.0,0.0,NBA,485.0,1.2,3.3,SG,13.0,2009,1.5,MIL,1.6,6.8
29.0,2.2,0.3,3.5,0.49,1.2,2.4,0.357,1.6,4.5,0.403,2.8,6.9,0.74,0.9,1.2,79.0,50.0,NBA,1559.0,0.6,3.6,SF,8.0,2010,1.0,SAS,1.2,4.1
30.0,2.5,0.2,3.2,0.486,0.8,1.7,0.38,2.2,5.8,0.404,3.1,7.6,0.656,0.5,0.8,82.0,82.0,NBA,1461.0,0.5,2.8,SG,8.8,2011,0.9,CHI,1.0,3.6
31.0,1.1,0.0,2.3,0.556,1.9,3.4,0.25,1.1,4.6,0.381,3.1,8.0,0.4,0.8,1.9,5.0,1.0,NBA,94.0,1.9,5.7,SF,8.0,2012,0.8,NJN,1.1,4.2
32.0,1.9,0.1,2.7,0.615,0.6,1.0,0.343,2.1,6.3,0.38,2.8,7.3,0.647,0.3,0.4,74.0,23.0,NBA,1408.0,0.4,2.8,SG,8.0,2013,0.7,BRK,1.3,3.1
33.0,2.0,0.0,2.0,0.0,0.0,0.0,0.5,2.0,3.9,0.5,2.0,3.9,1.0,2.0,2.0,6.0,0.0,NBA,55.0,0.0,1.3,SG,7.9,2014,0.7,BOS,0.7,2.0
