age,ast_per_g,blk_per_g,drb_per_g,efg_pct,fg2_pct,fg2_per_g,fg2a_per_g,fg3_pct,fg3_per_g,fg3a_per_g,fg_pct,fg_per_g,fga_per_g,ft_pct,ft_per_g,fta_per_g,g,gs,lg_id,mp_per_g,orb_per_g,pf_per_g,pos,pts_per_g,season,stl_per_g,team_id,tov_per_g,trb_per_g
23.0,0.3,0.4,1.1,0.408,0.408,1.3,3.3,0.0,0.0,0.0,0.408,1.3,3.3,0.643,0.5,0.7,38.0,2.0,NBA,8.5,0.6,1.2,SF,3.2,2008,0.2,CHA,0.4,1.6
24.0,0.1,0.2,1.7,0.486,0.486,1.2,2.5,0.0,0.0,0.0,0.486,1.2,2.5,0.471,0.6,1.2,14.0,0.0,NBA,7.9,0.7,0.9,SF,3.0,2009,0.1,GSW,0.4,2.4
