age,ast_per_g,blk_per_g,drb_per_g,efg_pct,fg2_pct,fg2_per_g,fg2a_per_g,fg3_pct,fg3_per_g,fg3a_per_g,fg_pct,fg_per_g,fga_per_g,ft_pct,ft_per_g,fta_per_g,g,gs,lg_id,mp_per_g,orb_per_g,pf_per_g,pos,pts_per_g,season,stl_per_g,team_id,tov_per_g,trb_per_g
20.0,2.1,0.1,1.5,0.408,0.385,1.9,5.0,0.326,0.5,1.4,0.372,2.4,6.4,0.546,1.0,1.8,61.0,26.0,NBA,23.2,0.3,2.0,SG,6.2,2013,0.4,NOH,1.2,1.8
21.0,2.3,0.1,1.5,0.443,0.416,2.3,5.4,0.364,0.5,1.4,0.405,2.8,6.9,0.636,1.6,2.5,69.0,4.0,NBA,19.4,0.4,1.9,PG,7.7,2014,0.7,NOP,1.1,1.9
22.0,2.0,0.2,1.6,0.449,0.449,2.2,4.8,0.298,0.5,1.7,0.409,2.7,6.5,0.675,1.1,1.7,76.0,5.0,NBA,20.6,0.4,1.9,PG-SG,7.0,2015,0.6,TOT,0.9,2.0
22.0,2.5,0.2,1.6,0.419,0.419,2.1,4.9,0.28,0.4,1.4,0.387,2.5,6.3,0.746,1.5,2.0,35.0,3.0,NBA,22.1,0.3,1.9,SG,6.8,2015,0.5,NOP,0.9,1.9
22.0,1.7,0.2,1.7,0.473,0.477,2.2,4.7,0.309,0.6,2.0,0.427,2.9,6.7,0.582,0.8,1.3,41.0,2.0,NBA,19.3,0.4,2.0,PG,7.1,2015,0.7,LAC,0.9,2.0
23.0,1.5,0.1,1.6,0.498,0.495,2.4,4.9,0.335,0.9,2.8,0.438,3.4,7.7,0.681,1.2,1.7,67.0,7.0,NBA,21.9,0.3,2.0,SG,8.9,2016,0.7,LAC,0.9,1.9
24.0,2.8,0.1,1.9,0.518,0.491,2.9,5.8,0.371,1.5,4.0,0.442,4.4,9.9,0.691,1.8,2.6,74.0,29.0,NBA,27.8,0.3,2.5,SG,12.0,2017,0.6,LAC,1.6,2.2
25.0,4.0,0.3,1.9,0.508,0.461,3.4,7.3,0.378,2.2,5.9,0.424,5.6,13.2,0.642,1.7,2.6,61.0,59.0,NBA,33.7,0.4,2.5,SG,15.1,2018,1.2,LAC,1.8,2.4
26.0,2.2,0.3,1.8,0.497,0.522,1.7,3.2,0.318,1.4,4.3,0.406,3.1,7.5,0.526,0.7,1.3,76.0,15.0,NBA,26.7,0.3,2.7,SG,8.1,2019,0.6,TOT,0.9,2.1
26.0,2.0,0.3,2.1,0.477,0.489,1.5,3.0,0.311,1.1,3.7,0.392,2.6,6.7,0.543,0.9,1.6,29.0,2.0,NBA,23.6,0.3,2.5,SG,7.2,2019,0.6,WAS,1.2,2.4
26.0,2.3,0.3,1.6,0.507,0.541,1.8,3.3,0.321,1.5,4.7,0.413,3.3,8.0,0.51,0.5,1.0,47.0,13.0,NBA,28.6,0.3,2.9,SG,8.7,2019,0.6,HOU,0.7,1.9
27.0,1.3,0.1,1.9,0.529,0.48,1.1,2.3,0.372,1.5,3.9,0.412,2.5,6.2,0.444,0.4,0.8,11.0,0.0,NBA,21.5,0.5,1.7,SG,6.9,2020,0.0,HOU,0.4,2.5
