article_url,date,headline
https://lakeshowlife.com/2019/11/15/lebron-james-kawhi-leonards-load-management-double-standard/,2019/11/15,"Lake Show Life: LeBron James: Kawhi Leonard's ""Load Management"" a double standard?"
https://hoopshabit.com/2019/11/15/houston-rockets-jamal-crawford-good-fit/,2019/11/15,Hoops Habit: Jamal Crawford would be good bench fit for Houston Rockets
https://fansided.com/2019/11/13/nba-star-entire-career-one-team/,2019/11/13,FanSided: Who will be the next NBA star to play their entire career with one team?
https://crownhoops.com/2019/11/12/spencer-dinwiddie-was-right-about-socal-basketball-players/,2019/11/12,HoopLifeTV: Spencer Dinwiddie was Right About SoCal Basketball Players
https://spacecityscoop.com/2019/11/12/houston-rockets-harden-historical-start/,2019/11/12,Space City Scoop: Houston Rockets: Harden off to a historical start despite fewer attempts
