age,ast_per_poss,blk_per_poss,def_rtg,drb_per_poss,fg2_pct,fg2_per_poss,fg2a_per_poss,fg3_pct,fg3_per_poss,fg3a_per_poss,fg_pct,fg_per_poss,fga_per_poss,ft_pct,ft_per_poss,fta_per_poss,g,gs,lg_id,mp,off_rtg,orb_per_poss,pf_per_poss,pos,pts_per_poss,season,stl_per_poss,team_id,tov_per_poss,trb_per_poss
26.0,3.7,0.3,102.0,5.0,0.533,6.5,12.3,0.383,1.1,3.0,0.504,7.7,15.2,0.75,4.3,5.8,55.0,2.0,NBA,813.0,106.0,1.0,6.5,SG,20.8,2016,1.5,SAS,3.3,6.0
27.0,4.6,0.9,105.0,5.1,0.461,5.4,11.7,0.294,1.1,3.7,0.42,6.5,15.4,0.75,3.6,4.8,78.0,8.0,NBA,1392.0,100.0,0.7,5.3,SG,17.7,2017,1.7,SAS,2.8,5.9
28.0,4.1,0.4,113.0,4.3,0.512,6.9,13.4,0.338,1.7,4.9,0.465,8.5,18.4,0.768,4.5,5.8,69.0,50.0,NBA,2029.0,103.0,1.5,4.2,SG,23.2,2018,1.4,ORL,3.5,5.8
29.0,5.8,0.7,111.0,4.5,0.427,4.8,11.2,0.269,1.3,4.7,0.38,6.1,16.0,0.742,3.3,4.4,56.0,9.0,NBA,1064.0,95.0,1.2,4.1,SG-SF,16.7,2019,1.3,TOT,3.1,5.8
29.0,5.5,0.8,111.0,4.5,0.419,4.9,11.8,0.229,1.1,4.8,0.364,6.0,16.6,0.778,3.2,4.2,41.0,9.0,NBA,845.0,91.0,1.3,3.9,SG,16.4,2019,1.0,ORL,3.2,5.8
29.0,7.1,0.2,110.0,4.7,0.465,4.3,9.3,0.429,1.9,4.5,0.453,6.3,13.8,0.64,3.5,5.4,15.0,0.0,NBA,219.0,112.0,0.9,4.5,SF,17.9,2019,2.4,PHI,2.6,5.6
