age,ast_per_g,blk_per_g,drb_per_g,efg_pct,fg2_pct,fg2_per_g,fg2a_per_g,fg3_pct,fg3_per_g,fg3a_per_g,fg_pct,fg_per_g,fga_per_g,ft_pct,ft_per_g,fta_per_g,g,gs,lg_id,mp_per_g,orb_per_g,pf_per_g,pos,pts_per_g,season,stl_per_g,team_id,tov_per_g,trb_per_g
26.0,0.7,0.0,0.3,0.5,0.286,0.7,2.3,0.667,0.7,1.0,0.4,1.3,3.3,0.5,0.3,0.7,3.0,0.0,NBA,8.7,1.0,1.3,SG,3.7,2016,0.7,SAS,0.3,1.3
27.0,1.9,0.1,1.3,0.504,0.495,3.3,6.6,0.351,0.9,2.5,0.456,4.1,9.1,0.677,1.4,2.1,15.0,4.0,NBA,20.4,0.6,2.0,SG,10.5,2017,0.6,SAS,0.7,1.9
29.0,0.3,0.0,1.0,0.367,0.4,1.1,2.9,0.2,0.3,1.4,0.333,1.4,4.3,0.75,0.4,0.6,7.0,0.0,NBA,7.4,0.3,0.3,SF,3.6,2019,0.1,PHI,0.9,1.3
