age,and1s,astd_pts,drawn_offensive,drawn_shooting,fouls_offensive,fouls_shooting,g,lg_id,mp,own_shots_blk,pct_1,pct_2,pct_3,pct_4,pct_5,plus_minus_net,plus_minus_on,pos,season,team_id,tov_bad_pass,tov_lost_ball
26.0,17.0,142.0,15.0,43.0,7.0,37.0,55.0,NBA,813.0,24.0,8.0,90.0,2.0,0.0,0.0,-5.7,7.0,SG,2016,SAS,20.0,15.0
27.0,4.0,315.0,13.0,52.0,8.0,61.0,78.0,NBA,1392.0,40.0,3.0,94.0,3.0,1.0,0.0,2.3,9.4,SG,2017,SAS,32.0,27.0
28.0,33.0,428.0,14.0,118.0,12.0,69.0,69.0,NBA,2029.0,54.0,4.0,76.0,20.0,1.0,0.0,-4.5,-7.2,SG,2018,ORL,59.0,59.0
29.0,13.0,311.0,16.0,48.0,2.0,35.0,56.0,NBA,1064.0,37.0,7.0,81.0,12.0,0.0,0.0,-8.1,-5.0,SG-SF,2019,TOT,32.0,25.0
29.0,10.0,239.0,15.0,36.0,1.0,23.0,41.0,NBA,845.0,31.0,8.0,91.0,0.0,0.0,0.0,-9.2,-6.2,SG,2019,ORL,26.0,20.0
29.0,3.0,72.0,1.0,12.0,1.0,12.0,15.0,NBA,219.0,6.0,1.0,41.0,57.0,1.0,0.0,-3.4,-0.3,SF,2019,PHI,6.0,5.0
