age,ast_per_mp,blk_per_mp,drb_per_mp,fg2_pct,fg2_per_mp,fg2a_per_mp,fg3_pct,fg3_per_mp,fg3a_per_mp,fg_pct,fg_per_mp,fga_per_mp,ft_pct,ft_per_mp,fta_per_mp,g,gs,lg_id,mp,orb_per_mp,pf_per_mp,pos,pts_per_mp,season,stl_per_mp,team_id,tov_per_mp,trb_per_mp
26.0,2.8,0.0,1.4,0.286,2.8,9.7,0.667,2.8,4.2,0.4,5.5,13.8,0.5,1.4,2.8,3.0,0.0,NBA,26.0,4.2,5.5,SG,15.2,2016,2.8,SAS,1.4,5.5
27.0,3.4,0.2,2.2,0.495,5.8,11.6,0.351,1.5,4.4,0.456,7.3,16.0,0.677,2.5,3.6,15.0,4.0,NBA,306.0,1.1,3.5,SG,18.6,2017,1.1,SAS,1.3,3.3
29.0,1.4,0.0,4.8,0.4,5.5,13.8,0.2,1.4,6.9,0.333,6.9,20.8,0.75,2.1,2.8,7.0,0.0,NBA,52.0,1.4,1.4,SF,17.3,2019,0.7,PHI,4.2,6.2
