age,ast,blk,drb,fg,fg2,fg2a,fg3,fg3a,fga,ft,fta,game_score,lg_id,mp,orb,pf,pts,season,stl,team_id,tov,trb
26.0,4.0,1.0,6.0,7.0,7.0,13.0,2.0,4.0,14.0,6.0,9.0,13.8,NBA,36,2.0,4.0,19.0,2016,2.0,SAS,5.0,7.0
27.0,5.0,2.0,5.0,8.0,6.0,14.0,3.0,5.0,19.0,7.0,8.0,15.0,NBA,39,2.0,6.0,20.0,2017,3.0,SAS,4.0,6.0
28.0,8.0,2.0,8.0,13.0,10.0,18.0,7.0,12.0,24.0,9.0,10.0,28.3,NBA,41,3.0,6.0,35.0,2018,4.0,ORL,5.0,8.0
29.0,8.0,2.0,6.0,8.0,5.0,9.0,3.0,6.0,14.0,4.0,6.0,17.7,NBA,34,2.0,5.0,20.0,2019,3.0,TOT,4.0,7.0
29.0,7.0,2.0,5.0,7.0,5.0,9.0,2.0,5.0,13.0,4.0,6.0,14.4,NBA,34,2.0,5.0,18.0,2019,2.0,ORL,4.0,6.0
29.0,8.0,1.0,6.0,8.0,5.0,8.0,3.0,6.0,14.0,4.0,6.0,17.7,NBA,30,1.0,4.0,20.0,2019,3.0,PHI,2.0,7.0
