age,ast_per_g,blk_per_g,drb_per_g,efg_pct,fg2_pct,fg2_per_g,fg2a_per_g,fg3_pct,fg3_per_g,fg3a_per_g,fg_pct,fg_per_g,fga_per_g,ft_pct,ft_per_g,fta_per_g,g,gs,lg_id,mp_per_g,orb_per_g,pf_per_g,pos,pts_per_g,season,stl_per_g,team_id,tov_per_g,trb_per_g
26.0,1.1,0.1,1.5,0.541,0.533,1.9,3.5,0.383,0.3,0.9,0.504,2.2,4.4,0.75,1.3,1.7,55.0,2.0,NBA,14.8,0.3,1.9,SG,6.0,2016,0.4,SAS,1.0,1.7
27.0,1.6,0.3,1.8,0.456,0.461,1.9,4.1,0.294,0.4,1.3,0.42,2.3,5.4,0.75,1.3,1.7,78.0,8.0,NBA,17.8,0.3,1.9,SG,6.2,2017,0.6,SAS,1.0,2.1
28.0,2.5,0.2,2.6,0.511,0.512,4.1,8.1,0.338,1.0,3.0,0.465,5.1,11.0,0.768,2.7,3.5,69.0,50.0,NBA,29.4,0.9,2.5,SG,13.9,2018,0.8,ORL,2.1,3.5
29.0,2.3,0.3,1.8,0.42,0.427,1.9,4.4,0.269,0.5,1.9,0.38,2.4,6.3,0.742,1.3,1.7,56.0,9.0,NBA,19.0,0.5,1.6,SG-SF,6.5,2019,0.5,TOT,1.2,2.3
29.0,2.3,0.3,1.9,0.397,0.419,2.1,5.0,0.229,0.5,2.0,0.364,2.5,7.0,0.778,1.4,1.8,41.0,9.0,NBA,20.6,0.6,1.7,SG,6.9,2019,0.4,ORL,1.4,2.4
29.0,2.2,0.1,1.5,0.523,0.465,1.3,2.9,0.429,0.6,1.4,0.453,1.9,4.3,0.64,1.1,1.7,15.0,0.0,NBA,14.6,0.3,1.4,SF,5.5,2019,0.7,PHI,0.8,1.7
