age,ast_per_g,blk_per_g,drb_per_g,efg_pct,fg2_pct,fg2_per_g,fg2a_per_g,fg3_pct,fg3_per_g,fg3a_per_g,fg_pct,fg_per_g,fga_per_g,ft_pct,ft_per_g,fta_per_g,g,gs,lg_id,mp_per_g,orb_per_g,pf_per_g,pos,pts_per_g,season,stl_per_g,team_id,tov_per_g,trb_per_g
24.0,2.0,1.7,7.3,0.5,0.5,9.0,18.0,0.0,0.0,0.0,0.5,9.0,18.0,0.5,1.7,3.3,3.0,0.0,NBA,40.3,3.0,3.7,C,19.7,1979,0.7,POR,1.7,10.3
26.0,1.3,3.0,6.0,0.608,0.608,10.3,17.0,0.0,0.0,0.0,0.608,10.3,17.0,0.722,4.3,6.0,3.0,0.0,NBA,44.0,1.7,3.3,C,25.0,1981,1.0,POR,2.3,7.7
28.0,5.6,1.1,5.7,0.471,0.471,5.7,12.1,0.0,0.0,0.0,0.471,5.7,12.1,0.658,3.6,5.4,7.0,0.0,NBA,40.6,2.3,3.4,C,15.0,1983,0.9,POR,4.0,8.0
29.0,3.8,0.8,5.0,0.5,0.5,5.5,11.0,0.0,0.0,0.0,0.5,5.5,11.0,0.773,4.3,5.5,4.0,0.0,NBA,30.3,2.3,2.8,C,15.3,1984,1.3,POR,1.5,7.3
30.0,1.6,1.3,5.2,0.49,0.49,5.6,11.3,0.0,0.0,0.0,0.49,5.6,11.3,0.673,3.7,5.4,9.0,0.0,NBA,27.8,2.8,3.6,PF,14.8,1985,0.8,POR,2.1,8.0
31.0,3.5,0.8,5.5,0.574,0.574,7.8,13.5,0.0,0.0,0.0,0.574,7.8,13.5,0.538,3.5,6.5,4.0,4.0,NBA,35.0,2.8,3.3,C,19.0,1986,0.3,POR,2.5,8.3
32.0,0.5,0.9,3.3,0.453,0.453,3.4,7.6,0.0,0.0,0.0,0.453,3.4,7.6,0.68,1.9,2.8,18.0,0.0,NBA,22.3,1.6,2.8,PF,8.8,1987,0.4,LAL,0.9,4.9
33.0,0.5,0.9,4.5,0.513,0.513,4.1,8.0,0.0,0.0,0.0,0.513,4.1,8.0,0.581,1.5,2.6,24.0,0.0,NBA,25.6,2.6,2.9,C,9.7,1988,0.7,LAL,1.4,7.1
34.0,0.7,0.8,2.5,0.508,0.508,4.3,8.5,0.0,0.0,0.0,0.508,4.3,8.5,0.683,2.7,4.0,15.0,0.0,NBA,25.1,2.6,3.5,C,11.4,1989,0.4,LAL,0.9,5.1
35.0,0.2,1.4,2.7,0.477,0.477,2.3,4.9,0.0,0.0,0.0,0.477,2.3,4.9,0.615,1.8,2.9,9.0,8.0,NBA,25.0,1.7,2.9,C,6.4,1990,0.2,LAL,1.9,4.3
36.0,0.0,0.4,0.8,0.286,0.286,0.3,0.9,0.0,0.0,0.0,0.286,0.3,0.9,0.0,0.0,0.0,8.0,0.0,NBA,5.3,0.4,1.3,C,0.5,1991,0.0,LAL,0.1,1.1
