age,ast_per_mp,blk_per_mp,drb_per_mp,fg2_pct,fg2_per_mp,fg2a_per_mp,fg3_pct,fg3_per_mp,fg3a_per_mp,fg_pct,fg_per_mp,fga_per_mp,ft_pct,ft_per_mp,fta_per_mp,g,gs,lg_id,mp,orb_per_mp,pf_per_mp,pos,pts_per_mp,season,stl_per_mp,team_id,tov_per_mp,trb_per_mp
24.0,3.0,2.3,6.8,0.49,7.7,15.8,0.0,0.0,0.0,0.49,7.7,15.8,0.572,2.6,4.5,73.0,0.0,NBA,2144.0,3.3,4.5,C,18.0,1979,1.1,POR,3.4,10.1
26.0,3.7,2.2,6.0,0.495,7.3,14.8,0.0,0.0,0.0,0.494,7.3,14.9,0.641,2.7,4.2,79.0,0.0,NBA,2790.0,2.9,3.4,C,17.4,1981,0.8,POR,3.1,8.9
27.0,3.7,1.2,7.6,0.523,7.8,15.0,0.0,0.0,0.0,0.523,7.8,15.0,0.628,3.2,5.1,79.0,78.0,NBA,3129.0,3.0,2.7,C,18.9,1982,0.8,POR,2.8,10.6
28.0,4.5,1.3,6.8,0.489,6.0,12.3,0.0,0.0,0.0,0.489,6.0,12.3,0.621,3.0,4.8,80.0,80.0,NBA,3017.0,2.2,2.5,C,15.0,1983,0.8,POR,3.4,9.0
29.0,4.2,1.5,6.2,0.525,6.6,12.6,0.0,0.0,0.0,0.524,6.6,12.6,0.667,3.6,5.4,79.0,74.0,NBA,2648.0,3.2,3.2,C,16.9,1984,1.1,POR,3.2,9.4
30.0,2.8,1.4,5.6,0.515,7.9,15.3,0.0,0.0,0.0,0.515,7.9,15.3,0.684,4.2,6.2,79.0,55.0,NBA,2616.0,2.9,3.0,PF,20.0,1985,1.1,POR,3.2,8.5
31.0,2.5,0.5,6.0,0.498,7.0,14.2,0.0,0.0,0.0,0.498,7.0,14.2,0.641,2.8,4.3,82.0,78.0,NBA,2569.0,2.5,3.7,C,16.9,1986,1.1,POR,2.7,8.5
32.0,2.2,1.4,5.2,0.45,6.8,15.1,0.5,0.0,0.0,0.45,6.8,15.2,0.737,4.2,5.7,82.0,7.0,NBA,1890.0,2.6,3.8,PF,17.9,1987,0.9,TOT,2.6,7.8
32.0,2.6,1.2,5.5,0.435,6.8,15.7,1.0,0.0,0.0,0.436,6.8,15.7,0.735,4.3,5.8,49.0,6.0,NBA,1210.0,2.7,3.5,PF,18.0,1987,0.9,SAS,2.3,8.2
32.0,1.5,1.6,4.7,0.481,6.8,14.2,0.0,0.0,0.1,0.48,6.8,14.2,0.743,4.0,5.3,33.0,1.0,NBA,680.0,2.5,4.5,PF,17.6,1987,0.7,LAL,3.0,7.2
33.0,1.2,1.4,5.2,0.515,6.6,12.9,0.0,0.0,0.1,0.512,6.6,13.0,0.634,3.3,5.2,80.0,0.0,NBA,2007.0,3.6,4.5,C,16.6,1988,0.7,LAL,2.0,8.8
34.0,0.9,1.1,5.6,0.56,5.3,9.4,0.0,0.0,0.0,0.559,5.3,9.4,0.678,2.8,4.2,80.0,8.0,NBA,1994.0,2.8,4.0,C,13.3,1989,1.0,LAL,1.8,8.4
35.0,0.8,1.4,5.8,0.5,5.4,10.7,0.0,0.0,0.0,0.5,5.4,10.7,0.706,2.8,3.9,70.0,70.0,NBA,1883.0,3.3,4.0,C,13.5,1990,0.6,LAL,1.5,9.1
36.0,0.7,0.8,5.1,0.5,3.8,7.6,0.0,0.0,0.1,0.496,3.8,7.6,0.705,2.1,2.9,72.0,4.0,NBA,1077.0,2.5,3.7,C,9.6,1991,0.8,LAL,1.6,7.6
