age,ast,blk,drb,fg,fg2,fg2a,fg3,fg3a,fga,ft,fta,game_score,lg_id,mp,orb,pf,pts,season,stl,team_id,tov,trb
24.0,0.0,0.0,0.0,14.0,0.0,0.0,0.0,0.0,0.0,11.0,14.0,0.0,NBA,0.0,0.0,0.0,37.0,1979,0.0,POR,0.0,0.0
26.0,0.0,0.0,0.0,14.0,0.0,0.0,0.0,0.0,0.0,9.0,12.0,0.0,NBA,0.0,0.0,0.0,33.0,1981,0.0,POR,0.0,0.0
27.0,9.0,4.0,0.0,17.0,17.0,0.0,0.0,0.0,27.0,11.0,15.0,0.0,NBA,0.0,0.0,6.0,38.0,1982,5.0,POR,8.0,21.0
28.0,11.0,6.0,14.0,12.0,12.0,26.0,0.0,1.0,26.0,8.0,14.0,25.4,NBA,0.0,7.0,6.0,26.0,1983,3.0,POR,10.0,20.0
29.0,11.0,5.0,12.0,11.0,11.0,20.0,0.0,1.0,20.0,10.0,13.0,27.7,NBA,0.0,7.0,6.0,28.0,1984,4.0,POR,8.0,16.0
30.0,8.0,6.0,11.0,15.0,15.0,24.0,0.0,0.0,24.0,12.0,20.0,30.2,NBA,0.0,7.0,5.0,33.0,1985,4.0,POR,10.0,15.0
31.0,8.0,3.0,12.0,14.0,14.0,24.0,0.0,0.0,24.0,10.0,12.0,26.8,NBA,0.0,9.0,6.0,30.0,1986,4.0,POR,6.0,15.0
32.0,6.0,6.0,8.0,12.0,12.0,19.0,1.0,1.0,19.0,8.0,12.0,28.0,NBA,0.0,6.0,6.0,29.0,1987,5.0,TOT,5.0,14.0
32.0,6.0,3.0,8.0,12.0,12.0,19.0,1.0,1.0,19.0,8.0,12.0,28.0,NBA,0.0,6.0,5.0,29.0,1987,5.0,SAS,4.0,14.0
32.0,3.0,6.0,7.0,11.0,11.0,17.0,0.0,0.0,17.0,8.0,10.0,20.7,NBA,0.0,5.0,6.0,24.0,1987,2.0,LAL,5.0,12.0
33.0,4.0,4.0,10.0,11.0,11.0,19.0,0.0,1.0,19.0,8.0,11.0,24.5,NBA,0.0,6.0,6.0,28.0,1988,4.0,LAL,4.0,13.0
34.0,3.0,4.0,10.0,10.0,10.0,16.0,0.0,1.0,16.0,7.0,10.0,24.5,NBA,0.0,6.0,5.0,27.0,1989,3.0,LAL,5.0,12.0
35.0,3.0,5.0,11.0,10.0,10.0,16.0,0.0,0.0,16.0,6.0,9.0,19.4,NBA,0.0,7.0,5.0,24.0,1990,3.0,LAL,4.0,12.0
36.0,3.0,3.0,13.0,8.0,8.0,13.0,0.0,1.0,13.0,6.0,8.0,17.3,NBA,0.0,5.0,5.0,19.0,1991,3.0,LAL,3.0,16.0
