age,avg_dist,fg2_dunk,fg2_pct,fg2_pct_ast,fg2a_pct_fga,fg3_heave,fg3_pct,fg3_pct_ast,fg3_pct_corner,fg3a_heave,fg3a_pct_fga,fg_pct,fg_pct_00_03,fg_pct_03_10,fg_pct_10_16,fg_pct_16_xx,g,lg_id,mp,pct_fg2_dunk,pct_fg3a_corner,pct_fga_00_03,pct_fga_03_10,pct_fga_10_16,pct_fga_16_xx,pos,season,team_id
29.0,5.7,3.0,0.49,0.68,1.0,0.0,0.0,0.0,0.0,0.0,0.0,0.49,0.7,0.25,0.125,0.222,27.0,NBA,209.0,0.078,0.0,0.588,0.078,0.157,0.176,SF,2001,TOT
29.0,5.8,1.0,0.517,0.733,1.0,0.0,0.0,0.0,0.0,0.0,0.0,0.517,0.647,0.5,0.2,0.4,17.0,NBA,140.0,0.069,0.0,0.586,0.069,0.172,0.172,SF,2001,TOR
29.0,5.7,2.0,0.455,0.6,1.0,0.0,0.0,0.0,0.0,0.0,0.0,0.455,0.769,0.0,0.0,0.0,10.0,NBA,69.0,0.091,0.0,0.591,0.091,0.136,0.182,SF,2001,DET
