age,ast_per_poss,blk_per_poss,def_rtg,drb_per_poss,fg2_pct,fg2_per_poss,fg2a_per_poss,fg3_pct,fg3_per_poss,fg3a_per_poss,fg_pct,fg_per_poss,fga_per_poss,ft_pct,ft_per_poss,fta_per_poss,g,gs,lg_id,mp,off_rtg,orb_per_poss,pf_per_poss,pos,pts_per_poss,season,stl_per_poss,team_id,tov_per_poss,trb_per_poss
22.0,6.9,0.6,107.0,2.4,0.349,4.7,13.6,0.0,0.0,0.0,0.349,4.7,13.6,0.75,2.6,3.4,15.0,0.0,NBA,212.0,84.0,1.5,3.2,PG,12.0,1981,2.8,NJN,3.9,3.9
23.0,8.2,0.3,107.0,3.3,0.51,7.1,13.8,0.067,0.0,0.3,0.501,7.1,14.1,0.838,2.4,2.9,82.0,82.0,NBA,2610.0,110.0,1.0,4.6,PG,16.6,1982,1.7,ATL,2.8,4.3
24.0,8.0,0.1,104.0,3.4,0.491,7.8,15.9,0.227,0.1,0.4,0.484,7.9,16.3,0.739,3.0,4.0,81.0,58.0,NBA,2428.0,101.0,1.2,5.1,PG,18.8,1983,2.2,TOT,4.0,4.6
24.0,7.5,0.0,105.0,3.2,0.525,8.2,15.6,0.2,0.1,0.5,0.516,8.3,16.0,0.743,2.6,3.5,49.0,49.0,NBA,1548.0,103.0,1.2,5.1,PG,19.3,1983,2.2,ATL,3.9,4.4
24.0,8.9,0.2,101.0,3.8,0.433,7.1,16.4,0.286,0.1,0.4,0.43,7.2,16.8,0.733,3.5,4.8,32.0,9.0,NBA,880.0,98.0,1.2,5.2,PG,18.0,1983,2.1,NYK,4.0,5.0
25.0,10.7,0.2,106.0,2.8,0.486,6.8,13.9,0.256,0.2,0.8,0.474,7.0,14.7,0.824,2.1,2.6,79.0,74.0,NBA,2436.0,103.0,1.0,4.6,PG,16.3,1984,2.0,NYK,4.2,3.8
26.0,11.7,0.2,112.0,2.8,0.506,6.7,13.3,0.226,0.1,0.7,0.492,6.9,13.9,0.865,2.6,3.0,79.0,41.0,NBA,2292.0,112.0,0.8,4.2,PG,16.4,1985,1.7,NYK,3.2,3.6
27.0,9.8,0.3,108.0,2.5,0.484,7.1,14.6,0.25,0.1,0.4,0.477,7.2,15.0,0.795,2.1,2.6,74.0,74.0,NBA,2344.0,105.0,1.0,3.8,PG,16.5,1986,1.8,NYK,3.2,3.5
28.0,10.8,0.1,114.0,2.1,0.46,6.3,13.7,0.262,0.3,1.0,0.446,6.6,14.7,0.798,1.8,2.2,80.0,30.0,NBA,1951.0,102.0,0.7,4.0,PG,15.2,1987,1.7,NYK,3.5,2.9
29.0,8.0,0.1,109.0,2.7,0.411,5.5,13.5,0.154,0.1,0.6,0.399,5.6,14.1,0.727,1.2,1.6,58.0,25.0,NBA,1044.0,94.0,0.7,3.8,PG,12.5,1988,2.0,TOT,2.8,3.5
29.0,4.7,0.0,107.0,0.9,0.278,4.7,16.8,0.0,0.0,0.9,0.263,4.7,17.7,0.0,0.0,0.0,3.0,0.0,NBA,52.0,56.0,0.9,6.5,PG,9.3,1988,3.7,NYK,5.6,1.9
29.0,8.2,0.2,109.0,2.8,0.42,5.6,13.3,0.167,0.1,0.6,0.409,5.7,13.9,0.727,1.2,1.7,55.0,25.0,NBA,992.0,97.0,0.7,3.6,PG,12.7,1988,1.9,CHI,2.6,3.5
30.0,8.0,0.3,111.0,3.0,0.469,7.9,16.8,0.243,0.3,1.4,0.452,8.2,18.2,0.879,1.7,2.0,80.0,79.0,NBA,2613.0,99.0,1.0,3.1,PG,18.5,1989,1.9,MIA,3.8,4.0
31.0,8.1,0.1,113.0,2.7,0.43,5.5,12.7,0.2,0.2,1.1,0.412,5.7,13.8,0.766,1.6,2.1,82.0,25.0,NBA,1756.0,98.0,1.0,3.8,PG,13.2,1990,1.3,MIA,2.7,3.7
32.0,7.7,0.3,112.0,3.0,0.501,7.3,14.5,0.397,0.7,1.7,0.491,7.9,16.1,0.699,1.2,1.8,80.0,74.0,NBA,2375.0,105.0,1.0,4.0,PG,17.7,1991,1.8,SAC,2.7,4.0
33.0,8.8,0.5,113.0,2.7,0.404,5.8,14.4,0.2,0.3,1.6,0.384,6.2,16.0,0.615,0.8,1.4,46.0,0.0,NBA,489.0,88.0,0.3,6.0,PG,13.5,1992,1.3,TOT,3.5,3.0
33.0,11.3,0.0,112.0,2.8,0.0,0.0,16.9,0.5,2.8,5.6,0.125,2.8,22.6,0.0,0.0,0.0,4.0,0.0,NBA,18.0,56.0,0.0,5.6,PG,8.5,1992,0.0,CHI,5.6,2.8
33.0,8.7,0.6,113.0,2.6,0.423,6.1,14.3,0.154,0.2,1.4,0.399,6.3,15.8,0.615,0.9,1.4,42.0,0.0,NBA,471.0,89.0,0.3,6.1,PG,13.7,1992,1.3,LAL,3.4,3.0
