age,ast,ast_per_g,blk,college_id,fg,fg3,fg3_pct,fg3a,fg_pct,fga,ft,ft_pct,fta,g,mp,mp_per_g,orb,pf,pts,pts_per_g,season,stl,tov,trb,trb_per_g
18.0,0.0,0.0,0.0,VILLANOVA,99.0,0.0,0.0,0.0,0.513,193.0,34.0,0.81,42.0,33.0,0.0,0.0,0.0,0.0,232.0,7.0,1977,0.0,0.0,69.0,2.1
19.0,0.0,0.0,0.0,VILLANOVA,109.0,0.0,0.0,0.0,0.512,213.0,57.0,0.722,79.0,32.0,1036.0,32.4,0.0,0.0,275.0,8.6,1978,0.0,0.0,74.0,2.3
20.0,0.0,0.0,0.0,VILLANOVA,145.0,0.0,0.0,0.0,0.514,282.0,50.0,0.82,61.0,28.0,877.0,31.3,0.0,0.0,340.0,12.1,1979,0.0,0.0,60.0,2.1
21.0,0.0,0.0,0.0,VILLANOVA,136.0,0.0,0.0,0.0,0.56,243.0,64.0,0.831,77.0,31.0,937.0,30.2,0.0,0.0,336.0,10.8,1980,0.0,0.0,75.0,2.4
