lg_id,salary,season,team_name
NBA,1590000.0,1992,Minnesota Timberwolves
NBA,1590000.0,1993,Minnesota Timberwolves
NBA,1590000.0,1994,Minnesota Timberwolves
NBA,1590000.0,1995,Chicago Bulls
NBA,2300000.0,1996,Chicago Bulls
NBA,2790000.0,1997,Chicago Bulls
NBA,3184900.0,1998,Chicago Bulls
NBA,4000000.0,1999,Phoenix Suns
NBA,5175000.0,2000,Phoenix Suns
NBA,5750000.0,2001,New York Knicks
NBA,6325000.0,2002,New York Knicks
NBA,6900000.0,2003,New York Knicks
