age,avg_dist,fg2_dunk,fg2_pct,fg2_pct_ast,fg2a_pct_fga,fg3_heave,fg3_pct,fg3_pct_ast,fg3_pct_corner,fg3a_heave,fg3a_pct_fga,fg_pct,fg_pct_00_03,fg_pct_03_10,fg_pct_10_16,fg_pct_16_xx,g,lg_id,mp,pct_fg2_dunk,pct_fg3a_corner,pct_fga_00_03,pct_fga_03_10,pct_fga_10_16,pct_fga_16_xx,pos,season,team_id
23.0,6.0,0.0,1.0,0.0,1.0,0.0,0.0,0.0,0.0,0.0,0.0,1.0,0.0,1.0,0.0,0.0,3.0,NBA,2.0,0.0,0.0,0.0,1.0,0.0,0.0,PF,2015,SAC
24.0,2.5,2.0,0.5,1.0,1.0,0.0,0.0,0.0,0.0,0.0,0.0,0.5,1.0,0.0,0.0,0.0,8.0,NBA,48.0,0.333,0.0,0.5,0.5,0.0,0.0,PF,2016,SAC
26.0,3.6,16.0,0.541,0.712,1.0,0.0,0.0,0.0,0.0,0.0,0.0,0.541,0.671,0.395,0.364,0.0,67.0,NBA,805.0,0.164,0.0,0.574,0.311,0.09,0.025,PF,2018,DET
27.0,6.7,0.0,0.333,0.0,0.857,0.0,1.0,1.0,0.0,0.0,0.143,0.429,0.333,0.333,0.0,0.0,5.0,NBA,43.0,0.0,0.0,0.429,0.429,0.0,0.0,PF,2019,TOT
27.0,0.0,0.0,0.0,0.0,0.0,0.0,0.0,0.0,0.0,0.0,0.0,0.0,0.0,0.0,0.0,0.0,1.0,NBA,5.0,0.0,0.0,0.0,0.0,0.0,0.0,PF,2019,PHO
27.0,6.7,0.0,0.333,0.0,0.857,0.0,1.0,1.0,0.0,0.0,0.143,0.429,0.333,0.333,0.0,0.0,4.0,NBA,38.0,0.0,0.0,0.429,0.429,0.0,0.0,PF,2019,TOR
