age,ast_per_mp,blk_per_mp,drb_per_mp,fg2_pct,fg2_per_mp,fg2a_per_mp,fg3_pct,fg3_per_mp,fg3a_per_mp,fg_pct,fg_per_mp,fga_per_mp,ft_pct,ft_per_mp,fta_per_mp,g,gs,lg_id,mp,orb_per_mp,pf_per_mp,pos,pts_per_mp,season,stl_per_mp,team_id,tov_per_mp,trb_per_mp
22.0,5.5,0.0,4.4,0.524,6.4,12.2,0.0,0.0,0.3,0.512,6.4,12.5,0.778,2.0,2.6,3.0,3.0,NBA,124.0,0.6,3.2,SG,14.8,1989,0.9,BOS,1.7,4.9
24.0,5.8,0.1,3.4,0.474,5.2,11.1,0.333,0.1,0.3,0.47,5.4,11.4,0.867,3.0,3.4,11.0,11.0,NBA,316.0,0.9,3.9,PG,13.8,1991,1.1,BOS,2.8,4.3
25.0,5.1,0.0,4.7,0.44,4.7,10.6,0.6,1.3,2.1,0.467,5.9,12.7,0.625,2.1,3.4,3.0,3.0,NBA,85.0,0.8,5.5,PG,15.2,1992,0.8,MIA,3.0,5.5
27.0,2.9,0.3,5.5,0.571,5.1,9.0,0.0,0.0,4.2,0.39,5.1,13.2,0.583,2.3,3.9,5.0,5.0,NBA,112.0,1.0,2.6,SG,12.5,1994,1.3,MIA,4.2,6.4
28.0,6.7,0.4,4.6,0.394,2.6,6.7,0.386,2.2,5.8,0.39,4.9,12.5,0.625,2.0,3.2,21.0,0.0,NBA,355.0,1.7,5.0,PG,14.0,1995,1.1,ORL,2.6,6.3
29.0,7.6,0.0,2.5,0.333,1.7,5.0,0.364,1.3,3.6,0.346,3.0,8.6,0.75,0.5,0.7,10.0,0.0,NBA,217.0,1.0,4.5,PG,7.8,1996,0.8,ORL,3.2,3.5
30.0,3.5,0.4,3.5,0.077,0.4,5.7,0.333,0.9,2.6,0.158,1.3,8.3,0.5,0.9,1.8,5.0,4.0,NBA,82.0,0.4,2.2,PG,4.4,1997,0.4,ORL,3.5,4.0
33.0,5.9,0.4,3.9,0.492,2.6,5.2,0.333,1.4,4.2,0.421,4.0,9.4,0.813,1.1,1.4,22.0,1.0,NBA,408.0,0.6,4.1,SG,10.5,2000,1.0,LAL,1.5,4.5
34.0,5.3,0.1,5.6,0.395,2.1,5.3,0.345,1.2,3.6,0.375,3.4,8.9,0.667,0.7,1.1,16.0,0.0,NBA,290.0,1.2,4.6,SG,8.7,2001,1.2,LAL,2.0,6.8
35.0,4.5,0.9,3.9,0.387,1.8,4.7,0.281,1.4,4.8,0.333,3.2,9.5,1.0,0.6,0.6,19.0,0.0,NBA,238.0,1.4,2.4,PG,8.3,2002,0.8,LAL,1.2,5.3
36.0,4.0,0.8,6.2,0.391,1.5,3.9,0.231,1.0,4.4,0.306,2.5,8.2,0.667,0.3,0.5,12.0,1.0,NBA,215.0,0.2,3.0,PG,6.4,2003,0.7,LAL,1.5,6.4
