article_url,date,headline
https://allucanheat.com/2019/10/02/shaq-dame-battle-closer-make-seem/,2019/10/02,All U Can Heat: Shaq & Dame diss battle a lot closer than most are trying to make it seem
https://hoopshabit.com/2019/09/26/denver-nuggets-get-mike-malone-guy-beer/,2019/09/26,Hoops Habit: Denver Nuggets: Get that Mike Malone guy a beer
https://lakeshowlife.com/2019/08/02/los-angeles-lakers-4-reasons-danny-green-best-signing/,2019/08/02,Lake Show Life: Los Angeles Lakers: 4 Reasons why Danny Green was their best signing
https://empirewritesback.com/2019/06/08/brooklyn-nets-dangelo-russell-staying/,2019/06/08,Empire Writes Back: Brooklyn Nets: D'Angelo Russell staying is inevitable
