age,ast_per_poss,blk_per_poss,def_rtg,drb_per_poss,fg2_pct,fg2_per_poss,fg2a_per_poss,fg3_pct,fg3_per_poss,fg3a_per_poss,fg_pct,fg_per_poss,fga_per_poss,ft_pct,ft_per_poss,fta_per_poss,g,gs,lg_id,mp,off_rtg,orb_per_poss,pf_per_poss,pos,pts_per_poss,season,stl_per_poss,team_id,tov_per_poss,trb_per_poss
22.0,7.9,0.0,110.0,6.3,0.524,9.2,17.5,0.0,0.0,0.4,0.512,9.2,17.9,0.778,2.9,3.8,3.0,3.0,NBA,124.0,108.0,0.8,4.6,SG,21.3,1989,1.3,BOS,2.5,7.1
24.0,8.1,0.2,115.0,4.8,0.474,7.3,15.5,0.333,0.2,0.5,0.47,7.5,15.9,0.867,4.1,4.8,11.0,11.0,NBA,316.0,105.0,1.3,5.4,PG,19.3,1991,1.6,BOS,4.0,6.1
25.0,7.3,0.0,126.0,6.7,0.44,6.7,15.2,0.6,1.8,3.0,0.467,8.5,18.3,0.625,3.0,4.9,3.0,3.0,NBA,85.0,102.0,1.2,7.9,PG,21.9,1992,1.2,MIA,4.3,7.9
27.0,4.3,0.5,106.0,8.1,0.571,7.6,13.4,0.0,0.0,6.2,0.39,7.6,19.6,0.583,3.3,5.7,5.0,5.0,NBA,112.0,79.0,1.4,3.8,SG,18.6,1994,1.9,MIA,6.2,9.5
28.0,10.0,0.6,113.0,6.8,0.394,3.9,10.0,0.386,3.3,8.6,0.39,7.3,18.6,0.625,3.0,4.8,21.0,0.0,NBA,355.0,109.0,2.6,7.4,PG,20.9,1995,1.7,ORL,3.9,9.4
29.0,11.9,0.0,116.0,3.9,0.333,2.6,7.7,0.364,2.1,5.7,0.346,4.6,13.4,0.75,0.8,1.0,10.0,0.0,NBA,217.0,96.0,1.5,7.0,PG,12.1,1996,1.3,ORL,4.9,5.4
30.0,5.5,0.7,112.0,5.5,0.077,0.7,9.0,0.333,1.4,4.1,0.158,2.1,13.1,0.5,1.4,2.8,5.0,4.0,NBA,82.0,51.0,0.7,3.5,PG,6.9,1997,0.7,ORL,5.5,6.2
33.0,8.7,0.5,109.0,5.7,0.492,3.8,7.7,0.333,2.1,6.3,0.421,5.9,13.9,0.813,1.7,2.1,22.0,1.0,NBA,408.0,114.0,0.9,6.0,SG,15.5,2000,1.4,LAL,2.2,6.6
34.0,7.7,0.2,99.0,8.1,0.395,3.1,7.7,0.345,1.8,5.2,0.375,4.9,13.0,0.667,1.1,1.6,16.0,0.0,NBA,290.0,102.0,1.8,6.7,SG,12.6,2001,1.8,LAL,2.9,9.9
35.0,6.6,1.3,104.0,5.7,0.387,2.6,6.8,0.281,2.0,7.1,0.333,4.6,13.9,1.0,0.9,0.9,19.0,0.0,NBA,238.0,102.0,2.0,3.5,PG,12.1,2002,1.1,LAL,1.8,7.7
36.0,5.8,1.2,107.0,8.9,0.391,2.2,5.5,0.231,1.4,6.3,0.306,3.6,11.8,0.667,0.5,0.7,12.0,1.0,NBA,215.0,85.0,0.2,4.3,PG,9.1,2003,1.0,LAL,2.2,9.1
