age,ast_per_poss,blk_per_poss,def_rtg,drb_per_poss,fg2_pct,fg2_per_poss,fg2a_per_poss,fg3_pct,fg3_per_poss,fg3a_per_poss,fg_pct,fg_per_poss,fga_per_poss,ft_pct,ft_per_poss,fta_per_poss,g,gs,lg_id,mp,off_rtg,orb_per_poss,pf_per_poss,pos,pts_per_poss,season,stl_per_poss,team_id,tov_per_poss,trb_per_poss
26.0,3.7,2.3,100.0,8.9,0.538,7.0,13.0,0.0,0.0,0.0,0.536,7.0,13.0,0.619,1.9,3.1,54.0,24.0,NBA,1088.0,111.0,4.3,5.9,PF,15.9,2012,2.6,NOH,2.3,13.2
27.0,5.0,1.2,106.0,9.8,0.551,6.5,11.8,0.0,0.0,0.0,0.551,6.5,11.8,0.4,1.4,3.5,55.0,3.0,NBA,734.0,103.0,4.2,7.5,C,14.4,2013,1.6,TOT,3.3,14.0
27.0,5.4,1.2,108.0,9.1,0.536,6.1,11.4,0.0,0.0,0.0,0.536,6.1,11.4,0.5,1.7,3.5,43.0,3.0,NBA,571.0,102.0,3.6,7.6,C,14.0,2013,1.2,ORL,3.5,12.8
27.0,3.7,1.2,99.0,12.1,0.595,7.8,13.1,0.0,0.0,0.0,0.595,7.8,13.1,0.083,0.3,3.7,12.0,0.0,NBA,163.0,106.0,6.2,7.5,C,15.9,2013,2.8,MIL,2.8,18.3
28.0,3.3,1.2,101.0,9.8,0.51,6.1,12.1,0.0,0.0,0.0,0.51,6.1,12.1,0.4,0.9,2.4,26.0,14.0,NBA,429.0,98.0,5.0,5.6,C,13.2,2014,3.0,ATL,3.4,14.8
