age,ast_pct,blk_pct,bpm,bpm-dum,dbpm,drb_pct,dws,fg3a_per_fga_pct,fta_per_fga_pct,g,lg_id,mp,obpm,orb_pct,ows,per,pos,season,stl_pct,team_id,tov_pct,trb_pct,ts_pct,usg_pct,vorp,ws,ws-dum,ws_per_48
19.0,9.6,0.6,-7.8,0.0,-1.7,7.9,0.2,0.132,0.418,40.0,NBA,293.0,-6.1,3.9,-0.6,4.3,SG,2001,1.8,UTA,20.6,5.9,0.413,21.3,-0.4,-0.4,0.0,-0.071
20.0,17.1,1.7,-4.9,0.0,-1.0,9.3,0.7,0.067,0.143,67.0,NBA,1134.0,-4.0,4.6,-0.9,8.2,SG,2002,1.4,UTA,14.7,7.0,0.412,18.4,-0.8,-0.2,0.0,-0.01
21.0,9.1,0.8,-6.7,0.0,-1.9,9.7,0.6,0.042,0.239,61.0,NBA,760.0,-4.8,3.6,-0.7,8.2,SG,2003,1.6,UTA,13.5,6.8,0.444,22.0,-0.9,-0.1,0.0,-0.009
22.0,11.9,0.6,-3.5,0.0,-1.9,10.9,0.7,0.082,0.234,80.0,NBA,2444.0,-1.6,3.8,0.8,11.6,SG-SF,2004,1.2,TOT,11.1,7.3,0.473,20.4,-0.9,1.5,0.0,0.029
22.0,12.0,0.9,-3.7,0.0,-1.9,11.3,0.8,0.051,0.227,54.0,NBA,1511.0,-1.8,3.5,0.6,12.2,SG,2004,1.0,UTA,11.0,7.3,0.479,22.3,-0.6,1.5,0.0,0.046
22.0,11.6,0.1,-3.2,0.0,-1.9,10.4,-0.2,0.144,0.249,26.0,NBA,933.0,-1.3,4.3,0.2,10.5,SF,2004,1.4,ORL,11.2,7.3,0.46,17.3,-0.3,0.0,0.0,0.002
23.0,10.4,0.6,-5.9,0.0,-3.1,6.5,0.3,0.157,0.237,55.0,NBA,1089.0,-2.9,4.0,-0.4,9.3,SG,2005,0.7,ORL,10.8,5.2,0.456,21.1,-1.1,-0.1,0.0,-0.007
24.0,10.1,0.5,-2.6,0.0,-0.8,8.3,1.3,0.019,0.31,82.0,NBA,2648.0,-1.7,2.8,1.2,10.9,SG,2006,1.2,ORL,12.2,5.6,0.507,18.1,-0.4,2.4,0.0,0.044
25.0,14.3,0.6,-1.7,0.0,-1.9,7.9,0.3,0.243,0.287,82.0,NBA,2419.0,0.2,2.5,2.7,12.9,SG,2007,1.4,WAS,12.3,5.1,0.542,17.6,0.2,3.1,0.0,0.061
26.0,15.5,0.5,-0.4,0.0,-1.7,9.3,0.9,0.529,0.253,82.0,NBA,2564.0,1.3,1.6,3.2,12.6,SG,2008,1.4,WAS,10.5,5.4,0.529,17.4,1.1,4.1,0.0,0.077
27.0,16.3,0.2,-4.7,0.0,-2.5,8.9,0.0,0.558,0.26,32.0,NBA,886.0,-2.2,1.4,-0.6,6.9,SG,2009,1.3,WAS,11.1,5.0,0.41,14.9,-0.6,-0.6,0.0,-0.032
28.0,8.9,0.5,-5.0,0.0,-0.5,10.5,0.5,0.534,0.215,64.0,NBA,883.0,-4.5,1.4,-0.9,3.3,SG,2010,0.9,TOT,14.4,5.9,0.381,10.7,-0.7,-0.4,0.0,-0.022
28.0,10.0,0.6,-4.8,0.0,-0.4,11.0,0.3,0.602,0.243,40.0,NBA,616.0,-4.4,1.3,-0.6,3.3,SG,2010,0.9,WAS,17.4,6.1,0.382,10.2,-0.4,-0.3,0.0,-0.025
28.0,6.2,0.3,-5.6,0.0,-0.8,9.3,0.2,0.417,0.167,24.0,NBA,267.0,-4.8,1.7,-0.3,3.2,SG,2010,1.0,DAL,8.5,5.6,0.38,12.1,-0.2,-0.1,0.0,-0.015
29.0,10.0,0.3,-0.3,0.0,-0.8,8.4,1.0,0.755,0.13,72.0,NBA,1158.0,0.6,2.1,0.8,9.8,SG,2011,1.0,DAL,11.2,5.4,0.549,15.9,0.5,1.8,0.0,0.074
30.0,6.5,0.3,-4.5,0.0,-1.4,11.7,0.1,0.843,0.093,51.0,NBA,960.0,-3.1,0.8,-0.3,4.3,SF,2012,1.1,NJN,9.6,6.1,0.413,9.4,-0.6,-0.3,0.0,-0.014
31.0,6.5,0.4,-1.5,0.0,-0.6,10.1,0.9,0.798,0.088,56.0,NBA,1158.0,-0.9,1.8,0.5,8.1,SG,2013,1.3,ATL,7.8,6.0,0.522,11.8,0.1,1.5,0.0,0.061
