age,ast,blk,drb,efg_pct,fg,fg2,fg2_pct,fg2a,fg3,fg3_pct,fg3a,fg_pct,fga,ft,ft_pct,fta,g,gs,lg_id,mp,orb,pf,pos,pts,season,stl,team_id,tov,trb
19.0,63.0,112.0,357.0,0.516,349.0,349.0,0.521,670.0,0.0,0.0,6.0,0.516,676.0,169.0,0.751,225.0,64.0,60.0,NBA,1846.0,165.0,158.0,PF,867.0,2013,75.0,NOH,89.0,522.0
20.0,105.0,189.0,466.0,0.52,522.0,520.0,0.522,996.0,2.0,0.222,9.0,0.519,1005.0,348.0,0.791,440.0,67.0,66.0,NBA,2358.0,207.0,200.0,PF,1394.0,2014,89.0,NOP,109.0,673.0
21.0,149.0,200.0,523.0,0.536,642.0,641.0,0.54,1187.0,1.0,0.083,12.0,0.535,1199.0,371.0,0.805,461.0,68.0,68.0,NBA,2455.0,173.0,141.0,PF,1656.0,2015,100.0,NOP,95.0,696.0
22.0,116.0,125.0,497.0,0.508,560.0,525.0,0.511,1028.0,35.0,0.324,108.0,0.493,1136.0,326.0,0.758,430.0,61.0,61.0,NBA,2164.0,130.0,148.0,C,1481.0,2016,78.0,NOP,121.0,627.0
23.0,157.0,167.0,712.0,0.518,770.0,730.0,0.524,1392.0,40.0,0.299,134.0,0.505,1526.0,519.0,0.802,647.0,75.0,75.0,NBA,2708.0,172.0,168.0,C,2099.0,2017,94.0,NOP,181.0,884.0
24.0,174.0,193.0,645.0,0.552,780.0,725.0,0.558,1300.0,55.0,0.34,162.0,0.534,1462.0,495.0,0.828,598.0,75.0,75.0,NBA,2727.0,187.0,159.0,PF,2110.0,2018,115.0,NOP,162.0,832.0
25.0,218.0,135.0,498.0,0.54,530.0,482.0,0.547,881.0,48.0,0.331,145.0,0.517,1026.0,344.0,0.794,433.0,56.0,56.0,NBA,1850.0,174.0,132.0,C,1452.0,2019,88.0,NOP,112.0,672.0
26.0,19.0,21.0,56.0,0.478,63.0,58.0,0.496,117.0,5.0,0.25,20.0,0.46,137.0,55.0,0.887,62.0,7.0,7.0,NBA,243.0,20.0,19.0,PF,186.0,2020,7.0,LAL,21.0,76.0
