age,ast,blk,drb,efg_pct,fg,fg2,fg2_pct,fg2a,fg3,fg3_pct,fg3a,fg_pct,fga,ft,ft_pct,fta,g,gs,lg_id,mp,orb,pf,pos,pts,season,stl,team_id,tov,trb
21.0,8.0,12.0,35.0,0.54,47.0,47.0,0.553,85.0,0.0,0.0,2.0,0.54,87.0,32.0,0.889,36.0,4.0,4.0,NBA,172.0,9.0,12.0,PF,126.0,2015,5.0,NOP,13.0,44.0
24.0,15.0,21.0,97.0,0.534,106.0,100.0,0.549,182.0,6.0,0.273,22.0,0.52,204.0,53.0,0.828,64.0,9.0,9.0,NBA,358.0,24.0,30.0,PF,271.0,2018,18.0,NOP,23.0,121.0
