age,ast,blk,drb,efg_pct,fg,fg2,fg2_pct,fg2a,fg3,fg3_pct,fg3a,fg_pct,fga,ft,ft_pct,fta,g,gs,lg_id,mp,orb,pf,pos,pts,season,stl,team_id,tov,trb
21.0,11.0,1.0,11.0,0.5,7.0,5.0,0.5,10.0,2.0,0.333,6.0,0.438,16.0,6.0,0.667,9.0,9.0,0.0,NBA,80.0,0.0,5.0,PG,22.0,2005,4.0,DAL,10.0,11.0
22.0,50.0,3.0,24.0,0.48,82.0,82.0,0.503,163.0,0.0,0.0,8.0,0.48,171.0,52.0,0.703,74.0,23.0,15.0,NBA,558.0,15.0,69.0,PG,216.0,2006,18.0,DAL,42.0,39.0
23.0,30.0,1.0,11.0,0.516,31.0,28.0,0.528,53.0,3.0,0.3,10.0,0.492,63.0,14.0,0.737,19.0,6.0,6.0,NBA,163.0,1.0,23.0,PG,79.0,2007,6.0,DAL,9.0,12.0
28.0,15.0,2.0,6.0,0.438,19.0,15.0,0.455,33.0,4.0,0.267,15.0,0.396,48.0,10.0,0.714,14.0,4.0,4.0,NBA,120.0,0.0,14.0,PG,52.0,2012,3.0,UTA,12.0,6.0
29.0,22.0,1.0,15.0,0.405,23.0,18.0,0.474,38.0,5.0,0.2,25.0,0.365,63.0,17.0,0.68,25.0,6.0,6.0,NBA,225.0,2.0,18.0,SG,68.0,2013,10.0,ATL,12.0,17.0
30.0,27.0,2.0,16.0,0.553,31.0,20.0,0.488,41.0,11.0,0.44,25.0,0.47,66.0,7.0,0.875,8.0,7.0,0.0,NBA,176.0,1.0,13.0,PG,80.0,2014,2.0,DAL,11.0,17.0
31.0,4.0,0.0,7.0,0.348,8.0,8.0,0.667,12.0,0.0,0.0,11.0,0.348,23.0,8.0,0.889,9.0,4.0,0.0,NBA,74.0,1.0,10.0,PG,24.0,2015,2.0,DAL,4.0,8.0
32.0,8.0,0.0,13.0,0.567,15.0,11.0,0.647,17.0,4.0,0.308,13.0,0.5,30.0,5.0,0.5,10.0,5.0,0.0,NBA,121.0,1.0,16.0,PG,39.0,2016,3.0,DAL,3.0,14.0
