age,ast_per_g,blk_per_g,drb_per_g,efg_pct,fg2_pct,fg2_per_g,fg2a_per_g,fg3_pct,fg3_per_g,fg3a_per_g,fg_pct,fg_per_g,fga_per_g,ft_pct,ft_per_g,fta_per_g,g,gs,lg_id,mp_per_g,orb_per_g,pf_per_g,pos,pts_per_g,season,stl_per_g,team_id,tov_per_g,trb_per_g
23.0,0.5,0.5,3.8,0.458,0.454,2.0,4.5,0.5,0.0,0.0,0.455,2.0,4.5,0.764,1.4,1.8,81.0,31.0,NBA,18.7,1.6,2.5,PF,5.5,2007,0.6,ATL,1.2,5.4
24.0,0.3,0.3,2.1,0.434,0.438,1.4,3.3,0.0,0.0,0.0,0.434,1.4,3.3,0.676,1.1,1.6,64.0,0.0,NBA,12.1,1.1,1.7,PF,4.0,2008,0.3,TOT,0.5,3.2
24.0,0.3,0.3,2.0,0.37,0.374,1.0,2.8,0.0,0.0,0.0,0.37,1.0,2.8,0.686,1.0,1.4,36.0,0.0,NBA,11.5,0.9,1.7,PF,3.0,2008,0.4,ATL,0.4,3.0
24.0,0.3,0.4,2.3,0.491,0.495,2.0,4.0,0.0,0.0,0.0,0.491,2.0,4.0,0.667,1.3,1.9,28.0,0.0,NBA,12.9,1.2,1.8,PF,5.2,2008,0.3,SAC,0.8,3.5
25.0,0.3,0.4,2.3,0.446,0.452,1.6,3.4,0.0,0.0,0.0,0.446,1.6,3.5,0.73,1.0,1.4,45.0,0.0,NBA,11.4,1.1,1.4,PF,4.1,2009,0.5,TOT,0.8,3.4
25.0,0.3,0.3,1.8,0.449,0.46,1.3,2.9,0.0,0.0,0.1,0.449,1.3,3.0,0.762,1.1,1.4,30.0,0.0,NBA,10.2,0.8,1.2,PF,3.7,2009,0.4,SAC,0.9,2.6
25.0,0.3,0.5,3.4,0.441,0.441,2.0,4.5,0.0,0.0,0.0,0.441,2.0,4.5,0.667,0.9,1.4,15.0,0.0,NBA,13.8,1.6,1.9,PF,4.9,2009,0.7,MIN,0.5,5.0
26.0,0.4,0.4,1.8,0.521,0.525,1.2,2.2,0.0,0.0,0.0,0.521,1.2,2.2,0.765,1.4,1.8,54.0,0.0,NBA,11.1,0.9,1.6,PF,3.7,2010,0.2,BOS,0.6,2.7
27.0,0.5,0.4,3.1,0.468,0.468,1.7,3.7,0.0,0.0,0.0,0.468,1.7,3.7,0.773,1.0,1.3,59.0,38.0,NBA,15.4,1.6,2.1,PF,4.5,2011,0.4,TOT,0.7,4.6
27.0,0.5,0.5,3.5,0.453,0.453,2.0,4.3,0.0,0.0,0.0,0.453,2.0,4.3,0.739,0.8,1.1,42.0,32.0,NBA,17.0,1.8,2.2,PF,4.7,2011,0.4,DEN,0.9,5.3
27.0,0.8,0.2,1.8,0.538,0.538,1.2,2.3,0.0,0.0,0.0,0.538,1.2,2.3,0.828,1.4,1.7,17.0,6.0,NBA,11.6,1.1,2.0,PF,3.9,2011,0.3,NYK,0.4,2.9
28.0,0.6,0.7,3.6,0.478,0.478,1.7,3.5,0.0,0.0,0.0,0.478,1.7,3.5,0.731,1.3,1.8,58.0,35.0,NBA,22.0,2.4,2.6,C,4.6,2012,0.8,NJN,1.1,6.0
