age,ast,ast_per_g,blk,college_id,fg,fg3,fg3_pct,fg3a,fg_pct,fga,ft,ft_pct,fta,g,mp,mp_per_g,orb,pf,pts,pts_per_g,season,stl,tov,trb,trb_per_g
19.0,15.0,0.5,52.0,DUKE,95.0,0.0,0.0,1.0,0.516,184.0,80.0,0.645,124.0,33.0,633.0,19.2,0.0,0.0,270.0,8.2,2003,23.0,0.0,195.0,5.9
20.0,34.0,0.9,111.0,DUKE,164.0,2.0,0.4,5.0,0.586,280.0,138.0,0.69,200.0,37.0,963.0,26.0,0.0,0.0,468.0,12.6,2004,36.0,0.0,314.0,8.5
21.0,31.0,0.9,122.0,DUKE,191.0,0.0,0.0,0.0,0.582,328.0,131.0,0.662,198.0,33.0,1109.0,33.6,0.0,0.0,513.0,15.5,2005,42.0,0.0,369.0,11.2
22.0,39.0,1.1,137.0,DUKE,237.0,2.0,0.333,6.0,0.578,410.0,201.0,0.744,270.0,36.0,1198.0,33.3,0.0,0.0,677.0,18.8,2006,60.0,0.0,384.0,10.7
