age,ast,blk,drb,fg,fg2,fg2a,fg3,fg3a,fga,ft,fta,game_score,lg_id,mp,orb,pf,pts,season,stl,team_id,tov,trb
20.0,7.0,2.0,6.0,5.0,5.0,8.0,3.0,4.0,10.0,6.0,8.0,14.7,NBA,0.0,2.0,5.0,14.0,2001,4.0,LAC,5.0,6.0
21.0,3.0,2.0,2.0,5.0,3.0,6.0,2.0,3.0,8.0,5.0,6.0,13.2,NBA,0.0,0.0,4.0,17.0,2002,1.0,LAC,2.0,2.0
22.0,6.0,1.0,4.0,8.0,6.0,8.0,4.0,8.0,13.0,5.0,6.0,15.4,NBA,0.0,2.0,5.0,18.0,2003,3.0,LAC,3.0,4.0
23.0,10.0,1.0,4.0,8.0,8.0,18.0,2.0,3.0,19.0,8.0,8.0,16.6,NBA,0.0,2.0,6.0,20.0,2004,4.0,LAC,4.0,5.0
24.0,6.0,1.0,5.0,7.0,6.0,9.0,2.0,5.0,11.0,8.0,10.0,16.6,NBA,0.0,2.0,4.0,19.0,2005,3.0,MIA,4.0,5.0
25.0,9.0,1.0,5.0,9.0,9.0,14.0,2.0,7.0,17.0,6.0,8.0,14.4,NBA,43.0,2.0,6.0,23.0,2006,5.0,ORL,6.0,7.0
26.0,6.0,2.0,4.0,9.0,7.0,12.0,5.0,5.0,14.0,5.0,7.0,15.5,NBA,37.0,2.0,4.0,25.0,2007,4.0,ORL,5.0,4.0
27.0,9.0,1.0,4.0,7.0,7.0,11.0,2.0,4.0,12.0,9.0,10.0,16.9,NBA,35.0,1.0,5.0,19.0,2008,4.0,ORL,3.0,5.0
28.0,10.0,1.0,5.0,9.0,7.0,10.0,5.0,10.0,14.0,7.0,8.0,21.0,NBA,48.0,3.0,5.0,23.0,2009,3.0,NJN,5.0,7.0
29.0,8.0,0.0,6.0,8.0,5.0,9.0,4.0,7.0,13.0,6.0,6.0,17.4,NBA,38.0,2.0,4.0,21.0,2010,3.0,NJN,4.0,7.0
30.0,11.0,1.0,7.0,9.0,6.0,9.0,4.0,7.0,14.0,5.0,6.0,17.9,NBA,44.0,2.0,5.0,23.0,2011,3.0,MIL,5.0,7.0
31.0,5.0,1.0,3.0,7.0,4.0,6.0,4.0,6.0,10.0,5.0,5.0,15.3,NBA,32.0,1.0,4.0,18.0,2012,1.0,BOS,4.0,3.0
32.0,3.0,0.0,1.0,4.0,2.0,3.0,4.0,5.0,5.0,2.0,2.0,11.7,NBA,25.0,0.0,2.0,13.0,2013,1.0,MEM,1.0,1.0
