age,ast_per_poss,blk_per_poss,def_rtg,drb_per_poss,fg2_pct,fg2_per_poss,fg2a_per_poss,fg3_pct,fg3_per_poss,fg3a_per_poss,fg_pct,fg_per_poss,fga_per_poss,ft_pct,ft_per_poss,fta_per_poss,g,gs,lg_id,mp,off_rtg,orb_per_poss,pf_per_poss,pos,pts_per_poss,season,stl_per_poss,team_id,tov_per_poss,trb_per_poss
20.0,7.7,0.5,107.0,3.5,0.426,5.2,12.2,0.35,1.2,3.5,0.409,6.4,15.7,0.698,5.4,7.7,76.0,1.0,NBA,1237.0,100.0,0.3,4.6,PG,19.4,2001,1.8,LAC,4.1,3.9
21.0,4.1,1.0,111.0,1.0,0.419,6.2,14.8,0.286,1.4,4.8,0.386,7.6,19.6,0.833,3.4,4.1,14.0,0.0,NBA,155.0,92.0,0.0,6.9,PG,19.9,2002,1.4,LAC,3.4,1.0
22.0,4.8,0.3,111.0,3.4,0.411,4.2,10.3,0.36,2.7,7.5,0.389,6.9,17.8,0.772,2.4,3.1,55.0,1.0,NBA,969.0,97.0,0.5,5.0,SG,19.0,2003,1.3,LAC,3.3,3.9
23.0,6.0,0.3,111.0,2.9,0.422,6.0,14.2,0.174,0.4,2.1,0.389,6.4,16.3,0.83,3.6,4.4,58.0,24.0,NBA,1137.0,97.0,0.8,5.0,PG,16.7,2004,2.1,LAC,3.0,3.7
24.0,5.9,0.5,106.0,3.5,0.444,5.4,12.1,0.253,0.8,3.3,0.403,6.2,15.4,0.78,3.8,4.9,74.0,0.0,NBA,1184.0,99.0,0.5,5.4,PG,17.1,2005,1.7,MIA,2.9,4.0
25.0,5.2,0.2,109.0,3.2,0.456,7.9,17.3,0.302,0.6,2.1,0.44,8.5,19.4,0.835,4.8,5.8,50.0,7.0,NBA,1137.0,99.0,0.5,5.5,PG,22.5,2006,2.3,ORL,3.9,3.7
26.0,4.2,0.6,107.0,2.4,0.434,5.8,13.5,0.323,1.2,3.6,0.41,7.0,17.0,0.809,4.2,5.2,66.0,2.0,NBA,1435.0,102.0,0.8,4.7,SG,19.4,2007,1.9,ORL,2.7,3.2
27.0,5.1,0.2,108.0,3.6,0.492,6.8,13.8,0.338,0.8,2.5,0.468,7.6,16.3,0.845,6.3,7.4,72.0,1.0,NBA,1334.0,115.0,0.3,5.0,PG,22.4,2008,1.4,ORL,2.4,3.9
28.0,7.0,0.2,113.0,3.4,0.446,4.2,9.3,0.421,2.5,6.0,0.436,6.7,15.4,0.825,3.3,4.0,77.0,18.0,NBA,2074.0,112.0,0.6,3.5,PG,19.3,2009,1.8,NJN,2.7,4.0
29.0,7.3,0.0,113.0,2.5,0.419,3.8,9.0,0.376,3.2,8.5,0.398,7.0,17.5,0.77,2.5,3.3,53.0,8.0,NBA,971.0,102.0,0.4,4.4,PG,19.7,2010,1.8,NJN,3.2,2.9
30.0,7.4,0.1,106.0,3.2,0.439,3.8,8.7,0.346,2.5,7.1,0.397,6.3,15.8,0.83,2.4,2.9,80.0,22.0,NBA,1757.0,103.0,0.4,3.6,PG,17.4,2011,1.6,MIL,2.8,3.6
31.0,4.1,0.2,104.0,2.9,0.476,3.1,6.6,0.333,2.2,6.5,0.405,5.3,13.1,0.742,1.8,2.5,46.0,2.0,NBA,662.0,93.0,0.2,4.6,SG,14.6,2012,1.0,BOS,2.7,3.1
32.0,5.3,0.0,108.0,0.7,0.556,3.3,6.0,0.417,3.3,7.9,0.476,6.6,13.9,0.857,4.0,4.6,7.0,0.0,NBA,82.0,117.0,0.0,5.3,PG,20.5,2013,0.7,MEM,3.3,0.7
