lg_id,salary,season,team_name
NBA,1538880.0,2001,Los Angeles Clippers
NBA,1654320.0,2002,Los Angeles Clippers
NBA,1769760.0,2003,Los Angeles Clippers
NBA,2256444.0,2004,Los Angeles Clippers
NBA,745046.0,2005,Miami Heat
NBA,3100000.0,2006,Orlando Magic
NBA,3348000.0,2007,Orlando Magic
NBA,3596000.0,2008,Orlando Magic
NBA,3300000.0,2009,New Jersey Nets
NBA,3564000.0,2010,New Jersey Nets
NBA,2000000.0,2011,Milwaukee Bucks
NBA,2246400.0,2012,Boston Celtics
NBA,1352181.0,2013,Boston Celtics
