age,ast,ast_per_g,blk,college_id,fg,fg3,fg3_pct,fg3a,fg_pct,fga,ft,ft_pct,fta,g,mp,mp_per_g,orb,pf,pts,pts_per_g,season,stl,tov,trb,trb_per_g
18.0,85.0,3.0,12.0,MISSOURI,78.0,8.0,0.286,28.0,0.459,170.0,79.0,0.718,110.0,28.0,676.0,24.1,0.0,47.0,243.0,8.7,1999,32.0,55.0,58.0,2.1
19.0,113.0,3.6,17.0,MISSOURI,145.0,59.0,0.347,170.0,0.389,373.0,124.0,0.743,167.0,31.0,983.0,31.7,0.0,56.0,473.0,15.3,2000,44.0,79.0,84.0,2.7
