age,ast_per_poss,blk_per_poss,def_rtg,drb_per_poss,fg2_pct,fg2_per_poss,fg2a_per_poss,fg3_pct,fg3_per_poss,fg3a_per_poss,fg_pct,fg_per_poss,fga_per_poss,ft_pct,ft_per_poss,fta_per_poss,g,gs,lg_id,mp,off_rtg,orb_per_poss,pf_per_poss,pos,pts_per_poss,season,stl_per_poss,team_id,tov_per_poss,trb_per_poss
19.0,8.6,1.0,105.0,5.6,0.433,5.3,12.3,0.174,0.5,3.2,0.381,5.9,15.5,0.563,1.2,2.2,48.0,0.0,NBA,392.0,82.0,0.4,6.4,PG,13.6,2013,1.2,CHI,4.8,6.0
20.0,6.9,0.6,107.0,4.7,0.327,3.9,12.1,0.278,0.6,2.1,0.319,4.5,14.2,0.743,3.1,4.2,40.0,3.0,NBA,443.0,78.0,0.1,5.5,SG,12.8,2014,1.2,TOT,4.7,4.8
20.0,6.2,0.9,105.0,4.0,0.25,3.1,12.3,0.2,0.4,2.2,0.242,3.5,14.5,0.688,2.4,3.5,19.0,2.0,NBA,242.0,68.0,0.2,5.5,SG,9.9,2014,0.4,CHI,3.7,4.2
20.0,7.8,0.3,109.0,5.5,0.422,5.0,11.8,0.375,0.8,2.1,0.415,5.7,13.8,0.789,3.9,5.0,21.0,1.0,NBA,201.0,89.0,0.0,5.5,SG,16.2,2014,2.1,BRK,5.7,5.5
24.0,8.9,0.0,112.0,3.4,0.25,2.0,8.2,0.25,0.7,2.7,0.25,2.7,10.9,0.4,1.4,3.4,3.0,0.0,NBA,74.0,83.0,0.7,3.4,PG,7.5,2018,2.7,MEM,2.0,4.1
