age,ast_per_mp,blk_per_mp,drb_per_mp,fg2_pct,fg2_per_mp,fg2a_per_mp,fg3_pct,fg3_per_mp,fg3a_per_mp,fg_pct,fg_per_mp,fga_per_mp,ft_pct,ft_per_mp,fta_per_mp,g,gs,lg_id,mp,orb_per_mp,pf_per_mp,pos,pts_per_mp,season,stl_per_mp,team_id,tov_per_mp,trb_per_mp
23.0,1.9,1.3,4.7,0.667,5.9,8.9,0.0,0.0,0.1,0.661,5.9,8.9,0.703,2.0,2.9,49.0,3.0,NBA,463.0,2.8,3.9,SF,13.8,2011,1.3,UTA,1.5,7.5
24.0,2.2,4.0,5.1,0.659,4.5,6.8,0.0,0.0,0.2,0.643,4.5,7.0,0.5,1.3,2.7,29.0,0.0,NBA,217.0,3.2,3.8,SF,10.3,2012,1.0,UTA,0.8,8.3
25.0,1.8,2.2,5.4,0.628,4.5,7.2,0.0,0.0,0.2,0.614,4.5,7.4,0.636,3.5,5.5,37.0,0.0,NBA,215.0,4.4,5.0,PF,12.6,2013,1.3,UTA,1.3,9.7
26.0,1.3,1.4,5.7,0.53,5.2,9.8,0.0,0.0,0.1,0.527,5.2,9.9,0.68,1.5,2.2,66.0,4.0,NBA,1209.0,3.6,4.1,SF,11.9,2014,1.3,UTA,1.2,9.2
27.0,1.8,1.6,6.1,0.566,4.1,7.2,0.4,0.3,0.7,0.552,4.3,7.8,0.828,3.2,3.9,38.0,0.0,NBA,266.0,3.5,3.9,SF,12.2,2015,1.5,UTA,0.7,9.6
28.0,0.3,1.3,6.2,0.688,3.2,4.6,0.25,0.6,2.3,0.542,3.7,6.9,0.714,2.2,3.0,30.0,2.0,NBA,251.0,1.6,2.7,SF,10.2,2016,0.9,DAL,1.0,7.7
30.0,0.0,0.0,0.0,1.0,7.2,7.2,0.0,0.0,0.0,1.0,7.2,7.2,0.0,0.0,0.0,1.0,0.0,NBA,5.0,7.2,7.2,SF,14.4,2018,0.0,ATL,7.2,7.2
