age,ast,blk,drb,fg,fg2,fg2a,fg3,fg3a,fga,ft,fta,game_score,lg_id,mp,orb,pf,pts,season,stl,team_id,tov,trb
23.0,3.0,2.0,5.0,6.0,6.0,7.0,0.0,1.0,7.0,3.0,5.0,14.1,NBA,23,3.0,4.0,14.0,2011,2.0,UTA,4.0,6.0
24.0,3.0,3.0,5.0,5.0,5.0,8.0,0.0,1.0,9.0,3.0,4.0,18.7,NBA,29,6.0,2.0,13.0,2012,3.0,UTA,2.0,10.0
25.0,5.0,2.0,5.0,6.0,6.0,8.0,0.0,1.0,8.0,6.0,8.0,13.4,NBA,26,4.0,4.0,14.0,2013,2.0,UTA,3.0,9.0
26.0,3.0,4.0,9.0,8.0,8.0,13.0,0.0,1.0,13.0,6.0,12.0,16.5,NBA,39,7.0,6.0,18.0,2014,3.0,UTA,4.0,13.0
27.0,3.0,2.0,6.0,4.0,4.0,8.0,1.0,1.0,9.0,6.0,6.0,13.3,NBA,22,4.0,4.0,12.0,2015,2.0,UTA,1.0,7.0
28.0,1.0,2.0,6.0,3.0,3.0,5.0,1.0,5.0,7.0,3.0,4.0,10.1,NBA,32,3.0,3.0,8.0,2016,1.0,DAL,1.0,7.0
30.0,0.0,0.0,0.0,1.0,1.0,1.0,0.0,0.0,1.0,0.0,0.0,1.0,NBA,6,1.0,1.0,2.0,2018,0.0,ATL,1.0,1.0
