age,and1s,astd_pts,drawn_offensive,drawn_shooting,fouls_offensive,fouls_shooting,g,lg_id,mp,own_shots_blk,pct_1,pct_2,pct_3,pct_4,pct_5,plus_minus_net,plus_minus_on,pos,season,team_id,tov_bad_pass,tov_lost_ball
23.0,3.0,55.0,2.0,16.0,5.0,27.0,49.0,NBA,463.0,7.0,0.0,13.0,62.0,26.0,0.0,-1.1,-3.0,SF,2011,UTA,6.0,3.0
24.0,0.0,29.0,1.0,7.0,0.0,17.0,29.0,NBA,217.0,2.0,0.0,7.0,36.0,57.0,0.0,-11.8,-10.4,SF,2012,UTA,3.0,1.0
25.0,3.0,26.0,4.0,11.0,1.0,17.0,37.0,NBA,215.0,1.0,0.0,0.0,12.0,88.0,1.0,4.8,4.4,PF,2013,UTA,2.0,4.0
26.0,11.0,100.0,9.0,32.0,9.0,65.0,66.0,NBA,1209.0,23.0,0.0,2.0,51.0,48.0,0.0,2.0,-6.6,SF,2014,UTA,19.0,8.0
27.0,5.0,34.0,0.0,15.0,2.0,16.0,38.0,NBA,266.0,4.0,0.0,8.0,50.0,43.0,0.0,7.4,7.1,SF,2015,UTA,1.0,1.0
28.0,3.0,4.0,1.0,8.0,1.0,12.0,30.0,NBA,251.0,2.0,0.0,2.0,53.0,43.0,3.0,-4.7,-4.6,SF,2016,DAL,3.0,2.0
30.0,0.0,0.0,0.0,0.0,0.0,1.0,1.0,NBA,5.0,0.0,0.0,0.0,100.0,0.0,0.0,-39.6,-45.5,SF,2018,ATL,1.0,0.0
