age,ast_per_poss,blk_per_poss,def_rtg,drb_per_poss,fg2_pct,fg2_per_poss,fg2a_per_poss,fg3_pct,fg3_per_poss,fg3a_per_poss,fg_pct,fg_per_poss,fga_per_poss,ft_pct,ft_per_poss,fta_per_poss,g,gs,lg_id,mp,off_rtg,orb_per_poss,pf_per_poss,pos,pts_per_poss,season,stl_per_poss,team_id,tov_per_poss,trb_per_poss
21.0,2.7,0.5,101.0,6.8,0.479,11.2,23.3,0.0,0.0,0.0,0.479,11.2,23.3,0.677,4.4,6.5,79.0,0.0,NBA,3092.0,98.0,3.7,4.2,SF,26.7,1978,1.7,NJN,4.4,10.5
22.0,4.5,0.6,102.0,6.4,0.522,10.9,20.8,0.0,0.0,0.0,0.522,10.9,20.8,0.564,5.4,9.5,82.0,0.0,NBA,2859.0,102.0,3.8,5.0,SF,27.1,1979,1.8,NJN,5.0,10.3
23.0,6.1,0.5,111.0,7.5,0.518,8.3,16.1,0.0,0.0,0.0,0.518,8.3,16.1,0.54,4.0,7.4,19.0,0.0,NBA,419.0,94.0,2.8,7.7,SF,20.7,1980,0.8,UTA,5.9,10.3
24.0,4.7,0.6,110.0,6.1,0.589,11.9,20.2,0.333,0.0,0.1,0.588,11.9,20.3,0.703,5.0,7.1,81.0,0.0,NBA,2914.0,116.0,2.9,5.0,SF,28.9,1981,1.2,GSW,4.3,9.0
25.0,4.7,0.4,109.0,5.4,0.568,12.2,21.5,0.2,0.0,0.1,0.566,12.2,21.6,0.705,5.8,8.3,79.0,77.0,NBA,2861.0,114.0,2.3,4.7,SF,30.3,1982,1.3,GSW,4.4,7.8
26.0,4.4,0.3,100.0,5.1,0.531,13.5,25.5,0.0,0.0,0.1,0.528,13.5,25.6,0.722,6.3,8.7,68.0,68.0,NBA,2207.0,107.0,2.2,5.2,SF,33.3,1983,2.0,NYK,4.4,7.3
27.0,3.0,0.3,105.0,4.9,0.573,14.4,25.2,0.0,0.0,0.1,0.572,14.4,25.3,0.779,7.9,10.2,77.0,76.0,NBA,2667.0,119.0,2.2,5.0,SF,36.8,1984,1.4,NYK,3.6,7.2
28.0,4.8,0.4,111.0,4.7,0.534,16.1,30.2,0.1,0.0,0.2,0.53,16.2,30.5,0.772,10.0,12.9,55.0,55.0,NBA,2063.0,113.0,2.7,4.5,SF,42.3,1985,1.7,NYK,4.8,7.4
30.0,4.3,0.0,115.0,4.3,0.495,11.8,23.9,0.0,0.0,0.0,0.495,11.8,23.9,0.744,7.3,9.8,6.0,4.0,NBA,214.0,110.0,3.0,3.2,SF,31.0,1987,0.5,NYK,3.4,7.3
31.0,4.6,0.2,110.0,4.6,0.503,11.2,22.3,0.167,0.0,0.1,0.501,11.2,22.5,0.762,5.9,7.8,69.0,38.0,NBA,2044.0,103.0,2.1,4.8,SF,28.4,1988,1.2,WSB,5.1,6.7
32.0,5.5,0.2,111.0,4.7,0.484,12.1,24.9,0.167,0.1,0.6,0.477,12.2,25.5,0.819,6.7,8.2,81.0,81.0,NBA,2559.0,107.0,2.5,4.1,SF,31.1,1989,1.2,WSB,4.2,7.1
33.0,6.8,0.1,112.0,4.9,0.493,12.7,25.8,0.13,0.1,0.4,0.487,12.8,26.2,0.803,7.4,9.2,82.0,82.0,NBA,2687.0,108.0,2.3,4.1,SF,33.0,1990,0.9,WSB,4.5,7.3
34.0,6.0,0.3,111.0,4.2,0.478,14.4,30.2,0.216,0.2,0.8,0.472,14.6,31.0,0.79,7.8,9.9,64.0,64.0,NBA,2401.0,103.0,2.3,3.8,SF,37.2,1991,1.1,WSB,5.2,6.5
36.0,2.1,0.3,108.0,4.8,0.524,10.3,19.8,0.286,0.2,0.8,0.514,10.6,20.6,0.684,4.5,6.6,32.0,2.0,NBA,430.0,114.0,4.1,6.2,SF,25.9,1993,1.3,NJN,2.4,8.8
