age,ast,blk,drb,fg,fg2,fg2a,fg3,fg3a,fga,ft,fta,game_score,lg_id,mp,orb,pf,pts,season,stl,team_id,tov,trb
21.0,0.0,0.0,0.0,20.0,0.0,0.0,0.0,0.0,0.0,12.0,17.0,0.0,NBA,0.0,0.0,0.0,44.0,1978,0.0,NJN,0.0,0.0
22.0,0.0,0.0,0.0,18.0,0.0,0.0,0.0,0.0,0.0,13.0,18.0,0.0,NBA,0.0,0.0,0.0,41.0,1979,0.0,NJN,0.0,0.0
23.0,0.0,0.0,0.0,10.0,0.0,0.0,0.0,0.0,0.0,7.0,9.0,0.0,NBA,0.0,0.0,0.0,24.0,1980,0.0,UTA,0.0,0.0
24.0,0.0,0.0,0.0,20.0,0.0,0.0,1.0,0.0,0.0,11.0,12.0,0.0,NBA,0.0,0.0,0.0,50.0,1981,0.0,GSW,0.0,0.0
25.0,8.0,0.0,0.0,17.0,0.0,0.0,1.0,0.0,0.0,17.0,21.0,0.0,NBA,0.0,0.0,0.0,45.0,1982,0.0,GSW,0.0,14.0
26.0,0.0,0.0,0.0,19.0,19.0,0.0,0.0,0.0,30.0,11.0,16.0,0.0,NBA,0.0,0.0,0.0,43.0,1983,0.0,NYK,0.0,11.0
27.0,8.0,2.0,10.0,20.0,20.0,31.0,0.0,1.0,31.0,14.0,18.0,37.8,NBA,0.0,5.0,6.0,50.0,1984,4.0,NYK,7.0,11.0
28.0,13.0,2.0,9.0,19.0,19.0,32.0,1.0,1.0,33.0,22.0,26.0,44.9,NBA,0.0,7.0,6.0,60.0,1985,6.0,NYK,9.0,12.0
30.0,4.0,0.0,5.0,13.0,13.0,24.0,0.0,0.0,24.0,9.0,12.0,21.4,NBA,0.0,3.0,4.0,31.0,1987,1.0,NYK,4.0,8.0
31.0,9.0,2.0,10.0,15.0,15.0,28.0,1.0,1.0,28.0,10.0,13.0,24.3,NBA,0.0,4.0,6.0,34.0,1988,4.0,WSB,10.0,13.0
32.0,9.0,2.0,11.0,18.0,18.0,28.0,1.0,4.0,28.0,18.0,20.0,32.7,NBA,0.0,7.0,6.0,43.0,1989,4.0,WSB,9.0,12.0
33.0,14.0,1.0,12.0,19.0,19.0,29.0,1.0,2.0,29.0,15.0,16.0,31.4,NBA,0.0,6.0,6.0,42.0,1990,3.0,WSB,7.0,13.0
34.0,10.0,1.0,8.0,20.0,20.0,36.0,2.0,4.0,38.0,16.0,21.0,39.1,NBA,0.0,5.0,6.0,52.0,1991,4.0,WSB,8.0,12.0
36.0,3.0,1.0,4.0,10.0,10.0,13.0,2.0,2.0,14.0,12.0,13.0,20.1,NBA,0.0,4.0,5.0,24.0,1993,4.0,NJN,2.0,7.0
