article_url,date,headline
https://crownhoops.com/2019/11/12/spencer-dinwiddie-was-right-about-socal-basketball-players/,2019/11/12,HoopLifeTV: Spencer Dinwiddie was Right About SoCal Basketball Players
https://sircharlesincharge.com/2019/10/28/basketball-hall-of-fame-derrick-rose/,2019/10/28,Sir Charles In Charge: A unique case for the Hall of Fame: Derrick Rose
https://fansided.com/2019/10/15/nba-season-preview-2019-20-knicks-big-questions/,2019/10/15,FanSided: NBA Season Preview 2019-20: The 5 biggest questions for the New York Knicks
https://dailyknicks.com/2019/10/05/new-york-knicks-bernard-king-provides-legendary-presence-young-team/,2019/10/05,Daily Knicks: New York Knicks: Bernard King provides legendary presence for young team
