age,ast_per_poss,blk_per_poss,def_rtg,drb_per_poss,fg2_pct,fg2_per_poss,fg2a_per_poss,fg3_pct,fg3_per_poss,fg3a_per_poss,fg_pct,fg_per_poss,fga_per_poss,ft_pct,ft_per_poss,fta_per_poss,g,gs,lg_id,mp,off_rtg,orb_per_poss,pf_per_poss,pos,pts_per_poss,season,stl_per_poss,team_id,tov_per_poss,trb_per_poss
20.0,2.9,0.9,112.0,6.3,0.464,8.1,17.5,0.263,1.4,5.3,0.417,9.5,22.8,0.634,4.3,6.8,77.0,35.0,NBA,1959.0,93.0,2.3,5.3,SF,24.7,2018,2.0,PHO,3.6,8.6
21.0,4.4,1.3,114.0,6.7,0.445,6.6,14.8,0.324,1.8,5.4,0.413,8.3,20.2,0.671,3.4,5.1,79.0,29.0,NBA,1988.0,91.0,1.6,5.0,SG,21.9,2019,1.8,PHO,4.2,8.3
