age,and1s,astd_pts,drawn_offensive,drawn_shooting,fouls_offensive,fouls_shooting,g,lg_id,mp,own_shots_blk,pct_1,pct_2,pct_3,pct_4,pct_5,plus_minus_net,plus_minus_on,pos,season,team_id,tov_bad_pass,tov_lost_ball
20.0,10.0,204.0,46.0,69.0,4.0,68.0,74.0,NBA,1757.0,33.0,2.0,90.0,9.0,0.0,0.0,1.6,-0.7,SG,2019,MIN,30.0,17.0
21.0,2.0,50.0,10.0,16.0,3.0,11.0,11.0,NBA,274.0,10.0,38.0,62.0,0.0,0.0,0.0,4.7,3.3,SG,2020,MIN,6.0,8.0
