age,ast_pct,blk_pct,bpm,bpm-dum,dbpm,drb_pct,dws,fg3a_per_fga_pct,fta_per_fga_pct,g,lg_id,mp,obpm,orb_pct,ows,per,pos,season,stl_pct,team_id,tov_pct,trb_pct,ts_pct,usg_pct,vorp,ws,ws-dum,ws_per_48
25.0,7.6,0.9,-1.0,0.0,-0.4,15.2,0.9,0.0,0.322,73.0,NBA,976.0,-0.6,10.8,1.7,14.6,PF,2004,2.2,SAC,12.1,13.1,0.541,16.4,0.3,2.6,0.0,0.129
26.0,10.5,0.8,-0.5,0.0,-0.4,14.7,1.2,0.006,0.227,81.0,NBA,1668.0,-0.1,8.4,3.1,14.9,PF,2005,1.6,SAC,11.5,11.5,0.566,16.2,0.6,4.3,0.0,0.124
27.0,11.5,0.9,-1.1,0.0,0.8,14.6,1.8,0.01,0.234,62.0,NBA,1329.0,-1.9,6.6,0.7,13.6,PF,2006,1.4,CHI,13.6,10.6,0.524,21.3,0.3,2.5,0.0,0.09
28.0,9.0,1.1,-2.7,0.0,-1.4,15.2,0.3,0.009,0.24,37.0,NBA,700.0,-1.3,7.0,0.8,13.6,PF,2007,1.2,WAS,14.7,11.0,0.567,18.3,-0.1,1.1,0.0,0.078
29.0,14.2,0.9,-2.2,0.0,0.0,14.7,1.2,0.004,0.156,80.0,NBA,1554.0,-2.2,6.0,0.6,11.8,C,2008,1.8,WAS,14.7,10.2,0.496,17.3,-0.1,1.7,0.0,0.053
30.0,10.3,1.1,-1.5,0.0,-0.7,12.1,0.7,0.002,0.197,77.0,NBA,1521.0,-0.8,5.6,1.8,13.9,C,2009,2.2,WAS,13.0,8.8,0.57,17.1,0.2,2.4,0.0,0.076
31.0,7.9,0.8,-3.1,0.0,0.0,14.7,1.2,0.012,0.152,75.0,NBA,1410.0,-3.1,4.8,0.0,11.6,C,2010,2.3,NOH,13.5,9.7,0.522,19.5,-0.4,1.3,0.0,0.044
32.0,4.1,0.0,-8.8,0.0,-1.9,13.0,0.1,0.0,0.267,10.0,NBA,71.0,-6.9,3.2,-0.1,1.2,C,2011,0.0,PHI,19.3,8.1,0.477,13.5,-0.1,0.0,0.0,-0.019
