age,ast_per_g,blk_per_g,drb_per_g,efg_pct,fg2_pct,fg2_per_g,fg2a_per_g,fg3_pct,fg3_per_g,fg3a_per_g,fg_pct,fg_per_g,fga_per_g,ft_pct,ft_per_g,fta_per_g,g,gs,lg_id,mp_per_g,orb_per_g,pf_per_g,pos,pts_per_g,season,stl_per_g,team_id,tov_per_g,trb_per_g
25.0,0.7,0.2,1.8,0.487,0.487,1.8,3.7,0.0,0.0,0.0,0.487,1.8,3.7,0.807,1.0,1.2,73.0,7.0,NBA,13.4,1.2,1.7,PF,4.6,2004,0.6,SAC,0.6,3.1
26.0,1.4,0.2,2.7,0.527,0.53,3.2,6.0,0.0,0.0,0.0,0.527,3.2,6.0,0.847,1.2,1.4,81.0,21.0,NBA,20.6,1.5,2.5,PF,7.5,2005,0.6,SAC,0.9,4.2
27.0,1.4,0.3,2.7,0.483,0.481,3.8,7.8,0.4,0.0,0.1,0.481,3.8,7.9,0.817,1.5,1.9,62.0,7.0,NBA,21.4,1.2,2.5,PF,9.2,2006,0.6,CHI,1.4,4.0
28.0,1.0,0.3,2.4,0.524,0.529,3.2,6.0,0.0,0.0,0.1,0.524,3.2,6.1,0.852,1.2,1.5,37.0,1.0,NBA,18.9,1.2,2.8,PF,7.6,2007,0.5,WAS,1.2,3.6
29.0,1.7,0.2,2.4,0.458,0.46,2.7,5.8,0.0,0.0,0.0,0.458,2.7,5.8,0.918,0.8,0.9,80.0,13.0,NBA,19.4,1.0,2.3,C,6.2,2008,0.7,WAS,1.1,3.4
30.0,1.2,0.3,2.0,0.532,0.533,3.2,5.9,0.0,0.0,0.0,0.532,3.2,5.9,0.889,1.0,1.2,77.0,29.0,NBA,19.8,1.0,2.6,C,7.4,2009,0.8,WAS,1.0,2.9
31.0,0.9,0.2,2.3,0.495,0.498,3.2,6.4,0.167,0.0,0.1,0.494,3.2,6.5,0.811,0.8,1.0,75.0,1.0,NBA,18.8,0.8,2.7,C,7.2,2010,0.8,NOH,1.1,3.1
32.0,0.2,0.0,0.8,0.467,0.467,0.7,1.5,0.0,0.0,0.0,0.467,0.7,1.5,0.5,0.2,0.4,10.0,0.0,NBA,7.1,0.2,1.6,C,1.6,2011,0.0,PHI,0.4,1.0
