age,avg_dist,fg2_dunk,fg2_pct,fg2_pct_ast,fg2a_pct_fga,fg3_heave,fg3_pct,fg3_pct_ast,fg3_pct_corner,fg3a_heave,fg3a_pct_fga,fg_pct,fg_pct_00_03,fg_pct_03_10,fg_pct_10_16,fg_pct_16_xx,g,lg_id,mp,pct_fg2_dunk,pct_fg3a_corner,pct_fga_00_03,pct_fga_03_10,pct_fga_10_16,pct_fga_16_xx,pos,season,team_id
29.0,14.1,4.0,0.458,0.658,0.771,0.0,0.346,0.963,0.0,0.0,0.229,0.432,0.518,0.444,0.483,0.41,63.0,NBA,891.0,0.018,0.026,0.165,0.185,0.176,0.244,C,2010,HOU
30.0,16.3,1.0,0.49,0.75,0.81,0.0,0.348,1.0,0.0,0.0,0.19,0.463,0.5,0.286,0.667,0.5,40.0,NBA,373.0,0.008,0.0,0.099,0.116,0.099,0.496,PF,2011,TOT
30.0,16.4,1.0,0.541,0.7,0.787,0.0,0.3,1.0,0.0,0.0,0.213,0.489,0.4,0.2,0.667,0.619,11.0,NBA,150.0,0.021,0.0,0.106,0.106,0.128,0.447,PF,2011,TOR
30.0,16.3,0.0,0.459,0.786,0.824,0.0,0.385,1.0,0.0,0.0,0.176,0.446,0.571,0.333,0.667,0.436,29.0,NBA,223.0,0.0,0.0,0.095,0.122,0.081,0.527,PF,2011,NOH
