age,ast_per_poss,blk_per_poss,def_rtg,drb_per_poss,fg2_pct,fg2_per_poss,fg2a_per_poss,fg3_pct,fg3_per_poss,fg3a_per_poss,fg_pct,fg_per_poss,fga_per_poss,ft_pct,ft_per_poss,fta_per_poss,g,gs,lg_id,mp,off_rtg,orb_per_poss,pf_per_poss,pos,pts_per_poss,season,stl_per_poss,team_id,tov_per_poss,trb_per_poss
29.0,2.5,0.7,108.0,8.8,0.458,6.9,15.0,0.346,1.5,4.5,0.432,8.4,19.5,0.687,2.6,3.8,63.0,0.0,NBA,891.0,103.0,3.1,6.8,C,21.0,2010,0.9,HOU,2.1,11.9
30.0,1.9,1.3,108.0,9.1,0.49,6.8,14.0,0.348,1.1,3.3,0.463,8.0,17.2,0.636,2.0,3.1,40.0,0.0,NBA,373.0,97.0,2.8,5.7,PF,19.1,2011,0.7,TOT,3.1,12.0
30.0,2.4,1.0,112.0,9.0,0.541,6.9,12.8,0.3,1.0,3.4,0.489,7.9,16.2,1.0,2.4,2.4,11.0,0.0,NBA,150.0,107.0,2.8,3.8,PF,19.3,2011,1.0,TOR,2.8,11.7
30.0,1.5,1.5,106.0,9.2,0.459,6.8,14.8,0.385,1.2,3.2,0.446,8.0,18.0,0.467,1.7,3.6,29.0,0.0,NBA,223.0,90.0,2.9,7.0,PF,18.9,2011,0.5,NOH,3.4,12.1
