age,ast,ast_per_g,blk,college_id,fg,fg3,fg3_pct,fg3a,fg_pct,fga,ft,ft_pct,fta,g,mp,mp_per_g,orb,pf,pts,pts_per_g,season,stl,tov,trb,trb_per_g
18.0,23.0,0.8,65.0,BUCKNELL,116.0,6.0,0.3,20.0,0.462,251.0,58.0,0.806,72.0,30.0,745.0,24.8,49.0,61.0,296.0,9.9,2010,9.0,29.0,148.0,4.9
19.0,47.0,1.4,67.0,BUCKNELL,187.0,4.0,0.364,11.0,0.517,362.0,129.0,0.816,158.0,34.0,944.0,27.8,57.0,90.0,507.0,14.9,2011,14.0,58.0,248.0,7.3
20.0,63.0,1.8,59.0,BUCKNELL,193.0,7.0,0.35,20.0,0.503,384.0,203.0,0.853,238.0,35.0,1047.0,29.9,97.0,87.0,596.0,17.0,2012,16.0,72.0,319.0,9.1
21.0,78.0,2.3,80.0,BUCKNELL,227.0,4.0,0.25,16.0,0.509,446.0,179.0,0.789,227.0,34.0,1079.0,31.7,98.0,74.0,637.0,18.7,2013,17.0,58.0,378.0,11.1
