age,ast,blk,drb,fg,fg2,fg2a,fg3,fg3a,fga,ft,fta,game_score,lg_id,mp,orb,pf,pts,season,stl,team_id,tov,trb
25.0,7.0,0.0,3.0,4.0,4.0,9.0,0.0,0.0,9.0,3.0,3.0,10.1,NBA,0.0,0.0,3.0,11.0,1984,1.0,KCK,2.0,3.0
27.0,7.0,0.0,1.0,9.0,9.0,12.0,1.0,2.0,13.0,2.0,2.0,20.5,NBA,0.0,0.0,2.0,20.0,1986,3.0,SAC,0.0,1.0
31.0,3.0,0.0,1.0,1.0,1.0,2.0,1.0,2.0,3.0,4.0,4.0,6.9,NBA,0.0,0.0,3.0,4.0,1990,3.0,LAL,2.0,1.0
32.0,4.0,0.0,2.0,3.0,3.0,5.0,2.0,2.0,6.0,2.0,2.0,7.0,NBA,0.0,0.0,4.0,8.0,1991,0.0,LAL,2.0,2.0
