age,avg_dist,fg2_dunk,fg2_pct,fg2_pct_ast,fg2a_pct_fga,fg3_heave,fg3_pct,fg3_pct_ast,fg3_pct_corner,fg3a_heave,fg3a_pct_fga,fg_pct,fg_pct_00_03,fg_pct_03_10,fg_pct_10_16,fg_pct_16_xx,g,lg_id,mp,pct_fg2_dunk,pct_fg3a_corner,pct_fga_00_03,pct_fga_03_10,pct_fga_10_16,pct_fga_16_xx,pos,season,team_id
24.0,0.0,0.0,0.5,0.375,0.552,0.0,0.154,0.75,0.0,0.0,0.448,0.345,0.0,0.0,0.0,0.0,12.0,NBA,219.0,0.0,0.0,0.0,0.0,0.0,0.0,PG,2015,PHI
27.0,16.1,0.0,0.267,0.0,0.625,0.0,0.333,1.0,0.5,0.0,0.375,0.292,0.5,0.0,0.0,0.286,10.0,NBA,70.0,0.0,0.222,0.167,0.125,0.042,0.292,PG,2018,TOT
27.0,17.3,0.0,0.25,0.0,0.571,0.0,0.0,0.0,0.0,0.0,0.429,0.143,1.0,0.0,0.0,0.0,3.0,NBA,15.0,0.0,0.0,0.143,0.143,0.0,0.286,PG,2018,PHI
27.0,15.6,0.0,0.273,0.0,0.647,0.0,0.5,1.0,0.5,0.0,0.353,0.353,0.333,0.0,0.0,0.4,7.0,NBA,55.0,0.0,0.333,0.176,0.118,0.059,0.294,PG,2018,NOP
