age,ast_per_mp,blk_per_mp,drb_per_mp,fg2_pct,fg2_per_mp,fg2a_per_mp,fg3_pct,fg3_per_mp,fg3a_per_mp,fg_pct,fg_per_mp,fga_per_mp,ft_pct,ft_per_mp,fta_per_mp,g,gs,lg_id,mp,orb_per_mp,pf_per_mp,pos,pts_per_mp,season,stl_per_mp,team_id,tov_per_mp,trb_per_mp
22.0,5.7,0.2,2.2,0.413,4.4,10.6,0.235,0.1,0.4,0.407,4.5,11.0,0.797,2.4,3.0,76.0,0.0,NBA,1581.0,0.5,2.8,PG,11.5,1981,2.0,DET,3.8,2.7
23.0,7.6,0.0,2.2,0.479,6.4,13.3,0.296,0.1,0.5,0.473,6.5,13.8,0.794,2.7,3.4,81.0,19.0,NBA,1973.0,0.5,2.7,PG,15.9,1982,2.0,KCK,3.2,2.7
24.0,8.2,0.1,2.2,0.497,8.0,16.1,0.125,0.0,0.2,0.492,8.0,16.3,0.82,4.1,5.1,75.0,74.0,NBA,2690.0,0.6,2.8,PG,20.2,1983,1.7,KCK,3.6,2.8
25.0,8.5,0.2,1.7,0.464,7.2,15.5,0.3,0.0,0.2,0.462,7.2,15.6,0.776,3.7,4.8,73.0,73.0,NBA,2363.0,0.5,2.6,PG,18.2,1984,1.8,KCK,3.0,2.2
26.0,7.3,0.1,1.9,0.508,6.8,13.4,0.25,0.1,0.4,0.501,6.9,13.9,0.794,2.3,2.9,72.0,66.0,NBA,2373.0,0.6,2.2,PG,16.3,1985,1.4,KCK,2.7,2.5
27.0,6.2,0.0,1.8,0.491,6.7,13.6,0.323,0.2,0.6,0.485,6.9,14.2,0.795,2.3,2.9,75.0,31.0,NBA,1971.0,0.5,2.4,PG,16.3,1986,1.2,SAC,2.4,2.3
28.0,7.5,0.0,1.8,0.463,6.5,14.0,0.167,0.3,1.7,0.432,6.8,15.7,0.837,3.2,3.8,60.0,22.0,NBA,1566.0,0.6,2.5,PG,17.0,1987,1.4,LAC,3.5,2.4
29.0,6.8,0.0,1.7,0.479,5.4,11.2,0.289,0.5,1.6,0.456,5.8,12.8,0.769,1.5,1.9,74.0,51.0,NBA,2024.0,0.4,2.0,PG,13.6,1988,1.2,LAC,2.7,2.1
31.0,5.9,0.1,2.3,0.457,3.7,8.2,0.395,0.9,2.2,0.444,4.6,10.3,0.767,1.2,1.6,80.0,3.0,NBA,1333.0,0.3,2.5,PG,11.3,1990,1.3,LAL,2.6,2.6
32.0,8.6,0.1,2.1,0.435,2.9,6.7,0.424,1.0,2.4,0.432,3.9,9.1,0.773,1.2,1.6,48.0,2.0,NBA,496.0,0.4,2.9,PG,10.1,1991,1.1,LAL,3.6,2.5
