age,ast,blk,drb,efg_pct,fg,fg2,fg2_pct,fg2a,fg3,fg3_pct,fg3a,fg_pct,fga,ft,ft_pct,fta,g,gs,lg_id,mp,orb,pf,pos,pts,season,stl,team_id,tov,trb
23.0,31.0,2.0,59.0,0.545,159.0,159.0,0.552,288.0,0.0,0.0,4.0,0.545,292.0,106.0,0.711,149.0,49.0,16.0,NBA,923.0,94.0,97.0,SF,424.0,1994,73.0,LAC,43.0,153.0
24.0,40.0,12.0,32.0,0.484,91.0,90.0,0.511,176.0,1.0,0.077,13.0,0.481,189.0,69.0,0.59,117.0,69.0,7.0,NBA,656.0,56.0,102.0,SF,252.0,1995,67.0,LAC,49.0,88.0
27.0,18.0,4.0,23.0,0.559,62.0,62.0,0.579,107.0,0.0,0.0,4.0,0.559,111.0,40.0,0.635,63.0,27.0,3.0,NBA,344.0,27.0,53.0,SF,164.0,1998,19.0,DEN,19.0,50.0
