age,ast,blk,drb,fg,fg2,fg2a,fg3,fg3a,fga,ft,fta,game_score,lg_id,mp,orb,pf,pts,season,stl,team_id,tov,trb
23.0,3.0,1.0,5.0,11.0,11.0,14.0,0.0,1.0,15.0,11.0,14.0,30.0,NBA,0.0,6.0,5.0,29.0,1994,6.0,LAC,4.0,7.0
24.0,3.0,2.0,3.0,9.0,9.0,10.0,1.0,1.0,11.0,6.0,10.0,22.4,NBA,0.0,5.0,5.0,24.0,1995,5.0,LAC,5.0,8.0
27.0,3.0,1.0,4.0,8.0,8.0,10.0,0.0,1.0,11.0,9.0,12.0,19.2,NBA,0.0,5.0,5.0,22.0,1998,3.0,DEN,3.0,7.0
