age,ast_per_mp,blk_per_mp,drb_per_mp,fg2_pct,fg2_per_mp,fg2a_per_mp,fg3_pct,fg3_per_mp,fg3a_per_mp,fg_pct,fg_per_mp,fga_per_mp,ft_pct,ft_per_mp,fta_per_mp,g,gs,lg_id,mp,orb_per_mp,pf_per_mp,pos,pts_per_mp,season,stl_per_mp,team_id,tov_per_mp,trb_per_mp
23.0,0.7,1.5,6.7,0.431,4.8,11.2,0.0,0.0,0.0,0.431,4.8,11.2,0.483,1.6,3.3,45.0,36.0,NBA,1279.0,3.4,3.9,C,11.3,1999,0.8,LAC,2.4,10.0
24.0,0.5,2.0,6.7,0.437,4.8,10.9,0.0,0.0,0.0,0.437,4.8,10.9,0.651,1.8,2.7,80.0,77.0,NBA,2493.0,2.8,4.4,C,11.3,2000,0.5,LAC,2.6,9.5
25.0,0.8,1.8,6.0,0.435,5.2,12.0,0.0,0.0,0.0,0.435,5.2,12.0,0.545,1.4,2.6,82.0,82.0,NBA,2127.0,2.8,4.2,C,11.9,2001,0.5,LAC,2.9,8.9
26.0,1.3,2.0,7.7,0.433,5.4,12.4,0.0,0.0,0.0,0.433,5.4,12.4,0.622,1.6,2.6,80.0,79.0,NBA,2568.0,2.3,3.0,C,12.4,2002,0.8,LAC,2.5,10.0
27.0,1.2,2.1,7.1,0.427,4.9,11.5,0.0,0.0,0.0,0.427,4.9,11.5,0.657,1.8,2.8,36.0,36.0,NBA,1369.0,1.5,2.9,C,11.6,2003,0.5,LAC,2.6,8.6
28.0,0.9,2.6,6.5,0.425,4.7,11.1,0.0,0.0,0.0,0.425,4.7,11.1,0.59,1.4,2.4,43.0,25.0,NBA,925.0,3.0,5.3,C,10.8,2004,0.6,MIN,2.1,9.5
29.0,0.9,1.7,6.5,0.456,4.8,10.5,0.0,0.0,0.0,0.456,4.8,10.5,0.667,1.4,2.0,62.0,34.0,NBA,1215.0,3.1,5.7,C,10.9,2005,0.4,MIN,2.0,9.6
30.0,0.9,1.3,6.7,0.446,4.2,9.4,0.0,0.0,0.0,0.446,4.2,9.4,0.511,0.9,1.8,48.0,24.0,NBA,919.0,2.0,4.8,C,9.3,2006,0.9,TOT,2.2,8.6
30.0,0.8,1.3,6.4,0.446,4.2,9.3,0.0,0.0,0.0,0.446,4.2,9.3,0.487,0.9,1.9,32.0,24.0,NBA,752.0,2.2,4.8,C,9.2,2006,0.9,MIN,2.0,8.6
30.0,1.3,1.3,7.8,0.444,4.3,9.7,0.0,0.0,0.0,0.444,4.3,9.7,0.625,1.1,1.7,16.0,0.0,NBA,167.0,1.1,4.7,C,9.7,2006,0.6,BOS,3.0,8.8
31.0,0.8,2.0,5.2,0.413,2.9,7.1,0.0,0.0,0.0,0.413,2.9,7.1,0.667,0.3,0.5,24.0,0.0,NBA,234.0,2.2,7.4,C,6.2,2007,1.2,BOS,2.6,7.4
