age,ast,blk,drb,efg_pct,fg,fg2,fg2_pct,fg2a,fg3,fg3_pct,fg3a,fg_pct,fga,ft,ft_pct,fta,g,gs,lg_id,mp,orb,pf,pos,pts,season,stl,team_id,tov,trb
23.0,25.0,55.0,237.0,0.431,172.0,172.0,0.431,399.0,0.0,0.0,0.0,0.431,399.0,57.0,0.483,118.0,45.0,36.0,NBA,1279.0,120.0,137.0,C,401.0,1999,27.0,LAC,85.0,357.0
24.0,38.0,140.0,462.0,0.437,330.0,330.0,0.437,756.0,0.0,0.0,0.0,0.437,756.0,123.0,0.651,189.0,80.0,77.0,NBA,2493.0,194.0,304.0,C,783.0,2000,35.0,LAC,177.0,656.0
25.0,46.0,108.0,357.0,0.435,308.0,308.0,0.435,708.0,0.0,0.0,0.0,0.435,708.0,85.0,0.545,156.0,82.0,82.0,NBA,2127.0,168.0,250.0,C,701.0,2001,30.0,LAC,169.0,525.0
26.0,90.0,145.0,547.0,0.433,384.0,384.0,0.433,886.0,0.0,0.0,0.0,0.433,886.0,117.0,0.622,188.0,80.0,79.0,NBA,2568.0,164.0,217.0,C,885.0,2002,55.0,LAC,175.0,711.0
27.0,47.0,79.0,271.0,0.427,186.0,186.0,0.427,436.0,0.0,0.0,0.0,0.427,436.0,69.0,0.657,105.0,36.0,36.0,NBA,1369.0,57.0,110.0,C,441.0,2003,18.0,LAC,98.0,328.0
28.0,24.0,68.0,167.0,0.425,121.0,121.0,0.425,285.0,0.0,0.0,0.0,0.425,285.0,36.0,0.59,61.0,43.0,25.0,NBA,925.0,78.0,137.0,C,278.0,2004,16.0,MIN,54.0,245.0
29.0,29.0,56.0,218.0,0.456,161.0,161.0,0.456,353.0,0.0,0.0,0.0,0.456,353.0,46.0,0.667,69.0,62.0,34.0,NBA,1215.0,106.0,193.0,C,368.0,2005,15.0,MIN,68.0,324.0
30.0,23.0,33.0,170.0,0.446,107.0,107.0,0.446,240.0,0.0,0.0,0.0,0.446,240.0,24.0,0.511,47.0,48.0,24.0,NBA,919.0,50.0,122.0,C,238.0,2006,22.0,TOT,55.0,220.0
30.0,17.0,27.0,134.0,0.446,87.0,87.0,0.446,195.0,0.0,0.0,0.0,0.446,195.0,19.0,0.487,39.0,32.0,24.0,NBA,752.0,45.0,100.0,C,193.0,2006,19.0,MIN,41.0,179.0
30.0,6.0,6.0,36.0,0.444,20.0,20.0,0.444,45.0,0.0,0.0,0.0,0.444,45.0,5.0,0.625,8.0,16.0,0.0,NBA,167.0,5.0,22.0,C,45.0,2006,3.0,BOS,14.0,41.0
31.0,5.0,13.0,34.0,0.413,19.0,19.0,0.413,46.0,0.0,0.0,0.0,0.413,46.0,2.0,0.667,3.0,24.0,0.0,NBA,234.0,14.0,48.0,C,40.0,2007,8.0,BOS,17.0,48.0
