age,ast_per_poss,blk_per_poss,def_rtg,drb_per_poss,fg2_pct,fg2_per_poss,fg2a_per_poss,fg3_pct,fg3_per_poss,fg3a_per_poss,fg_pct,fg_per_poss,fga_per_poss,ft_pct,ft_per_poss,fta_per_poss,g,gs,lg_id,mp,off_rtg,orb_per_poss,pf_per_poss,pos,pts_per_poss,season,stl_per_poss,team_id,tov_per_poss,trb_per_poss
22.0,4.6,0.4,106.0,7.7,0.435,6.1,14.1,0.318,0.4,1.3,0.425,6.6,15.4,0.808,2.9,3.6,78.0,14.0,NBA,1797.0,99.0,1.2,4.0,SG,16.5,2011,1.4,PHI,2.3,8.9
23.0,5.6,0.6,99.0,10.9,0.466,7.9,16.9,0.224,0.3,1.5,0.446,8.2,18.4,0.676,2.3,3.4,65.0,20.0,NBA,1713.0,93.0,0.8,3.7,SF,19.1,2012,1.2,PHI,3.3,11.7
24.0,6.5,0.3,106.0,8.4,0.428,7.0,16.3,0.365,1.1,2.9,0.419,8.0,19.2,0.74,2.8,3.8,82.0,82.0,NBA,2892.0,95.0,1.0,3.6,SF,20.0,2013,1.3,PHI,3.4,9.4
25.0,5.2,0.1,109.0,6.9,0.444,7.7,17.3,0.321,1.0,3.1,0.425,8.7,20.4,0.813,4.3,5.2,81.0,56.0,NBA,2457.0,97.0,1.2,3.9,SF,22.6,2014,1.3,TOT,3.8,8.2
25.0,5.1,0.1,111.0,7.0,0.455,8.2,17.9,0.288,1.0,3.4,0.428,9.1,21.3,0.829,4.9,5.9,54.0,54.0,NBA,1886.0,97.0,1.3,3.8,SF,24.1,2014,1.4,PHI,4.0,8.3
25.0,5.8,0.2,102.0,6.7,0.398,6.0,15.1,0.5,1.1,2.2,0.411,7.1,17.3,0.706,2.2,3.1,27.0,2.0,NBA,571.0,95.0,1.1,4.4,SF,17.5,2014,1.0,IND,3.1,7.8
26.0,9.9,0.4,104.0,8.4,0.458,6.4,13.9,0.277,0.7,2.6,0.429,7.1,16.5,0.752,2.3,3.1,82.0,57.0,NBA,2260.0,96.0,0.9,4.0,SG,17.3,2015,1.8,BOS,4.4,9.2
27.0,7.7,0.6,104.0,7.4,0.482,6.9,14.4,0.241,0.4,1.8,0.456,7.4,16.2,0.827,3.2,3.8,81.0,12.0,NBA,2271.0,102.0,1.1,3.0,SG,18.3,2016,1.7,BOS,3.6,8.5
28.0,6.1,0.7,111.0,6.3,0.47,6.1,13.0,0.263,0.9,3.5,0.426,7.0,16.5,0.825,2.5,3.1,65.0,12.0,NBA,1658.0,100.0,1.1,3.6,SF,17.5,2017,1.6,POR,3.0,7.4
29.0,4.2,0.7,109.0,5.2,0.485,5.3,10.9,0.318,1.0,3.2,0.447,6.3,14.1,0.85,2.2,2.6,79.0,40.0,NBA,2034.0,103.0,0.7,4.0,SF,15.9,2018,1.1,POR,2.4,6.0
30.0,8.5,0.5,111.0,8.8,0.494,5.8,11.8,0.212,0.3,1.6,0.46,6.2,13.4,0.708,2.3,3.2,73.0,2.0,NBA,1605.0,105.0,1.1,3.3,PG,14.9,2019,1.0,POR,3.4,9.9
31.0,9.7,0.0,107.0,4.2,0.667,5.6,8.4,0.0,0.0,1.4,0.571,5.6,9.7,0.8,5.6,7.0,3.0,0.0,NBA,34.0,127.0,0.0,2.8,PG,16.7,2020,4.2,ATL,2.8,4.2
