age,ast_per_g,blk_per_g,drb_per_g,efg_pct,fg2_pct,fg2_per_g,fg2a_per_g,fg3_pct,fg3_per_g,fg3a_per_g,fg_pct,fg_per_g,fga_per_g,ft_pct,ft_per_g,fta_per_g,g,gs,lg_id,mp_per_g,orb_per_g,pf_per_g,pos,pts_per_g,season,stl_per_g,team_id,tov_per_g,trb_per_g
22.0,0.8,0.2,3.8,0.5,0.394,2.6,6.6,0.8,0.8,1.0,0.447,3.4,7.6,1.0,0.4,0.4,5.0,0.0,NBA,19.4,0.8,1.8,SG,8.0,2011,0.6,PHI,0.0,4.6
23.0,2.5,0.5,6.5,0.364,0.378,4.3,11.4,0.0,0.0,0.5,0.364,4.3,11.8,0.688,2.5,3.7,13.0,12.0,NBA,34.5,1.1,2.8,SF,11.2,2012,0.9,PHI,2.3,7.5
25.0,1.6,0.0,2.2,0.486,0.393,0.9,2.3,0.571,0.3,0.6,0.429,1.3,2.9,1.0,0.4,0.4,12.0,0.0,NBA,12.4,0.0,0.8,SF,3.3,2014,0.3,IND,0.9,2.2
26.0,4.8,0.0,6.8,0.386,0.35,3.5,10.0,0.5,0.5,1.0,0.364,4.0,11.0,0.889,2.0,2.3,4.0,4.0,NBA,29.5,0.5,2.8,SG,10.5,2015,0.8,BOS,2.3,7.3
27.0,4.5,1.0,4.3,0.382,0.394,4.7,11.8,0.214,0.5,2.3,0.365,5.2,14.2,0.778,2.3,3.0,6.0,4.0,NBA,35.7,1.3,3.2,SG,13.2,2016,1.3,BOS,2.8,5.7
28.0,3.8,0.5,5.0,0.439,0.389,1.8,4.5,0.333,1.3,3.8,0.364,3.0,8.3,0.75,3.0,4.0,4.0,4.0,NBA,31.0,0.8,1.8,SF,10.3,2017,1.8,POR,1.8,5.8
29.0,3.3,0.3,2.3,0.394,0.385,3.3,8.7,0.286,0.7,2.3,0.364,4.0,11.0,1.0,0.7,0.7,3.0,3.0,NBA,29.0,1.7,2.7,SF,9.3,2018,1.0,POR,2.0,4.0
30.0,2.2,0.2,3.8,0.337,0.311,0.9,2.8,1.0,0.1,0.1,0.326,0.9,2.9,0.8,0.8,0.9,16.0,0.0,NBA,15.3,0.8,1.4,PG,2.7,2019,0.2,POR,0.8,4.6
