age,ast_pct,blk_pct,bpm,bpm-dum,dbpm,drb_pct,dws,fg3a_per_fga_pct,fta_per_fga_pct,g,lg_id,mp,obpm,orb_pct,ows,per,pos,season,stl_pct,team_id,tov_pct,trb_pct,ts_pct,usg_pct,vorp,ws,ws-dum,ws_per_48
22.0,13.4,0.6,-2.4,0.0,0.7,16.9,2.2,0.083,0.236,78.0,NBA,1797.0,-3.1,2.7,0.0,10.8,SG,2011,1.4,PHI,12.0,9.8,0.484,17.0,-0.2,2.3,0.0,0.06
23.0,16.9,0.9,-1.8,0.0,1.5,22.8,3.0,0.083,0.183,65.0,NBA,1713.0,-3.3,1.7,-0.6,12.6,SF,2012,1.2,PHI,14.1,12.2,0.478,20.3,0.1,2.4,0.0,0.068
24.0,19.7,0.5,-2.1,0.0,0.3,18.5,2.9,0.151,0.198,82.0,NBA,2892.0,-2.4,2.1,-0.7,12.1,SF,2013,1.3,PHI,14.0,10.1,0.478,21.2,-0.1,2.1,0.0,0.035
25.0,17.8,0.2,-3.7,0.0,-1.3,15.7,1.8,0.153,0.257,81.0,NBA,2457.0,-2.4,2.7,-0.5,12.4,SF,2014,1.3,TOT,14.3,9.0,0.498,23.2,-1.0,1.4,0.0,0.027
25.0,17.7,0.2,-3.8,0.0,-1.7,16.2,0.9,0.159,0.274,54.0,NBA,1886.0,-2.1,2.8,-0.2,13.2,SF,2014,1.4,PHI,14.3,9.2,0.504,24.4,-0.9,0.7,0.0,0.017
25.0,18.4,0.3,-3.2,0.0,0.4,13.9,0.9,0.126,0.179,27.0,NBA,571.0,-3.6,2.5,-0.2,9.7,SF,2014,1.0,IND,14.2,8.5,0.468,19.1,-0.2,0.7,0.0,0.059
26.0,30.0,0.7,-1.0,0.0,1.3,18.5,2.8,0.16,0.189,82.0,NBA,2260.0,-2.2,1.9,-0.3,12.8,SG,2015,1.8,BOS,19.7,10.1,0.482,19.5,0.6,2.5,0.0,0.054
27.0,23.9,1.0,-0.7,0.0,1.3,16.5,3.0,0.11,0.238,81.0,NBA,2271.0,-1.9,2.3,1.0,13.6,SG,2016,1.7,BOS,16.9,9.3,0.513,18.8,0.8,4.0,0.0,0.085
28.0,18.4,1.2,-2.6,0.0,-0.1,14.2,1.2,0.214,0.187,65.0,NBA,1658.0,-2.5,2.4,0.0,11.4,SF,2017,1.6,POR,14.3,8.3,0.491,18.5,-0.3,1.2,0.0,0.035
29.0,12.4,1.2,-1.8,0.0,0.6,11.4,2.1,0.229,0.185,79.0,NBA,2034.0,-2.4,1.6,0.5,9.9,SF,2018,1.1,POR,13.7,6.5,0.52,15.6,0.1,2.6,0.0,0.061
30.0,23.6,0.9,-1.8,0.0,0.7,18.9,1.5,0.117,0.239,73.0,NBA,1605.0,-2.5,2.5,0.5,11.6,PG,2019,1.0,POR,18.9,10.9,0.504,15.9,0.1,2.0,0.0,0.06
31.0,29.2,0.0,-1.0,0.0,-1.1,9.4,0.0,0.143,0.714,3.0,NBA,34.0,0.1,0.0,0.1,19.0,PG,2020,4.2,ATL,17.9,4.8,0.652,13.8,0.0,0.1,0.0,0.181
