age,ast_per_g,blk_per_g,drb_per_g,efg_pct,fg2_pct,fg2_per_g,fg2a_per_g,fg3_pct,fg3_per_g,fg3a_per_g,fg_pct,fg_per_g,fga_per_g,ft_pct,ft_per_g,fta_per_g,g,gs,lg_id,mp_per_g,orb_per_g,pf_per_g,pos,pts_per_g,season,stl_per_g,team_id,tov_per_g,trb_per_g
27.0,0.5,0.0,2.0,0.333,0.5,0.5,1.0,0.0,0.0,0.5,0.333,0.5,1.5,0.75,1.5,2.0,2.0,0.0,NBA,12.5,0.5,1.5,C,2.5,1996,0.0,SAC,1.0,2.5
29.0,0.0,0.0,2.0,0.0,0.0,0.0,0.0,0.0,0.0,0.0,0.0,0.0,0.0,0.0,0.0,0.0,1.0,1.0,NBA,5.0,0.0,0.0,C,0.0,1998,0.0,MIA,1.0,2.0
30.0,0.3,0.0,0.5,0.5,0.5,0.3,0.5,0.0,0.0,0.0,0.5,0.3,0.5,0.667,1.0,1.5,4.0,0.0,NBA,5.0,0.0,0.5,C,1.5,1999,0.3,MIA,0.0,0.5
32.0,0.0,0.0,3.0,0.0,0.0,0.0,1.0,0.0,0.0,0.0,0.0,0.0,1.0,0.0,0.0,0.0,1.0,0.0,NBA,5.0,0.0,1.0,C,0.0,2001,0.0,MIA,0.0,3.0
