age,ast_pct,blk_pct,bpm,bpm-dum,dbpm,drb_pct,dws,fg3a_per_fga_pct,fta_per_fga_pct,g,lg_id,mp,obpm,orb_pct,ows,per,pos,season,stl_pct,team_id,tov_pct,trb_pct,ts_pct,usg_pct,vorp,ws,ws-dum,ws_per_48
22.0,6.1,5.5,-0.2,0.0,2.8,16.9,2.2,0.0,0.4,76.0,NBA,1719.0,-3.0,9.1,0.6,13.0,C,1991,1.4,SAC,16.5,12.9,0.541,14.8,0.8,2.8,0.0,0.079
23.0,3.5,5.5,-0.6,0.0,2.3,18.1,2.6,0.002,0.488,80.0,NBA,2291.0,-2.9,9.2,1.3,12.4,C,1992,1.0,SAC,18.3,13.6,0.575,12.3,0.8,3.9,0.0,0.081
24.0,4.1,4.5,-0.2,0.0,1.4,18.2,1.4,0.003,0.514,55.0,NBA,1211.0,-1.6,9.9,1.5,14.2,C,1993,1.3,SAC,12.8,13.9,0.575,15.2,0.5,2.9,0.0,0.115
25.0,2.3,4.6,-2.3,0.0,1.2,19.6,0.8,0.0,0.496,41.0,NBA,674.0,-3.5,10.8,0.4,11.8,C,1994,1.4,SAC,16.5,15.1,0.545,12.5,0.0,1.2,0.0,0.085
26.0,2.7,7.3,-0.3,0.0,3.5,16.3,1.3,0.007,0.667,58.0,NBA,820.0,-3.7,8.3,0.5,11.4,C,1995,0.9,SAC,14.8,12.4,0.55,12.1,0.4,1.8,0.0,0.105
27.0,2.9,5.6,-2.4,0.0,2.1,18.0,1.3,0.005,0.444,73.0,NBA,1044.0,-4.5,9.5,0.0,9.9,C,1996,1.3,SAC,17.0,13.7,0.484,13.1,-0.1,1.3,0.0,0.059
28.0,5.1,4.9,-1.1,0.0,2.2,14.2,0.6,0.032,0.394,46.0,NBA,581.0,-3.3,11.3,0.1,8.9,C,1997,1.4,SAC,23.6,12.7,0.535,11.1,0.1,0.7,0.0,0.06
29.0,2.2,5.4,-4.6,0.0,1.6,21.9,0.7,0.0,0.292,37.0,NBA,363.0,-6.2,9.7,-0.2,9.2,C,1998,1.1,MIA,15.2,16.0,0.443,15.2,-0.2,0.5,0.0,0.069
30.0,2.8,6.0,-6.2,0.0,0.3,17.3,0.2,0.0,0.343,19.0,NBA,137.0,-6.4,13.3,-0.2,8.1,C,1999,0.0,MIA,30.9,15.5,0.546,21.0,-0.1,0.0,0.0,-0.007
31.0,1.7,6.3,-3.2,0.0,0.8,21.5,0.4,0.0,1.027,25.0,NBA,185.0,-3.9,7.2,0.3,14.1,C,2000,0.6,MIA,15.7,14.7,0.614,16.1,-0.1,0.7,0.0,0.171
32.0,2.2,3.6,-6.8,0.0,1.4,18.6,0.7,0.0,0.294,31.0,NBA,384.0,-8.2,7.1,-0.7,4.8,C,2001,1.1,MIA,19.3,12.8,0.396,15.0,-0.5,0.0,0.0,0.002
