age,ast_per_poss,blk_per_poss,def_rtg,drb_per_poss,fg2_pct,fg2_per_poss,fg2a_per_poss,fg3_pct,fg3_per_poss,fg3a_per_poss,fg_pct,fg_per_poss,fga_per_poss,ft_pct,ft_per_poss,fta_per_poss,g,gs,lg_id,mp,off_rtg,orb_per_poss,pf_per_poss,pos,pts_per_poss,season,stl_per_poss,team_id,tov_per_poss,trb_per_poss
27.0,2.1,0.0,107.0,8.4,0.5,2.1,4.2,0.0,0.0,2.1,0.333,2.1,6.3,0.75,6.3,8.4,2.0,0.0,NBA,25.0,89.0,2.1,6.3,C,10.5,1996,0.0,SAC,4.2,10.5
29.0,0.0,0.0,98.0,22.4,0.0,0.0,0.0,0.0,0.0,0.0,0.0,0.0,0.0,0.0,0.0,0.0,1.0,1.0,NBA,5.0,0.0,0.0,0.0,C,0.0,1998,0.0,MIA,11.2,22.4
30.0,3.0,0.0,103.0,6.0,0.5,3.0,6.0,0.0,0.0,0.0,0.5,3.0,6.0,0.667,12.0,17.9,4.0,0.0,NBA,20.0,144.0,0.0,6.0,C,17.9,1999,3.0,MIA,0.0,6.0
32.0,0.0,0.0,97.0,32.2,0.0,0.0,10.7,0.0,0.0,0.0,0.0,0.0,10.7,0.0,0.0,0.0,1.0,0.0,NBA,5.0,0.0,0.0,10.7,C,0.0,2001,0.0,MIA,0.0,32.2
