age,ast_per_g,blk_per_g,drb_per_g,efg_pct,fg2_pct,fg2_per_g,fg2a_per_g,fg3_pct,fg3_per_g,fg3a_per_g,fg_pct,fg_per_g,fga_per_g,ft_pct,ft_per_g,fta_per_g,g,gs,lg_id,mp_per_g,orb_per_g,pf_per_g,pos,pts_per_g,season,stl_per_g,team_id,tov_per_g,trb_per_g
25.0,1.9,0.4,1.7,0.488,0.484,2.9,6.1,0.333,0.8,2.3,0.443,3.7,8.4,0.727,0.9,1.3,77.0,10.0,NBA,20.4,1.1,1.9,SG,9.1,1993,0.5,SAS,1.3,2.8
26.0,1.4,0.2,1.0,0.435,0.389,1.5,3.8,0.352,0.7,1.9,0.376,2.2,5.7,0.719,0.7,1.0,65.0,5.0,NBA,15.1,0.7,1.1,SG,5.7,1994,0.4,SAS,0.9,1.7
27.0,1.3,0.3,1.1,0.445,0.495,1.8,3.6,0.26,0.9,3.3,0.383,2.7,7.0,0.815,0.7,0.9,30.0,14.0,NBA,20.1,1.0,1.6,SG,6.9,1995,0.7,TOT,1.0,2.1
27.0,0.8,0.0,1.0,0.389,0.462,1.2,2.6,0.214,0.6,2.8,0.333,1.8,5.4,1.0,0.4,0.4,5.0,0.0,NBA,12.6,0.4,1.6,SG,4.6,1995,0.4,PHI,1.6,1.4
27.0,1.4,0.4,1.2,0.453,0.5,1.9,3.8,0.267,0.9,3.4,0.39,2.8,7.3,0.8,0.8,1.0,25.0,14.0,NBA,21.6,1.1,1.6,SG,7.4,1995,0.8,LAL,0.9,2.2
29.0,1.2,0.1,1.1,0.391,0.306,0.7,2.2,0.3,1.0,3.2,0.303,1.6,5.4,0.833,0.2,0.3,22.0,0.0,NBA,14.1,0.9,1.5,SG,4.5,1997,0.5,TOT,0.6,2.0
29.0,0.2,0.0,0.6,0.188,0.0,0.0,1.0,0.182,0.4,2.2,0.125,0.4,3.2,0.0,0.0,0.0,5.0,0.0,NBA,5.6,0.2,0.8,SG,1.2,1997,0.2,SAC,0.6,0.8
29.0,1.5,0.2,1.2,0.422,0.341,0.9,2.6,0.322,1.1,3.5,0.33,2.0,6.1,0.833,0.3,0.4,17.0,0.0,NBA,16.6,1.1,1.7,SG,5.4,1997,0.5,NJN,0.6,2.3
30.0,0.7,0.3,0.5,0.448,0.5,1.7,3.3,0.222,0.3,1.5,0.414,2.0,4.8,0.8,1.3,1.7,6.0,0.0,NBA,13.7,0.7,0.7,SG,5.7,1998,0.5,TOR,0.7,1.2
