age,ast_pct,blk_pct,bpm,bpm-dum,dbpm,drb_pct,dws,fg3a_per_fga_pct,fta_per_fga_pct,g,lg_id,mp,obpm,orb_pct,ows,per,pos,season,stl_pct,team_id,tov_pct,trb_pct,ts_pct,usg_pct,vorp,ws,ws-dum,ws_per_48
25.0,14.4,1.2,-0.8,0.0,-1.0,9.1,1.3,0.275,0.154,77.0,NBA,1573.0,0.2,6.6,0.5,12.9,SG,1993,1.2,SAS,12.9,7.9,0.51,22.1,0.5,1.8,0.0,0.056
26.0,14.5,1.1,-2.3,0.0,-1.4,7.2,0.9,0.336,0.172,65.0,NBA,980.0,-0.9,5.4,0.2,11.2,SG,1994,1.6,SAS,13.0,6.4,0.462,21.0,-0.1,1.1,0.0,0.054
27.0,9.7,1.1,-2.9,0.0,-1.6,6.3,0.3,0.478,0.129,30.0,NBA,604.0,-1.3,5.3,-0.1,9.7,SG,1995,1.8,TOT,12.3,5.8,0.471,18.1,-0.1,0.2,0.0,0.019
27.0,10.6,0.0,-9.5,0.0,-3.5,9.3,0.0,0.519,0.074,5.0,NBA,63.0,-6.0,3.7,-0.2,3.1,SG,1995,1.7,PHI,22.3,6.5,0.412,25.4,-0.1,-0.2,0.0,-0.145
27.0,9.6,1.3,-2.1,0.0,-1.3,5.9,0.3,0.473,0.137,25.0,NBA,541.0,-0.7,5.5,0.1,10.4,SG,1995,1.9,LAL,10.6,5.7,0.479,17.2,0.0,0.4,0.0,0.038
29.0,13.1,0.7,-3.7,0.0,-2.3,8.9,0.1,0.588,0.05,22.0,NBA,310.0,-1.4,6.3,-0.1,8.3,SG,1997,1.7,TOT,10.3,7.6,0.403,18.8,-0.1,0.0,0.0,0.001
29.0,5.2,0.0,-19.0,0.0,-5.5,12.6,0.0,0.688,0.0,5.0,NBA,28.0,-13.5,4.1,-0.3,-10.5,SG,1997,1.9,SAC,15.8,8.3,0.188,30.4,-0.1,-0.2,0.0,-0.398
29.0,13.9,0.8,-2.2,0.0,-2.0,8.6,0.1,0.573,0.058,17.0,NBA,282.0,-0.2,6.5,0.1,10.1,SG,1997,1.7,NJN,9.4,7.5,0.435,17.6,0.0,0.2,0.0,0.041
30.0,8.2,1.7,-5.1,0.0,-4.0,4.3,0.0,0.31,0.345,6.0,NBA,82.0,-1.1,5.3,0.1,13.5,SG,1998,1.9,TOR,10.7,4.8,0.509,20.0,-0.1,0.1,0.0,0.04
