age,ast,blk,drb,fg,fg2,fg2a,fg3,fg3a,fga,ft,fta,game_score,lg_id,mp,orb,pf,pts,season,stl,team_id,tov,trb
25.0,10.0,3.0,8.0,11.0,10.0,18.0,4.0,7.0,19.0,7.0,8.0,22.0,NBA,0.0,6.0,5.0,26.0,1993,3.0,SAS,6.0,11.0
26.0,7.0,2.0,5.0,7.0,6.0,11.0,3.0,7.0,14.0,5.0,6.0,16.8,NBA,0.0,4.0,4.0,18.0,1994,2.0,SAS,4.0,7.0
27.0,7.0,2.0,3.0,9.0,6.0,9.0,4.0,11.0,16.0,2.0,2.0,18.4,NBA,0.0,6.0,4.0,22.0,1995,3.0,TOT,3.0,8.0
27.0,2.0,0.0,2.0,4.0,3.0,5.0,1.0,4.0,8.0,1.0,1.0,3.5,NBA,0.0,1.0,4.0,9.0,1995,1.0,PHI,3.0,3.0
27.0,7.0,2.0,3.0,9.0,6.0,9.0,4.0,11.0,16.0,2.0,2.0,18.4,NBA,0.0,6.0,4.0,22.0,1995,3.0,LAL,3.0,8.0
29.0,5.0,2.0,4.0,4.0,3.0,7.0,3.0,6.0,12.0,2.0,2.0,9.2,NBA,0.0,4.0,5.0,11.0,1997,2.0,TOT,2.0,5.0
29.0,1.0,0.0,1.0,1.0,0.0,2.0,1.0,5.0,6.0,0.0,0.0,2.0,NBA,0.0,1.0,1.0,3.0,1997,1.0,SAC,2.0,2.0
29.0,5.0,2.0,4.0,4.0,3.0,7.0,3.0,6.0,12.0,2.0,2.0,9.2,NBA,0.0,4.0,5.0,11.0,1997,2.0,NJN,2.0,5.0
30.0,2.0,1.0,1.0,6.0,5.0,8.0,1.0,5.0,12.0,8.0,10.0,15.6,NBA,0.0,2.0,2.0,21.0,1998,2.0,TOR,2.0,2.0
