age,ast_per_poss,blk_per_poss,def_rtg,drb_per_poss,fg2_pct,fg2_per_poss,fg2a_per_poss,fg3_pct,fg3_per_poss,fg3a_per_poss,fg_pct,fg_per_poss,fga_per_poss,ft_pct,ft_per_poss,fta_per_poss,g,gs,lg_id,mp,off_rtg,orb_per_poss,pf_per_poss,pos,pts_per_poss,season,stl_per_poss,team_id,tov_per_poss,trb_per_poss
25.0,1.4,0.0,108.0,4.2,0.435,7.0,16.0,0.143,0.7,4.9,0.367,7.7,20.9,0.833,3.5,4.2,8.0,0.0,NBA,74.0,92.0,6.3,5.6,SG,19.5,1993,2.1,SAS,3.5,10.5
26.0,2.5,0.8,114.0,5.8,0.333,3.3,10.0,0.5,3.3,6.7,0.4,6.7,16.7,1.0,1.7,1.7,4.0,0.0,NBA,66.0,112.0,1.7,3.3,SG,18.3,1994,0.0,SAS,1.7,7.5
