age,ast_per_g,blk_per_g,drb_per_g,efg_pct,fg2_pct,fg2_per_g,fg2a_per_g,fg3_pct,fg3_per_g,fg3a_per_g,fg_pct,fg_per_g,fga_per_g,ft_pct,ft_per_g,fta_per_g,g,gs,lg_id,mp_per_g,orb_per_g,pf_per_g,pos,pts_per_g,season,stl_per_g,team_id,tov_per_g,trb_per_g
30.0,1.1,0.1,2.5,0.577,0.548,1.1,1.9,0.4,1.0,2.5,0.465,2.1,4.4,0.714,0.3,0.4,16.0,0.0,NBA,14.8,0.4,1.6,PF,5.4,2008,0.7,SAS,0.7,2.9
31.0,0.8,0.2,3.0,0.375,0.5,1.2,2.4,0.125,0.2,1.6,0.35,1.4,4.0,0.4,0.4,1.0,5.0,0.0,NBA,20.8,1.6,2.8,SF,3.4,2009,0.8,SAS,0.4,4.6
