age,ast_per_poss,blk_per_poss,def_rtg,drb_per_poss,fg2_pct,fg2_per_poss,fg2a_per_poss,fg3_pct,fg3_per_poss,fg3a_per_poss,fg_pct,fg_per_poss,fga_per_poss,ft_pct,ft_per_poss,fta_per_poss,g,gs,lg_id,mp,off_rtg,orb_per_poss,pf_per_poss,pos,pts_per_poss,season,stl_per_poss,team_id,tov_per_poss,trb_per_poss
25.0,1.6,0.0,111.0,4.6,0.333,6.5,19.5,0.0,0.0,0.0,0.333,6.5,19.5,0.889,5.2,5.9,5.0,5.0,NBA,164.0,90.0,4.2,4.2,PF,18.2,2011,2.0,IND,2.9,8.8
26.0,2.0,1.0,101.0,7.7,0.34,5.7,16.6,0.0,0.0,0.0,0.34,5.7,16.6,0.667,4.7,7.0,11.0,0.0,NBA,164.0,90.0,4.0,7.3,PF,16.0,2012,1.7,IND,2.7,11.6
27.0,1.1,0.0,106.0,5.7,0.419,5.9,14.1,0.0,0.0,0.0,0.419,5.9,14.1,0.591,5.9,10.0,19.0,0.0,NBA,241.0,102.0,8.2,9.4,PF,17.8,2013,1.4,IND,3.4,13.9
28.0,1.9,0.0,113.0,7.5,0.333,1.9,5.6,0.0,0.0,0.0,0.333,1.9,5.6,0.833,9.3,11.2,3.0,0.0,NBA,29.0,111.0,3.7,14.9,PF,13.0,2014,0.0,TOR,3.7,11.2
29.0,3.2,1.1,112.0,5.3,0.2,1.1,5.3,0.0,0.0,0.0,0.2,1.1,5.3,0.75,3.2,4.2,4.0,2.0,NBA,48.0,78.0,1.1,8.5,PF,5.3,2015,2.1,TOR,2.1,6.4
30.0,0.0,0.0,117.0,0.0,0.0,0.0,0.0,0.0,0.0,0.0,0.0,0.0,0.0,0.0,0.0,0.0,2.0,0.0,NBA,6.0,0.0,0.0,0.0,PF,0.0,2016,0.0,CHO,0.0,0.0
