age,ast_per_mp,blk_per_mp,drb_per_mp,fg2_pct,fg2_per_mp,fg2a_per_mp,fg3_pct,fg3_per_mp,fg3a_per_mp,fg_pct,fg_per_mp,fga_per_mp,ft_pct,ft_per_mp,fta_per_mp,g,gs,lg_id,mp,orb_per_mp,pf_per_mp,pos,pts_per_mp,season,stl_per_mp,team_id,tov_per_mp,trb_per_mp
22.0,0.6,4.1,4.6,0.308,1.2,3.8,0.105,0.6,5.5,0.188,1.7,9.3,0.667,2.3,3.5,18.0,0.0,NBA,124.0,1.7,4.1,C,6.4,2018,0.6,HOU,2.9,6.4
23.0,0.0,0.0,0.0,1.0,36.0,36.0,0.0,0.0,0.0,1.0,36.0,36.0,0.0,0.0,0.0,1.0,0.0,NBA,1.0,0.0,0.0,PF,72.0,2019,0.0,HOU,0.0,0.0
