age,and1s,astd_pts,drawn_offensive,drawn_shooting,fouls_offensive,fouls_shooting,g,lg_id,mp,own_shots_blk,pct_1,pct_2,pct_3,pct_4,pct_5,plus_minus_net,plus_minus_on,pos,season,team_id,tov_bad_pass,tov_lost_ball
22.0,0.0,5.0,1.0,3.0,1.0,10.0,18.0,NBA,124.0,3.0,0.0,0.0,0.0,0.0,100.0,-37.1,-27.3,C,2018,HOU,2.0,4.0
23.0,0.0,0.0,0.0,0.0,0.0,0.0,1.0,NBA,1.0,0.0,0.0,0.0,0.0,0.0,100.0,-38.4,-33.3,PF,2019,HOU,0.0,0.0
