age,ast_per_poss,blk_per_poss,def_rtg,drb_per_poss,fg2_pct,fg2_per_poss,fg2a_per_poss,fg3_pct,fg3_per_poss,fg3a_per_poss,fg_pct,fg_per_poss,fga_per_poss,ft_pct,ft_per_poss,fta_per_poss,g,gs,lg_id,mp,off_rtg,orb_per_poss,pf_per_poss,pos,pts_per_poss,season,stl_per_poss,team_id,tov_per_poss,trb_per_poss
22.0,0.4,2.8,97.0,9.8,0.333,3.9,11.8,0.0,0.0,0.0,0.333,3.9,11.8,0.25,0.4,1.6,19.0,2.0,NBA,132.0,69.0,5.1,13.8,C,8.3,2005,1.2,CHI,3.5,14.9
24.0,2.8,1.3,108.0,10.7,0.349,3.2,9.2,0.0,0.0,0.0,0.349,3.2,9.2,0.3,0.6,2.1,27.0,2.0,NBA,244.0,80.0,4.5,9.6,C,7.0,2007,1.1,MIL,3.0,15.1
