age,avg_dist,fg2_dunk,fg2_pct,fg2_pct_ast,fg2a_pct_fga,fg3_heave,fg3_pct,fg3_pct_ast,fg3_pct_corner,fg3a_heave,fg3a_pct_fga,fg_pct,fg_pct_00_03,fg_pct_03_10,fg_pct_10_16,fg_pct_16_xx,g,lg_id,mp,pct_fg2_dunk,pct_fg3a_corner,pct_fga_00_03,pct_fga_03_10,pct_fga_10_16,pct_fga_16_xx,pos,season,team_id
22.0,9.4,0.0,0.333,0.8,1.0,0.0,0.0,0.0,0.0,0.0,0.0,0.333,0.3,0.4,0.0,0.417,19.0,NBA,132.0,0.0,0.0,0.333,0.167,0.1,0.4,C,2005,CHI
24.0,4.3,3.0,0.349,0.8,1.0,0.0,0.0,0.0,0.0,0.0,0.0,0.349,0.462,0.286,0.143,0.0,27.0,NBA,244.0,0.07,0.0,0.605,0.163,0.163,0.07,C,2007,MIL
