age,ast,blk,drb,efg_pct,fg,fg2,fg2_pct,fg2a,fg3,fg3_pct,fg3a,fg_pct,fga,ft,ft_pct,fta,g,gs,lg_id,mp,orb,pf,pos,pts,season,stl,team_id,tov,trb
18.0,98.0,61.0,164.0,0.467,179.0,165.0,0.462,357.0,14.0,0.341,41.0,0.45,398.0,79.0,0.712,111.0,64.0,17.0,NBA,1179.0,105.0,86.0,SF,451.0,1998,49.0,TOR,66.0,269.0
19.0,113.0,66.0,158.0,0.447,168.0,160.0,0.457,350.0,8.0,0.229,35.0,0.436,385.0,114.0,0.726,157.0,49.0,2.0,NBA,1106.0,120.0,94.0,SF,458.0,1999,52.0,TOR,80.0,278.0
20.0,263.0,151.0,313.0,0.46,459.0,441.0,0.463,953.0,18.0,0.277,65.0,0.451,1018.0,277.0,0.707,392.0,79.0,34.0,NBA,2462.0,188.0,201.0,SF,1213.0,2000,90.0,TOR,160.0,501.0
21.0,352.0,118.0,388.0,0.474,788.0,729.0,0.468,1558.0,59.0,0.355,166.0,0.457,1724.0,430.0,0.733,587.0,77.0,77.0,NBA,3087.0,192.0,160.0,SG,2065.0,2001,116.0,ORL,198.0,580.0
22.0,400.0,73.0,447.0,0.483,715.0,612.0,0.47,1303.0,103.0,0.364,283.0,0.451,1586.0,415.0,0.748,555.0,76.0,76.0,NBA,2912.0,150.0,139.0,SG,1948.0,2002,119.0,ORL,189.0,597.0
23.0,411.0,59.0,367.0,0.505,829.0,656.0,0.481,1365.0,173.0,0.386,448.0,0.457,1813.0,576.0,0.793,726.0,75.0,74.0,NBA,2954.0,121.0,156.0,SG,2407.0,2003,124.0,ORL,195.0,488.0
24.0,370.0,42.0,307.0,0.473,653.0,479.0,0.455,1053.0,174.0,0.339,513.0,0.417,1566.0,398.0,0.796,500.0,67.0,67.0,NBA,2675.0,95.0,129.0,SG,1878.0,2004,93.0,ORL,179.0,402.0
25.0,448.0,52.0,413.0,0.473,715.0,573.0,0.468,1225.0,142.0,0.326,435.0,0.431,1660.0,431.0,0.774,557.0,78.0,78.0,NBA,3182.0,71.0,167.0,SF,2003.0,2005,135.0,HOU,201.0,484.0
26.0,225.0,41.0,261.0,0.442,410.0,337.0,0.434,777.0,73.0,0.312,234.0,0.406,1011.0,254.0,0.747,340.0,47.0,47.0,NBA,1745.0,46.0,88.0,SF,1147.0,2006,59.0,HOU,120.0,307.0
27.0,458.0,36.0,322.0,0.474,638.0,512.0,0.466,1099.0,126.0,0.331,381.0,0.431,1480.0,345.0,0.707,488.0,71.0,71.0,NBA,2539.0,56.0,136.0,SG,1747.0,2007,92.0,HOU,213.0,378.0
28.0,387.0,30.0,297.0,0.452,548.0,462.0,0.457,1012.0,86.0,0.292,295.0,0.419,1307.0,245.0,0.684,358.0,66.0,62.0,NBA,2440.0,42.0,91.0,SG,1427.0,2008,68.0,HOU,160.0,339.0
29.0,175.0,15.0,134.0,0.433,188.0,144.0,0.391,368.0,44.0,0.376,117.0,0.388,485.0,125.0,0.801,156.0,35.0,35.0,NBA,1181.0,20.0,38.0,SG,545.0,2009,42.0,HOU,69.0,154.0
30.0,99.0,14.0,72.0,0.421,91.0,75.0,0.439,171.0,16.0,0.25,64.0,0.387,235.0,47.0,0.746,63.0,30.0,24.0,NBA,673.0,22.0,40.0,SG,245.0,2010,15.0,TOT,44.0,94.0
30.0,6.0,2.0,5.0,0.395,7.0,6.0,0.353,17.0,1.0,0.5,2.0,0.368,19.0,4.0,0.667,6.0,6.0,0.0,NBA,46.0,0.0,2.0,SG,19.0,2010,0.0,HOU,1.0,5.0
30.0,93.0,12.0,67.0,0.424,84.0,69.0,0.448,154.0,15.0,0.242,62.0,0.389,216.0,43.0,0.754,57.0,24.0,24.0,NBA,627.0,22.0,38.0,SG,226.0,2010,15.0,NYK,43.0,89.0
31.0,252.0,34.0,202.0,0.471,227.0,197.0,0.462,426.0,30.0,0.341,88.0,0.442,514.0,90.0,0.698,129.0,72.0,39.0,NBA,1686.0,49.0,101.0,SG,574.0,2011,66.0,DET,102.0,251.0
32.0,110.0,15.0,131.0,0.47,101.0,86.0,0.434,198.0,15.0,0.455,33.0,0.437,231.0,56.0,0.675,83.0,52.0,0.0,NBA,837.0,23.0,35.0,SF,273.0,2012,16.0,ATL,53.0,154.0
