age,ast,blk,drb,efg_pct,fg,fg2,fg2_pct,fg2a,fg3,fg3_pct,fg3a,fg_pct,fga,ft,ft_pct,fta,g,gs,lg_id,mp,orb,pf,pos,pts,season,stl,team_id,tov,trb
20.0,9.0,3.0,11.0,0.409,17.0,15.0,0.405,37.0,2.0,0.286,7.0,0.386,44.0,14.0,0.875,16.0,3.0,3.0,NBA,111.0,10.0,10.0,SF,50.0,2000,3.0,TOR,10.0,21.0
21.0,33.0,5.0,20.0,0.423,51.0,49.0,0.434,113.0,2.0,0.2,10.0,0.415,123.0,31.0,0.816,38.0,4.0,4.0,NBA,178.0,6.0,11.0,SG,135.0,2001,7.0,ORL,8.0,26.0
22.0,22.0,7.0,19.0,0.489,42.0,37.0,0.493,75.0,5.0,0.313,16.0,0.462,91.0,34.0,0.739,46.0,4.0,4.0,NBA,178.0,6.0,11.0,SG,123.0,2002,2.0,ORL,13.0,25.0
23.0,33.0,6.0,37.0,0.497,74.0,58.0,0.492,118.0,16.0,0.34,47.0,0.448,165.0,58.0,0.773,75.0,7.0,7.0,NBA,308.0,10.0,16.0,SG,222.0,2003,14.0,ORL,26.0,47.0
25.0,47.0,10.0,40.0,0.506,78.0,61.0,0.488,125.0,17.0,0.37,46.0,0.456,171.0,42.0,0.824,51.0,7.0,7.0,NBA,301.0,12.0,20.0,SF,215.0,2005,11.0,HOU,26.0,52.0
27.0,51.0,6.0,36.0,0.422,63.0,54.0,0.435,124.0,9.0,0.25,36.0,0.394,160.0,42.0,0.737,57.0,7.0,7.0,NBA,280.0,5.0,12.0,SG,177.0,2007,5.0,HOU,21.0,41.0
28.0,41.0,5.0,42.0,0.442,62.0,57.0,0.467,122.0,5.0,0.208,24.0,0.425,146.0,33.0,0.623,53.0,6.0,6.0,NBA,247.0,7.0,8.0,SG,162.0,2008,9.0,HOU,18.0,49.0
32.0,6.0,2.0,11.0,0.385,10.0,10.0,0.455,22.0,0.0,0.0,4.0,0.385,26.0,5.0,0.833,6.0,6.0,0.0,NBA,90.0,6.0,4.0,SF,25.0,2012,0.0,ATL,10.0,17.0
33.0,7.0,3.0,7.0,0.0,0.0,0.0,0.0,4.0,0.0,0.0,3.0,0.0,7.0,0.0,0.0,0.0,6.0,0.0,NBA,31.0,1.0,1.0,SF,0.0,2013,2.0,SAS,2.0,8.0
