age,ast_per_mp,blk_per_mp,drb_per_mp,fg2_pct,fg2_per_mp,fg2a_per_mp,fg3_pct,fg3_per_mp,fg3a_per_mp,fg_pct,fg_per_mp,fga_per_mp,ft_pct,ft_per_mp,fta_per_mp,g,gs,lg_id,mp,orb_per_mp,pf_per_mp,pos,pts_per_mp,season,stl_per_mp,team_id,tov_per_mp,trb_per_mp
18.0,3.0,1.9,5.0,0.462,5.0,10.9,0.341,0.4,1.3,0.45,5.5,12.2,0.712,2.4,3.4,64.0,17.0,NBA,1179.0,3.2,2.6,SF,13.8,1998,1.5,TOR,2.0,8.2
19.0,3.7,2.1,5.1,0.457,5.2,11.4,0.229,0.3,1.1,0.436,5.5,12.5,0.726,3.7,5.1,49.0,2.0,NBA,1106.0,3.9,3.1,SF,14.9,1999,1.7,TOR,2.6,9.0
20.0,3.8,2.2,4.6,0.463,6.4,13.9,0.277,0.3,1.0,0.451,6.7,14.9,0.707,4.1,5.7,79.0,34.0,NBA,2462.0,2.7,2.9,SF,17.7,2000,1.3,TOR,2.3,7.3
21.0,4.1,1.4,4.5,0.468,8.5,18.2,0.355,0.7,1.9,0.457,9.2,20.1,0.733,5.0,6.8,77.0,77.0,NBA,3087.0,2.2,1.9,SG,24.1,2001,1.4,ORL,2.3,6.8
22.0,4.9,0.9,5.5,0.47,7.6,16.1,0.364,1.3,3.5,0.451,8.8,19.6,0.748,5.1,6.9,76.0,76.0,NBA,2912.0,1.9,1.7,SG,24.1,2002,1.5,ORL,2.3,7.4
23.0,5.0,0.7,4.5,0.481,8.0,16.6,0.386,2.1,5.5,0.457,10.1,22.1,0.793,7.0,8.8,75.0,74.0,NBA,2954.0,1.5,1.9,SG,29.3,2003,1.5,ORL,2.4,5.9
24.0,5.0,0.6,4.1,0.455,6.4,14.2,0.339,2.3,6.9,0.417,8.8,21.1,0.796,5.4,6.7,67.0,67.0,NBA,2675.0,1.3,1.7,SG,25.3,2004,1.3,ORL,2.4,5.4
25.0,5.1,0.6,4.7,0.468,6.5,13.9,0.326,1.6,4.9,0.431,8.1,18.8,0.774,4.9,6.3,78.0,78.0,NBA,3182.0,0.8,1.9,SF,22.7,2005,1.5,HOU,2.3,5.5
26.0,4.6,0.8,5.4,0.434,7.0,16.0,0.312,1.5,4.8,0.406,8.5,20.9,0.747,5.2,7.0,47.0,47.0,NBA,1745.0,0.9,1.8,SF,23.7,2006,1.2,HOU,2.5,6.3
27.0,6.5,0.5,4.6,0.466,7.3,15.6,0.331,1.8,5.4,0.431,9.0,21.0,0.707,4.9,6.9,71.0,71.0,NBA,2539.0,0.8,1.9,SG,24.8,2007,1.3,HOU,3.0,5.4
28.0,5.7,0.4,4.4,0.457,6.8,14.9,0.292,1.3,4.4,0.419,8.1,19.3,0.684,3.6,5.3,66.0,62.0,NBA,2440.0,0.6,1.3,SG,21.1,2008,1.0,HOU,2.4,5.0
29.0,5.3,0.5,4.1,0.391,4.4,11.2,0.376,1.3,3.6,0.388,5.7,14.8,0.801,3.8,4.8,35.0,35.0,NBA,1181.0,0.6,1.2,SG,16.6,2009,1.3,HOU,2.1,4.7
30.0,5.3,0.7,3.9,0.439,4.0,9.1,0.25,0.9,3.4,0.387,4.9,12.6,0.746,2.5,3.4,30.0,24.0,NBA,673.0,1.2,2.1,SG,13.1,2010,0.8,TOT,2.4,5.0
30.0,4.7,1.6,3.9,0.353,4.7,13.3,0.5,0.8,1.6,0.368,5.5,14.9,0.667,3.1,4.7,6.0,0.0,NBA,46.0,0.0,1.6,SG,14.9,2010,0.0,HOU,0.8,3.9
30.0,5.3,0.7,3.8,0.448,4.0,8.8,0.242,0.9,3.6,0.389,4.8,12.4,0.754,2.5,3.3,24.0,24.0,NBA,627.0,1.3,2.2,SG,13.0,2010,0.9,NYK,2.5,5.1
31.0,5.4,0.7,4.3,0.462,4.2,9.1,0.341,0.6,1.9,0.442,4.8,11.0,0.698,1.9,2.8,72.0,39.0,NBA,1686.0,1.0,2.2,SG,12.3,2011,1.4,DET,2.2,5.4
32.0,4.7,0.6,5.6,0.434,3.7,8.5,0.455,0.6,1.4,0.437,4.3,9.9,0.675,2.4,3.6,52.0,0.0,NBA,837.0,1.0,1.5,SF,11.7,2012,0.7,ATL,2.3,6.6
