age,ast_per_mp,blk_per_mp,drb_per_mp,fg2_pct,fg2_per_mp,fg2a_per_mp,fg3_pct,fg3_per_mp,fg3a_per_mp,fg_pct,fg_per_mp,fga_per_mp,ft_pct,ft_per_mp,fta_per_mp,g,gs,lg_id,mp,orb_per_mp,pf_per_mp,pos,pts_per_mp,season,stl_per_mp,team_id,tov_per_mp,trb_per_mp
22.0,2.3,0.5,7.0,0.306,5.1,16.8,0.0,0.0,1.4,0.282,5.1,18.2,0.5,1.9,3.7,15.0,0.0,NBA,77.0,2.3,4.2,PF,12.2,2002,0.0,CHH,1.4,9.4
23.0,1.9,3.2,4.4,0.143,1.3,8.8,0.0,0.0,1.9,0.118,1.3,10.7,0.5,1.3,2.5,12.0,0.0,NBA,57.0,0.0,6.3,SF,3.8,2003,0.0,NOH,4.4,4.4
