age,ast,ast_per_g,blk,college_id,fg,fg3,fg3_pct,fg3a,fg_pct,fga,ft,ft_pct,fta,g,mp,mp_per_g,orb,pf,pts,pts_per_g,season,stl,tov,trb,trb_per_g
19.0,30.0,0.9,28.0,INDIANA,133.0,0.0,0.0,0.0,0.514,259.0,70.0,0.753,93.0,34.0,760.0,22.4,0.0,79.0,336.0,9.9,1999,20.0,56.0,220.0,6.5
20.0,40.0,1.4,36.0,INDIANA,168.0,0.0,0.0,2.0,0.496,339.0,108.0,0.73,148.0,29.0,794.0,27.4,0.0,83.0,444.0,15.3,2000,24.0,60.0,240.0,8.3
21.0,41.0,1.2,40.0,INDIANA,243.0,26.0,0.377,69.0,0.44,552.0,114.0,0.687,166.0,33.0,1018.0,30.8,0.0,93.0,626.0,19.0,2001,36.0,79.0,288.0,8.7
