lg_id,salary,season,team_name
NBA,1700000.0,2009,Phoenix Suns
NBA,1836000.0,2010,Phoenix Suns
NBA,1972000.0,2011,Houston Rockets
NBA,2108000.0,2012,Houston Rockets
NBA,7500000.0,2013,Phoenix Suns
NBA,7500000.0,2014,Phoenix Suns
NBA,7500000.0,2015,Miami Heat
NBA,14780000.0,2016,Miami Heat
NBA,15890000.0,2017,Miami Heat
NBA,17000450.0,2018,Miami Heat
NBA,18109175.0,2019,Miami Heat
