age,ast_per_g,blk_per_g,drb_per_g,efg_pct,fg2_pct,fg2_per_g,fg2a_per_g,fg3_pct,fg3_per_g,fg3a_per_g,fg_pct,fg_per_g,fga_per_g,ft_pct,ft_per_g,fta_per_g,g,gs,lg_id,mp_per_g,orb_per_g,pf_per_g,pos,pts_per_g,season,stl_per_g,team_id,tov_per_g,trb_per_g
22.0,2.0,0.1,1.3,0.438,0.4,1.2,3.1,0.37,0.4,1.0,0.393,1.6,4.1,0.769,0.9,1.2,55.0,1.0,NBA,13.2,0.6,1.6,PG,4.5,2009,0.5,PHO,1.3,1.9
23.0,3.0,0.1,1.7,0.527,0.488,1.9,3.8,0.394,0.9,2.4,0.452,2.8,6.1,0.736,1.5,2.0,80.0,2.0,NBA,18.0,0.5,1.6,PG,7.9,2010,0.6,PHO,1.6,2.1
24.0,2.9,0.1,1.5,0.499,0.476,1.9,4.1,0.361,0.8,2.2,0.435,2.7,6.3,0.624,1.2,1.9,70.0,5.0,NBA,17.6,0.5,1.8,PG,7.5,2011,0.7,TOT,1.7,2.0
24.0,3.1,0.1,1.3,0.465,0.488,2.2,4.5,0.277,0.6,2.1,0.421,2.8,6.6,0.608,1.2,2.0,48.0,2.0,NBA,17.8,0.5,1.9,PG,7.4,2011,0.8,PHO,2.0,1.8
24.0,2.5,0.2,2.0,0.584,0.437,1.4,3.2,0.519,1.3,2.5,0.472,2.7,5.7,0.667,1.1,1.6,22.0,3.0,NBA,17.2,0.5,1.6,PG,7.7,2011,0.6,HOU,1.0,2.5
25.0,5.3,0.2,1.7,0.518,0.525,3.2,6.0,0.337,1.0,3.1,0.462,4.2,9.1,0.805,2.3,2.9,66.0,28.0,NBA,26.5,0.8,2.5,PG,11.7,2012,1.3,HOU,2.4,2.5
26.0,7.4,0.3,2.3,0.491,0.497,4.1,8.2,0.319,1.1,3.6,0.443,5.2,11.8,0.748,3.2,4.2,77.0,77.0,NBA,33.5,0.8,2.8,PG,14.7,2013,1.6,PHO,2.8,3.1
27.0,5.9,0.3,2.3,0.561,0.542,5.7,10.4,0.408,1.6,3.9,0.505,7.3,14.4,0.76,4.2,5.5,76.0,75.0,NBA,35.1,0.9,2.7,SG,20.3,2014,1.4,PHO,2.8,3.2
28.0,4.5,0.2,2.5,0.546,0.555,5.3,9.5,0.347,1.2,3.3,0.501,6.4,12.8,0.774,2.3,3.0,78.0,78.0,NBA,33.8,1.0,2.5,SG-PG,16.3,2015,1.0,TOT,2.2,3.5
28.0,4.1,0.2,2.6,0.549,0.556,5.3,9.5,0.355,1.3,3.6,0.501,6.5,13.1,0.746,1.9,2.5,52.0,52.0,NBA,33.4,1.0,2.3,SG,16.2,2015,1.0,PHO,2.2,3.6
28.0,5.3,0.2,2.3,0.539,0.552,5.3,9.6,0.329,0.9,2.8,0.502,6.2,12.4,0.808,3.2,4.0,26.0,26.0,NBA,34.8,1.2,2.9,PG,16.6,2015,1.1,MIA,2.3,3.4
29.0,5.8,0.2,3.1,0.513,0.527,4.9,9.3,0.312,0.9,2.8,0.477,5.8,12.2,0.727,1.7,2.3,72.0,72.0,NBA,32.8,0.8,2.6,PG,14.1,2016,1.0,MIA,2.6,3.8
30.0,5.8,0.2,3.0,0.527,0.499,5.7,11.4,0.405,1.6,4.0,0.475,7.3,15.4,0.79,4.1,5.2,73.0,73.0,NBA,33.7,0.8,2.7,PG,20.3,2017,1.2,MIA,2.9,3.8
31.0,4.8,0.2,3.4,0.502,0.481,5.0,10.3,0.37,1.5,4.0,0.45,6.5,14.3,0.801,2.9,3.6,75.0,75.0,NBA,31.7,0.7,2.4,PG,17.3,2018,0.8,MIA,2.2,4.1
32.0,4.8,0.1,2.5,0.479,0.454,3.4,7.5,0.348,1.6,4.6,0.413,5.0,12.0,0.782,2.2,2.8,36.0,22.0,NBA,27.5,0.6,2.3,PG,13.7,2019,0.8,MIA,2.0,3.1
33.0,4.5,0.4,3.3,0.606,0.513,2.5,4.9,0.457,2.6,5.8,0.482,5.1,10.6,0.7,3.5,5.0,8.0,0.0,NBA,27.5,0.1,1.9,PG,16.4,2020,0.5,MIA,2.6,3.4
