age,ast,ast_per_g,blk,college_id,fg,fg3,fg3_pct,fg3a,fg_pct,fga,ft,ft_pct,fta,g,mp,mp_per_g,orb,pf,pts,pts_per_g,season,stl,tov,trb,trb_per_g
20.0,10.0,0.3,29.0,FLORIDAST,85.0,10.0,0.385,26.0,0.491,173.0,65.0,0.657,99.0,34.0,503.0,14.8,63.0,73.0,245.0,7.2,2018,15.0,35.0,158.0,4.6
21.0,11.0,0.3,56.0,FLORIDAST,164.0,24.0,0.369,65.0,0.502,327.0,137.0,0.761,180.0,37.0,798.0,21.6,79.0,96.0,489.0,13.2,2019,21.0,48.0,220.0,5.9
