age,ast_per_mp,blk_per_mp,drb_per_mp,fg2_pct,fg2_per_mp,fg2a_per_mp,fg3_pct,fg3_per_mp,fg3a_per_mp,fg_pct,fg_per_mp,fga_per_mp,ft_pct,ft_per_mp,fta_per_mp,g,gs,lg_id,mp,orb_per_mp,pf_per_mp,pos,pts_per_mp,season,stl_per_mp,team_id,tov_per_mp,trb_per_mp
22.0,3.4,0.6,7.9,0.497,7.3,14.7,0.0,0.0,0.0,0.496,7.3,14.8,0.481,2.8,5.9,81.0,76.0,NBA,2475.0,2.5,4.3,PF,17.5,1986,1.5,UTA,4.1,10.4
23.0,2.0,0.8,7.3,0.514,9.2,17.8,0.0,0.0,0.1,0.512,9.2,17.9,0.598,4.1,6.8,82.0,82.0,NBA,2857.0,3.5,4.1,PF,22.4,1987,1.3,UTA,3.0,10.8
24.0,2.2,0.6,8.0,0.522,9.7,18.5,0.0,0.0,0.1,0.52,9.7,18.6,0.7,6.2,8.9,82.0,82.0,NBA,3198.0,3.1,3.3,PF,25.5,1988,1.3,UTA,3.7,11.1
25.0,2.5,0.8,6.8,0.521,9.3,17.8,0.313,0.1,0.2,0.519,9.3,18.0,0.766,8.1,10.6,80.0,80.0,NBA,3126.0,3.0,3.3,PF,26.8,1989,1.7,UTA,3.3,9.8
26.0,2.6,0.6,7.8,0.567,10.4,18.3,0.372,0.2,0.5,0.562,10.5,18.8,0.762,8.0,10.5,82.0,82.0,NBA,3122.0,2.7,3.0,PF,29.3,1990,1.4,UTA,3.5,10.5
27.0,2.9,0.9,8.0,0.529,9.2,17.4,0.286,0.0,0.2,0.527,9.2,17.5,0.77,7.5,9.7,82.0,82.0,NBA,3302.0,2.6,2.9,PF,26.0,1991,1.0,UTA,2.7,10.5
28.0,2.8,0.6,8.1,0.53,9.4,17.7,0.176,0.0,0.2,0.526,9.4,17.9,0.778,7.9,10.2,81.0,81.0,NBA,3054.0,2.7,2.7,PF,26.8,1992,1.3,UTA,2.9,10.7
29.0,3.6,1.0,8.0,0.557,9.2,16.5,0.2,0.0,0.2,0.552,9.3,16.8,0.74,7.2,9.7,82.0,82.0,NBA,3099.0,2.6,3.0,PF,25.8,1993,1.4,UTA,2.8,10.7
30.0,3.5,1.4,7.6,0.503,8.3,16.4,0.25,0.1,0.3,0.497,8.3,16.8,0.694,5.5,8.0,82.0,82.0,NBA,3329.0,2.5,2.9,PF,22.3,1994,1.4,UTA,2.5,10.2
31.0,3.3,1.0,8.2,0.543,9.4,17.4,0.268,0.1,0.5,0.536,9.6,17.8,0.742,5.9,8.0,82.0,82.0,NBA,3126.0,1.8,3.1,PF,25.2,1995,1.5,UTA,2.7,10.0
32.0,4.0,0.6,7.3,0.522,8.9,17.1,0.4,0.2,0.5,0.519,9.1,17.6,0.723,5.9,8.2,82.0,82.0,NBA,3113.0,2.0,2.8,PF,24.4,1996,1.6,UTA,2.3,9.3
33.0,4.4,0.6,7.4,0.555,10.4,18.7,0.0,0.0,0.2,0.55,10.4,18.9,0.755,6.3,8.3,82.0,82.0,NBA,2998.0,2.3,2.6,PF,27.0,1997,1.4,UTA,2.8,9.7
34.0,3.8,0.8,7.7,0.531,9.2,17.4,0.333,0.0,0.1,0.53,9.3,17.5,0.761,7.5,9.8,81.0,81.0,NBA,3030.0,2.2,2.8,PF,26.0,1998,1.1,UTA,2.9,9.9
35.0,3.9,0.6,7.0,0.494,7.7,15.6,0.0,0.0,0.0,0.493,7.7,15.7,0.788,7.4,9.4,49.0,49.0,NBA,1832.0,2.1,2.6,PF,22.9,1999,1.2,UTA,3.2,9.1
36.0,3.7,0.9,7.5,0.511,9.2,17.9,0.25,0.0,0.1,0.509,9.2,18.0,0.797,7.2,9.0,82.0,82.0,NBA,2947.0,2.1,2.8,PF,25.6,2000,1.0,UTA,2.8,9.5
37.0,4.5,0.8,6.9,0.499,8.3,16.7,0.4,0.0,0.1,0.498,8.3,16.7,0.793,6.7,8.4,81.0,81.0,NBA,2895.0,1.4,2.7,PF,23.4,2001,1.2,UTA,3.0,8.3
38.0,4.0,0.7,6.4,0.456,7.4,16.3,0.36,0.1,0.3,0.454,7.5,16.6,0.797,6.0,7.6,80.0,80.0,NBA,3040.0,1.7,2.7,PF,21.2,2002,1.8,UTA,3.1,8.1
39.0,4.6,0.4,6.3,0.464,7.3,15.6,0.214,0.0,0.2,0.462,7.3,15.8,0.763,5.8,7.6,81.0,81.0,NBA,2936.0,1.4,2.5,PF,20.4,2003,1.7,UTA,2.6,7.7
40.0,4.3,0.5,8.0,0.484,5.1,10.5,0.0,0.0,0.0,0.483,5.1,10.5,0.747,4.4,5.9,42.0,42.0,NBA,1373.0,1.6,3.0,PF,14.5,2004,1.3,LAL,2.7,9.6
