age,ast_per_poss,blk_per_poss,def_rtg,drb_per_poss,fg2_pct,fg2_per_poss,fg2a_per_poss,fg3_pct,fg3_per_poss,fg3a_per_poss,fg_pct,fg_per_poss,fga_per_poss,ft_pct,ft_per_poss,fta_per_poss,g,gs,lg_id,mp,off_rtg,orb_per_poss,pf_per_poss,pos,pts_per_poss,season,stl_per_poss,team_id,tov_per_poss,trb_per_poss
23.0,2.5,5.1,104.0,6.2,0.348,5.8,16.7,0.0,0.0,0.0,0.348,5.8,16.7,0.714,3.6,5.1,11.0,0.0,NBA,143.0,94.0,5.4,8.3,C,15.2,2000,1.1,WAS,2.2,11.6
24.0,2.3,6.2,99.0,9.4,0.476,6.6,14.0,0.0,0.0,0.0,0.476,6.6,14.0,0.679,2.9,4.3,55.0,29.0,NBA,933.0,101.0,4.3,8.1,C,16.2,2001,1.6,TOT,2.9,13.6
24.0,1.9,6.6,100.0,9.8,0.44,6.0,13.6,0.0,0.0,0.0,0.44,6.0,13.6,0.733,2.7,3.6,40.0,22.0,NBA,640.0,97.0,4.3,7.4,C,14.6,2001,1.4,WAS,2.9,14.1
24.0,3.3,5.3,96.0,8.4,0.548,8.1,14.8,0.0,0.0,0.0,0.548,8.1,14.8,0.606,3.5,5.8,15.0,7.0,NBA,293.0,110.0,4.2,9.7,C,19.7,2001,2.1,DAL,3.0,12.7
25.0,3.1,2.5,105.0,6.6,0.427,6.8,15.8,0.0,0.0,0.0,0.427,6.8,15.8,0.958,4.4,4.6,15.0,15.0,NBA,279.0,103.0,3.9,9.1,C,18.0,2002,1.2,SEA,3.1,10.4
26.0,1.1,3.1,103.0,7.3,0.444,4.9,11.1,0.0,0.0,0.2,0.437,4.9,11.3,0.723,3.2,4.5,47.0,0.0,NBA,575.0,99.0,3.0,7.0,C,13.1,2003,1.0,SEA,2.1,10.3
27.0,1.2,4.5,105.0,8.6,0.469,6.0,12.7,0.0,0.0,0.1,0.466,6.0,12.8,0.798,3.3,4.2,71.0,35.0,NBA,1206.0,107.0,3.8,6.6,C,15.3,2004,0.8,SEA,2.0,12.4
28.0,0.9,3.2,102.0,9.0,0.458,5.7,12.4,0.0,0.0,0.1,0.454,5.7,12.5,0.813,3.0,3.7,51.0,1.0,NBA,451.0,105.0,3.4,9.0,C,14.4,2005,1.7,TOT,1.9,12.4
28.0,0.8,3.2,100.0,8.3,0.436,6.7,15.4,0.0,0.0,0.2,0.43,6.7,15.6,0.875,2.8,3.2,34.0,1.0,NBA,262.0,102.0,3.2,10.9,C,16.2,2005,2.2,DAL,1.6,11.5
28.0,1.1,3.4,106.0,10.1,0.517,4.2,8.1,0.0,0.0,0.0,0.517,4.2,8.1,0.75,3.4,4.5,17.0,0.0,NBA,189.0,111.0,3.6,6.4,C,11.8,2005,1.1,MIL,2.2,13.7
29.0,2.5,1.9,105.0,6.9,0.422,4.0,9.4,0.5,0.2,0.4,0.426,4.2,9.8,0.556,1.0,1.9,33.0,2.0,NBA,250.0,103.0,4.0,9.2,C,9.6,2006,1.9,WAS,1.7,10.8
30.0,2.4,3.9,109.0,7.3,0.469,4.0,8.6,0.5,0.1,0.3,0.47,4.2,8.9,0.6,0.8,1.3,44.0,1.0,NBA,380.0,111.0,3.6,9.5,C,9.3,2007,0.5,WAS,1.2,10.9
31.0,2.1,4.7,102.0,8.3,0.333,2.3,7.0,0.0,0.0,0.0,0.333,2.3,7.0,0.6,1.6,2.6,31.0,0.0,NBA,204.0,91.0,1.6,9.1,C,6.2,2008,1.6,PHI,1.0,9.9
32.0,0.0,1.8,115.0,5.5,0.5,4.6,9.1,0.0,0.0,0.0,0.5,4.6,9.1,0.75,5.5,7.3,8.0,0.0,NBA,56.0,127.0,4.6,9.1,C,14.6,2009,0.9,TOT,0.9,10.0
32.0,0.0,0.0,120.0,0.0,0.0,0.0,0.0,0.0,0.0,0.0,0.0,0.0,0.0,0.0,0.0,0.0,1.0,0.0,NBA,1.0,215.0,52.4,0.0,C,0.0,2009,0.0,MIN,0.0,52.4
32.0,0.0,1.9,115.0,5.6,0.5,4.6,9.3,0.0,0.0,0.0,0.5,4.6,9.3,0.75,5.6,7.4,7.0,0.0,NBA,55.0,125.0,3.7,9.3,C,14.8,2009,0.9,SAC,0.9,9.3
