age,ast_per_mp,blk_per_mp,drb_per_mp,fg2_pct,fg2_per_mp,fg2a_per_mp,fg3_pct,fg3_per_mp,fg3a_per_mp,fg_pct,fg_per_mp,fga_per_mp,ft_pct,ft_per_mp,fta_per_mp,g,gs,lg_id,mp,orb_per_mp,pf_per_mp,pos,pts_per_mp,season,stl_per_mp,team_id,tov_per_mp,trb_per_mp
24.0,2.4,0.6,4.2,0.714,3.0,4.2,0.5,1.8,3.6,0.615,4.8,7.8,1.0,2.4,2.4,9.0,0.0,NBA,60.0,0.0,4.8,PG,13.8,2017,0.6,UTA,1.8,4.2
25.0,5.0,0.0,4.0,0.313,2.5,8.0,0.286,1.0,3.5,0.304,3.5,11.5,1.0,2.5,2.5,8.0,0.0,NBA,72.0,1.0,3.5,PG,10.5,2018,1.0,UTA,2.0,5.0
26.0,1.8,0.0,5.4,0.2,1.8,9.0,0.0,0.0,1.8,0.167,1.8,10.8,0.0,0.0,0.0,3.0,0.0,NBA,20.0,0.0,3.6,PG,3.6,2019,0.0,UTA,0.0,5.4
