age,ast,blk,drb,efg_pct,fg,fg2,fg2_pct,fg2a,fg3,fg3_pct,fg3a,fg_pct,fga,ft,ft_pct,fta,g,gs,lg_id,mp,orb,pf,pos,pts,season,stl,team_id,tov,trb
24.0,4.0,1.0,7.0,0.731,8.0,5.0,0.714,7.0,3.0,0.5,6.0,0.615,13.0,4.0,1.0,4.0,9.0,0.0,NBA,60.0,0.0,8.0,PG,23.0,2017,1.0,UTA,3.0,7.0
25.0,10.0,0.0,8.0,0.348,7.0,5.0,0.313,16.0,2.0,0.286,7.0,0.304,23.0,5.0,1.0,5.0,8.0,0.0,NBA,72.0,2.0,7.0,PG,21.0,2018,2.0,UTA,4.0,10.0
26.0,1.0,0.0,3.0,0.167,1.0,1.0,0.2,5.0,0.0,0.0,1.0,0.167,6.0,0.0,0.0,0.0,3.0,0.0,NBA,20.0,0.0,2.0,PG,2.0,2019,0.0,UTA,0.0,3.0
