age,and1s,astd_pts,drawn_offensive,drawn_shooting,fouls_offensive,fouls_shooting,g,lg_id,mp,own_shots_blk,pct_1,pct_2,pct_3,pct_4,pct_5,plus_minus_net,plus_minus_on,pos,season,team_id,tov_bad_pass,tov_lost_ball
23.0,8.0,396.0,17.0,29.0,1.0,45.0,81.0,NBA,1499.0,28.0,100.0,0.0,0.0,0.0,0.0,2.2,3.2,PG,2016,UTA,61.0,31.0
24.0,3.0,81.0,4.0,5.0,3.0,21.0,40.0,NBA,346.0,10.0,100.0,0.0,0.0,0.0,0.0,11.5,15.0,PG,2017,UTA,7.0,5.0
25.0,5.0,185.0,6.0,13.0,2.0,14.0,41.0,NBA,498.0,14.0,100.0,0.0,0.0,0.0,0.0,7.8,11.6,PG,2018,UTA,27.0,5.0
26.0,1.0,231.0,7.0,9.0,3.0,19.0,37.0,NBA,474.0,9.0,100.0,0.0,0.0,0.0,0.0,13.4,17.1,PG,2019,UTA,22.0,7.0
27.0,0.0,48.0,7.0,0.0,0.0,2.0,10.0,NBA,143.0,4.0,100.0,0.0,0.0,0.0,0.0,1.8,3.1,PG,2020,PHI,7.0,5.0
