age,ast_per_poss,blk_per_poss,def_rtg,drb_per_poss,fg2_pct,fg2_per_poss,fg2a_per_poss,fg3_pct,fg3_per_poss,fg3a_per_poss,fg_pct,fg_per_poss,fga_per_poss,ft_pct,ft_per_poss,fta_per_poss,g,gs,lg_id,mp,off_rtg,orb_per_poss,pf_per_poss,pos,pts_per_poss,season,stl_per_poss,team_id,tov_per_poss,trb_per_poss
23.0,10.8,0.8,97.0,7.0,0.313,2.1,6.6,0.385,2.1,5.4,0.345,4.1,12.0,0.7,2.9,4.1,17.0,0.0,NBA,134.0,90.0,2.1,9.9,PF,13.2,2004,2.9,LAL,5.8,9.1
25.0,2.7,0.2,114.0,7.8,0.472,7.6,16.0,0.364,0.9,2.5,0.458,8.5,18.5,1.0,1.1,1.1,7.0,7.0,NBA,235.0,101.0,2.2,3.6,SF,18.9,2006,1.6,LAL,2.5,10.0
26.0,5.2,0.4,113.0,4.8,0.375,3.6,9.5,0.417,2.0,4.8,0.389,5.6,14.3,0.75,1.2,1.6,5.0,5.0,NBA,128.0,87.0,3.6,5.2,SF,14.3,2007,2.8,LAL,6.0,8.3
27.0,6.0,0.6,109.0,6.2,0.465,4.8,10.4,0.423,1.6,3.8,0.454,6.5,14.2,0.722,3.8,5.3,21.0,0.0,NBA,353.0,109.0,1.9,7.2,SF,18.3,2008,1.6,LAL,2.9,8.1
28.0,7.1,0.5,104.0,5.7,0.458,4.3,9.4,0.313,0.8,2.5,0.427,5.1,11.9,0.611,1.7,2.9,21.0,0.0,NBA,332.0,102.0,2.5,6.5,SF,12.7,2009,2.2,LAL,3.2,8.3
29.0,7.8,1.1,113.0,4.5,0.357,2.8,7.8,0.222,1.1,5.0,0.304,3.9,12.8,0.5,1.1,2.2,16.0,0.0,NBA,96.0,89.0,0.0,7.3,SF,10.0,2010,0.6,LAL,2.2,4.5
30.0,0.0,0.0,111.0,13.9,0.0,0.0,0.0,0.0,0.0,27.8,0.0,0.0,27.8,0.0,0.0,0.0,1.0,0.0,NBA,4.0,0.0,0.0,0.0,SF,0.0,2011,0.0,LAL,27.8,13.9
