age,ast,blk,drb,fg,fg2,fg2a,fg3,fg3a,fga,ft,fta,game_score,lg_id,mp,orb,pf,pts,season,stl,team_id,tov,trb
21.0,8.0,3.0,9.0,8.0,6.0,11.0,3.0,6.0,15.0,7.0,7.0,14.9,NBA,47,2.0,6.0,24.0,2017,4.0,BRK,6.0,10.0
22.0,4.0,2.0,4.0,10.0,9.0,11.0,2.0,5.0,16.0,4.0,5.0,13.4,NBA,34,1.0,5.0,24.0,2018,4.0,BRK,5.0,5.0
