age,ast_per_poss,blk_per_poss,def_rtg,drb_per_poss,fg2_pct,fg2_per_poss,fg2a_per_poss,fg3_pct,fg3_per_poss,fg3a_per_poss,fg_pct,fg_per_poss,fga_per_poss,ft_pct,ft_per_poss,fta_per_poss,g,gs,lg_id,mp,off_rtg,orb_per_poss,pf_per_poss,pos,pts_per_poss,season,stl_per_poss,team_id,tov_per_poss,trb_per_poss
23.0,1.2,0.8,100.0,6.0,0.385,4.0,10.5,0.0,0.0,2.0,0.323,4.0,12.5,0.611,4.4,7.2,15.0,0.0,NBA,126.0,79.0,3.2,10.9,PF,12.5,2001,2.8,DET,3.6,9.2
24.0,2.5,0.0,106.0,5.0,0.5,3.7,7.4,0.429,3.7,8.7,0.462,7.4,16.1,1.0,2.5,2.5,8.0,0.0,NBA,43.0,134.0,2.5,6.2,PF,21.1,2002,1.2,DET,0.0,7.4
25.0,3.6,0.0,109.0,7.3,0.333,3.6,10.9,0.0,0.0,3.6,0.25,3.6,14.5,1.0,7.3,7.3,5.0,0.0,NBA,15.0,100.0,10.9,0.0,PF,14.5,2003,0.0,WAS,3.6,18.1
26.0,3.4,0.7,103.0,7.1,0.482,5.4,11.2,0.444,1.8,4.1,0.472,7.2,15.2,0.878,7.8,8.9,76.0,11.0,NBA,1634.0,123.0,3.3,6.7,PF,24.0,2004,2.2,GSW,2.7,10.4
27.0,4.3,0.7,101.0,6.1,0.378,4.4,11.6,0.352,1.7,4.7,0.37,6.1,16.4,0.873,6.0,6.9,58.0,16.0,NBA,1433.0,104.0,2.4,6.5,PF,19.8,2005,3.3,MEM,3.1,8.5
28.0,4.6,0.0,100.0,6.1,0.402,4.6,11.3,0.448,1.8,4.0,0.414,6.4,15.4,0.704,2.6,3.7,36.0,0.0,NBA,402.0,96.0,1.5,9.0,PF,17.2,2006,3.2,MEM,3.7,7.6
29.0,5.1,0.2,108.0,7.5,0.585,3.9,6.7,0.409,2.9,7.2,0.494,6.9,13.9,0.926,4.1,4.4,28.0,1.0,NBA,313.0,118.0,2.1,6.9,PF,20.8,2007,3.6,MEM,3.8,9.7
30.0,2.5,0.2,112.0,8.0,0.4,2.1,5.2,0.309,2.9,9.3,0.341,4.9,14.4,0.684,1.5,2.2,37.0,1.0,NBA,440.0,94.0,3.0,7.1,PF,14.2,2008,1.1,MEM,2.6,11.0
31.0,4.4,0.7,110.0,5.9,0.455,2.0,4.4,0.326,1.7,5.3,0.385,3.7,9.7,0.857,1.7,2.0,64.0,4.0,NBA,909.0,102.0,2.2,7.8,PF,11.0,2009,2.1,MIN,2.8,8.2
32.0,4.5,0.6,113.0,4.1,0.407,2.1,5.1,0.333,0.6,1.7,0.389,2.6,6.7,0.944,3.2,3.4,29.0,0.0,NBA,267.0,118.0,1.3,10.5,PF,9.0,2010,1.7,MIN,1.3,5.4
33.0,3.4,0.6,106.0,4.2,0.077,0.1,1.1,0.483,3.6,7.4,0.43,3.7,8.5,0.944,1.4,1.5,56.0,4.0,NBA,618.0,126.0,0.9,7.0,SF,12.3,2011,2.0,DAL,1.4,5.0
34.0,3.0,0.4,105.0,5.7,0.667,0.8,1.1,0.204,1.9,9.3,0.255,2.7,10.4,0.833,0.9,1.1,44.0,0.0,NBA,277.0,82.0,0.8,7.2,SF,8.1,2012,1.5,DAL,1.5,6.4
