age,ast,ast_per_g,blk,college_id,fg,fg3,fg3_pct,fg3a,fg_pct,fga,ft,ft_pct,fta,g,mp,mp_per_g,orb,pf,pts,pts_per_g,season,stl,tov,trb,trb_per_g
19.0,58.0,1.9,8.0,PURDUE,100.0,21.0,0.333,63.0,0.455,220.0,98.0,0.705,139.0,30.0,865.0,28.8,0.0,105.0,319.0,10.6,1997,51.0,63.0,182.0,6.1
20.0,66.0,1.8,12.0,PURDUE,140.0,30.0,0.429,70.0,0.509,275.0,122.0,0.787,155.0,36.0,0.0,0.0,0.0,0.0,432.0,12.0,1998,65.0,0.0,178.0,4.9
21.0,82.0,2.4,14.0,PURDUE,118.0,37.0,0.374,99.0,0.48,246.0,114.0,0.776,147.0,34.0,960.0,28.2,0.0,99.0,387.0,11.4,1999,78.0,66.0,186.0,5.5
22.0,71.0,2.2,10.0,PURDUE,137.0,42.0,0.339,124.0,0.411,333.0,130.0,0.769,169.0,32.0,943.0,29.5,0.0,86.0,446.0,13.9,2000,65.0,74.0,203.0,6.3
