age,ast_per_poss,blk_per_poss,def_rtg,drb_per_poss,fg2_pct,fg2_per_poss,fg2a_per_poss,fg3_pct,fg3_per_poss,fg3a_per_poss,fg_pct,fg_per_poss,fga_per_poss,ft_pct,ft_per_poss,fta_per_poss,g,gs,lg_id,mp,off_rtg,orb_per_poss,pf_per_poss,pos,pts_per_poss,season,stl_per_poss,team_id,tov_per_poss,trb_per_poss
27.0,1.3,0.0,123.0,6.7,0.474,6.0,12.7,0.0,0.0,2.7,0.391,6.0,15.4,0.727,5.4,7.4,4.0,0.0,NBA,78.0,104.0,1.3,7.4,PF,17.4,2005,2.0,MEM,0.7,8.1
28.0,2.6,0.0,112.0,7.9,0.0,0.0,0.0,0.5,2.6,5.3,0.5,2.6,5.3,0.0,0.0,0.0,3.0,0.0,NBA,22.0,167.0,2.6,5.3,PF,7.9,2006,2.6,MEM,0.0,10.5
33.0,3.0,0.0,109.0,4.5,0.0,0.0,0.0,0.75,4.5,6.0,0.75,4.5,6.0,0.5,1.5,3.0,9.0,0.0,NBA,37.0,112.0,0.0,12.0,SF,15.0,2011,1.5,DAL,4.5,4.5
34.0,0.0,0.0,110.0,17.7,0.0,0.0,5.9,1.0,5.9,5.9,0.5,5.9,11.8,0.0,0.0,0.0,2.0,0.0,NBA,9.0,149.0,0.0,0.0,SF,17.7,2012,0.0,DAL,0.0,17.7
