age,ast_per_g,blk_per_g,drb_per_g,efg_pct,fg2_pct,fg2_per_g,fg2a_per_g,fg3_pct,fg3_per_g,fg3a_per_g,fg_pct,fg_per_g,fga_per_g,ft_pct,ft_per_g,fta_per_g,g,gs,lg_id,mp_per_g,orb_per_g,pf_per_g,pos,pts_per_g,season,stl_per_g,team_id,tov_per_g,trb_per_g
27.0,0.5,0.0,2.5,0.391,0.474,2.3,4.8,0.0,0.0,1.0,0.391,2.3,5.8,0.727,2.0,2.8,4.0,0.0,NBA,19.5,0.5,2.8,PF,6.5,2005,0.8,MEM,0.3,3.0
28.0,0.3,0.0,1.0,0.75,0.0,0.0,0.0,0.5,0.3,0.7,0.5,0.3,0.7,0.0,0.0,0.0,3.0,0.0,NBA,7.3,0.3,0.7,PF,1.0,2006,0.3,MEM,0.0,1.3
33.0,0.2,0.0,0.3,1.125,0.0,0.0,0.0,0.75,0.3,0.4,0.75,0.3,0.4,0.5,0.1,0.2,9.0,0.0,NBA,4.1,0.0,0.9,SF,1.1,2011,0.1,DAL,0.3,0.3
34.0,0.0,0.0,1.5,0.75,0.0,0.0,0.5,1.0,0.5,0.5,0.5,0.5,1.0,0.0,0.0,0.0,2.0,0.0,NBA,4.5,0.0,0.0,SF,1.5,2012,0.0,DAL,0.0,1.5
