age,ast_per_g,blk_per_g,drb_per_g,efg_pct,fg2_pct,fg2_per_g,fg2a_per_g,fg3_pct,fg3_per_g,fg3a_per_g,fg_pct,fg_per_g,fga_per_g,ft_pct,ft_per_g,fta_per_g,g,gs,lg_id,mp_per_g,orb_per_g,pf_per_g,pos,pts_per_g,season,stl_per_g,team_id,tov_per_g,trb_per_g
22.0,0.7,0.3,2.6,0.354,0.368,0.9,2.4,0.209,0.2,0.8,0.327,1.1,3.3,0.818,0.6,0.7,79.0,1.0,NBA,13.4,0.7,2.0,SF,2.9,2013,0.5,GSW,0.6,3.3
23.0,1.9,0.9,3.9,0.467,0.449,1.6,3.6,0.333,0.7,2.0,0.407,2.3,5.6,0.667,1.0,1.5,82.0,12.0,NBA,21.9,1.0,2.8,SF,6.2,2014,1.2,GSW,1.1,5.0
24.0,3.7,1.3,6.7,0.516,0.523,2.9,5.5,0.337,1.4,4.2,0.443,4.3,9.7,0.66,1.7,2.5,79.0,79.0,NBA,31.5,1.4,3.2,PF,11.7,2015,1.6,GSW,1.7,8.2
25.0,7.4,1.4,7.8,0.551,0.537,3.7,6.9,0.388,1.2,3.2,0.49,5.0,10.1,0.696,2.8,4.1,81.0,81.0,NBA,34.7,1.7,3.0,PF,14.0,2016,1.5,GSW,3.2,9.5
26.0,7.0,1.4,6.6,0.481,0.494,2.5,5.1,0.308,1.1,3.5,0.418,3.6,8.6,0.709,2.0,2.8,76.0,76.0,NBA,32.5,1.3,2.9,PF,10.2,2017,2.0,GSW,2.4,7.9
27.0,7.3,1.3,6.6,0.516,0.562,2.9,5.2,0.301,1.1,3.7,0.454,4.0,8.8,0.775,1.9,2.5,70.0,70.0,NBA,32.7,1.1,2.6,PF,11.0,2018,1.4,GSW,2.9,7.6
28.0,6.9,1.1,6.4,0.501,0.549,2.1,3.9,0.285,0.7,2.5,0.445,2.8,6.4,0.692,1.0,1.4,66.0,66.0,NBA,31.3,0.9,3.0,PF,7.4,2019,1.4,GSW,2.6,7.3
29.0,5.0,0.1,6.1,0.458,0.474,2.6,5.4,0.286,0.9,3.0,0.407,3.4,8.4,0.7,1.0,1.4,7.0,7.0,NBA,27.9,0.6,2.3,PF,8.7,2020,1.1,GSW,1.6,6.7
