age,ast,blk,drb,efg_pct,fg,fg2,fg2_pct,fg2a,fg3,fg3_pct,fg3a,fg_pct,fga,ft,ft_pct,fta,g,gs,lg_id,mp,orb,pf,pos,pts,season,stl,team_id,tov,trb
22.0,53.0,25.0,202.0,0.354,84.0,70.0,0.368,190.0,14.0,0.209,67.0,0.327,257.0,45.0,0.818,55.0,79.0,1.0,NBA,1061.0,58.0,159.0,SF,227.0,2013,42.0,GSW,51.0,260.0
23.0,152.0,72.0,323.0,0.467,187.0,132.0,0.449,294.0,55.0,0.333,165.0,0.407,459.0,82.0,0.667,123.0,82.0,12.0,NBA,1797.0,86.0,231.0,SF,511.0,2014,102.0,GSW,91.0,409.0
24.0,291.0,99.0,533.0,0.516,339.0,228.0,0.523,436.0,111.0,0.337,329.0,0.443,765.0,132.0,0.66,200.0,79.0,79.0,NBA,2490.0,114.0,253.0,PF,921.0,2015,123.0,GSW,133.0,647.0
25.0,598.0,113.0,635.0,0.551,401.0,301.0,0.537,561.0,100.0,0.388,258.0,0.49,819.0,229.0,0.696,329.0,81.0,81.0,NBA,2808.0,134.0,240.0,PF,1131.0,2016,119.0,GSW,259.0,769.0
26.0,533.0,106.0,501.0,0.481,272.0,191.0,0.494,387.0,81.0,0.308,263.0,0.418,650.0,151.0,0.709,213.0,76.0,76.0,NBA,2471.0,98.0,217.0,PF,776.0,2017,154.0,GSW,184.0,599.0
27.0,508.0,91.0,460.0,0.516,281.0,204.0,0.562,363.0,77.0,0.301,256.0,0.454,619.0,134.0,0.775,173.0,70.0,70.0,NBA,2287.0,75.0,185.0,PF,773.0,2018,95.0,GSW,202.0,535.0
28.0,454.0,70.0,421.0,0.501,188.0,141.0,0.549,257.0,47.0,0.285,165.0,0.445,422.0,63.0,0.692,91.0,66.0,66.0,NBA,2065.0,60.0,197.0,PF,486.0,2019,95.0,GSW,169.0,481.0
29.0,35.0,1.0,43.0,0.458,24.0,18.0,0.474,38.0,6.0,0.286,21.0,0.407,59.0,7.0,0.7,10.0,7.0,7.0,NBA,195.0,4.0,16.0,PF,61.0,2020,8.0,GSW,11.0,47.0
