age,ast,ast_per_g,blk,college_id,fg,fg3,fg3_pct,fg3a,fg_pct,fga,ft,ft_pct,fta,g,mp,mp_per_g,orb,pf,pts,pts_per_g,season,stl,tov,trb,trb_per_g
18.0,31.0,0.8,9.0,MICHIGANST,45.0,0.0,0.0,1.0,0.556,81.0,32.0,0.615,52.0,37.0,0.0,0.0,0.0,0.0,122.0,3.3,2009,21.0,24.0,122.0,3.3
19.0,112.0,3.0,34.0,MICHIGANST,139.0,2.0,0.125,16.0,0.525,265.0,86.0,0.672,128.0,37.0,945.0,25.5,81.0,111.0,366.0,9.9,2010,45.0,62.0,286.0,7.7
20.0,141.0,4.1,38.0,MICHIGANST,147.0,37.0,0.366,101.0,0.426,345.0,97.0,0.683,142.0,34.0,1023.0,30.1,84.0,114.0,428.0,12.6,2011,60.0,79.0,294.0,8.6
21.0,141.0,3.8,35.0,MICHIGANST,212.0,52.0,0.388,134.0,0.449,472.0,125.0,0.723,173.0,37.0,1229.0,33.2,79.0,105.0,601.0,16.2,2012,54.0,112.0,394.0,10.6
