age,ast_per_mp,blk_per_mp,drb_per_mp,fg2_pct,fg2_per_mp,fg2a_per_mp,fg3_pct,fg3_per_mp,fg3a_per_mp,fg_pct,fg_per_mp,fga_per_mp,ft_pct,ft_per_mp,fta_per_mp,g,gs,lg_id,mp,orb_per_mp,pf_per_mp,pos,pts_per_mp,season,stl_per_mp,team_id,tov_per_mp,trb_per_mp
21.0,8.2,0.5,3.5,0.375,3.1,8.2,0.185,0.9,5.1,0.302,4.0,13.4,0.912,2.5,2.7,34.0,1.0,NBA,455.0,0.3,4.2,PG,11.5,2015,1.5,DET,2.6,3.8
22.0,5.0,0.0,2.9,0.409,4.1,10.0,0.1,0.2,2.3,0.352,4.3,12.2,0.576,4.3,7.5,12.0,0.0,NBA,159.0,0.9,4.5,PG,13.1,2016,0.7,DET,1.6,3.8
23.0,5.0,0.6,3.7,0.478,2.6,5.4,0.376,1.0,2.7,0.444,3.6,8.1,0.792,3.4,4.3,59.0,18.0,NBA,1334.0,0.7,3.2,PG,11.7,2017,1.2,BRK,1.8,4.4
24.0,8.2,0.4,3.4,0.452,2.9,6.3,0.326,2.2,6.8,0.387,5.1,13.1,0.813,3.4,4.2,80.0,58.0,NBA,2306.0,0.6,2.9,PG,15.7,2018,1.1,BRK,2.0,4.0
25.0,5.8,0.3,2.6,0.528,4.6,8.6,0.335,2.3,7.0,0.442,6.9,15.6,0.806,5.4,6.7,68.0,4.0,NBA,1914.0,0.5,3.5,PG,21.5,2019,0.8,BRK,2.9,3.1
26.0,7.1,0.6,2.8,0.489,4.9,10.1,0.242,1.7,7.1,0.388,6.6,17.1,0.778,6.0,7.7,7.0,0.0,NBA,168.0,0.4,5.4,SG,21.0,2020,0.9,BRK,4.5,3.2
