age,ast_per_g,blk_per_g,drb_per_g,efg_pct,fg2_pct,fg2_per_g,fg2a_per_g,fg3_pct,fg3_per_g,fg3a_per_g,fg_pct,fg_per_g,fga_per_g,ft_pct,ft_per_g,fta_per_g,g,gs,lg_id,mp_per_g,orb_per_g,pf_per_g,pos,pts_per_g,season,stl_per_g,team_id,tov_per_g,trb_per_g
22.0,1.0,0.0,0.0,1.0,1.0,1.0,1.0,0.0,0.0,0.0,1.0,1.0,1.0,0.0,0.0,0.0,1.0,0.0,NBA,2.0,0.0,0.0,PG,2.0,2016,0.0,DET,0.0,0.0
25.0,1.6,0.0,1.8,0.508,0.474,3.6,7.6,0.375,1.8,4.8,0.435,5.4,12.4,0.714,2.0,2.8,5.0,0.0,NBA,26.2,0.8,2.0,PG,14.6,2019,0.4,BRK,1.6,2.6
