age,ast,blk,drb,efg_pct,fg,fg2,fg2_pct,fg2a,fg3,fg3_pct,fg3a,fg_pct,fga,ft,ft_pct,fta,g,gs,lg_id,mp,orb,pf,pos,pts,season,stl,team_id,tov,trb
20.0,52.0,20.0,207.0,0.478,160.0,91.0,0.417,218.0,69.0,0.365,189.0,0.393,407.0,98.0,0.845,116.0,66.0,30.0,NBA,1312.0,104.0,157.0,PF,487.0,2009,44.0,NJN,63.0,311.0
21.0,37.0,14.0,132.0,0.536,169.0,91.0,0.514,177.0,78.0,0.37,211.0,0.436,388.0,71.0,0.866,82.0,63.0,6.0,NBA,911.0,70.0,81.0,PF,487.0,2010,25.0,ORL,56.0,202.0
22.0,52.0,38.0,226.0,0.558,226.0,92.0,0.5,184.0,134.0,0.393,341.0,0.43,525.0,95.0,0.812,117.0,64.0,14.0,NBA,1424.0,129.0,137.0,PF,681.0,2011,30.0,ORL,49.0,355.0
23.0,54.0,26.0,247.0,0.548,332.0,166.0,0.496,335.0,166.0,0.393,422.0,0.439,757.0,150.0,0.877,171.0,61.0,61.0,NBA,1964.0,224.0,146.0,PF,980.0,2012,50.0,ORL,57.0,471.0
24.0,97.0,31.0,328.0,0.519,472.0,259.0,0.464,558.0,213.0,0.382,557.0,0.423,1115.0,152.0,0.844,180.0,81.0,22.0,NBA,2503.0,191.0,179.0,PF,1309.0,2013,42.0,NOH,97.0,519.0
25.0,17.0,7.0,76.0,0.532,155.0,88.0,0.463,190.0,67.0,0.409,164.0,0.438,354.0,59.0,0.952,62.0,22.0,14.0,NBA,795.0,66.0,47.0,PF,436.0,2014,10.0,NOP,20.0,142.0
26.0,55.0,20.0,187.0,0.483,291.0,169.0,0.457,370.0,122.0,0.34,359.0,0.399,729.0,129.0,0.854,151.0,61.0,5.0,NBA,1675.0,108.0,113.0,PF,833.0,2015,33.0,NOP,62.0,295.0
27.0,73.0,25.0,265.0,0.498,397.0,266.0,0.466,571.0,131.0,0.366,358.0,0.427,929.0,199.0,0.873,228.0,66.0,7.0,NBA,2008.0,131.0,109.0,PF,1124.0,2016,38.0,NOP,90.0,396.0
28.0,68.0,14.0,218.0,0.55,323.0,119.0,0.446,267.0,204.0,0.403,506.0,0.418,773.0,129.0,0.86,150.0,72.0,72.0,NBA,2116.0,112.0,142.0,PF,979.0,2017,31.0,HOU,55.0,330.0
29.0,60.0,21.0,237.0,0.568,207.0,76.0,0.539,141.0,131.0,0.386,339.0,0.431,480.0,72.0,0.774,93.0,66.0,50.0,NBA,1725.0,94.0,126.0,PF,617.0,2018,24.0,HOU,42.0,331.0
30.0,19.0,1.0,36.0,0.37,21.0,12.0,0.414,29.0,9.0,0.225,40.0,0.304,69.0,12.0,0.75,16.0,25.0,8.0,NBA,322.0,18.0,25.0,PF,63.0,2019,4.0,TOT,14.0,54.0
30.0,17.0,1.0,31.0,0.375,19.0,12.0,0.462,26.0,7.0,0.206,34.0,0.317,60.0,11.0,0.786,14.0,15.0,8.0,NBA,278.0,14.0,23.0,PF,56.0,2019,3.0,PHO,12.0,45.0
30.0,2.0,0.0,5.0,0.333,2.0,0.0,0.0,3.0,2.0,0.333,6.0,0.222,9.0,1.0,0.5,2.0,10.0,0.0,NBA,44.0,4.0,2.0,PF,7.0,2019,1.0,MIA,2.0,9.0
31.0,2.0,0.0,7.0,0.357,2.0,1.0,0.5,2.0,1.0,0.2,5.0,0.286,7.0,0.0,0.0,0.0,2.0,0.0,NBA,14.0,0.0,1.0,PF,5.0,2020,1.0,HOU,1.0,7.0
