age,ast,blk,drb,efg_pct,fg,fg2,fg2_pct,fg2a,fg3,fg3_pct,fg3a,fg_pct,fga,ft,ft_pct,fta,g,gs,lg_id,mp,orb,pf,pos,pts,season,stl,team_id,tov,trb
21.0,43.0,16.0,115.0,0.471,63.0,59.0,0.476,124.0,4.0,0.286,14.0,0.457,138.0,37.0,0.712,52.0,29.0,17.0,NBA,615.0,39.0,61.0,SF,167.0,2016,39.0,BRK,26.0,154.0
22.0,154.0,44.0,356.0,0.447,235.0,220.0,0.463,475.0,15.0,0.224,67.0,0.434,542.0,190.0,0.751,253.0,78.0,50.0,NBA,1761.0,96.0,177.0,SF,675.0,2017,82.0,BRK,116.0,452.0
23.0,167.0,48.0,358.0,0.481,342.0,329.0,0.491,670.0,13.0,0.241,54.0,0.472,724.0,249.0,0.788,316.0,68.0,59.0,NBA,1920.0,101.0,145.0,SF,946.0,2018,65.0,BRK,121.0,459.0
24.0,96.0,27.0,227.0,0.42,200.0,191.0,0.436,438.0,9.0,0.184,49.0,0.411,487.0,118.0,0.645,183.0,59.0,21.0,NBA,1234.0,83.0,107.0,SF,527.0,2019,44.0,BRK,68.0,310.0
25.0,4.0,2.0,12.0,0.56,14.0,14.0,0.56,25.0,0.0,0.0,0.0,0.56,25.0,8.0,0.8,10.0,4.0,0.0,NBA,74.0,11.0,10.0,SF,36.0,2020,4.0,TOR,6.0,23.0
