age,ast_per_poss,blk_per_poss,def_rtg,drb_per_poss,fg2_pct,fg2_per_poss,fg2a_per_poss,fg3_pct,fg3_per_poss,fg3a_per_poss,fg_pct,fg_per_poss,fga_per_poss,ft_pct,ft_per_poss,fta_per_poss,g,gs,lg_id,mp,off_rtg,orb_per_poss,pf_per_poss,pos,pts_per_poss,season,stl_per_poss,team_id,tov_per_poss,trb_per_poss
23.0,2.1,1.3,109.0,4.6,0.422,7.4,17.5,0.0,0.0,0.0,0.422,7.4,17.5,0.682,6.3,9.3,41.0,0.0,NBA,231.0,106.0,4.0,7.0,SF,21.1,1989,1.5,ATL,2.5,8.7
24.0,3.5,0.0,112.0,6.9,0.385,8.6,22.4,0.0,0.0,1.7,0.357,8.6,24.2,0.333,3.5,10.4,14.0,0.0,NBA,29.0,84.0,5.2,5.2,SF,20.7,1990,1.7,ATL,3.5,12.1
25.0,2.3,1.1,112.0,3.4,0.487,7.2,14.8,0.667,0.1,0.1,0.489,7.3,14.9,0.801,5.2,6.5,78.0,2.0,NBA,1165.0,110.0,4.1,6.3,SF,19.8,1991,1.4,ATL,3.3,7.5
26.0,2.8,0.5,112.0,3.2,0.534,9.8,18.4,0.333,0.3,1.0,0.524,10.2,19.4,0.761,5.1,6.7,66.0,12.0,NBA,1598.0,113.0,3.2,4.1,SF,25.8,1992,1.5,ATL,3.0,6.4
27.0,3.7,0.5,113.0,2.7,0.482,9.0,18.7,0.25,0.3,1.0,0.47,9.3,19.7,0.779,5.0,6.4,82.0,15.0,NBA,1736.0,109.0,2.7,4.5,SF,23.8,1993,1.7,ATL,2.9,5.4
28.0,2.9,0.7,105.0,3.0,0.495,8.1,16.3,0.111,0.0,0.4,0.485,8.1,16.7,0.783,6.4,8.1,72.0,13.0,NBA,1155.0,112.0,2.7,3.7,SF,22.6,1994,1.9,ATL,2.8,5.7
29.0,2.7,0.5,107.0,3.3,0.491,7.2,14.7,0.167,0.1,0.5,0.48,7.3,15.2,0.753,5.6,7.5,56.0,1.0,NBA,607.0,107.0,4.4,6.9,SF,20.3,1995,2.3,IND,3.8,7.7
30.0,2.7,0.3,107.0,5.5,0.506,7.3,14.4,0.0,0.0,0.7,0.482,7.3,15.1,0.737,3.8,5.2,54.0,6.0,NBA,591.0,104.0,2.9,7.5,SF,18.4,1996,2.1,IND,3.1,8.5
31.0,3.2,0.3,107.0,4.1,0.481,6.8,14.2,0.409,0.9,2.1,0.472,7.7,16.3,0.617,2.8,4.5,62.0,18.0,NBA,1115.0,104.0,2.8,5.8,SF,19.1,1997,1.8,IND,2.7,6.8
32.0,3.0,0.7,108.0,2.5,0.39,4.7,12.0,0.0,0.0,0.7,0.369,4.7,12.6,0.545,1.4,2.5,50.0,5.0,NBA,461.0,87.0,2.8,5.7,SF,10.7,1998,2.4,GSW,2.0,5.4
33.0,0.0,1.2,107.0,1.2,0.071,1.2,16.4,0.0,0.0,0.0,0.071,1.2,16.4,0.75,3.5,4.7,8.0,0.0,NBA,46.0,54.0,5.9,4.7,SF,5.9,1999,1.2,GSW,1.2,7.0
