age,ast,blk,drb,fg,fg2,fg2a,fg3,fg3a,fga,ft,fta,game_score,lg_id,mp,orb,pf,pts,season,stl,team_id,tov,trb
25.0,2.0,0.0,5.0,4.0,4.0,6.0,0.0,0.0,6.0,4.0,4.0,9.0,NBA,0.0,3.0,5.0,9.0,1991,0.0,ATL,1.0,8.0
27.0,1.0,0.0,2.0,8.0,7.0,9.0,1.0,2.0,11.0,3.0,4.0,12.4,NBA,0.0,1.0,2.0,18.0,1993,0.0,ATL,2.0,2.0
28.0,4.0,1.0,2.0,6.0,6.0,10.0,1.0,2.0,10.0,11.0,12.0,17.9,NBA,0.0,8.0,4.0,23.0,1994,1.0,ATL,2.0,9.0
29.0,4.0,1.0,2.0,3.0,2.0,6.0,1.0,1.0,7.0,5.0,6.0,9.3,NBA,0.0,2.0,2.0,9.0,1995,0.0,IND,3.0,3.0
30.0,1.0,0.0,1.0,3.0,3.0,5.0,0.0,0.0,5.0,2.0,3.0,5.1,NBA,0.0,2.0,3.0,7.0,1996,2.0,IND,1.0,3.0
