age,ast,blk,drb,efg_pct,fg,fg2,fg2_pct,fg2a,fg3,fg3_pct,fg3a,fg_pct,fga,ft,ft_pct,fta,g,gs,lg_id,mp,orb,pf,pos,pts,season,stl,team_id,tov,trb
23.0,10.0,6.0,22.0,0.422,35.0,35.0,0.422,83.0,0.0,0.0,0.0,0.422,83.0,30.0,0.682,44.0,41.0,0.0,NBA,231.0,19.0,33.0,SF,100.0,1989,7.0,ATL,12.0,41.0
24.0,2.0,0.0,4.0,0.357,5.0,5.0,0.385,13.0,0.0,0.0,1.0,0.357,14.0,2.0,0.333,6.0,14.0,0.0,NBA,29.0,3.0,3.0,SF,12.0,1990,1.0,ATL,2.0,7.0
25.0,55.0,27.0,82.0,0.492,174.0,172.0,0.487,353.0,2.0,0.667,3.0,0.489,356.0,125.0,0.801,156.0,78.0,2.0,NBA,1165.0,97.0,151.0,SF,475.0,1991,33.0,ATL,78.0,179.0
26.0,92.0,17.0,105.0,0.532,331.0,320.0,0.534,599.0,11.0,0.333,33.0,0.524,632.0,166.0,0.761,218.0,66.0,12.0,NBA,1598.0,105.0,134.0,SF,839.0,1992,49.0,ATL,99.0,210.0
27.0,132.0,17.0,94.0,0.476,327.0,318.0,0.482,660.0,9.0,0.25,36.0,0.47,696.0,176.0,0.779,226.0,82.0,15.0,NBA,1736.0,97.0,160.0,SF,839.0,1993,59.0,ATL,103.0,191.0
28.0,65.0,16.0,67.0,0.487,184.0,183.0,0.495,370.0,1.0,0.111,9.0,0.485,379.0,144.0,0.783,184.0,72.0,13.0,NBA,1155.0,62.0,85.0,SF,513.0,1994,44.0,ATL,64.0,129.0
29.0,31.0,6.0,38.0,0.483,83.0,82.0,0.491,167.0,1.0,0.167,6.0,0.48,173.0,64.0,0.753,85.0,56.0,1.0,NBA,607.0,50.0,79.0,SF,231.0,1995,26.0,IND,43.0,88.0
30.0,30.0,3.0,61.0,0.482,80.0,80.0,0.506,158.0,0.0,0.0,8.0,0.482,166.0,42.0,0.737,57.0,54.0,6.0,NBA,591.0,32.0,83.0,SF,202.0,1996,23.0,IND,34.0,93.0
31.0,66.0,6.0,84.0,0.499,159.0,141.0,0.481,293.0,18.0,0.409,44.0,0.472,337.0,58.0,0.617,94.0,62.0,18.0,NBA,1115.0,57.0,120.0,SF,394.0,1997,38.0,IND,55.0,141.0
32.0,26.0,6.0,22.0,0.369,41.0,41.0,0.39,105.0,0.0,0.0,6.0,0.369,111.0,12.0,0.545,22.0,50.0,5.0,NBA,461.0,25.0,50.0,SF,94.0,1998,21.0,GSW,18.0,47.0
33.0,0.0,1.0,1.0,0.071,1.0,1.0,0.071,14.0,0.0,0.0,0.0,0.071,14.0,3.0,0.75,4.0,8.0,0.0,NBA,46.0,5.0,4.0,SF,5.0,1999,1.0,GSW,1.0,6.0
