age,and1s,astd_pts,drawn_offensive,drawn_shooting,fouls_offensive,fouls_shooting,g,lg_id,mp,own_shots_blk,pct_1,pct_2,pct_3,pct_4,pct_5,plus_minus_net,plus_minus_on,pos,season,team_id,tov_bad_pass,tov_lost_ball
19.0,23.0,135.0,12.0,120.0,14.0,127.0,79.0,NBA,1952.0,56.0,0.0,0.0,1.0,71.0,28.0,6.0,-2.4,PF,2006,ATL,29.0,22.0
20.0,15.0,263.0,7.0,109.0,25.0,97.0,64.0,NBA,2179.0,57.0,0.0,0.0,29.0,67.0,4.0,0.6,-5.1,PF,2007,ATL,40.0,39.0
21.0,24.0,297.0,9.0,167.0,18.0,131.0,80.0,NBA,2765.0,70.0,0.0,0.0,71.0,28.0,1.0,-2.7,-2.9,SF,2008,ATL,44.0,48.0
22.0,19.0,180.0,5.0,115.0,17.0,64.0,61.0,NBA,2093.0,49.0,0.0,0.0,66.0,34.0,1.0,-3.6,0.2,SF,2009,ATL,24.0,20.0
23.0,14.0,207.0,10.0,85.0,14.0,85.0,81.0,NBA,2468.0,40.0,0.0,0.0,89.0,11.0,0.0,2.6,6.0,SF,2010,ATL,20.0,31.0
24.0,19.0,195.0,2.0,66.0,7.0,53.0,65.0,NBA,1865.0,31.0,0.0,5.0,79.0,16.0,0.0,-0.1,-0.9,SF,2011,ATL,23.0,23.0
25.0,9.0,171.0,2.0,48.0,4.0,45.0,57.0,NBA,1500.0,40.0,0.0,1.0,78.0,21.0,0.0,-1.7,2.9,SF,2012,ATL,16.0,12.0
26.0,7.0,167.0,4.0,34.0,10.0,44.0,73.0,NBA,1727.0,30.0,0.0,0.0,96.0,4.0,0.0,-4.6,-2.8,SF,2013,UTA,26.0,19.0
27.0,7.0,185.0,4.0,32.0,13.0,54.0,66.0,NBA,1674.0,17.0,0.0,0.0,2.0,95.0,3.0,3.8,-5.8,PF,2014,UTA,22.0,14.0
28.0,7.0,224.0,9.0,23.0,17.0,66.0,78.0,NBA,2035.0,12.0,0.0,0.0,1.0,83.0,16.0,-2.0,-4.4,PF,2015,CHO,28.0,10.0
29.0,11.0,270.0,12.0,46.0,20.0,51.0,81.0,NBA,2338.0,28.0,0.0,0.0,17.0,83.0,0.0,4.4,4.7,PF,2016,CHO,20.0,17.0
30.0,17.0,252.0,5.0,55.0,13.0,61.0,76.0,NBA,2295.0,35.0,0.0,0.0,0.0,99.0,1.0,-1.8,-0.4,PF,2017,CHO,28.0,10.0
31.0,15.0,221.0,9.0,57.0,12.0,39.0,78.0,NBA,2006.0,23.0,0.0,0.0,2.0,98.0,0.0,3.2,1.8,PF,2018,CHO,35.0,12.0
32.0,3.0,224.0,4.0,27.0,12.0,76.0,75.0,NBA,2133.0,21.0,0.0,0.0,0.0,78.0,22.0,1.9,-0.5,PF,2019,CHO,16.0,14.0
33.0,2.0,15.0,0.0,4.0,2.0,5.0,11.0,NBA,186.0,2.0,0.0,0.0,0.0,50.0,51.0,-9.1,-13.0,PF,2020,CHO,4.0,0.0
