article_url,date,headline
https://oldnorthbanter.com/2019/11/13/hornets-grizzlies-similar-situations/,2019/11/13,"Old North Banter: Hornets, Grizzlies meet in similar situations"
https://swarmandsting.com/2019/11/13/charlotte-hornets-defense-horrible-not-hopeless/,2019/11/13,"Swarm and Sting: Charlotte Hornets: The Defense Has Been Horrible, But It's Not Hopeless"
https://oldnorthbanter.com/2019/11/12/three-reasons-hornets-trade-nicolas-batum/,2019/11/12,Old North Banter: Three reasons the Hornets should trade Nicolas Batum
https://swarmandsting.com/2019/11/12/charlotte-hornets-just-trade-michael-kidd-gilchrist/,2019/11/12,Swarm and Sting: Should the Charlotte Hornets just trade Michael Kidd-Gilchrist?
https://ripcityproject.com/2019/11/11/portland-trail-blazers-perimeter-defense/,2019/11/11,Rip City Project: Portland Trail Blazers: 3 trades to shore up the perimeter defense
