age,ast_per_poss,blk_per_poss,def_rtg,drb_per_poss,fg2_pct,fg2_per_poss,fg2a_per_poss,fg3_pct,fg3_per_poss,fg3a_per_poss,fg_pct,fg_per_poss,fga_per_poss,ft_pct,ft_per_poss,fta_per_poss,g,gs,lg_id,mp,off_rtg,orb_per_poss,pf_per_poss,pos,pts_per_poss,season,stl_per_poss,team_id,tov_per_poss,trb_per_poss
19.0,1.7,0.7,112.0,7.1,0.464,6.0,13.0,0.245,0.4,1.4,0.443,6.4,14.4,0.747,5.1,6.9,79.0,7.0,NBA,1952.0,109.0,3.3,6.2,PF,18.3,2006,1.3,ATL,2.3,10.4
20.0,3.0,0.7,110.0,6.2,0.446,7.2,16.2,0.244,0.3,1.1,0.433,7.5,17.3,0.815,5.3,6.5,64.0,63.0,NBA,2179.0,101.0,2.1,4.7,PF,20.5,2007,1.3,ATL,3.1,8.2
21.0,2.6,0.6,110.0,6.4,0.466,8.1,17.3,0.1,0.0,0.2,0.462,8.1,17.5,0.822,6.4,7.8,80.0,80.0,NBA,2765.0,110.0,2.3,4.3,SF,22.6,2008,1.5,ATL,2.4,8.7
22.0,2.1,1.0,108.0,7.0,0.493,5.9,11.9,0.355,1.4,4.0,0.458,7.3,15.9,0.806,5.6,7.0,61.0,59.0,NBA,2093.0,117.0,2.8,3.2,SF,21.6,2009,1.5,ATL,1.8,9.8
23.0,2.0,1.0,107.0,6.7,0.492,5.7,11.5,0.303,0.9,2.8,0.455,6.5,14.3,0.819,3.8,4.6,81.0,81.0,NBA,2468.0,113.0,2.3,3.5,SF,17.7,2010,1.4,ATL,1.6,9.0
24.0,2.5,0.7,108.0,7.1,0.489,6.0,12.3,0.336,1.1,3.2,0.458,7.1,15.5,0.845,4.2,5.0,65.0,52.0,NBA,1865.0,111.0,2.0,3.0,SF,19.5,2011,1.0,ATL,1.8,9.0
25.0,2.5,0.6,101.0,7.7,0.452,5.1,11.4,0.389,2.1,5.3,0.432,7.2,16.7,0.788,4.1,5.2,57.0,37.0,NBA,1500.0,113.0,2.7,3.0,SF,20.5,2012,1.7,ATL,1.4,10.4
26.0,2.4,1.2,109.0,6.4,0.477,4.4,9.3,0.325,1.7,5.1,0.423,6.1,14.4,0.778,2.4,3.0,73.0,51.0,NBA,1727.0,105.0,1.7,3.0,SF,16.2,2013,1.1,UTA,1.8,8.0
27.0,2.4,1.0,110.0,7.9,0.503,4.6,9.2,0.359,2.6,7.3,0.439,7.2,16.5,0.781,1.8,2.3,66.0,50.0,NBA,1674.0,110.0,2.6,4.7,PF,18.9,2014,1.7,UTA,1.7,10.5
28.0,2.5,0.9,103.0,8.3,0.5,2.9,5.8,0.358,2.4,6.7,0.424,5.3,12.6,0.713,1.6,2.2,78.0,37.0,NBA,2035.0,106.0,1.5,3.7,PF,14.6,2015,1.8,CHO,1.5,9.8
29.0,2.4,1.7,104.0,8.5,0.504,4.0,7.9,0.402,3.3,8.1,0.452,7.3,16.0,0.833,2.6,3.1,81.0,81.0,NBA,2338.0,118.0,2.7,2.9,PF,20.3,2016,1.2,CHO,1.3,11.2
30.0,2.3,1.2,108.0,9.0,0.494,3.8,7.7,0.35,2.7,7.7,0.422,6.5,15.4,0.873,2.9,3.3,76.0,76.0,NBA,2295.0,111.0,1.9,2.9,PF,18.6,2017,1.3,CHO,1.3,10.9
31.0,2.3,0.9,109.0,7.2,0.512,3.2,6.3,0.413,3.1,7.4,0.458,6.3,13.7,0.829,2.5,3.0,78.0,78.0,NBA,2006.0,118.0,1.8,2.8,PF,18.1,2018,1.4,CHO,1.6,9.0
32.0,2.1,1.4,111.0,7.5,0.5,3.1,6.2,0.366,3.2,8.7,0.422,6.3,14.9,0.767,1.5,2.0,75.0,75.0,NBA,2133.0,112.0,1.7,3.6,PF,17.2,2019,1.6,CHO,1.1,9.3
33.0,1.5,0.5,112.0,4.6,0.579,2.8,4.8,0.379,2.8,7.4,0.458,5.6,12.2,0.75,2.3,3.1,11.0,0.0,NBA,186.0,114.0,1.3,3.3,PF,16.3,2020,1.5,CHO,1.5,5.9
