age,ast_per_mp,blk_per_mp,drb_per_mp,fg2_pct,fg2_per_mp,fg2a_per_mp,fg3_pct,fg3_per_mp,fg3a_per_mp,fg_pct,fg_per_mp,fga_per_mp,ft_pct,ft_per_mp,fta_per_mp,g,gs,lg_id,mp,orb_per_mp,pf_per_mp,pos,pts_per_mp,season,stl_per_mp,team_id,tov_per_mp,trb_per_mp
23.0,4.2,0.5,3.7,0.426,3.7,8.6,0.125,0.2,1.5,0.382,3.8,10.1,0.941,2.9,3.1,28.0,0.0,NBA,197.0,0.5,4.2,PG,10.8,1988,3.1,DAL,2.2,4.2
24.0,3.7,0.1,2.5,0.476,5.1,10.7,0.364,0.8,2.2,0.457,5.9,12.9,0.82,2.0,2.4,66.0,3.0,NBA,906.0,0.4,2.3,PG,14.5,1989,1.8,TOT,1.8,2.9
24.0,8.5,0.0,2.8,0.333,2.8,8.5,0.0,0.0,1.9,0.273,2.8,10.4,0.5,0.9,1.9,9.0,0.0,NBA,38.0,0.0,2.8,PG,6.6,1989,0.9,DAL,0.9,2.8
24.0,3.4,0.1,2.4,0.481,5.2,10.8,0.377,0.8,2.2,0.463,6.0,13.0,0.831,2.0,2.4,57.0,3.0,NBA,868.0,0.4,2.2,PG,14.9,1989,1.8,GSW,1.8,2.9
25.0,4.6,0.4,2.7,0.483,6.7,13.8,0.318,0.8,2.6,0.457,7.5,16.5,0.946,4.2,4.4,41.0,0.0,NBA,302.0,0.2,2.6,PG,20.0,1990,1.8,DAL,1.9,3.0
26.0,3.4,0.2,2.1,0.553,7.9,14.3,0.304,1.1,3.5,0.504,9.0,17.8,0.839,4.0,4.7,34.0,0.0,NBA,236.0,1.5,1.7,PG,23.0,1991,1.2,DAL,2.4,3.7
