age,ast,blk,drb,efg_pct,fg,fg2,fg2_pct,fg2a,fg3,fg3_pct,fg3a,fg_pct,fga,ft,ft_pct,fta,g,gs,lg_id,mp,orb,pf,pos,pts,season,stl,team_id,tov,trb
23.0,2.0,0.0,1.0,0.375,3.0,3.0,0.5,6.0,0.0,0.0,2.0,0.375,8.0,0.0,0.0,0.0,4.0,0.0,NBA,12.0,1.0,0.0,PG,6.0,1988,0.0,DAL,1.0,2.0
24.0,5.0,0.0,2.0,0.5,9.0,5.0,0.385,13.0,4.0,0.444,9.0,0.409,22.0,3.0,0.75,4.0,6.0,0.0,NBA,52.0,2.0,7.0,PG,25.0,1989,2.0,GSW,1.0,4.0
25.0,8.0,0.0,2.0,0.5,8.0,6.0,0.5,12.0,2.0,0.333,6.0,0.444,18.0,5.0,1.0,5.0,3.0,0.0,NBA,42.0,1.0,4.0,PG,23.0,1990,1.0,DAL,3.0,3.0
