age,ast_per_mp,blk_per_mp,drb_per_mp,fg2_pct,fg2_per_mp,fg2a_per_mp,fg3_pct,fg3_per_mp,fg3a_per_mp,fg_pct,fg_per_mp,fga_per_mp,ft_pct,ft_per_mp,fta_per_mp,g,gs,lg_id,mp,orb_per_mp,pf_per_mp,pos,pts_per_mp,season,stl_per_mp,team_id,tov_per_mp,trb_per_mp
21.0,0.6,1.5,3.7,0.413,5.8,14.0,0.4,0.6,1.5,0.412,6.4,15.6,0.783,5.5,7.0,20.0,0.0,NBA,118.0,4.6,2.1,SG,18.9,2011,1.2,LAL,1.8,8.2
22.0,1.1,0.5,2.5,0.463,3.4,7.3,0.0,0.0,0.8,0.416,3.4,8.1,0.657,2.1,3.2,24.0,12.0,NBA,396.0,2.4,2.4,SG,8.8,2012,1.0,LAL,1.6,4.9
23.0,1.8,0.2,5.7,0.353,3.3,9.3,0.273,1.1,4.0,0.329,4.4,13.3,0.786,2.0,2.6,19.0,3.0,NBA,197.0,1.8,4.2,SF,11.9,2013,0.5,LAL,2.0,7.5
