age,ast,blk,drb,efg_pct,fg,fg2,fg2_pct,fg2a,fg3,fg3_pct,fg3a,fg_pct,fga,ft,ft_pct,fta,g,gs,lg_id,mp,orb,pf,pos,pts,season,stl,team_id,tov,trb
26.0,1.0,1.0,1.0,0.0,0.0,0.0,0.0,1.0,0.0,0.0,0.0,0.0,1.0,0.0,0.0,0.0,3.0,0.0,NBA,8.0,1.0,2.0,C,0.0,2002,0.0,DAL,0.0,2.0
27.0,2.0,1.0,3.0,0.5,3.0,3.0,0.5,6.0,0.0,0.0,0.0,0.5,6.0,0.0,0.0,0.0,5.0,0.0,NBA,32.0,2.0,8.0,C,6.0,2003,3.0,DAL,0.0,5.0
