article_url,date,headline
https://kingjamesgospel.com/2019/10/30/cleveland-cavaliers-darius-garlands-steady-approach-particularly-encouraging/,2019/10/30,Right Down Euclid: Cavs: Darius Garland's steady approach is particularly encouraging
https://hoopshabit.com/2019/07/21/cleveland-cavaliers-complete-grades-2019-nba-offseason/,2019/07/21,Hoops Habit: Cleveland Cavaliers: Complete grades for the 2019 NBA offseason
https://lastwordonprobasketball.com/2019/05/28/darius-garland-nba-draft-player-profile/,2019/05/28,Last Word on Sports: Darius Garland NBA Draft Player Profile
