age,ast_per_g,blk_per_g,drb_per_g,efg_pct,fg2_pct,fg2_per_g,fg2a_per_g,fg3_pct,fg3_per_g,fg3a_per_g,fg_pct,fg_per_g,fga_per_g,ft_pct,ft_per_g,fta_per_g,g,gs,lg_id,mp_per_g,orb_per_g,pf_per_g,pos,pts_per_g,season,stl_per_g,team_id,tov_per_g,trb_per_g
24.0,3.6,0.3,2.4,0.423,0.421,5.0,11.9,0.333,0.1,0.4,0.418,5.1,12.3,0.857,3.0,3.5,8.0,8.0,NBA,33.8,1.8,3.9,PG,13.4,1989,1.6,GSW,1.9,4.1
28.0,2.6,0.0,2.3,0.405,0.411,2.5,6.1,0.0,0.0,0.1,0.405,2.5,6.2,1.0,1.4,1.4,12.0,5.0,NBA,20.5,0.5,2.3,PG,6.4,1993,1.3,HOU,1.8,2.8
