age,ast_per_poss,blk_per_poss,def_rtg,drb_per_poss,fg2_pct,fg2_per_poss,fg2a_per_poss,fg3_pct,fg3_per_poss,fg3a_per_poss,fg_pct,fg_per_poss,fga_per_poss,ft_pct,ft_per_poss,fta_per_poss,g,gs,lg_id,mp,off_rtg,orb_per_poss,pf_per_poss,pos,pts_per_poss,season,stl_per_poss,team_id,tov_per_poss,trb_per_poss
24.0,5.0,0.3,116.0,3.3,0.421,6.9,16.4,0.333,0.2,0.5,0.418,7.1,17.0,0.857,4.2,4.8,8.0,8.0,NBA,270.0,104.0,2.4,5.4,PG,18.5,1989,2.2,GSW,2.6,5.7
28.0,6.6,0.0,103.0,5.8,0.411,6.4,15.6,0.0,0.0,0.2,0.405,6.4,15.9,1.0,3.6,3.6,12.0,5.0,NBA,246.0,92.0,1.3,5.8,PG,16.5,1993,3.4,HOU,4.7,7.1
