age,ast,blk,drb,fg,fg2,fg2a,fg3,fg3a,fga,ft,fta,game_score,lg_id,mp,orb,pf,pts,season,stl,team_id,tov,trb
23.0,13.0,2.0,9.0,12.0,12.0,21.0,2.0,4.0,21.0,7.0,10.0,30.3,NBA,0.0,6.0,6.0,27.0,1988,8.0,GSW,8.0,11.0
24.0,16.0,2.0,11.0,10.0,10.0,22.0,2.0,3.0,23.0,10.0,12.0,30.5,NBA,0.0,4.0,6.0,31.0,1989,7.0,GSW,6.0,12.0
25.0,12.0,2.0,6.0,10.0,10.0,16.0,2.0,2.0,16.0,9.0,9.0,22.1,NBA,0.0,3.0,6.0,23.0,1990,4.0,TOT,6.0,8.0
25.0,9.0,1.0,5.0,6.0,6.0,14.0,1.0,2.0,15.0,5.0,5.0,13.6,NBA,0.0,3.0,6.0,13.0,1990,4.0,GSW,5.0,8.0
25.0,12.0,2.0,6.0,10.0,10.0,16.0,2.0,2.0,16.0,9.0,9.0,22.1,NBA,0.0,3.0,5.0,23.0,1990,4.0,LAC,6.0,8.0
26.0,13.0,2.0,9.0,10.0,10.0,16.0,1.0,2.0,17.0,7.0,8.0,21.3,NBA,0.0,5.0,6.0,21.0,1991,5.0,LAC,5.0,10.0
27.0,12.0,3.0,4.0,12.0,12.0,17.0,1.0,2.0,17.0,8.0,8.0,25.2,NBA,0.0,4.0,6.0,26.0,1992,5.0,DEN,6.0,7.0
28.0,6.0,1.0,3.0,7.0,7.0,13.0,1.0,1.0,13.0,5.0,6.0,15.7,NBA,0.0,3.0,5.0,16.0,1993,4.0,HOU,4.0,6.0
30.0,12.0,2.0,5.0,8.0,8.0,12.0,2.0,4.0,14.0,6.0,7.0,18.8,NBA,0.0,4.0,6.0,20.0,1995,4.0,MIN,5.0,6.0
