age,ast,blk,drb,efg_pct,fg,fg2,fg2_pct,fg2a,fg3,fg3_pct,fg3a,fg_pct,fga,ft,ft_pct,fta,g,gs,lg_id,mp,orb,pf,pos,pts,season,stl,team_id,tov,trb
24.0,29.0,2.0,19.0,0.423,41.0,40.0,0.421,95.0,1.0,0.333,3.0,0.418,98.0,24.0,0.857,28.0,8.0,8.0,NBA,270.0,14.0,31.0,PG,107.0,1989,13.0,GSW,15.0,33.0
28.0,31.0,0.0,27.0,0.405,30.0,30.0,0.411,73.0,0.0,0.0,1.0,0.405,74.0,17.0,1.0,17.0,12.0,5.0,NBA,246.0,6.0,27.0,PG,77.0,1993,16.0,HOU,22.0,33.0
