age,ast_per_mp,blk_per_mp,drb_per_mp,fg2_pct,fg2_per_mp,fg2a_per_mp,fg3_pct,fg3_per_mp,fg3a_per_mp,fg_pct,fg_per_mp,fga_per_mp,ft_pct,ft_per_mp,fta_per_mp,g,gs,lg_id,mp,orb_per_mp,pf_per_mp,pos,pts_per_mp,season,stl_per_mp,team_id,tov_per_mp,trb_per_mp
23.0,3.2,0.3,1.8,0.489,6.3,12.9,0.75,0.4,0.5,0.5,6.7,13.5,0.75,1.6,2.2,10.0,10.0,NBA,262.0,0.3,4.3,SG,15.5,1987,1.2,GSW,2.2,2.1
25.0,3.8,1.2,3.8,0.561,9.2,16.4,0.125,0.1,0.8,0.54,9.3,17.2,0.866,6.1,7.1,8.0,8.0,NBA,341.0,1.2,2.0,SF,24.8,1989,1.5,GSW,3.4,5.0
27.0,2.3,1.2,4.8,0.508,5.9,11.6,0.692,0.9,1.3,0.527,6.8,12.9,0.86,4.2,4.9,8.0,8.0,NBA,366.0,0.9,2.3,SF,18.7,1991,1.5,GSW,2.5,5.7
28.0,2.6,0.4,1.9,0.451,4.9,10.9,0.333,0.9,2.6,0.429,5.8,13.5,0.929,2.8,3.0,4.0,4.0,NBA,168.0,0.6,1.7,SF,15.2,1992,1.1,GSW,1.7,2.6
30.0,2.9,1.3,2.7,0.615,6.4,10.4,0.5,1.6,3.2,0.588,8.0,13.6,0.909,2.7,2.9,3.0,3.0,NBA,135.0,1.1,1.1,SF,20.3,1994,0.0,GSW,1.9,3.7
34.0,2.0,0.8,3.8,0.525,2.8,5.3,0.385,1.7,4.5,0.46,4.5,9.9,0.857,1.6,1.8,16.0,16.0,NBA,412.0,1.1,2.8,SF,12.4,1998,1.3,IND,2.1,5.0
35.0,1.9,0.4,2.3,0.422,2.4,5.7,0.4,2.8,7.0,0.41,5.2,12.7,0.87,2.5,2.9,13.0,13.0,NBA,283.0,0.3,2.7,SF,15.8,1999,1.3,IND,2.5,2.5
36.0,2.0,0.4,4.8,0.615,3.2,5.2,0.25,0.8,3.2,0.476,4.0,8.4,0.818,3.6,4.4,9.0,1.0,NBA,90.0,0.8,2.8,SG,12.4,2000,2.4,IND,1.6,5.6
