age,ast_per_g,blk_per_g,drb_per_g,efg_pct,fg2_pct,fg2_per_g,fg2a_per_g,fg3_pct,fg3_per_g,fg3a_per_g,fg_pct,fg_per_g,fga_per_g,ft_pct,ft_per_g,fta_per_g,g,gs,lg_id,mp_per_g,orb_per_g,pf_per_g,pos,pts_per_g,season,stl_per_g,team_id,tov_per_g,trb_per_g
22.0,1.9,0.4,1.3,0.467,0.476,5.1,10.8,0.185,0.1,0.5,0.463,5.2,11.3,0.896,3.4,3.8,55.0,30.0,NBA,25.3,0.8,2.4,SG,14.0,1986,1.3,GSW,1.4,2.1
23.0,3.2,0.4,1.7,0.524,0.529,5.6,10.5,0.302,0.2,0.8,0.514,5.8,11.3,0.825,3.3,4.0,82.0,82.0,NBA,29.0,0.5,2.6,SG,15.1,1987,1.2,GSW,1.9,2.2
24.0,4.8,0.5,2.5,0.526,0.526,7.3,13.8,0.351,0.6,1.6,0.508,7.8,15.4,0.885,4.0,4.5,60.0,55.0,NBA,33.9,1.0,2.3,SF,20.2,1988,1.9,GSW,2.6,3.4
25.0,5.1,0.5,4.0,0.516,0.527,9.8,18.7,0.23,0.3,1.2,0.509,10.1,19.9,0.892,6.0,6.7,82.0,82.0,NBA,37.7,1.9,2.2,SF,26.5,1989,2.1,GSW,3.6,5.9
26.0,4.1,0.6,4.3,0.57,0.573,7.6,13.3,0.372,1.1,3.0,0.536,8.7,16.3,0.889,6.5,7.3,78.0,78.0,NBA,36.3,1.7,1.8,SF,25.1,1990,1.6,GSW,3.1,5.9
27.0,4.0,0.8,3.7,0.55,0.56,9.0,16.0,0.301,0.5,1.6,0.536,9.5,17.7,0.884,6.3,7.1,82.0,82.0,NBA,40.4,1.7,2.1,SF,25.7,1991,2.1,GSW,3.0,5.4
28.0,3.5,0.8,4.0,0.544,0.544,9.5,17.4,0.366,0.8,2.2,0.524,10.2,19.6,0.833,4.3,5.2,81.0,81.0,NBA,41.3,1.6,2.1,SF,25.6,1992,2.1,GSW,2.5,5.6
29.0,3.6,0.9,4.1,0.542,0.519,9.0,17.3,0.451,1.3,2.9,0.51,10.3,20.2,0.81,4.0,4.9,46.0,46.0,NBA,41.3,0.9,1.7,SF,25.9,1993,1.5,GSW,3.0,5.0
30.0,5.1,0.9,4.5,0.503,0.494,5.7,11.6,0.364,0.9,2.4,0.472,6.6,14.0,0.753,2.7,3.5,62.0,39.0,NBA,37.5,1.0,1.8,SF,16.8,1994,1.7,GSW,2.9,5.6
31.0,5.0,0.8,3.6,0.549,0.502,5.1,10.2,0.452,1.7,3.7,0.489,6.8,13.9,0.879,3.8,4.3,25.0,23.0,NBA,35.6,1.0,2.1,SF,19.0,1995,1.5,GSW,3.7,4.6
32.0,3.5,0.6,2.1,0.554,0.54,3.8,7.1,0.393,1.1,2.7,0.499,4.9,9.8,0.856,2.5,2.9,55.0,19.0,NBA,29.4,0.8,2.3,SF,13.3,1996,1.4,GSW,2.2,2.9
33.0,4.1,0.4,3.1,0.605,0.602,4.5,7.5,0.411,1.1,2.6,0.553,5.5,10.0,0.864,2.3,2.7,79.0,63.0,NBA,34.6,0.9,2.0,SF,14.5,1997,1.6,GSW,2.4,4.0
34.0,2.3,0.5,2.6,0.559,0.503,2.8,5.5,0.44,1.3,3.0,0.481,4.1,8.4,0.939,1.9,2.0,82.0,82.0,NBA,26.5,0.5,2.3,SF,11.3,1998,1.2,IND,1.4,3.0
35.0,1.6,0.3,2.7,0.575,0.486,2.1,4.3,0.465,1.5,3.1,0.477,3.5,7.4,0.87,1.6,1.8,50.0,50.0,NBA,23.6,0.5,2.0,SF,10.1,1999,0.9,IND,1.2,3.2
36.0,0.8,0.2,1.3,0.548,0.455,0.7,1.6,0.409,1.0,2.3,0.428,1.7,4.0,0.902,0.8,0.9,47.0,2.0,NBA,12.4,0.3,1.3,SG,5.1,2000,0.6,IND,0.6,1.6
37.0,1.0,0.5,1.6,0.429,0.315,0.9,2.7,0.365,1.0,2.6,0.34,1.8,5.3,0.857,1.2,1.4,20.0,8.0,NBA,18.7,0.5,1.4,SF,5.8,2001,0.8,GSW,1.0,2.1
