age,ast_per_g,blk_per_g,drb_per_g,efg_pct,fg2_pct,fg2_per_g,fg2a_per_g,fg3_pct,fg3_per_g,fg3a_per_g,fg_pct,fg_per_g,fga_per_g,ft_pct,ft_per_g,fta_per_g,g,gs,lg_id,mp_per_g,orb_per_g,pf_per_g,pos,pts_per_g,season,stl_per_g,team_id,tov_per_g,trb_per_g
26.0,0.8,0.0,0.2,0.533,0.533,0.8,1.5,0.0,0.0,0.0,0.533,0.8,1.5,0.75,0.3,0.4,10.0,0.0,NBA,5.4,0.3,0.9,SG,1.9,1986,0.2,BOS,0.3,0.5
28.0,0.0,0.0,0.5,0.25,0.5,0.5,1.0,0.0,0.0,1.0,0.25,0.5,2.0,0.0,0.0,0.0,2.0,0.0,NBA,4.0,0.5,0.5,SG,1.0,1988,0.5,NYK,0.0,1.0
