age,ast_per_g,blk_per_g,drb_per_g,efg_pct,fg2_pct,fg2_per_g,fg2a_per_g,fg3_pct,fg3_per_g,fg3a_per_g,fg_pct,fg_per_g,fga_per_g,ft_pct,ft_per_g,fta_per_g,g,gs,lg_id,mp_per_g,orb_per_g,pf_per_g,pos,pts_per_g,season,stl_per_g,team_id,tov_per_g,trb_per_g
23.0,1.0,0.0,0.6,0.377,0.333,0.6,1.8,0.357,0.2,0.5,0.338,0.8,2.3,0.76,0.7,0.9,28.0,0.0,NBA,8.0,0.1,0.8,SG,2.4,1998,0.3,DEN,0.5,0.7
25.0,0.7,0.0,0.3,0.2,0.222,0.7,3.0,0.0,0.0,0.3,0.2,0.7,3.3,0.0,0.0,0.0,3.0,0.0,NBA,7.7,0.0,0.0,SG,1.3,2000,0.0,ORL,0.3,0.3
