age,ast_per_poss,blk_per_poss,def_rtg,drb_per_poss,fg2_pct,fg2_per_poss,fg2a_per_poss,fg3_pct,fg3_per_poss,fg3a_per_poss,fg_pct,fg_per_poss,fga_per_poss,ft_pct,ft_per_poss,fta_per_poss,g,gs,lg_id,mp,off_rtg,orb_per_poss,pf_per_poss,pos,pts_per_poss,season,stl_per_poss,team_id,tov_per_poss,trb_per_poss
23.0,6.9,0.0,112.0,2.7,0.433,5.4,12.4,0.206,0.4,2.1,0.401,5.8,14.4,0.792,2.3,2.9,56.0,6.0,NBA,865.0,93.0,0.7,4.4,PG,14.3,2008,1.8,ATL,3.4,3.5
24.0,8.2,0.3,111.0,5.0,0.391,4.1,10.5,0.31,0.9,2.8,0.374,5.0,13.3,0.817,4.7,5.7,55.0,1.0,NBA,560.0,105.0,0.6,4.1,PG,15.5,2009,1.1,ATL,2.8,5.5
25.0,5.6,0.2,109.0,3.0,0.508,6.5,12.8,0.313,1.1,3.5,0.467,7.6,16.2,0.776,8.2,10.6,26.0,1.0,NBA,234.0,111.0,0.6,3.5,PG,24.5,2010,2.4,TOT,3.7,3.7
25.0,5.1,0.0,110.0,1.4,0.727,5.8,8.0,0.333,0.7,2.2,0.643,6.5,10.1,0.8,8.7,10.9,5.0,0.0,NBA,66.0,147.0,0.0,3.6,PG,22.5,2010,4.3,GSW,1.4,1.4
25.0,4.8,1.6,106.0,1.6,0.333,8.0,24.1,0.0,0.0,1.6,0.313,8.0,25.8,0.857,9.7,11.3,9.0,0.0,NBA,33.0,84.0,0.0,4.8,PG,25.8,2010,1.6,CHA,4.8,1.6
25.0,6.1,0.0,108.0,4.2,0.515,6.5,12.6,0.333,1.5,4.6,0.467,8.0,17.2,0.741,7.6,10.3,12.0,1.0,NBA,135.0,107.0,1.1,3.1,PG,25.2,2010,1.5,CHI,4.6,5.3
26.0,5.9,0.0,112.0,3.6,0.5,5.3,10.5,0.167,0.4,2.5,0.435,5.7,13.0,0.734,3.3,4.5,51.0,0.0,NBA,726.0,100.0,0.8,4.3,PG,15.1,2011,2.2,TOT,3.0,4.4
26.0,7.8,0.0,107.0,4.4,0.231,1.7,7.2,0.0,0.0,3.3,0.158,1.7,10.6,0.6,3.3,5.6,11.0,0.0,NBA,94.0,62.0,1.7,5.6,PG,6.7,2011,2.2,MEM,5.6,6.1
26.0,5.6,0.0,113.0,3.4,0.526,5.8,11.0,0.2,0.5,2.4,0.467,6.2,13.4,0.759,3.3,4.3,40.0,0.0,NBA,632.0,106.0,0.7,4.1,PG,16.3,2011,2.2,GSW,2.6,4.2
