age,and1s,astd_pts,drawn_offensive,drawn_shooting,fouls_offensive,fouls_shooting,g,lg_id,mp,own_shots_blk,pct_1,pct_2,pct_3,pct_4,pct_5,plus_minus_net,plus_minus_on,pos,season,team_id,tov_bad_pass,tov_lost_ball
23.0,1.0,44.0,0.0,4.0,2.0,20.0,23.0,NBA,441.0,8.0,0.0,0.0,11.0,89.0,0.0,-1.5,-9.6,PF,2005,NOH,9.0,3.0
25.0,0.0,19.0,4.0,2.0,1.0,8.0,19.0,NBA,147.0,4.0,0.0,0.0,0.0,66.0,34.0,6.7,1.1,PF,2007,ATL,1.0,1.0
