age,ast_per_mp,blk_per_mp,drb_per_mp,fg2_pct,fg2_per_mp,fg2a_per_mp,fg3_pct,fg3_per_mp,fg3a_per_mp,fg_pct,fg_per_mp,fga_per_mp,ft_pct,ft_per_mp,fta_per_mp,g,gs,lg_id,mp,orb_per_mp,pf_per_mp,pos,pts_per_mp,season,stl_per_mp,team_id,tov_per_mp,trb_per_mp
20.0,0.6,0.6,2.7,0.509,5.1,10.1,0.286,0.4,1.3,0.483,5.5,11.4,0.6,2.9,4.8,16.0,0.0,NBA,189.0,2.9,4.0,SF,14.3,1996,1.5,TOR,2.7,5.5
21.0,2.9,1.4,1.4,0.455,3.6,7.9,0.333,0.7,2.2,0.429,4.3,10.1,0.5,0.7,1.4,9.0,0.0,NBA,50.0,2.9,5.8,SF,10.1,1997,0.7,TOR,0.7,4.3
