age,ast_per_mp,blk_per_mp,drb_per_mp,fg2_pct,fg2_per_mp,fg2a_per_mp,fg3_pct,fg3_per_mp,fg3a_per_mp,fg_pct,fg_per_mp,fga_per_mp,ft_pct,ft_per_mp,fta_per_mp,g,gs,lg_id,mp,orb_per_mp,pf_per_mp,pos,pts_per_mp,season,stl_per_mp,team_id,tov_per_mp,trb_per_mp
23.0,2.3,0.6,2.7,0.484,3.3,6.9,0.351,1.4,4.0,0.436,4.7,10.9,0.7,3.8,5.4,27.0,4.0,NBA,334.0,0.6,4.5,SG,14.7,2010,1.4,TOT,2.9,3.3
23.0,2.1,1.2,3.7,0.588,3.1,5.2,0.25,0.9,3.7,0.448,4.0,8.8,0.667,4.9,7.3,9.0,0.0,NBA,118.0,0.6,4.9,SG,13.7,2010,1.2,HOU,4.3,4.3
23.0,3.1,0.0,3.1,0.5,4.7,9.4,0.0,0.0,3.1,0.375,4.7,12.5,1.0,7.8,7.8,5.0,0.0,NBA,23.0,1.6,1.6,SG,17.2,2010,1.6,SAC,3.1,4.7
23.0,2.2,0.4,2.1,0.439,3.4,7.6,0.435,1.9,4.3,0.438,5.2,11.9,0.667,2.6,3.9,13.0,4.0,NBA,193.0,0.6,4.7,SG,14.9,2010,1.5,SAS,2.1,2.6
24.0,5.0,0.9,3.4,0.323,1.6,4.9,0.27,1.6,5.8,0.294,3.1,10.6,0.412,1.1,2.7,24.0,0.0,NBA,230.0,0.2,3.8,PG-SG,8.9,2011,1.7,TOT,3.6,3.6
24.0,3.4,1.7,1.7,0.25,1.7,6.9,0.0,0.0,1.7,0.2,1.7,8.6,0.0,0.0,3.4,3.0,0.0,NBA,21.0,1.7,3.4,SG,3.4,2011,1.7,SAS,1.7,3.4
24.0,2.6,0.4,2.6,0.364,1.7,4.8,0.3,1.3,4.3,0.333,3.0,9.1,0.0,0.0,1.7,9.0,0.0,NBA,83.0,0.0,3.5,SG,7.4,2011,0.4,MIL,0.9,2.6
24.0,6.9,1.1,4.3,0.313,1.4,4.6,0.269,2.0,7.4,0.286,3.4,12.0,0.636,2.0,3.1,12.0,0.0,NBA,126.0,0.0,4.0,PG,10.9,2011,2.6,CHA,5.7,4.3
26.0,3.6,0.5,2.9,0.444,2.5,5.5,0.325,0.8,2.5,0.407,3.3,8.0,0.703,0.8,1.2,51.0,36.0,NBA,1156.0,0.9,2.9,SG,8.2,2013,1.6,WAS,1.9,3.8
27.0,4.1,0.6,2.7,0.402,2.5,6.3,0.207,0.3,1.6,0.362,2.9,8.0,0.698,1.7,2.4,75.0,0.0,NBA,638.0,1.2,4.1,SG,7.8,2014,2.0,WAS,2.4,3.8
28.0,2.7,0.4,3.2,0.427,1.7,4.0,0.375,1.6,4.3,0.4,3.3,8.3,0.729,1.7,2.4,52.0,18.0,NBA,735.0,1.2,3.7,SG,10.0,2015,2.1,WAS,1.7,4.4
29.0,2.6,0.3,3.2,0.453,2.1,4.6,0.345,1.6,4.8,0.398,3.7,9.3,0.728,1.7,2.3,80.0,43.0,NBA,1951.0,0.7,3.6,SF,10.7,2016,1.3,WAS,1.2,3.9
30.0,3.5,0.6,3.2,0.476,2.1,4.4,0.373,1.7,4.6,0.424,3.8,9.0,0.784,1.2,1.5,65.0,21.0,NBA,1728.0,0.7,2.9,SG,10.5,2017,1.7,SAC,1.6,3.8
31.0,2.8,0.6,2.9,0.442,2.5,5.6,0.392,2.0,5.1,0.418,4.4,10.6,0.769,1.3,1.7,65.0,35.0,NBA,1615.0,0.5,3.0,SG,12.2,2018,1.3,SAC,1.8,3.4
32.0,1.9,0.5,3.3,0.515,2.1,4.0,0.341,1.6,4.7,0.422,3.7,8.7,0.748,1.4,1.9,75.0,55.0,NBA,2040.0,0.5,3.6,SG,10.3,2019,1.3,TOT,1.2,3.8
32.0,1.6,0.6,3.2,0.52,2.2,4.2,0.352,1.7,4.9,0.429,3.9,9.1,0.75,1.3,1.8,49.0,49.0,NBA,1530.0,0.4,3.2,SG,10.9,2019,1.2,MEM,1.3,3.6
32.0,2.6,0.4,3.8,0.5,1.8,3.7,0.296,1.1,3.8,0.396,3.0,7.5,0.742,1.6,2.2,26.0,6.0,NBA,510.0,0.7,4.9,SG,8.7,2019,1.8,LAC,1.1,4.5
33.0,2.4,0.7,3.1,0.524,1.6,3.1,0.34,2.4,7.0,0.397,4.0,10.1,0.857,1.8,2.1,11.0,2.0,NBA,242.0,1.0,2.4,SG,12.2,2020,1.8,BRK,1.0,4.2
