age,ast_per_poss,blk_per_poss,def_rtg,drb_per_poss,fg2_pct,fg2_per_poss,fg2a_per_poss,fg3_pct,fg3_per_poss,fg3a_per_poss,fg_pct,fg_per_poss,fga_per_poss,ft_pct,ft_per_poss,fta_per_poss,g,gs,lg_id,mp,off_rtg,orb_per_poss,pf_per_poss,pos,pts_per_poss,season,stl_per_poss,team_id,tov_per_poss,trb_per_poss
27.0,1.1,0.0,113.0,7.6,0.5,2.2,4.3,0.0,0.0,2.2,0.333,2.2,6.5,0.833,5.4,6.5,3.0,0.0,NBA,52.0,101.0,1.1,11.9,SG,9.7,1998,2.2,NJN,2.2,8.6
31.0,2.2,0.0,105.0,5.1,0.514,7.1,13.8,0.364,1.0,2.7,0.489,8.1,16.6,0.83,4.9,5.9,20.0,0.0,NBA,418.0,113.0,1.6,3.6,SG,22.0,2002,1.6,NJN,2.0,6.7
32.0,3.9,0.0,103.0,4.1,0.41,5.3,12.9,0.333,1.4,4.1,0.391,6.6,16.9,0.783,4.4,5.6,20.0,0.0,NBA,435.0,102.0,2.3,4.8,SG,19.0,2003,1.1,NJN,2.7,6.4
33.0,3.0,0.3,97.0,3.6,0.432,4.7,11.0,0.25,0.9,3.6,0.388,5.6,14.5,0.778,4.2,5.3,11.0,0.0,NBA,182.0,105.0,3.0,4.7,PG,16.3,2004,2.1,NJN,1.5,6.5
