age,ast_per_g,blk_per_g,drb_per_g,efg_pct,fg2_pct,fg2_per_g,fg2a_per_g,fg3_pct,fg3_per_g,fg3a_per_g,fg_pct,fg_per_g,fga_per_g,ft_pct,ft_per_g,fta_per_g,g,gs,lg_id,mp_per_g,orb_per_g,pf_per_g,pos,pts_per_g,season,stl_per_g,team_id,tov_per_g,trb_per_g
23.0,1.4,0.1,1.5,0.43,0.44,2.0,4.6,0.212,0.1,0.4,0.421,2.1,5.0,0.731,1.1,1.5,77.0,0.0,NBA,15.1,0.6,1.5,SG,5.4,1994,0.6,DAL,1.0,2.0
24.0,1.7,0.2,1.7,0.504,0.481,2.8,5.9,0.387,0.7,1.8,0.459,3.5,7.7,0.8,1.7,2.2,79.0,31.0,NBA,21.5,1.1,1.3,SG,9.5,1995,0.7,DAL,1.0,2.8
25.0,1.3,0.0,1.3,0.52,0.5,2.2,4.5,0.376,0.8,2.0,0.461,3.0,6.5,0.782,1.1,1.4,61.0,1.0,NBA,16.7,0.7,0.9,SG,7.9,1996,0.6,DAL,0.8,2.0
26.0,0.9,0.1,0.8,0.442,0.39,1.4,3.6,0.364,0.7,1.8,0.381,2.1,5.4,0.702,0.6,0.9,54.0,3.0,NBA,15.1,0.5,0.8,SG,5.4,1997,0.8,PHI,0.6,1.3
27.0,0.8,0.1,0.6,0.424,0.413,1.1,2.8,0.308,0.2,0.8,0.39,1.4,3.5,0.745,0.8,1.1,50.0,0.0,NBA,13.4,0.4,1.5,SG,3.8,1998,0.8,NJN,0.4,1.0
28.0,0.9,0.2,1.3,0.434,0.473,1.7,3.6,0.22,0.3,1.4,0.403,2.0,5.0,0.75,1.0,1.3,36.0,5.0,NBA,16.7,0.6,1.4,SG,5.4,1999,0.5,NJN,0.5,1.9
29.0,1.3,0.1,1.7,0.469,0.46,2.1,4.5,0.33,0.5,1.5,0.428,2.6,6.0,0.798,1.0,1.3,77.0,11.0,NBA,19.6,0.7,1.3,SG,6.7,2000,0.8,NJN,0.5,2.4
30.0,1.8,0.2,3.0,0.462,0.445,3.0,6.7,0.348,0.6,1.8,0.425,3.6,8.5,0.77,1.5,1.9,73.0,50.0,NBA,28.4,1.0,1.7,SG,9.4,2001,1.0,NJN,0.9,3.9
31.0,1.6,0.1,2.1,0.505,0.489,2.8,5.7,0.373,0.6,1.6,0.464,3.4,7.3,0.842,1.8,2.1,74.0,0.0,NBA,21.0,0.7,1.3,SG,9.1,2002,0.7,NJN,0.8,2.8
32.0,2.0,0.1,2.2,0.446,0.429,3.3,7.6,0.346,0.6,1.8,0.413,3.9,9.4,0.804,2.0,2.5,77.0,25.0,NBA,25.6,0.8,1.2,SG,10.3,2003,0.7,NJN,0.9,3.0
33.0,2.0,0.0,1.5,0.445,0.412,2.2,5.2,0.376,0.6,1.5,0.404,2.7,6.7,0.846,1.0,1.1,69.0,15.0,NBA,21.8,0.6,1.1,PG,6.9,2004,0.6,NJN,0.8,2.0
34.0,0.7,0.1,1.1,0.43,0.415,1.3,3.2,0.323,0.3,0.9,0.395,1.6,4.1,0.812,0.8,0.9,73.0,4.0,NBA,15.5,0.5,0.9,SG,4.3,2005,0.4,CLE,0.4,1.7
