age,ast,blk,drb,efg_pct,fg,fg2,fg2_pct,fg2a,fg3,fg3_pct,fg3a,fg_pct,fga,ft,ft_pct,fta,g,gs,lg_id,mp,orb,pf,pos,pts,season,stl,team_id,tov,trb
20.0,27.0,13.0,111.0,0.544,117.0,114.0,0.543,210.0,3.0,0.375,8.0,0.537,218.0,52.0,0.703,74.0,33.0,12.0,NBA,612.0,51.0,64.0,PF,289.0,2017,16.0,SAC,37.0,162.0
21.0,72.0,49.0,189.0,0.467,205.0,187.0,0.459,407.0,18.0,0.353,51.0,0.448,458.0,95.0,0.805,118.0,60.0,28.0,NBA,1240.0,99.0,132.0,PF,523.0,2018,25.0,SAC,73.0,288.0
22.0,11.0,6.0,34.0,0.592,26.0,20.0,0.556,36.0,6.0,0.462,13.0,0.531,49.0,9.0,0.529,17.0,22.0,1.0,NBA,176.0,9.0,29.0,PF,67.0,2019,5.0,TOT,11.0,43.0
22.0,6.0,3.0,20.0,0.5,13.0,9.0,0.474,19.0,4.0,0.364,11.0,0.433,30.0,6.0,0.545,11.0,13.0,0.0,NBA,113.0,4.0,21.0,PF,36.0,2019,2.0,SAC,7.0,24.0
22.0,5.0,3.0,14.0,0.737,13.0,11.0,0.647,17.0,2.0,1.0,2.0,0.684,19.0,3.0,0.5,6.0,9.0,1.0,NBA,63.0,5.0,8.0,PF,31.0,2019,3.0,POR,4.0,19.0
23.0,12.0,11.0,29.0,0.511,24.0,24.0,0.522,46.0,0.0,0.0,1.0,0.511,47.0,10.0,0.625,16.0,12.0,0.0,NBA,178.0,24.0,31.0,PF,58.0,2020,2.0,POR,15.0,53.0
