age,ast_per_mp,blk_per_mp,drb_per_mp,fg2_pct,fg2_per_mp,fg2a_per_mp,fg3_pct,fg3_per_mp,fg3a_per_mp,fg_pct,fg_per_mp,fga_per_mp,ft_pct,ft_per_mp,fta_per_mp,g,gs,lg_id,mp,orb_per_mp,pf_per_mp,pos,pts_per_mp,season,stl_per_mp,team_id,tov_per_mp,trb_per_mp
21.0,2.9,0.2,2.9,0.414,5.4,13.0,0.405,2.4,6.0,0.411,7.8,19.0,0.863,4.2,4.9,82.0,3.0,NBA,2002.0,1.0,4.0,SG,22.2,2005,1.0,CHI,3.3,3.9
22.0,3.5,0.1,2.6,0.416,4.6,11.2,0.435,2.4,5.5,0.422,7.0,16.7,0.787,3.1,3.9,80.0,47.0,NBA,2482.0,0.6,3.5,SG,19.6,2006,1.1,CHI,2.6,3.2
23.0,3.9,0.2,3.0,0.471,6.0,12.8,0.413,2.1,5.0,0.455,8.1,17.8,0.864,5.1,5.9,82.0,51.0,NBA,2704.0,0.5,3.4,SG,23.3,2007,0.9,CHI,3.3,3.4
24.0,3.3,0.1,2.8,0.445,5.1,11.4,0.41,2.2,5.4,0.434,7.3,16.8,0.908,4.2,4.6,72.0,27.0,NBA,2291.0,0.6,2.7,SG,21.0,2008,0.9,CHI,2.4,3.5
25.0,3.3,0.3,2.8,0.476,5.1,10.7,0.41,2.1,5.1,0.455,7.2,15.8,0.864,4.0,4.6,82.0,76.0,NBA,2999.0,0.6,2.2,SG,20.4,2009,0.9,CHI,2.4,3.4
26.0,3.5,0.1,1.9,0.465,4.5,9.7,0.321,1.6,4.9,0.416,6.1,14.5,0.861,4.1,4.8,62.0,17.0,NBA,1730.0,0.5,3.1,SG,17.8,2010,1.0,DET,2.5,2.5
27.0,2.9,0.3,2.6,0.46,3.9,8.5,0.402,1.8,4.5,0.44,5.7,13.0,0.85,2.3,2.7,82.0,27.0,NBA,2131.0,0.7,3.0,SG,15.6,2011,0.8,DET,2.4,3.3
28.0,3.3,0.3,2.8,0.446,4.4,9.9,0.429,1.6,3.8,0.442,6.0,13.6,0.86,3.0,3.5,52.0,21.0,NBA,1398.0,0.4,2.9,SG,16.7,2012,0.9,DET,3.0,3.1
29.0,3.3,0.4,2.6,0.421,4.5,10.8,0.387,2.6,6.7,0.408,7.2,17.5,0.843,2.5,2.9,75.0,0.0,NBA,1560.0,0.4,3.1,SG,19.4,2013,0.8,CHA,3.1,3.0
30.0,2.7,0.3,3.1,0.367,3.7,10.2,0.276,1.0,3.7,0.343,4.8,13.9,0.81,2.2,2.7,19.0,0.0,NBA,279.0,0.4,2.3,SG,12.8,2014,1.3,CHA,2.7,3.5
31.0,2.3,0.0,2.6,0.475,4.3,9.0,0.361,1.6,4.4,0.437,5.9,13.4,0.836,2.6,3.1,56.0,0.0,NBA,790.0,0.3,2.7,SG,15.9,2015,0.6,ORL,2.5,2.9
