age,ast,blk,drb,fg,fg2,fg2a,fg3,fg3a,fga,ft,fta,game_score,lg_id,mp,orb,pf,pts,season,stl,team_id,tov,trb
24.0,0.0,2.0,1.0,3.0,3.0,3.0,0.0,0.0,3.0,1.0,2.0,8.8,NBA,0.0,1.0,3.0,7.0,1997,1.0,SEA,1.0,1.0
25.0,1.0,3.0,1.0,4.0,4.0,7.0,0.0,1.0,7.0,1.0,2.0,6.1,NBA,0.0,2.0,6.0,8.0,1998,1.0,SEA,1.0,3.0
