age,ast_per_poss,blk_per_poss,def_rtg,drb_per_poss,fg2_pct,fg2_per_poss,fg2a_per_poss,fg3_pct,fg3_per_poss,fg3a_per_poss,fg_pct,fg_per_poss,fga_per_poss,ft_pct,ft_per_poss,fta_per_poss,g,gs,lg_id,mp,off_rtg,orb_per_poss,pf_per_poss,pos,pts_per_poss,season,stl_per_poss,team_id,tov_per_poss,trb_per_poss
22.0,1.0,5.7,108.0,6.2,0.479,3.2,6.8,0.0,0.0,0.0,0.479,3.2,6.8,0.683,2.7,3.9,55.0,0.0,NBA,534.0,108.0,3.8,9.0,C,9.1,1995,1.0,WSB,1.8,10.0
23.0,0.5,7.1,103.0,7.0,0.428,2.7,6.2,0.0,0.0,0.0,0.428,2.7,6.2,0.552,2.5,4.5,80.0,6.0,NBA,1195.0,98.0,2.8,7.3,C,7.8,1996,0.9,WSB,1.5,9.9
24.0,0.8,5.9,99.0,7.1,0.48,4.6,9.7,0.143,0.0,0.3,0.471,4.7,9.9,0.495,1.9,3.9,82.0,79.0,NBA,1477.0,100.0,4.7,8.9,C,11.3,1997,1.4,SEA,2.2,11.9
25.0,0.8,6.0,101.0,7.2,0.459,4.5,9.7,0.0,0.0,0.1,0.453,4.5,9.8,0.556,2.0,3.6,78.0,72.0,NBA,1211.0,97.0,4.2,10.6,C,10.9,1998,1.1,SEA,2.4,11.4
26.0,0.4,6.2,101.0,4.5,0.431,4.3,9.9,0.0,0.0,0.0,0.431,4.3,9.9,0.667,0.8,1.2,22.0,1.0,NBA,269.0,92.0,6.0,11.5,C,9.4,1999,1.8,NJN,2.5,10.5
27.0,1.8,5.8,103.0,6.1,0.416,3.2,7.6,0.0,0.0,0.0,0.416,3.2,7.6,0.518,1.4,2.8,66.0,53.0,NBA,1048.0,100.0,5.2,10.2,C,7.8,2000,1.3,NJN,1.9,11.4
28.0,1.1,4.1,101.0,7.3,0.357,2.7,7.6,0.0,0.0,0.0,0.357,2.7,7.6,0.667,2.2,3.2,18.0,3.0,NBA,193.0,81.0,2.2,9.5,C,7.6,2001,1.9,NJN,2.4,9.5
