age,ast_per_mp,blk_per_mp,drb_per_mp,fg2_pct,fg2_per_mp,fg2a_per_mp,fg3_pct,fg3_per_mp,fg3a_per_mp,fg_pct,fg_per_mp,fga_per_mp,ft_pct,ft_per_mp,fta_per_mp,g,gs,lg_id,mp,orb_per_mp,pf_per_mp,pos,pts_per_mp,season,stl_per_mp,team_id,tov_per_mp,trb_per_mp
22.0,0.7,4.0,4.4,0.479,2.3,4.8,0.0,0.0,0.0,0.479,2.3,4.8,0.683,1.9,2.8,55.0,0.0,NBA,534.0,2.7,6.4,C,6.5,1995,0.7,WSB,1.3,7.1
23.0,0.3,5.0,4.9,0.428,1.9,4.4,0.0,0.0,0.0,0.428,1.9,4.4,0.552,1.7,3.2,80.0,6.0,NBA,1195.0,2.0,5.2,C,5.5,1996,0.6,WSB,1.1,6.9
24.0,0.6,4.0,4.8,0.48,3.1,6.6,0.143,0.0,0.2,0.471,3.2,6.7,0.495,1.3,2.6,82.0,79.0,NBA,1477.0,3.2,6.0,C,7.7,1997,1.0,SEA,1.5,8.0
25.0,0.6,4.1,4.8,0.459,3.0,6.5,0.0,0.0,0.1,0.453,3.0,6.6,0.556,1.3,2.4,78.0,72.0,NBA,1211.0,2.9,7.1,C,7.3,1998,0.7,SEA,1.6,7.7
26.0,0.3,4.3,3.1,0.431,2.9,6.8,0.0,0.0,0.0,0.431,2.9,6.8,0.667,0.5,0.8,22.0,1.0,NBA,269.0,4.1,7.9,C,6.4,1999,1.2,NJN,1.7,7.2
27.0,1.2,4.0,4.3,0.416,2.2,5.3,0.0,0.0,0.0,0.416,2.2,5.3,0.518,1.0,1.9,66.0,53.0,NBA,1048.0,3.6,7.0,C,5.4,2000,0.9,NJN,1.3,7.9
28.0,0.7,2.8,5.0,0.357,1.9,5.2,0.0,0.0,0.0,0.357,1.9,5.2,0.667,1.5,2.2,18.0,3.0,NBA,193.0,1.5,6.5,C,5.2,2001,1.3,NJN,1.7,6.5
