age,ast_per_poss,blk_per_poss,def_rtg,drb_per_poss,fg2_pct,fg2_per_poss,fg2a_per_poss,fg3_pct,fg3_per_poss,fg3a_per_poss,fg_pct,fg_per_poss,fga_per_poss,ft_pct,ft_per_poss,fta_per_poss,g,gs,lg_id,mp,off_rtg,orb_per_poss,pf_per_poss,pos,pts_per_poss,season,stl_per_poss,team_id,tov_per_poss,trb_per_poss
20.0,0.8,0.8,105.0,8.7,0.517,7.1,13.7,0.0,0.0,0.0,0.517,7.1,13.7,0.737,4.9,6.6,53.0,0.0,NBA,452.0,103.0,3.7,11.5,PF,19.0,2002,0.7,PHO,3.7,12.4
21.0,1.7,0.0,104.0,10.1,0.333,5.1,15.2,0.0,0.0,0.0,0.333,5.1,15.2,0.333,1.7,5.1,11.0,0.0,NBA,31.0,64.0,0.0,11.8,PF,11.8,2003,0.0,PHO,3.4,10.1
22.0,4.0,1.3,99.0,10.7,0.545,8.0,14.7,0.0,0.0,0.0,0.545,8.0,14.7,0.5,4.0,8.0,9.0,0.0,NBA,41.0,102.0,4.0,12.0,PF,20.0,2004,0.0,HOU,4.0,14.7
