age,ast_per_g,blk_per_g,drb_per_g,efg_pct,fg2_pct,fg2_per_g,fg2a_per_g,fg3_pct,fg3_per_g,fg3a_per_g,fg_pct,fg_per_g,fga_per_g,ft_pct,ft_per_g,fta_per_g,g,gs,lg_id,mp_per_g,orb_per_g,pf_per_g,pos,pts_per_g,season,stl_per_g,team_id,tov_per_g,trb_per_g
22.0,0.8,0.0,1.4,0.442,0.389,0.8,2.0,0.375,0.3,0.9,0.385,1.1,2.9,0.583,0.8,1.3,9.0,0.0,NBA,11.0,0.4,1.2,SG,3.3,2007,0.2,CHI,0.8,1.9
25.0,1.2,1.0,2.5,0.352,0.357,0.8,2.3,0.231,0.5,2.2,0.296,1.3,4.5,0.889,1.3,1.5,6.0,6.0,NBA,21.2,0.5,2.5,SG,4.5,2010,0.8,OKC,0.3,3.0
26.0,0.7,0.3,2.4,0.493,0.659,1.6,2.4,0.154,0.2,1.5,0.463,1.8,3.9,1.0,0.8,0.8,17.0,17.0,NBA,20.2,0.7,1.4,SG,4.6,2011,0.9,OKC,0.9,3.1
27.0,1.3,0.5,2.1,0.48,0.472,1.3,2.7,0.327,0.8,2.5,0.402,2.1,5.1,0.889,0.4,0.5,20.0,20.0,NBA,22.3,0.6,2.2,SG,5.3,2012,1.5,OKC,0.6,2.7
28.0,2.1,0.5,3.3,0.443,0.391,0.8,2.1,0.316,1.1,3.5,0.344,1.9,5.5,0.818,0.8,1.0,11.0,11.0,NBA,27.3,1.2,2.4,SG,5.7,2013,1.1,OKC,0.7,4.5
29.0,0.7,0.0,1.6,0.473,0.531,1.1,2.1,0.261,0.4,1.5,0.418,1.5,3.7,0.8,0.3,0.3,15.0,13.0,NBA,15.7,0.5,0.7,SG,3.7,2014,0.7,OKC,0.5,2.1
31.0,1.7,0.6,3.3,0.554,0.556,1.5,2.7,0.368,0.7,1.9,0.478,2.2,4.6,0.533,0.8,1.5,10.0,2.0,NBA,20.3,0.8,1.7,SF,5.9,2016,1.0,ATL,1.0,4.1
32.0,0.0,0.0,0.0,0.0,0.0,0.0,0.3,0.0,0.0,0.0,0.0,0.0,0.3,0.25,0.3,1.0,4.0,0.0,NBA,2.3,0.0,0.3,SF,0.3,2017,0.0,ATL,0.0,0.0
34.0,0.5,0.0,1.8,0.179,0.167,0.3,1.5,0.125,0.3,2.0,0.143,0.5,3.5,0.0,0.0,0.0,4.0,0.0,NBA,10.5,0.3,0.8,SF,1.3,2019,0.0,UTA,0.3,2.0
