age,ast_per_mp,blk_per_mp,drb_per_mp,fg2_pct,fg2_per_mp,fg2a_per_mp,fg3_pct,fg3_per_mp,fg3a_per_mp,fg_pct,fg_per_mp,fga_per_mp,ft_pct,ft_per_mp,fta_per_mp,g,gs,lg_id,mp,orb_per_mp,pf_per_mp,pos,pts_per_mp,season,stl_per_mp,team_id,tov_per_mp,trb_per_mp
22.0,2.5,0.5,4.9,0.439,3.9,8.9,0.357,0.6,1.7,0.426,4.5,10.6,0.511,1.0,1.9,71.0,4.0,NBA,868.0,1.5,4.1,SG,10.6,2007,1.4,CHI,2.5,6.3
23.0,3.2,0.8,5.1,0.453,3.8,8.3,0.33,0.7,2.2,0.428,4.5,10.6,0.721,1.9,2.6,69.0,22.0,NBA,1436.0,1.3,3.2,SG,11.6,2008,1.5,CHI,2.3,6.4
24.0,2.8,1.1,4.7,0.474,3.2,6.7,0.276,0.6,2.2,0.426,3.8,8.8,0.836,1.5,1.8,66.0,36.0,NBA,1453.0,1.3,2.6,SF-SG,9.6,2009,1.9,TOT,1.6,6.0
24.0,3.2,0.9,4.8,0.485,3.1,6.5,0.3,0.7,2.4,0.434,3.9,8.9,0.84,1.0,1.2,43.0,14.0,NBA,735.0,1.3,2.4,SF,9.5,2009,1.7,CHI,1.8,6.0
24.0,2.3,1.3,4.6,0.464,3.2,6.9,0.243,0.5,1.9,0.417,3.7,8.8,0.833,2.0,2.4,23.0,22.0,NBA,718.0,1.4,2.7,SG,9.8,2009,2.0,OKC,1.4,6.0
25.0,2.2,0.7,4.8,0.494,2.3,4.8,0.313,0.6,2.0,0.44,3.0,6.8,0.674,0.9,1.4,82.0,82.0,NBA,2348.0,1.2,2.4,SG,7.5,2010,1.5,OKC,1.4,5.9
26.0,2.0,0.7,4.9,0.558,2.3,4.1,0.275,0.5,1.8,0.471,2.8,5.9,0.747,1.0,1.4,79.0,79.0,NBA,2049.0,1.1,3.0,SG,7.0,2011,1.7,OKC,1.0,6.1
27.0,1.9,0.7,4.2,0.429,1.4,3.3,0.437,1.2,2.8,0.432,2.6,6.1,0.884,1.5,1.7,42.0,42.0,NBA,914.0,0.8,3.1,SG,8.0,2012,1.5,OKC,1.6,5.0
28.0,2.0,0.7,4.2,0.558,1.9,3.4,0.419,1.7,4.2,0.481,3.6,7.5,0.826,0.9,1.1,81.0,81.0,NBA,2229.0,0.9,2.9,SG,9.9,2013,1.7,OKC,1.0,5.1
29.0,2.1,0.4,3.9,0.495,2.1,4.3,0.316,1.1,3.5,0.415,3.2,7.7,0.768,1.2,1.6,61.0,61.0,NBA,1584.0,1.1,2.0,SG,8.7,2014,1.8,OKC,1.2,5.0
30.0,2.8,0.8,6.3,0.462,2.9,6.3,0.321,0.9,2.9,0.418,3.8,9.2,0.776,1.7,2.1,52.0,7.0,NBA,976.0,2.0,2.5,SF,10.3,2015,2.0,ATL,1.4,8.2
31.0,2.2,0.8,5.8,0.589,3.0,5.1,0.339,0.9,2.5,0.505,3.8,7.6,0.626,1.3,2.0,75.0,11.0,NBA,1758.0,1.1,2.2,SF,9.8,2016,1.7,ATL,1.4,6.8
32.0,2.4,0.7,4.9,0.484,3.0,6.2,0.342,0.9,2.7,0.441,3.9,8.9,0.733,1.2,1.7,62.0,42.0,NBA,1596.0,1.2,2.2,SF,10.0,2017,2.2,ATL,1.3,6.1
33.0,1.5,0.5,5.9,0.551,3.8,7.0,0.381,1.4,3.8,0.492,5.3,10.7,0.815,2.0,2.4,38.0,6.0,NBA,806.0,1.3,2.6,SF,13.9,2018,2.3,UTA,1.3,7.2
34.0,1.6,0.3,6.8,0.521,2.2,4.2,0.436,2.0,4.6,0.477,4.2,8.8,0.636,0.8,1.3,50.0,2.0,NBA,609.0,0.5,2.4,SF,11.2,2019,2.5,UTA,1.5,7.3
35.0,4.4,1.1,7.0,0.2,0.7,3.7,0.308,1.5,4.8,0.261,2.2,8.4,0.0,0.0,0.0,9.0,0.0,NBA,98.0,3.3,3.3,SF,5.9,2020,1.1,HOU,1.5,10.3
