age,ast_per_g,blk_per_g,drb_per_g,efg_pct,fg2_pct,fg2_per_g,fg2a_per_g,fg3_pct,fg3_per_g,fg3a_per_g,fg_pct,fg_per_g,fga_per_g,ft_pct,ft_per_g,fta_per_g,g,gs,lg_id,mp_per_g,orb_per_g,pf_per_g,pos,pts_per_g,season,stl_per_g,team_id,tov_per_g,trb_per_g
22.0,0.0,1.0,0.0,0.5,0.5,0.7,1.3,0.0,0.0,0.0,0.5,0.7,1.3,0.75,1.0,1.3,3.0,0.0,NBA,5.7,0.7,0.3,C,2.3,2010,0.7,POR,0.3,0.7
24.0,0.0,0.0,0.5,0.333,0.333,0.3,0.8,0.0,0.0,0.0,0.333,0.3,0.8,0.0,0.0,0.0,4.0,0.0,NBA,2.3,0.0,0.5,C,0.5,2012,0.0,IND,0.0,0.5
25.0,0.1,0.2,1.6,0.333,0.348,0.9,2.6,0.0,0.0,0.1,0.333,0.9,2.7,0.0,0.0,0.0,9.0,0.0,NBA,7.9,0.4,1.6,PF,1.8,2013,0.0,IND,0.3,2.0
26.0,0.3,0.0,0.8,0.462,0.462,0.4,0.8,0.0,0.0,0.0,0.462,0.4,0.8,0.625,0.3,0.5,17.0,0.0,NBA,3.8,0.4,0.4,PF,1.0,2014,0.0,SAS,0.1,1.1
27.0,0.7,0.0,1.0,0.0,0.0,0.0,0.3,0.0,0.0,0.0,0.0,0.0,0.3,0.0,0.0,0.0,3.0,0.0,NBA,4.0,0.0,0.0,PF,0.0,2015,0.0,SAS,0.0,1.0
28.0,0.0,0.0,0.0,1.0,1.0,0.5,0.5,0.0,0.0,0.0,1.0,0.5,0.5,1.0,0.5,0.5,2.0,0.0,NBA,1.0,0.0,0.0,C,1.5,2016,0.0,LAC,0.0,0.0
