age,ast_per_poss,blk_per_poss,def_rtg,drb_per_poss,fg2_pct,fg2_per_poss,fg2a_per_poss,fg3_pct,fg3_per_poss,fg3a_per_poss,fg_pct,fg_per_poss,fga_per_poss,ft_pct,ft_per_poss,fta_per_poss,g,gs,lg_id,mp,off_rtg,orb_per_poss,pf_per_poss,pos,pts_per_poss,season,stl_per_poss,team_id,tov_per_poss,trb_per_poss
22.0,0.0,9.7,102.0,0.0,0.5,6.5,12.9,0.0,0.0,0.0,0.5,6.5,12.9,0.75,9.7,12.9,3.0,0.0,NBA,17.0,118.0,6.5,3.2,C,22.6,2010,6.5,POR,3.2,6.5
24.0,0.0,0.0,102.0,12.1,0.333,6.1,18.2,0.0,0.0,0.0,0.333,6.1,18.2,0.0,0.0,0.0,4.0,0.0,NBA,9.0,76.0,0.0,12.1,C,12.1,2012,0.0,IND,0.0,12.1
25.0,0.8,1.5,104.0,10.8,0.348,6.2,17.8,0.0,0.0,0.8,0.333,6.2,18.6,0.0,0.0,0.0,9.0,0.0,NBA,71.0,75.0,3.1,10.8,PF,12.4,2013,0.0,IND,2.3,13.9
26.0,4.0,0.0,107.0,10.4,0.462,4.8,10.4,0.0,0.0,0.0,0.462,4.8,10.4,0.625,4.0,6.4,17.0,0.0,NBA,65.0,125.0,4.8,4.8,PF,13.5,2014,0.0,SAS,0.8,15.1
27.0,8.5,0.0,109.0,12.7,0.0,0.0,4.2,0.0,0.0,0.0,0.0,0.0,4.2,0.0,0.0,0.0,3.0,0.0,NBA,12.0,87.0,0.0,0.0,PF,0.0,2015,0.0,SAS,0.0,12.7
28.0,0.0,0.0,116.0,0.0,1.0,25.6,25.6,0.0,0.0,0.0,1.0,25.6,25.6,1.0,25.6,25.6,2.0,0.0,NBA,2.0,222.0,0.0,0.0,C,76.8,2016,0.0,LAC,0.0,0.0
