age,ast,blk,drb,fg,fg2,fg2a,fg3,fg3a,fga,ft,fta,game_score,lg_id,mp,orb,pf,pts,season,stl,team_id,tov,trb
21.0,5.0,4.0,9.0,12.0,12.0,18.0,0.0,1.0,18.0,13.0,17.0,21.8,NBA,0.0,7.0,6.0,28.0,2005,3.0,NJN,6.0,15.0
22.0,5.0,5.0,11.0,13.0,13.0,21.0,1.0,1.0,21.0,8.0,10.0,24.9,NBA,46.0,8.0,6.0,29.0,2006,2.0,NJN,5.0,14.0
23.0,5.0,2.0,9.0,10.0,10.0,18.0,0.0,1.0,18.0,9.0,10.0,23.7,NBA,46.0,6.0,6.0,27.0,2007,2.0,NJN,5.0,14.0
24.0,4.0,2.0,11.0,9.0,9.0,15.0,0.0,2.0,15.0,5.0,6.0,14.6,NBA,35.0,5.0,5.0,22.0,2008,2.0,NJN,3.0,12.0
25.0,3.0,3.0,9.0,10.0,10.0,16.0,0.0,0.0,16.0,6.0,7.0,21.0,NBA,38.0,6.0,5.0,26.0,2009,3.0,OKC,4.0,15.0
26.0,4.0,4.0,8.0,7.0,7.0,14.0,1.0,2.0,14.0,8.0,11.0,15.7,NBA,38.0,6.0,6.0,20.0,2010,3.0,OKC,3.0,11.0
27.0,2.0,3.0,11.0,8.0,8.0,15.0,0.0,0.0,15.0,7.0,8.0,20.2,NBA,42.0,7.0,5.0,20.0,2011,3.0,TOT,4.0,15.0
27.0,2.0,3.0,6.0,8.0,8.0,12.0,0.0,0.0,12.0,7.0,8.0,17.2,NBA,42.0,7.0,4.0,18.0,2011,3.0,OKC,2.0,11.0
27.0,2.0,2.0,11.0,7.0,7.0,15.0,0.0,0.0,15.0,6.0,8.0,20.2,NBA,38.0,6.0,5.0,20.0,2011,2.0,BOS,4.0,15.0
