age,and1s,astd_pts,drawn_offensive,drawn_shooting,fouls_offensive,fouls_shooting,g,lg_id,mp,own_shots_blk,pct_1,pct_2,pct_3,pct_4,pct_5,plus_minus_net,plus_minus_on,pos,season,team_id,tov_bad_pass,tov_lost_ball
21.0,21.0,180.0,0.0,106.0,26.0,136.0,75.0,NBA,1965.0,77.0,0.0,0.0,0.0,62.0,38.0,8.1,2.4,PF,2005,NJN,20.0,39.0
22.0,27.0,208.0,49.0,116.0,32.0,131.0,80.0,NBA,2469.0,84.0,0.0,0.0,0.0,57.0,43.0,10.3,5.3,PF,2006,NJN,25.0,42.0
23.0,15.0,110.0,12.0,53.0,5.0,49.0,26.0,NBA,848.0,32.0,0.0,0.0,0.0,0.0,100.0,0.1,-0.5,C,2007,NJN,10.0,18.0
24.0,3.0,65.0,2.0,30.0,7.0,61.0,45.0,NBA,812.0,17.0,0.0,0.0,0.0,26.0,75.0,0.4,-5.4,C,2008,NJN,14.0,10.0
25.0,11.0,70.0,5.0,42.0,5.0,66.0,46.0,NBA,1141.0,17.0,0.0,0.0,0.0,0.0,100.0,0.7,-6.3,C,2009,OKC,10.0,21.0
26.0,12.0,120.0,15.0,55.0,13.0,117.0,76.0,NBA,1741.0,25.0,0.0,0.0,0.0,0.0,100.0,-2.2,3.0,C,2010,OKC,15.0,17.0
27.0,10.0,62.0,8.0,68.0,9.0,91.0,71.0,NBA,1571.0,35.0,0.0,0.0,0.0,0.0,100.0,-5.0,1.1,C,2011,TOT,14.0,16.0
27.0,8.0,43.0,5.0,30.0,5.0,58.0,47.0,NBA,1018.0,18.0,0.0,0.0,0.0,0.0,100.0,-7.6,-1.5,C,2011,OKC,7.0,11.0
27.0,2.0,19.0,3.0,38.0,4.0,33.0,24.0,NBA,553.0,17.0,0.0,0.0,0.0,0.0,100.0,-0.2,5.9,C,2011,BOS,7.0,5.0
