age,ast,blk,drb,efg_pct,fg,fg2,fg2_pct,fg2a,fg3,fg3_pct,fg3a,fg_pct,fga,ft,ft_pct,fta,g,gs,lg_id,mp,orb,pf,pos,pts,season,stl,team_id,tov,trb
25.0,306.0,3.0,106.0,0.462,314.0,257.0,0.445,578.0,57.0,0.35,163.0,0.424,741.0,97.0,0.729,133.0,82.0,0.0,NBA,1626.0,20.0,137.0,PG,782.0,2000,52.0,ORL,142.0,126.0
26.0,330.0,5.0,145.0,0.463,380.0,259.0,0.423,613.0,121.0,0.357,339.0,0.399,952.0,90.0,0.692,130.0,81.0,75.0,NBA,2363.0,28.0,184.0,PG,971.0,2001,67.0,DET,149.0,173.0
27.0,263.0,11.0,127.0,0.553,368.0,230.0,0.507,454.0,138.0,0.411,336.0,0.466,790.0,83.0,0.692,120.0,79.0,62.0,NBA,2285.0,31.0,177.0,PG,957.0,2002,72.0,DET,128.0,158.0
28.0,175.0,4.0,75.0,0.454,168.0,82.0,0.368,223.0,86.0,0.355,242.0,0.361,465.0,40.0,0.816,49.0,65.0,7.0,NBA,1398.0,21.0,108.0,PG,462.0,2003,27.0,DET,77.0,96.0
29.0,223.0,2.0,84.0,0.48,192.0,111.0,0.457,243.0,81.0,0.336,241.0,0.397,484.0,73.0,0.753,97.0,64.0,24.0,NBA,1544.0,9.0,102.0,PG,538.0,2004,45.0,TOT,92.0,93.0
29.0,95.0,1.0,42.0,0.464,88.0,46.0,0.438,105.0,42.0,0.323,130.0,0.374,235.0,31.0,0.721,43.0,40.0,0.0,NBA,751.0,6.0,60.0,PG,249.0,2004,19.0,DET,48.0,48.0
29.0,128.0,1.0,42.0,0.496,104.0,65.0,0.471,138.0,39.0,0.351,111.0,0.418,249.0,42.0,0.778,54.0,24.0,24.0,NBA,793.0,3.0,42.0,PG,289.0,2004,26.0,BOS,44.0,45.0
30.0,358.0,2.0,166.0,0.523,388.0,212.0,0.466,455.0,176.0,0.387,455.0,0.426,910.0,163.0,0.803,203.0,82.0,82.0,NBA,2903.0,31.0,181.0,PG,1115.0,2005,73.0,LAL,151.0,197.0
31.0,198.0,2.0,97.0,0.479,226.0,129.0,0.431,299.0,97.0,0.354,274.0,0.394,573.0,129.0,0.791,163.0,71.0,41.0,NBA,1713.0,23.0,152.0,PG-SG,678.0,2006,43.0,TOT,87.0,120.0
31.0,69.0,0.0,33.0,0.474,66.0,33.0,0.402,82.0,33.0,0.359,92.0,0.379,174.0,22.0,0.71,31.0,28.0,2.0,NBA,552.0,12.0,58.0,SG,187.0,2006,14.0,WAS,30.0,45.0
31.0,129.0,2.0,64.0,0.481,160.0,96.0,0.442,217.0,64.0,0.352,182.0,0.401,399.0,107.0,0.811,132.0,43.0,39.0,NBA,1161.0,11.0,94.0,PG,491.0,2006,29.0,MEM,57.0,75.0
32.0,346.0,4.0,121.0,0.515,310.0,194.0,0.474,409.0,116.0,0.379,306.0,0.434,715.0,252.0,0.81,311.0,75.0,23.0,NBA,2064.0,18.0,136.0,PG,988.0,2007,50.0,MEM,127.0,139.0
33.0,47.0,1.0,28.0,0.447,42.0,17.0,0.395,43.0,25.0,0.316,79.0,0.344,122.0,4.0,0.444,9.0,24.0,0.0,NBA,352.0,3.0,27.0,SG,113.0,2008,9.0,DEN,10.0,31.0
34.0,59.0,2.0,19.0,0.367,34.0,19.0,0.339,56.0,15.0,0.263,57.0,0.301,113.0,15.0,0.938,16.0,33.0,0.0,NBA,412.0,5.0,27.0,PG,98.0,2009,10.0,TOT,23.0,24.0
34.0,28.0,1.0,6.0,0.426,9.0,4.0,0.4,10.0,5.0,0.294,17.0,0.333,27.0,4.0,1.0,4.0,14.0,0.0,NBA,115.0,0.0,5.0,PG,27.0,2009,2.0,DEN,10.0,6.0
34.0,31.0,1.0,13.0,0.349,25.0,15.0,0.326,46.0,10.0,0.25,40.0,0.291,86.0,11.0,0.917,12.0,19.0,0.0,NBA,297.0,5.0,22.0,PG,71.0,2009,8.0,OKC,13.0,18.0
35.0,91.0,0.0,24.0,0.433,57.0,35.0,0.417,84.0,22.0,0.301,73.0,0.363,157.0,25.0,0.926,27.0,40.0,11.0,NBA,644.0,5.0,53.0,PG,161.0,2010,17.0,DET,32.0,29.0
