age,and1s,astd_pts,drawn_offensive,drawn_shooting,fouls_offensive,fouls_shooting,g,lg_id,mp,own_shots_blk,pct_1,pct_2,pct_3,pct_4,pct_5,plus_minus_net,plus_minus_on,pos,season,team_id,tov_bad_pass,tov_lost_ball
26.0,8.0,711.0,0.0,36.0,8.0,44.0,81.0,NBA,2363.0,29.0,100.0,0.0,0.0,0.0,0.0,-0.3,-1.9,PG,2001,DET,94.0,39.0
27.0,11.0,587.0,0.0,39.0,10.0,67.0,79.0,NBA,2285.0,37.0,100.0,0.0,0.0,0.0,0.0,-4.0,1.0,PG,2002,DET,77.0,28.0
28.0,3.0,395.0,0.0,16.0,8.0,28.0,65.0,NBA,1398.0,16.0,100.0,0.0,0.0,0.0,0.0,1.1,4.9,PG,2003,DET,47.0,15.0
29.0,4.0,482.0,0.0,22.0,6.0,28.0,64.0,NBA,1544.0,16.0,100.0,0.0,0.0,0.0,0.0,-0.6,2.0,PG,2004,TOT,63.0,21.0
29.0,1.0,200.0,0.0,10.0,3.0,19.0,40.0,NBA,751.0,4.0,100.0,0.0,0.0,0.0,0.0,-5.7,1.9,PG,2004,DET,33.0,10.0
29.0,3.0,282.0,0.0,12.0,3.0,9.0,24.0,NBA,793.0,12.0,100.0,0.0,0.0,0.0,0.0,4.3,2.1,PG,2004,BOS,30.0,11.0
30.0,9.0,804.0,0.0,52.0,22.0,47.0,82.0,NBA,2903.0,33.0,100.0,0.0,0.0,0.0,0.0,1.8,-3.1,PG,2005,LAL,98.0,27.0
31.0,3.0,450.0,13.0,34.0,8.0,44.0,71.0,NBA,1713.0,19.0,80.0,20.0,0.0,0.0,0.0,-3.1,0.8,PG-SG,2006,TOT,49.0,26.0
31.0,0.0,152.0,8.0,5.0,4.0,14.0,28.0,NBA,552.0,3.0,39.0,62.0,0.0,0.0,0.0,-9.7,-6.4,SG,2006,WAS,18.0,8.0
31.0,3.0,298.0,5.0,29.0,4.0,30.0,43.0,NBA,1161.0,16.0,100.0,0.0,0.0,0.0,0.0,-0.2,4.3,PG,2006,MEM,31.0,18.0
32.0,14.0,762.0,15.0,84.0,18.0,44.0,75.0,NBA,2064.0,33.0,100.0,0.0,0.0,0.0,0.0,4.4,-3.5,PG,2007,MEM,76.0,22.0
33.0,1.0,104.0,1.0,4.0,1.0,10.0,24.0,NBA,352.0,3.0,89.0,11.0,0.0,0.0,0.0,-7.8,-3.6,SG,2008,DEN,9.0,0.0
34.0,0.0,132.0,1.0,3.0,1.0,8.0,33.0,NBA,412.0,4.0,100.0,0.0,0.0,0.0,0.0,-5.6,-6.9,PG,2009,TOT,16.0,4.0
34.0,0.0,65.0,0.0,0.0,0.0,1.0,14.0,NBA,115.0,0.0,100.0,0.0,0.0,0.0,0.0,0.5,4.1,PG,2009,DEN,8.0,1.0
34.0,0.0,67.0,1.0,3.0,1.0,7.0,19.0,NBA,297.0,4.0,100.0,0.0,0.0,0.0,0.0,-4.9,-11.3,PG,2009,OKC,8.0,3.0
35.0,1.0,196.0,9.0,6.0,8.0,18.0,40.0,NBA,644.0,5.0,100.0,0.0,0.0,0.0,0.0,0.6,-5.4,PG,2010,DET,18.0,5.0
