age,ast,ast_per_g,blk,college_id,fg,fg3,fg3_pct,fg3a,fg_pct,fga,ft,ft_pct,fta,g,mp,mp_per_g,orb,pf,pts,pts_per_g,season,stl,tov,trb,trb_per_g
18.0,108.0,4.0,2.0,SFLORIDA,94.0,41.0,0.406,101.0,0.425,221.0,46.0,0.639,72.0,27.0,867.0,32.1,0.0,51.0,275.0,10.2,1993,26.0,83.0,93.0,3.4
19.0,105.0,4.0,1.0,SFLORIDA,96.0,37.0,0.276,134.0,0.357,269.0,70.0,0.745,94.0,26.0,787.0,30.3,0.0,48.0,299.0,11.5,1994,19.0,65.0,62.0,2.4
20.0,196.0,6.5,1.0,SFLORIDA,161.0,84.0,0.384,219.0,0.414,389.0,98.0,0.748,131.0,30.0,1067.0,35.6,0.0,55.0,504.0,16.8,1995,35.0,100.0,96.0,3.2
21.0,111.0,4.0,7.0,SFLORIDA,175.0,82.0,0.373,220.0,0.432,405.0,109.0,0.773,141.0,28.0,1064.0,38.0,0.0,54.0,541.0,19.3,1996,35.0,92.0,85.0,3.0
