age,ast_pct,blk_pct,bpm,bpm-dum,dbpm,drb_pct,dws,fg3a_per_fga_pct,fta_per_fga_pct,g,lg_id,mp,obpm,orb_pct,ows,per,pos,season,stl_pct,team_id,tov_pct,trb_pct,ts_pct,usg_pct,vorp,ws,ws-dum,ws_per_48
20.0,2.8,2.7,-9.3,0.0,-1.2,14.2,0.3,0.029,0.406,31.0,NBA,182.0,-8.1,6.2,-0.3,7.0,PF,2009,2.1,CHA,12.9,10.2,0.43,24.2,-0.3,-0.1,0.0,-0.018
21.0,0.0,2.7,-10.4,0.0,-2.0,11.8,0.0,0.0,0.1,6.0,NBA,30.0,-8.5,4.1,-0.1,6.3,C,2010,1.8,CHA,16.1,8.0,0.479,19.3,-0.1,0.0,0.0,-0.013
22.0,4.8,4.2,-3.4,0.0,-0.3,21.5,0.4,0.256,0.135,34.0,NBA,340.0,-3.1,5.9,0.0,12.2,C,2011,1.7,TOT,11.3,13.6,0.507,21.1,-0.1,0.4,0.0,0.052
22.0,4.3,5.1,-2.1,0.0,1.5,18.0,0.1,0.219,0.094,10.0,NBA,75.0,-3.6,8.1,0.0,12.8,C,2011,2.1,DAL,2.9,13.3,0.435,21.4,0.0,0.1,0.0,0.084
22.0,4.9,4.0,-3.8,0.0,-0.8,22.5,0.2,0.267,0.149,24.0,NBA,265.0,-2.9,5.2,0.0,12.0,C,2011,1.6,TOR,13.6,13.6,0.53,21.1,-0.1,0.2,0.0,0.042
25.0,6.6,4.1,-0.7,0.0,0.8,22.7,0.9,0.004,0.269,56.0,NBA,951.0,-1.5,11.3,1.2,14.6,C,2014,1.3,NOP,18.4,16.9,0.589,16.3,0.3,2.1,0.0,0.104
26.0,8.2,4.0,0.2,0.0,0.6,25.0,1.2,0.0,0.301,68.0,NBA,957.0,-0.5,12.4,1.9,19.9,C,2015,1.2,NOP,15.6,18.7,0.595,21.1,0.5,3.2,0.0,0.159
27.0,5.8,3.4,-4.5,0.0,-0.2,25.9,0.9,0.003,0.197,59.0,NBA,861.0,-4.3,9.3,0.2,13.8,C,2016,1.1,NOP,13.6,17.3,0.514,20.4,-0.5,1.0,0.0,0.058
28.0,3.1,3.1,-4.1,0.0,1.0,23.8,0.9,0.022,0.225,39.0,NBA,584.0,-5.1,8.3,0.0,12.9,C,2017,1.7,NOP,13.7,16.0,0.529,17.2,-0.3,1.0,0.0,0.08
