age,and1s,astd_pts,drawn_offensive,drawn_shooting,fouls_offensive,fouls_shooting,g,lg_id,mp,own_shots_blk,pct_1,pct_2,pct_3,pct_4,pct_5,plus_minus_net,plus_minus_on,pos,season,team_id,tov_bad_pass,tov_lost_ball
20.0,0.0,7.0,4.0,8.0,3.0,14.0,31.0,NBA,182.0,5.0,0.0,0.0,0.0,72.0,28.0,2.7,1.2,PF,2009,CHA,4.0,2.0
21.0,1.0,0.0,2.0,1.0,1.0,2.0,6.0,NBA,30.0,1.0,0.0,0.0,0.0,0.0,100.0,9.1,10.6,C,2010,CHA,0.0,0.0
22.0,2.0,23.0,1.0,10.0,5.0,35.0,34.0,NBA,340.0,5.0,0.0,0.0,0.0,0.0,100.0,1.1,0.0,C,2011,TOT,5.0,4.0
22.0,1.0,5.0,1.0,2.0,0.0,5.0,10.0,NBA,75.0,2.0,0.0,0.0,0.0,0.0,100.0,-12.2,-7.2,C,2011,DAL,1.0,0.0
22.0,1.0,18.0,0.0,8.0,5.0,30.0,24.0,NBA,265.0,3.0,0.0,0.0,0.0,0.0,100.0,9.4,1.9,C,2011,TOR,4.0,4.0
25.0,7.0,88.0,5.0,31.0,19.0,86.0,56.0,NBA,951.0,16.0,0.0,0.0,0.0,0.0,100.0,-4.0,-5.6,C,2014,NOP,16.0,18.0
26.0,7.0,100.0,0.0,44.0,15.0,70.0,68.0,NBA,957.0,17.0,0.0,0.0,0.0,0.0,100.0,-1.9,-0.1,C,2015,NOP,13.0,29.0
27.0,6.0,77.0,7.0,28.0,13.0,56.0,59.0,NBA,861.0,12.0,0.0,0.0,0.0,0.0,100.0,0.7,-3.3,C,2016,NOP,9.0,25.0
28.0,7.0,27.0,0.0,21.0,8.0,44.0,39.0,NBA,584.0,14.0,0.0,0.0,0.0,0.0,100.0,-3.6,-5.0,C,2017,NOP,7.0,8.0
