age,ast,blk,drb,fg,fg2,fg2a,fg3,fg3a,fga,ft,fta,game_score,lg_id,mp,orb,pf,pts,season,stl,team_id,tov,trb
21.0,5.0,2.0,2.0,2.0,2.0,3.0,1.0,4.0,7.0,2.0,2.0,4.4,NBA,19,0.0,2.0,5.0,2016,1.0,OKC,2.0,2.0
22.0,0.0,0.0,1.0,1.0,0.0,1.0,1.0,1.0,2.0,0.0,0.0,1.3,NBA,5,0.0,0.0,3.0,2017,0.0,TOT,1.0,1.0
22.0,0.0,0.0,1.0,1.0,0.0,1.0,1.0,1.0,2.0,0.0,0.0,1.3,NBA,5,0.0,0.0,3.0,2017,0.0,CHI,1.0,1.0
