age,ast_per_mp,blk_per_mp,drb_per_mp,fg2_pct,fg2_per_mp,fg2a_per_mp,fg3_pct,fg3_per_mp,fg3a_per_mp,fg_pct,fg_per_mp,fga_per_mp,ft_pct,ft_per_mp,fta_per_mp,g,gs,lg_id,mp,orb_per_mp,pf_per_mp,pos,pts_per_mp,season,stl_per_mp,team_id,tov_per_mp,trb_per_mp
21.0,5.6,0.3,3.9,0.467,4.0,8.6,0.324,1.9,5.7,0.41,5.9,14.3,0.792,1.0,1.2,57.0,1.0,NBA,698.0,0.5,4.1,PG,14.6,2016,1.9,OKC,2.3,4.4
22.0,4.3,0.3,3.5,0.346,2.9,8.3,0.314,2.1,6.7,0.332,5.0,15.0,0.625,0.4,0.6,31.0,0.0,NBA,462.0,0.2,4.1,PG,12.5,2017,1.1,TOT,2.3,3.7
22.0,4.5,0.5,3.3,0.346,3.0,8.8,0.308,1.8,5.9,0.331,4.8,14.6,1.0,0.5,0.5,20.0,0.0,NBA,320.0,0.2,4.3,PG,11.9,2017,1.1,OKC,1.8,3.5
22.0,3.8,0.0,4.1,0.345,2.5,7.4,0.324,2.8,8.6,0.333,5.3,16.0,0.25,0.3,1.0,11.0,0.0,NBA,142.0,0.3,3.5,PG,13.7,2017,1.0,CHI,3.3,4.3
23.0,7.0,0.6,3.2,0.419,3.2,7.7,0.385,2.2,5.6,0.405,5.4,13.3,0.75,0.7,1.0,25.0,14.0,NBA,582.0,1.1,2.7,PG,13.7,2018,1.6,CHI,2.2,4.3
24.0,5.4,0.5,3.0,0.511,3.6,7.0,0.298,1.3,4.2,0.43,4.9,11.3,0.805,1.7,2.1,40.0,13.0,NBA,712.0,0.7,3.2,PG,12.6,2019,1.4,TOT,2.3,3.6
24.0,5.6,0.4,2.9,0.486,3.6,7.3,0.271,1.1,4.0,0.411,4.6,11.3,0.88,1.5,1.7,31.0,12.0,NBA,536.0,0.7,3.3,PG,11.8,2019,1.3,CHI,2.3,3.6
24.0,4.7,0.6,3.3,0.6,3.7,6.1,0.36,1.8,5.1,0.491,5.5,11.3,0.688,2.3,3.3,9.0,1.0,NBA,176.0,0.6,3.1,PG,15.1,2019,1.6,CLE,2.3,3.9
