age,ast_per_mp,blk_per_mp,drb_per_mp,fg2_pct,fg2_per_mp,fg2a_per_mp,fg3_pct,fg3_per_mp,fg3a_per_mp,fg_pct,fg_per_mp,fga_per_mp,ft_pct,ft_per_mp,fta_per_mp,g,gs,lg_id,mp,orb_per_mp,pf_per_mp,pos,pts_per_mp,season,stl_per_mp,team_id,tov_per_mp,trb_per_mp
19.0,3.1,2.1,9.3,0.533,8.2,15.4,0.0,0.0,0.0,0.533,8.2,15.4,0.667,6.2,9.3,10.0,0.0,NBA,35.0,5.1,6.2,C,22.6,2004,0.0,BOS,5.1,14.4
20.0,1.4,2.4,8.1,0.471,3.7,7.8,0.0,0.0,0.0,0.471,3.7,7.8,0.638,2.4,3.8,60.0,3.0,NBA,548.0,3.5,6.4,C,9.8,2005,0.6,BOS,2.8,11.6
21.0,1.9,2.8,7.1,0.519,3.7,7.1,0.0,0.0,0.1,0.515,3.7,7.2,0.615,2.2,3.5,68.0,40.0,NBA,1332.0,3.8,5.4,C,9.6,2006,0.6,BOS,2.9,10.9
22.0,2.1,2.2,5.9,0.496,3.0,6.1,0.0,0.0,0.1,0.491,3.0,6.1,0.6,1.4,2.3,72.0,53.0,NBA,1576.0,2.6,4.9,C,7.4,2007,0.5,BOS,2.6,8.5
23.0,1.6,2.1,6.2,0.617,4.0,6.5,0.0,0.0,0.0,0.615,4.0,6.6,0.623,2.1,3.4,78.0,78.0,NBA,1912.0,2.7,4.6,C,10.2,2008,0.6,BOS,2.4,8.9
24.0,1.5,2.4,6.6,0.58,4.4,7.6,0.0,0.0,0.0,0.577,4.4,7.6,0.6,1.5,2.6,76.0,76.0,NBA,2253.0,3.3,4.0,C,10.4,2009,0.4,BOS,2.6,9.9
25.0,1.3,2.2,7.4,0.605,5.2,8.7,0.0,0.0,0.1,0.602,5.2,8.7,0.582,2.7,4.7,78.0,78.0,NBA,2154.0,2.6,3.7,C,13.2,2010,0.4,BOS,2.8,9.9
26.0,1.3,1.3,8.2,0.515,3.3,6.3,0.0,0.0,0.0,0.515,3.3,6.3,0.556,1.9,3.5,29.0,24.0,NBA,742.0,3.0,4.4,C,8.4,2011,0.4,TOT,2.7,11.3
26.0,1.2,1.2,8.5,0.542,3.7,6.8,0.0,0.0,0.0,0.542,3.7,6.8,0.575,2.6,4.6,12.0,7.0,NBA,313.0,2.6,4.3,C,10.0,2011,0.2,BOS,2.9,11.2
26.0,1.3,1.3,8.1,0.493,2.9,6.0,0.0,0.0,0.0,0.493,2.9,6.0,0.531,1.4,2.7,17.0,17.0,NBA,429.0,3.3,4.5,C,7.3,2011,0.6,OKC,2.6,11.3
27.0,1.6,1.5,6.3,0.489,2.6,5.4,0.0,0.0,0.0,0.489,2.6,5.4,0.652,1.5,2.3,65.0,65.0,NBA,1744.0,2.5,3.9,C,6.8,2012,0.5,OKC,2.4,8.8
28.0,2.0,1.5,6.6,0.458,2.6,5.7,0.0,0.0,0.0,0.457,2.6,5.8,0.611,0.8,1.3,78.0,78.0,NBA,1954.0,2.0,4.2,C,6.1,2013,0.8,OKC,2.0,8.6
29.0,2.0,1.0,6.7,0.453,2.6,5.7,0.0,0.0,0.0,0.451,2.6,5.8,0.552,1.1,2.0,62.0,62.0,NBA,1207.0,2.4,5.3,C,6.3,2014,0.8,OKC,2.7,9.1
30.0,1.6,1.3,7.2,0.451,3.2,7.1,0.0,0.0,0.0,0.449,3.2,7.1,0.506,1.3,2.6,68.0,3.0,NBA,1148.0,2.9,5.1,C,7.7,2015,0.5,TOT,3.0,10.0
30.0,1.6,1.4,7.3,0.443,3.0,6.8,0.0,0.0,0.0,0.441,3.0,6.8,0.507,1.4,2.8,51.0,3.0,NBA,981.0,2.9,5.0,C,7.4,2015,0.5,OKC,2.7,10.2
30.0,1.7,0.9,6.5,0.488,4.3,8.8,0.0,0.0,0.0,0.488,4.3,8.8,0.5,0.9,1.7,17.0,0.0,NBA,167.0,2.4,5.8,C,9.5,2015,0.4,CLE,4.5,8.8
31.0,2.1,0.7,6.8,0.533,2.7,5.0,0.0,0.0,0.0,0.533,2.7,5.0,0.44,0.7,1.7,37.0,5.0,NBA,542.0,1.7,4.3,C,6.0,2016,0.7,NOP,2.7,8.5
33.0,4.8,0.0,2.4,0.5,2.4,4.8,0.0,0.0,0.0,0.5,2.4,4.8,0.5,2.4,4.8,1.0,0.0,NBA,15.0,0.0,2.4,C,7.2,2018,2.4,CLE,2.4,2.4
