age,ast_per_mp,blk_per_mp,drb_per_mp,fg2_pct,fg2_per_mp,fg2a_per_mp,fg3_pct,fg3_per_mp,fg3a_per_mp,fg_pct,fg_per_mp,fga_per_mp,ft_pct,ft_per_mp,fta_per_mp,g,gs,lg_id,mp,orb_per_mp,pf_per_mp,pos,pts_per_mp,season,stl_per_mp,team_id,tov_per_mp,trb_per_mp
22.0,1.7,0.4,5.1,0.438,3.0,6.8,0.0,0.0,0.0,0.438,3.0,6.8,0.636,3.0,4.7,21.0,0.0,NBA,85.0,2.1,7.6,C,8.9,1991,0.4,UTA,1.7,7.2
24.0,2.1,0.0,8.5,0.6,6.4,10.6,0.0,0.0,0.0,0.6,6.4,10.6,0.75,6.4,8.5,6.0,0.0,NBA,17.0,4.2,8.5,C,19.1,1993,2.1,TOT,0.0,12.7
24.0,0.0,0.0,7.2,0.667,7.2,10.8,0.0,0.0,0.0,0.667,7.2,10.8,0.0,0.0,0.0,3.0,0.0,NBA,10.0,7.2,3.6,C,14.4,1993,0.0,NJN,0.0,14.4
24.0,5.1,0.0,10.3,0.5,5.1,10.3,0.0,0.0,0.0,0.5,5.1,10.3,0.75,15.4,20.6,3.0,0.0,NBA,7.0,0.0,15.4,C,25.7,1993,5.1,MIL,0.0,10.3
25.0,1.9,0.0,5.1,0.333,2.6,7.7,0.0,0.0,0.0,0.333,2.6,7.7,0.75,5.8,7.7,13.0,0.0,NBA,56.0,1.3,6.4,C,10.9,1994,0.0,DET,1.9,6.4
27.0,0.5,1.0,4.9,0.382,3.4,8.8,0.0,0.0,0.3,0.371,3.4,9.1,0.875,1.8,2.1,5.0,2.0,NBA,139.0,3.4,3.4,C,8.5,1996,0.5,TOR,1.3,8.3
