age,and1s,astd_pts,drawn_offensive,drawn_shooting,fouls_offensive,fouls_shooting,g,lg_id,mp,own_shots_blk,pct_1,pct_2,pct_3,pct_4,pct_5,plus_minus_net,plus_minus_on,pos,season,team_id,tov_bad_pass,tov_lost_ball
35.0,1.0,40.0,0.0,13.0,8.0,40.0,53.0,NBA,613.0,9.0,0.0,0.0,0.0,2.0,98.0,1.0,3.2,C,2001,PHO,0.0,7.0
36.0,1.0,31.0,0.0,6.0,2.0,21.0,43.0,NBA,327.0,6.0,0.0,0.0,0.0,3.0,97.0,-0.3,3.3,C,2002,POR,5.0,6.0
37.0,0.0,0.0,0.0,0.0,0.0,2.0,3.0,NBA,11.0,0.0,0.0,0.0,0.0,25.0,75.0,-58.6,-55.6,C,2003,POR,0.0,0.0
