age,ast_per_poss,blk_per_poss,def_rtg,drb_per_poss,fg2_pct,fg2_per_poss,fg2a_per_poss,fg3_pct,fg3_per_poss,fg3a_per_poss,fg_pct,fg_per_poss,fga_per_poss,ft_pct,ft_per_poss,fta_per_poss,g,gs,lg_id,mp,off_rtg,orb_per_poss,pf_per_poss,pos,pts_per_poss,season,stl_per_poss,team_id,tov_per_poss,trb_per_poss
20.0,12.1,4.0,123.0,5.8,0.579,9.9,17.0,0.0,0.0,0.9,0.55,9.9,17.9,0.3,1.3,4.5,3.0,3.0,NBA,109.0,115.0,5.8,4.9,C,21.1,1994,1.3,GSW,4.0,11.7
23.0,5.2,3.6,111.0,8.8,0.737,7.2,9.8,0.455,2.6,5.7,0.633,9.8,15.5,0.5,2.1,4.1,3.0,3.0,NBA,106.0,101.0,3.6,9.3,PF,24.2,1997,1.0,WSB,8.2,12.4
25.0,5.6,1.4,100.0,9.6,0.397,8.2,20.5,0.286,0.6,2.0,0.388,8.7,22.5,0.4,2.8,7.0,5.0,5.0,NBA,192.0,82.0,3.7,5.6,PF,20.8,1999,2.5,SAC,5.6,13.2
26.0,7.2,2.7,109.0,9.1,0.438,12.3,28.0,0.2,0.3,1.3,0.427,12.5,29.3,0.794,7.2,9.1,5.0,5.0,NBA,196.0,110.0,3.7,3.7,PF,32.5,2000,2.1,SAC,2.1,12.8
27.0,3.6,1.1,101.0,8.3,0.39,10.9,28.0,0.0,0.0,0.1,0.388,10.9,28.1,0.694,4.9,7.0,8.0,8.0,NBA,348.0,91.0,4.9,4.2,PF,26.7,2001,1.3,SAC,4.4,13.2
28.0,5.7,1.9,102.0,9.5,0.508,12.3,24.1,0.0,0.0,0.3,0.502,12.3,24.5,0.596,4.5,7.6,16.0,16.0,NBA,667.0,107.0,3.8,4.9,PF,29.1,2002,1.1,SAC,3.5,13.3
29.0,5.2,1.6,107.0,8.2,0.508,13.8,27.2,0.0,0.0,0.6,0.496,13.8,27.8,0.653,6.6,10.1,7.0,7.0,NBA,246.0,104.0,3.7,5.2,PF,34.2,2003,2.1,SAC,4.7,12.0
30.0,5.1,1.2,100.0,8.6,0.456,10.3,22.5,0.25,0.1,0.5,0.452,10.4,22.9,0.615,4.6,7.5,12.0,12.0,NBA,446.0,94.0,2.8,3.9,PF,25.5,2004,1.8,SAC,4.4,11.4
31.0,4.1,0.3,112.0,5.0,0.42,10.0,23.8,0.357,1.5,4.1,0.411,11.4,27.9,0.75,3.5,4.7,5.0,5.0,NBA,186.0,96.0,3.5,5.9,PF,27.9,2005,1.8,PHI,3.2,8.5
33.0,3.3,1.2,99.0,8.9,0.528,9.1,17.3,0.0,0.0,0.1,0.524,9.1,17.5,0.531,3.6,6.8,16.0,16.0,NBA,404.0,105.0,5.0,7.1,PF,21.9,2007,1.9,DET,3.5,13.9
