age,ast,blk,drb,fg,fg2,fg2a,fg3,fg3a,fga,ft,fta,game_score,lg_id,mp,orb,pf,pts,season,stl,team_id,tov,trb
20.0,13.0,4.0,7.0,8.0,8.0,14.0,0.0,1.0,14.0,2.0,4.0,21.9,NBA,0.0,6.0,5.0,17.0,1994,2.0,GSW,4.0,10.0
23.0,6.0,4.0,7.0,8.0,8.0,8.0,3.0,5.0,13.0,2.0,6.0,17.3,NBA,0.0,5.0,6.0,21.0,1997,1.0,WSB,6.0,12.0
25.0,7.0,2.0,10.0,9.0,8.0,15.0,1.0,4.0,18.0,4.0,6.0,13.4,NBA,0.0,4.0,6.0,20.0,1999,4.0,SAC,5.0,14.0
26.0,8.0,7.0,10.0,11.0,11.0,27.0,1.0,3.0,28.0,7.0,8.0,28.5,NBA,0.0,5.0,6.0,29.0,2000,4.0,SAC,3.0,14.0
27.0,8.0,2.0,13.0,13.0,13.0,32.0,0.0,1.0,32.0,10.0,14.0,23.8,NBA,0.0,10.0,5.0,34.0,2001,3.0,SAC,7.0,18.0
28.0,11.0,5.0,12.0,15.0,15.0,26.0,0.0,1.0,26.0,8.0,11.0,29.1,NBA,0.0,6.0,6.0,31.0,2002,4.0,SAC,7.0,15.0
29.0,9.0,3.0,10.0,13.0,13.0,25.0,0.0,1.0,25.0,11.0,14.0,23.3,NBA,0.0,4.0,6.0,31.0,2003,4.0,SAC,7.0,11.0
30.0,12.0,3.0,9.0,13.0,13.0,21.0,1.0,2.0,21.0,7.0,12.0,24.2,NBA,0.0,5.0,5.0,28.0,2004,3.0,SAC,7.0,13.0
31.0,4.0,1.0,5.0,11.0,9.0,19.0,3.0,5.0,22.0,4.0,6.0,19.0,NBA,0.0,3.0,5.0,27.0,2005,3.0,TOT,4.0,8.0
31.0,4.0,1.0,5.0,11.0,9.0,19.0,3.0,5.0,22.0,4.0,6.0,19.0,NBA,0.0,3.0,5.0,27.0,2005,3.0,PHI,4.0,8.0
33.0,5.0,2.0,8.0,10.0,10.0,13.0,0.0,1.0,13.0,5.0,6.0,20.0,NBA,36.0,6.0,5.0,22.0,2007,2.0,TOT,4.0,10.0
33.0,5.0,2.0,8.0,10.0,10.0,13.0,0.0,1.0,13.0,5.0,6.0,20.0,NBA,36.0,6.0,5.0,22.0,2007,2.0,DET,4.0,10.0
