age,ast_per_mp,blk_per_mp,drb_per_mp,fg2_pct,fg2_per_mp,fg2a_per_mp,fg3_pct,fg3_per_mp,fg3a_per_mp,fg_pct,fg_per_mp,fga_per_mp,ft_pct,ft_per_mp,fta_per_mp,g,gs,lg_id,mp,orb_per_mp,pf_per_mp,pos,pts_per_mp,season,stl_per_mp,team_id,tov_per_mp,trb_per_mp
24.0,5.0,0.5,1.6,0.503,6.4,12.8,0.333,0.1,0.2,0.5,6.5,13.0,0.69,3.0,4.4,76.0,2.0,NBA,1061.0,1.3,3.3,PG,16.0,1980,1.5,BOS,3.7,2.8
25.0,4.8,0.3,2.0,0.462,5.8,12.6,0.063,0.0,0.4,0.451,5.8,13.0,0.72,2.5,3.5,82.0,10.0,NBA,1608.0,1.0,4.0,PG,14.2,1981,1.8,BOS,3.6,3.0
26.0,4.9,0.2,2.0,0.506,6.9,13.5,0.167,0.0,0.2,0.501,6.9,13.8,0.727,2.4,3.4,82.0,31.0,NBA,1844.0,0.9,3.9,PG,16.3,1982,1.6,BOS,2.9,3.0
27.0,4.5,0.1,1.6,0.47,6.6,14.0,0.188,0.1,0.4,0.463,6.6,14.3,0.722,2.2,3.1,82.0,9.0,NBA,1551.0,1.3,4.4,PG,15.6,1983,2.2,BOS,3.0,2.9
28.0,5.2,0.2,1.4,0.539,6.1,11.4,0.351,0.3,1.0,0.524,6.5,12.4,0.768,2.3,3.1,78.0,78.0,NBA,2088.0,1.2,3.6,PG,15.7,1984,2.0,BOS,2.8,2.5
29.0,7.6,0.1,1.6,0.49,5.7,11.6,0.237,0.1,0.5,0.479,5.8,12.1,0.78,2.7,3.5,79.0,78.0,NBA,2648.0,1.0,2.7,PG,14.4,1985,1.9,SEA,3.1,2.6
30.0,6.8,0.2,1.4,0.491,5.8,11.9,0.346,0.3,0.7,0.482,6.1,12.6,0.83,2.6,3.1,82.0,82.0,NBA,2568.0,1.2,3.2,PG,15.0,1986,1.9,SEA,2.6,2.6
31.0,8.3,0.2,2.2,0.467,4.9,10.5,0.247,0.3,1.4,0.442,5.2,11.9,0.826,3.3,4.0,74.0,59.0,NBA,2045.0,0.9,3.7,PG,14.2,1987,1.8,TOT,3.0,3.1
31.0,7.4,0.0,0.7,0.532,5.8,10.9,0.0,0.0,0.7,0.5,5.8,11.6,0.944,3.9,4.2,6.0,6.0,NBA,155.0,1.4,3.9,PG,15.6,1987,1.4,SEA,3.5,2.1
31.0,8.4,0.2,2.3,0.462,4.8,10.5,0.257,0.4,1.4,0.438,5.2,11.9,0.816,3.3,4.0,68.0,53.0,NBA,1890.0,0.8,3.6,PG,14.1,1987,1.8,NYK,3.0,3.2
32.0,5.5,0.1,1.9,0.431,3.0,6.9,0.423,1.7,3.9,0.428,4.6,10.8,0.812,3.3,4.1,75.0,5.0,NBA,1505.0,0.6,4.5,PG,14.2,1988,1.7,TOT,3.2,2.6
32.0,6.8,0.0,4.7,0.3,1.6,5.2,0.5,1.0,2.1,0.357,2.6,7.3,1.0,1.0,1.0,6.0,2.0,NBA,69.0,0.5,7.3,PG,7.3,1988,1.0,NYK,4.2,5.2
32.0,5.5,0.1,1.8,0.436,3.1,7.0,0.421,1.7,4.0,0.431,4.7,11.0,0.81,3.4,4.2,69.0,3.0,NBA,1436.0,0.7,4.3,PG,14.6,1988,1.7,PHI,3.1,2.4
33.0,5.1,0.1,1.9,0.461,4.1,8.8,0.308,1.2,3.9,0.414,5.3,12.7,0.819,3.8,4.6,65.0,0.0,NBA,986.0,0.6,4.4,PG,15.5,1989,1.5,PHI,2.7,2.5
34.0,5.7,0.2,2.5,0.507,2.8,5.5,0.447,1.3,2.9,0.486,4.1,8.5,0.8,0.9,1.2,57.0,0.0,NBA,464.0,0.9,3.9,PG,10.5,1990,1.2,TOT,1.9,3.3
34.0,3.6,0.0,2.5,0.421,2.2,5.3,0.429,0.8,2.0,0.423,3.1,7.3,1.0,0.6,0.6,11.0,0.0,NBA,129.0,0.8,3.9,PG,7.5,1990,2.2,MIL,2.2,3.3
34.0,6.6,0.2,2.5,0.538,3.0,5.6,0.452,1.5,3.3,0.506,4.5,8.9,0.769,1.1,1.4,46.0,0.0,NBA,335.0,0.9,3.9,PG,11.6,1990,0.9,DET,1.7,3.3
35.0,5.7,0.2,2.7,0.448,3.9,8.8,0.333,0.6,1.9,0.427,4.6,10.7,0.762,1.5,1.9,23.0,10.0,NBA,392.0,0.7,3.9,PG,11.3,1991,1.1,DET,2.6,3.4
36.0,3.7,0.0,2.6,0.375,3.4,9.0,0.375,1.1,3.0,0.375,4.5,12.0,0.818,3.4,4.1,16.0,0.0,NBA,96.0,0.4,4.5,PG,13.5,1992,1.1,TOT,3.0,3.0
36.0,5.3,0.0,1.1,0.5,4.2,8.5,0.0,0.0,3.2,0.364,4.2,11.6,0.667,4.2,6.4,8.0,0.0,NBA,34.0,1.1,4.2,PG,12.7,1992,0.0,HOU,4.2,2.1
36.0,2.9,0.0,3.5,0.313,2.9,9.3,0.6,1.7,2.9,0.381,4.6,12.2,1.0,2.9,2.9,8.0,0.0,NBA,62.0,0.0,4.6,PG,13.9,1992,1.7,DET,2.3,3.5
