age,ast,blk,drb,fg,fg2,fg2a,fg3,fg3a,fga,ft,fta,game_score,lg_id,mp,orb,pf,pts,season,stl,team_id,tov,trb
23.0,3.0,1.0,3.0,6.0,6.0,8.0,0.0,2.0,8.0,6.0,7.0,10.8,NBA,0.0,3.0,4.0,12.0,1987,2.0,LAL,3.0,5.0
24.0,4.0,3.0,5.0,9.0,9.0,21.0,1.0,2.0,22.0,5.0,6.0,13.7,NBA,0.0,5.0,6.0,20.0,1988,5.0,NJN,3.0,6.0
25.0,4.0,1.0,5.0,12.0,12.0,18.0,2.0,3.0,20.0,7.0,10.0,20.8,NBA,0.0,4.0,5.0,28.0,1989,5.0,POR,4.0,7.0
26.0,1.0,0.0,3.0,5.0,5.0,18.0,1.0,1.0,18.0,4.0,4.0,9.8,NBA,0.0,3.0,5.0,14.0,1990,2.0,MIN,2.0,4.0
