age,ast_per_mp,blk_per_mp,drb_per_mp,fg2_pct,fg2_per_mp,fg2a_per_mp,fg3_pct,fg3_per_mp,fg3a_per_mp,fg_pct,fg_per_mp,fga_per_mp,ft_pct,ft_per_mp,fta_per_mp,g,gs,lg_id,mp,orb_per_mp,pf_per_mp,pos,pts_per_mp,season,stl_per_mp,team_id,tov_per_mp,trb_per_mp
22.0,2.1,0.5,5.9,0.511,4.6,9.1,0.366,2.4,6.5,0.45,7.0,15.6,0.707,2.2,3.1,77.0,37.0,NBA,2401.0,1.3,2.4,PF,18.6,2018,0.7,LAL,2.1,7.2
23.0,2.8,0.4,5.0,0.553,5.7,10.3,0.303,2.0,6.6,0.456,7.7,16.9,0.752,2.9,3.9,70.0,68.0,NBA,2314.0,0.9,2.6,PF,20.3,2019,0.6,LAL,2.1,5.9
24.0,0.9,0.2,5.6,0.641,5.6,8.7,0.286,2.7,9.4,0.457,8.3,18.1,0.769,2.2,2.9,7.0,1.0,NBA,161.0,0.9,3.4,PF,21.5,2020,0.2,LAL,2.9,6.5
