age,and1s,astd_pts,drawn_offensive,drawn_shooting,fouls_offensive,fouls_shooting,g,lg_id,mp,own_shots_blk,pct_1,pct_2,pct_3,pct_4,pct_5,plus_minus_net,plus_minus_on,pos,season,team_id,tov_bad_pass,tov_lost_ball
22.0,19.0,331.0,6.0,90.0,19.0,75.0,77.0,NBA,2401.0,54.0,0.0,0.0,20.0,79.0,1.0,-1.8,-2.2,PF,2018,LAL,50.0,40.0
23.0,22.0,418.0,10.0,101.0,25.0,72.0,70.0,NBA,2314.0,68.0,0.0,0.0,3.0,83.0,15.0,1.7,-1.1,PF,2019,LAL,47.0,37.0
24.0,1.0,9.0,0.0,7.0,1.0,9.0,7.0,NBA,161.0,2.0,0.0,0.0,0.0,99.0,1.0,-9.4,3.2,PF,2020,LAL,5.0,3.0
