age,avg_dist,fg2_dunk,fg2_pct,fg2_pct_ast,fg2a_pct_fga,fg3_heave,fg3_pct,fg3_pct_ast,fg3_pct_corner,fg3a_heave,fg3a_pct_fga,fg_pct,fg_pct_00_03,fg_pct_03_10,fg_pct_10_16,fg_pct_16_xx,g,lg_id,mp,pct_fg2_dunk,pct_fg3a_corner,pct_fga_00_03,pct_fga_03_10,pct_fga_10_16,pct_fga_16_xx,pos,season,team_id
22.0,14.1,29.0,0.511,0.531,0.582,0.0,0.366,0.881,0.372,1.0,0.418,0.45,0.64,0.443,0.364,0.382,77.0,NBA,2401.0,0.035,0.18,0.257,0.176,0.074,0.073,PF,2018,LAL
23.0,13.3,58.0,0.553,0.614,0.612,0.0,0.303,0.922,0.353,1.0,0.388,0.456,0.661,0.471,0.487,0.358,70.0,NBA,2314.0,0.055,0.201,0.288,0.203,0.072,0.049,PF,2019,LAL
24.0,17.2,0.0,0.641,0.84,0.481,0.0,0.286,1.0,0.5,0.0,0.519,0.457,0.929,0.5,0.5,0.4,7.0,NBA,161.0,0.0,0.19,0.173,0.173,0.074,0.062,PF,2020,LAL
