age,ast,blk,drb,fg,fg2,fg2a,fg3,fg3a,fga,ft,fta,game_score,lg_id,mp,orb,pf,pts,season,stl,team_id,tov,trb
22.0,6.0,2.0,13.0,12.0,9.0,16.0,7.0,11.0,24.0,9.0,13.0,35.3,NBA,47,5.0,5.0,38.0,2018,3.0,LAL,5.0,15.0
23.0,10.0,2.0,12.0,16.0,11.0,16.0,7.0,14.0,25.0,7.0,10.0,30.1,NBA,46,4.0,5.0,41.0,2019,3.0,LAL,6.0,12.0
24.0,2.0,1.0,5.0,9.0,6.0,10.0,3.0,8.0,16.0,5.0,6.0,15.4,NBA,31,2.0,4.0,23.0,2020,1.0,LAL,4.0,5.0
