age,ast_pct,blk_pct,bpm,bpm-dum,dbpm,drb_pct,dws,fg3a_per_fga_pct,fta_per_fga_pct,g,lg_id,mp,obpm,orb_pct,ows,per,pos,season,stl_pct,team_id,tov_pct,trb_pct,ts_pct,usg_pct,vorp,ws,ws-dum,ws_per_48
25.0,0.0,0.0,-24.6,0.0,-11.8,29.3,0.0,0.0,0.889,3.0,NBA,19.0,-12.8,18.6,-0.1,5.7,C,2001,0.0,LAC,13.8,24.1,0.359,35.3,-0.1,0.0,0.0,-0.119
26.0,2.7,1.6,-5.9,0.0,-2.3,20.2,0.6,0.0,0.739,54.0,NBA,848.0,-3.6,14.1,0.4,13.5,PF,2002,1.3,DEN,15.6,17.0,0.499,20.3,-0.8,1.1,0.0,0.061
27.0,0.0,0.0,-12.6,0.0,-5.7,29.7,0.0,0.0,0.4,3.0,NBA,12.0,-6.8,9.1,0.0,17.7,C,2003,4.5,TOR,14.5,19.0,0.51,26.2,0.0,0.0,0.0,0.107
28.0,4.8,1.3,-2.5,0.0,-1.0,23.9,0.6,0.0,1.011,46.0,NBA,473.0,-1.4,12.3,1.1,15.9,C,2004,0.9,PHI,16.4,18.2,0.616,16.3,-0.1,1.8,0.0,0.178
29.0,5.5,0.9,-4.4,0.0,-1.0,17.9,0.1,0.0,1.5,16.0,NBA,159.0,-3.4,13.2,0.0,10.4,C,2005,1.7,MIL,18.4,15.5,0.48,18.6,-0.1,0.1,0.0,0.038
30.0,0.0,0.0,-9.6,0.0,-3.7,19.5,0.1,0.0,1.286,12.0,NBA,49.0,-5.9,7.2,0.0,17.6,C,2006,4.3,TOT,21.5,13.3,0.593,26.3,-0.1,0.1,0.0,0.098
30.0,0.0,0.0,-10.1,0.0,-4.3,20.8,0.1,0.0,1.231,11.0,NBA,46.0,-5.8,7.7,0.0,18.2,C,2006,3.5,CLE,23.0,14.2,0.624,26.2,-0.1,0.1,0.0,0.108
30.0,0.0,0.0,-1.9,0.0,6.5,0.0,0.0,0.0,2.0,1.0,NBA,3.0,-8.4,0.0,0.0,8.2,C,2006,17.3,PHI,0.0,0.0,0.266,28.6,0.0,0.0,0.0,-0.057
