age,ast_pct,blk_pct,bpm,bpm-dum,dbpm,drb_pct,dws,fg3a_per_fga_pct,fta_per_fga_pct,g,lg_id,mp,obpm,orb_pct,ows,per,pos,season,stl_pct,team_id,tov_pct,trb_pct,ts_pct,usg_pct,vorp,ws,ws-dum,ws_per_48
23.0,33.5,0.1,-1.3,0.0,0.2,7.0,2.1,0.038,0.174,79.0,NBA,1628.0,-1.5,2.4,0.2,12.7,PG,1988,3.8,WSB,18.0,4.7,0.429,14.2,0.3,2.3,0.0,0.066
24.0,46.2,0.2,-3.1,0.0,-1.9,7.4,1.0,0.031,0.211,79.0,NBA,1755.0,-1.2,3.2,1.6,15.3,PG,1989,3.0,CHH,21.4,5.2,0.463,13.6,-0.5,2.6,0.0,0.07
25.0,44.6,0.1,-0.9,0.0,-1.4,7.0,2.1,0.039,0.202,81.0,NBA,2743.0,0.4,1.9,4.6,16.9,PG,1990,3.0,CHH,16.8,4.3,0.528,13.5,0.7,6.7,0.0,0.117
26.0,40.2,0.1,-1.0,0.0,-1.0,8.1,1.7,0.023,0.206,81.0,NBA,2299.0,0.0,2.8,3.1,15.4,PG,1991,2.9,CHH,17.4,5.4,0.497,12.8,0.6,4.8,0.0,0.1
27.0,33.4,0.1,-1.4,0.0,-1.0,6.9,1.8,0.04,0.179,82.0,NBA,2790.0,-0.5,2.2,3.0,14.0,PG,1992,2.9,CHH,17.7,4.5,0.504,12.8,0.4,4.8,0.0,0.082
28.0,32.5,0.1,0.2,0.0,-0.1,8.9,2.3,0.036,0.23,81.0,NBA,2833.0,0.3,2.0,3.6,14.5,PG,1993,2.7,CHH,16.1,5.6,0.503,13.9,1.5,5.9,0.0,0.1
29.0,39.2,0.0,0.1,0.0,-1.0,9.2,1.7,0.016,0.206,77.0,NBA,2746.0,1.1,3.2,4.8,16.2,PG,1994,2.4,CHH,17.3,6.3,0.51,15.4,1.5,6.4,0.0,0.112
30.0,40.3,0.0,0.2,0.0,-0.8,8.9,2.8,0.041,0.247,78.0,NBA,2629.0,1.0,2.4,5.8,16.9,PG,1995,2.1,CHH,14.0,5.8,0.533,16.6,1.5,8.6,0.0,0.157
31.0,35.1,0.0,-6.0,0.0,-3.7,1.6,0.0,0.063,0.125,6.0,NBA,77.0,-2.3,9.3,0.0,10.6,PG,1996,1.4,CHH,26.2,5.5,0.415,13.4,-0.1,0.0,0.0,0.02
32.0,38.6,0.1,-1.3,0.0,-2.7,7.2,1.1,0.325,0.144,65.0,NBA,1880.0,1.3,1.7,3.9,15.7,PG,1997,2.4,CHH,18.6,4.5,0.554,14.5,0.3,5.0,0.0,0.127
33.0,33.6,0.1,-4.1,0.0,-1.4,7.1,1.0,0.05,0.211,61.0,NBA,1570.0,-2.8,2.0,0.7,12.4,PG,1998,2.2,TOT,22.9,4.5,0.492,12.7,-0.8,1.7,0.0,0.053
33.0,40.0,0.0,0.1,0.0,-0.2,7.5,0.0,0.0,0.4,2.0,NBA,16.0,0.3,0.0,0.0,20.6,PG,1998,6.7,CHH,14.5,3.8,0.51,19.9,0.0,0.1,0.0,0.193
33.0,33.5,0.1,-4.2,0.0,-1.4,7.1,1.0,0.05,0.208,59.0,NBA,1554.0,-2.8,2.0,0.7,12.3,PG,1998,2.2,GSW,23.1,4.5,0.491,12.7,-0.8,1.7,0.0,0.051
34.0,30.9,0.1,-0.5,0.0,0.5,8.7,0.8,0.039,0.234,36.0,NBA,714.0,-1.0,2.3,0.9,15.3,PG,1999,3.3,GSW,21.7,5.5,0.539,13.5,0.3,1.7,0.0,0.117
35.0,26.0,0.2,-3.0,0.0,-2.0,7.4,0.9,0.142,0.243,80.0,NBA,1731.0,-1.1,1.6,2.7,12.5,PG,2000,1.9,TOR,13.0,4.4,0.517,11.6,-0.4,3.7,0.0,0.102
36.0,19.3,0.0,-8.3,0.0,1.5,10.2,0.0,0.5,0.0,3.0,NBA,34.0,-9.7,0.0,-0.1,-0.5,PG,2001,3.1,TOR,66.7,5.0,0.0,7.9,-0.1,-0.1,0.0,-0.128
