age,ast_per_poss,blk_per_poss,def_rtg,drb_per_poss,fg2_pct,fg2_per_poss,fg2a_per_poss,fg3_pct,fg3_per_poss,fg3a_per_poss,fg_pct,fg_per_poss,fga_per_poss,ft_pct,ft_per_poss,fta_per_poss,g,gs,lg_id,mp,off_rtg,orb_per_poss,pf_per_poss,pos,pts_per_poss,season,stl_per_poss,team_id,tov_per_poss,trb_per_poss
23.0,53.4,0.0,120.0,0.0,0.0,0.0,0.0,0.0,0.0,0.0,0.0,0.0,0.0,0.0,0.0,0.0,1.0,0.0,NBA,2.0,60.0,0.0,0.0,PG,0.0,1988,0.0,WSB,26.7,0.0
28.0,10.6,0.0,104.0,4.5,0.488,5.9,12.1,0.0,0.0,0.3,0.476,5.9,12.4,0.714,1.5,2.1,9.0,9.0,NBA,346.0,109.0,0.9,3.2,PG,13.3,1993,3.6,CHH,2.6,5.4
30.0,9.8,0.0,115.0,1.2,0.31,5.1,16.4,0.333,0.4,1.2,0.311,5.5,17.6,1.0,2.0,2.0,4.0,4.0,NBA,145.0,88.0,1.2,3.1,PG,13.3,1995,1.6,CHH,3.5,2.3
32.0,4.8,0.0,124.0,1.9,0.417,4.8,11.4,0.857,5.7,6.7,0.579,10.5,18.1,1.0,3.8,3.8,2.0,2.0,NBA,58.0,123.0,1.0,2.9,PG,30.4,1997,1.0,CHH,5.7,2.9
35.0,3.2,0.0,105.0,1.9,0.25,1.9,7.7,0.333,1.9,5.8,0.286,3.8,13.5,0.333,0.6,1.9,3.0,2.0,NBA,87.0,76.0,1.9,2.6,PG,10.3,2000,2.6,TOR,2.6,3.8
