age,ast_pct,blk_pct,bpm,bpm-dum,dbpm,drb_pct,dws,fg3a_per_fga_pct,fta_per_fga_pct,g,lg_id,mp,obpm,orb_pct,ows,per,pos,season,stl_pct,team_id,tov_pct,trb_pct,ts_pct,usg_pct,vorp,ws,ws-dum,ws_per_48
21.0,3.5,4.3,-1.5,0.0,1.9,15.1,1.6,0.012,0.416,80.0,NBA,1312.0,-3.4,9.6,0.2,13.1,PF,2001,2.5,VAN,13.8,12.4,0.487,16.2,0.2,1.9,0.0,0.069
22.0,5.0,4.3,-1.5,0.0,0.6,16.6,2.0,0.005,0.499,68.0,NBA,1805.0,-2.1,10.0,1.7,17.2,PF,2002,1.5,MEM,14.1,13.3,0.539,21.8,0.2,3.7,0.0,0.099
23.0,5.0,4.8,-0.9,0.0,1.0,20.3,1.7,0.004,0.501,67.0,NBA,1478.0,-1.9,8.8,1.6,18.0,PF,2003,1.9,MEM,14.2,14.6,0.542,21.2,0.4,3.3,0.0,0.108
24.0,4.4,5.6,-0.1,0.0,1.2,17.7,2.4,0.007,0.459,77.0,NBA,1528.0,-1.3,10.3,2.4,19.2,PF,2004,1.9,MEM,11.4,14.0,0.53,22.8,0.7,4.8,0.0,0.15
25.0,6.2,5.7,-1.1,0.0,1.9,16.9,2.3,0.008,0.449,60.0,NBA,1279.0,-3.0,8.7,0.6,16.7,PF,2005,1.7,MEM,13.3,12.8,0.517,24.9,0.3,2.9,0.0,0.107
26.0,3.6,3.0,-3.4,0.0,0.1,16.1,2.1,0.004,0.456,66.0,NBA,1344.0,-3.6,9.1,0.4,14.6,C,2006,1.5,HOU,14.2,12.7,0.533,22.7,-0.5,2.5,0.0,0.091
27.0,2.8,4.6,-4.2,0.0,-0.6,19.2,0.8,0.014,0.387,54.0,NBA,1029.0,-3.6,9.9,0.2,14.2,C,2007,1.5,MEM,14.6,14.5,0.517,20.8,-0.6,1.0,0.0,0.047
28.0,5.1,4.8,-3.4,0.0,0.1,18.3,0.8,0.008,0.411,56.0,NBA,844.0,-3.5,8.5,0.6,14.8,PF,2008,0.9,TOT,14.0,13.4,0.548,19.3,-0.3,1.4,0.0,0.078
28.0,6.6,4.8,-2.2,0.0,0.4,17.1,0.5,0.011,0.458,35.0,NBA,549.0,-2.6,9.3,0.4,15.9,PF,2008,0.9,MEM,15.5,13.2,0.56,20.4,0.0,0.9,0.0,0.079
28.0,2.3,4.7,-5.7,0.0,-0.4,20.5,0.3,0.0,0.318,21.0,NBA,295.0,-5.3,7.1,0.1,12.7,PF,2008,0.9,NJN,10.7,13.7,0.523,17.4,-0.3,0.5,0.0,0.074
29.0,2.4,3.3,-8.6,0.0,-1.7,18.6,0.2,0.018,0.464,19.0,NBA,185.0,-6.8,10.4,-0.3,6.8,PF,2009,1.1,TOT,19.2,14.6,0.46,20.3,-0.3,-0.1,0.0,-0.033
29.0,2.6,2.6,-8.9,0.0,-2.6,15.1,0.0,0.0,0.733,6.0,NBA,64.0,-6.2,9.2,-0.1,6.6,PF,2009,0.0,NJN,26.1,12.1,0.58,19.6,-0.1,0.0,0.0,-0.026
29.0,2.3,3.6,-8.4,0.0,-1.3,20.4,0.1,0.024,0.366,13.0,NBA,121.0,-7.1,11.0,-0.2,6.8,PF,2009,1.7,PHO,15.9,15.9,0.41,20.6,-0.2,-0.1,0.0,-0.037
