age,ast_per_poss,blk_per_poss,def_rtg,drb_per_poss,fg2_pct,fg2_per_poss,fg2a_per_poss,fg3_pct,fg3_per_poss,fg3a_per_poss,fg_pct,fg_per_poss,fga_per_poss,ft_pct,ft_per_poss,fta_per_poss,g,gs,lg_id,mp,off_rtg,orb_per_poss,pf_per_poss,pos,pts_per_poss,season,stl_per_poss,team_id,tov_per_poss,trb_per_poss
24.0,2.3,4.5,107.0,9.8,0.346,6.8,19.6,0.0,0.0,0.0,0.346,6.8,19.6,0.75,4.5,6.0,4.0,0.0,NBA,74.0,90.0,4.5,4.5,PF,18.1,2004,2.3,MEM,2.3,14.3
25.0,1.1,0.0,125.0,7.6,0.6,13.1,21.8,0.0,0.0,0.0,0.6,13.1,21.8,0.571,4.4,7.6,3.0,0.0,NBA,48.0,123.0,7.6,3.3,PF,30.5,2005,1.1,MEM,2.2,15.3
