age,ast,blk,drb,efg_pct,fg,fg2,fg2_pct,fg2a,fg3,fg3_pct,fg3a,fg_pct,fga,ft,ft_pct,fta,g,gs,lg_id,mp,orb,pf,pos,pts,season,stl,team_id,tov,trb
23.0,68.0,3.0,33.0,0.42,76.0,55.0,0.385,143.0,21.0,0.333,63.0,0.369,206.0,33.0,0.673,49.0,47.0,0.0,NBA,552.0,10.0,57.0,SG,206.0,1993,35.0,MIL,42.0,43.0
24.0,168.0,17.0,110.0,0.455,158.0,126.0,0.472,267.0,32.0,0.278,115.0,0.414,382.0,97.0,0.795,122.0,72.0,7.0,NBA,1242.0,36.0,110.0,SG,445.0,1994,102.0,MIL,83.0,146.0
25.0,85.0,4.0,34.0,0.485,57.0,41.0,0.477,86.0,16.0,0.333,48.0,0.425,134.0,61.0,0.763,80.0,52.0,0.0,NBA,602.0,15.0,54.0,SG,191.0,1995,30.0,MIL,41.0,49.0
26.0,85.0,11.0,46.0,0.611,91.0,47.0,0.511,92.0,44.0,0.473,93.0,0.492,185.0,31.0,0.838,37.0,68.0,0.0,NBA,712.0,17.0,51.0,SG,257.0,1996,33.0,GSW,42.0,63.0
27.0,115.0,3.0,73.0,0.504,100.0,52.0,0.426,122.0,48.0,0.387,124.0,0.407,246.0,37.0,0.804,46.0,58.0,8.0,NBA,965.0,26.0,56.0,SG,285.0,1997,55.0,ATL,59.0,99.0
28.0,51.0,3.0,29.0,0.452,38.0,20.0,0.465,43.0,18.0,0.295,61.0,0.365,104.0,27.0,0.931,29.0,49.0,1.0,NBA,374.0,8.0,33.0,SG,121.0,1998,24.0,LAL,22.0,37.0
29.0,112.0,5.0,71.0,0.514,59.0,35.0,0.593,59.0,24.0,0.304,79.0,0.428,138.0,71.0,0.845,84.0,43.0,0.0,NBA,736.0,25.0,61.0,SG,213.0,1999,53.0,SAC,47.0,96.0
30.0,150.0,7.0,121.0,0.561,161.0,95.0,0.495,192.0,66.0,0.429,154.0,0.465,346.0,107.0,0.922,116.0,62.0,1.0,NBA,1281.0,38.0,104.0,SG,495.0,2000,75.0,SAC,85.0,159.0
31.0,130.0,6.0,78.0,0.494,103.0,57.0,0.463,123.0,46.0,0.348,132.0,0.404,255.0,64.0,0.877,73.0,62.0,2.0,NBA,1010.0,16.0,66.0,SG,316.0,2001,28.0,SAC,53.0,94.0
32.0,274.0,20.0,192.0,0.604,255.0,134.0,0.508,264.0,121.0,0.469,258.0,0.489,522.0,108.0,0.931,116.0,82.0,6.0,NBA,1985.0,42.0,134.0,SG,739.0,2002,94.0,DET,111.0,234.0
33.0,206.0,14.0,147.0,0.553,191.0,104.0,0.495,210.0,87.0,0.407,214.0,0.45,424.0,86.0,0.86,100.0,80.0,0.0,NBA,1473.0,33.0,104.0,SG,555.0,2003,63.0,DET,81.0,180.0
34.0,147.0,8.0,98.0,0.49,120.0,69.0,0.434,159.0,51.0,0.37,138.0,0.404,297.0,60.0,0.845,71.0,57.0,9.0,NBA,1101.0,25.0,66.0,SG,351.0,2004,57.0,DEN,53.0,123.0
35.0,167.0,9.0,133.0,0.534,161.0,90.0,0.443,203.0,71.0,0.43,165.0,0.438,368.0,62.0,0.873,71.0,69.0,2.0,NBA,1505.0,26.0,95.0,SG,455.0,2005,60.0,TOT,67.0,159.0
35.0,28.0,2.0,17.0,0.474,31.0,20.0,0.444,45.0,11.0,0.344,32.0,0.403,77.0,10.0,0.769,13.0,16.0,0.0,NBA,275.0,4.0,28.0,SG,83.0,2005,14.0,ATL,14.0,21.0
35.0,139.0,7.0,116.0,0.55,130.0,70.0,0.443,158.0,60.0,0.451,133.0,0.447,291.0,52.0,0.897,58.0,53.0,2.0,NBA,1230.0,22.0,67.0,SG,372.0,2005,46.0,HOU,53.0,138.0
36.0,26.0,1.0,30.0,0.477,25.0,13.0,0.394,33.0,12.0,0.375,32.0,0.385,65.0,24.0,0.828,29.0,20.0,0.0,NBA,342.0,1.0,25.0,SG,86.0,2006,13.0,HOU,22.0,31.0
