age,ast,blk,drb,efg_pct,fg,fg2,fg2_pct,fg2a,fg3,fg3_pct,fg3a,fg_pct,fga,ft,ft_pct,fta,g,gs,lg_id,mp,orb,pf,pos,pts,season,stl,team_id,tov,trb
27.0,0.0,0.0,0.0,0.0,0.0,0.0,0.0,0.0,0.0,0.0,3.0,0.0,3.0,0.0,0.0,0.0,2.0,0.0,NBA,9.0,0.0,0.0,SG,0.0,1997,0.0,ATL,0.0,0.0
28.0,0.0,0.0,2.0,0.0,0.0,0.0,0.0,3.0,0.0,0.0,5.0,0.0,8.0,0.0,0.0,0.0,7.0,0.0,NBA,18.0,0.0,1.0,SG,0.0,1998,1.0,LAL,0.0,2.0
29.0,9.0,1.0,7.0,0.426,12.0,7.0,0.467,15.0,5.0,0.263,19.0,0.353,34.0,11.0,0.917,12.0,5.0,0.0,NBA,112.0,3.0,9.0,SG,40.0,1999,6.0,SAC,9.0,10.0
30.0,12.0,0.0,10.0,0.595,9.0,2.0,0.222,9.0,7.0,0.583,12.0,0.429,21.0,14.0,0.875,16.0,5.0,0.0,NBA,102.0,2.0,7.0,SG,39.0,2000,3.0,SAC,4.0,12.0
31.0,4.0,0.0,0.0,0.471,7.0,5.0,0.5,10.0,2.0,0.286,7.0,0.412,17.0,0.0,0.0,0.0,7.0,0.0,NBA,55.0,3.0,7.0,SG,16.0,2001,1.0,SAC,3.0,3.0
32.0,21.0,1.0,16.0,0.615,29.0,12.0,0.522,23.0,17.0,0.447,38.0,0.475,61.0,5.0,0.625,8.0,10.0,0.0,NBA,177.0,4.0,14.0,SG,80.0,2002,5.0,DET,19.0,20.0
33.0,20.0,1.0,19.0,0.565,23.0,8.0,0.381,21.0,15.0,0.455,33.0,0.426,54.0,9.0,1.0,9.0,14.0,0.0,NBA,172.0,5.0,14.0,SG,70.0,2003,8.0,DET,7.0,24.0
34.0,10.0,0.0,14.0,0.396,8.0,5.0,0.333,15.0,3.0,0.333,9.0,0.333,24.0,2.0,0.667,3.0,5.0,1.0,NBA,100.0,4.0,4.0,SG,21.0,2004,3.0,DEN,4.0,18.0
35.0,9.0,0.0,28.0,0.552,21.0,10.0,0.4,25.0,11.0,0.478,23.0,0.438,48.0,7.0,0.875,8.0,7.0,0.0,NBA,183.0,1.0,13.0,SG,60.0,2005,5.0,HOU,6.0,29.0
