age,ast_per_poss,blk_per_poss,def_rtg,drb_per_poss,fg2_pct,fg2_per_poss,fg2a_per_poss,fg3_pct,fg3_per_poss,fg3a_per_poss,fg_pct,fg_per_poss,fga_per_poss,ft_pct,ft_per_poss,fta_per_poss,g,gs,lg_id,mp,off_rtg,orb_per_poss,pf_per_poss,pos,pts_per_poss,season,stl_per_poss,team_id,tov_per_poss,trb_per_poss
21.0,1.5,2.8,99.0,11.0,0.514,6.7,13.1,0.0,0.0,0.0,0.512,6.7,13.1,0.65,4.1,6.3,71.0,3.0,NBA,987.0,101.0,6.1,8.5,C,17.5,1983,1.8,KCK,4.4,17.1
22.0,2.1,3.5,102.0,10.9,0.523,8.1,15.5,0.0,0.0,0.0,0.523,8.1,15.5,0.717,3.9,5.4,80.0,38.0,NBA,1915.0,106.0,6.3,8.0,C,20.1,1984,1.7,KCK,4.1,17.3
23.0,2.4,2.4,106.0,10.8,0.531,6.9,13.0,0.0,0.0,0.0,0.531,6.9,13.0,0.721,4.2,5.9,82.0,77.0,NBA,2458.0,108.0,5.1,6.1,C,18.0,1985,1.8,KCK,3.8,16.0
24.0,3.3,2.2,105.0,10.3,0.518,8.1,15.7,0.0,0.0,0.0,0.518,8.1,15.7,0.732,4.0,5.5,80.0,64.0,NBA,2377.0,108.0,5.0,5.8,C,20.3,1986,1.4,SAC,3.6,15.2
25.0,2.7,2.8,107.0,9.8,0.485,7.9,16.3,0.0,0.0,0.1,0.481,7.9,16.4,0.737,4.1,5.6,82.0,53.0,NBA,2166.0,108.0,5.2,6.3,C,19.9,1987,1.5,SAC,3.1,15.0
26.0,2.6,2.8,106.0,10.9,0.472,8.1,17.1,0.4,0.1,0.2,0.471,8.1,17.3,0.72,4.5,6.2,69.0,9.0,NBA,1257.0,101.0,5.2,8.2,C,20.8,1988,2.0,SAC,4.1,16.2
27.0,1.7,1.9,106.0,10.2,0.49,8.6,17.5,0.0,0.0,0.0,0.489,8.6,17.5,0.808,4.7,5.8,76.0,71.0,NBA,2329.0,104.0,4.6,5.9,C,21.8,1989,1.6,TOT,3.7,14.8
27.0,1.6,2.1,106.0,10.2,0.462,9.2,20.0,0.0,0.0,0.0,0.461,9.2,20.1,0.809,5.7,7.0,43.0,42.0,NBA,1276.0,100.0,4.5,5.7,C,24.2,1989,1.7,SAC,4.4,14.7
27.0,1.7,1.8,107.0,10.2,0.538,7.8,14.4,0.0,0.0,0.0,0.538,7.8,14.4,0.806,3.4,4.3,33.0,29.0,NBA,1053.0,113.0,4.8,6.1,C,19.0,1989,1.5,IND,2.8,15.0
28.0,2.5,1.7,107.0,10.6,0.476,5.2,10.8,0.2,0.0,0.1,0.473,5.2,11.0,0.799,2.5,3.1,82.0,60.0,NBA,2126.0,99.0,4.1,7.3,C,12.9,1990,1.5,IND,3.5,14.7
29.0,3.6,1.6,108.0,10.2,0.491,6.8,13.9,0.2,0.0,0.1,0.488,6.9,14.0,0.692,1.8,2.6,82.0,77.0,NBA,1946.0,96.0,3.8,6.6,C,15.5,1991,1.6,IND,4.2,14.0
30.0,3.8,1.3,106.0,10.6,0.471,6.3,13.3,0.0,0.0,0.1,0.468,6.3,13.4,0.817,2.2,2.7,80.0,49.0,NBA,1299.0,98.0,3.7,7.7,C,14.7,1992,1.9,IND,3.7,14.2
31.0,2.3,1.6,107.0,8.4,0.491,7.1,14.5,0.0,0.0,0.1,0.488,7.1,14.6,0.744,2.0,2.7,63.0,0.0,NBA,730.0,100.0,3.8,9.4,C,16.2,1993,2.0,IND,3.2,12.2
32.0,2.9,1.5,101.0,8.9,0.351,4.9,14.1,0.0,0.0,0.0,0.351,4.9,14.1,0.533,2.9,5.5,30.0,1.0,NBA,282.0,82.0,4.7,10.8,C,12.8,1994,1.8,IND,4.2,13.7
33.0,2.1,1.2,104.0,7.2,0.415,5.8,13.9,0.0,0.0,0.0,0.415,5.8,13.9,0.875,1.6,1.9,38.0,3.0,NBA,453.0,86.0,3.3,8.9,C,13.2,1995,2.1,IND,3.9,10.5
34.0,1.8,1.3,111.0,9.2,0.398,2.2,5.6,0.0,0.0,0.0,0.398,2.2,5.6,0.792,1.3,1.6,44.0,11.0,NBA,773.0,92.0,4.2,8.4,C,5.7,1996,1.3,PHI,2.5,13.4
35.0,0.7,2.2,106.0,10.1,0.158,1.1,7.1,0.0,0.0,0.0,0.158,1.1,7.1,0.667,1.5,2.2,26.0,0.0,NBA,140.0,51.0,2.6,12.4,C,3.7,1997,1.1,TOT,3.4,12.7
35.0,0.0,3.0,106.0,10.4,0.188,1.5,7.9,0.0,0.0,0.0,0.188,1.5,7.9,0.5,0.5,1.0,17.0,0.0,NBA,105.0,44.0,2.5,12.9,C,3.5,1997,1.5,DEN,3.5,12.9
35.0,3.1,0.0,107.0,9.2,0.0,0.0,4.6,0.0,0.0,0.0,0.0,0.0,4.6,0.75,4.6,6.2,9.0,0.0,NBA,35.0,76.0,3.1,10.8,C,4.6,1997,0.0,IND,3.1,12.3
