age,ast_per_mp,blk_per_mp,drb_per_mp,fg2_pct,fg2_per_mp,fg2a_per_mp,fg3_pct,fg3_per_mp,fg3a_per_mp,fg_pct,fg_per_mp,fga_per_mp,ft_pct,ft_per_mp,fta_per_mp,g,gs,lg_id,mp,orb_per_mp,pf_per_mp,pos,pts_per_mp,season,stl_per_mp,team_id,tov_per_mp,trb_per_mp
22.0,1.5,1.5,7.4,0.45,7.0,15.5,0.0,0.0,0.0,0.45,7.0,15.5,0.818,3.5,4.3,3.0,0.0,NBA,93.0,4.3,5.4,C,17.4,1984,1.2,KCK,1.9,11.6
24.0,0.7,2.2,7.6,0.344,4.0,11.6,0.0,0.0,0.0,0.344,4.0,11.6,0.583,2.5,4.4,3.0,3.0,NBA,99.0,5.1,2.9,C,10.5,1986,0.7,SAC,1.5,12.7
28.0,1.3,0.7,6.0,0.467,4.7,10.0,0.0,0.0,0.0,0.467,4.7,10.0,1.0,2.7,2.7,3.0,0.0,NBA,54.0,4.0,8.7,C,12.0,1990,0.0,IND,4.7,10.0
29.0,2.3,2.0,7.1,0.487,5.4,11.1,0.0,0.0,0.0,0.487,5.4,11.1,1.0,2.0,2.0,5.0,5.0,NBA,126.0,1.7,4.3,C,12.9,1991,1.1,IND,2.9,8.9
30.0,2.3,2.3,6.3,0.636,4.0,6.3,0.0,0.0,0.0,0.636,4.0,6.3,1.0,1.1,1.1,3.0,3.0,NBA,63.0,1.1,6.3,C,9.1,1992,0.6,IND,1.7,7.4
31.0,1.5,1.0,3.5,0.333,2.5,7.4,0.0,0.0,0.0,0.333,2.5,7.4,0.833,2.5,3.0,4.0,0.0,NBA,73.0,3.5,4.4,C,7.4,1993,1.5,IND,2.0,6.9
32.0,4.6,0.9,6.5,0.364,3.7,10.2,0.0,0.0,0.0,0.364,3.7,10.2,0.667,1.8,2.8,7.0,0.0,NBA,39.0,2.8,8.3,C,9.2,1994,2.8,IND,3.7,9.2
