age,ast_per_g,blk_per_g,drb_per_g,efg_pct,fg2_pct,fg2_per_g,fg2a_per_g,fg3_pct,fg3_per_g,fg3a_per_g,fg_pct,fg_per_g,fga_per_g,ft_pct,ft_per_g,fta_per_g,g,gs,lg_id,mp_per_g,orb_per_g,pf_per_g,pos,pts_per_g,season,stl_per_g,team_id,tov_per_g,trb_per_g
23.0,1.0,1.5,4.3,0.502,0.503,4.6,9.2,0.2,0.0,0.1,0.501,4.6,9.2,0.604,2.4,4.0,82.0,45.0,NBA,24.2,2.0,2.8,PF,11.7,1988,0.7,SAS,1.7,6.3
24.0,0.7,1.3,5.1,0.503,0.505,5.6,11.1,0.0,0.0,0.0,0.503,5.6,11.1,0.514,2.5,4.9,82.0,56.0,NBA,29.3,3.1,2.7,PF,13.7,1989,1.2,SAS,2.2,8.2
25.0,0.4,0.9,4.4,0.507,0.507,3.7,7.2,0.0,0.0,0.0,0.507,3.7,7.2,0.535,1.5,2.8,60.0,28.0,NBA,21.5,1.9,2.9,PF,8.8,1990,0.5,MIL,1.3,6.2
26.0,0.2,0.7,3.3,0.43,0.431,1.7,4.0,0.0,0.0,0.0,0.43,1.7,4.0,0.522,0.9,1.7,68.0,2.0,NBA,13.6,1.4,2.1,PF,4.3,1991,0.5,TOT,1.2,4.7
26.0,0.1,0.3,1.9,0.37,0.375,1.0,2.8,0.0,0.0,0.0,0.37,1.0,2.8,0.571,0.6,1.1,26.0,0.0,NBA,9.5,1.0,1.1,PF,2.7,1991,0.3,MIL,0.8,2.9
26.0,1.0,0.0,2.0,1.0,1.0,4.0,4.0,0.0,0.0,0.0,1.0,4.0,4.0,0.0,0.0,0.0,1.0,0.0,NBA,18.0,4.0,4.0,PF,8.0,1991,2.0,NJN,1.0,6.0
26.0,0.3,0.9,4.1,0.44,0.44,2.1,4.7,0.0,0.0,0.0,0.44,2.1,4.7,0.506,1.1,2.1,41.0,2.0,NBA,16.1,1.6,2.6,PF,5.2,1991,0.6,DEN,1.5,5.8
27.0,1.0,0.8,7.4,0.456,0.458,4.7,10.4,0.0,0.0,0.0,0.456,4.7,10.4,0.623,2.0,3.3,82.0,82.0,NBA,34.1,4.1,3.2,PF,11.5,1992,1.1,DEN,2.5,11.5
29.0,0.7,0.9,5.0,0.545,0.545,2.6,4.8,0.333,0.0,0.0,0.543,2.6,4.8,0.571,1.1,2.0,77.0,47.0,NBA,21.1,2.4,3.0,PF,6.4,1994,0.7,DET,1.2,7.4
30.0,0.3,0.6,2.5,0.548,0.548,1.1,2.0,0.0,0.0,0.0,0.548,1.1,2.0,0.479,0.7,1.4,51.0,0.0,NBA,12.2,1.2,2.0,PF,2.9,1995,0.5,ATL,0.6,3.7
31.0,0.2,0.5,1.5,0.511,0.522,0.5,1.0,0.0,0.0,0.0,0.511,0.5,1.0,0.24,0.1,0.5,46.0,7.0,NBA,7.5,0.6,1.4,PF,1.2,1996,0.2,SAS,0.5,2.2
32.0,0.4,0.8,3.5,0.496,0.498,1.6,3.2,0.0,0.0,0.0,0.496,1.6,3.2,0.667,0.8,1.1,82.0,48.0,NBA,20.2,1.9,2.7,C,3.9,1997,0.8,SAS,0.9,5.5
33.0,0.3,0.2,1.6,0.444,0.474,0.7,1.5,0.0,0.0,0.1,0.444,0.7,1.6,0.39,0.3,0.8,50.0,0.0,NBA,8.0,0.8,1.7,C,1.8,1998,0.4,ATL,0.3,2.4
