age,ast_per_poss,blk_per_poss,def_rtg,drb_per_poss,fg2_pct,fg2_per_poss,fg2a_per_poss,fg3_pct,fg3_per_poss,fg3a_per_poss,fg_pct,fg_per_poss,fga_per_poss,ft_pct,ft_per_poss,fta_per_poss,g,gs,lg_id,mp,off_rtg,orb_per_poss,pf_per_poss,pos,pts_per_poss,season,stl_per_poss,team_id,tov_per_poss,trb_per_poss
22.0,11.4,0.0,108.0,4.0,0.452,7.0,15.4,0.0,0.0,0.0,0.452,7.0,15.4,0.8,1.5,1.8,7.0,0.0,NBA,134.0,113.0,1.1,4.8,PG,15.4,1983,2.6,POR,1.5,5.1
23.0,5.9,0.0,115.0,3.3,0.222,3.9,17.7,0.667,1.3,2.0,0.267,5.3,19.7,0.8,5.3,6.6,5.0,0.0,NBA,75.0,101.0,6.6,3.9,PG,17.1,1984,2.6,POR,2.0,9.9
24.0,12.0,0.3,107.0,6.2,0.408,6.3,15.5,0.0,0.0,0.3,0.402,6.3,15.8,0.762,6.2,8.1,11.0,8.0,NBA,342.0,106.0,3.0,4.3,PG,18.9,1985,3.4,DEN,4.4,9.2
25.0,7.1,0.3,110.0,4.4,0.436,6.9,15.8,0.571,1.1,1.9,0.45,7.9,17.7,0.708,2.3,3.2,10.0,10.0,NBA,347.0,105.0,2.0,4.4,PG,19.3,1986,2.7,DEN,3.1,6.5
26.0,9.8,0.0,122.0,5.8,0.405,7.6,18.8,0.25,0.9,3.6,0.38,8.5,22.3,0.667,2.7,4.0,3.0,3.0,NBA,99.0,104.0,2.2,3.1,PG,20.5,1987,3.1,DEN,0.9,8.0
27.0,8.7,0.7,110.0,8.7,0.462,7.4,16.1,0.429,0.5,1.2,0.459,8.0,17.4,0.788,4.6,5.8,7.0,7.0,NBA,273.0,127.0,2.8,2.7,SG,21.1,1988,2.3,DEN,0.7,11.5
28.0,14.6,0.0,109.0,8.5,0.333,5.4,16.2,0.667,1.5,2.3,0.375,6.9,18.5,1.0,1.5,1.5,2.0,2.0,NBA,58.0,97.0,1.5,3.1,SG,16.9,1989,3.1,DEN,4.6,10.0
29.0,8.2,0.4,112.0,8.2,0.409,7.0,17.2,0.143,0.4,2.7,0.373,7.4,19.9,0.929,5.1,5.5,3.0,3.0,NBA,113.0,106.0,4.3,2.7,SG,20.3,1990,3.1,DEN,2.0,12.5
