age,ast,blk,fg,fg3,fg3_pct,fg3a,fg_pct,fga,ft,ft_pct,fta,g,gs,lg_id,mp,orb,pf,pos,pts,season,stl,team_id,tov,trb
27.0,3.0,0.0,7.0,0.0,0.0,0.0,0.5,14.0,3.0,0.75,4.0,1.0,1.0,NBA,32,0.0,4.0,SG,17.0,1988,0.0,DEN,0.0,4.0
29.0,2.0,0.0,7.0,0.0,0.0,2.0,0.538,13.0,2.0,1.0,2.0,1.0,0.0,NBA,23,0.0,0.0,SG,16.0,1990,2.0,DEN,0.0,3.0
