age,ast_pct,blk_pct,bpm,bpm-dum,dbpm,drb_pct,dws,fg3a_per_fga_pct,fta_per_fga_pct,g,lg_id,mp,obpm,orb_pct,ows,per,pos,season,stl_pct,team_id,tov_pct,trb_pct,ts_pct,usg_pct,vorp,ws,ws-dum,ws_per_48
23.0,9.6,2.1,-3.9,0.0,1.2,19.2,0.8,0.015,0.377,46.0,NBA,705.0,-5.1,10.3,-0.9,9.6,C-PF,2005,1.9,TOT,21.6,14.6,0.457,19.4,-0.3,-0.1,0.0,-0.006
23.0,16.6,2.3,-3.2,0.0,2.1,14.3,0.1,0.0,0.438,10.0,NBA,57.0,-5.3,9.9,-0.1,8.2,PF,2005,2.6,PHO,26.8,12.2,0.419,20.0,0.0,0.0,0.0,-0.021
23.0,9.0,2.1,-4.0,0.0,1.2,19.6,0.8,0.016,0.372,36.0,NBA,648.0,-5.1,10.4,-0.8,9.7,C,2005,1.9,NOH,21.1,14.8,0.46,19.4,-0.3,-0.1,0.0,-0.005
24.0,4.2,2.2,-3.9,0.0,1.1,16.0,0.4,0.0,0.667,41.0,NBA,406.0,-5.1,9.4,-0.3,5.9,PF,2006,1.6,NOK,19.7,12.6,0.428,12.2,-0.2,0.1,0.0,0.014
