age,ast,ast_per_g,blk,college_id,fg,fg3,fg3_pct,fg3a,fg_pct,fga,ft,ft_pct,fta,g,mp,mp_per_g,orb,pf,pts,pts_per_g,season,stl,tov,trb,trb_per_g
21.0,56.0,1.8,48.0,IOWAST,155.0,0.0,0.0,6.0,0.552,281.0,79.0,0.516,153.0,31.0,947.0,30.5,0.0,0.0,389.0,12.5,2003,31.0,0.0,291.0,9.4
22.0,75.0,2.3,22.0,IOWAST,186.0,1.0,0.143,7.0,0.564,330.0,72.0,0.507,142.0,32.0,983.0,30.7,0.0,0.0,445.0,13.9,2004,46.0,0.0,307.0,9.6
