age,ast_per_poss,blk_per_poss,def_rtg,drb_per_poss,fg2_pct,fg2_per_poss,fg2a_per_poss,fg3_pct,fg3_per_poss,fg3a_per_poss,fg_pct,fg_per_poss,fga_per_poss,ft_pct,ft_per_poss,fta_per_poss,g,gs,lg_id,mp,off_rtg,orb_per_poss,pf_per_poss,pos,pts_per_poss,season,stl_per_poss,team_id,tov_per_poss,trb_per_poss
23.0,3.1,1.5,105.0,8.6,0.418,6.3,15.1,0.0,0.0,0.2,0.412,6.3,15.4,0.64,3.7,5.8,46.0,18.0,NBA,705.0,87.0,4.9,8.1,C-PF,16.4,2005,1.9,TOT,4.9,13.5
23.0,6.1,1.8,104.0,7.0,0.375,5.3,14.0,0.0,0.0,0.0,0.375,5.3,14.0,0.571,3.5,6.1,10.0,1.0,NBA,57.0,84.0,4.4,9.7,PF,14.0,2005,2.6,PHO,6.1,11.4
23.0,2.8,1.4,105.0,8.7,0.422,6.4,15.2,0.0,0.0,0.3,0.415,6.4,15.5,0.647,3.7,5.8,36.0,17.0,NBA,648.0,87.0,5.0,8.0,C,16.6,2005,1.9,NOH,4.8,13.7
24.0,1.5,1.5,106.0,7.0,0.394,3.5,8.8,0.0,0.0,0.0,0.394,3.5,8.8,0.477,2.8,5.8,41.0,2.0,NBA,406.0,88.0,4.4,10.4,PF,9.7,2006,1.6,NOK,2.8,11.4
