age,ast_per_poss,blk_per_poss,def_rtg,drb_per_poss,fg2_pct,fg2_per_poss,fg2a_per_poss,fg3_pct,fg3_per_poss,fg3a_per_poss,fg_pct,fg_per_poss,fga_per_poss,ft_pct,ft_per_poss,fta_per_poss,g,gs,lg_id,mp,off_rtg,orb_per_poss,pf_per_poss,pos,pts_per_poss,season,stl_per_poss,team_id,tov_per_poss,trb_per_poss
24.0,2.8,0.6,102.0,6.7,0.412,7.8,18.9,0.25,1.7,6.7,0.37,9.5,25.6,0.6,1.7,2.8,8.0,0.0,NBA,95.0,92.0,7.8,5.6,SG,22.3,2000,0.6,SAS,3.3,14.5
25.0,5.4,1.6,99.0,6.7,0.466,8.8,18.9,0.2,0.5,2.6,0.434,9.3,21.5,0.571,3.1,5.4,33.0,0.0,NBA,207.0,97.0,3.1,5.7,SG,22.3,2001,1.0,SAS,3.1,9.8
26.0,6.2,0.7,101.0,7.4,0.367,7.0,19.2,0.091,0.2,1.9,0.342,7.2,21.1,0.75,3.2,4.2,32.0,0.0,NBA,299.0,88.0,2.5,2.3,SG,17.8,2002,1.8,TOT,2.8,9.8
26.0,6.5,0.8,101.0,6.9,0.345,6.3,18.3,0.0,0.0,1.5,0.319,6.3,19.7,0.722,2.7,3.8,25.0,0.0,NBA,249.0,85.0,2.5,2.5,SG,15.3,2002,1.7,NJN,2.7,9.4
26.0,4.3,0.0,102.0,9.7,0.455,10.8,23.8,0.25,1.1,4.3,0.423,11.9,28.1,0.833,5.4,6.5,7.0,0.0,NBA,50.0,101.0,2.2,1.1,SG,30.3,2002,2.2,TOR,3.2,11.9
28.0,1.2,0.0,108.0,4.9,0.368,4.3,11.7,0.222,1.2,5.5,0.321,5.5,17.2,0.75,3.7,4.9,9.0,0.0,NBA,86.0,98.0,3.1,3.7,SG,16.0,2004,3.7,ORL,0.6,8.0
