age,and1s,astd_pts,drawn_offensive,drawn_shooting,fouls_offensive,fouls_shooting,g,lg_id,mp,own_shots_blk,pct_1,pct_2,pct_3,pct_4,pct_5,plus_minus_net,plus_minus_on,pos,season,team_id,tov_bad_pass,tov_lost_ball
25.0,1.0,49.0,0.0,7.0,2.0,5.0,33.0,NBA,207.0,6.0,0.0,63.0,34.0,4.0,0.0,0.5,9.4,SG,2001,SAS,5.0,3.0
26.0,6.0,75.0,0.0,11.0,4.0,6.0,32.0,NBA,299.0,8.0,88.0,12.0,0.0,0.0,0.0,3.2,5.1,SG,2002,TOT,5.0,5.0
26.0,6.0,66.0,0.0,9.0,3.0,6.0,25.0,NBA,249.0,7.0,96.0,4.0,0.0,0.0,0.0,-3.9,0.7,SG,2002,NJN,4.0,4.0
26.0,0.0,9.0,0.0,2.0,1.0,0.0,7.0,NBA,50.0,1.0,49.0,51.0,0.0,0.0,0.0,27.6,26.7,SG,2002,TOR,1.0,1.0
28.0,0.0,4.0,0.0,1.0,0.0,3.0,9.0,NBA,86.0,2.0,44.0,56.0,0.0,0.0,0.0,16.7,8.5,SG,2004,ORL,1.0,0.0
