age,ast,ast_per_g,blk,college_id,fg,fg3,fg3_pct,fg3a,fg_pct,fga,ft,ft_pct,fta,g,mp,mp_per_g,orb,pf,pts,pts_per_g,season,stl,tov,trb,trb_per_g
19.0,51.0,1.5,3.0,NOTREDAME,43.0,29.0,0.439,66.0,0.478,90.0,16.0,0.8,20.0,34.0,521.0,15.3,0.0,0.0,131.0,3.9,2003,28.0,0.0,53.0,1.6
20.0,104.0,3.3,5.0,NOTREDAME,153.0,74.0,0.379,195.0,0.432,354.0,77.0,0.802,96.0,32.0,1145.0,35.8,0.0,0.0,457.0,14.3,2004,47.0,0.0,95.0,3.0
21.0,86.0,3.1,5.0,NOTREDAME,120.0,66.0,0.455,145.0,0.449,267.0,47.0,0.783,60.0,28.0,987.0,35.3,0.0,0.0,353.0,12.6,2005,35.0,0.0,77.0,2.8
22.0,187.0,6.4,3.0,NOTREDAME,174.0,70.0,0.419,167.0,0.45,387.0,95.0,0.872,109.0,29.0,1160.0,40.0,0.0,0.0,513.0,17.7,2006,45.0,0.0,109.0,3.8
