age,avg_dist,fg2_dunk,fg2_pct,fg2_pct_ast,fg2a_pct_fga,fg3_heave,fg3_pct,fg3_pct_ast,fg3_pct_corner,fg3a_heave,fg3a_pct_fga,fg_pct,fg_pct_00_03,fg_pct_03_10,fg_pct_10_16,fg_pct_16_xx,g,lg_id,mp,pct_fg2_dunk,pct_fg3a_corner,pct_fga_00_03,pct_fga_03_10,pct_fga_10_16,pct_fga_16_xx,pos,season,team_id
23.0,16.8,0.0,0.378,0.179,0.565,0.0,0.351,0.75,0.333,1.0,0.435,0.366,0.273,0.588,0.125,0.407,42.0,NBA,408.0,0.0,0.053,0.168,0.13,0.061,0.206,PG,2007,MIA
24.0,17.4,0.0,0.439,0.298,0.574,0.0,0.403,0.734,0.593,1.0,0.426,0.424,0.452,0.409,0.375,0.459,60.0,NBA,1340.0,0.0,0.17,0.166,0.059,0.086,0.263,PG,2008,MIA
25.0,17.9,0.0,0.408,0.339,0.526,0.0,0.409,0.821,0.429,0.0,0.474,0.408,0.395,0.333,0.5,0.409,66.0,NBA,962.0,0.0,0.204,0.131,0.083,0.083,0.228,PG,2009,MIA
26.0,18.7,0.0,0.417,0.3,0.429,0.0,0.313,0.8,0.3,0.0,0.571,0.357,0.6,0.5,0.6,0.125,25.0,NBA,223.0,0.0,0.313,0.089,0.107,0.089,0.143,PG,2010,NJN
27.0,17.7,0.0,0.407,0.5,0.593,0.0,0.297,0.818,0.4,1.0,0.407,0.363,0.571,0.438,0.5,0.263,41.0,NBA,292.0,0.0,0.405,0.077,0.176,0.132,0.209,PG,2011,SAS
29.0,17.1,0.0,0.364,0.5,0.688,0.0,0.0,0.0,0.0,0.0,0.313,0.25,0.5,1.0,0.25,0.25,7.0,NBA,78.0,0.0,0.2,0.125,0.063,0.25,0.25,SG,2013,CLE
