age,ast_per_mp,blk_per_mp,drb_per_mp,fg2_pct,fg2_per_mp,fg2a_per_mp,fg3_pct,fg3_per_mp,fg3a_per_mp,fg_pct,fg_per_mp,fga_per_mp,ft_pct,ft_per_mp,fta_per_mp,g,gs,lg_id,mp,orb_per_mp,pf_per_mp,pos,pts_per_mp,season,stl_per_mp,team_id,tov_per_mp,trb_per_mp
21.0,1.4,2.0,2.7,0.333,2.0,6.1,0.0,0.0,0.0,0.333,2.0,6.1,0.5,1.4,2.7,4.0,0.0,NBA,53.0,3.4,2.0,C,5.4,2014,0.0,CHA,1.4,6.1
23.0,0.5,0.8,7.4,0.553,5.5,10.0,0.0,0.0,0.0,0.553,5.5,10.0,0.81,4.5,5.5,7.0,2.0,NBA,137.0,2.4,5.3,C,15.5,2016,0.3,CHO,1.8,9.7
