age,ast,blk,drb,efg_pct,fg,fg2,fg2_pct,fg2a,fg3,fg3_pct,fg3a,fg_pct,fga,ft,ft_pct,fta,g,gs,lg_id,mp,orb,pf,pos,pts,season,stl,team_id,tov,trb
20.0,52.0,22.0,214.0,0.445,186.0,170.0,0.443,384.0,16.0,0.308,52.0,0.427,436.0,48.0,0.727,66.0,62.0,4.0,NBA,1102.0,123.0,100.0,PF,436.0,2016,25.0,CHI,54.0,337.0
21.0,35.0,11.0,221.0,0.531,183.0,151.0,0.541,279.0,32.0,0.333,96.0,0.488,375.0,39.0,0.661,59.0,64.0,13.0,NBA,1000.0,75.0,94.0,PF,437.0,2017,16.0,CHI,37.0,296.0
22.0,123.0,23.0,339.0,0.52,382.0,302.0,0.514,588.0,80.0,0.359,223.0,0.471,811.0,120.0,0.769,156.0,73.0,4.0,NBA,1643.0,159.0,130.0,PF,964.0,2018,50.0,CHI,103.0,498.0
23.0,72.0,20.0,294.0,0.504,279.0,204.0,0.467,437.0,75.0,0.393,191.0,0.444,628.0,77.0,0.794,97.0,50.0,28.0,NBA,1299.0,109.0,145.0,PF,710.0,2019,35.0,TOT,74.0,403.0
23.0,29.0,8.0,115.0,0.5,122.0,95.0,0.477,199.0,27.0,0.375,72.0,0.45,271.0,39.0,0.78,50.0,22.0,6.0,NBA,531.0,46.0,61.0,PF,310.0,2019,11.0,CHI,29.0,161.0
23.0,43.0,12.0,179.0,0.507,157.0,109.0,0.458,238.0,48.0,0.403,119.0,0.44,357.0,38.0,0.809,47.0,28.0,22.0,NBA,768.0,63.0,84.0,PF,400.0,2019,24.0,WAS,45.0,242.0
24.0,16.0,4.0,61.0,0.432,45.0,34.0,0.405,84.0,11.0,0.333,33.0,0.385,117.0,10.0,0.714,14.0,12.0,2.0,NBA,279.0,29.0,22.0,C,111.0,2020,9.0,NYK,11.0,90.0
