age,ast_per_mp,blk_per_mp,drb_per_mp,fg2_pct,fg2_per_mp,fg2a_per_mp,fg3_pct,fg3_per_mp,fg3a_per_mp,fg_pct,fg_per_mp,fga_per_mp,ft_pct,ft_per_mp,fta_per_mp,g,gs,lg_id,mp,orb_per_mp,pf_per_mp,pos,pts_per_mp,season,stl_per_mp,team_id,tov_per_mp,trb_per_mp
20.0,1.7,0.7,7.0,0.443,5.6,12.5,0.308,0.5,1.7,0.427,6.1,14.2,0.727,1.6,2.2,62.0,4.0,NBA,1102.0,4.0,3.3,PF,14.2,2016,0.8,CHI,1.8,11.0
21.0,1.3,0.4,8.0,0.541,5.4,10.0,0.333,1.2,3.5,0.488,6.6,13.5,0.661,1.4,2.1,64.0,13.0,NBA,1000.0,2.7,3.4,PF,15.7,2017,0.6,CHI,1.3,10.7
22.0,2.7,0.5,7.4,0.514,6.6,12.9,0.359,1.8,4.9,0.471,8.4,17.8,0.769,2.6,3.4,73.0,4.0,NBA,1643.0,3.5,2.8,PF,21.1,2018,1.1,CHI,2.3,10.9
23.0,2.0,0.6,8.1,0.467,5.7,12.1,0.393,2.1,5.3,0.444,7.7,17.4,0.794,2.1,2.7,50.0,28.0,NBA,1299.0,3.0,4.0,PF,19.7,2019,1.0,TOT,2.1,11.2
23.0,2.0,0.5,7.8,0.477,6.4,13.5,0.375,1.8,4.9,0.45,8.3,18.4,0.78,2.6,3.4,22.0,6.0,NBA,531.0,3.1,4.1,PF,21.0,2019,0.7,CHI,2.0,10.9
23.0,2.0,0.6,8.4,0.458,5.1,11.2,0.403,2.3,5.6,0.44,7.4,16.7,0.809,1.8,2.2,28.0,22.0,NBA,768.0,3.0,3.9,PF,18.7,2019,1.1,WAS,2.1,11.3
24.0,2.1,0.5,7.9,0.405,4.4,10.8,0.333,1.4,4.3,0.385,5.8,15.1,0.714,1.3,1.8,12.0,2.0,NBA,279.0,3.7,2.8,C,14.3,2020,1.2,NYK,1.4,11.6
