age,and1s,astd_pts,drawn_offensive,drawn_shooting,fouls_offensive,fouls_shooting,g,lg_id,mp,own_shots_blk,pct_1,pct_2,pct_3,pct_4,pct_5,plus_minus_net,plus_minus_on,pos,season,team_id,tov_bad_pass,tov_lost_ball
21.0,19.0,83.0,2.0,65.0,7.0,127.0,65.0,NBA,1602.0,35.0,0.0,0.0,1.0,56.0,43.0,-5.5,-10.1,PF,2011,TOR,18.0,11.0
22.0,12.0,135.0,2.0,51.0,14.0,81.0,66.0,NBA,1534.0,20.0,0.0,0.0,0.0,44.0,56.0,-8.2,-8.0,PF,2012,TOR,19.0,24.0
23.0,19.0,147.0,2.0,86.0,21.0,96.0,81.0,NBA,1631.0,37.0,0.0,0.0,0.0,36.0,64.0,-2.7,-0.6,C-PF,2013,TOT,10.0,19.0
23.0,14.0,130.0,2.0,55.0,15.0,57.0,45.0,NBA,1087.0,22.0,0.0,0.0,0.0,32.0,68.0,-4.2,-4.7,C,2013,TOR,7.0,13.0
23.0,5.0,17.0,0.0,31.0,6.0,39.0,36.0,NBA,544.0,15.0,0.0,0.0,0.0,44.0,56.0,3.2,7.5,PF,2013,MEM,3.0,6.0
24.0,11.0,59.0,1.0,47.0,11.0,59.0,63.0,NBA,956.0,25.0,0.0,0.0,0.0,49.0,51.0,2.7,4.1,PF,2014,MEM,8.0,15.0
25.0,25.0,218.0,2.0,100.0,11.0,122.0,79.0,NBA,1840.0,51.0,0.0,0.0,9.0,67.0,24.0,-0.1,-7.2,PF,2015,LAL,12.0,26.0
26.0,26.0,208.0,6.0,96.0,19.0,115.0,81.0,NBA,1684.0,25.0,0.0,0.0,0.0,55.0,45.0,0.8,1.3,PF,2016,POR,13.0,23.0
27.0,3.0,62.0,3.0,29.0,12.0,82.0,46.0,NBA,789.0,21.0,0.0,0.0,0.0,57.0,43.0,-7.6,-6.4,PF,2017,POR,9.0,12.0
28.0,15.0,104.0,5.0,58.0,24.0,110.0,78.0,NBA,1471.0,30.0,0.0,0.0,0.0,57.0,43.0,2.1,4.2,C,2018,POR,11.0,19.0
29.0,16.0,156.0,5.0,79.0,27.0,120.0,81.0,NBA,1446.0,24.0,0.0,0.0,0.0,0.0,100.0,6.7,4.2,C,2019,BRK,13.0,15.0
30.0,0.0,2.0,0.0,1.0,2.0,8.0,6.0,NBA,73.0,1.0,0.0,0.0,0.0,0.0,100.0,-5.0,0.1,C,2020,UTA,2.0,1.0
