age,ast_per_g,blk_per_g,drb_per_g,efg_pct,fg2_pct,fg2_per_g,fg2a_per_g,fg3_pct,fg3_per_g,fg3a_per_g,fg_pct,fg_per_g,fga_per_g,ft_pct,ft_per_g,fta_per_g,g,gs,lg_id,mp_per_g,orb_per_g,pf_per_g,pos,pts_per_g,season,stl_per_g,team_id,tov_per_g,trb_per_g
25.0,1.3,0.2,2.4,0.492,0.498,1.9,3.9,0.0,0.0,0.1,0.492,1.9,3.9,0.669,1.1,1.6,78.0,9.0,NBA,14.3,1.0,2.2,C,4.9,1985,0.4,SEA,1.3,3.3
26.0,0.5,0.2,1.0,0.517,0.517,0.8,1.5,0.0,0.0,0.0,0.517,0.8,1.5,0.667,0.5,0.7,40.0,2.0,NBA,7.8,0.4,1.9,C,2.0,1986,0.3,SEA,0.6,1.4
27.0,0.4,0.1,1.5,0.508,0.525,1.4,2.7,0.0,0.0,0.1,0.508,1.4,2.8,0.714,1.1,1.6,44.0,0.0,NBA,11.1,1.1,2.7,PF-C,4.0,1987,0.5,TOT,0.7,2.6
27.0,0.3,0.1,1.5,0.564,0.564,1.4,2.5,0.0,0.0,0.0,0.564,1.4,2.5,0.678,1.1,1.6,37.0,0.0,NBA,10.9,1.1,2.8,PF,3.9,1987,0.4,LAL,0.7,2.6
27.0,0.7,0.3,1.6,0.333,0.385,1.4,3.7,0.0,0.0,0.6,0.333,1.4,4.3,0.909,1.4,1.6,7.0,0.0,NBA,11.9,1.1,1.9,C,4.3,1987,0.9,SAS,1.0,2.7
28.0,3.8,0.5,4.5,0.529,0.53,6.1,11.4,0.2,0.0,0.1,0.528,6.1,11.5,0.768,3.8,5.0,70.0,68.0,NBA,31.8,2.4,3.9,C,16.0,1988,1.1,SAS,3.0,6.9
29.0,2.0,0.5,4.0,0.515,0.517,5.3,10.2,0.0,0.0,0.0,0.515,5.3,10.2,0.715,3.1,4.4,64.0,60.0,NBA,28.5,2.3,3.9,C,13.7,1989,1.6,SAS,2.6,6.3
30.0,1.3,0.5,3.1,0.545,0.548,2.7,4.9,0.0,0.0,0.0,0.545,2.7,5.0,0.674,1.2,1.8,78.0,12.0,NBA,18.4,1.1,2.9,C,6.6,1990,0.8,SAS,1.2,4.2
31.0,1.7,0.6,4.0,0.527,0.528,5.0,9.4,0.0,0.0,0.0,0.527,5.0,9.4,0.798,2.6,3.3,75.0,73.0,NBA,25.5,1.7,3.4,PF,12.6,1991,1.1,MIL,2.1,5.7
32.0,1.9,0.4,3.8,0.527,0.524,4.7,8.9,0.5,0.0,0.1,0.524,4.7,9.0,0.767,1.9,2.5,65.0,60.0,NBA,23.9,1.5,3.4,SF,11.4,1992,0.9,MIL,1.7,5.3
33.0,3.0,0.7,4.3,0.55,0.553,6.8,12.3,0.308,0.1,0.4,0.545,6.9,12.7,0.728,3.0,4.1,66.0,64.0,NBA,31.4,1.8,3.6,C,16.9,1993,1.2,MIL,3.1,6.1
34.0,3.1,0.4,4.5,0.491,0.496,5.1,10.3,0.2,0.1,0.3,0.488,5.2,10.6,0.768,2.7,3.6,71.0,46.0,NBA,29.5,1.2,3.4,C,13.2,1994,1.1,TOT,2.5,5.7
34.0,3.8,0.4,5.3,0.485,0.493,5.8,11.7,0.167,0.1,0.4,0.482,5.8,12.1,0.775,3.4,4.4,43.0,40.0,NBA,33.5,1.2,3.8,C,15.2,1994,1.2,MIL,2.9,6.5
34.0,2.0,0.4,3.3,0.504,0.502,4.1,8.3,0.5,0.0,0.1,0.502,4.2,8.3,0.746,1.7,2.3,28.0,6.0,NBA,23.3,1.1,2.8,C,10.1,1994,1.0,CHH,2.0,4.5
36.0,0.9,0.1,2.0,0.552,0.526,1.4,2.7,0.405,0.5,1.3,0.488,2.0,4.0,0.709,1.0,1.4,63.0,8.0,NBA,15.7,0.4,2.9,C,5.4,1996,0.4,SEA,1.2,2.4
37.0,0.9,0.2,1.6,0.486,0.472,1.5,3.1,0.35,0.4,1.2,0.438,1.9,4.3,0.714,0.6,0.8,17.0,2.0,NBA,15.0,0.4,2.5,PF,4.8,1997,0.3,BOS,1.1,2.0
