age,ast,blk,drb,efg_pct,fg,fg2,fg2_pct,fg2a,fg3,fg3_pct,fg3a,fg_pct,fga,ft,ft_pct,fta,g,gs,lg_id,mp,orb,pf,pos,pts,season,stl,team_id,tov,trb
23.0,11.0,1.0,21.0,0.559,19.0,19.0,0.559,34.0,0.0,0.0,0.0,0.559,34.0,15.0,0.652,23.0,5.0,5.0,NBA,181.0,9.0,17.0,SF,53.0,1985,6.0,HOU,13.0,30.0
24.0,125.0,19.0,95.0,0.535,108.0,108.0,0.543,199.0,0.0,0.0,3.0,0.535,202.0,43.0,0.741,58.0,20.0,20.0,NBA,835.0,23.0,45.0,SF,259.0,1986,18.0,HOU,37.0,118.0
25.0,56.0,9.0,51.0,0.564,57.0,57.0,0.576,99.0,0.0,0.0,2.0,0.564,101.0,43.0,0.796,54.0,10.0,10.0,NBA,436.0,32.0,21.0,SF,157.0,1987,5.0,HOU,26.0,83.0
26.0,9.0,3.0,12.0,0.387,12.0,12.0,0.4,30.0,0.0,0.0,1.0,0.387,31.0,8.0,0.667,12.0,4.0,4.0,NBA,159.0,15.0,12.0,SF,32.0,1988,4.0,HOU,7.0,27.0
31.0,5.0,1.0,11.0,0.167,1.0,1.0,0.167,6.0,0.0,0.0,0.0,0.167,6.0,0.0,0.0,0.0,7.0,0.0,NBA,39.0,2.0,4.0,SF,2.0,1993,0.0,CHI,4.0,13.0
