age,ast_per_poss,blk_per_poss,def_rtg,drb_per_poss,fg2_pct,fg2_per_poss,fg2a_per_poss,fg3_pct,fg3_per_poss,fg3a_per_poss,fg_pct,fg_per_poss,fga_per_poss,ft_pct,ft_per_poss,fta_per_poss,g,gs,lg_id,mp,off_rtg,orb_per_poss,pf_per_poss,pos,pts_per_poss,season,stl_per_poss,team_id,tov_per_poss,trb_per_poss
22.0,3.9,1.2,109.0,6.1,0.5,7.4,14.7,0.25,0.0,0.1,0.499,7.4,14.8,0.731,4.0,5.5,79.0,36.0,NBA,2081.0,112.0,3.8,4.5,SF,18.8,1984,1.2,HOU,2.6,9.9
23.0,5.6,1.2,107.0,5.3,0.538,7.4,13.8,0.0,0.0,0.1,0.535,7.4,13.9,0.738,3.6,4.9,82.0,82.0,NBA,3001.0,117.0,3.1,3.4,SF,18.5,1985,1.4,HOU,2.8,8.4
24.0,5.2,1.0,109.0,6.4,0.54,6.0,11.1,0.0,0.0,0.1,0.537,6.0,11.2,0.77,3.0,3.9,82.0,82.0,NBA,2610.0,118.0,2.8,3.5,SF,15.1,1986,0.9,HOU,2.3,9.2
25.0,6.7,0.8,107.0,5.9,0.558,6.6,11.9,0.0,0.0,0.1,0.552,6.6,12.0,0.779,4.7,6.0,81.0,81.0,NBA,3136.0,118.0,2.9,2.6,SF,17.9,1987,1.3,HOU,3.2,8.9
26.0,4.6,0.9,107.0,7.0,0.484,6.3,13.0,0.0,0.0,0.1,0.481,6.3,13.1,0.785,5.1,6.4,81.0,80.0,NBA,2689.0,116.0,4.1,2.9,SF,17.6,1988,1.0,HOU,2.5,11.1
27.0,5.7,0.7,110.0,7.3,0.474,6.6,13.9,0.227,0.1,0.4,0.466,6.7,14.3,0.722,3.3,4.6,68.0,65.0,NBA,2435.0,103.0,2.8,2.4,SF,16.8,1989,1.1,SAC,3.3,10.1
28.0,5.8,1.1,110.0,7.3,0.525,8.1,15.3,0.262,0.2,0.6,0.515,8.2,16.0,0.784,4.2,5.3,82.0,82.0,NBA,3238.0,114.0,2.9,2.7,SF,20.8,1990,0.9,SAC,2.7,10.3
29.0,5.2,1.0,109.0,8.1,0.505,6.4,12.7,0.333,0.3,0.8,0.495,6.7,13.5,0.803,3.2,3.9,74.0,68.0,NBA,2561.0,112.0,3.0,4.0,PF,16.8,1991,1.4,DAL,2.6,11.1
30.0,5.3,0.7,111.0,7.7,0.458,5.9,13.0,0.294,0.6,2.1,0.436,6.5,15.0,0.719,2.7,3.7,75.0,48.0,NBA,2106.0,104.0,3.6,4.3,SF,16.3,1992,1.2,DAL,2.8,11.3
31.0,4.1,0.8,110.0,5.3,0.452,4.6,10.1,0.4,0.1,0.3,0.451,4.7,10.4,0.692,1.8,2.6,64.0,5.0,NBA,1019.0,101.0,2.7,5.0,SF,11.3,1993,0.6,CHI,2.7,8.0
