age,ast_pct,blk_pct,bpm,bpm-dum,dbpm,drb_pct,dws,fg3a_per_fga_pct,fta_per_fga_pct,g,lg_id,mp,obpm,orb_pct,ows,per,pos,season,stl_pct,team_id,tov_pct,trb_pct,ts_pct,usg_pct,vorp,ws,ws-dum,ws_per_48
25.0,8.6,4.8,1.4,0.0,2.6,23.3,3.6,0.0,0.575,71.0,NBA,2716.0,-1.2,11.9,1.3,16.5,C,1992,0.8,DEN,18.8,17.3,0.54,20.1,2.3,4.8,0.0,0.086
26.0,6.8,5.7,2.7,0.0,3.7,25.5,5.5,0.0,0.63,82.0,NBA,3029.0,-1.0,11.9,3.3,17.2,C,1993,0.7,DEN,17.8,18.7,0.567,16.3,3.6,8.8,0.0,0.139
27.0,6.6,7.4,4.2,0.0,5.2,25.8,6.4,0.002,0.684,82.0,NBA,2853.0,-0.9,11.5,2.9,17.9,C,1994,1.0,DEN,19.8,18.9,0.59,15.6,4.5,9.4,0.0,0.158
28.0,5.5,7.5,3.5,0.0,4.4,26.7,5.2,0.0,0.604,82.0,NBA,3100.0,-0.9,12.7,3.5,17.0,C,1995,0.7,DEN,19.5,19.9,0.595,14.4,4.3,8.7,0.0,0.135
29.0,6.1,8.8,3.2,0.0,5.3,26.6,5.0,0.002,0.622,74.0,NBA,2713.0,-2.1,10.6,2.6,17.1,C,1996,0.7,DEN,17.1,18.6,0.562,14.4,3.6,7.6,0.0,0.134
30.0,6.4,7.0,3.2,0.0,4.5,25.9,6.6,0.0,0.602,80.0,NBA,2973.0,-1.3,11.0,4.7,19.0,C,1997,0.9,ATL,16.9,18.6,0.584,17.4,3.9,11.3,0.0,0.183
31.0,4.8,6.6,2.5,0.0,2.7,25.6,5.2,0.0,0.608,82.0,NBA,2917.0,-0.2,11.5,5.6,19.8,C,1998,0.6,ATL,15.1,18.8,0.584,17.6,3.3,10.8,0.0,0.177
32.0,5.7,6.0,4.6,0.0,4.7,26.5,4.2,0.0,0.843,50.0,NBA,1829.0,-0.1,12.4,3.7,18.8,C,1999,0.5,ATL,16.9,19.5,0.584,14.3,3.0,7.9,0.0,0.206
33.0,5.4,5.9,2.8,0.0,3.2,31.3,4.3,0.0,0.735,82.0,NBA,2984.0,-0.4,11.2,5.6,19.4,C,2000,0.5,ATL,18.7,21.2,0.621,13.8,3.6,9.9,0.0,0.16
34.0,4.7,5.6,1.4,0.0,3.2,30.5,4.7,0.0,0.523,75.0,NBA,2591.0,-1.7,13.3,3.4,17.5,C,2001,0.6,TOT,17.4,21.9,0.547,14.3,2.2,8.1,0.0,0.151
34.0,5.0,5.7,0.9,0.0,3.4,33.0,3.0,0.0,0.435,49.0,NBA,1716.0,-2.5,12.1,1.5,16.5,C,2001,0.6,ATL,17.9,22.5,0.528,13.4,1.3,4.5,0.0,0.125
34.0,4.1,5.5,2.5,0.0,2.7,25.7,1.8,0.0,0.678,26.0,NBA,875.0,-0.2,15.7,1.9,19.6,C,2001,0.5,PHI,16.5,20.8,0.58,16.2,1.0,3.7,0.0,0.201
35.0,4.8,5.0,1.3,0.0,2.9,23.5,5.5,0.0,0.568,80.0,NBA,2907.0,-1.5,10.0,4.1,16.0,C,2002,0.5,PHI,16.3,16.8,0.574,15.1,2.5,9.6,0.0,0.158
36.0,5.8,5.4,-2.7,0.0,2.4,22.0,1.0,0.0,0.42,24.0,NBA,514.0,-5.1,12.0,-0.2,11.2,C,2003,0.4,NJN,18.0,17.0,0.445,16.6,-0.1,0.8,0.0,0.076
37.0,2.7,6.2,-0.1,0.0,2.4,22.2,2.1,0.0,0.403,65.0,NBA,1494.0,-2.5,11.4,1.6,14.3,C,2004,0.6,NYK,13.5,16.9,0.523,12.5,0.7,3.8,0.0,0.122
38.0,1.3,6.5,-1.0,0.0,2.3,25.9,2.7,0.0,0.659,80.0,NBA,1212.0,-3.3,14.8,2.0,16.4,C,2005,0.7,HOU,15.4,20.5,0.575,12.9,0.3,4.7,0.0,0.186
39.0,0.7,4.9,-2.4,0.0,1.8,24.9,1.8,0.0,0.958,64.0,NBA,955.0,-4.2,12.5,1.3,12.7,C,2006,1.0,HOU,20.6,18.8,0.626,8.5,-0.1,3.1,0.0,0.156
40.0,1.5,4.5,-0.5,0.0,2.8,28.7,3.0,0.0,0.569,75.0,NBA,1289.0,-3.4,14.7,2.1,14.4,C,2007,0.9,HOU,16.6,21.8,0.601,8.3,0.5,5.2,0.0,0.192
41.0,1.2,5.7,-0.4,0.0,3.1,23.5,1.4,0.0,0.563,39.0,NBA,619.0,-3.5,12.6,0.9,14.5,C,2008,0.9,HOU,14.6,18.1,0.591,8.6,0.3,2.3,0.0,0.178
42.0,0.0,8.3,-6.7,0.0,1.0,24.5,0.2,0.0,0.692,9.0,NBA,96.0,-7.7,15.2,0.0,10.8,C,2009,0.0,HOU,26.1,20.0,0.472,11.1,-0.1,0.2,0.0,0.088
