age,avg_dist,fg2_dunk,fg2_pct,fg2_pct_ast,fg2a_pct_fga,fg3_heave,fg3_pct,fg3_pct_ast,fg3_pct_corner,fg3a_heave,fg3a_pct_fga,fg_pct,fg_pct_00_03,fg_pct_03_10,fg_pct_10_16,fg_pct_16_xx,g,lg_id,mp,pct_fg2_dunk,pct_fg3a_corner,pct_fga_00_03,pct_fga_03_10,pct_fga_10_16,pct_fga_16_xx,pos,season,team_id
34.0,4.6,64.0,0.484,0.39,1.0,0.0,0.0,0.0,0.0,0.0,0.0,0.484,0.687,0.349,0.26,0.0,75.0,NBA,2591.0,0.122,0.0,0.437,0.428,0.131,0.004,C,2001,TOT
34.0,4.3,47.0,0.477,0.349,1.0,0.0,0.0,0.0,0.0,0.0,0.0,0.477,0.663,0.336,0.268,0.0,49.0,NBA,1716.0,0.141,0.0,0.46,0.421,0.116,0.003,C,2001,ATL
34.0,5.0,17.0,0.495,0.46,1.0,0.0,0.0,0.0,0.0,0.0,0.0,0.495,0.738,0.371,0.25,0.0,26.0,NBA,875.0,0.089,0.0,0.396,0.441,0.158,0.005,C,2001,PHI
35.0,5.2,40.0,0.501,0.57,1.0,0.0,0.0,0.0,0.0,0.0,0.0,0.501,0.634,0.46,0.308,0.167,80.0,NBA,2907.0,0.066,0.0,0.413,0.39,0.187,0.009,C,2002,PHI
36.0,4.6,13.0,0.374,0.49,1.0,0.0,0.0,0.0,0.0,0.0,0.0,0.374,0.439,0.304,0.375,0.0,24.0,NBA,514.0,0.107,0.0,0.504,0.351,0.122,0.023,C,2003,NJN
37.0,5.0,29.0,0.478,0.589,1.0,0.0,0.0,0.0,0.0,0.0,0.0,0.478,0.611,0.384,0.4,0.167,65.0,NBA,1494.0,0.108,0.0,0.444,0.38,0.136,0.041,C,2004,NYK
38.0,4.3,29.0,0.498,0.5,1.0,0.0,0.0,0.0,0.0,0.0,0.0,0.498,0.608,0.365,0.333,0.429,80.0,NBA,1212.0,0.143,0.0,0.553,0.29,0.124,0.032,C,2005,HOU
39.0,3.0,9.0,0.526,0.62,1.0,0.0,0.0,0.0,0.0,0.0,0.0,0.526,0.652,0.375,0.091,0.0,64.0,NBA,955.0,0.116,0.0,0.695,0.168,0.116,0.021,C,2006,HOU
40.0,2.9,15.0,0.556,0.553,1.0,0.0,0.0,0.0,0.0,0.0,0.0,0.556,0.598,0.529,0.4,0.25,75.0,NBA,1289.0,0.098,0.0,0.732,0.111,0.131,0.026,C,2007,HOU
41.0,3.4,18.0,0.538,0.628,1.0,0.0,0.0,0.0,0.0,0.0,0.0,0.538,0.625,0.417,0.25,0.25,39.0,NBA,619.0,0.25,0.0,0.7,0.15,0.1,0.05,C,2008,HOU
42.0,1.2,1.0,0.385,0.6,1.0,0.0,0.0,0.0,0.0,0.0,0.0,0.385,0.364,0.5,0.0,0.0,9.0,NBA,96.0,0.077,0.0,0.846,0.154,0.0,0.0,C,2009,HOU
