age,ast_pct,blk_pct,bpm,bpm-dum,dbpm,drb_pct,dws,fg3a_per_fga_pct,fta_per_fga_pct,g,lg_id,mp,obpm,orb_pct,ows,per,pos,season,stl_pct,team_id,tov_pct,trb_pct,ts_pct,usg_pct,vorp,ws,ws-dum,ws_per_48
23.0,9.9,1.4,2.3,0.0,0.5,9.5,2.1,0.331,0.227,64.0,NBA,1981.0,1.8,4.4,2.9,16.3,SG,1995,3.3,LAL,8.4,7.0,0.548,19.4,2.1,5.0,0.0,0.122
24.0,17.0,1.4,3.6,0.0,1.1,9.8,2.7,0.331,0.269,70.0,NBA,2184.0,2.5,2.4,4.1,17.0,SG,1996,3.1,LAL,11.4,6.2,0.583,17.8,3.1,6.8,0.0,0.15
25.0,15.0,1.2,4.0,0.0,1.3,8.9,4.3,0.36,0.312,80.0,NBA,2998.0,2.7,3.5,5.3,17.3,SG,1997,3.3,LAL,12.1,6.2,0.559,20.9,4.5,9.6,0.0,0.154
26.0,13.5,1.3,4.3,0.0,0.5,8.2,3.2,0.366,0.304,80.0,NBA,2910.0,3.8,3.4,6.8,18.0,SG,1998,2.8,LAL,11.4,5.9,0.592,19.5,4.6,10.1,0.0,0.166
27.0,17.3,2.2,4.4,0.0,1.7,8.7,2.2,0.239,0.455,50.0,NBA,1881.0,2.8,3.2,3.8,18.5,SF-SG,1999,3.5,TOT,11.5,6.1,0.546,20.0,3.0,6.0,0.0,0.153
27.0,13.3,2.4,3.0,0.0,0.8,8.8,0.6,0.282,0.352,20.0,NBA,724.0,2.2,3.3,1.5,16.4,SG,1999,2.5,LAL,7.4,6.1,0.517,17.6,0.9,2.0,0.0,0.134
27.0,19.8,2.1,5.3,0.0,2.2,8.6,1.6,0.212,0.519,30.0,NBA,1157.0,3.1,3.2,2.4,19.8,SF,1999,4.2,CHH,13.7,6.0,0.563,21.5,2.1,4.0,0.0,0.165
28.0,19.0,1.2,5.3,0.0,1.4,10.3,4.4,0.305,0.374,72.0,NBA,2807.0,3.9,3.3,5.7,19.9,SG,2000,3.5,CHH,10.9,6.9,0.555,23.4,5.2,10.1,0.0,0.172
29.0,14.8,2.0,4.3,0.0,1.9,11.3,4.0,0.273,0.31,63.0,NBA,2282.0,2.4,3.9,3.9,18.8,SG,2001,2.7,MIA,12.0,7.6,0.553,23.9,3.6,7.9,0.0,0.166
30.0,15.4,1.9,4.2,0.0,1.4,11.6,5.0,0.319,0.296,81.0,NBA,3156.0,2.8,2.3,5.6,17.5,SG,2002,2.0,MIA,9.9,7.0,0.546,22.7,4.9,10.5,0.0,0.16
31.0,18.8,1.4,4.7,0.0,0.9,12.7,2.1,0.35,0.334,47.0,NBA,1789.0,3.8,2.2,3.9,18.9,SG,2003,2.0,MIA,9.7,7.3,0.551,23.0,3.0,6.0,0.0,0.162
32.0,16.1,0.9,2.3,0.0,-0.7,10.6,3.0,0.414,0.288,81.0,NBA,2998.0,3.0,1.5,6.2,16.7,SG,2004,1.7,MIA,9.0,6.0,0.538,22.5,3.3,9.1,0.0,0.146
33.0,11.5,1.0,2.4,0.0,0.9,14.5,3.8,0.466,0.263,80.0,NBA,2839.0,1.5,1.6,4.2,13.6,SF,2005,1.6,MIA,9.8,8.3,0.556,16.6,3.1,8.0,0.0,0.135
34.0,12.7,0.9,3.0,0.0,1.5,12.0,4.2,0.518,0.298,75.0,NBA,2437.0,1.5,1.8,3.0,14.7,SG,2006,3.0,MEM,10.2,6.9,0.542,18.1,3.1,7.2,0.0,0.141
35.0,10.9,0.5,0.7,0.0,0.0,11.6,1.4,0.526,0.178,64.0,NBA,1594.0,0.7,2.3,1.7,12.3,SG,2007,2.2,TOT,9.4,7.1,0.542,14.7,1.1,3.1,0.0,0.094
35.0,9.1,0.3,-2.5,0.0,-1.5,10.0,0.1,0.49,0.225,29.0,NBA,561.0,-1.1,3.0,0.0,8.6,SG,2007,2.0,MEM,12.2,6.5,0.485,15.2,-0.1,0.2,0.0,0.013
35.0,11.9,0.6,2.4,0.0,0.8,12.5,1.3,0.546,0.151,35.0,NBA,1033.0,1.6,2.0,1.7,14.3,SG,2007,2.4,MIA,7.7,7.4,0.574,14.4,1.1,3.0,0.0,0.138
36.0,10.8,0.6,-0.3,0.0,1.1,13.8,1.0,0.644,0.078,47.0,NBA,922.0,-1.3,2.3,0.1,7.6,SG,2008,1.5,DAL,13.5,8.3,0.473,10.9,0.4,1.1,0.0,0.058
