lg_id,salary,season,team_name
NBA,85700.0,1986,San Antonio Spurs
NBA,125000.0,1988,Phoenix Suns
NBA,200000.0,1989,Phoenix Suns
NBA,830000.0,1991,Minnesota Timberwolves
NBA,922000.0,1992,Utah Jazz
NBA,1100000.0,1993,Utah Jazz
NBA,1400000.0,1994,Utah Jazz
NBA,1600000.0,1995,Atlanta Hawks
NBA,1700000.0,1996,Sacramento Kings
NBA,247500.0,1997,Atlanta Hawks
NBA,326700.0,1998,Atlanta Hawks
NBA,2400000.0,1999,Atlanta Hawks
NBA,510000.0,2000,Sacramento Kings
NBA,1000000.0,2001,Toronto Raptors
