age,ast_per_mp,blk_per_mp,drb_per_mp,fg2_pct,fg2_per_mp,fg2a_per_mp,fg3_pct,fg3_per_mp,fg3a_per_mp,fg_pct,fg_per_mp,fga_per_mp,ft_pct,ft_per_mp,fta_per_mp,g,gs,lg_id,mp,orb_per_mp,pf_per_mp,pos,pts_per_mp,season,stl_per_mp,team_id,tov_per_mp,trb_per_mp
26.0,2.1,0.0,3.8,0.448,4.9,11.0,0.324,1.8,5.6,0.406,6.7,16.6,0.84,3.5,4.1,10.0,0.0,NBA,219.0,0.5,3.1,SG,18.7,2005,1.2,WAS,2.0,4.3
28.0,1.7,0.0,2.3,0.462,3.4,7.4,0.25,1.1,4.6,0.381,4.6,12.0,0.0,0.0,0.0,6.0,0.0,NBA,63.0,0.0,3.4,SG,10.3,2007,4.0,TOR,5.7,2.3
29.0,0.0,0.0,0.0,0.0,0.0,10.3,0.0,0.0,0.0,0.0,0.0,10.3,0.0,0.0,0.0,2.0,0.0,NBA,7.0,0.0,0.0,PG,0.0,2008,0.0,DET,0.0,0.0
