age,ast_per_mp,blk_per_mp,drb_per_mp,fg2_pct,fg2_per_mp,fg2a_per_mp,fg3_pct,fg3_per_mp,fg3a_per_mp,fg_pct,fg_per_mp,fga_per_mp,ft_pct,ft_per_mp,fta_per_mp,g,gs,lg_id,mp,orb_per_mp,pf_per_mp,pos,pts_per_mp,season,stl_per_mp,team_id,tov_per_mp,trb_per_mp
29.0,2.9,0.0,3.8,0.5,0.5,1.0,0.385,2.4,6.2,0.4,2.9,7.2,0.667,1.0,1.4,5.0,0.0,NBA,75.0,0.5,5.8,PG,9.1,1998,1.9,HOU,2.9,4.3
30.0,5.1,0.4,1.8,0.6,2.2,3.7,0.357,1.8,5.1,0.458,4.0,8.8,1.0,2.2,2.2,4.0,0.0,NBA,98.0,1.1,1.8,PG,12.1,1999,1.5,HOU,2.2,2.9
