age,and1s,astd_pts,drawn_offensive,drawn_shooting,fouls_offensive,fouls_shooting,g,lg_id,mp,own_shots_blk,pct_1,pct_2,pct_3,pct_4,pct_5,plus_minus_net,plus_minus_on,pos,season,team_id,tov_bad_pass,tov_lost_ball
32.0,0.0,11.0,0.0,2.0,1.0,2.0,6.0,NBA,30.0,0.0,60.0,40.0,0.0,0.0,0.0,-10.5,-16.5,PG,2001,VAN,3.0,0.0
33.0,1.0,20.0,0.0,4.0,0.0,5.0,20.0,NBA,89.0,0.0,100.0,0.0,0.0,0.0,0.0,-27.3,-18.7,PG,2002,SAC,5.0,3.0
