age,and1s,astd_pts,drawn_offensive,drawn_shooting,fouls_offensive,fouls_shooting,g,lg_id,mp,own_shots_blk,pct_1,pct_2,pct_3,pct_4,pct_5,plus_minus_net,plus_minus_on,pos,season,team_id,tov_bad_pass,tov_lost_ball
24.0,5.0,365.0,0.0,30.0,3.0,21.0,75.0,NBA,1008.0,29.0,82.0,18.0,0.0,0.0,0.0,-8.5,-5.3,PG,2001,ORL,57.0,24.0
25.0,17.0,563.0,0.0,69.0,4.0,33.0,81.0,NBA,1854.0,36.0,59.0,40.0,0.0,0.0,0.0,-5.4,-1.1,PG,2002,ORL,91.0,54.0
26.0,5.0,949.0,0.0,53.0,12.0,41.0,79.0,NBA,2600.0,39.0,100.0,0.0,0.0,0.0,0.0,-1.3,1.9,PG,2003,MIN,104.0,52.0
27.0,2.0,147.0,0.0,12.0,1.0,9.0,29.0,NBA,503.0,9.0,100.0,0.0,0.0,0.0,0.0,-13.7,-5.8,PG,2004,MIN,20.0,12.0
28.0,7.0,621.0,0.0,23.0,9.0,34.0,79.0,NBA,1729.0,29.0,100.0,0.0,0.0,0.0,0.0,-3.5,-0.4,PG,2005,MIN,68.0,29.0
29.0,5.0,231.0,21.0,12.0,5.0,12.0,36.0,NBA,800.0,16.0,100.0,0.0,0.0,0.0,0.0,-0.1,-2.3,PG,2006,MIN,18.0,10.0
30.0,0.0,158.0,3.0,4.0,3.0,8.0,34.0,NBA,554.0,6.0,100.0,0.0,0.0,0.0,0.0,-3.1,-7.0,PG,2007,MIN,19.0,13.0
31.0,0.0,22.0,2.0,2.0,0.0,1.0,9.0,NBA,93.0,1.0,100.0,0.0,0.0,0.0,0.0,-6.7,-4.6,PG,2008,GSW,3.0,3.0
