age,ast,ast_per_g,blk,college_id,fg,fg3,fg3_pct,fg3a,fg_pct,fga,ft,ft_pct,fta,g,mp,mp_per_g,orb,pf,pts,pts_per_g,season,stl,tov,trb,trb_per_g
18.0,59.0,2.1,5.0,USC,206.0,60.0,0.423,142.0,0.472,436.0,106.0,0.841,126.0,28.0,978.0,34.9,0.0,52.0,578.0,20.6,1990,33.0,45.0,101.0,3.6
19.0,57.0,2.0,8.0,USC,235.0,59.0,0.337,175.0,0.453,519.0,152.0,0.8,190.0,29.0,1049.0,36.2,0.0,62.0,681.0,23.5,1991,32.0,56.0,159.0,5.5
20.0,39.0,1.3,6.0,USC,250.0,57.0,0.352,162.0,0.438,571.0,232.0,0.811,286.0,30.0,1042.0,34.7,0.0,59.0,789.0,26.3,1992,33.0,67.0,211.0,7.0
