age,ast_per_mp,blk_per_mp,drb_per_mp,fg2_pct,fg2_per_mp,fg2a_per_mp,fg3_pct,fg3_per_mp,fg3a_per_mp,fg_pct,fg_per_mp,fga_per_mp,ft_pct,ft_per_mp,fta_per_mp,g,gs,lg_id,mp,orb_per_mp,pf_per_mp,pos,pts_per_mp,season,stl_per_mp,team_id,tov_per_mp,trb_per_mp
23.0,1.1,1.0,7.4,0.593,5.7,9.6,0.0,0.0,0.0,0.593,5.7,9.6,0.762,1.8,2.3,11.0,10.0,NBA,324.0,2.3,4.2,C,13.1,2006,0.6,LAC,3.7,9.8
32.0,2.9,0.0,8.8,0.5,3.9,7.8,0.0,0.0,0.0,0.5,3.9,7.8,1.0,1.0,1.0,3.0,0.0,NBA,37.0,4.9,4.9,C,8.8,2015,0.0,POR,2.9,13.6
33.0,1.1,0.0,6.8,0.389,7.9,20.3,0.0,0.0,0.0,0.389,7.9,20.3,0.0,0.0,0.0,4.0,0.0,NBA,32.0,2.3,11.3,C,15.8,2016,2.3,POR,6.8,9.0
