age,ast,ast_per_g,blk,college_id,fg,fg3,fg3_pct,fg3a,fg_pct,fga,ft,ft_pct,fta,g,mp,mp_per_g,orb,pf,pts,pts_per_g,season,stl,tov,trb,trb_per_g
18.0,6.0,0.2,45.0,CMICHIGAN,105.0,0.0,0.0,0.0,0.574,183.0,63.0,0.7,90.0,28.0,520.0,18.6,0.0,67.0,273.0,9.8,2001,14.0,51.0,135.0,4.8
19.0,22.0,0.9,39.0,CMICHIGAN,97.0,0.0,0.0,0.0,0.614,158.0,89.0,0.65,137.0,24.0,604.0,25.2,0.0,68.0,283.0,11.8,2002,9.0,69.0,199.0,8.3
20.0,37.0,1.2,98.0,CMICHIGAN,244.0,0.0,0.0,0.0,0.622,392.0,206.0,0.749,275.0,31.0,1055.0,34.0,0.0,99.0,694.0,22.4,2003,19.0,137.0,373.0,12.0
