age,ast,blk,drb,efg_pct,fg,fg2,fg2_pct,fg2a,fg3,fg3_pct,fg3a,fg_pct,fga,ft,ft_pct,fta,g,gs,lg_id,mp,orb,pf,pos,pts,season,stl,team_id,tov,trb
23.0,10.0,9.0,67.0,0.593,51.0,51.0,0.593,86.0,0.0,0.0,0.0,0.593,86.0,16.0,0.762,21.0,11.0,10.0,NBA,324.0,21.0,38.0,C,118.0,2006,5.0,LAC,33.0,88.0
32.0,3.0,0.0,9.0,0.5,4.0,4.0,0.5,8.0,0.0,0.0,0.0,0.5,8.0,1.0,1.0,1.0,3.0,0.0,NBA,37.0,5.0,5.0,C,9.0,2015,0.0,POR,3.0,14.0
33.0,1.0,0.0,6.0,0.389,7.0,7.0,0.389,18.0,0.0,0.0,0.0,0.389,18.0,0.0,0.0,0.0,4.0,0.0,NBA,32.0,2.0,10.0,C,14.0,2016,2.0,POR,6.0,8.0
