age,avg_dist,fg2_dunk,fg2_pct,fg2_pct_ast,fg2a_pct_fga,fg3_heave,fg3_pct,fg3_pct_ast,fg3_pct_corner,fg3a_heave,fg3a_pct_fga,fg_pct,fg_pct_00_03,fg_pct_03_10,fg_pct_10_16,fg_pct_16_xx,g,lg_id,mp,pct_fg2_dunk,pct_fg3a_corner,pct_fga_00_03,pct_fga_03_10,pct_fga_10_16,pct_fga_16_xx,pos,season,team_id
21.0,4.7,41.0,0.462,0.595,0.995,0.0,0.0,0.0,0.0,1.0,0.005,0.46,0.544,0.426,0.303,0.263,82.0,NBA,1843.0,0.101,0.0,0.52,0.28,0.152,0.044,C,2004,LAC
22.0,5.6,36.0,0.498,0.585,0.998,0.0,0.0,0.0,0.0,1.0,0.002,0.497,0.581,0.489,0.346,0.357,63.0,NBA,1632.0,0.079,0.0,0.424,0.36,0.158,0.057,C,2005,LAC
23.0,4.6,35.0,0.524,0.539,0.997,0.0,0.0,0.0,0.0,2.0,0.003,0.523,0.586,0.507,0.377,0.263,78.0,NBA,2560.0,0.054,0.0,0.462,0.411,0.098,0.027,C,2006,LAC
24.0,5.2,13.0,0.452,0.622,0.998,0.0,0.0,0.0,0.0,1.0,0.002,0.451,0.531,0.455,0.226,0.333,75.0,NBA,2176.0,0.02,0.0,0.399,0.439,0.129,0.032,C,2007,LAC
25.0,6.2,41.0,0.486,0.615,0.994,0.0,0.0,0.0,0.0,1.0,0.006,0.483,0.582,0.44,0.35,0.5,56.0,NBA,2083.0,0.063,0.0,0.393,0.354,0.167,0.08,C,2008,LAC
26.0,5.4,19.0,0.528,0.714,1.0,0.0,0.0,0.0,0.0,0.0,0.0,0.528,0.595,0.476,0.426,0.478,31.0,NBA,921.0,0.066,0.0,0.518,0.207,0.2,0.075,C,2009,LAC
27.0,8.6,47.0,0.492,0.705,0.995,0.0,0.0,0.0,0.0,4.0,0.005,0.49,0.604,0.48,0.366,0.465,76.0,NBA,2608.0,0.039,0.167,0.334,0.227,0.23,0.204,C,2010,LAC
28.0,9.8,11.0,0.471,0.706,1.0,0.0,0.0,0.0,0.0,0.0,0.0,0.471,0.646,0.299,0.466,0.451,32.0,NBA,838.0,0.029,0.0,0.263,0.231,0.234,0.271,C,2011,LAC
29.0,9.3,14.0,0.446,0.647,1.0,0.0,0.0,0.0,0.0,0.0,0.0,0.446,0.548,0.336,0.436,0.47,47.0,NBA,1372.0,0.023,0.0,0.263,0.255,0.315,0.168,C,2012,NOH
30.0,9.5,13.0,0.508,0.655,0.998,0.0,0.0,0.0,0.0,0.0,0.002,0.507,0.629,0.446,0.429,0.521,66.0,NBA,1363.0,0.023,0.0,0.271,0.225,0.276,0.227,C,2013,DAL
31.0,8.9,9.0,0.513,0.659,0.991,0.0,0.0,0.0,0.0,0.0,0.009,0.509,0.714,0.429,0.467,0.408,39.0,NBA,736.0,0.026,0.0,0.263,0.283,0.303,0.142,C,2014,LAL
32.0,7.8,15.0,0.515,0.629,1.0,0.0,0.0,0.0,0.0,0.0,0.0,0.515,0.667,0.395,0.459,0.447,74.0,NBA,1398.0,0.027,0.0,0.366,0.268,0.179,0.188,C,2015,POR
33.0,12.3,0.0,0.487,0.737,0.907,0.0,0.25,1.0,0.0,0.0,0.093,0.465,0.556,0.667,0.25,0.5,16.0,NBA,112.0,0.0,0.25,0.209,0.14,0.186,0.372,C,2016,POR
