age,ast,blk,drb,fg,fg2,fg2a,fg3,fg3a,fga,ft,fta,game_score,lg_id,mp,orb,pf,pts,season,stl,team_id,tov,trb
23.0,2.0,3.0,6.0,6.0,4.0,10.0,2.0,3.0,13.0,2.0,2.0,12.9,NBA,0.0,4.0,5.0,16.0,1992,1.0,UTA,2.0,7.0
24.0,2.0,2.0,6.0,4.0,3.0,12.0,1.0,3.0,15.0,5.0,6.0,9.6,NBA,0.0,2.0,5.0,11.0,1993,2.0,UTA,1.0,8.0
25.0,2.0,2.0,6.0,7.0,6.0,11.0,1.0,4.0,12.0,4.0,4.0,12.7,NBA,0.0,4.0,4.0,15.0,1994,1.0,UTA,4.0,9.0
26.0,3.0,1.0,7.0,8.0,5.0,6.0,3.0,8.0,12.0,4.0,4.0,13.2,NBA,0.0,3.0,5.0,20.0,1995,1.0,UTA,4.0,10.0
27.0,2.0,2.0,8.0,6.0,4.0,12.0,3.0,5.0,16.0,2.0,3.0,8.9,NBA,0.0,3.0,4.0,17.0,1996,1.0,UTA,4.0,11.0
32.0,1.0,2.0,3.0,4.0,3.0,7.0,2.0,4.0,11.0,5.0,5.0,8.2,NBA,0.0,1.0,3.0,12.0,2001,0.0,UTA,1.0,4.0
