age,ast,blk,drb,efg_pct,fg,fg2,fg2_pct,fg2a,fg3,fg3_pct,fg3a,fg_pct,fga,ft,ft_pct,fta,g,gs,lg_id,mp,orb,pf,pos,pts,season,stl,team_id,tov,trb
23.0,34.0,44.0,191.0,0.471,175.0,172.0,0.476,361.0,3.0,0.214,14.0,0.467,375.0,81.0,0.81,100.0,77.0,2.0,NBA,1161.0,105.0,124.0,SF,434.0,1992,19.0,UTA,71.0,296.0
24.0,43.0,43.0,276.0,0.465,258.0,224.0,0.453,494.0,34.0,0.347,98.0,0.436,592.0,114.0,0.75,152.0,82.0,27.0,NBA,1712.0,116.0,201.0,SF,664.0,1993,45.0,UTA,90.0,392.0
25.0,23.0,37.0,171.0,0.402,139.0,127.0,0.421,302.0,12.0,0.203,59.0,0.385,361.0,68.0,0.773,88.0,55.0,18.0,NBA,1070.0,89.0,115.0,SF,358.0,1994,23.0,UTA,37.0,260.0
26.0,58.0,47.0,272.0,0.518,285.0,247.0,0.523,472.0,38.0,0.33,115.0,0.486,587.0,132.0,0.841,157.0,71.0,67.0,NBA,1841.0,96.0,183.0,SF,740.0,1995,45.0,UTA,75.0,368.0
27.0,82.0,49.0,293.0,0.494,255.0,191.0,0.491,389.0,64.0,0.333,192.0,0.439,581.0,87.0,0.777,112.0,81.0,63.0,NBA,1961.0,90.0,166.0,SF,661.0,1996,43.0,UTA,71.0,383.0
29.0,25.0,20.0,143.0,0.44,152.0,97.0,0.408,238.0,55.0,0.324,170.0,0.373,408.0,61.0,0.824,74.0,77.0,0.0,NBA,1123.0,60.0,157.0,SF,420.0,1998,35.0,TOT,52.0,203.0
29.0,17.0,16.0,99.0,0.455,102.0,61.0,0.407,150.0,41.0,0.345,119.0,0.379,269.0,37.0,0.841,44.0,53.0,0.0,NBA,799.0,42.0,120.0,SF,282.0,1998,26.0,NJN,39.0,141.0
29.0,8.0,4.0,44.0,0.41,50.0,36.0,0.409,88.0,14.0,0.275,51.0,0.36,139.0,24.0,0.8,30.0,24.0,0.0,NBA,324.0,18.0,37.0,SF,138.0,1998,9.0,ORL,13.0,62.0
32.0,22.0,6.0,61.0,0.5,71.0,66.0,0.493,134.0,5.0,0.385,13.0,0.483,147.0,31.0,0.795,39.0,49.0,2.0,NBA,446.0,20.0,75.0,SF,178.0,2001,6.0,UTA,28.0,81.0
