age,ast_per_g,blk_per_g,drb_per_g,efg_pct,fg2_pct,fg2_per_g,fg2a_per_g,fg3_pct,fg3_per_g,fg3a_per_g,fg_pct,fg_per_g,fga_per_g,ft_pct,ft_per_g,fta_per_g,g,gs,lg_id,mp_per_g,orb_per_g,pf_per_g,pos,pts_per_g,season,stl_per_g,team_id,tov_per_g,trb_per_g
22.0,1.5,0.1,0.7,0.43,0.444,0.8,1.8,0.25,0.1,0.5,0.404,0.9,2.2,0.813,0.3,0.3,51.0,1.0,NBA,8.0,0.3,1.2,PG,2.2,1989,0.5,DAL,0.7,0.9
23.0,2.9,0.1,1.0,0.483,0.463,1.9,4.1,0.37,0.4,1.2,0.442,2.3,5.2,0.737,0.7,1.0,40.0,2.0,NBA,16.0,0.3,1.6,PG,5.7,1990,1.1,ORL,1.6,1.3
24.0,2.1,0.0,0.4,0.444,0.406,1.1,2.8,0.5,0.2,0.4,0.417,1.3,3.2,0.68,0.5,0.7,34.0,0.0,NBA,10.3,0.1,1.1,PG,3.3,1991,0.7,ORL,1.0,0.5
25.0,3.4,0.1,1.1,0.466,0.457,1.3,2.8,0.333,0.3,0.8,0.43,1.6,3.6,0.686,0.5,0.7,53.0,19.0,NBA,16.4,0.5,1.7,PG,3.8,1992,0.9,TOT,1.1,1.5
25.0,1.4,0.0,0.6,0.321,0.375,1.0,2.7,0.0,0.0,0.4,0.321,1.0,3.1,0.6,0.3,0.6,9.0,0.0,NBA,10.0,0.2,1.4,PG,2.3,1992,0.4,ORL,0.9,0.8
25.0,0.3,0.0,0.3,0.6,0.6,1.0,1.7,0.0,0.0,0.0,0.6,1.0,1.7,0.0,0.0,0.0,3.0,0.0,NBA,4.3,0.0,1.0,PG,2.0,1992,0.0,SAS,0.0,0.3
25.0,4.0,0.1,1.2,0.488,0.467,1.4,3.0,0.368,0.3,0.9,0.444,1.7,3.9,0.7,0.5,0.7,41.0,19.0,NBA,18.7,0.5,1.8,PG,4.3,1992,1.0,ATL,1.3,1.8
26.0,3.1,0.1,1.1,0.484,0.42,0.7,1.7,0.351,0.9,2.7,0.378,1.7,4.4,0.654,0.3,0.4,58.0,15.0,NBA,17.2,0.5,2.2,PG,4.5,1993,1.1,TOT,1.4,1.6
26.0,3.2,0.1,1.0,0.414,0.367,0.4,1.2,0.294,0.6,2.0,0.321,1.0,3.2,0.625,0.2,0.3,25.0,2.0,NBA,14.2,0.4,2.0,PG,2.9,1993,1.0,ATL,1.2,1.4
26.0,3.0,0.0,1.1,0.517,0.443,0.9,2.1,0.379,1.2,3.1,0.405,2.1,5.2,0.667,0.4,0.5,33.0,13.0,NBA,19.4,0.6,2.4,PG,5.8,1993,1.2,DAL,1.5,1.7
27.0,1.4,0.0,0.6,0.362,0.316,0.4,1.2,0.3,0.2,0.6,0.31,0.6,1.8,0.0,0.0,0.0,16.0,0.0,NBA,9.9,0.0,1.3,PG,1.3,1994,0.9,TOT,1.1,0.6
27.0,1.8,0.0,1.0,0.438,0.5,0.5,1.0,0.25,0.3,1.0,0.375,0.8,2.0,0.0,0.0,0.0,4.0,0.0,NBA,8.5,0.0,1.0,PG,1.8,1994,0.5,MIA,1.5,1.0
27.0,1.3,0.0,0.5,0.333,0.267,0.3,1.3,0.333,0.2,0.5,0.286,0.5,1.8,0.0,0.0,0.0,12.0,0.0,NBA,10.3,0.0,1.4,PG,1.2,1994,1.1,DAL,0.9,0.5
28.0,1.7,0.0,0.9,0.556,0.526,0.5,0.9,0.38,0.7,1.8,0.427,1.2,2.7,0.7,0.2,0.2,43.0,2.0,NBA,9.9,0.1,1.0,PG,3.2,1995,0.5,TOT,0.5,1.0
28.0,1.8,0.0,0.9,0.554,0.5,0.5,0.9,0.387,0.8,2.0,0.423,1.2,2.9,0.7,0.2,0.3,38.0,2.0,NBA,10.7,0.2,1.2,PG,3.4,1995,0.6,DAL,0.5,1.0
28.0,1.2,0.2,0.8,0.583,1.0,0.4,0.4,0.25,0.2,0.8,0.5,0.6,1.2,0.0,0.0,0.0,5.0,0.0,NBA,3.4,0.0,0.0,PG,1.4,1995,0.2,ATL,0.8,0.8
