age,ast_per_mp,blk_per_mp,drb_per_mp,fg2_pct,fg2_per_mp,fg2a_per_mp,fg3_pct,fg3_per_mp,fg3a_per_mp,fg_pct,fg_per_mp,fga_per_mp,ft_pct,ft_per_mp,fta_per_mp,g,gs,lg_id,mp,orb_per_mp,pf_per_mp,pos,pts_per_mp,season,stl_per_mp,team_id,tov_per_mp,trb_per_mp
23.0,2.7,0.0,5.3,0.4,5.3,13.3,0.0,0.0,1.3,0.364,5.3,14.7,0.75,4.0,5.3,6.0,0.0,NBA,27.0,0.0,6.7,SG,14.7,1986,2.7,ATL,4.0,5.3
24.0,3.7,0.0,3.7,0.448,6.0,13.4,0.4,0.9,2.3,0.441,6.9,15.7,0.913,9.7,10.6,8.0,0.0,NBA,78.0,0.9,6.0,SG,24.5,1987,0.5,ATL,3.2,4.6
25.0,5.6,0.0,3.9,0.492,6.9,14.1,0.0,0.0,0.4,0.478,6.9,14.5,0.68,3.7,5.4,12.0,0.0,NBA,166.0,0.4,3.0,SG,17.6,1988,0.4,ATL,2.4,4.3
26.0,4.9,0.0,2.4,0.5,6.1,12.2,0.0,0.0,1.8,0.435,6.1,14.0,0.75,2.7,3.7,5.0,0.0,NBA,118.0,1.5,4.0,SG,14.9,1989,0.6,ATL,1.5,4.0
28.0,3.7,0.0,2.0,0.359,4.7,13.1,0.4,0.7,1.7,0.364,5.4,14.8,0.96,8.1,8.4,5.0,0.0,NBA,107.0,1.3,3.7,SG,19.5,1991,0.3,ATL,3.0,3.4
29.0,2.7,0.2,1.4,0.425,6.1,14.3,0.0,0.0,0.4,0.415,6.1,14.6,0.913,3.7,4.1,15.0,0.0,NBA,202.0,0.7,2.0,SG,15.9,1992,0.9,CLE,3.2,2.1
30.0,6.0,0.0,6.0,0.0,0.0,6.0,0.0,0.0,0.0,0.0,0.0,6.0,0.0,0.0,0.0,1.0,0.0,NBA,6.0,0.0,12.0,SG,0.0,1993,0.0,CLE,12.0,6.0
31.0,0.0,0.0,9.0,1.0,4.5,4.5,0.0,0.0,0.0,1.0,4.5,4.5,0.0,0.0,0.0,1.0,0.0,NBA,8.0,0.0,0.0,SG,9.0,1994,0.0,CLE,0.0,9.0
32.0,5.1,0.0,0.0,1.0,10.3,10.3,0.0,0.0,5.1,0.667,10.3,15.4,0.0,0.0,0.0,2.0,0.0,NBA,7.0,0.0,5.1,SG,20.6,1995,0.0,CLE,0.0,0.0
