lg_id,salary,season,team_name
NBA,70000.0,1986,Atlanta Hawks
NBA,100000.0,1988,Atlanta Hawks
NBA,350000.0,1989,Atlanta Hawks
NBA,590000.0,1991,Atlanta Hawks
NBA,700000.0,1992,Cleveland Cavaliers
NBA,910000.0,1993,Cleveland Cavaliers
NBA,1120000.0,1994,Cleveland Cavaliers
NBA,1330000.0,1995,Cleveland Cavaliers
