age,and1s,astd_pts,drawn_offensive,drawn_shooting,fouls_offensive,fouls_shooting,g,lg_id,mp,own_shots_blk,pct_1,pct_2,pct_3,pct_4,pct_5,plus_minus_net,plus_minus_on,pos,season,team_id,tov_bad_pass,tov_lost_ball
26.0,2.0,21.0,0.0,14.0,4.0,28.0,33.0,NBA,319.0,21.0,0.0,0.0,32.0,56.0,12.0,-16.0,-10.2,PF,2001,DAL,10.0,6.0
27.0,20.0,138.0,0.0,66.0,15.0,85.0,64.0,NBA,1140.0,40.0,0.0,0.0,46.0,53.0,1.0,-9.0,-2.7,PF,2002,MIN,16.0,16.0
28.0,13.0,167.0,0.0,48.0,12.0,67.0,80.0,NBA,1222.0,32.0,0.0,0.0,65.0,35.0,0.0,-7.9,-3.2,SF,2003,MIN,18.0,20.0
29.0,14.0,110.0,0.0,41.0,16.0,59.0,68.0,NBA,1025.0,30.0,0.0,0.0,1.0,52.0,48.0,-14.4,-4.5,C,2004,MIN,14.0,18.0
