age,ast_per_poss,blk_per_poss,def_rtg,drb_per_poss,fg2_pct,fg2_per_poss,fg2a_per_poss,fg3_pct,fg3_per_poss,fg3a_per_poss,fg_pct,fg_per_poss,fga_per_poss,ft_pct,ft_per_poss,fta_per_poss,g,gs,lg_id,mp,off_rtg,orb_per_poss,pf_per_poss,pos,pts_per_poss,season,stl_per_poss,team_id,tov_per_poss,trb_per_poss
23.0,8.5,0.5,103.0,2.6,0.378,3.3,8.7,0.381,1.9,4.9,0.379,5.2,13.6,0.455,1.2,2.6,39.0,0.0,NBA,246.0,95.0,0.9,8.5,PG,13.4,1997,3.1,CLE,3.5,3.5
24.0,5.9,1.0,99.0,3.8,0.341,3.5,10.2,0.3,1.0,3.2,0.331,4.4,13.4,0.5,2.2,4.4,62.0,2.0,NBA,685.0,84.0,1.5,7.5,PG,12.0,1998,2.9,SAS,3.3,5.3
