age,ast,ast_per_g,blk,college_id,fg,fg3,fg3_pct,fg3a,fg_pct,fga,ft,ft_pct,fta,g,mp,mp_per_g,orb,pf,pts,pts_per_g,season,stl,tov,trb,trb_per_g
19.0,94.0,3.4,12.0,ARIZONA,44.0,7.0,0.226,31.0,0.423,104.0,22.0,0.458,48.0,28.0,582.0,20.8,0.0,57.0,117.0,4.2,1993,32.0,48.0,52.0,1.9
20.0,122.0,3.5,21.0,ARIZONA,94.0,27.0,0.303,89.0,0.45,209.0,45.0,0.6,75.0,35.0,1026.0,29.3,0.0,101.0,260.0,7.4,1994,60.0,66.0,131.0,3.7
21.0,113.0,3.6,14.0,ARIZONA,69.0,36.0,0.383,94.0,0.413,167.0,19.0,0.432,44.0,31.0,853.0,27.5,0.0,90.0,193.0,6.2,1995,49.0,88.0,96.0,3.1
22.0,231.0,7.0,24.0,ARIZONA,108.0,45.0,0.385,117.0,0.432,250.0,63.0,0.733,86.0,33.0,1090.0,33.0,0.0,109.0,324.0,9.8,1996,67.0,109.0,119.0,3.6
