age,avg_dist,fg2_dunk,fg2_pct,fg2_pct_ast,fg2a_pct_fga,fg3_heave,fg3_pct,fg3_pct_ast,fg3_pct_corner,fg3a_heave,fg3a_pct_fga,fg_pct,fg_pct_00_03,fg_pct_03_10,fg_pct_10_16,fg_pct_16_xx,g,lg_id,mp,pct_fg2_dunk,pct_fg3a_corner,pct_fga_00_03,pct_fga_03_10,pct_fga_10_16,pct_fga_16_xx,pos,season,team_id
25.0,15.2,12.0,0.488,0.47,0.522,0.0,0.332,0.986,0.345,2.0,0.478,0.413,0.707,0.341,0.296,0.321,78.0,NBA,1966.0,0.028,0.541,0.215,0.185,0.059,0.061,SG,2017,MIA
26.0,14.3,0.0,0.553,0.571,0.521,0.0,0.429,0.867,0.348,0.0,0.479,0.493,0.875,0.308,0.5,0.2,18.0,NBA,299.0,0.0,0.657,0.219,0.178,0.055,0.068,SG,2018,MIA
27.0,15.2,5.0,0.453,0.43,0.512,0.0,0.351,0.937,0.364,1.0,0.488,0.403,0.582,0.4,0.316,0.286,66.0,NBA,1550.0,0.013,0.342,0.197,0.217,0.082,0.015,SG,2019,MIA
28.0,17.0,0.0,0.3,1.0,0.435,0.0,0.462,1.0,0.5,0.0,0.565,0.391,0.0,0.286,1.0,0.0,8.0,NBA,127.0,0.0,0.462,0.087,0.304,0.043,0.0,SG,2020,LAC
