age,ast_per_mp,blk_per_mp,drb_per_mp,fg2_pct,fg2_per_mp,fg2a_per_mp,fg3_pct,fg3_per_mp,fg3a_per_mp,fg_pct,fg_per_mp,fga_per_mp,ft_pct,ft_per_mp,fta_per_mp,g,gs,lg_id,mp,orb_per_mp,pf_per_mp,pos,pts_per_mp,season,stl_per_mp,team_id,tov_per_mp,trb_per_mp
22.0,1.3,0.8,5.3,0.497,5.5,11.2,0.0,0.0,0.0,0.497,5.5,11.2,0.667,3.4,5.1,51.0,27.0,NBA,1058.0,4.0,4.4,PF,14.5,1992,0.9,DAL,2.6,9.4
23.0,2.1,1.1,5.7,0.403,4.6,11.4,0.0,0.0,0.0,0.403,4.6,11.4,0.683,2.0,3.0,79.0,8.0,NBA,1267.0,2.6,5.8,C,11.2,1993,0.9,DAL,2.6,8.4
24.0,2.7,1.1,4.1,0.455,3.9,8.5,0.0,0.0,0.0,0.455,3.9,8.5,0.846,3.7,4.4,50.0,0.0,NBA,428.0,3.9,5.6,C,11.4,1994,1.3,DAL,2.5,8.0
25.0,2.3,0.8,4.7,0.416,4.5,10.8,0.286,0.2,0.8,0.407,4.7,11.6,0.765,2.2,2.9,54.0,0.0,NBA,633.0,2.3,6.1,C,11.9,1995,0.6,DAL,2.2,6.9
26.0,1.3,2.5,4.4,0.375,2.8,7.5,0.0,0.0,0.0,0.375,2.8,7.5,0.0,0.0,0.0,15.0,0.0,NBA,115.0,2.8,8.1,C,5.6,1996,0.3,TOT,0.6,7.2
26.0,1.3,2.5,4.1,0.375,2.9,7.6,0.0,0.0,0.0,0.375,2.9,7.6,0.0,0.0,0.0,13.0,0.0,NBA,113.0,2.9,8.3,C,5.7,1996,0.3,DAL,0.6,7.0
26.0,0.0,0.0,18.0,0.0,0.0,0.0,0.0,0.0,0.0,0.0,0.0,0.0,0.0,0.0,0.0,2.0,0.0,NBA,2.0,0.0,0.0,C,0.0,1996,0.0,CHH,0.0,18.0
