age,ast_per_poss,blk_per_poss,def_rtg,drb_per_poss,fg2_pct,fg2_per_poss,fg2a_per_poss,fg3_pct,fg3_per_poss,fg3a_per_poss,fg_pct,fg_per_poss,fga_per_poss,ft_pct,ft_per_poss,fta_per_poss,g,gs,lg_id,mp,off_rtg,orb_per_poss,pf_per_poss,pos,pts_per_poss,season,stl_per_poss,team_id,tov_per_poss,trb_per_poss
27.0,1.7,0.9,110.0,6.0,0.452,6.0,13.3,0.167,0.4,2.6,0.405,6.4,15.9,0.905,8.2,9.0,4.0,4.0,NBA,130.0,109.0,3.4,5.6,SG,21.5,2004,3.9,MEM,2.6,9.4
28.0,2.1,0.5,125.0,6.3,0.4,2.1,5.2,0.467,3.7,7.9,0.44,5.8,13.1,0.769,5.2,6.8,4.0,0.0,NBA,100.0,116.0,0.5,7.3,SF,20.4,2005,1.0,MEM,2.6,6.8
29.0,1.8,0.2,101.0,9.6,0.452,1.2,2.7,0.422,3.1,7.3,0.43,4.3,10.0,0.73,2.4,3.2,22.0,1.0,NBA,607.0,124.0,1.3,6.1,SF,14.0,2006,1.5,MIA,1.0,11.0
30.0,2.3,1.9,102.0,11.3,0.571,1.5,2.6,0.316,2.3,7.2,0.385,3.8,9.8,1.0,1.9,1.9,4.0,1.0,NBA,139.0,100.0,0.4,6.8,SF,11.7,2007,3.0,MIA,1.9,11.7
31.0,2.7,0.8,101.0,7.9,0.548,1.7,3.0,0.398,3.4,8.6,0.437,5.1,11.6,0.875,3.4,3.9,26.0,0.0,NBA,573.0,127.0,1.2,5.9,PF,17.0,2008,2.5,BOS,1.4,9.1
32.0,1.3,0.0,119.0,11.3,0.476,4.3,9.1,0.263,2.2,8.3,0.375,6.5,17.4,0.846,9.6,11.3,5.0,0.0,NBA,123.0,100.0,2.2,5.2,SG,24.8,2009,1.3,NOH,4.3,13.5
