age,ast,blk,drb,fg,fg2,fg2a,fg3,fg3a,fga,ft,fta,game_score,lg_id,mp,orb,pf,pts,season,stl,team_id,tov,trb
23.0,9.0,3.0,9.0,9.0,6.0,11.0,6.0,8.0,15.0,10.0,10.0,23.5,NBA,0.0,4.0,6.0,25.0,2000,5.0,DEN,5.0,9.0
24.0,6.0,4.0,16.0,8.0,7.0,16.0,4.0,7.0,17.0,9.0,11.0,19.7,NBA,0.0,7.0,6.0,23.0,2001,4.0,DEN,4.0,19.0
25.0,7.0,3.0,14.0,12.0,10.0,16.0,5.0,9.0,24.0,8.0,8.0,25.9,NBA,0.0,5.0,6.0,33.0,2002,6.0,DEN,6.0,16.0
26.0,10.0,2.0,12.0,9.0,9.0,18.0,5.0,8.0,22.0,10.0,11.0,30.3,NBA,0.0,4.0,6.0,26.0,2003,5.0,TOT,7.0,15.0
26.0,10.0,1.0,12.0,9.0,9.0,18.0,3.0,8.0,22.0,10.0,11.0,21.9,NBA,0.0,4.0,6.0,24.0,2003,4.0,DEN,7.0,14.0
26.0,8.0,2.0,12.0,9.0,7.0,11.0,5.0,7.0,15.0,8.0,8.0,30.3,NBA,0.0,4.0,5.0,26.0,2003,5.0,HOU,5.0,15.0
27.0,6.0,4.0,9.0,10.0,8.0,13.0,5.0,8.0,18.0,15.0,18.0,34.4,NBA,0.0,5.0,6.0,38.0,2004,6.0,MEM,4.0,11.0
28.0,7.0,3.0,9.0,7.0,6.0,9.0,5.0,7.0,16.0,7.0,7.0,19.0,NBA,0.0,4.0,5.0,22.0,2005,4.0,MEM,6.0,10.0
29.0,6.0,2.0,10.0,6.0,3.0,8.0,5.0,9.0,12.0,4.0,5.0,16.8,NBA,46.0,3.0,6.0,19.0,2006,4.0,MIA,3.0,10.0
30.0,6.0,2.0,10.0,8.0,5.0,7.0,7.0,11.0,13.0,6.0,6.0,25.0,NBA,41.0,4.0,6.0,26.0,2007,4.0,MIA,3.0,13.0
31.0,6.0,2.0,10.0,7.0,4.0,8.0,5.0,11.0,13.0,5.0,7.0,17.3,NBA,42.0,2.0,6.0,19.0,2008,4.0,BOS,4.0,11.0
32.0,4.0,3.0,11.0,8.0,6.0,8.0,7.0,11.0,19.0,6.0,7.0,21.1,NBA,40.0,2.0,6.0,24.0,2009,4.0,NOH,3.0,12.0
33.0,6.0,2.0,9.0,5.0,3.0,4.0,4.0,8.0,11.0,4.0,4.0,14.6,NBA,42.0,2.0,6.0,14.0,2010,3.0,NOH,4.0,10.0
34.0,2.0,2.0,8.0,7.0,2.0,4.0,5.0,8.0,12.0,2.0,3.0,15.5,NBA,33.0,2.0,6.0,19.0,2011,2.0,IND,3.0,8.0
