lg_id,salary,season,team_name
NBA,974520.0,2000,Denver Nuggets
NBA,1047600.0,2001,Denver Nuggets
NBA,1120680.0,2002,Denver Nuggets
NBA,1723606.0,2003,Houston Rockets
NBA,4917000.0,2004,Memphis Grizzlies
NBA,5408700.0,2005,Memphis Grizzlies
NBA,5900400.0,2006,Miami Heat
NBA,6392100.0,2007,Miami Heat
NBA,3206000.0,2008,Boston Celtics
NBA,5585000.0,2009,New Orleans Hornets
NBA,6031800.0,2010,New Orleans Hornets
NBA,7148800.0,2011,Indiana Pacers
NBA,7595600.0,2012,Indiana Pacers
