age,ast_per_poss,blk_per_poss,def_rtg,drb_per_poss,fg2_pct,fg2_per_poss,fg2a_per_poss,fg3_pct,fg3_per_poss,fg3a_per_poss,fg_pct,fg_per_poss,fga_per_poss,ft_pct,ft_per_poss,fta_per_poss,g,gs,lg_id,mp,off_rtg,orb_per_poss,pf_per_poss,pos,pts_per_poss,season,stl_per_poss,team_id,tov_per_poss,trb_per_poss
23.0,2.9,1.6,108.0,7.0,0.403,7.6,18.8,0.0,0.0,0.0,0.403,7.6,18.8,0.571,2.1,3.6,30.0,0.0,NBA,190.0,87.0,4.7,9.9,C,17.2,1989,1.0,CHI,3.9,11.7
24.0,2.6,1.5,109.0,7.1,0.422,6.2,14.8,0.0,0.0,0.3,0.414,6.2,15.0,0.692,4.0,5.8,77.0,11.0,NBA,884.0,97.0,4.9,8.4,C,16.5,1990,1.1,CHI,3.6,12.0
25.0,2.4,2.9,102.0,11.1,0.5,6.0,12.0,0.0,0.0,0.2,0.494,6.0,12.1,0.67,3.9,5.8,74.0,3.0,NBA,972.0,105.0,6.3,7.6,C,15.9,1991,1.2,CHI,3.9,17.4
26.0,4.0,2.2,103.0,10.3,0.547,7.6,13.9,0.5,0.1,0.1,0.547,7.7,14.0,0.495,2.3,4.6,77.0,7.0,NBA,1007.0,107.0,5.5,6.7,C,17.7,1992,0.8,CHI,3.6,15.8
27.0,3.8,2.4,104.0,9.6,0.559,7.1,12.7,0.0,0.0,0.1,0.557,7.1,12.8,0.604,3.5,5.8,72.0,16.0,NBA,998.0,109.0,5.4,7.2,C,17.7,1993,1.1,CHI,3.8,14.9
28.0,4.5,1.4,101.0,11.3,0.423,6.2,14.6,0.0,0.0,0.1,0.42,6.2,14.7,0.719,3.0,4.2,43.0,6.0,NBA,397.0,89.0,5.3,8.0,C,15.4,1994,1.1,CHI,5.5,16.6
29.0,2.9,1.8,103.0,10.2,0.555,8.3,15.0,0.0,0.0,0.0,0.553,8.3,15.0,0.582,3.7,6.4,78.0,78.0,NBA,1592.0,111.0,6.9,7.2,C,20.3,1995,0.9,CHI,3.8,17.1
30.0,1.2,2.8,100.0,11.4,0.524,6.4,12.2,0.0,0.0,0.0,0.523,6.4,12.2,0.536,2.5,4.6,80.0,22.0,NBA,1396.0,104.0,6.4,6.7,C,15.2,1996,1.0,SAS,3.2,17.9
31.0,1.1,2.9,109.0,11.1,0.568,6.7,11.8,0.0,0.0,0.0,0.568,6.7,11.8,0.579,2.8,4.9,65.0,34.0,NBA,1918.0,115.0,7.2,5.3,C,16.2,1997,0.9,SAS,2.5,18.3
32.0,2.1,1.8,96.0,13.0,0.551,5.9,10.7,0.0,0.0,0.0,0.549,5.9,10.7,0.526,2.5,4.8,79.0,30.0,NBA,1491.0,108.0,6.4,5.0,C,14.3,1998,0.8,SAS,2.9,19.5
33.0,2.2,1.2,92.0,12.8,0.633,4.6,7.3,0.0,0.0,0.0,0.633,4.6,7.3,0.538,1.7,3.2,37.0,1.0,NBA,445.0,109.0,4.0,7.7,C,11.0,1999,1.1,SAS,2.7,16.8
34.0,3.4,2.2,104.0,9.2,0.351,3.1,8.9,0.0,0.0,0.0,0.351,3.1,8.9,0.476,2.7,5.6,67.0,15.0,NBA,1012.0,78.0,4.7,6.7,C,8.9,2000,0.7,CHI,4.1,13.9
35.0,1.9,1.9,96.0,11.1,0.667,5.6,8.4,0.0,0.0,0.0,0.667,5.6,8.4,0.5,1.9,3.7,13.0,0.0,NBA,58.0,150.0,5.6,7.4,C,13.0,2001,2.8,POR,0.0,16.7
