age,ast_per_mp,blk_per_mp,drb_per_mp,fg2_pct,fg2_per_mp,fg2a_per_mp,fg3_pct,fg3_per_mp,fg3a_per_mp,fg_pct,fg_per_mp,fga_per_mp,ft_pct,ft_per_mp,fta_per_mp,g,gs,lg_id,mp,orb_per_mp,pf_per_mp,pos,pts_per_mp,season,stl_per_mp,team_id,tov_per_mp,trb_per_mp
23.0,3.3,0.0,4.9,0.75,9.8,13.1,0.0,0.0,1.6,0.667,9.8,14.7,0.667,3.3,4.9,3.0,0.0,NBA,22.0,4.9,6.5,C,22.9,1989,0.0,CHI,0.0,9.8
24.0,0.9,2.3,5.5,0.462,5.5,12.0,0.5,0.5,0.9,0.464,6.0,12.9,0.722,6.0,8.3,13.0,0.0,NBA,78.0,3.2,6.0,C,18.5,1990,0.0,CHI,1.8,8.8
25.0,0.7,1.5,6.0,0.547,5.3,9.6,0.0,0.0,0.0,0.547,5.3,9.6,0.545,2.2,4.0,17.0,0.0,NBA,198.0,5.8,7.5,C,12.7,1991,0.4,CHI,2.5,11.8
26.0,2.1,2.3,5.0,0.5,4.1,8.3,0.0,0.0,0.2,0.486,4.1,8.5,0.45,2.1,4.6,18.0,0.0,NBA,157.0,4.1,7.8,C,10.3,1992,0.7,CHI,2.8,9.2
27.0,1.8,0.7,5.3,0.5,3.6,7.1,0.0,0.0,0.0,0.5,3.6,7.1,0.5,1.8,3.6,13.0,0.0,NBA,101.0,5.3,6.4,C,8.9,1993,0.4,CHI,2.9,10.7
29.0,1.2,0.6,6.1,0.514,3.9,7.6,0.0,0.0,0.0,0.514,3.9,7.6,0.571,2.5,4.3,10.0,2.0,NBA,176.0,3.7,5.5,C,10.2,1995,0.2,CHI,2.0,9.8
30.0,0.7,0.6,7.9,0.69,4.3,6.2,0.0,0.0,0.0,0.69,4.3,6.2,0.8,2.4,3.0,10.0,2.0,NBA,242.0,3.9,3.6,C,11.0,1996,0.3,SAS,1.6,11.8
32.0,0.2,1.7,6.8,0.333,1.7,5.1,0.0,0.0,0.0,0.333,1.7,5.1,0.857,3.4,4.0,9.0,7.0,NBA,191.0,4.5,4.9,C,6.8,1998,1.1,SAS,2.1,11.3
33.0,0.0,0.4,8.0,0.545,2.5,4.6,0.0,0.0,0.0,0.545,2.5,4.6,0.5,0.4,0.8,12.0,0.0,NBA,86.0,3.8,8.0,C,5.4,1999,0.0,SAS,1.3,11.7
35.0,0.0,0.0,7.2,0.0,0.0,0.0,0.0,0.0,0.0,0.0,0.0,0.0,0.0,0.0,14.4,3.0,0.0,NBA,5.0,7.2,0.0,C,0.0,2001,0.0,POR,0.0,14.4
