age,ast,ast_per_g,blk,college_id,fg,fg3,fg3_pct,fg3a,fg_pct,fga,ft,ft_pct,fta,g,mp,mp_per_g,orb,pf,pts,pts_per_g,season,stl,tov,trb,trb_per_g
18.0,2.0,0.1,4.0,VANDY,21.0,0.0,0.0,0.0,0.467,45.0,4.0,0.444,9.0,17.0,111.0,6.5,0.0,16.0,46.0,2.7,1984,2.0,10.0,38.0,2.2
20.0,4.0,0.2,13.0,VANDY,31.0,0.0,0.0,0.0,0.585,53.0,14.0,0.438,32.0,22.0,181.0,8.2,0.0,22.0,76.0,3.5,1986,2.0,13.0,61.0,2.8
21.0,50.0,1.5,72.0,VANDY,233.0,0.0,0.0,0.0,0.599,389.0,126.0,0.618,204.0,34.0,1033.0,30.4,0.0,95.0,592.0,17.4,1987,15.0,70.0,295.0,8.7
22.0,81.0,2.6,74.0,VANDY,234.0,0.0,0.0,0.0,0.634,369.0,99.0,0.673,147.0,31.0,1013.0,32.7,0.0,105.0,567.0,18.3,1988,13.0,65.0,314.0,10.1
