age,ast,ast_per_g,blk,college_id,fg,fg3,fg3_pct,fg3a,fg_pct,fga,ft,ft_pct,fta,g,mp,mp_per_g,orb,pf,pts,pts_per_g,season,stl,tov,trb,trb_per_g
18.0,0.0,0.0,0.0,EVANSVILLE,2.0,0.0,0.0,0.0,0.286,7.0,0.0,0.0,1.0,2.0,16.0,8.0,0.0,0.0,4.0,2.0,1986,0.0,0.0,1.0,0.5
19.0,5.0,0.2,0.0,EVANSVILLE,59.0,0.0,0.0,0.0,0.541,109.0,15.0,0.6,25.0,23.0,440.0,19.1,0.0,0.0,133.0,5.8,1987,0.0,0.0,101.0,4.4
20.0,30.0,1.0,0.0,EVANSVILLE,176.0,0.0,0.0,0.0,0.607,290.0,68.0,0.68,100.0,29.0,849.0,29.3,0.0,0.0,420.0,14.5,1988,0.0,0.0,246.0,8.5
21.0,34.0,1.1,0.0,EVANSVILLE,201.0,0.0,0.0,0.0,0.628,320.0,89.0,0.701,127.0,31.0,909.0,29.3,0.0,0.0,491.0,15.8,1989,0.0,0.0,248.0,8.0
22.0,12.0,0.7,0.0,EVANSVILLE,134.0,1.0,0.5,2.0,0.59,227.0,69.0,0.734,94.0,17.0,546.0,32.1,0.0,0.0,338.0,19.9,1990,0.0,0.0,141.0,8.3
