age,avg_dist,fg2_dunk,fg2_pct,fg2_pct_ast,fg2a_pct_fga,fg3_heave,fg3_pct,fg3_pct_ast,fg3_pct_corner,fg3a_heave,fg3a_pct_fga,fg_pct,fg_pct_00_03,fg_pct_03_10,fg_pct_10_16,fg_pct_16_xx,g,lg_id,mp,pct_fg2_dunk,pct_fg3a_corner,pct_fga_00_03,pct_fga_03_10,pct_fga_10_16,pct_fga_16_xx,pos,season,team_id
20.0,14.7,1.0,0.414,0.655,0.769,0.0,0.19,0.75,0.1,0.0,0.231,0.363,0.611,0.364,0.273,0.367,37.0,NBA,319.0,0.011,0.476,0.198,0.121,0.121,0.33,SF,2014,WAS
21.0,14.3,22.0,0.491,0.759,0.734,0.0,0.337,0.943,0.364,1.0,0.266,0.45,0.75,0.333,0.455,0.377,74.0,NBA,1432.0,0.056,0.423,0.225,0.13,0.084,0.292,SF,2015,WAS
22.0,15.2,18.0,0.536,0.68,0.628,0.0,0.367,0.969,0.385,2.0,0.372,0.473,0.674,0.364,0.45,0.472,75.0,NBA,2276.0,0.028,0.36,0.244,0.077,0.084,0.225,SF,2016,WAS
23.0,16.3,21.0,0.576,0.665,0.575,0.0,0.434,0.966,0.423,1.0,0.425,0.516,0.709,0.513,0.5,0.507,80.0,NBA,2605.0,0.027,0.402,0.197,0.1,0.09,0.189,SF,2017,WAS
24.0,15.4,19.0,0.537,0.632,0.646,0.0,0.441,0.913,0.456,1.0,0.354,0.503,0.707,0.445,0.422,0.525,77.0,NBA,2432.0,0.021,0.182,0.177,0.124,0.145,0.2,SF,2018,WAS
25.0,16.7,6.0,0.504,0.605,0.602,0.0,0.406,0.875,0.42,0.0,0.398,0.465,0.663,0.571,0.458,0.374,56.0,NBA,1683.0,0.009,0.27,0.152,0.109,0.149,0.191,SF,2019,TOT
25.0,16.3,4.0,0.515,0.642,0.602,0.0,0.369,0.923,0.4,0.0,0.398,0.457,0.684,0.596,0.448,0.355,41.0,NBA,1191.0,0.009,0.313,0.172,0.106,0.152,0.172,SF,2019,WAS
25.0,17.5,2.0,0.479,0.517,0.602,0.0,0.488,0.795,0.5,0.0,0.398,0.483,0.591,0.522,0.483,0.404,15.0,NBA,492.0,0.01,0.175,0.109,0.114,0.144,0.234,SF,2019,CHI
26.0,15.9,1.0,0.432,0.211,0.524,0.0,0.4,0.875,0.5,0.0,0.476,0.417,0.412,0.692,0.125,0.333,9.0,NBA,226.0,0.012,0.25,0.202,0.155,0.095,0.071,SF,2020,CHI
