age,ast_per_mp,blk_per_mp,drb_per_mp,fg2_pct,fg2_per_mp,fg2a_per_mp,fg3_pct,fg3_per_mp,fg3a_per_mp,fg_pct,fg_per_mp,fga_per_mp,ft_pct,ft_per_mp,fta_per_mp,g,gs,lg_id,mp,orb_per_mp,pf_per_mp,pos,pts_per_mp,season,stl_per_mp,team_id,tov_per_mp,trb_per_mp
20.0,0.0,0.0,0.0,0.5,6.0,12.0,0.0,0.0,6.0,0.333,6.0,18.0,0.0,0.0,0.0,3.0,0.0,NBA,6.0,0.0,0.0,SF,12.0,2014,0.0,WAS,0.0,0.0
21.0,2.0,0.2,6.1,0.482,2.9,6.1,0.375,1.3,3.5,0.443,4.2,9.6,0.476,1.1,2.3,10.0,0.0,NBA,331.0,2.6,1.7,SF,10.9,2015,1.3,WAS,0.7,8.7
23.0,1.9,0.6,6.3,0.671,4.0,5.9,0.282,0.9,3.3,0.532,4.9,9.2,0.886,2.6,2.9,13.0,13.0,NBA,428.0,1.3,2.2,SF,13.3,2017,1.8,WAS,0.8,7.6
24.0,1.8,1.1,5.5,0.517,3.4,6.6,0.417,1.1,2.7,0.488,4.6,9.3,0.625,1.1,1.8,5.0,5.0,NBA,158.0,0.2,1.4,SF,11.4,2018,1.4,WAS,0.7,5.7
