age,and1s,astd_pts,drawn_offensive,drawn_shooting,fouls_offensive,fouls_shooting,g,lg_id,mp,own_shots_blk,pct_1,pct_2,pct_3,pct_4,pct_5,plus_minus_net,plus_minus_on,pos,season,team_id,tov_bad_pass,tov_lost_ball
20.0,3.0,23.0,1.0,6.0,1.0,9.0,37.0,NBA,319.0,3.0,0.0,72.0,28.0,0.0,0.0,-5.0,-3.3,SF,2014,WAS,8.0,4.0
21.0,6.0,142.0,2.0,31.0,10.0,38.0,74.0,NBA,1432.0,18.0,0.0,12.0,86.0,2.0,0.0,-1.8,-0.2,SF,2015,WAS,23.0,10.0
22.0,13.0,267.0,12.0,53.0,9.0,77.0,75.0,NBA,2276.0,27.0,0.0,0.0,81.0,18.0,1.0,3.1,0.8,SF,2016,WAS,24.0,25.0
23.0,22.0,274.0,12.0,52.0,5.0,102.0,80.0,NBA,2605.0,14.0,0.0,1.0,77.0,23.0,0.0,3.8,3.0,SF,2017,WAS,27.0,7.0
24.0,15.0,365.0,3.0,57.0,8.0,72.0,77.0,NBA,2432.0,19.0,0.0,0.0,66.0,34.0,0.0,11.8,5.4,SF,2018,WAS,39.0,18.0
25.0,18.0,275.0,11.0,46.0,8.0,55.0,56.0,NBA,1683.0,13.0,0.0,4.0,59.0,36.0,1.0,7.0,-0.3,SF,2019,TOT,32.0,17.0
25.0,12.0,188.0,8.0,31.0,2.0,42.0,41.0,NBA,1191.0,10.0,0.0,6.0,58.0,36.0,0.0,3.3,-0.6,SF,2019,WAS,22.0,10.0
25.0,6.0,87.0,3.0,15.0,6.0,13.0,15.0,NBA,492.0,3.0,0.0,0.0,62.0,36.0,2.0,10.5,0.6,SF,2019,CHI,10.0,7.0
26.0,3.0,33.0,1.0,9.0,0.0,11.0,9.0,NBA,226.0,3.0,0.0,0.0,93.0,7.0,0.0,7.2,1.1,SF,2020,CHI,5.0,1.0
