age,and1s,astd_pts,drawn_offensive,drawn_shooting,fouls_offensive,fouls_shooting,g,lg_id,mp,own_shots_blk,pct_1,pct_2,pct_3,pct_4,pct_5,plus_minus_net,plus_minus_on,pos,season,team_id,tov_bad_pass,tov_lost_ball
20.0,18.0,1202.0,11.0,92.0,19.0,81.0,82.0,NBA,2489.0,101.0,97.0,3.0,0.0,0.0,0.0,7.1,-3.4,PG,2015,ORL,117.0,45.0
21.0,28.0,1051.0,7.0,82.0,12.0,54.0,73.0,NBA,2145.0,87.0,93.0,7.0,0.0,0.0,0.0,0.4,-1.5,PG,2016,ORL,83.0,58.0
22.0,28.0,1206.0,10.0,88.0,7.0,72.0,82.0,NBA,2412.0,99.0,76.0,24.0,1.0,0.0,0.0,10.0,-3.1,PG,2017,ORL,95.0,51.0
23.0,27.0,932.0,6.0,81.0,10.0,61.0,63.0,NBA,1808.0,56.0,92.0,8.0,0.0,0.0,0.0,-6.0,-11.9,PG,2018,TOT,93.0,38.0
23.0,16.0,658.0,6.0,53.0,7.0,43.0,44.0,NBA,1257.0,32.0,90.0,11.0,0.0,0.0,0.0,-3.9,-7.6,PG,2018,ORL,56.0,30.0
23.0,11.0,274.0,0.0,28.0,3.0,18.0,19.0,NBA,551.0,24.0,98.0,2.0,0.0,0.0,0.0,-13.7,-21.4,PG,2018,PHO,37.0,8.0
24.0,10.0,743.0,7.0,31.0,6.0,27.0,42.0,NBA,1250.0,46.0,100.0,1.0,0.0,0.0,0.0,-1.4,-2.3,PG,2019,NOP,71.0,27.0
25.0,0.0,35.0,0.0,3.0,1.0,4.0,4.0,NBA,102.0,2.0,100.0,0.0,0.0,0.0,0.0,15.2,3.0,PG,2020,NYK,4.0,1.0
