age,ast,blk,drb,fg,fg2,fg2a,fg3,fg3a,fga,ft,fta,game_score,lg_id,mp,orb,pf,pts,season,stl,team_id,tov,trb
20.0,13.0,2.0,9.0,10.0,10.0,17.0,2.0,3.0,19.0,5.0,15.0,31.1,NBA,43,5.0,5.0,22.0,2015,6.0,ORL,6.0,10.0
21.0,12.0,2.0,7.0,11.0,11.0,23.0,2.0,4.0,23.0,11.0,17.0,21.7,NBA,42,5.0,5.0,24.0,2016,5.0,ORL,5.0,10.0
22.0,15.0,3.0,10.0,11.0,10.0,17.0,3.0,7.0,19.0,9.0,11.0,34.2,NBA,40,6.0,6.0,28.0,2017,3.0,ORL,8.0,14.0
23.0,14.0,2.0,10.0,11.0,11.0,18.0,3.0,5.0,18.0,8.0,9.0,32.2,NBA,40,5.0,5.0,30.0,2018,5.0,TOT,6.0,11.0
23.0,13.0,2.0,7.0,11.0,11.0,18.0,3.0,5.0,18.0,8.0,9.0,32.2,NBA,40,5.0,5.0,30.0,2018,5.0,ORL,6.0,8.0
23.0,14.0,2.0,10.0,11.0,9.0,16.0,2.0,4.0,18.0,6.0,8.0,21.5,NBA,40,4.0,5.0,29.0,2018,3.0,PHO,6.0,11.0
24.0,16.0,3.0,14.0,10.0,8.0,13.0,3.0,7.0,19.0,7.0,8.0,25.0,NBA,44,7.0,5.0,26.0,2019,3.0,NOP,6.0,15.0
25.0,8.0,0.0,4.0,4.0,3.0,7.0,2.0,3.0,10.0,2.0,2.0,15.5,NBA,31,2.0,5.0,11.0,2020,5.0,NYK,4.0,4.0
