age,ast_per_g,blk_per_g,drb_per_g,efg_pct,fg2_pct,fg2_per_g,fg2a_per_g,fg3_pct,fg3_per_g,fg3a_per_g,fg_pct,fg_per_g,fga_per_g,ft_pct,ft_per_g,fta_per_g,g,gs,lg_id,mp_per_g,orb_per_g,pf_per_g,pos,pts_per_g,season,stl_per_g,team_id,tov_per_g,trb_per_g
22.0,0.1,0.6,1.5,0.545,0.545,1.6,2.9,0.0,0.0,0.0,0.545,1.6,2.9,0.56,0.9,1.7,15.0,0.0,NBA,9.1,1.0,1.4,PF,4.1,2015,0.3,GSW,0.4,2.5
23.0,0.4,0.2,0.7,0.542,0.537,1.1,2.0,0.5,0.0,0.0,0.536,1.1,2.0,0.531,0.6,1.2,41.0,1.0,NBA,6.4,0.7,1.0,PF,2.9,2016,0.2,GSW,0.4,1.4
24.0,0.3,0.6,1.1,0.538,0.55,1.2,2.1,0.25,0.0,0.2,0.53,1.2,2.3,0.5,0.4,0.8,52.0,2.0,NBA,8.8,0.7,0.9,PF,2.8,2017,0.3,GSW,0.4,1.8
25.0,0.0,0.3,0.7,0.429,0.0,0.0,0.0,0.286,0.7,2.3,0.286,0.7,2.3,1.0,0.7,0.7,3.0,0.0,NBA,6.0,0.0,0.3,PF,2.7,2018,0.0,PHI,0.3,0.7
