age,ast,ast_per_g,blk,college_id,fg,fg3,fg3_pct,fg3a,fg_pct,fga,ft,ft_pct,fta,g,mp,mp_per_g,orb,pf,pts,pts_per_g,season,stl,tov,trb,trb_per_g
19.0,11.0,0.3,13.0,UNC,85.0,0.0,0.0,0.0,0.434,196.0,60.0,0.638,94.0,38.0,594.0,15.6,53.0,53.0,230.0,6.1,2012,33.0,29.0,147.0,3.9
20.0,41.0,1.1,14.0,UNC,209.0,0.0,0.0,2.0,0.445,470.0,100.0,0.578,173.0,36.0,1079.0,30.0,89.0,84.0,518.0,14.4,2013,54.0,96.0,263.0,7.3
21.0,59.0,1.7,31.0,UNC,173.0,0.0,0.0,7.0,0.458,378.0,138.0,0.537,257.0,34.0,1023.0,30.1,90.0,92.0,484.0,14.2,2014,45.0,48.0,230.0,6.8
