age,ast_per_mp,blk_per_mp,drb_per_mp,fg2_pct,fg2_per_mp,fg2a_per_mp,fg3_pct,fg3_per_mp,fg3a_per_mp,fg_pct,fg_per_mp,fga_per_mp,ft_pct,ft_per_mp,fta_per_mp,g,gs,lg_id,mp,orb_per_mp,pf_per_mp,pos,pts_per_mp,season,stl_per_mp,team_id,tov_per_mp,trb_per_mp
25.0,5.4,0.0,2.5,0.381,3.1,8.1,0.0,0.0,0.1,0.378,3.1,8.2,0.7,4.1,5.9,35.0,0.0,NBA,430.0,0.8,2.6,PG,10.3,1998,1.1,TOT,3.7,3.3
25.0,5.4,0.0,2.5,0.333,2.4,7.1,0.0,0.0,0.0,0.333,2.4,7.1,0.72,3.0,4.2,16.0,0.0,NBA,214.0,1.0,2.7,PG,7.7,1998,1.0,DAL,2.7,3.5
25.0,5.5,0.0,2.5,0.418,3.8,9.2,0.0,0.0,0.2,0.411,3.8,9.3,0.689,5.2,7.5,19.0,0.0,NBA,216.0,0.5,2.5,PG,12.8,1998,1.2,ORL,4.7,3.0
26.0,1.5,0.5,3.5,0.286,2.0,7.0,0.0,0.0,0.0,0.286,2.0,7.0,0.714,2.5,3.5,8.0,0.0,NBA,72.0,0.0,4.5,PG,6.5,1999,1.5,TOT,1.5,3.5
26.0,1.6,0.5,3.2,0.308,2.1,6.9,0.0,0.0,0.0,0.308,2.1,6.9,0.8,2.1,2.6,7.0,0.0,NBA,68.0,0.0,4.2,PG,6.4,1999,1.6,SAC,1.6,3.2
26.0,0.0,0.0,9.0,0.0,0.0,9.0,0.0,0.0,0.0,0.0,0.0,9.0,0.5,9.0,18.0,1.0,0.0,NBA,4.0,0.0,9.0,PG,9.0,1999,0.0,ORL,0.0,9.0
27.0,5.7,0.0,3.4,0.449,2.7,6.1,0.0,0.0,0.0,0.449,2.7,6.1,0.757,3.5,4.6,40.0,0.0,NBA,290.0,0.5,3.4,PG,8.9,2000,1.2,PHI,1.2,3.8
28.0,5.7,0.0,3.1,0.397,2.9,7.4,0.333,0.0,0.1,0.396,3.0,7.5,0.708,2.5,3.5,70.0,4.0,NBA,925.0,0.6,3.3,PG,8.4,2001,1.2,TOT,1.9,3.7
28.0,5.6,0.0,4.5,0.185,1.1,6.0,0.0,0.0,0.0,0.185,1.1,6.0,0.632,2.7,4.2,19.0,0.0,NBA,161.0,0.7,3.1,PG,4.9,2001,1.1,NJN,2.0,5.1
28.0,5.7,0.0,2.8,0.432,3.3,7.6,0.333,0.0,0.1,0.43,3.3,7.8,0.729,2.4,3.3,51.0,4.0,NBA,764.0,0.6,3.3,PG,9.1,2001,1.2,PHI,1.9,3.4
29.0,6.1,0.0,3.3,0.387,2.8,7.3,0.5,0.0,0.0,0.388,2.9,7.4,0.824,3.9,4.7,81.0,17.0,NBA,1723.0,0.5,2.0,PG,9.7,2002,1.3,TOT,2.2,3.8
29.0,6.1,0.0,3.5,0.382,3.0,7.9,0.5,0.0,0.1,0.383,3.0,7.9,0.838,3.4,4.1,52.0,17.0,NBA,1146.0,0.6,2.0,PG,9.5,2002,1.1,CHI,2.5,4.0
29.0,6.1,0.1,3.1,0.4,2.5,6.2,0.0,0.0,0.0,0.4,2.5,6.2,0.804,4.9,6.1,29.0,0.0,NBA,577.0,0.4,2.1,PG,9.9,2002,1.6,IND,1.6,3.5
30.0,5.5,0.1,3.0,0.453,3.7,8.3,0.333,0.0,0.1,0.451,3.8,8.4,0.753,2.5,3.4,82.0,5.0,NBA,1897.0,0.5,2.3,PG,10.1,2003,1.3,TOT,1.4,3.5
30.0,5.8,0.1,2.8,0.464,3.7,8.0,0.2,0.0,0.2,0.459,3.7,8.1,0.747,2.2,2.9,53.0,4.0,NBA,1127.0,0.4,2.3,PG,9.7,2003,1.2,MIL,1.1,3.2
30.0,5.1,0.0,3.3,0.438,3.8,8.6,1.0,0.0,0.0,0.441,3.8,8.7,0.759,3.1,4.1,29.0,1.0,NBA,770.0,0.6,2.4,PG,10.8,2003,1.5,SEA,1.7,3.9
31.0,6.0,0.2,3.8,0.367,2.3,6.4,0.444,0.1,0.2,0.37,2.4,6.6,0.835,3.8,4.5,82.0,7.0,NBA,1401.0,0.6,3.1,PG,8.8,2004,1.3,CLE,2.1,4.4
32.0,4.3,0.0,3.6,0.355,2.5,7.1,0.0,0.0,0.0,0.355,2.5,7.1,0.667,1.4,2.1,26.0,0.0,NBA,158.0,0.7,3.6,PG,6.4,2005,1.1,PHI,1.4,4.3
33.0,3.4,0.1,2.9,0.433,2.5,5.8,0.333,0.0,0.1,0.431,2.5,5.9,0.837,1.4,1.7,70.0,23.0,NBA,1069.0,0.4,3.5,SG,6.5,2006,1.1,PHI,1.0,3.3
34.0,5.1,0.0,2.6,0.438,3.2,7.2,0.0,0.0,0.1,0.433,3.2,7.3,0.822,1.4,1.8,53.0,23.0,NBA,919.0,0.3,3.0,PG,7.8,2007,0.8,PHI,1.8,2.9
35.0,4.6,0.0,1.8,0.426,3.5,8.2,0.0,0.0,0.1,0.42,3.5,8.3,0.8,1.4,1.8,40.0,0.0,NBA,300.0,0.5,3.4,SG,8.4,2008,1.2,PHI,0.6,2.3
36.0,5.0,0.2,2.6,0.409,2.6,6.3,0.0,0.0,0.0,0.407,2.6,6.4,0.833,3.4,4.1,50.0,21.0,NBA,850.0,0.6,3.3,PG,8.6,2009,0.8,MIN,1.4,3.2
37.0,2.7,0.0,3.0,0.409,2.5,6.0,0.0,0.0,0.1,0.4,2.5,6.2,1.0,1.1,1.1,25.0,0.0,NBA,263.0,0.4,2.2,PG,6.0,2010,1.2,OKC,0.8,3.4
