age,avg_dist,fg2_dunk,fg2_pct,fg2_pct_ast,fg2a_pct_fga,fg3_heave,fg3_pct,fg3_pct_ast,fg3_pct_corner,fg3a_heave,fg3a_pct_fga,fg_pct,fg_pct_00_03,fg_pct_03_10,fg_pct_10_16,fg_pct_16_xx,g,lg_id,mp,pct_fg2_dunk,pct_fg3a_corner,pct_fga_00_03,pct_fga_03_10,pct_fga_10_16,pct_fga_16_xx,pos,season,team_id
28.0,10.8,0.0,0.397,0.627,0.984,0.0,0.333,0.0,0.0,0.0,0.016,0.396,0.531,0.156,0.404,0.411,70.0,NBA,925.0,0.0,0.0,0.255,0.167,0.271,0.292,PG,2001,TOT
28.0,7.5,0.0,0.185,0.2,1.0,0.0,0.0,0.0,0.0,0.0,0.0,0.185,0.083,0.333,0.429,0.0,19.0,NBA,161.0,0.0,0.0,0.444,0.111,0.259,0.185,PG,2001,NJN
28.0,11.3,0.0,0.432,0.657,0.982,0.0,0.333,0.0,0.0,0.0,0.018,0.43,0.676,0.138,0.4,0.451,51.0,NBA,764.0,0.0,0.0,0.224,0.176,0.273,0.309,PG,2001,PHI
29.0,9.9,0.0,0.387,0.647,0.994,0.0,0.5,1.0,0.5,0.0,0.006,0.388,0.496,0.333,0.309,0.331,81.0,NBA,1723.0,0.0,1.0,0.36,0.119,0.156,0.36,PG,2002,TOT
29.0,10.2,0.0,0.382,0.667,0.992,0.0,0.5,1.0,0.5,0.0,0.008,0.383,0.478,0.28,0.343,0.333,52.0,NBA,1146.0,0.0,1.0,0.364,0.099,0.138,0.391,PG,2002,CHI
29.0,9.1,0.0,0.4,0.6,1.0,0.0,0.0,0.0,0.0,0.0,0.0,0.4,0.543,0.412,0.25,0.321,29.0,NBA,577.0,0.0,0.0,0.35,0.17,0.2,0.28,PG,2002,IND
30.0,10.2,0.0,0.453,0.736,0.986,0.0,0.333,1.0,0.5,0.0,0.014,0.451,0.592,0.296,0.371,0.407,82.0,NBA,1897.0,0.0,0.333,0.345,0.122,0.141,0.379,PG,2003,TOT
30.0,10.9,0.0,0.464,0.759,0.98,0.0,0.2,1.0,0.5,0.0,0.02,0.459,0.563,0.44,0.409,0.416,53.0,NBA,1127.0,0.0,0.4,0.314,0.098,0.173,0.396,PG,2003,MIL
30.0,9.2,0.0,0.438,0.704,0.995,0.0,1.0,1.0,0.0,0.0,0.005,0.441,0.625,0.172,0.278,0.394,29.0,NBA,770.0,0.0,0.0,0.387,0.156,0.097,0.355,PG,2003,SEA
31.0,11.0,0.0,0.367,0.615,0.965,0.0,0.444,0.75,0.0,0.0,0.035,0.37,0.455,0.31,0.281,0.365,82.0,NBA,1401.0,0.0,0.0,0.3,0.113,0.222,0.331,PG,2004,CLE
32.0,12.5,0.0,0.355,0.727,1.0,0.0,0.0,0.0,0.0,0.0,0.0,0.355,0.4,0.2,0.2,0.438,26.0,NBA,158.0,0.0,0.0,0.161,0.161,0.161,0.516,PG,2005,PHI
33.0,12.8,0.0,0.433,0.689,0.983,0.0,0.333,0.0,0.0,0.0,0.017,0.431,0.476,0.429,0.395,0.429,70.0,NBA,1069.0,0.0,0.0,0.241,0.04,0.218,0.483,SG,2006,PHI
34.0,11.6,0.0,0.438,0.58,0.989,0.0,0.0,0.0,0.0,0.0,0.011,0.433,0.542,0.3,0.432,0.411,53.0,NBA,919.0,0.0,0.0,0.257,0.107,0.235,0.39,PG,2007,PHI
35.0,10.5,0.0,0.426,0.724,0.986,0.0,0.0,0.0,0.0,0.0,0.014,0.42,0.524,0.455,0.182,0.44,40.0,NBA,300.0,0.0,0.0,0.304,0.159,0.159,0.362,SG,2008,PHI
36.0,11.1,0.0,0.409,0.525,0.993,0.0,0.0,0.0,0.0,0.0,0.007,0.407,0.587,0.294,0.421,0.313,50.0,NBA,850.0,0.0,0.0,0.307,0.113,0.127,0.447,PG,2009,MIN
37.0,12.3,0.0,0.409,0.778,0.978,0.0,0.0,0.0,0.0,0.0,0.022,0.4,0.462,0.5,0.5,0.348,25.0,NBA,263.0,0.0,1.0,0.289,0.044,0.133,0.511,PG,2010,OKC
