age,ast_per_mp,blk_per_mp,drb_per_mp,fg2_pct,fg2_per_mp,fg2a_per_mp,fg3_pct,fg3_per_mp,fg3a_per_mp,fg_pct,fg_per_mp,fga_per_mp,ft_pct,ft_per_mp,fta_per_mp,g,gs,lg_id,mp,orb_per_mp,pf_per_mp,pos,pts_per_mp,season,stl_per_mp,team_id,tov_per_mp,trb_per_mp
23.0,1.4,0.6,6.0,0.475,6.8,14.3,0.0,0.0,0.0,0.475,6.8,14.3,0.679,2.6,3.8,55.0,53.0,NBA,1807.0,2.7,2.8,PF,16.2,1988,1.2,PHO,2.5,8.6
24.0,0.9,0.5,6.4,0.503,7.9,15.8,0.0,0.0,0.0,0.503,7.9,15.8,0.743,4.1,5.5,74.0,60.0,NBA,2120.0,2.8,3.0,PF,20.0,1989,0.9,PHO,2.4,9.2
25.0,1.5,0.8,5.8,0.516,7.2,13.9,0.0,0.0,0.0,0.515,7.2,13.9,0.723,4.5,6.2,76.0,66.0,NBA,2426.0,3.1,3.1,PF,18.9,1990,1.0,TOT,2.7,8.9
25.0,1.1,0.7,5.9,0.43,7.0,16.3,0.0,0.0,0.0,0.43,7.0,16.3,0.696,5.3,7.6,16.0,7.0,NBA,267.0,3.5,3.8,PF,19.3,1990,0.8,PHO,2.3,9.4
25.0,1.5,0.8,5.7,0.529,7.2,13.6,0.0,0.0,0.0,0.527,7.2,13.7,0.727,4.4,6.1,60.0,59.0,NBA,2159.0,3.1,3.1,PF,18.8,1990,1.1,CHH,2.8,8.8
26.0,1.4,0.7,5.1,0.487,6.6,13.6,0.0,0.0,0.0,0.487,6.6,13.6,0.815,3.6,4.5,75.0,75.0,NBA,2644.0,3.0,2.5,PF,16.9,1991,0.9,TOT,2.4,8.1
26.0,1.0,0.8,5.6,0.513,7.4,14.4,0.0,0.0,0.0,0.513,7.4,14.4,0.813,3.9,4.9,25.0,25.0,NBA,949.0,3.3,2.5,PF,18.7,1991,1.3,CHH,2.4,8.9
26.0,1.7,0.7,4.9,0.472,6.2,13.1,0.0,0.0,0.0,0.47,6.2,13.2,0.816,3.5,4.3,50.0,50.0,NBA,1695.0,2.8,2.5,PF,15.9,1991,0.7,PHI,2.3,7.7
27.0,1.5,1.1,5.5,0.513,6.7,13.0,0.0,0.0,0.0,0.511,6.7,13.0,0.807,4.5,5.5,81.0,81.0,NBA,2771.0,3.0,2.3,PF,17.8,1992,0.7,PHI,2.2,8.6
28.0,2.4,1.1,6.9,0.464,7.4,16.0,0.0,0.0,0.0,0.464,7.4,16.0,0.843,5.7,6.7,80.0,26.0,NBA,1742.0,2.8,2.5,PF,20.5,1993,0.8,PHI,3.2,9.8
29.0,1.3,1.1,5.5,0.511,6.4,12.5,0.0,0.0,0.0,0.51,6.4,12.5,0.759,5.0,6.6,82.0,5.0,NBA,1969.0,3.6,2.4,PF,17.7,1994,0.7,NJN,1.9,9.1
30.0,1.4,1.3,6.1,0.504,6.6,13.2,0.0,0.0,0.0,0.503,6.6,13.2,0.77,4.4,5.7,82.0,30.0,NBA,2472.0,2.8,2.5,PF,17.7,1995,1.0,NJN,2.2,8.9
31.0,1.8,0.7,5.9,0.474,7.3,15.3,0.0,0.0,0.0,0.474,7.3,15.3,0.791,3.5,4.4,78.0,76.0,NBA,2856.0,3.0,2.3,SF,18.0,1996,0.9,NJN,2.2,9.0
32.0,0.9,0.7,6.3,0.471,4.3,9.2,0.0,0.0,0.0,0.471,4.3,9.2,0.768,3.5,4.5,80.0,25.0,NBA,2050.0,2.4,3.6,PF,12.1,1997,1.1,MIL,1.8,8.7
33.0,1.8,0.6,5.0,0.487,5.6,11.4,0.0,0.0,0.1,0.484,5.6,11.5,0.802,4.5,5.7,82.0,25.0,NBA,2114.0,2.5,3.0,PF,15.7,1998,1.1,MIL,2.5,7.5
34.0,1.0,0.6,5.0,0.455,5.4,12.0,0.0,0.0,0.1,0.453,5.4,12.0,0.782,4.3,5.4,34.0,5.0,NBA,668.0,1.8,2.6,PF,15.1,1999,1.2,MIL,1.9,6.8
35.0,1.9,0.7,6.3,0.438,6.1,14.0,0.0,0.0,0.0,0.436,6.1,14.0,0.779,3.1,4.0,50.0,0.0,NBA,782.0,3.3,3.8,PF,15.3,2000,0.6,UTA,2.5,9.6
