age,ast,blk,drb,efg_pct,fg,fg2,fg2_pct,fg2a,fg3,fg3_pct,fg3a,fg_pct,fga,ft,ft_pct,fta,g,gs,lg_id,mp,orb,pf,pos,pts,season,stl,team_id,tov,trb
24.0,2.0,2.0,27.0,0.529,27.0,27.0,0.529,51.0,0.0,0.0,0.0,0.529,51.0,19.0,0.864,22.0,9.0,0.0,NBA,126.0,18.0,11.0,PF,73.0,1989,1.0,PHO,10.0,45.0
26.0,10.0,6.0,38.0,0.462,48.0,48.0,0.462,104.0,0.0,0.0,0.0,0.462,104.0,39.0,0.848,46.0,8.0,8.0,NBA,287.0,14.0,16.0,PF,135.0,1991,5.0,PHI,15.0,52.0
29.0,1.0,7.0,24.0,0.441,15.0,15.0,0.455,33.0,0.0,0.0,1.0,0.441,34.0,12.0,0.75,16.0,4.0,0.0,NBA,112.0,1.0,7.0,PF,42.0,1994,2.0,NJN,3.0,25.0
34.0,1.0,1.0,5.0,0.4,6.0,6.0,0.4,15.0,0.0,0.0,0.0,0.4,15.0,5.0,1.0,5.0,3.0,0.0,NBA,35.0,0.0,4.0,PF,17.0,1999,2.0,MIL,1.0,5.0
35.0,4.0,4.0,23.0,0.326,15.0,15.0,0.326,46.0,0.0,0.0,0.0,0.326,46.0,5.0,0.385,13.0,10.0,0.0,NBA,132.0,6.0,15.0,PF,35.0,2000,4.0,UTA,11.0,29.0
