age,ast_per_poss,blk_per_poss,def_rtg,drb_per_poss,fg2_pct,fg2_per_poss,fg2a_per_poss,fg3_pct,fg3_per_poss,fg3a_per_poss,fg_pct,fg_per_poss,fga_per_poss,ft_pct,ft_per_poss,fta_per_poss,g,gs,lg_id,mp,off_rtg,orb_per_poss,pf_per_poss,pos,pts_per_poss,season,stl_per_poss,team_id,tov_per_poss,trb_per_poss
24.0,0.7,0.7,108.0,9.9,0.529,9.9,18.6,0.0,0.0,0.0,0.529,9.9,18.6,0.864,6.9,8.0,9.0,0.0,NBA,126.0,117.0,6.6,4.0,PF,26.6,1989,0.4,PHO,3.7,16.4
26.0,1.9,1.1,113.0,7.1,0.462,8.9,19.4,0.0,0.0,0.0,0.462,8.9,19.4,0.848,7.3,8.6,8.0,8.0,NBA,287.0,108.0,2.6,3.0,PF,25.1,1991,0.9,PHI,2.8,9.7
29.0,0.5,3.4,98.0,11.5,0.455,7.2,15.9,0.0,0.0,0.5,0.441,7.2,16.4,0.75,5.8,7.7,4.0,0.0,NBA,112.0,105.0,0.5,3.4,PF,20.2,1994,1.0,NJN,1.4,12.0
34.0,1.6,1.6,111.0,7.8,0.4,9.3,23.3,0.0,0.0,0.0,0.4,9.3,23.3,1.0,7.8,7.8,3.0,0.0,NBA,35.0,103.0,0.0,6.2,PF,26.4,1999,3.1,MIL,1.6,7.8
35.0,1.7,1.7,103.0,9.5,0.326,6.2,19.1,0.0,0.0,0.0,0.326,6.2,19.1,0.385,2.1,5.4,10.0,0.0,NBA,132.0,65.0,2.5,6.2,PF,14.5,2000,1.7,UTA,4.6,12.0
