age,avg_dist,fg2_dunk,fg2_pct,fg2_pct_ast,fg2a_pct_fga,fg3_heave,fg3_pct,fg3_pct_ast,fg3_pct_corner,fg3a_heave,fg3a_pct_fga,fg_pct,fg_pct_00_03,fg_pct_03_10,fg_pct_10_16,fg_pct_16_xx,g,lg_id,mp,pct_fg2_dunk,pct_fg3a_corner,pct_fga_00_03,pct_fga_03_10,pct_fga_10_16,pct_fga_16_xx,pos,season,team_id
21.0,16.2,1.0,0.324,0.682,0.8,0.0,0.294,0.8,0.286,0.0,0.2,0.318,0.273,0.333,0.375,0.326,35.0,NBA,196.0,0.012,0.412,0.129,0.071,0.094,0.506,SG,2002,NJN
22.0,16.9,0.0,0.381,0.625,0.778,0.0,0.167,1.0,0.0,0.0,0.222,0.333,0.5,0.0,0.333,0.385,17.0,NBA,69.0,0.0,0.167,0.148,0.037,0.111,0.481,SG,2003,NJN
23.0,17.4,0.0,0.374,0.761,0.703,0.0,0.365,0.684,0.333,0.0,0.297,0.371,0.545,0.0,0.389,0.342,56.0,NBA,434.0,0.0,0.404,0.126,0.023,0.103,0.451,SG,2004,NJN
