age,ast_per_poss,blk_per_poss,def_rtg,drb_per_poss,fg2_pct,fg2_per_poss,fg2a_per_poss,fg3_pct,fg3_per_poss,fg3a_per_poss,fg_pct,fg_per_poss,fga_per_poss,ft_pct,ft_per_poss,fta_per_poss,g,gs,lg_id,mp,off_rtg,orb_per_poss,pf_per_poss,pos,pts_per_poss,season,stl_per_poss,team_id,tov_per_poss,trb_per_poss
21.0,2.1,0.3,104.0,1.6,0.324,5.9,18.1,0.294,1.3,4.5,0.318,7.2,22.7,0.5,1.3,2.7,35.0,0.0,NBA,196.0,79.0,2.7,6.9,SG,17.1,2002,1.9,NJN,2.1,4.3
22.0,1.5,0.8,100.0,3.0,0.381,6.1,16.0,0.167,0.8,4.6,0.333,6.8,20.5,0.833,3.8,4.6,17.0,0.0,NBA,69.0,76.0,0.0,6.1,SG,18.2,2003,2.3,NJN,3.8,3.0
23.0,1.7,0.2,102.0,3.8,0.374,5.7,15.2,0.365,2.3,6.4,0.371,8.0,21.6,0.5,0.2,0.5,56.0,0.0,NBA,434.0,80.0,1.5,6.1,SG,18.7,2004,1.5,NJN,3.0,5.3
