age,ast,blk,drb,efg_pct,fg,fg2,fg2_pct,fg2a,fg3,fg3_pct,fg3a,fg_pct,fga,ft,ft_pct,fta,g,gs,lg_id,mp,orb,pf,pos,pts,season,stl,team_id,tov,trb
21.0,8.0,1.0,6.0,0.347,27.0,22.0,0.324,68.0,5.0,0.294,17.0,0.318,85.0,5.0,0.5,10.0,35.0,0.0,NBA,196.0,10.0,26.0,SG,64.0,2002,7.0,NJN,8.0,16.0
22.0,2.0,1.0,4.0,0.352,9.0,8.0,0.381,21.0,1.0,0.167,6.0,0.333,27.0,5.0,0.833,6.0,17.0,0.0,NBA,69.0,0.0,8.0,SG,24.0,2003,3.0,NJN,5.0,4.0
23.0,14.0,2.0,31.0,0.426,65.0,46.0,0.374,123.0,19.0,0.365,52.0,0.371,175.0,2.0,0.5,4.0,56.0,0.0,NBA,434.0,12.0,49.0,SG,151.0,2004,12.0,NJN,24.0,43.0
