age,ast,ast_per_g,blk,college_id,fg,fg3,fg3_pct,fg3a,fg_pct,fga,ft,ft_pct,fta,g,mp,mp_per_g,orb,pf,pts,pts_per_g,season,stl,tov,trb,trb_per_g
19.0,50.0,1.5,8.0,PEPPERDINE,190.0,66.0,0.4,165.0,0.429,443.0,45.0,0.818,55.0,34.0,947.0,27.9,0.0,83.0,491.0,14.4,2000,64.0,61.0,108.0,3.2
20.0,46.0,1.5,6.0,PEPPERDINE,240.0,76.0,0.384,198.0,0.447,537.0,128.0,0.826,155.0,31.0,1027.0,33.1,0.0,85.0,684.0,22.1,2001,46.0,65.0,101.0,3.3
