age,ast,blk,drb,efg_pct,fg,fg2,fg2_pct,fg2a,fg3,fg3_pct,fg3a,fg_pct,fga,ft,ft_pct,fta,g,gs,lg_id,mp,orb,pf,pos,pts,season,stl,team_id,tov,trb
23.0,1.0,0.0,2.0,0.333,2.0,2.0,0.4,5.0,0.0,0.0,1.0,0.333,6.0,6.0,1.0,6.0,6.0,0.0,NBA,17.0,2.0,3.0,SF,10.0,1998,0.0,CHI,3.0,4.0
24.0,38.0,11.0,68.0,0.328,49.0,48.0,0.34,141.0,1.0,0.1,10.0,0.325,151.0,21.0,0.5,42.0,39.0,4.0,NBA,432.0,25.0,60.0,SF,120.0,1999,22.0,CHI,39.0,93.0
