age,ast_per_mp,blk_per_mp,drb_per_mp,fg2_pct,fg2_per_mp,fg2a_per_mp,fg3_pct,fg3_per_mp,fg3a_per_mp,fg_pct,fg_per_mp,fga_per_mp,ft_pct,ft_per_mp,fta_per_mp,g,gs,lg_id,mp,orb_per_mp,pf_per_mp,pos,pts_per_mp,season,stl_per_mp,team_id,tov_per_mp,trb_per_mp
23.0,0.0,0.0,4.9,0.455,4.1,9.0,0.0,0.0,0.0,0.455,4.1,9.0,0.0,0.0,1.6,5.0,0.0,NBA,44.0,1.6,4.9,C,8.2,1988,2.5,SEA,0.8,6.5
24.0,0.2,0.9,7.8,0.61,5.6,9.1,0.0,0.0,0.0,0.61,5.6,9.1,0.538,1.6,2.9,8.0,0.0,NBA,162.0,6.0,7.1,C,12.7,1989,1.3,SEA,1.1,13.8
27.0,1.1,0.6,9.1,0.583,4.0,6.9,0.0,0.0,0.0,0.583,4.0,6.9,0.333,1.1,3.4,5.0,0.0,NBA,63.0,1.1,6.3,C,9.1,1992,0.6,LAC,0.6,10.3
31.0,0.8,1.8,8.2,0.511,5.9,11.5,1.0,0.3,0.3,0.522,6.1,11.7,0.667,1.5,2.3,4.0,4.0,NBA,141.0,4.1,3.8,C,14.0,1996,0.3,SAC,0.8,12.3
35.0,0.7,1.1,5.8,0.538,3.9,7.2,0.0,0.0,0.0,0.538,3.9,7.2,0.5,0.4,0.8,10.0,10.0,NBA,260.0,3.3,5.0,C,8.2,2000,0.4,UTA,1.8,9.1
36.0,0.4,0.7,1.1,0.552,5.8,10.4,0.0,0.0,0.4,0.533,5.8,10.8,0.7,2.5,3.6,5.0,5.0,NBA,100.0,5.8,4.3,C,14.0,2001,0.4,UTA,2.2,6.8
