age,ast_per_poss,blk_per_poss,def_rtg,drb_per_poss,fg2_pct,fg2_per_poss,fg2a_per_poss,fg3_pct,fg3_per_poss,fg3a_per_poss,fg_pct,fg_per_poss,fga_per_poss,ft_pct,ft_per_poss,fta_per_poss,g,gs,lg_id,mp,off_rtg,orb_per_poss,pf_per_poss,pos,pts_per_poss,season,stl_per_poss,team_id,tov_per_poss,trb_per_poss
21.0,0.0,2.3,105.0,7.9,0.5,4.5,9.1,0.0,0.0,0.0,0.5,4.5,9.1,0.3,1.7,5.7,10.0,0.0,NBA,85.0,87.0,5.1,8.5,C,10.8,2017,0.6,GSW,3.4,13.0
22.0,1.1,1.6,111.0,4.9,0.5,6.0,11.9,0.0,0.0,0.0,0.5,6.0,11.9,0.6,1.6,2.7,15.0,0.0,NBA,89.0,99.0,2.7,7.6,C,13.5,2018,0.5,GSW,2.2,7.6
23.0,3.2,2.9,109.0,5.1,0.716,6.1,8.6,0.0,0.0,0.0,0.716,6.1,8.6,0.649,2.8,4.3,24.0,22.0,NBA,410.0,137.0,3.6,7.3,C,15.1,2019,1.4,GSW,1.9,8.7
24.0,1.9,1.9,108.0,6.0,0.743,8.2,11.0,0.5,0.3,0.6,0.73,8.5,11.6,0.5,0.9,1.9,10.0,2.0,NBA,151.0,126.0,4.1,8.5,C,18.2,2020,1.9,ATL,2.5,10.0
