age,ast_per_mp,blk_per_mp,drb_per_mp,fg2_pct,fg2_per_mp,fg2a_per_mp,fg3_pct,fg3_per_mp,fg3a_per_mp,fg_pct,fg_per_mp,fga_per_mp,ft_pct,ft_per_mp,fta_per_mp,g,gs,lg_id,mp,orb_per_mp,pf_per_mp,pos,pts_per_mp,season,stl_per_mp,team_id,tov_per_mp,trb_per_mp
21.0,0.0,1.7,3.4,0.429,5.1,12.0,0.0,0.0,0.0,0.429,5.1,12.0,0.5,1.7,3.4,4.0,0.0,NBA,21.0,6.9,5.1,C,12.0,2017,3.4,GSW,0.0,10.3
22.0,0.0,0.0,6.5,0.5,3.3,6.5,0.0,0.0,0.0,0.5,3.3,6.5,0.667,6.5,9.8,4.0,0.0,NBA,11.0,3.3,13.1,C,13.1,2018,0.0,GSW,9.8,9.8
23.0,0.0,0.0,9.0,1.0,4.5,4.5,0.0,0.0,0.0,1.0,4.5,4.5,0.5,4.5,9.0,4.0,1.0,NBA,8.0,0.0,13.5,C,13.5,2019,0.0,GSW,4.5,9.0
