age,ast,ast_per_g,blk,college_id,fg,fg3,fg3_pct,fg3a,fg_pct,fga,ft,ft_pct,fta,g,mp,mp_per_g,orb,pf,pts,pts_per_g,season,stl,tov,trb,trb_per_g
19.0,5.0,0.3,12.0,CALIFORNIA,22.0,0.0,0.0,0.0,0.512,43.0,13.0,0.542,24.0,19.0,177.0,9.3,0.0,27.0,57.0,3.0,1995,5.0,15.0,14.0,0.7
20.0,3.0,0.3,5.0,CALIFORNIA,6.0,0.0,0.0,0.0,0.273,22.0,1.0,1.0,1.0,12.0,92.0,7.7,0.0,17.0,13.0,1.1,1996,1.0,7.0,24.0,2.0
21.0,20.0,0.7,30.0,CALIFORNIA,90.0,8.0,0.571,14.0,0.52,173.0,43.0,0.683,63.0,29.0,513.0,17.7,0.0,58.0,231.0,8.0,1997,15.0,43.0,143.0,4.9
22.0,19.0,0.7,24.0,CALIFORNIA,96.0,2.0,0.182,11.0,0.478,201.0,62.0,0.689,90.0,26.0,0.0,0.0,0.0,0.0,256.0,9.8,1998,27.0,0.0,197.0,7.6
