age,ast_per_g,blk_per_g,drb_per_g,efg_pct,fg2_pct,fg2_per_g,fg2a_per_g,fg3_pct,fg3_per_g,fg3a_per_g,fg_pct,fg_per_g,fga_per_g,ft_pct,ft_per_g,fta_per_g,g,gs,lg_id,mp_per_g,orb_per_g,pf_per_g,pos,pts_per_g,season,stl_per_g,team_id,tov_per_g,trb_per_g
22.0,0.6,0.2,2.4,0.497,0.497,3.2,6.5,0.0,0.0,0.0,0.497,3.2,6.5,0.722,2.3,3.2,72.0,5.0,NBA,17.0,2.6,2.1,SF,8.7,1990,0.3,ORL,0.7,5.0
23.0,0.4,0.1,2.0,0.548,0.548,2.1,3.9,0.0,0.0,0.0,0.548,2.1,3.9,0.717,1.4,1.9,67.0,1.0,NBA,13.1,1.8,1.9,SF,5.7,1991,0.4,ORL,0.5,3.8
24.0,0.2,0.0,0.4,0.444,0.444,0.8,1.8,0.0,0.0,0.0,0.444,0.8,1.8,0.833,0.5,0.6,10.0,0.0,NBA,4.5,0.2,0.7,SF,2.1,1992,0.0,TOT,0.3,0.6
24.0,0.3,0.0,0.3,0.455,0.455,0.6,1.4,0.0,0.0,0.0,0.455,0.6,1.4,0.833,0.6,0.8,8.0,0.0,NBA,4.0,0.3,0.8,SF,1.9,1992,0.0,PHI,0.4,0.5
24.0,0.0,0.0,1.0,0.429,0.429,1.5,3.5,0.0,0.0,0.0,0.429,1.5,3.5,0.0,0.0,0.0,2.0,0.0,NBA,6.5,0.0,0.5,SF,3.0,1992,0.0,CHH,0.0,1.0
