article_url,date,headline
https://orlandomagicdaily.com/2019/09/24/2020-orlando-magic-player-outlook-markelle-fultz/,2019/09/24,Orlando Magic Daily: 2020 Orlando Magic Player Outlook: Markelle Fultz
https://orlandomagicdaily.com/2019/09/05/ben-uzoh-is-playing-proof-markelle-fultz-can-regain-his-form/,2019/09/05,Orlando Magic Daily: Ben Uzoh is playing proof Markelle Fultz can regain his form
https://orlandomagicdaily.com/2019/08/30/watch-orlando-magics-players-fiba-world-cup/,2019/08/30,Orlando Magic Daily: What to watch for from Orlando Magic's players at FIBA World Cup
https://thunderousintentions.com/2019/08/30/2019-fiba-world-cup-group-b/,2019/08/30,"Thunderous Intentions: 2019 FIBA World Cup Group B preview: Russia, Argentina, Korea, Nigeria"
https://sircharlesincharge.com/2019/08/29/fiba-world-cup-nba-teams-united-states/,2019/08/29,Sir Charles In Charge: FIBA World Cup: How would the 9 best FIBA squads perform in the NBA?
