age,ast,ast_per_g,blk,college_id,fg,fg3,fg3_pct,fg3a,fg_pct,fga,ft,ft_pct,fta,g,mp,mp_per_g,orb,pf,pts,pts_per_g,season,stl,tov,trb,trb_per_g
18.0,46.0,1.5,26.0,TULSA,96.0,29.0,0.392,74.0,0.412,233.0,85.0,0.759,112.0,31.0,0.0,0.0,0.0,0.0,306.0,9.9,2007,35.0,0.0,155.0,5.0
19.0,88.0,2.3,29.0,TULSA,208.0,55.0,0.35,157.0,0.488,426.0,137.0,0.806,170.0,39.0,0.0,0.0,0.0,0.0,608.0,15.6,2008,39.0,92.0,212.0,5.4
20.0,128.0,3.6,18.0,TULSA,169.0,40.0,0.328,122.0,0.438,386.0,125.0,0.791,158.0,36.0,0.0,0.0,0.0,0.0,503.0,14.0,2009,54.0,93.0,175.0,4.9
21.0,163.0,4.7,26.0,TULSA,184.0,49.0,0.343,143.0,0.457,403.0,117.0,0.765,153.0,35.0,1202.0,34.3,34.0,60.0,534.0,15.3,2010,34.0,80.0,163.0,4.7
