age,ast_per_g,blk_per_g,drb_per_g,efg_pct,fg2_pct,fg2_per_g,fg2a_per_g,fg3_pct,fg3_per_g,fg3a_per_g,fg_pct,fg_per_g,fga_per_g,ft_pct,ft_per_g,fta_per_g,g,gs,lg_id,mp_per_g,orb_per_g,pf_per_g,pos,pts_per_g,season,stl_per_g,team_id,tov_per_g,trb_per_g
21.0,0.0,0.0,0.0,0.0,0.0,0.0,0.0,0.0,0.0,0.0,0.0,0.0,0.0,0.0,0.0,0.0,1.0,0.0,NBA,1.0,0.0,0.0,SF,0.0,2007,0.0,MIA,0.0,0.0
23.0,0.0,0.0,0.0,0.0,0.0,0.0,0.0,0.0,0.0,0.0,0.0,0.0,0.0,0.0,0.0,0.0,1.0,0.0,NBA,3.0,0.0,0.0,SF,0.0,2009,0.0,MIA,0.0,0.0
24.0,1.8,0.0,3.4,0.4,0.412,1.4,3.4,0.25,0.4,1.6,0.36,1.8,5.0,1.0,1.0,1.0,5.0,0.0,NBA,22.4,0.4,0.6,SF,5.0,2010,0.4,MIA,1.2,3.8
28.0,0.4,1.1,1.8,0.474,0.429,0.4,0.9,0.333,0.5,1.5,0.368,0.9,2.4,0.733,1.4,1.9,8.0,0.0,NBA,11.0,0.3,1.0,SF,3.6,2014,0.4,POR,0.6,2.0
30.0,0.4,0.0,1.2,0.6,0.6,0.6,1.0,0.4,0.4,1.0,0.5,1.0,2.0,1.0,0.8,0.8,5.0,0.0,NBA,3.8,0.0,0.4,SF,3.2,2016,0.0,MIA,0.0,1.2
