age,ast_per_mp,blk_per_mp,drb_per_mp,fg2_pct,fg2_per_mp,fg2a_per_mp,fg3_pct,fg3_per_mp,fg3a_per_mp,fg_pct,fg_per_mp,fga_per_mp,ft_pct,ft_per_mp,fta_per_mp,g,gs,lg_id,mp,orb_per_mp,pf_per_mp,pos,pts_per_mp,season,stl_per_mp,team_id,tov_per_mp,trb_per_mp
21.0,0.0,0.0,0.0,0.0,0.0,0.0,0.0,0.0,0.0,0.0,0.0,0.0,0.0,0.0,0.0,1.0,0.0,NBA,1.0,0.0,0.0,SF,0.0,2007,0.0,MIA,0.0,0.0
23.0,0.0,0.0,0.0,0.0,0.0,0.0,0.0,0.0,0.0,0.0,0.0,0.0,0.0,0.0,0.0,1.0,0.0,NBA,3.0,0.0,0.0,SF,0.0,2009,0.0,MIA,0.0,0.0
24.0,2.9,0.0,5.5,0.412,2.3,5.5,0.25,0.6,2.6,0.36,2.9,8.0,1.0,1.6,1.6,5.0,0.0,NBA,112.0,0.6,1.0,SF,8.0,2010,0.6,MIA,1.9,6.1
28.0,1.2,3.7,5.7,0.429,1.2,2.9,0.333,1.6,4.9,0.368,2.9,7.8,0.733,4.5,6.1,8.0,0.0,NBA,88.0,0.8,3.3,SF,11.9,2014,1.2,POR,2.0,6.5
30.0,3.8,0.0,11.4,0.6,5.7,9.5,0.4,3.8,9.5,0.5,9.5,18.9,1.0,7.6,7.6,5.0,0.0,NBA,19.0,0.0,3.8,SF,30.3,2016,0.0,MIA,0.0,11.4
