age,ast_per_g,blk_per_g,drb_per_g,efg_pct,fg2_pct,fg2_per_g,fg2a_per_g,fg3_pct,fg3_per_g,fg3a_per_g,fg_pct,fg_per_g,fga_per_g,ft_pct,ft_per_g,fta_per_g,g,gs,lg_id,mp_per_g,orb_per_g,pf_per_g,pos,pts_per_g,season,stl_per_g,team_id,tov_per_g,trb_per_g
26.0,0.2,0.1,0.8,0.418,0.37,0.6,1.7,0.444,0.1,0.3,0.382,0.8,2.0,0.5,0.3,0.6,27.0,6.0,NBA,6.8,0.5,0.7,SF,2.0,2001,0.1,SAS,0.3,1.3
27.0,1.1,0.5,3.4,0.5,0.508,3.1,6.1,0.143,0.0,0.2,0.498,3.1,6.3,0.852,1.8,2.1,42.0,35.0,NBA,30.3,1.9,2.8,SF,8.0,2002,0.9,ATL,1.2,5.3
28.0,1.4,0.4,2.5,0.529,0.52,2.7,5.2,0.381,0.4,1.2,0.495,3.2,6.4,0.778,1.0,1.2,73.0,45.0,NBA,26.5,1.2,2.4,SF,7.7,2003,0.7,ATL,0.9,3.7
29.0,1.1,0.3,1.4,0.395,0.412,1.7,4.0,0.105,0.0,0.3,0.391,1.7,4.3,0.783,0.6,0.7,64.0,25.0,NBA,19.5,1.0,1.7,SF,4.0,2004,0.4,CLE,0.8,2.4
30.0,1.2,0.2,1.9,0.452,0.439,2.2,5.0,0.358,0.3,0.7,0.429,2.5,5.7,0.797,0.7,0.9,74.0,69.0,NBA,24.8,1.1,1.9,SG,5.9,2005,0.7,CLE,0.8,3.0
31.0,0.3,0.3,1.0,0.325,0.318,0.4,1.2,0.231,0.1,0.4,0.298,0.5,1.6,0.688,0.3,0.4,36.0,3.0,NBA,9.8,0.6,1.3,SG,1.3,2006,0.1,CLE,0.3,1.6
32.0,0.1,0.0,1.1,0.541,0.364,0.5,1.5,0.533,0.5,1.0,0.432,1.1,2.5,0.6,0.4,0.7,15.0,1.0,NBA,8.6,0.9,1.1,SF,3.1,2007,0.4,CLE,0.2,2.0
33.0,0.4,0.2,1.6,0.483,0.48,1.2,2.6,0.327,0.3,1.0,0.437,1.6,3.6,0.769,0.4,0.5,49.0,13.0,NBA,14.2,1.0,1.4,SG-SF,3.8,2008,0.6,TOT,0.7,2.6
33.0,0.3,0.2,1.8,0.497,0.496,1.4,2.8,0.333,0.4,1.1,0.449,1.7,3.9,0.769,0.5,0.6,41.0,13.0,NBA,15.9,1.0,1.6,SG,4.3,2008,0.7,CLE,0.8,2.8
33.0,0.5,0.0,0.0,0.286,0.4,1.0,2.5,0.0,0.0,1.0,0.286,1.0,3.5,0.0,0.0,0.0,2.0,0.0,NBA,8.5,0.0,0.0,SF,2.0,2008,0.0,SEA,0.0,0.0
33.0,0.5,0.2,0.8,0.389,0.286,0.3,1.2,0.5,0.2,0.3,0.333,0.5,1.5,0.0,0.0,0.0,6.0,0.0,NBA,5.2,1.0,0.8,SF,1.2,2008,0.2,LAL,0.5,1.8
