age,and1s,astd_pts,drawn_offensive,drawn_shooting,fouls_offensive,fouls_shooting,g,lg_id,mp,own_shots_blk,pct_1,pct_2,pct_3,pct_4,pct_5,plus_minus_net,plus_minus_on,pos,season,team_id,tov_bad_pass,tov_lost_ball
26.0,0.0,13.0,0.0,5.0,0.0,5.0,27.0,NBA,184.0,7.0,0.0,2.0,88.0,10.0,0.0,-25.9,-15.8,SF,2001,SAS,6.0,0.0
27.0,8.0,106.0,0.0,38.0,6.0,62.0,42.0,NBA,1273.0,28.0,0.0,84.0,17.0,0.0,0.0,6.7,-0.3,SF,2002,ATL,27.0,9.0
28.0,14.0,220.0,0.0,45.0,12.0,81.0,73.0,NBA,1931.0,31.0,0.0,56.0,38.0,6.0,0.0,-5.9,-6.8,SF,2003,ATL,37.0,18.0
29.0,6.0,153.0,0.0,24.0,3.0,57.0,64.0,NBA,1245.0,13.0,0.0,26.0,71.0,3.0,0.0,-3.5,-5.4,SF,2004,CLE,37.0,11.0
30.0,5.0,189.0,0.0,27.0,6.0,71.0,74.0,NBA,1832.0,26.0,1.0,91.0,8.0,0.0,0.0,-2.5,-0.6,SG,2005,CLE,34.0,12.0
31.0,1.0,19.0,2.0,4.0,1.0,20.0,36.0,NBA,353.0,5.0,0.0,78.0,22.0,0.0,0.0,-0.4,2.2,SG,2006,CLE,5.0,3.0
32.0,1.0,4.0,0.0,5.0,0.0,12.0,15.0,NBA,129.0,3.0,0.0,37.0,48.0,12.0,3.0,-1.1,3.3,SF,2007,CLE,2.0,0.0
33.0,2.0,38.0,1.0,12.0,4.0,39.0,49.0,NBA,698.0,14.0,0.0,27.0,56.0,18.0,0.0,-11.6,-11.5,SG-SF,2008,TOT,13.0,7.0
33.0,2.0,30.0,1.0,12.0,3.0,36.0,41.0,NBA,650.0,11.0,0.0,28.0,53.0,19.0,0.0,-13.2,-11.1,SG,2008,CLE,11.0,7.0
33.0,0.0,2.0,0.0,0.0,0.0,0.0,2.0,NBA,17.0,1.0,0.0,0.0,100.0,0.0,0.0,-32.9,-41.8,SF,2008,SEA,0.0,0.0
33.0,0.0,6.0,0.0,0.0,1.0,3.0,6.0,NBA,31.0,2.0,0.0,16.0,81.0,3.0,0.0,-8.7,-0.9,SF,2008,LAL,2.0,0.0
