age,and1s,astd_pts,drawn_offensive,drawn_shooting,fouls_offensive,fouls_shooting,g,lg_id,mp,own_shots_blk,pct_1,pct_2,pct_3,pct_4,pct_5,plus_minus_net,plus_minus_on,pos,season,team_id,tov_bad_pass,tov_lost_ball
24.0,0.0,12.0,0.0,8.0,0.0,13.0,27.0,NBA,127.0,6.0,0.0,0.0,30.0,59.0,12.0,-6.9,-1.7,PF,2001,UTA,8.0,2.0
25.0,13.0,182.0,0.0,43.0,6.0,76.0,75.0,NBA,1295.0,38.0,0.0,0.0,21.0,74.0,5.0,2.7,3.1,PF,2002,UTA,36.0,17.0
26.0,7.0,189.0,0.0,46.0,7.0,68.0,82.0,NBA,1321.0,32.0,0.0,0.0,9.0,91.0,1.0,-0.9,2.5,PF,2003,UTA,43.0,11.0
27.0,4.0,55.0,0.0,12.0,5.0,36.0,58.0,NBA,547.0,11.0,0.0,0.0,2.0,81.0,17.0,6.2,7.3,PF,2004,HOU,11.0,6.0
28.0,2.0,129.0,0.0,14.0,4.0,65.0,66.0,NBA,942.0,19.0,0.0,0.0,1.0,92.0,7.0,10.0,12.4,PF,2005,HOU,15.0,9.0
29.0,3.0,95.0,2.0,14.0,2.0,50.0,62.0,NBA,718.0,11.0,0.0,0.0,0.0,93.0,7.0,-11.1,-7.7,PF,2006,NJN,12.0,6.0
30.0,1.0,20.0,2.0,5.0,1.0,16.0,31.0,NBA,231.0,4.0,0.0,0.0,0.0,52.0,48.0,3.2,3.1,PF,2007,TOT,5.0,1.0
30.0,1.0,20.0,1.0,4.0,1.0,16.0,24.0,NBA,198.0,4.0,0.0,0.0,0.0,55.0,45.0,2.1,7.7,PF,2007,HOU,4.0,1.0
30.0,0.0,0.0,1.0,1.0,0.0,0.0,7.0,NBA,33.0,0.0,0.0,0.0,2.0,34.0,64.0,-19.3,-24.7,PF,2007,MEM,1.0,0.0
