age,ast_per_g,blk_per_g,drb_per_g,efg_pct,fg2_pct,fg2_per_g,fg2a_per_g,fg3_pct,fg3_per_g,fg3a_per_g,fg_pct,fg_per_g,fga_per_g,ft_pct,ft_per_g,fta_per_g,g,gs,lg_id,mp_per_g,orb_per_g,pf_per_g,pos,pts_per_g,season,stl_per_g,team_id,tov_per_g,trb_per_g
23.0,0.6,0.3,1.8,0.469,0.429,0.4,0.9,0.333,0.4,1.1,0.375,0.8,2.0,0.0,0.0,0.0,8.0,0.0,NBA,7.4,0.4,1.3,PF,1.9,2000,0.1,UTA,0.5,2.1
25.0,0.5,0.3,1.8,0.462,0.6,1.5,2.5,0.0,0.0,0.8,0.462,1.5,3.3,0.8,1.0,1.3,4.0,0.0,NBA,11.8,1.8,1.5,PF,4.0,2002,0.3,UTA,1.3,3.5
26.0,1.0,0.0,0.8,0.474,0.5,1.5,3.0,0.286,0.5,1.8,0.421,2.0,4.8,0.5,0.3,0.5,4.0,0.0,NBA,13.3,1.5,1.5,PF,4.8,2003,0.8,UTA,1.3,2.3
27.0,0.0,0.3,0.5,0.5,0.5,0.3,0.5,0.333,0.3,0.8,0.4,0.5,1.3,0.0,0.0,0.0,4.0,0.0,NBA,3.5,0.3,0.3,PF,1.3,2004,0.3,HOU,0.3,0.8
28.0,0.6,0.3,1.4,0.479,0.333,0.6,1.7,0.417,0.7,1.7,0.375,1.3,3.4,1.0,0.3,0.3,7.0,4.0,NBA,15.6,1.3,2.6,PF,3.6,2005,0.4,HOU,0.4,2.7
29.0,0.0,0.0,0.3,0.5,1.0,0.3,0.3,0.0,0.0,0.3,0.5,0.3,0.7,0.5,0.3,0.7,3.0,0.0,NBA,3.0,0.7,1.0,PF,1.0,2006,0.3,NJN,0.0,1.0
