age,ast_per_mp,blk_per_mp,drb_per_mp,fg2_pct,fg2_per_mp,fg2a_per_mp,fg3_pct,fg3_per_mp,fg3a_per_mp,fg_pct,fg_per_mp,fga_per_mp,ft_pct,ft_per_mp,fta_per_mp,g,gs,lg_id,mp,orb_per_mp,pf_per_mp,pos,pts_per_mp,season,stl_per_mp,team_id,tov_per_mp,trb_per_mp
22.0,3.7,0.6,3.1,0.545,11.2,20.5,0.0,0.0,0.0,0.545,11.2,20.5,0.8,2.5,3.1,2.0,0.0,NBA,58.0,1.9,5.0,SF,24.8,1982,3.1,NJN,3.1,5.0
23.0,1.6,0.0,2.1,0.472,9.0,19.1,0.5,0.5,1.1,0.474,9.5,20.1,0.833,2.6,3.2,2.0,0.0,NBA,68.0,2.1,6.4,SF,22.2,1983,1.1,NJN,2.1,4.2
24.0,3.1,0.5,4.0,0.421,6.5,15.4,0.0,0.0,0.2,0.414,6.5,15.6,0.696,3.9,5.6,11.0,0.0,NBA,295.0,3.1,3.9,SF,16.8,1984,1.2,NJN,2.8,7.1
25.0,1.7,0.7,6.5,0.482,9.3,19.2,1.0,0.3,0.3,0.491,9.6,19.5,0.692,3.1,4.5,3.0,3.0,NBA,105.0,1.4,4.8,SF,22.6,1985,2.4,NJN,3.4,7.9
26.0,3.7,0.4,1.8,0.447,6.2,14.0,0.25,0.4,1.5,0.429,6.6,15.4,1.0,1.5,1.5,3.0,3.0,NBA,98.0,2.9,5.5,SF,15.1,1986,0.7,NJN,1.8,4.8
