article_url,date,headline
https://fansided.com/2019/11/14/draftkings-euroleague-basketball-picks-november-15/,2019/11/14,Fansided Fantasy: DraftKings EuroLeague Basketball Picks November 15
https://dailyknicks.com/2019/08/20/new-york-knicks-re-acquiring-raymond-felton-kurt-thomas-2012/,2019/08/20,Daily Knicks: New York Knicks: The re-acquiring of Raymond Felton and Kurt Thomas in 2012
