age,avg_dist,fg2_dunk,fg2_pct,fg2_pct_ast,fg2a_pct_fga,fg3_heave,fg3_pct,fg3_pct_ast,fg3_pct_corner,fg3a_heave,fg3a_pct_fga,fg_pct,fg_pct_00_03,fg_pct_03_10,fg_pct_10_16,fg_pct_16_xx,g,lg_id,mp,pct_fg2_dunk,pct_fg3a_corner,pct_fga_00_03,pct_fga_03_10,pct_fga_10_16,pct_fga_16_xx,pos,season,team_id
24.0,15.4,6.0,0.418,0.632,0.462,0.0,0.292,0.968,0.31,0.0,0.538,0.35,0.556,0.2,0.222,0.25,43.0,NBA,795.0,0.036,0.396,0.274,0.102,0.046,0.041,SF,2015,HOU
25.0,15.7,1.0,0.412,0.571,0.515,0.0,0.313,0.9,0.25,1.0,0.485,0.364,0.579,0.0,0.2,0.333,26.0,NBA,294.0,0.015,0.25,0.288,0.061,0.076,0.091,SF,2016,DEN
