age,ast_per_g,blk_per_g,drb_per_g,efg_pct,fg2_pct,fg2_per_g,fg2a_per_g,fg3_pct,fg3_per_g,fg3a_per_g,fg_pct,fg_per_g,fga_per_g,ft_pct,ft_per_g,fta_per_g,g,gs,lg_id,mp_per_g,orb_per_g,pf_per_g,pos,pts_per_g,season,stl_per_g,team_id,tov_per_g,trb_per_g
24.0,0.2,0.7,2.9,0.458,0.458,1.2,2.7,0.0,0.0,0.0,0.458,1.2,2.7,0.656,0.7,1.0,31.0,6.0,NBA,12.6,1.2,2.1,C,3.1,2014,0.2,TOT,0.6,4.1
24.0,0.0,0.0,0.0,0.0,0.0,0.0,0.3,0.0,0.0,0.0,0.0,0.0,0.3,0.5,0.3,0.5,4.0,0.0,NBA,1.5,0.0,0.3,C,0.3,2014,0.0,GSW,0.0,0.0
24.0,0.3,0.8,3.5,0.517,0.517,1.4,2.6,0.0,0.0,0.0,0.517,1.4,2.6,0.538,0.6,1.2,11.0,0.0,NBA,13.6,1.0,2.5,C,3.4,2014,0.0,PHI,0.8,4.5
24.0,0.1,0.8,3.2,0.434,0.434,1.4,3.3,0.0,0.0,0.0,0.434,1.4,3.3,0.765,0.8,1.1,16.0,6.0,NBA,14.6,1.7,2.3,C,3.7,2014,0.4,ORL,0.6,4.9
25.0,0.2,0.8,3.0,0.562,0.565,1.5,2.7,0.0,0.0,0.0,0.562,1.5,2.7,0.531,0.6,1.1,59.0,15.0,NBA,14.3,2.0,2.4,C,3.7,2015,0.3,ORL,0.9,5.0
26.0,0.2,0.8,2.8,0.559,0.559,1.7,3.1,0.0,0.0,0.0,0.559,1.7,3.1,0.75,1.0,1.3,58.0,20.0,NBA,12.2,1.2,1.9,C,4.4,2016,0.4,ORL,0.6,3.9
27.0,0.6,0.8,4.8,0.622,0.622,2.1,3.4,0.0,0.0,0.0,0.622,2.1,3.4,0.699,0.9,1.2,76.0,37.0,NBA,17.5,1.7,2.4,C,5.1,2017,0.5,SAS,0.8,6.5
28.0,1.5,0.8,6.3,0.577,0.595,3.2,5.4,0.355,0.8,2.3,0.524,4.0,7.7,0.779,1.1,1.4,62.0,46.0,NBA,24.9,1.6,2.6,C,10.0,2018,0.6,ATL,1.4,7.9
29.0,1.4,1.1,5.9,0.571,0.57,2.8,4.8,0.382,1.3,3.4,0.492,4.0,8.2,0.814,1.4,1.8,64.0,52.0,NBA,25.1,1.6,3.3,C,10.8,2019,1.1,ATL,1.3,7.5
30.0,0.6,0.8,3.3,0.411,0.5,1.4,2.8,0.217,0.6,2.9,0.356,2.0,5.6,1.0,0.6,0.6,8.0,4.0,NBA,17.9,2.0,3.0,C,5.3,2020,0.4,SAC,2.1,5.3
