article_url,date,headline
https://aroyalpain.com/2019/11/06/sacramento-kings-top-3-players-in-october/,2019/11/06,A Royal Pain: Sacramento Kings: Top 3 Players During Nightmarish October
https://aroyalpain.com/2019/11/05/sacramento-kings-richaun-holmes-family/,2019/11/05,A Royal Pain: Dear Holmes Family: Welcome To Sacramento
https://aroyalpain.com/2019/11/04/sacramento-kings-positives-in-wins/,2019/11/04,A Royal Pain: Kings: Positives From The Last Two Victories
https://hoopshabit.com/2019/11/04/nba-power-rankings-philadelphia-76ers-last-unbeaten-week-2/,2019/11/04,Hoops Habit: NBA Power Rankings: Philadelphia 76ers the last unbeaten after Week 2
