lg_id,salary,season,team_name
NBA,287500.0,1999,Seattle SuperSonics
NBA,1000000.0,2000,Seattle SuperSonics
NBA,1110000.0,2001,Seattle SuperSonics
NBA,565850.0,2002,Los Angeles Lakers
NBA,637435.0,2003,Toronto Raptors
NBA,36643.0,2004,Cleveland Cavaliers
NBA,167418.0,2005,Atlanta Hawks
NBA,151089.0,2008,Denver Nuggets
