age,ast_per_mp,blk_per_mp,drb_per_mp,fg2_pct,fg2_per_mp,fg2a_per_mp,fg3_pct,fg3_per_mp,fg3a_per_mp,fg_pct,fg_per_mp,fga_per_mp,ft_pct,ft_per_mp,fta_per_mp,g,gs,lg_id,mp,orb_per_mp,pf_per_mp,pos,pts_per_mp,season,stl_per_mp,team_id,tov_per_mp,trb_per_mp
22.0,3.6,0.5,2.8,0.475,4.4,9.2,0.147,0.2,1.4,0.431,4.6,10.6,0.701,2.2,3.2,62.0,1.0,NBA,868.0,1.8,3.2,SG,11.6,1996,0.9,TOR,2.5,4.6
23.0,3.3,0.0,0.0,0.333,3.3,9.8,0.0,0.0,0.0,0.333,3.3,9.8,0.5,3.3,6.5,2.0,0.0,NBA,22.0,3.3,3.3,SG,9.8,1997,4.9,DEN,1.6,3.3
