age,ast_per_poss,blk_per_poss,def_rtg,drb_per_poss,fg2_pct,fg2_per_poss,fg2a_per_poss,fg3_pct,fg3_per_poss,fg3a_per_poss,fg_pct,fg_per_poss,fga_per_poss,ft_pct,ft_per_poss,fta_per_poss,g,gs,lg_id,mp,off_rtg,orb_per_poss,pf_per_poss,pos,pts_per_poss,season,stl_per_poss,team_id,tov_per_poss,trb_per_poss
22.0,5.2,0.8,115.0,4.0,0.475,6.2,13.1,0.147,0.3,2.0,0.431,6.5,15.1,0.701,3.2,4.6,62.0,1.0,NBA,868.0,98.0,2.6,4.5,SG,16.6,1996,1.2,TOR,3.6,6.5
23.0,4.7,0.0,105.0,0.0,0.333,4.7,14.2,0.0,0.0,0.0,0.333,4.7,14.2,0.5,4.7,9.4,2.0,0.0,NBA,22.0,93.0,4.7,4.7,SG,14.2,1997,7.1,DEN,2.4,4.7
