age,and1s,astd_pts,drawn_offensive,drawn_shooting,fouls_offensive,fouls_shooting,g,lg_id,mp,own_shots_blk,pct_1,pct_2,pct_3,pct_4,pct_5,plus_minus_net,plus_minus_on,pos,season,team_id,tov_bad_pass,tov_lost_ball
20.0,22.0,238.0,5.0,77.0,24.0,114.0,74.0,NBA,1785.0,48.0,0.0,0.0,2.0,60.0,38.0,-1.6,-6.8,PF,2018,ATL,35.0,28.0
21.0,45.0,288.0,7.0,137.0,27.0,107.0,61.0,NBA,1829.0,65.0,0.0,0.0,0.0,82.0,18.0,6.3,-2.5,PF,2019,ATL,37.0,39.0
22.0,1.0,17.0,0.0,5.0,1.0,7.0,5.0,NBA,161.0,8.0,0.0,0.0,0.0,69.0,31.0,1.7,-1.8,PF,2020,ATL,2.0,4.0
