age,ast_per_g,blk_per_g,drb_per_g,efg_pct,fg2_pct,fg2_per_g,fg2a_per_g,fg3_pct,fg3_per_g,fg3a_per_g,fg_pct,fg_per_g,fga_per_g,ft_pct,ft_per_g,fta_per_g,g,gs,lg_id,mp_per_g,orb_per_g,pf_per_g,pos,pts_per_g,season,stl_per_g,team_id,tov_per_g,trb_per_g
20.0,1.3,1.1,4.9,0.591,0.598,4.0,6.7,0.34,0.2,0.6,0.576,4.2,7.4,0.715,1.8,2.5,74.0,26.0,NBA,24.1,2.4,2.9,PF,10.5,2018,0.6,ATL,1.4,7.3
21.0,2.0,0.6,6.2,0.593,0.609,6.7,11.0,0.348,0.9,2.6,0.56,7.6,13.6,0.763,3.3,4.4,61.0,59.0,NBA,30.0,3.6,3.3,PF,19.5,2019,0.4,ATL,2.0,9.8
22.0,1.6,2.0,6.8,0.598,0.548,4.6,8.4,0.474,1.8,3.8,0.525,6.4,12.2,0.706,2.4,3.4,5.0,5.0,NBA,32.2,2.0,3.4,PF,17.0,2020,1.0,ATL,1.4,8.8
