age,ast,ast_per_g,blk,college_id,fg,fg3,fg3_pct,fg3a,fg_pct,fga,ft,ft_pct,fta,g,mp,mp_per_g,orb,pf,pts,pts_per_g,season,stl,tov,trb,trb_per_g
18.0,17.0,0.6,75.0,BRADLEY,108.0,0.0,0.0,0.0,0.557,194.0,54.0,0.701,77.0,27.0,623.0,23.1,0.0,0.0,270.0,10.0,2005,24.0,0.0,201.0,7.4
19.0,21.0,0.8,72.0,BRADLEY,133.0,0.0,0.0,0.0,0.552,241.0,69.0,0.676,102.0,25.0,642.0,25.7,0.0,0.0,335.0,13.4,2006,22.0,0.0,207.0,8.3
