age,ast_per_mp,blk_per_mp,drb_per_mp,fg2_pct,fg2_per_mp,fg2a_per_mp,fg3_pct,fg3_per_mp,fg3a_per_mp,fg_pct,fg_per_mp,fga_per_mp,ft_pct,ft_per_mp,fta_per_mp,g,gs,lg_id,mp,orb_per_mp,pf_per_mp,pos,pts_per_mp,season,stl_per_mp,team_id,tov_per_mp,trb_per_mp
22.0,0.9,0.5,4.6,0.52,4.1,7.9,0.313,0.6,1.9,0.481,4.7,9.7,0.71,2.0,2.8,80.0,73.0,NBA,2232.0,3.1,3.7,PF,12.0,2010,1.3,DET,1.3,7.7
24.0,1.1,0.5,5.2,0.519,4.4,8.5,0.302,0.8,2.6,0.468,5.2,11.1,0.806,2.5,3.0,64.0,13.0,NBA,1468.0,2.4,4.0,PF,13.6,2012,1.0,DET,1.6,7.6
25.0,1.7,0.3,4.7,0.502,4.7,9.4,0.301,1.0,3.3,0.449,5.7,12.8,0.773,2.7,3.6,49.0,2.0,NBA,892.0,2.7,3.6,PF,15.2,2013,1.5,DET,1.7,7.5
26.0,1.9,0.3,6.0,0.5,3.3,6.5,0.419,1.5,3.6,0.471,4.8,10.1,0.729,2.1,2.9,64.0,0.0,NBA,741.0,2.5,4.1,PF,13.1,2014,1.0,DET,2.1,8.5
27.0,2.1,0.5,5.5,0.481,3.4,7.0,0.386,1.6,4.1,0.446,4.9,11.1,0.848,1.6,1.9,75.0,0.0,NBA,1230.0,2.7,4.0,PF,13.1,2015,1.3,TOT,1.3,8.3
27.0,2.1,0.6,4.9,0.516,3.2,6.2,0.368,1.4,3.9,0.46,4.7,10.1,0.861,1.6,1.8,46.0,0.0,NBA,703.0,2.4,3.9,PF,12.3,2015,1.4,DET,1.3,7.3
27.0,2.0,0.5,6.4,0.444,3.6,8.0,0.406,1.8,4.4,0.431,5.3,12.4,0.833,1.7,2.0,29.0,0.0,NBA,527.0,3.1,4.0,PF,14.1,2015,1.3,BOS,1.2,9.6
28.0,1.9,0.7,6.5,0.421,2.3,5.4,0.398,1.3,3.3,0.413,3.6,8.8,0.782,1.9,2.4,78.0,0.0,NBA,1176.0,2.4,4.2,PF,10.4,2016,0.6,BOS,1.6,8.8
29.0,2.1,0.5,6.2,0.523,2.0,3.9,0.346,1.3,3.8,0.435,3.3,7.7,0.703,0.8,1.1,78.0,6.0,NBA,1232.0,1.7,3.6,PF,8.7,2017,0.7,BOS,1.1,7.9
30.0,1.3,0.4,6.1,0.511,3.0,5.8,0.414,2.1,5.0,0.466,5.0,10.8,0.807,1.5,1.8,74.0,19.0,NBA,1134.0,1.7,4.0,PF,13.6,2018,0.8,UTA,0.9,7.8
31.0,2.8,0.5,6.4,0.563,2.8,4.9,0.367,2.0,5.6,0.459,4.8,10.5,0.8,1.9,2.4,73.0,6.0,NBA,1218.0,2.1,4.0,PF,13.6,2019,0.8,GSW,1.3,8.5
