age,ast_per_mp,blk_per_mp,drb_per_mp,fg2_pct,fg2_per_mp,fg2a_per_mp,fg3_pct,fg3_per_mp,fg3a_per_mp,fg_pct,fg_per_mp,fga_per_mp,ft_pct,ft_per_mp,fta_per_mp,g,gs,lg_id,mp,orb_per_mp,pf_per_mp,pos,pts_per_mp,season,stl_per_mp,team_id,tov_per_mp,trb_per_mp
27.0,0.5,0.5,5.3,0.455,2.6,5.8,0.0,0.0,2.1,0.333,2.6,7.9,0.5,0.5,1.1,4.0,0.0,NBA,68.0,2.1,4.8,PF,5.8,2015,1.1,BOS,1.6,7.4
28.0,2.2,0.9,7.6,0.625,3.3,5.3,0.318,1.6,4.9,0.478,4.9,10.2,0.8,0.9,1.1,6.0,4.0,NBA,162.0,1.6,3.3,PF,12.2,2016,0.4,BOS,1.1,9.1
29.0,3.4,0.8,6.2,0.625,2.8,4.5,0.333,1.4,4.2,0.484,4.2,8.7,1.0,2.3,2.3,12.0,0.0,NBA,128.0,2.0,3.7,PF,12.1,2017,1.4,BOS,1.7,8.2
30.0,1.4,0.0,5.5,0.538,3.2,5.9,0.167,0.5,2.7,0.421,3.6,8.7,1.0,0.9,0.9,10.0,0.0,NBA,79.0,1.8,4.1,PF,8.7,2018,1.4,UTA,0.5,7.3
31.0,3.6,0.6,5.7,0.304,2.1,6.8,0.263,1.5,5.7,0.286,3.6,12.5,0.833,1.5,1.8,16.0,0.0,NBA,121.0,4.5,2.7,PF,10.1,2019,0.3,GSW,0.6,10.1
