age,ast_per_g,blk_per_g,drb_per_g,efg_pct,fg2_pct,fg2_per_g,fg2a_per_g,fg3_pct,fg3_per_g,fg3a_per_g,fg_pct,fg_per_g,fga_per_g,ft_pct,ft_per_g,fta_per_g,g,gs,lg_id,mp_per_g,orb_per_g,pf_per_g,pos,pts_per_g,season,stl_per_g,team_id,tov_per_g,trb_per_g
23.0,0.3,0.7,1.1,0.384,0.384,1.2,3.1,0.0,0.0,0.0,0.384,1.2,3.1,0.696,0.6,0.8,57.0,8.0,NBA,8.3,0.8,1.7,C,2.9,1984,0.2,MIL,0.6,1.9
24.0,0.5,1.1,2.1,0.511,0.511,2.1,4.1,0.0,0.0,0.0,0.511,2.1,4.1,0.701,1.1,1.6,78.0,0.0,NBA,13.9,1.2,2.3,C,5.3,1985,0.3,MIL,0.8,3.3
25.0,1.4,1.4,3.6,0.477,0.478,3.3,6.9,0.0,0.0,0.0,0.477,3.3,7.0,0.712,1.7,2.4,82.0,63.0,NBA,21.9,1.9,2.6,C,8.4,1986,0.6,MIL,1.5,5.6
26.0,0.6,0.8,2.9,0.485,0.485,3.2,6.5,0.0,0.0,0.0,0.485,3.2,6.5,0.584,1.6,2.7,76.0,10.0,NBA,19.3,1.7,3.0,C,7.9,1987,0.7,MIL,1.3,4.6
27.0,1.3,1.3,4.4,0.495,0.495,4.8,9.7,0.0,0.0,0.0,0.495,4.8,9.7,0.657,2.3,3.5,81.0,73.0,NBA,27.9,2.4,2.4,C,12.0,1988,0.6,MIL,1.3,6.8
28.0,0.5,0.8,1.8,0.48,0.48,1.8,3.7,0.0,0.0,0.0,0.48,1.8,3.7,0.549,0.6,1.1,48.0,4.0,NBA,10.7,1.1,1.2,C,4.2,1989,0.2,MIL,0.6,2.8
29.0,1.2,1.3,3.2,0.428,0.429,3.7,8.6,0.0,0.0,0.0,0.428,3.7,8.6,0.653,1.6,2.4,81.0,55.0,NBA,23.2,1.9,2.4,C,8.9,1990,0.5,TOT,1.2,5.1
29.0,0.4,1.1,2.8,0.462,0.462,2.9,6.2,0.0,0.0,0.0,0.462,2.9,6.2,0.627,1.1,1.7,30.0,8.0,NBA,18.5,1.4,2.1,C,6.8,1990,0.3,MIL,0.9,4.2
29.0,1.6,1.5,3.5,0.416,0.417,4.2,10.0,0.0,0.0,0.0,0.416,4.2,10.0,0.662,1.8,2.8,51.0,47.0,NBA,26.0,2.2,2.6,C,10.2,1990,0.6,MIN,1.3,5.7
30.0,1.0,1.1,3.2,0.453,0.453,2.7,6.0,0.0,0.0,0.0,0.453,2.7,6.0,0.443,0.5,1.1,73.0,44.0,NBA,20.6,1.6,1.8,C,5.9,1991,0.5,MIN,0.9,4.7
31.0,1.3,1.5,2.7,0.468,0.469,2.4,5.1,0.0,0.0,0.0,0.468,2.4,5.1,0.532,0.6,1.1,67.0,25.0,NBA,17.6,1.5,1.7,C,5.4,1992,0.4,MIN,0.6,4.2
32.0,0.5,0.3,1.5,0.484,0.484,1.3,2.6,0.0,0.0,0.0,0.484,1.3,2.6,0.4,0.2,0.4,12.0,0.0,NBA,8.9,0.8,1.0,C,2.7,1993,0.2,ATL,0.4,2.3
33.0,0.3,0.7,1.6,0.308,0.32,0.3,1.0,0.0,0.0,0.0,0.308,0.3,1.0,0.214,0.1,0.5,26.0,3.0,NBA,9.5,0.6,1.2,C,0.7,1994,0.2,SAC,0.3,2.2
