age,ast_per_mp,blk_per_mp,drb_per_mp,fg2_pct,fg2_per_mp,fg2a_per_mp,fg3_pct,fg3_per_mp,fg3a_per_mp,fg_pct,fg_per_mp,fga_per_mp,ft_pct,ft_per_mp,fta_per_mp,g,gs,lg_id,mp,orb_per_mp,pf_per_mp,pos,pts_per_mp,season,stl_per_mp,team_id,tov_per_mp,trb_per_mp
22.0,0.9,1.3,3.9,0.389,3.0,7.7,0.154,0.9,5.6,0.29,3.9,13.3,0.0,0.0,0.4,14.0,0.0,NBA,84.0,1.3,2.1,PF,8.6,2012,0.9,ORL,2.6,5.1
26.0,0.0,0.0,1.0,0.0,0.0,1.0,0.444,4.1,9.3,0.4,4.1,10.3,0.5,1.0,2.1,5.0,0.0,NBA,35.0,0.0,3.1,PF,13.4,2016,1.0,DET,2.1,1.0
27.0,2.3,0.0,3.5,0.6,3.5,5.8,0.286,2.3,8.1,0.417,5.8,13.9,0.0,0.0,0.0,3.0,0.0,NBA,31.0,2.3,2.3,PF,13.9,2017,0.0,PHI,4.6,5.8
