age,ast_per_poss,blk_per_poss,def_rtg,drb_per_poss,fg2_pct,fg2_per_poss,fg2a_per_poss,fg3_pct,fg3_per_poss,fg3a_per_poss,fg_pct,fg_per_poss,fga_per_poss,ft_pct,ft_per_poss,fta_per_poss,g,gs,lg_id,mp,off_rtg,orb_per_poss,pf_per_poss,pos,pts_per_poss,season,stl_per_poss,team_id,tov_per_poss,trb_per_poss
19.0,2.9,0.9,114.0,4.1,0.453,7.8,17.3,0.31,0.7,2.2,0.437,8.5,19.5,0.76,6.1,8.0,82.0,82.0,NBA,2969.0,103.0,2.3,3.3,SF,23.8,2015,1.5,MIN,3.0,6.4
20.0,2.9,0.8,113.0,3.3,0.486,9.5,19.6,0.3,1.0,3.4,0.459,10.5,22.9,0.761,7.6,10.0,81.0,81.0,NBA,2845.0,106.0,1.9,2.9,SF,29.7,2016,1.4,MIN,3.2,5.2
21.0,3.1,0.5,115.0,3.8,0.473,10.1,21.3,0.356,1.7,4.8,0.452,11.8,26.1,0.76,6.9,9.0,82.0,82.0,NBA,3048.0,107.0,1.7,3.0,SF,32.2,2017,1.4,MIN,3.1,5.5
22.0,2.7,0.9,113.0,4.6,0.475,7.7,16.1,0.331,1.9,5.7,0.438,9.6,21.8,0.643,3.4,5.3,82.0,82.0,NBA,2979.0,101.0,1.4,2.7,SF,24.4,2018,1.5,MIN,2.3,6.0
23.0,3.5,0.9,115.0,5.1,0.441,7.2,16.2,0.339,2.2,6.6,0.412,9.4,22.8,0.699,3.9,5.6,73.0,73.0,NBA,2543.0,100.0,1.6,2.9,SF,24.9,2019,1.3,MIN,2.6,6.6
24.0,4.8,1.4,110.0,5.0,0.532,10.0,18.8,0.361,3.1,8.6,0.478,13.1,27.4,0.736,4.6,6.3,11.0,11.0,NBA,382.0,116.0,1.7,2.7,SF,33.9,2020,1.0,MIN,2.0,6.7
