age,ast_pct,blk_pct,bpm,bpm-dum,dbpm,drb_pct,dws,fg3a_per_fga_pct,fta_per_fga_pct,g,lg_id,mp,obpm,orb_pct,ows,per,pos,season,stl_pct,team_id,tov_pct,trb_pct,ts_pct,usg_pct,vorp,ws,ws-dum,ws_per_48
21.0,11.6,0.5,-2.0,0.0,-1.1,8.3,1.9,0.024,0.196,80.0,NBA,2662.0,-0.9,4.4,2.2,14.1,SG,1998,2.4,BOS,9.6,6.2,0.491,22.3,0.0,4.0,0.0,0.073
22.0,12.2,0.6,-2.7,0.0,-1.0,8.8,1.2,0.042,0.149,41.0,NBA,1551.0,-1.7,2.6,0.1,13.5,SG,1999,2.3,BOS,10.6,5.6,0.463,24.2,-0.3,1.3,0.0,0.039
23.0,11.3,0.7,-3.0,0.0,-1.3,8.6,1.6,0.044,0.25,68.0,NBA,2377.0,-1.7,2.9,0.2,12.7,SG,2000,1.6,TOT,11.2,5.7,0.479,24.4,-0.6,1.8,0.0,0.036
23.0,12.8,0.7,-2.7,0.0,-1.6,9.6,0.6,0.064,0.247,37.0,NBA,1408.0,-1.2,2.2,0.6,13.4,SG,2000,1.2,DEN,11.4,5.9,0.5,23.7,-0.3,1.2,0.0,0.04
23.0,9.2,0.6,-3.4,0.0,-0.9,7.1,1.0,0.019,0.254,31.0,NBA,969.0,-2.5,3.9,-0.3,11.8,SG,2000,2.1,ORL,11.0,5.5,0.452,25.3,-0.3,0.6,0.0,0.031
24.0,16.2,0.8,-2.3,0.0,-2.2,8.0,0.4,0.041,0.203,61.0,NBA,2535.0,-0.2,3.2,1.5,14.8,SG,2001,1.7,CHI,9.6,5.5,0.492,24.8,-0.2,1.8,0.0,0.035
25.0,14.2,0.6,-5.1,0.0,-2.4,8.8,0.4,0.079,0.152,53.0,NBA,1716.0,-2.7,3.3,-1.5,10.2,SG,2002,1.0,TOT,9.5,6.0,0.439,24.8,-1.3,-1.1,0.0,-0.032
25.0,15.1,0.5,-4.9,0.0,-2.5,8.9,0.3,0.079,0.151,40.0,NBA,1503.0,-2.4,3.3,-1.4,10.8,SG,2002,1.1,CHI,9.4,6.0,0.44,25.8,-1.1,-1.1,0.0,-0.035
25.0,7.6,1.0,-6.7,0.0,-1.8,8.8,0.1,0.075,0.164,13.0,NBA,213.0,-4.9,3.3,-0.2,6.0,SG,2002,0.5,IND,11.1,6.1,0.432,17.2,-0.3,0.0,0.0,-0.01
26.0,11.5,0.6,-4.2,0.0,-0.8,8.0,1.6,0.027,0.136,72.0,NBA,1671.0,-3.4,2.2,-0.3,9.3,SG,2003,1.5,IND,7.9,5.2,0.439,18.6,-0.9,1.3,0.0,0.037
27.0,7.8,0.7,-5.7,0.0,-0.7,8.3,0.8,0.033,0.081,39.0,NBA,516.0,-5.0,2.2,-0.4,9.3,SG,2004,1.5,SAS,10.6,5.3,0.446,21.9,-0.5,0.4,0.0,0.04
28.0,9.8,0.4,-6.2,0.0,-0.8,9.7,0.5,0.019,0.063,18.0,NBA,390.0,-5.3,2.7,-0.5,9.4,SF,2005,2.2,NJN,7.9,6.2,0.422,21.2,-0.4,-0.1,0.0,-0.007
