age,ast_per_g,blk_per_g,drb_per_g,efg_pct,fg2_pct,fg2_per_g,fg2a_per_g,fg3_pct,fg3_per_g,fg3a_per_g,fg_pct,fg_per_g,fga_per_g,ft_pct,ft_per_g,fta_per_g,g,gs,lg_id,mp_per_g,orb_per_g,pf_per_g,pos,pts_per_g,season,stl_per_g,team_id,tov_per_g,trb_per_g
21.0,2.2,0.2,2.1,0.451,0.458,6.4,14.0,0.107,0.0,0.4,0.45,6.4,14.3,0.839,2.4,2.8,80.0,62.0,NBA,33.3,1.4,2.7,SG,15.3,1998,1.6,BOS,1.7,3.5
22.0,2.5,0.3,2.9,0.435,0.443,7.3,16.5,0.167,0.1,0.7,0.431,7.4,17.2,0.79,2.0,2.6,41.0,40.0,NBA,37.8,0.9,2.0,SG,17.0,1999,1.6,BOS,2.2,3.8
23.0,2.3,0.3,2.7,0.433,0.431,6.5,15.2,0.313,0.2,0.7,0.426,6.8,15.9,0.789,3.1,4.0,68.0,68.0,NBA,35.0,0.9,2.2,SG,16.9,2000,1.1,TOT,2.2,3.7
23.0,2.8,0.4,3.3,0.457,0.449,6.9,15.5,0.385,0.4,1.1,0.444,7.4,16.5,0.788,3.2,4.1,37.0,37.0,NBA,38.1,0.8,2.0,SG,18.3,2000,0.9,DEN,2.4,4.1
23.0,1.7,0.3,2.0,0.402,0.41,6.1,14.8,0.0,0.0,0.3,0.402,6.1,15.1,0.79,3.0,3.8,31.0,31.0,NBA,31.3,1.1,2.5,SG,15.2,2000,1.4,ORL,2.1,3.2
24.0,3.3,0.4,2.7,0.452,0.452,8.0,17.6,0.304,0.2,0.8,0.446,8.2,18.4,0.825,3.1,3.7,61.0,61.0,NBA,41.6,1.2,2.4,SG,19.7,2001,1.3,CHI,2.1,3.9
25.0,2.4,0.2,2.4,0.408,0.406,5.5,13.6,0.29,0.3,1.2,0.397,5.9,14.8,0.798,1.8,2.2,53.0,41.0,NBA,32.4,0.9,2.0,SG,13.9,2002,0.6,TOT,1.7,3.4
25.0,3.0,0.3,2.8,0.411,0.408,6.7,16.5,0.298,0.4,1.4,0.399,7.2,17.9,0.778,2.1,2.7,40.0,40.0,NBA,37.6,1.1,2.2,SG,16.8,2002,0.8,CHI,2.0,3.9
25.0,0.8,0.2,1.3,0.381,0.387,1.8,4.8,0.2,0.1,0.4,0.373,1.9,5.2,1.0,0.8,0.8,13.0,1.0,NBA,16.4,0.5,1.7,SG,4.8,2002,0.2,IND,0.7,1.8
26.0,1.6,0.2,1.7,0.411,0.415,3.3,8.1,0.188,0.0,0.2,0.409,3.4,8.3,0.802,0.9,1.1,72.0,3.0,NBA,23.2,0.4,1.7,SG,7.7,2003,0.7,IND,0.8,2.1
27.0,0.6,0.1,1.0,0.431,0.431,2.3,5.2,0.286,0.1,0.2,0.427,2.3,5.4,0.765,0.3,0.4,39.0,0.0,NBA,13.2,0.3,0.9,SG,5.0,2004,0.4,SAS,0.7,1.3
28.0,1.1,0.1,1.7,0.411,0.419,3.6,8.6,0.0,0.0,0.2,0.411,3.6,8.8,0.7,0.4,0.6,18.0,3.0,NBA,21.7,0.5,1.1,SF,7.6,2005,0.9,NJN,0.8,2.2
