age,ast_per_poss,blk_per_poss,def_rtg,drb_per_poss,fg2_pct,fg2_per_poss,fg2a_per_poss,fg3_pct,fg3_per_poss,fg3a_per_poss,fg_pct,fg_per_poss,fga_per_poss,ft_pct,ft_per_poss,fta_per_poss,g,gs,lg_id,mp,off_rtg,orb_per_poss,pf_per_poss,pos,pts_per_poss,season,stl_per_poss,team_id,tov_per_poss,trb_per_poss
22.0,1.5,0.4,107.0,6.8,0.387,6.6,17.1,0.071,0.1,1.0,0.369,6.7,18.1,0.562,3.6,6.4,55.0,2.0,NBA,707.0,88.0,5.6,8.9,PF,17.0,1990,1.7,DAL,3.4,12.4
23.0,1.7,1.2,107.0,8.9,0.412,6.9,16.8,0.162,0.2,1.0,0.398,7.1,17.8,0.707,4.3,6.0,79.0,29.0,NBA,1901.0,93.0,4.6,8.3,PF,18.6,1991,2.2,DAL,3.5,13.5
24.0,1.5,1.1,110.0,7.0,0.397,7.0,17.7,0.148,0.2,1.3,0.38,7.2,19.0,0.765,6.2,8.1,65.0,12.0,NBA,1021.0,96.0,4.8,7.8,PF,20.8,1992,1.5,DAL,3.4,11.8
25.0,1.6,1.5,112.0,7.3,0.452,7.6,16.8,0.238,0.3,1.4,0.435,7.9,18.2,0.75,4.6,6.2,64.0,20.0,NBA,1433.0,99.0,5.2,7.6,PF,20.8,1993,2.1,DAL,3.6,12.5
26.0,1.7,1.6,108.0,8.4,0.424,6.2,14.6,0.3,1.0,3.2,0.402,7.1,17.8,0.576,3.0,5.2,18.0,3.0,NBA,320.0,96.0,4.8,7.3,PF,18.3,1994,1.6,DAL,2.9,13.2
