age,ast,ast_per_g,blk,college_id,fg,fg3,fg3_pct,fg3a,fg_pct,fga,ft,ft_pct,fta,g,mp,mp_per_g,orb,pf,pts,pts_per_g,season,stl,tov,trb,trb_per_g
18.0,7.0,0.2,16.0,LATECH,115.0,0.0,0.0,0.0,0.52,221.0,82.0,0.667,123.0,34.0,697.0,20.5,0.0,114.0,312.0,9.2,1986,21.0,35.0,156.0,4.6
19.0,16.0,0.5,20.0,LATECH,145.0,1.0,1.0,1.0,0.575,252.0,88.0,0.677,130.0,30.0,782.0,26.1,0.0,107.0,379.0,12.6,1987,20.0,40.0,196.0,6.5
20.0,28.0,0.9,19.0,LATECH,226.0,5.0,0.333,15.0,0.638,354.0,121.0,0.64,189.0,31.0,1009.0,32.5,0.0,103.0,578.0,18.6,1988,40.0,92.0,359.0,11.6
21.0,31.0,1.0,11.0,LATECH,245.0,17.0,0.447,38.0,0.6,408.0,171.0,0.747,229.0,32.0,1026.0,32.1,0.0,122.0,678.0,21.2,1989,38.0,110.0,337.0,10.5
