age,ast,blk,drb,efg_pct,fg,fg2,fg2_pct,fg2a,fg3,fg3_pct,fg3a,fg_pct,fga,ft,ft_pct,fta,g,gs,lg_id,mp,orb,pf,pos,pts,season,stl,team_id,tov,trb
22.0,21.0,6.0,95.0,0.371,93.0,92.0,0.387,238.0,1.0,0.071,14.0,0.369,252.0,50.0,0.562,89.0,55.0,2.0,NBA,707.0,78.0,124.0,PF,237.0,1990,24.0,DAL,47.0,173.0
23.0,63.0,44.0,331.0,0.403,265.0,259.0,0.412,628.0,6.0,0.162,37.0,0.398,665.0,159.0,0.707,225.0,79.0,29.0,NBA,1901.0,173.0,308.0,PF,695.0,1991,81.0,DAL,131.0,504.0
24.0,31.0,22.0,140.0,0.385,145.0,141.0,0.397,355.0,4.0,0.148,27.0,0.38,382.0,124.0,0.765,162.0,65.0,12.0,NBA,1021.0,96.0,157.0,PF,418.0,1992,31.0,DAL,68.0,236.0
25.0,49.0,45.0,216.0,0.444,235.0,225.0,0.452,498.0,10.0,0.238,42.0,0.435,540.0,138.0,0.75,184.0,64.0,20.0,NBA,1433.0,154.0,226.0,PF,618.0,1993,63.0,DAL,108.0,370.0
26.0,11.0,10.0,53.0,0.429,45.0,39.0,0.424,92.0,6.0,0.3,20.0,0.402,112.0,19.0,0.576,33.0,18.0,3.0,NBA,320.0,30.0,46.0,PF,115.0,1994,10.0,DAL,18.0,83.0
