age,and1s,astd_pts,drawn_offensive,drawn_shooting,fouls_offensive,fouls_shooting,g,lg_id,mp,own_shots_blk,pct_1,pct_2,pct_3,pct_4,pct_5,plus_minus_net,plus_minus_on,pos,season,team_id,tov_bad_pass,tov_lost_ball
24.0,10.0,216.0,0.0,63.0,17.0,78.0,56.0,NBA,1615.0,40.0,0.0,59.0,41.0,0.0,0.0,-1.1,-5.5,SG,2001,CLE,44.0,24.0
25.0,13.0,233.0,0.0,90.0,17.0,71.0,81.0,NBA,2541.0,60.0,0.0,0.0,85.0,14.0,0.0,6.5,4.3,SF,2002,PHI,44.0,52.0
26.0,17.0,277.0,0.0,118.0,23.0,68.0,78.0,NBA,2557.0,87.0,0.0,33.0,67.0,0.0,0.0,7.3,5.7,SF,2003,UTA,57.0,61.0
27.0,17.0,139.0,0.0,66.0,15.0,39.0,31.0,NBA,1134.0,39.0,0.0,4.0,94.0,2.0,0.0,3.0,0.6,SF,2004,UTA,23.0,18.0
28.0,30.0,302.0,0.0,131.0,25.0,103.0,78.0,NBA,2584.0,64.0,0.0,1.0,93.0,7.0,0.0,-4.4,-6.6,SF,2005,UTA,49.0,46.0
29.0,24.0,214.0,13.0,118.0,27.0,86.0,71.0,NBA,1944.0,54.0,0.0,28.0,71.0,1.0,0.0,-0.1,-3.3,SF,2006,UTA,45.0,22.0
30.0,27.0,215.0,24.0,112.0,25.0,97.0,77.0,NBA,1965.0,42.0,0.0,19.0,79.0,2.0,0.0,6.0,6.3,SF,2007,UTA,44.0,29.0
31.0,19.0,178.0,20.0,79.0,24.0,69.0,76.0,NBA,1374.0,33.0,0.0,3.0,97.0,0.0,0.0,-9.2,1.4,SF,2008,UTA,39.0,21.0
32.0,5.0,61.0,11.0,25.0,13.0,36.0,63.0,NBA,693.0,16.0,0.0,77.0,22.0,2.0,0.0,0.8,3.5,SG,2009,UTA,8.0,7.0
