age,ast_pct,blk_pct,bpm,bpm-dum,dbpm,drb_pct,dws,fg3a_per_fga_pct,fta_per_fga_pct,g,lg_id,mp,obpm,orb_pct,ows,per,pos,season,stl_pct,team_id,tov_pct,trb_pct,ts_pct,usg_pct,vorp,ws,ws-dum,ws_per_48
22.0,7.1,0.4,-1.4,0.0,-0.2,13.4,1.5,0.078,0.447,50.0,NBA,1114.0,-1.2,9.0,1.2,13.0,SF,1999,1.5,ORL,16.0,11.2,0.533,18.6,0.2,2.6,0.0,0.113
23.0,17.2,1.1,2.7,0.0,2.7,12.1,0.1,0.118,0.412,4.0,NBA,63.0,0.1,8.7,0.1,14.2,SF,2000,3.9,ORL,4.7,10.4,0.398,14.1,0.1,0.2,0.0,0.146
24.0,10.9,0.8,-0.6,0.0,-0.8,10.9,0.8,0.099,0.315,56.0,NBA,1615.0,0.2,6.5,1.8,13.3,SG,2001,1.4,CLE,13.1,8.7,0.522,19.2,0.6,2.6,0.0,0.077
25.0,7.5,0.2,-0.6,0.0,0.1,16.3,3.6,0.082,0.265,81.0,NBA,2541.0,-0.6,9.2,2.6,14.1,SF,2002,1.5,PHI,12.0,12.8,0.512,19.1,0.9,6.1,0.0,0.115
26.0,9.9,0.5,2.4,0.0,-1.1,14.8,2.4,0.157,0.325,78.0,NBA,2557.0,3.5,9.4,6.4,19.3,SF,2003,1.5,UTA,12.1,12.2,0.588,23.9,2.9,8.8,0.0,0.166
27.0,10.9,0.1,0.1,0.0,-1.3,17.3,0.9,0.08,0.383,31.0,NBA,1134.0,1.3,9.8,1.9,16.1,SF,2004,1.1,UTA,11.9,13.5,0.524,22.3,0.6,2.8,0.0,0.116
28.0,9.9,0.5,0.7,0.0,-0.7,14.0,1.2,0.05,0.368,78.0,NBA,2584.0,1.4,9.2,4.2,15.5,SF,2005,1.5,UTA,11.8,11.5,0.549,20.1,1.8,5.5,0.0,0.102
29.0,9.6,0.6,-0.6,0.0,-1.2,13.2,1.6,0.058,0.462,71.0,NBA,1944.0,0.6,9.8,3.1,16.3,SF,2006,1.7,UTA,11.8,11.5,0.542,22.0,0.7,4.7,0.0,0.115
30.0,8.2,0.5,-0.8,0.0,-0.8,14.6,1.6,0.059,0.471,77.0,NBA,1965.0,0.0,7.3,3.1,14.7,SF,2007,1.4,UTA,13.0,10.9,0.564,20.8,0.6,4.7,0.0,0.115
31.0,9.0,0.8,-1.5,0.0,-0.7,12.7,1.4,0.021,0.432,76.0,NBA,1374.0,-0.8,8.6,1.4,14.1,SF,2008,1.7,UTA,14.4,10.7,0.551,21.5,0.2,2.8,0.0,0.096
32.0,6.4,1.0,-3.0,0.0,-0.6,13.1,0.8,0.008,0.299,63.0,NBA,693.0,-2.4,8.1,0.4,12.3,SG,2009,2.2,UTA,9.6,10.6,0.508,19.5,-0.2,1.2,0.0,0.086
