age,ast_per_g,blk_per_g,drb_per_g,efg_pct,fg2_pct,fg2_per_g,fg2a_per_g,fg3_pct,fg3_per_g,fg3a_per_g,fg_pct,fg_per_g,fga_per_g,ft_pct,ft_per_g,fta_per_g,g,gs,lg_id,mp_per_g,orb_per_g,pf_per_g,pos,pts_per_g,season,stl_per_g,team_id,tov_per_g,trb_per_g
22.0,1.8,0.0,3.3,0.481,0.524,2.8,5.3,0.2,0.3,1.3,0.462,3.0,6.5,0.727,2.0,2.8,4.0,0.0,NBA,20.5,1.8,2.3,SF,8.3,1999,0.3,ORL,1.3,5.0
25.0,1.4,0.0,2.6,0.5,0.5,4.4,8.8,0.0,0.0,0.0,0.5,4.4,8.8,0.778,1.4,1.8,5.0,5.0,NBA,23.8,2.6,2.4,SF,10.2,2002,1.0,PHI,1.0,5.2
26.0,1.0,0.2,3.6,0.492,0.527,5.8,11.0,0.143,0.2,1.4,0.484,6.0,12.4,0.813,2.6,3.2,5.0,5.0,NBA,31.2,1.8,4.6,SF,14.8,2003,1.0,UTA,1.6,5.4
30.0,1.4,0.2,2.9,0.456,0.47,3.6,7.8,0.0,0.0,0.2,0.456,3.6,8.0,0.723,2.0,2.8,17.0,0.0,NBA,25.5,1.9,2.4,SF,9.3,2007,0.4,UTA,1.3,4.8
31.0,0.7,0.3,1.4,0.405,0.4,2.0,5.0,0.333,0.1,0.3,0.397,2.1,5.3,0.8,2.3,2.9,12.0,0.0,NBA,17.4,1.4,2.9,SF,6.6,2008,0.6,UTA,0.9,2.8
32.0,0.8,0.2,1.2,0.5,0.524,2.2,4.2,0.0,0.0,0.2,0.5,2.2,4.4,1.0,0.4,0.4,5.0,0.0,NBA,9.8,0.6,2.4,SG,4.8,2009,0.4,UTA,0.4,1.8
