age,ast,ast_per_g,blk,college_id,fg,fg3,fg3_pct,fg3a,fg_pct,fga,ft,ft_pct,fta,g,mp,mp_per_g,orb,pf,pts,pts_per_g,season,stl,tov,trb,trb_per_g
18.0,68.0,2.3,7.0,GATECH,121.0,28.0,0.384,73.0,0.484,250.0,81.0,0.736,110.0,29.0,966.0,33.3,0.0,66.0,351.0,12.1,1995,39.0,62.0,180.0,6.2
19.0,79.0,2.2,5.0,GATECH,233.0,66.0,0.429,154.0,0.51,457.0,138.0,0.762,181.0,36.0,1328.0,36.9,0.0,89.0,670.0,18.6,1996,63.0,88.0,293.0,8.1
20.0,60.0,2.2,10.0,GATECH,169.0,65.0,0.342,190.0,0.412,410.0,110.0,0.675,163.0,27.0,1015.0,37.6,0.0,70.0,513.0,19.0,1997,32.0,97.0,222.0,8.2
21.0,82.0,2.6,7.0,GATECH,230.0,52.0,0.31,168.0,0.456,504.0,179.0,0.81,221.0,32.0,0.0,0.0,0.0,0.0,691.0,21.6,1998,44.0,0.0,302.0,9.4
