age,ast,blk,drb,fg,fg2,fg2a,fg3,fg3a,fga,ft,fta,game_score,lg_id,mp,orb,pf,pts,season,stl,team_id,tov,trb
22.0,3.0,0.0,6.0,4.0,4.0,8.0,1.0,3.0,11.0,6.0,7.0,11.0,NBA,0.0,4.0,3.0,10.0,1999,1.0,ORL,2.0,10.0
25.0,2.0,0.0,5.0,8.0,8.0,14.0,0.0,0.0,14.0,4.0,4.0,13.9,NBA,0.0,4.0,4.0,18.0,2002,2.0,PHI,3.0,8.0
26.0,2.0,1.0,6.0,8.0,8.0,12.0,1.0,4.0,16.0,5.0,6.0,11.4,NBA,0.0,5.0,6.0,18.0,2003,3.0,UTA,5.0,8.0
30.0,2.0,1.0,6.0,7.0,7.0,14.0,0.0,1.0,14.0,7.0,9.0,16.8,NBA,33.0,4.0,6.0,21.0,2007,1.0,UTA,3.0,8.0
31.0,2.0,1.0,3.0,4.0,4.0,9.0,1.0,2.0,9.0,7.0,8.0,9.4,NBA,26.0,5.0,5.0,12.0,2008,2.0,UTA,2.0,6.0
32.0,2.0,1.0,2.0,5.0,5.0,7.0,0.0,1.0,8.0,2.0,2.0,6.4,NBA,15.0,2.0,4.0,10.0,2009,1.0,UTA,2.0,3.0
