age,ast,blk,drb,fg,fg2,fg2a,fg3,fg3a,fga,ft,fta,game_score,lg_id,mp,orb,pf,pts,season,stl,team_id,tov,trb
24.0,6.0,0.0,2.0,0.0,0.0,2.0,0.0,0.0,2.0,0.0,2.0,1.8,NBA,17,1.0,3.0,0.0,2007,0.0,TOT,1.0,2.0
24.0,1.0,0.0,1.0,0.0,0.0,0.0,0.0,0.0,0.0,0.0,0.0,1.0,NBA,12,1.0,1.0,0.0,2007,0.0,MEM,0.0,1.0
24.0,6.0,0.0,2.0,0.0,0.0,2.0,0.0,0.0,2.0,0.0,2.0,1.8,NBA,17,1.0,3.0,0.0,2007,0.0,LAC,1.0,2.0
27.0,2.0,0.0,2.0,1.0,1.0,3.0,0.0,1.0,4.0,0.0,2.0,2.4,NBA,11,0.0,3.0,2.0,2010,0.0,HOU,3.0,2.0
30.0,0.0,0.0,0.0,0.0,0.0,3.0,0.0,1.0,4.0,1.0,2.0,0.6,NBA,9,1.0,1.0,1.0,2013,0.0,MIN,0.0,1.0
