age,ast,blk,drb,fg,fg2,fg2a,fg3,fg3a,fga,ft,fta,game_score,lg_id,mp,orb,pf,pts,season,stl,team_id,tov,trb
22.0,2.0,5.0,10.0,10.0,10.0,13.0,0.0,0.0,13.0,6.0,9.0,21.8,NBA,0.0,6.0,6.0,21.0,1994,4.0,WSB,4.0,13.0
23.0,3.0,6.0,9.0,13.0,13.0,16.0,0.0,0.0,16.0,9.0,10.0,28.8,NBA,0.0,8.0,6.0,30.0,1995,5.0,WSB,6.0,14.0
24.0,5.0,9.0,15.0,14.0,14.0,19.0,0.0,1.0,19.0,10.0,15.0,31.9,NBA,0.0,9.0,6.0,31.0,1996,3.0,WSB,4.0,21.0
25.0,2.0,4.0,14.0,11.0,11.0,16.0,0.0,0.0,16.0,9.0,12.0,21.2,NBA,0.0,6.0,6.0,24.0,1997,3.0,WSB,6.0,14.0
27.0,0.0,0.0,0.0,0.0,0.0,1.0,0.0,0.0,1.0,0.0,0.0,-1.7,NBA,0.0,0.0,0.0,0.0,1999,0.0,NJN,1.0,0.0
28.0,2.0,3.0,6.0,6.0,6.0,10.0,0.0,0.0,10.0,5.0,7.0,10.4,NBA,0.0,5.0,4.0,12.0,2000,0.0,NJN,2.0,11.0
