age,ast_pct,blk_pct,bpm,bpm-dum,dbpm,drb_pct,dws,fg3a_per_fga_pct,fta_per_fga_pct,g,lg_id,mp,obpm,orb_pct,ows,per,pos,season,stl_pct,team_id,tov_pct,trb_pct,ts_pct,usg_pct,vorp,ws,ws-dum,ws_per_48
22.0,4.5,4.6,-2.2,0.0,0.0,23.1,0.7,0.0,0.302,54.0,NBA,650.0,-2.1,11.7,0.6,17.4,C,1994,2.2,WSB,16.9,17.3,0.571,21.2,0.0,1.3,0.0,0.094
23.0,3.5,5.2,-0.7,0.0,1.0,21.4,2.1,0.0,0.323,73.0,NBA,1720.0,-1.7,11.6,2.1,17.4,C,1995,1.4,WSB,15.7,16.3,0.591,18.6,0.5,4.1,0.0,0.116
24.0,4.2,5.5,1.5,0.0,1.4,24.7,3.8,0.001,0.348,76.0,NBA,2242.0,0.0,13.3,4.3,21.0,C,1996,1.2,WSB,13.4,19.1,0.6,21.2,2.0,8.0,0.0,0.172
25.0,2.5,3.9,-1.3,0.0,0.4,21.2,2.9,0.0,0.368,73.0,NBA,1849.0,-1.7,9.1,2.5,16.7,C,1997,1.2,WSB,15.7,15.2,0.618,18.1,0.3,5.3,0.0,0.139
27.0,0.0,0.0,-86.7,0.0,-12.9,0.0,0.0,0.0,0.0,1.0,NBA,1.0,-73.8,0.0,-0.1,-90.6,C,1999,0.0,NJN,50.0,0.0,0.0,88.3,0.0,-0.1,0.0,-2.519
28.0,5.6,3.1,-6.4,0.0,-2.2,19.0,0.2,0.0,0.422,30.0,NBA,267.0,-4.3,9.6,0.1,11.8,C,2000,0.0,NJN,13.0,14.1,0.492,20.5,-0.3,0.3,0.0,0.052
