age,ast_per_g,blk_per_g,drb_per_g,efg_pct,fg2_pct,fg2_per_g,fg2a_per_g,fg3_pct,fg3_per_g,fg3a_per_g,fg_pct,fg_per_g,fga_per_g,ft_pct,ft_per_g,fta_per_g,g,gs,lg_id,mp_per_g,orb_per_g,pf_per_g,pos,pts_per_g,season,stl_per_g,team_id,tov_per_g,trb_per_g
22.0,0.3,0.9,2.3,0.545,0.545,2.4,4.4,0.0,0.0,0.0,0.545,2.4,4.4,0.676,0.9,1.3,54.0,2.0,NBA,12.0,1.2,2.2,C,5.6,1994,0.5,WSB,1.0,3.6
23.0,0.5,1.7,4.2,0.56,0.56,4.2,7.4,0.0,0.0,0.0,0.56,4.2,7.4,0.709,1.7,2.4,73.0,58.0,NBA,23.6,2.5,3.5,C,10.0,1995,0.7,WSB,1.6,6.7
24.0,0.7,2.3,6.3,0.584,0.585,6.1,10.5,0.0,0.0,0.0,0.584,6.1,10.5,0.619,2.3,3.7,76.0,76.0,NBA,29.5,3.3,3.9,C,14.5,1996,0.7,WSB,1.9,9.6
25.0,0.4,1.3,4.7,0.604,0.604,4.5,7.4,0.0,0.0,0.0,0.604,4.5,7.4,0.618,1.7,2.7,73.0,69.0,NBA,25.3,1.9,3.2,C,10.6,1997,0.6,WSB,1.6,6.6
27.0,0.0,0.0,0.0,0.0,0.0,0.0,1.0,0.0,0.0,0.0,0.0,0.0,1.0,0.0,0.0,0.0,1.0,0.0,NBA,1.0,0.0,0.0,C,0.0,1999,0.0,NJN,1.0,0.0
28.0,0.3,0.4,1.5,0.456,0.456,1.4,3.0,0.0,0.0,0.0,0.456,1.4,3.0,0.605,0.8,1.3,30.0,2.0,NBA,8.9,0.8,1.7,C,3.5,2000,0.0,NJN,0.5,2.3
