age,ast,blk,drb,fg,fg2,fg2a,fg3,fg3a,fga,ft,fta,game_score,lg_id,mp,orb,pf,pts,season,stl,team_id,tov,trb
28.0,2.0,1.0,4.0,5.0,5.0,8.0,0.0,1.0,8.0,3.0,7.0,11.8,NBA,0.0,5.0,4.0,11.0,1998,4.0,CHH,3.0,7.0
29.0,1.0,1.0,6.0,2.0,2.0,4.0,0.0,0.0,4.0,3.0,4.0,4.5,NBA,0.0,2.0,3.0,5.0,1999,1.0,CHH,2.0,7.0
