age,ast,blk,fg,fg3,fg3_pct,fg3a,fg_pct,fga,ft,ft_pct,fta,g,gs,lg_id,mp,orb,pf,pos,pts,season,stl,team_id,tov,trb
26.0,6.0,0.0,3.0,1.0,0.25,4.0,0.5,6.0,0.0,0.0,0.0,1.0,0.0,NBA,21,1.0,0.0,PG,7.0,2017,1.0,CHO,0.0,3.0
27.0,1.0,0.0,5.0,1.0,0.2,5.0,0.5,10.0,0.0,0.0,0.0,1.0,0.0,NBA,15,1.0,0.0,PG,11.0,2018,0.0,CHO,0.0,2.0
28.0,8.0,0.0,2.0,0.0,0.0,5.0,0.25,8.0,0.0,0.0,0.0,1.0,1.0,NBA,21,0.0,0.0,PG,4.0,2019,1.0,CHO,0.0,1.0
