age,avg_dist,fg2_dunk,fg2_pct,fg2_pct_ast,fg2a_pct_fga,fg3_heave,fg3_pct,fg3_pct_ast,fg3_pct_corner,fg3a_heave,fg3a_pct_fga,fg_pct,fg_pct_00_03,fg_pct_03_10,fg_pct_10_16,fg_pct_16_xx,g,lg_id,mp,pct_fg2_dunk,pct_fg3a_corner,pct_fga_00_03,pct_fga_03_10,pct_fga_10_16,pct_fga_16_xx,pos,season,team_id
21.0,15.5,0.0,0.392,0.255,0.705,0.0,0.305,0.609,0.308,3.0,0.295,0.366,0.5,0.314,0.379,0.339,66.0,NBA,1792.0,0.0,0.058,0.216,0.091,0.113,0.284,PG,2012,CHA
22.0,13.4,5.0,0.459,0.258,0.733,0.0,0.322,0.738,0.32,7.0,0.267,0.423,0.548,0.312,0.413,0.438,82.0,NBA,2859.0,0.004,0.075,0.302,0.113,0.129,0.189,PG,2013,CHA
23.0,15.2,0.0,0.417,0.212,0.714,0.0,0.333,0.67,0.304,9.0,0.286,0.393,0.514,0.34,0.4,0.369,73.0,NBA,2614.0,0.001,0.07,0.221,0.087,0.149,0.256,PG,2014,CHA
24.0,14.3,0.0,0.418,0.259,0.715,0.0,0.304,0.659,0.28,4.0,0.285,0.385,0.492,0.378,0.3,0.423,62.0,NBA,2119.0,0.0,0.089,0.257,0.113,0.133,0.212,PG,2015,CHO
25.0,14.8,0.0,0.459,0.189,0.632,1.0,0.371,0.599,0.404,4.0,0.368,0.427,0.598,0.336,0.38,0.376,81.0,NBA,2885.0,0.0,0.106,0.25,0.092,0.091,0.2,PG,2016,CHO
26.0,15.0,0.0,0.476,0.201,0.585,0.0,0.399,0.513,0.525,3.0,0.415,0.444,0.549,0.33,0.387,0.428,79.0,NBA,2739.0,0.0,0.066,0.304,0.065,0.073,0.144,PG,2017,CHO
27.0,16.0,0.0,0.469,0.151,0.559,1.0,0.384,0.481,0.379,8.0,0.441,0.431,0.571,0.316,0.408,0.437,80.0,NBA,2736.0,0.001,0.048,0.226,0.086,0.095,0.151,PG,2018,CHO
28.0,15.8,0.0,0.494,0.2,0.566,1.0,0.356,0.438,0.395,10.0,0.434,0.434,0.576,0.343,0.479,0.466,82.0,NBA,2863.0,0.0,0.052,0.252,0.107,0.1,0.106,PG,2019,CHO
29.0,17.8,0.0,0.395,0.188,0.45,0.0,0.444,0.545,0.0,0.0,0.55,0.422,0.69,0.238,0.174,0.375,10.0,NBA,338.0,0.0,0.03,0.161,0.117,0.128,0.044,PG,2020,BOS
