age,ast_per_mp,blk_per_mp,drb_per_mp,fg2_pct,fg2_per_mp,fg2a_per_mp,fg3_pct,fg3_per_mp,fg3a_per_mp,fg_pct,fg_per_mp,fga_per_mp,ft_pct,ft_per_mp,fta_per_mp,g,gs,lg_id,mp,orb_per_mp,pf_per_mp,pos,pts_per_mp,season,stl_per_mp,team_id,tov_per_mp,trb_per_mp
23.0,1.0,3.8,5.2,0.357,3.4,9.6,0.0,0.0,0.5,0.338,3.4,10.2,0.786,3.0,3.8,24.0,1.0,NBA,262.0,5.2,4.8,C,9.9,2002,1.0,DEN,1.8,10.4
24.0,1.3,2.4,6.5,0.401,4.5,11.3,0.0,0.0,0.0,0.4,4.5,11.3,0.55,3.1,5.6,59.0,3.0,NBA,907.0,4.3,3.6,C,12.1,2003,1.2,DEN,2.4,10.9
25.0,1.2,4.0,7.3,0.446,3.1,7.1,0.0,0.0,0.0,0.443,3.1,7.1,0.589,2.2,3.7,71.0,0.0,NBA,1029.0,3.1,4.2,PF,8.5,2004,1.2,DEN,1.7,10.4
26.0,1.8,2.5,6.9,0.538,4.8,8.9,0.0,0.0,0.1,0.534,4.8,9.0,0.689,3.3,4.8,67.0,2.0,NBA,1430.0,3.4,3.6,C,12.9,2005,0.4,NOH,1.6,10.3
27.0,0.4,2.6,5.9,0.571,3.5,6.2,0.0,0.0,0.0,0.571,3.5,6.2,0.476,3.1,6.5,32.0,2.0,NBA,570.0,3.9,5.3,C,10.2,2006,0.5,NOK,1.6,9.8
29.0,0.0,4.2,7.4,0.286,2.1,7.4,0.0,0.0,0.0,0.286,2.1,7.4,0.5,2.1,4.2,5.0,0.0,NBA,34.0,2.1,6.4,C,6.4,2008,0.0,NOH,1.1,9.5
30.0,0.8,4.3,6.9,0.56,3.9,7.0,0.2,0.0,0.2,0.548,3.9,7.2,0.718,3.2,4.5,71.0,1.0,NBA,1460.0,4.0,4.3,C,11.1,2009,1.0,DEN,1.7,10.9
31.0,0.7,3.0,7.1,0.573,3.0,5.3,0.0,0.0,0.1,0.566,3.0,5.3,0.695,3.5,5.0,76.0,0.0,NBA,1695.0,3.1,3.6,PF,9.5,2010,0.9,DEN,1.3,10.3
32.0,1.0,2.9,7.1,0.603,4.0,6.7,0.0,0.0,0.0,0.599,4.0,6.7,0.637,4.2,6.6,45.0,0.0,NBA,732.0,3.7,3.9,C,12.3,2011,1.1,DEN,1.2,10.8
33.0,0.4,3.4,7.4,0.546,4.4,8.0,0.0,0.0,0.0,0.546,4.4,8.0,0.61,3.7,6.1,32.0,1.0,NBA,486.0,3.6,3.9,C,12.4,2012,1.4,DEN,1.3,11.0
34.0,1.0,2.5,6.6,0.575,4.0,6.9,0.667,0.1,0.2,0.577,4.1,7.1,0.677,3.6,5.4,42.0,0.0,NBA,624.0,3.3,5.1,C,11.9,2013,0.9,MIA,1.4,9.9
35.0,0.5,2.5,6.4,0.662,4.5,6.8,0.25,0.1,0.3,0.644,4.6,7.1,0.71,3.1,4.4,72.0,0.0,NBA,1396.0,3.3,4.2,C,12.3,2014,0.8,MIA,1.4,9.8
36.0,1.4,1.9,7.1,0.598,3.7,6.2,0.308,0.1,0.4,0.58,3.8,6.6,0.667,2.4,3.6,60.0,20.0,NBA,1132.0,2.4,2.8,C,10.2,2015,0.8,MIA,1.3,9.5
37.0,1.1,1.2,5.6,0.586,3.0,5.2,0.286,0.4,1.3,0.528,3.4,6.4,0.694,2.2,3.2,27.0,15.0,NBA,402.0,3.2,2.6,C,9.4,2016,1.3,TOT,0.8,8.8
37.0,3.0,3.0,6.0,0.4,2.0,5.0,0.4,2.0,5.0,0.4,4.0,10.0,0.75,3.0,4.0,7.0,1.0,NBA,36.0,3.0,4.0,C,13.0,2016,1.0,MIA,2.0,9.0
37.0,0.9,1.0,5.5,0.604,3.1,5.2,0.222,0.2,0.9,0.548,3.3,6.1,0.688,2.2,3.1,20.0,14.0,NBA,366.0,3.2,2.5,C,9.0,2016,1.4,MEM,0.7,8.8
38.0,1.6,2.2,6.9,0.474,2.8,6.0,0.0,0.0,0.9,0.409,2.8,6.9,0.714,3.2,4.4,12.0,0.0,NBA,114.0,2.8,6.3,C,8.8,2017,1.6,CLE,1.6,9.8
