age,ast_per_g,blk_per_g,drb_per_g,efg_pct,fg2_pct,fg2_per_g,fg2a_per_g,fg3_pct,fg3_per_g,fg3a_per_g,fg_pct,fg_per_g,fga_per_g,ft_pct,ft_per_g,fta_per_g,g,gs,lg_id,mp_per_g,orb_per_g,pf_per_g,pos,pts_per_g,season,stl_per_g,team_id,tov_per_g,trb_per_g
23.0,0.3,1.2,1.6,0.338,0.357,1.0,2.9,0.0,0.0,0.2,0.338,1.0,3.1,0.786,0.9,1.2,24.0,1.0,NBA,10.9,1.6,1.5,C,3.0,2002,0.3,DEN,0.5,3.2
24.0,0.5,1.0,2.8,0.4,0.401,1.9,4.8,0.0,0.0,0.0,0.4,1.9,4.8,0.55,1.3,2.4,59.0,3.0,NBA,15.4,1.8,1.5,C,5.2,2003,0.5,DEN,1.0,4.6
25.0,0.5,1.6,2.9,0.443,0.446,1.3,2.8,0.0,0.0,0.0,0.443,1.3,2.9,0.589,0.9,1.5,71.0,0.0,NBA,14.5,1.3,1.7,PF,3.4,2004,0.5,DEN,0.7,4.2
26.0,1.1,1.5,4.1,0.534,0.538,2.9,5.3,0.0,0.0,0.0,0.534,2.9,5.3,0.689,2.0,2.8,67.0,2.0,NBA,21.3,2.0,2.1,C,7.7,2005,0.2,NOH,1.0,6.1
27.0,0.2,1.3,2.9,0.571,0.571,1.8,3.1,0.0,0.0,0.0,0.571,1.8,3.1,0.476,1.5,3.2,32.0,2.0,NBA,17.8,1.9,2.6,C,5.0,2006,0.3,NOK,0.8,4.8
29.0,0.0,0.8,1.4,0.286,0.286,0.4,1.4,0.0,0.0,0.0,0.286,0.4,1.4,0.5,0.4,0.8,5.0,0.0,NBA,6.8,0.4,1.2,C,1.2,2008,0.0,NOH,0.2,1.8
30.0,0.4,2.5,3.9,0.551,0.56,2.2,4.0,0.2,0.0,0.1,0.548,2.3,4.1,0.718,1.8,2.5,71.0,1.0,NBA,20.6,2.3,2.5,C,6.4,2009,0.6,DEN,1.0,6.2
31.0,0.4,1.9,4.4,0.566,0.573,1.9,3.3,0.0,0.0,0.0,0.566,1.9,3.3,0.695,2.2,3.1,76.0,0.0,NBA,22.3,1.9,2.3,PF,5.9,2010,0.6,DEN,0.8,6.4
32.0,0.4,1.3,3.2,0.599,0.603,1.8,3.0,0.0,0.0,0.0,0.599,1.8,3.0,0.637,1.9,3.0,45.0,0.0,NBA,16.3,1.7,1.8,C,5.6,2011,0.5,DEN,0.6,4.9
33.0,0.2,1.4,3.1,0.546,0.546,1.8,3.4,0.0,0.0,0.0,0.546,1.8,3.4,0.61,1.6,2.6,32.0,1.0,NBA,15.2,1.5,1.6,C,5.3,2012,0.6,DEN,0.5,4.6
34.0,0.4,1.0,2.7,0.585,0.575,1.6,2.9,0.667,0.0,0.1,0.577,1.7,2.9,0.677,1.5,2.2,42.0,0.0,NBA,14.9,1.4,2.1,C,4.9,2013,0.4,MIA,0.6,4.1
35.0,0.3,1.3,3.5,0.649,0.662,2.4,3.7,0.25,0.0,0.2,0.644,2.5,3.8,0.71,1.7,2.3,72.0,0.0,NBA,19.4,1.8,2.3,C,6.6,2014,0.4,MIA,0.7,5.3
36.0,0.7,1.0,3.7,0.589,0.598,1.9,3.2,0.308,0.1,0.2,0.58,2.0,3.5,0.667,1.3,1.9,60.0,20.0,NBA,18.9,1.3,1.5,C,5.3,2015,0.4,MIA,0.7,5.0
37.0,0.4,0.5,2.3,0.556,0.586,1.3,2.1,0.286,0.1,0.5,0.528,1.4,2.7,0.694,0.9,1.3,27.0,15.0,NBA,14.9,1.3,1.1,C,3.9,2016,0.6,TOT,0.3,3.6
37.0,0.4,0.4,0.9,0.5,0.4,0.3,0.7,0.4,0.3,0.7,0.4,0.6,1.4,0.75,0.4,0.6,7.0,1.0,NBA,5.1,0.4,0.6,C,1.9,2016,0.1,MIA,0.3,1.3
37.0,0.5,0.5,2.8,0.565,0.604,1.6,2.7,0.222,0.1,0.5,0.548,1.7,3.1,0.688,1.1,1.6,20.0,14.0,NBA,18.3,1.7,1.3,C,4.6,2016,0.7,MEM,0.4,4.5
38.0,0.4,0.6,1.8,0.409,0.474,0.8,1.6,0.0,0.0,0.3,0.409,0.8,1.8,0.714,0.8,1.2,12.0,0.0,NBA,9.5,0.8,1.7,C,2.3,2017,0.4,CLE,0.4,2.6
