age,ast,blk,drb,efg_pct,fg,fg2,fg2_pct,fg2a,fg3,fg3_pct,fg3a,fg_pct,fga,ft,ft_pct,fta,g,gs,lg_id,mp,orb,pf,pos,pts,season,stl,team_id,tov,trb
25.0,2.0,2.0,8.0,0.333,3.0,3.0,0.333,9.0,0.0,0.0,0.0,0.333,9.0,0.0,0.0,0.0,5.0,0.0,NBA,34.0,6.0,3.0,PF,6.0,2004,1.0,DEN,2.0,14.0
30.0,9.0,32.0,66.0,0.63,34.0,34.0,0.642,53.0,0.0,0.0,1.0,0.63,54.0,29.0,0.659,44.0,15.0,0.0,NBA,328.0,29.0,42.0,C,97.0,2009,5.0,DEN,8.0,95.0
31.0,1.0,6.0,20.0,0.529,9.0,9.0,0.529,17.0,0.0,0.0,0.0,0.529,17.0,9.0,0.643,14.0,6.0,0.0,NBA,116.0,7.0,14.0,PF,27.0,2010,1.0,DEN,4.0,27.0
32.0,3.0,7.0,9.0,0.636,7.0,7.0,0.636,11.0,0.0,0.0,0.0,0.636,11.0,10.0,0.714,14.0,5.0,0.0,NBA,73.0,5.0,8.0,C,24.0,2011,3.0,DEN,3.0,14.0
34.0,3.0,22.0,44.0,0.807,46.0,46.0,0.807,57.0,0.0,0.0,0.0,0.807,57.0,36.0,0.735,49.0,20.0,0.0,NBA,303.0,32.0,53.0,C,128.0,2013,9.0,MIA,11.0,76.0
35.0,5.0,18.0,81.0,0.579,33.0,33.0,0.589,56.0,0.0,0.0,1.0,0.579,57.0,26.0,0.684,38.0,18.0,0.0,NBA,317.0,26.0,34.0,C,92.0,2014,5.0,MIA,9.0,107.0
37.0,3.0,3.0,18.0,0.417,5.0,5.0,0.417,12.0,0.0,0.0,0.0,0.417,12.0,5.0,0.625,8.0,4.0,2.0,NBA,79.0,13.0,4.0,C,15.0,2016,2.0,MEM,5.0,31.0
