age,ast,blk,drb,fg,fg2,fg2a,fg3,fg3a,fga,ft,fta,game_score,lg_id,mp,orb,pf,pts,season,stl,team_id,tov,trb
21.0,15.0,1.0,9.0,12.0,8.0,17.0,5.0,9.0,22.0,10.0,10.0,27.9,NBA,49,3.0,6.0,32.0,2014,3.0,UTA,7.0,10.0
22.0,11.0,2.0,6.0,10.0,9.0,18.0,5.0,13.0,23.0,6.0,7.0,24.8,NBA,40,3.0,5.0,28.0,2015,4.0,UTA,5.0,6.0
23.0,7.0,2.0,7.0,12.0,10.0,14.0,6.0,10.0,23.0,8.0,8.0,21.5,NBA,38,2.0,4.0,27.0,2016,2.0,UTA,4.0,7.0
24.0,5.0,1.0,4.0,10.0,5.0,8.0,5.0,7.0,13.0,3.0,4.0,24.6,NBA,31,1.0,4.0,27.0,2017,2.0,WAS,3.0,4.0
25.0,15.0,2.0,6.0,19.0,16.0,22.0,4.0,9.0,31.0,4.0,7.0,35.6,NBA,43,2.0,5.0,42.0,2018,3.0,NYK,3.0,7.0
26.0,11.0,1.0,6.0,11.0,10.0,15.0,4.0,8.0,20.0,8.0,10.0,27.1,NBA,34,3.0,4.0,31.0,2019,2.0,TOT,3.0,7.0
26.0,11.0,1.0,6.0,11.0,10.0,15.0,4.0,7.0,20.0,8.0,10.0,27.1,NBA,34,3.0,4.0,31.0,2019,2.0,NYK,3.0,6.0
26.0,8.0,1.0,4.0,10.0,7.0,12.0,4.0,8.0,18.0,6.0,6.0,21.8,NBA,31,3.0,4.0,25.0,2019,2.0,DAL,3.0,7.0
