age,ast_per_mp,blk_per_mp,drb_per_mp,fg2_pct,fg2_per_mp,fg2a_per_mp,fg3_pct,fg3_per_mp,fg3a_per_mp,fg_pct,fg_per_mp,fga_per_mp,ft_pct,ft_per_mp,fta_per_mp,g,gs,lg_id,mp,orb_per_mp,pf_per_mp,pos,pts_per_mp,season,stl_per_mp,team_id,tov_per_mp,trb_per_mp
20.0,1.8,0.3,3.7,0.476,4.9,10.4,0.363,1.3,3.5,0.447,6.2,13.8,0.74,3.5,4.7,77.0,48.0,NBA,1779.0,2.2,3.7,SF,17.1,1998,1.1,PHI,2.4,5.8
21.0,2.0,0.5,3.4,0.526,4.9,9.4,0.309,0.9,3.0,0.473,5.9,12.4,0.652,3.2,5.0,50.0,26.0,NBA,812.0,2.2,4.7,SF,15.9,1999,1.2,TOT,2.0,5.6
21.0,2.9,0.6,5.0,0.458,4.2,9.2,0.263,1.0,3.6,0.403,5.2,12.8,0.792,3.6,4.6,17.0,0.0,NBA,188.0,1.3,4.0,SF,14.9,1999,0.6,PHI,2.9,6.3
21.0,1.8,0.5,2.9,0.546,5.1,9.4,0.327,0.9,2.8,0.495,6.1,12.2,0.614,3.1,5.1,33.0,26.0,NBA,624.0,2.4,5.0,SF,16.2,1999,1.3,MIL,1.8,5.4
22.0,1.9,0.5,4.0,0.497,4.9,9.8,0.346,1.1,3.1,0.461,6.0,13.0,0.774,3.2,4.2,80.0,1.0,NBA,2093.0,1.7,3.9,SF,16.3,2000,1.0,MIL,2.2,5.7
23.0,2.4,0.8,4.0,0.44,3.8,8.6,0.412,1.8,4.5,0.43,5.6,13.1,0.771,3.4,4.4,76.0,16.0,NBA,2086.0,1.4,3.3,PF,16.5,2001,1.3,MIL,2.0,5.4
24.0,1.9,0.6,4.3,0.478,4.0,8.4,0.326,1.7,5.3,0.42,5.7,13.6,0.793,2.6,3.2,74.0,22.0,NBA,1987.0,1.2,3.6,SF,15.7,2002,1.2,MIL,2.3,5.4
25.0,1.6,0.7,4.5,0.474,4.8,10.2,0.366,1.5,4.0,0.443,6.3,14.2,0.78,2.2,2.8,80.0,70.0,NBA,2358.0,1.5,3.9,SF,16.3,2003,1.1,MIL,2.0,5.9
26.0,2.1,0.3,4.4,0.468,5.0,10.7,0.376,1.3,3.3,0.446,6.3,14.0,0.784,2.9,3.8,66.0,65.0,NBA,2089.0,1.1,3.4,SF,16.7,2004,1.1,TOT,2.0,5.5
26.0,2.4,0.4,4.5,0.471,4.8,10.2,0.362,1.3,3.5,0.443,6.1,13.7,0.762,2.5,3.3,42.0,42.0,NBA,1343.0,1.0,3.4,SF,15.9,2004,1.1,MIL,2.0,5.5
26.0,1.6,0.2,4.3,0.464,5.4,11.5,0.406,1.3,3.1,0.452,6.6,14.6,0.813,3.8,4.6,24.0,23.0,NBA,746.0,1.3,3.3,SF,18.2,2004,1.2,NYK,2.1,5.5
27.0,2.0,0.3,3.6,0.451,4.3,9.5,0.409,1.6,3.9,0.439,5.8,13.3,0.786,2.5,3.2,71.0,68.0,NBA,1940.0,0.8,4.1,SF,15.8,2005,0.8,NYK,2.1,4.4
28.0,1.1,0.4,5.9,0.444,3.6,8.2,0.414,2.5,6.0,0.431,6.1,14.2,0.667,1.5,2.3,29.0,10.0,NBA,666.0,1.2,4.2,PF-SF,16.2,2006,0.9,TOT,1.8,7.1
28.0,2.3,1.1,4.5,0.5,5.6,11.3,0.167,1.1,6.8,0.375,6.8,18.0,0.0,0.0,0.0,3.0,0.0,NBA,32.0,0.0,1.1,SF,14.6,2006,0.0,CHI,1.1,4.5
28.0,1.0,0.3,6.0,0.44,3.5,8.0,0.429,2.6,6.0,0.435,6.1,14.0,0.667,1.6,2.4,26.0,10.0,NBA,634.0,1.2,4.4,PF,16.3,2006,0.9,PHO,1.8,7.2
29.0,3.0,0.5,5.5,0.444,2.9,6.4,0.382,2.4,6.2,0.414,5.2,12.7,0.708,1.8,2.5,76.0,24.0,NBA,2054.0,1.1,4.0,PF,14.7,2007,1.0,LAC,1.9,6.6
30.0,3.2,0.5,4.8,0.479,3.9,8.1,0.306,1.5,5.0,0.413,5.4,13.1,0.752,2.1,2.8,63.0,51.0,NBA,1940.0,1.2,3.6,PF,14.5,2008,0.7,LAC,1.8,6.0
31.0,2.0,0.3,4.6,0.446,3.2,7.2,0.413,2.3,5.5,0.432,5.5,12.6,0.736,2.6,3.5,64.0,6.0,NBA,1247.0,1.2,4.2,PF,15.7,2009,0.9,TOT,2.0,5.8
31.0,1.6,0.2,5.2,0.4,4.6,11.5,0.3,1.0,3.3,0.378,5.6,14.7,0.618,3.4,5.6,10.0,5.0,NBA,220.0,2.3,4.3,PF,15.5,2009,0.5,LAC,2.3,7.5
31.0,2.1,0.5,4.3,0.5,3.1,6.1,0.421,2.5,5.9,0.461,5.5,12.0,0.806,2.5,3.1,36.0,1.0,NBA,773.0,0.9,4.2,PF,16.1,2009,1.0,NYK,2.1,5.3
31.0,1.7,0.0,4.8,0.362,2.4,6.7,0.442,2.7,6.1,0.4,5.1,12.8,0.7,2.0,2.8,18.0,0.0,NBA,254.0,1.1,3.8,PF,14.9,2009,0.9,CHI,1.4,6.0
32.0,1.8,0.3,3.5,0.524,4.2,8.0,0.372,2.0,5.4,0.462,6.2,13.4,0.875,2.7,3.0,18.0,1.0,NBA,285.0,1.6,3.9,SF,17.1,2010,1.3,DAL,1.8,5.2
