age,avg_dist,fg2_dunk,fg2_pct,fg2_pct_ast,fg2a_pct_fga,fg3_heave,fg3_pct,fg3_pct_ast,fg3_pct_corner,fg3a_heave,fg3a_pct_fga,fg_pct,fg_pct_00_03,fg_pct_03_10,fg_pct_10_16,fg_pct_16_xx,g,lg_id,mp,pct_fg2_dunk,pct_fg3a_corner,pct_fga_00_03,pct_fga_03_10,pct_fga_10_16,pct_fga_16_xx,pos,season,team_id
23.0,14.2,42.0,0.44,0.621,0.657,0.0,0.412,0.972,0.471,3.0,0.343,0.43,0.574,0.349,0.359,0.362,76.0,NBA,2086.0,0.061,0.327,0.251,0.109,0.173,0.124,PF,2001,MIL
24.0,14.3,46.0,0.478,0.67,0.614,0.0,0.326,1.0,0.35,1.0,0.386,0.42,0.615,0.426,0.388,0.288,74.0,NBA,1987.0,0.065,0.275,0.272,0.09,0.154,0.097,SF,2002,MIL
25.0,13.3,42.0,0.474,0.597,0.715,0.0,0.366,0.979,0.386,2.0,0.285,0.443,0.603,0.377,0.459,0.368,80.0,NBA,2358.0,0.054,0.264,0.252,0.14,0.169,0.155,SF,2003,MIL
26.0,12.4,24.0,0.468,0.507,0.761,0.0,0.376,0.986,0.353,3.0,0.239,0.446,0.542,0.514,0.398,0.375,66.0,NBA,2089.0,0.032,0.263,0.25,0.18,0.204,0.128,SF,2004,TOT
26.0,12.3,14.0,0.471,0.564,0.745,0.0,0.362,0.979,0.313,2.0,0.255,0.443,0.53,0.549,0.374,0.38,42.0,NBA,1343.0,0.031,0.246,0.259,0.178,0.21,0.098,SF,2004,MIL
26.0,12.4,10.0,0.464,0.414,0.789,0.0,0.406,1.0,0.421,1.0,0.211,0.452,0.563,0.455,0.441,0.37,24.0,NBA,746.0,0.033,0.297,0.234,0.182,0.195,0.178,SF,2004,NYK
27.0,12.8,30.0,0.451,0.496,0.71,0.0,0.409,0.976,0.448,6.0,0.29,0.439,0.603,0.357,0.408,0.336,71.0,NBA,1940.0,0.049,0.418,0.263,0.199,0.099,0.149,SF,2005,NYK
28.0,15.4,9.0,0.444,0.463,0.576,0.0,0.414,0.978,0.533,0.0,0.424,0.431,0.576,0.448,0.167,0.41,29.0,NBA,666.0,0.034,0.27,0.225,0.111,0.092,0.149,PF-SF,2006,TOT
28.0,15.3,1.0,0.5,0.8,0.625,0.0,0.167,1.0,0.0,0.0,0.375,0.375,0.333,0.0,0.667,0.667,3.0,NBA,32.0,0.063,0.333,0.188,0.063,0.188,0.188,SF,2006,CHI
28.0,15.4,8.0,0.44,0.435,0.573,0.0,0.429,0.978,0.571,0.0,0.427,0.435,0.589,0.464,0.095,0.389,26.0,NBA,634.0,0.033,0.267,0.228,0.114,0.085,0.146,PF,2006,PHO
29.0,17.1,20.0,0.444,0.656,0.508,0.0,0.382,0.978,0.4,5.0,0.492,0.414,0.688,0.419,0.319,0.221,76.0,NBA,2054.0,0.029,0.154,0.173,0.102,0.126,0.107,PF,2007,LAC
30.0,15.9,25.0,0.479,0.654,0.616,1.0,0.306,0.976,0.13,2.0,0.384,0.413,0.626,0.47,0.364,0.445,63.0,NBA,1940.0,0.04,0.085,0.174,0.118,0.167,0.156,PF,2008,LAC
31.0,15.2,16.0,0.446,0.55,0.568,0.0,0.413,0.923,0.559,0.0,0.432,0.432,0.575,0.368,0.327,0.357,64.0,NBA,1247.0,0.039,0.18,0.242,0.087,0.112,0.128,PF,2009,TOT
31.0,11.5,5.0,0.4,0.464,0.778,0.0,0.3,1.0,1.0,0.0,0.222,0.378,0.517,0.333,0.294,0.333,10.0,NBA,220.0,0.056,0.05,0.322,0.133,0.189,0.133,PF,2009,LAC
31.0,15.7,9.0,0.5,0.576,0.512,0.0,0.421,0.906,0.536,0.0,0.488,0.461,0.597,0.429,0.455,0.37,36.0,NBA,773.0,0.035,0.222,0.24,0.081,0.085,0.105,PF,2009,NYK
31.0,17.5,2.0,0.362,0.588,0.522,0.0,0.442,0.947,0.6,0.0,0.478,0.4,0.6,0.2,0.1,0.353,18.0,NBA,254.0,0.033,0.116,0.167,0.056,0.111,0.189,PF,2009,CHI
32.0,15.3,3.0,0.524,0.697,0.594,0.0,0.372,1.0,0.5,0.0,0.406,0.462,0.75,0.556,0.25,0.389,18.0,NBA,285.0,0.038,0.279,0.226,0.085,0.113,0.17,SF,2010,DAL
