age,ast_pct,blk_pct,bpm,bpm-dum,dbpm,drb_pct,dws,fg3a_per_fga_pct,fta_per_fga_pct,g,lg_id,mp,obpm,orb_pct,ows,per,pos,season,stl_pct,team_id,tov_pct,trb_pct,ts_pct,usg_pct,vorp,ws,ws-dum,ws_per_48
20.0,40.5,0.5,-1.1,0.0,-2.8,10.2,0.7,0.384,0.33,81.0,NBA,2503.0,1.8,2.6,2.5,17.0,PG,2019,1.3,ATL,17.6,6.3,0.539,28.4,0.6,3.3,0.0,0.062
21.0,48.5,0.3,5.9,0.0,-2.2,10.8,0.2,0.447,0.371,10.0,NBA,337.0,8.1,2.0,0.9,25.9,PG,2020,2.2,ATL,17.9,6.5,0.596,34.8,0.7,1.1,0.0,0.163
