age,ast,blk,drb,fg,fg2,fg2a,fg3,fg3a,fga,ft,fta,game_score,lg_id,mp,orb,pf,pts,season,stl,team_id,tov,trb
21.0,4.0,5.0,11.0,9.0,8.0,17.0,2.0,5.0,22.0,7.0,10.0,19.2,NBA,0.0,5.0,6.0,22.0,1996,3.0,WSB,4.0,14.0
22.0,4.0,3.0,11.0,17.0,17.0,24.0,2.0,4.0,25.0,11.0,15.0,29.2,NBA,0.0,7.0,6.0,38.0,1997,3.0,POR,5.0,14.0
23.0,6.0,4.0,14.0,13.0,13.0,21.0,1.0,2.0,21.0,6.0,8.0,27.4,NBA,0.0,7.0,6.0,28.0,1998,6.0,POR,8.0,16.0
24.0,6.0,6.0,12.0,10.0,10.0,18.0,3.0,4.0,18.0,10.0,12.0,26.0,NBA,0.0,5.0,6.0,26.0,1999,4.0,POR,4.0,13.0
25.0,6.0,5.0,10.0,16.0,16.0,22.0,1.0,3.0,22.0,10.0,13.0,29.0,NBA,0.0,5.0,6.0,34.0,2000,4.0,POR,8.0,13.0
26.0,7.0,5.0,16.0,17.0,13.0,24.0,4.0,8.0,27.0,12.0,17.0,37.6,NBA,0.0,5.0,6.0,42.0,2001,4.0,POR,5.0,18.0
27.0,6.0,5.0,14.0,15.0,12.0,24.0,6.0,13.0,26.0,9.0,11.0,34.6,NBA,0.0,7.0,5.0,37.0,2002,5.0,POR,7.0,15.0
28.0,6.0,5.0,13.0,16.0,14.0,22.0,5.0,12.0,27.0,12.0,13.0,35.1,NBA,0.0,6.0,6.0,38.0,2003,4.0,POR,6.0,14.0
29.0,8.0,5.0,14.0,13.0,12.0,20.0,4.0,10.0,25.0,8.0,11.0,24.2,NBA,0.0,5.0,6.0,31.0,2004,4.0,TOT,5.0,15.0
29.0,8.0,5.0,14.0,13.0,12.0,20.0,4.0,10.0,25.0,8.0,11.0,24.2,NBA,0.0,5.0,6.0,31.0,2004,4.0,POR,5.0,15.0
29.0,2.0,5.0,5.0,8.0,7.0,18.0,1.0,6.0,24.0,3.0,3.0,11.5,NBA,0.0,1.0,0.0,20.0,2004,1.0,ATL,3.0,6.0
29.0,5.0,4.0,13.0,9.0,9.0,15.0,3.0,7.0,21.0,8.0,9.0,21.0,NBA,0.0,4.0,5.0,27.0,2004,3.0,DET,3.0,14.0
30.0,5.0,4.0,12.0,11.0,10.0,17.0,4.0,7.0,22.0,7.0,9.0,29.8,NBA,0.0,7.0,6.0,31.0,2005,3.0,DET,5.0,15.0
31.0,7.0,5.0,11.0,12.0,9.0,19.0,5.0,13.0,28.0,6.0,8.0,27.0,NBA,56.0,4.0,6.0,33.0,2006,4.0,DET,4.0,14.0
32.0,5.0,5.0,13.0,12.0,9.0,16.0,5.0,8.0,22.0,8.0,9.0,24.0,NBA,45.0,6.0,6.0,28.0,2007,4.0,DET,5.0,15.0
33.0,6.0,5.0,13.0,12.0,9.0,17.0,5.0,10.0,24.0,9.0,11.0,26.6,NBA,42.0,5.0,6.0,36.0,2008,5.0,DET,5.0,15.0
34.0,6.0,6.0,14.0,10.0,7.0,13.0,7.0,11.0,19.0,5.0,6.0,26.1,NBA,47.0,4.0,6.0,27.0,2009,5.0,DET,3.0,15.0
35.0,5.0,4.0,10.0,9.0,5.0,10.0,6.0,8.0,16.0,6.0,6.0,27.8,NBA,39.0,5.0,6.0,29.0,2010,6.0,BOS,3.0,13.0
38.0,1.0,3.0,7.0,6.0,6.0,7.0,3.0,7.0,13.0,4.0,6.0,11.8,NBA,25.0,3.0,6.0,15.0,2013,2.0,NYK,2.0,8.0
