age,ast,blk,drb,efg_pct,fg,fg2,fg2_pct,fg2a,fg3,fg3_pct,fg3a,fg_pct,fga,ft,ft_pct,fta,g,gs,lg_id,mp,orb,pf,pos,pts,season,stl,team_id,tov,trb
22.0,6.0,2.0,16.0,0.607,33.0,31.0,0.608,51.0,2.0,0.4,5.0,0.589,56.0,11.0,0.55,20.0,4.0,4.0,NBA,148.0,8.0,17.0,PF,79.0,1997,2.0,POR,6.0,24.0
23.0,11.0,2.0,12.0,0.532,23.0,19.0,0.452,42.0,4.0,0.8,5.0,0.489,47.0,8.0,0.5,16.0,4.0,4.0,NBA,157.0,7.0,16.0,PF,58.0,1998,2.0,POR,5.0,19.0
24.0,20.0,11.0,46.0,0.517,75.0,74.0,0.54,137.0,1.0,0.111,9.0,0.514,146.0,42.0,0.724,58.0,13.0,13.0,NBA,468.0,17.0,50.0,PF,193.0,1999,20.0,POR,16.0,63.0
25.0,28.0,20.0,72.0,0.507,110.0,102.0,0.481,212.0,8.0,0.615,13.0,0.489,225.0,58.0,0.773,75.0,16.0,16.0,NBA,605.0,31.0,52.0,PF,286.0,2000,15.0,POR,23.0,103.0
26.0,7.0,3.0,19.0,0.412,19.0,15.0,0.375,40.0,4.0,0.364,11.0,0.373,51.0,8.0,0.571,14.0,3.0,3.0,NBA,128.0,5.0,9.0,PF,50.0,2001,1.0,POR,4.0,24.0
27.0,5.0,2.0,27.0,0.457,28.0,21.0,0.404,52.0,7.0,0.412,17.0,0.406,69.0,13.0,0.813,16.0,3.0,3.0,NBA,125.0,10.0,12.0,PF,76.0,2002,2.0,POR,2.0,37.0
28.0,18.0,5.0,26.0,0.526,44.0,30.0,0.484,62.0,14.0,0.4,35.0,0.454,97.0,20.0,0.714,28.0,7.0,7.0,NBA,260.0,10.0,26.0,PF,122.0,2003,4.0,POR,6.0,36.0
29.0,37.0,45.0,132.0,0.442,118.0,101.0,0.468,216.0,17.0,0.243,70.0,0.413,286.0,46.0,0.767,60.0,23.0,23.0,NBA,803.0,47.0,78.0,PF,299.0,2004,13.0,DET,43.0,179.0
30.0,32.0,44.0,134.0,0.485,136.0,107.0,0.478,224.0,29.0,0.337,86.0,0.439,310.0,40.0,0.741,54.0,25.0,25.0,NBA,826.0,39.0,95.0,PF,341.0,2005,26.0,DET,38.0,173.0
31.0,32.0,15.0,97.0,0.502,96.0,64.0,0.444,144.0,32.0,0.405,79.0,0.43,223.0,29.0,0.527,55.0,18.0,18.0,NBA,628.0,17.0,65.0,PF,253.0,2006,10.0,DET,25.0,114.0
32.0,28.0,28.0,104.0,0.5,86.0,61.0,0.488,125.0,25.0,0.347,72.0,0.437,197.0,32.0,0.842,38.0,16.0,16.0,NBA,573.0,19.0,64.0,C,229.0,2007,19.0,DET,19.0,123.0
33.0,28.0,33.0,89.0,0.483,86.0,62.0,0.484,128.0,24.0,0.32,75.0,0.424,203.0,29.0,0.744,39.0,17.0,17.0,NBA,585.0,19.0,67.0,C,225.0,2008,19.0,DET,29.0,108.0
34.0,3.0,1.0,23.0,0.433,11.0,7.0,0.318,22.0,4.0,0.5,8.0,0.367,30.0,0.0,0.0,0.0,4.0,4.0,NBA,122.0,2.0,12.0,C,26.0,2009,2.0,DET,3.0,25.0
35.0,9.0,14.0,66.0,0.492,52.0,33.0,0.471,70.0,19.0,0.345,55.0,0.416,125.0,24.0,0.828,29.0,24.0,1.0,NBA,410.0,5.0,82.0,C,147.0,2010,10.0,BOS,9.0,71.0
