age,ast_per_poss,blk_per_poss,def_rtg,drb_per_poss,fg2_pct,fg2_per_poss,fg2a_per_poss,fg3_pct,fg3_per_poss,fg3a_per_poss,fg_pct,fg_per_poss,fga_per_poss,ft_pct,ft_per_poss,fta_per_poss,g,gs,lg_id,mp,off_rtg,orb_per_poss,pf_per_poss,pos,pts_per_poss,season,stl_per_poss,team_id,tov_per_poss,trb_per_poss
22.0,2.3,0.8,114.0,6.0,0.608,11.7,19.2,0.4,0.8,1.9,0.589,12.4,21.1,0.55,4.1,7.5,4.0,4.0,NBA,148.0,118.0,3.0,6.4,PF,29.8,1997,0.8,POR,2.3,9.0
23.0,3.7,0.7,118.0,4.0,0.452,6.4,14.1,0.8,1.3,1.7,0.489,7.7,15.8,0.5,2.7,5.4,4.0,4.0,NBA,157.0,113.0,2.3,5.4,PF,19.5,1998,0.7,POR,1.7,6.4
24.0,2.4,1.3,102.0,5.6,0.54,9.0,16.6,0.111,0.1,1.1,0.514,9.1,17.7,0.724,5.1,7.0,13.0,13.0,NBA,468.0,112.0,2.1,6.1,PF,23.5,1999,2.4,POR,1.9,7.7
25.0,2.6,1.8,102.0,6.7,0.481,9.4,19.6,0.615,0.7,1.2,0.489,10.2,20.8,0.773,5.4,6.9,16.0,16.0,NBA,605.0,113.0,2.9,4.8,PF,26.4,2000,1.4,POR,2.1,9.5
26.0,2.9,1.2,114.0,7.8,0.375,6.2,16.4,0.364,1.6,4.5,0.373,7.8,20.9,0.571,3.3,5.7,3.0,3.0,NBA,128.0,93.0,2.1,3.7,PF,20.5,2001,0.4,POR,1.6,9.8
27.0,2.1,0.8,105.0,11.3,0.404,8.8,21.7,0.412,2.9,7.1,0.406,11.7,28.8,0.813,5.4,6.7,3.0,3.0,NBA,125.0,110.0,4.2,5.0,PF,31.7,2002,0.8,POR,0.8,15.4
28.0,3.8,1.1,116.0,5.5,0.484,6.3,13.0,0.4,2.9,7.4,0.454,9.2,20.4,0.714,4.2,5.9,7.0,7.0,NBA,260.0,124.0,2.1,5.5,PF,25.6,2003,0.8,POR,1.3,7.6
29.0,2.6,3.1,91.0,9.2,0.468,7.0,15.0,0.243,1.2,4.9,0.413,8.2,19.9,0.767,3.2,4.2,23.0,23.0,NBA,803.0,97.0,3.3,5.4,PF,20.8,2004,0.9,DET,3.0,12.4
30.0,2.2,3.0,96.0,9.1,0.478,7.3,15.3,0.337,2.0,5.9,0.439,9.3,21.1,0.741,2.7,3.7,25.0,25.0,NBA,826.0,102.0,2.7,6.5,PF,23.2,2005,1.8,DET,2.6,11.8
31.0,2.9,1.3,104.0,8.7,0.444,5.8,13.0,0.405,2.9,7.1,0.43,8.6,20.1,0.527,2.6,4.9,18.0,18.0,NBA,628.0,103.0,1.5,5.8,PF,22.8,2006,0.9,DET,2.2,10.3
32.0,2.7,2.7,97.0,10.2,0.488,6.0,12.2,0.347,2.4,7.0,0.437,8.4,19.2,0.842,3.1,3.7,16.0,16.0,NBA,573.0,110.0,1.9,6.3,C,22.4,2007,1.9,DET,1.9,12.0
33.0,2.7,3.2,102.0,8.6,0.484,6.0,12.4,0.32,2.3,7.3,0.424,8.3,19.7,0.744,2.8,3.8,17.0,17.0,NBA,585.0,100.0,1.8,6.5,C,21.8,2008,1.8,DET,2.8,10.5
34.0,1.4,0.5,110.0,10.9,0.318,3.3,10.4,0.5,1.9,3.8,0.367,5.2,14.2,0.0,0.0,0.0,4.0,4.0,NBA,122.0,85.0,0.9,5.7,C,12.3,2009,0.9,DET,1.4,11.8
35.0,1.2,1.8,100.0,8.7,0.471,4.3,9.2,0.345,2.5,7.2,0.416,6.8,16.4,0.828,3.1,3.8,24.0,1.0,NBA,410.0,106.0,0.7,10.8,C,19.3,2010,1.3,BOS,1.2,9.3
