age,ast_per_poss,blk_per_poss,def_rtg,drb_per_poss,fg2_pct,fg2_per_poss,fg2a_per_poss,fg3_pct,fg3_per_poss,fg3a_per_poss,fg_pct,fg_per_poss,fga_per_poss,ft_pct,ft_per_poss,fta_per_poss,g,gs,lg_id,mp,off_rtg,orb_per_poss,pf_per_poss,pos,pts_per_poss,season,stl_per_poss,team_id,tov_per_poss,trb_per_poss
22.0,6.8,0.0,116.0,1.7,0.44,4.7,10.6,0.4,1.7,4.2,0.429,6.4,14.8,0.684,5.5,8.1,6.0,0.0,NBA,118.0,109.0,1.7,7.6,PG,19.9,2010,2.5,DEN,3.4,3.4
23.0,5.8,0.3,112.0,3.1,0.512,6.4,12.5,0.455,1.5,3.4,0.5,7.9,15.9,0.913,6.4,7.0,5.0,5.0,NBA,167.0,127.0,2.1,2.7,PG,23.8,2011,1.5,DEN,1.8,5.2
24.0,9.2,0.2,111.0,3.1,0.58,10.3,17.8,0.321,2.0,6.1,0.514,12.3,23.9,0.632,2.6,4.2,7.0,7.0,NBA,242.0,124.0,0.9,2.6,PG,29.2,2012,1.5,DEN,1.8,4.0
25.0,10.0,0.0,112.0,3.1,0.5,9.2,18.4,0.19,0.8,4.4,0.44,10.0,22.8,0.848,5.9,6.9,6.0,6.0,NBA,236.0,113.0,1.0,2.7,PG,26.8,2013,2.1,DEN,2.7,4.2
28.0,7.3,0.0,106.0,4.4,0.4,4.4,11.0,0.0,0.0,2.2,0.333,4.4,13.1,0.667,2.9,4.4,7.0,0.0,NBA,74.0,80.0,0.7,5.8,PG,11.7,2016,2.2,IND,4.4,5.1
30.0,7.7,0.0,115.0,5.7,0.222,2.1,9.3,0.625,2.6,4.1,0.346,4.6,13.4,1.0,3.1,3.1,5.0,0.0,NBA,96.0,114.0,1.0,3.1,PG,14.9,2018,1.5,WAS,1.5,6.7
