age,ast,blk,drb,efg_pct,fg,fg2,fg2_pct,fg2a,fg3,fg3_pct,fg3a,fg_pct,fga,ft,ft_pct,fta,g,gs,lg_id,mp,orb,pf,pos,pts,season,stl,team_id,tov,trb
22.0,177.0,19.0,114.0,0.49,334.0,326.0,0.497,656.0,8.0,0.235,34.0,0.484,690.0,112.0,0.806,139.0,74.0,49.0,NBA,1637.0,50.0,174.0,SG,788.0,1984,81.0,LAL,116.0,164.0
23.0,244.0,17.0,153.0,0.552,541.0,515.0,0.546,943.0,26.0,0.433,60.0,0.539,1003.0,187.0,0.82,228.0,81.0,65.0,NBA,2305.0,57.0,197.0,SG,1295.0,1985,100.0,LAL,138.0,210.0
24.0,164.0,15.0,134.0,0.524,507.0,485.0,0.523,928.0,22.0,0.361,61.0,0.513,989.0,138.0,0.784,176.0,76.0,62.0,NBA,2190.0,55.0,167.0,SG,1174.0,1986,85.0,LAL,110.0,189.0
25.0,281.0,18.0,223.0,0.517,554.0,489.0,0.496,985.0,65.0,0.436,149.0,0.489,1134.0,224.0,0.892,251.0,82.0,82.0,NBA,2729.0,63.0,163.0,SG,1397.0,1987,125.0,LAL,144.0,286.0
26.0,335.0,27.0,257.0,0.55,710.0,648.0,0.554,1169.0,62.0,0.346,179.0,0.527,1348.0,272.0,0.858,317.0,81.0,81.0,NBA,3048.0,76.0,204.0,SG,1754.0,1988,155.0,LAL,161.0,333.0
27.0,231.0,27.0,230.0,0.523,588.0,511.0,0.508,1005.0,77.0,0.399,193.0,0.491,1198.0,195.0,0.863,226.0,74.0,73.0,NBA,2605.0,72.0,181.0,SG,1448.0,1989,114.0,LAL,157.0,302.0
28.0,274.0,31.0,191.0,0.516,472.0,379.0,0.483,785.0,93.0,0.423,220.0,0.47,1005.0,160.0,0.766,209.0,77.0,77.0,NBA,2593.0,51.0,180.0,SG,1197.0,1990,77.0,LAL,122.0,242.0
29.0,177.0,21.0,192.0,0.51,501.0,430.0,0.517,832.0,71.0,0.324,219.0,0.477,1051.0,118.0,0.797,148.0,82.0,82.0,NBA,2630.0,54.0,146.0,SG,1191.0,1991,95.0,LAL,85.0,246.0
30.0,226.0,28.0,236.0,0.485,460.0,406.0,0.479,848.0,54.0,0.344,157.0,0.458,1005.0,244.0,0.838,291.0,82.0,82.0,NBA,2679.0,74.0,140.0,SG,1218.0,1992,105.0,LAL,119.0,310.0
31.0,157.0,13.0,107.0,0.483,296.0,252.0,0.481,524.0,44.0,0.326,135.0,0.449,659.0,156.0,0.848,184.0,58.0,53.0,NBA,1677.0,27.0,98.0,SG,792.0,1993,55.0,LAL,70.0,134.0
32.0,133.0,9.0,91.0,0.492,256.0,229.0,0.483,474.0,27.0,0.365,74.0,0.467,548.0,157.0,0.805,195.0,67.0,2.0,NBA,1197.0,19.0,80.0,SG,696.0,1994,62.0,IND,103.0,110.0
33.0,108.0,13.0,133.0,0.522,265.0,186.0,0.489,380.0,79.0,0.389,203.0,0.455,583.0,193.0,0.85,227.0,80.0,1.0,NBA,1528.0,18.0,123.0,PG,802.0,1995,61.0,IND,119.0,151.0
34.0,123.0,22.0,152.0,0.456,271.0,197.0,0.433,455.0,74.0,0.335,221.0,0.401,676.0,203.0,0.835,243.0,80.0,0.0,NBA,1894.0,40.0,126.0,SG,819.0,1996,63.0,VAN,100.0,192.0
35.0,99.0,16.0,97.0,0.526,163.0,90.0,0.471,191.0,73.0,0.388,188.0,0.43,379.0,127.0,0.841,151.0,79.0,8.0,NBA,1440.0,21.0,72.0,SG,526.0,1997,46.0,LAL,53.0,118.0
