age,ast_per_mp,blk_per_mp,drb_per_mp,fg2_pct,fg2_per_mp,fg2a_per_mp,fg3_pct,fg3_per_mp,fg3a_per_mp,fg_pct,fg_per_mp,fga_per_mp,ft_pct,ft_per_mp,fta_per_mp,g,gs,lg_id,mp,orb_per_mp,pf_per_mp,pos,pts_per_mp,season,stl_per_mp,team_id,tov_per_mp,trb_per_mp
22.0,3.0,0.2,2.3,0.477,6.4,13.5,0.2,0.2,0.9,0.46,6.6,14.3,0.6,1.9,3.1,20.0,0.0,NBA,404.0,1.0,3.5,SG,15.2,1984,1.6,LAL,2.3,3.3
23.0,3.1,0.2,2.2,0.52,7.9,15.1,0.476,0.6,1.3,0.517,8.5,16.4,0.795,2.2,2.7,19.0,19.0,NBA,585.0,1.0,2.9,SG,19.8,1985,2.5,LAL,1.5,3.2
24.0,3.2,0.2,3.1,0.512,6.4,12.6,0.353,0.5,1.3,0.497,6.9,13.9,0.905,2.9,3.2,14.0,14.0,NBA,470.0,1.1,2.9,SG,17.2,1986,1.5,LAL,2.3,4.2
25.0,3.4,0.2,2.5,0.545,5.7,10.4,0.206,0.4,2.0,0.49,6.1,12.4,0.791,3.1,4.0,18.0,18.0,NBA,608.0,1.2,3.1,SG,15.8,1987,1.1,LAL,1.5,3.7
26.0,2.4,0.2,3.0,0.51,6.2,12.1,0.436,1.0,2.2,0.499,7.1,14.3,0.865,3.6,4.2,24.0,24.0,NBA,897.0,1.0,2.6,SG,18.9,1988,1.4,LAL,1.9,4.0
27.0,2.2,0.2,3.1,0.529,5.7,10.8,0.385,1.3,3.5,0.494,7.1,14.3,0.836,4.1,4.9,11.0,11.0,NBA,402.0,0.9,2.8,SG,19.6,1989,1.6,LAL,1.8,4.0
28.0,2.5,0.3,3.3,0.5,4.0,8.0,0.382,1.4,3.8,0.462,5.4,11.7,0.769,1.1,1.4,9.0,9.0,NBA,325.0,0.8,3.5,SG,13.4,1990,2.2,LAL,1.4,4.1
29.0,1.5,0.2,2.3,0.507,4.0,7.9,0.526,1.1,2.0,0.511,5.0,9.9,0.794,1.4,1.8,18.0,18.0,NBA,678.0,0.7,2.8,SG,12.6,1991,1.2,LAL,0.9,3.0
30.0,3.4,0.2,1.7,0.469,3.6,7.8,0.583,1.7,2.9,0.5,5.4,10.7,0.889,5.8,6.6,4.0,4.0,NBA,148.0,0.7,2.4,SG,18.2,1992,1.5,LAL,1.2,2.4
31.0,1.8,0.0,2.2,0.481,2.6,5.5,0.533,1.6,3.1,0.5,4.3,8.5,0.783,3.7,4.7,5.0,5.0,NBA,177.0,0.0,2.2,SG,13.8,1993,1.0,LAL,0.8,2.2
32.0,3.0,0.3,3.5,0.377,4.4,11.6,0.474,1.4,2.9,0.396,5.7,14.5,0.784,6.0,7.7,16.0,0.0,NBA,239.0,1.5,3.3,SG,18.8,1994,1.8,IND,3.8,5.0
33.0,1.9,0.1,2.4,0.383,2.8,7.2,0.265,1.1,4.1,0.34,3.9,11.4,0.882,3.6,4.1,17.0,0.0,NBA,298.0,0.6,3.6,PG,12.4,1995,1.2,IND,2.7,3.0
35.0,3.0,0.0,3.2,0.5,3.0,5.9,0.364,1.1,3.0,0.455,4.0,8.9,0.895,4.6,5.1,8.0,0.0,NBA,134.0,0.0,4.0,SG,13.7,1997,0.3,LAL,2.1,3.2
