age,ast_per_g,blk_per_g,drb_per_g,efg_pct,fg2_pct,fg2_per_g,fg2a_per_g,fg3_pct,fg3_per_g,fg3a_per_g,fg_pct,fg_per_g,fga_per_g,ft_pct,ft_per_g,fta_per_g,g,gs,lg_id,mp_per_g,orb_per_g,pf_per_g,pos,pts_per_g,season,stl_per_g,team_id,tov_per_g,trb_per_g
22.0,2.4,0.3,1.5,0.49,0.497,4.4,8.9,0.235,0.1,0.5,0.484,4.5,9.3,0.806,1.5,1.9,74.0,49.0,NBA,22.1,0.7,2.4,SG,10.6,1984,1.1,LAL,1.6,2.2
23.0,3.0,0.2,1.9,0.552,0.546,6.4,11.6,0.433,0.3,0.7,0.539,6.7,12.4,0.82,2.3,2.8,81.0,65.0,NBA,28.5,0.7,2.4,SG,16.0,1985,1.2,LAL,1.7,2.6
24.0,2.2,0.2,1.8,0.524,0.523,6.4,12.2,0.361,0.3,0.8,0.513,6.7,13.0,0.784,1.8,2.3,76.0,62.0,NBA,28.8,0.7,2.2,SG,15.4,1986,1.1,LAL,1.4,2.5
25.0,3.4,0.2,2.7,0.517,0.496,6.0,12.0,0.436,0.8,1.8,0.489,6.8,13.8,0.892,2.7,3.1,82.0,82.0,NBA,33.3,0.8,2.0,SG,17.0,1987,1.5,LAL,1.8,3.5
26.0,4.1,0.3,3.2,0.55,0.554,8.0,14.4,0.346,0.8,2.2,0.527,8.8,16.6,0.858,3.4,3.9,81.0,81.0,NBA,37.6,0.9,2.5,SG,21.7,1988,1.9,LAL,2.0,4.1
27.0,3.1,0.4,3.1,0.523,0.508,6.9,13.6,0.399,1.0,2.6,0.491,7.9,16.2,0.863,2.6,3.1,74.0,73.0,NBA,35.2,1.0,2.4,SG,19.6,1989,1.5,LAL,2.1,4.1
28.0,3.6,0.4,2.5,0.516,0.483,4.9,10.2,0.423,1.2,2.9,0.47,6.1,13.1,0.766,2.1,2.7,77.0,77.0,NBA,33.7,0.7,2.3,SG,15.5,1990,1.0,LAL,1.6,3.1
29.0,2.2,0.3,2.3,0.51,0.517,5.2,10.1,0.324,0.9,2.7,0.477,6.1,12.8,0.797,1.4,1.8,82.0,82.0,NBA,32.1,0.7,1.8,SG,14.5,1991,1.2,LAL,1.0,3.0
30.0,2.8,0.3,2.9,0.485,0.479,5.0,10.3,0.344,0.7,1.9,0.458,5.6,12.3,0.838,3.0,3.5,82.0,82.0,NBA,32.7,0.9,1.7,SG,14.9,1992,1.3,LAL,1.5,3.8
31.0,2.7,0.2,1.8,0.483,0.481,4.3,9.0,0.326,0.8,2.3,0.449,5.1,11.4,0.848,2.7,3.2,58.0,53.0,NBA,28.9,0.5,1.7,SG,13.7,1993,0.9,LAL,1.2,2.3
32.0,2.0,0.1,1.4,0.492,0.483,3.4,7.1,0.365,0.4,1.1,0.467,3.8,8.2,0.805,2.3,2.9,67.0,2.0,NBA,17.9,0.3,1.2,SG,10.4,1994,0.9,IND,1.5,1.6
33.0,1.4,0.2,1.7,0.522,0.489,2.3,4.8,0.389,1.0,2.5,0.455,3.3,7.3,0.85,2.4,2.8,80.0,1.0,NBA,19.1,0.2,1.5,PG,10.0,1995,0.8,IND,1.5,1.9
34.0,1.5,0.3,1.9,0.456,0.433,2.5,5.7,0.335,0.9,2.8,0.401,3.4,8.5,0.835,2.5,3.0,80.0,0.0,NBA,23.7,0.5,1.6,SG,10.2,1996,0.8,VAN,1.3,2.4
35.0,1.3,0.2,1.2,0.526,0.471,1.1,2.4,0.388,0.9,2.4,0.43,2.1,4.8,0.841,1.6,1.9,79.0,8.0,NBA,18.2,0.3,0.9,SG,6.7,1997,0.6,LAL,0.7,1.5
