age,ast_per_g,blk_per_g,drb_per_g,efg_pct,fg2_pct,fg2_per_g,fg2a_per_g,fg3_pct,fg3_per_g,fg3a_per_g,fg_pct,fg_per_g,fga_per_g,ft_pct,ft_per_g,fta_per_g,g,gs,lg_id,mp_per_g,orb_per_g,pf_per_g,pos,pts_per_g,season,stl_per_g,team_id,tov_per_g,trb_per_g
19.0,3.3,0.1,1.4,0.413,0.421,2.2,5.3,0.246,0.3,1.0,0.393,2.5,6.3,0.789,1.5,2.0,68.0,26.0,NBA,19.6,0.1,1.8,PG,6.8,2005,0.5,POR,1.8,1.5
20.0,3.6,0.1,1.5,0.444,0.411,2.5,6.1,0.352,0.8,2.4,0.394,3.4,8.5,0.743,1.9,2.6,68.0,30.0,NBA,24.1,0.3,2.5,PG,9.5,2006,1.0,POR,1.7,1.8
21.0,2.8,0.1,1.2,0.41,0.402,1.8,4.4,0.289,0.5,1.6,0.371,2.3,6.1,0.818,1.2,1.4,78.0,30.0,NBA,20.2,0.2,2.1,PG,6.1,2007,0.6,BOS,1.3,1.4
22.0,5.9,0.2,2.0,0.43,0.432,3.2,7.4,0.281,0.5,1.9,0.401,3.7,9.3,0.743,1.3,1.8,60.0,51.0,NBA,32.2,0.3,2.9,PG,9.3,2008,1.0,MIN,1.9,2.3
23.0,4.6,0.2,1.3,0.435,0.399,2.6,6.5,0.346,1.0,2.8,0.383,3.6,9.3,0.819,1.7,2.1,75.0,43.0,NBA,27.9,0.4,2.5,PG,9.8,2009,1.0,MIN,1.9,1.7
24.0,2.9,0.1,0.9,0.445,0.483,1.6,3.4,0.232,0.3,1.3,0.413,1.9,4.7,0.784,0.7,0.9,43.0,1.0,NBA,15.3,0.1,1.7,PG,4.8,2010,0.6,TOT,1.2,1.0
24.0,2.9,0.1,0.9,0.437,0.471,1.4,3.1,0.234,0.3,1.2,0.404,1.7,4.3,0.774,0.6,0.8,39.0,1.0,NBA,14.9,0.1,1.7,PG,4.3,2010,0.6,LAC,1.1,1.1
24.0,3.0,0.0,1.0,0.486,0.538,3.5,6.5,0.222,0.5,2.3,0.457,4.0,8.8,0.833,1.3,1.5,4.0,0.0,NBA,19.3,0.0,1.5,PG,9.8,2010,0.5,CLE,1.5,1.0
25.0,3.0,0.1,1.0,0.461,0.423,1.9,4.4,0.359,0.8,2.1,0.402,2.6,6.5,0.733,1.2,1.6,37.0,8.0,NBA,19.2,0.5,1.7,PG,7.2,2011,0.7,MIN,1.7,1.5
26.0,2.3,0.2,1.2,0.461,0.456,1.8,4.0,0.314,0.6,1.8,0.412,2.4,5.7,0.791,0.9,1.1,60.0,1.0,NBA,14.9,0.3,2.0,PG,6.1,2012,0.7,PHO,1.1,1.5
27.0,2.6,0.2,1.2,0.448,0.371,1.0,2.7,0.353,0.9,2.5,0.362,1.9,5.2,0.783,0.9,1.2,59.0,2.0,NBA,16.6,0.2,1.8,PG,5.6,2013,0.6,TOT,1.1,1.4
27.0,2.5,0.2,1.2,0.468,0.381,1.1,2.9,0.381,0.9,2.5,0.381,2.0,5.4,0.772,1.0,1.2,46.0,2.0,NBA,17.3,0.3,1.8,PG,6.0,2013,0.6,PHO,1.2,1.5
27.0,3.0,0.1,1.2,0.371,0.32,0.6,1.9,0.27,0.8,2.8,0.29,1.4,4.8,0.833,0.8,0.9,13.0,0.0,NBA,14.2,0.1,1.5,PG,4.3,2013,0.7,TOR,0.8,1.2
29.0,2.8,0.0,1.8,0.44,0.431,1.8,4.1,0.3,1.1,3.8,0.368,2.9,7.8,0.706,1.5,2.1,16.0,1.0,NBA,20.4,0.1,1.8,PG,8.4,2015,0.6,OKC,1.1,1.9
