age,ast_per_mp,blk_per_mp,drb_per_mp,fg2_pct,fg2_per_mp,fg2a_per_mp,fg3_pct,fg3_per_mp,fg3a_per_mp,fg_pct,fg_per_mp,fga_per_mp,ft_pct,ft_per_mp,fta_per_mp,g,gs,lg_id,mp,orb_per_mp,pf_per_mp,pos,pts_per_mp,season,stl_per_mp,team_id,tov_per_mp,trb_per_mp
22.0,3.4,0.0,3.4,0.449,5.0,11.1,0.35,1.6,4.5,0.42,6.6,15.6,0.833,3.4,4.1,15.0,0.0,NBA,159.0,0.7,1.4,PG,18.1,2015,0.9,UTA,2.7,4.1
23.0,2.8,0.0,0.0,0.571,3.7,6.5,0.0,0.0,2.8,0.4,3.7,9.2,0.0,0.0,0.0,8.0,0.0,NBA,39.0,0.0,1.8,PG,7.4,2016,2.8,TOT,4.6,0.0
23.0,3.3,0.0,0.0,0.4,2.2,5.5,0.0,0.0,3.3,0.25,2.2,8.7,0.0,0.0,0.0,3.0,0.0,NBA,33.0,0.0,2.2,PG,4.4,2016,3.3,PHO,5.5,0.0
23.0,0.0,0.0,0.0,1.0,12.0,12.0,0.0,0.0,0.0,1.0,12.0,12.0,0.0,0.0,0.0,5.0,0.0,NBA,6.0,0.0,0.0,PG,24.0,2016,0.0,MEM,0.0,0.0
