age,ast,blk,drb,fg,fg2,fg2a,fg3,fg3a,fga,ft,fta,game_score,lg_id,mp,orb,pf,pts,season,stl,team_id,tov,trb
23.0,3.0,1.0,6.0,5.0,5.0,9.0,1.0,2.0,9.0,2.0,3.0,9.7,NBA,0.0,4.0,4.0,12.0,1999,2.0,PHO,2.0,8.0
24.0,5.0,1.0,4.0,5.0,5.0,9.0,1.0,1.0,10.0,4.0,6.0,11.8,NBA,0.0,5.0,5.0,12.0,2000,2.0,PHO,4.0,8.0
