age,ast,blk,drb,efg_pct,fg,fg2,fg2_pct,fg2a,fg3,fg3_pct,fg3a,fg_pct,fga,ft,ft_pct,fta,g,gs,lg_id,mp,orb,pf,pos,pts,season,stl,team_id,tov,trb
26.0,96.0,4.0,175.0,0.553,285.0,156.0,0.481,324.0,129.0,0.419,308.0,0.451,632.0,84.0,0.808,104.0,80.0,1.0,NBA,1685.0,21.0,148.0,SG,783.0,2011,27.0,SAS,78.0,196.0
27.0,117.0,2.0,106.0,0.522,212.0,129.0,0.448,288.0,83.0,0.419,198.0,0.436,486.0,50.0,0.781,64.0,56.0,7.0,NBA,1206.0,12.0,75.0,SG,557.0,2012,27.0,SAS,60.0,118.0
28.0,129.0,2.0,130.0,0.487,246.0,157.0,0.454,346.0,89.0,0.355,251.0,0.412,597.0,64.0,0.865,74.0,68.0,17.0,NBA,1484.0,13.0,93.0,SG,645.0,2013,30.0,SAS,69.0,143.0
29.0,83.0,0.0,80.0,0.482,193.0,125.0,0.43,291.0,68.0,0.378,180.0,0.41,471.0,94.0,0.895,105.0,52.0,3.0,NBA,1114.0,10.0,65.0,SG,548.0,2014,18.0,TOT,64.0,90.0
29.0,46.0,0.0,42.0,0.462,108.0,68.0,0.41,166.0,40.0,0.36,111.0,0.39,277.0,45.0,0.833,54.0,30.0,2.0,NBA,607.0,8.0,26.0,SG,301.0,2014,7.0,MIL,39.0,50.0
29.0,37.0,0.0,38.0,0.51,85.0,57.0,0.456,125.0,28.0,0.406,69.0,0.438,194.0,49.0,0.961,51.0,22.0,1.0,NBA,507.0,2.0,39.0,SG,247.0,2014,11.0,CHA,25.0,40.0
30.0,100.0,1.0,115.0,0.423,188.0,138.0,0.407,339.0,50.0,0.305,164.0,0.374,503.0,117.0,0.867,135.0,54.0,1.0,NBA,1193.0,14.0,88.0,SG,543.0,2015,23.0,TOT,65.0,129.0
30.0,80.0,1.0,80.0,0.408,143.0,104.0,0.392,265.0,39.0,0.293,133.0,0.359,398.0,88.0,0.863,102.0,43.0,0.0,NBA,931.0,14.0,70.0,SG,413.0,2015,16.0,CHO,55.0,94.0
30.0,20.0,0.0,35.0,0.481,45.0,34.0,0.459,74.0,11.0,0.355,31.0,0.429,105.0,29.0,0.879,33.0,11.0,1.0,NBA,262.0,0.0,18.0,SG,130.0,2015,7.0,MIN,10.0,35.0
31.0,47.0,1.0,72.0,0.528,151.0,110.0,0.489,225.0,41.0,0.41,100.0,0.465,325.0,47.0,0.855,55.0,40.0,2.0,NBA,807.0,11.0,55.0,SG,390.0,2016,20.0,WAS,29.0,83.0
32.0,1.0,0.0,1.0,0.0,0.0,0.0,0.0,5.0,0.0,0.0,2.0,0.0,7.0,4.0,1.0,4.0,2.0,0.0,NBA,18.0,0.0,1.0,SG,4.0,2017,0.0,ATL,0.0,1.0
