age,ast_per_g,blk_per_g,drb_per_g,efg_pct,fg2_pct,fg2_per_g,fg2a_per_g,fg3_pct,fg3_per_g,fg3a_per_g,fg_pct,fg_per_g,fga_per_g,ft_pct,ft_per_g,fta_per_g,g,gs,lg_id,mp_per_g,orb_per_g,pf_per_g,pos,pts_per_g,season,stl_per_g,team_id,tov_per_g,trb_per_g
24.0,0.6,0.0,0.6,0.415,0.447,0.8,1.8,0.0,0.0,0.1,0.415,0.8,2.0,0.738,0.8,1.1,72.0,0.0,NBA,7.3,0.7,1.0,PF,2.5,1989,0.3,BOS,0.5,1.3
27.0,0.3,0.3,2.7,0.5,0.5,0.7,1.3,0.0,0.0,0.0,0.5,0.7,1.3,0.6,2.0,3.3,3.0,0.0,NBA,8.3,1.0,1.3,PF,3.3,1992,0.3,CHH,1.0,3.7
30.0,1.0,0.0,1.0,0.25,0.25,0.5,2.0,0.0,0.0,0.0,0.25,0.5,2.0,0.0,0.0,0.0,2.0,0.0,NBA,4.0,1.5,1.0,PF,1.0,1995,0.0,NYK,0.0,2.5
31.0,0.5,0.1,1.3,0.414,0.409,0.6,1.6,0.286,0.1,0.5,0.379,0.8,2.1,0.68,0.6,0.9,28.0,3.0,NBA,11.1,0.7,1.1,PF,2.3,1996,0.4,TOT,0.4,2.0
31.0,0.6,0.1,1.2,0.385,0.346,0.5,1.4,0.308,0.2,0.7,0.333,0.7,2.2,0.684,0.7,1.1,18.0,3.0,NBA,13.1,0.8,1.5,PF,2.4,1996,0.4,MIA,0.6,2.0
31.0,0.3,0.0,1.3,0.5,0.667,0.5,0.8,0.0,0.0,0.3,0.5,0.5,1.0,0.0,0.0,0.0,4.0,0.0,NBA,4.8,0.3,0.0,PF,1.0,1996,0.0,ATL,0.0,1.5
31.0,0.3,0.2,1.3,0.467,0.467,1.2,2.5,0.0,0.0,0.0,0.467,1.2,2.5,0.667,0.7,1.0,6.0,0.0,NBA,9.5,0.8,0.7,PF,3.0,1996,0.7,NYK,0.2,2.2
