article_url,date,headline
https://hoopshabit.com/2019/11/07/nba-4-teams-desperate-need-big-november/,2019/11/07,Hoops Habit: 4 NBA teams in desperate need of a big November
https://atlallday.com/2019/10/30/atlanta-hawks-injury-shows-point-guard-needed/,2019/10/30,ATL All Day: Atlanta Hawks: Young's Injury Shows Point Guard Help Needed
https://www.hoopsrumors.com/2019/10/2019-offseason-in-review-los-angeles-clippers.html,2019/10/20,HoopsRumors: 2019 Offseason In Review: Los Angeles Clippers
