age,ast_pct,blk_pct,bpm,bpm-dum,dbpm,drb_pct,dws,fg3a_per_fga_pct,fta_per_fga_pct,g,lg_id,mp,obpm,orb_pct,ows,per,pos,season,stl_pct,team_id,tov_pct,trb_pct,ts_pct,usg_pct,vorp,ws,ws-dum,ws_per_48
23.0,11.8,1.3,-2.0,0.0,0.2,10.7,0.5,0.162,0.316,30.0,NBA,851.0,-2.1,2.7,0.2,10.1,PG,2018,1.5,LAC,14.1,6.8,0.517,16.6,0.0,0.7,0.0,0.042
24.0,9.5,0.9,-6.3,0.0,-0.9,13.2,0.5,0.088,0.263,62.0,NBA,628.0,-5.5,3.5,-0.8,7.0,PG,2019,1.6,LAC,12.9,8.5,0.45,18.7,-0.7,-0.3,0.0,-0.023
25.0,13.1,0.0,-7.4,0.0,-1.6,16.1,0.1,0.3,0.5,8.0,NBA,106.0,-5.9,3.2,-0.2,4.5,SG,2020,1.3,ATL,19.7,9.8,0.423,18.1,-0.1,-0.1,0.0,-0.056
