age,ast,ast_per_g,blk,college_id,fg,fg3,fg3_pct,fg3a,fg_pct,fga,ft,ft_pct,fta,g,mp,mp_per_g,orb,pf,pts,pts_per_g,season,stl,tov,trb,trb_per_g
18.0,87.0,2.6,16.0,CALIFORNIA,88.0,22.0,0.224,98.0,0.342,257.0,39.0,0.534,73.0,33.0,931.0,28.2,38.0,79.0,237.0,7.2,2013,26.0,56.0,146.0,4.4
19.0,95.0,2.7,16.0,CALIFORNIA,141.0,43.0,0.321,134.0,0.43,328.0,70.0,0.625,112.0,35.0,1090.0,31.1,35.0,95.0,395.0,11.3,2014,44.0,55.0,145.0,4.1
20.0,131.0,4.0,11.0,CALIFORNIA,208.0,28.0,0.318,88.0,0.425,489.0,120.0,0.606,198.0,33.0,1152.0,34.9,30.0,91.0,564.0,17.1,2015,42.0,94.0,235.0,7.1
21.0,123.0,4.4,12.0,CALIFORNIA,151.0,25.0,0.298,84.0,0.44,343.0,100.0,0.649,154.0,28.0,901.0,32.2,27.0,63.0,427.0,15.3,2016,27.0,74.0,148.0,5.3
