age,ast_pct,blk_pct,bpm,bpm-dum,dbpm,drb_pct,dws,fg3a_per_fga_pct,fta_per_fga_pct,g,lg_id,mp,obpm,orb_pct,ows,per,pos,season,stl_pct,team_id,tov_pct,trb_pct,ts_pct,usg_pct,vorp,ws,ws-dum,ws_per_48
23.0,14.8,0.0,-2.1,0.0,-0.2,11.1,0.1,0.0,0.273,9.0,NBA,66.0,-1.9,1.7,0.1,14.7,C,2001,3.1,SAC,10.9,6.5,0.528,18.5,0.0,0.2,0.0,0.126
24.0,9.7,2.3,-2.8,0.0,-0.3,11.9,0.3,0.048,0.508,23.0,NBA,181.0,-2.5,5.0,0.2,13.1,C,2002,1.7,TOT,6.1,8.5,0.474,20.4,0.0,0.5,0.0,0.121
24.0,11.4,3.7,-5.1,0.0,1.5,17.7,0.1,0.048,0.571,12.0,NBA,71.0,-6.6,3.1,-0.1,7.0,C,2002,1.4,SAC,7.1,10.5,0.342,17.3,-0.1,0.0,0.0,0.014
24.0,8.6,1.4,-1.3,0.0,-1.5,8.2,0.1,0.048,0.476,11.0,NBA,110.0,0.2,6.3,0.3,17.1,C,2002,2.0,PHI,5.6,7.2,0.541,22.4,0.0,0.4,0.0,0.189
26.0,10.4,2.5,-7.6,0.0,-2.5,13.2,0.1,0.043,0.286,31.0,NBA,168.0,-5.1,7.6,-0.1,9.2,C,2004,0.6,SAC,8.2,10.5,0.406,23.1,-0.2,0.0,0.0,-0.005
27.0,9.8,1.8,-3.6,0.0,1.6,15.4,1.0,0.014,0.372,45.0,NBA,648.0,-5.2,5.3,-0.3,8.4,PF,2005,2.1,NJN,18.5,10.3,0.482,15.3,-0.3,0.7,0.0,0.05
