age,ast,blk,drb,fg,fg2,fg2a,fg3,fg3a,fga,ft,fta,game_score,lg_id,mp,orb,pf,pts,season,stl,team_id,tov,trb
26.0,0.0,1.0,2.0,1.0,1.0,1.0,0.0,0.0,1.0,2.0,2.0,3.2,NBA,0.0,1.0,1.0,3.0,2004,0.0,SAC,0.0,2.0
27.0,0.0,0.0,0.0,0.0,0.0,0.0,0.0,0.0,0.0,0.0,0.0,0.0,NBA,0.0,0.0,2.0,0.0,2005,0.0,NJN,0.0,0.0
