age,ast_per_poss,blk_per_poss,def_rtg,drb_per_poss,fg2_pct,fg2_per_poss,fg2a_per_poss,fg3_pct,fg3_per_poss,fg3a_per_poss,fg_pct,fg_per_poss,fga_per_poss,ft_pct,ft_per_poss,fta_per_poss,g,gs,lg_id,mp,off_rtg,orb_per_poss,pf_per_poss,pos,pts_per_poss,season,stl_per_poss,team_id,tov_per_poss,trb_per_poss
23.0,2.3,0.2,109.0,3.8,0.421,8.3,19.7,0.37,0.6,1.7,0.417,8.9,21.4,0.82,4.6,5.6,65.0,24.0,NBA,1382.0,96.0,1.6,5.2,PG,23.1,2001,1.7,TOT,2.8,5.3
23.0,2.3,0.3,104.0,4.7,0.351,6.4,18.3,0.3,0.3,1.1,0.348,6.8,19.4,0.733,3.6,4.9,38.0,6.0,NBA,472.0,86.0,2.2,8.3,PG,17.5,2001,1.7,DAL,2.3,6.9
23.0,2.3,0.1,111.0,3.3,0.454,9.3,20.4,0.389,0.8,2.0,0.448,10.1,22.5,0.857,5.1,6.0,27.0,18.0,NBA,910.0,101.0,1.3,3.6,PG,26.1,2001,1.7,WAS,3.1,4.6
24.0,3.5,0.3,109.0,4.3,0.478,8.9,18.7,0.278,0.2,0.7,0.47,9.1,19.4,0.81,4.0,5.0,56.0,28.0,NBA,1325.0,106.0,1.8,4.6,SG,22.5,2002,1.4,WAS,2.5,6.1
25.0,3.1,0.2,106.0,3.1,0.388,6.9,17.7,0.333,0.8,2.3,0.382,7.6,19.9,0.808,4.7,5.8,66.0,7.0,NBA,1360.0,96.0,1.5,4.9,PG,20.7,2003,1.2,NOH,2.7,4.7
