age,and1s,astd_pts,drawn_offensive,drawn_shooting,fouls_offensive,fouls_shooting,g,lg_id,mp,own_shots_blk,pct_1,pct_2,pct_3,pct_4,pct_5,plus_minus_net,plus_minus_on,pos,season,team_id,tov_bad_pass,tov_lost_ball
23.0,15.0,131.0,0.0,58.0,9.0,54.0,65.0,NBA,1382.0,35.0,16.0,72.0,13.0,0.0,0.0,-10.9,-10.3,PG,2001,TOT,25.0,31.0
23.0,5.0,46.0,0.0,20.0,4.0,23.0,38.0,NBA,472.0,12.0,39.0,49.0,13.0,0.0,0.0,-17.9,-11.2,PG,2001,DAL,8.0,5.0
23.0,10.0,85.0,0.0,38.0,5.0,31.0,27.0,NBA,910.0,23.0,4.0,83.0,13.0,0.0,0.0,-3.4,-9.8,PG,2001,WAS,17.0,26.0
24.0,5.0,185.0,0.0,47.0,14.0,41.0,56.0,NBA,1325.0,33.0,2.0,41.0,56.0,1.0,0.0,-6.9,-6.0,SG,2002,WAS,30.0,13.0
25.0,11.0,176.0,0.0,61.0,10.0,44.0,66.0,NBA,1360.0,35.0,38.0,58.0,4.0,0.0,0.0,-3.9,-0.2,PG,2003,NOH,29.0,22.0
