age,ast,blk,drb,efg_pct,fg,fg2,fg2_pct,fg2a,fg3,fg3_pct,fg3a,fg_pct,fga,ft,ft_pct,fta,g,gs,lg_id,mp,orb,pf,pos,pts,season,stl,team_id,tov,trb
19.0,275.0,20.0,147.0,0.517,350.0,277.0,0.491,564.0,73.0,0.399,183.0,0.469,747.0,171.0,0.872,196.0,51.0,51.0,NBA,1558.0,44.0,110.0,PG,944.0,2012,54.0,CLE,160.0,191.0
20.0,350.0,21.0,182.0,0.503,484.0,375.0,0.474,791.0,109.0,0.391,279.0,0.452,1070.0,248.0,0.855,290.0,59.0,59.0,NBA,2048.0,34.0,146.0,PG,1325.0,2013,89.0,CLE,191.0,216.0
21.0,433.0,23.0,207.0,0.48,532.0,409.0,0.458,893.0,123.0,0.358,344.0,0.43,1237.0,291.0,0.861,338.0,71.0,71.0,NBA,2496.0,52.0,163.0,PG,1478.0,2014,108.0,CLE,190.0,259.0
22.0,389.0,20.0,182.0,0.532,578.0,421.0,0.491,857.0,157.0,0.415,378.0,0.468,1235.0,315.0,0.863,365.0,75.0,75.0,NBA,2730.0,55.0,146.0,PG,1628.0,2015,114.0,CLE,186.0,237.0
23.0,249.0,18.0,113.0,0.496,394.0,310.0,0.502,617.0,84.0,0.321,262.0,0.448,879.0,169.0,0.885,191.0,53.0,53.0,NBA,1667.0,44.0,107.0,PG,1041.0,2016,56.0,CLE,124.0,157.0
24.0,418.0,24.0,178.0,0.535,671.0,494.0,0.505,979.0,177.0,0.401,441.0,0.473,1420.0,297.0,0.905,328.0,72.0,72.0,NBA,2525.0,52.0,157.0,PG,1816.0,2017,83.0,CLE,180.0,230.0
25.0,306.0,17.0,194.0,0.568,534.0,368.0,0.541,680.0,166.0,0.408,407.0,0.491,1087.0,232.0,0.889,261.0,60.0,60.0,NBA,1931.0,33.0,122.0,PG,1466.0,2018,65.0,BOS,140.0,227.0
26.0,464.0,34.0,264.0,0.557,604.0,430.0,0.533,807.0,174.0,0.401,434.0,0.487,1241.0,214.0,0.873,245.0,67.0,67.0,NBA,2214.0,71.0,167.0,PG,1596.0,2019,103.0,BOS,172.0,335.0
27.0,79.0,6.0,49.0,0.506,112.0,81.0,0.503,161.0,31.0,0.341,91.0,0.444,252.0,59.0,0.937,63.0,11.0,11.0,NBA,372.0,10.0,32.0,PG,314.0,2020,12.0,BRK,26.0,59.0
