age,ast,blk,drb,fg,fg2,fg2a,fg3,fg3a,fga,ft,fta,game_score,lg_id,mp,orb,pf,pts,season,stl,team_id,tov,trb
19.0,12.0,2.0,7.0,12.0,10.0,20.0,6.0,7.0,21.0,10.0,10.0,27.0,NBA,42,4.0,5.0,32.0,2012,3.0,CLE,8.0,9.0
20.0,11.0,3.0,6.0,16.0,15.0,21.0,5.0,10.0,27.0,14.0,14.0,31.3,NBA,42,2.0,5.0,41.0,2013,5.0,CLE,8.0,7.0
21.0,12.0,4.0,10.0,17.0,14.0,25.0,5.0,12.0,33.0,13.0,13.0,35.6,NBA,49,4.0,5.0,44.0,2014,6.0,CLE,9.0,10.0
22.0,12.0,3.0,10.0,20.0,13.0,25.0,11.0,19.0,36.0,10.0,11.0,48.2,NBA,47,3.0,5.0,57.0,2015,5.0,CLE,8.0,10.0
23.0,12.0,2.0,7.0,15.0,13.0,20.0,5.0,11.0,28.0,11.0,11.0,29.3,NBA,42,3.0,5.0,35.0,2016,4.0,CLE,7.0,9.0
24.0,14.0,2.0,9.0,16.0,12.0,22.0,8.0,14.0,30.0,11.0,12.0,42.5,NBA,46,4.0,5.0,49.0,2017,7.0,CLE,7.0,9.0
25.0,10.0,2.0,9.0,16.0,11.0,20.0,6.0,15.0,27.0,10.0,11.0,39.9,NBA,41,3.0,5.0,47.0,2018,4.0,BOS,6.0,9.0
26.0,18.0,2.0,9.0,18.0,15.0,23.0,6.0,13.0,33.0,11.0,13.0,39.0,NBA,44,4.0,5.0,43.0,2019,8.0,BOS,7.0,11.0
27.0,10.0,1.0,10.0,17.0,11.0,19.0,7.0,14.0,33.0,11.0,11.0,40.5,NBA,39,2.0,5.0,50.0,2020,3.0,BRK,6.0,11.0
