age,ast_pct,blk_pct,bpm,bpm-dum,dbpm,drb_pct,dws,fg3a_per_fga_pct,fta_per_fga_pct,g,lg_id,mp,obpm,orb_pct,ows,per,pos,season,stl_pct,team_id,tov_pct,trb_pct,ts_pct,usg_pct,vorp,ws,ws-dum,ws_per_48
24.0,8.1,0.6,-3.2,0.0,-0.4,11.9,0.9,0.0,0.336,55.0,NBA,990.0,-2.8,9.4,0.2,10.0,SF,1990,1.2,CLE,15.9,10.6,0.515,17.1,-0.3,1.1,0.0,0.055
25.0,11.9,0.4,-4.6,0.0,-1.4,11.8,0.2,0.0,0.439,27.0,NBA,334.0,-3.2,10.4,0.0,9.2,SF,1991,1.2,CLE,13.5,11.1,0.45,19.3,-0.2,0.2,0.0,0.026
26.0,5.9,0.6,-4.3,0.0,-0.5,12.8,0.7,0.005,0.237,54.0,NBA,833.0,-3.8,8.8,-0.3,6.3,SF,1992,1.2,TOT,12.4,10.8,0.418,13.9,-0.5,0.3,0.0,0.02
26.0,5.9,0.6,-4.3,0.0,-0.5,12.8,0.7,0.005,0.239,52.0,NBA,831.0,-3.9,8.6,-0.3,6.3,SF,1992,1.2,CLE,12.5,10.8,0.418,13.8,-0.5,0.3,0.0,0.019
26.0,0.0,0.0,-9.2,0.0,-17.8,0.0,0.0,0.0,0.0,2.0,NBA,2.0,8.6,55.1,0.0,29.9,SF,1992,0.0,MIA,0.0,27.9,0.5,41.9,0.0,0.0,0.0,0.238
