age,avg_dist,fg2_dunk,fg2_pct,fg2_pct_ast,fg2a_pct_fga,fg3_heave,fg3_pct,fg3_pct_ast,fg3_pct_corner,fg3a_heave,fg3a_pct_fga,fg_pct,fg_pct_00_03,fg_pct_03_10,fg_pct_10_16,fg_pct_16_xx,g,lg_id,mp,pct_fg2_dunk,pct_fg3a_corner,pct_fga_00_03,pct_fga_03_10,pct_fga_10_16,pct_fga_16_xx,pos,season,team_id
23.0,16.1,9.0,0.424,0.472,0.656,1.0,0.352,0.742,0.304,5.0,0.344,0.399,0.5,0.273,0.366,0.434,45.0,NBA,1457.0,0.02,0.131,0.219,0.086,0.08,0.266,PG,2015,NYK
24.0,15.4,2.0,0.423,0.468,0.619,0.0,0.344,0.844,0.475,6.0,0.381,0.393,0.58,0.421,0.371,0.276,82.0,NBA,2033.0,0.003,0.263,0.235,0.097,0.06,0.228,PG,2016,NYK
25.0,20.3,0.0,0.367,0.46,0.435,0.0,0.39,0.917,0.37,2.0,0.565,0.38,0.51,0.121,0.355,0.376,74.0,NBA,1495.0,0.0,0.149,0.09,0.061,0.057,0.229,PG,2017,TOT
25.0,20.8,0.0,0.37,0.453,0.392,0.0,0.377,0.901,0.4,2.0,0.608,0.374,0.5,0.182,0.364,0.352,55.0,NBA,1120.0,0.0,0.149,0.095,0.05,0.05,0.2,PG,2017,NOP
25.0,18.4,0.0,0.359,0.478,0.615,0.0,0.475,1.0,0.167,0.0,0.385,0.404,0.571,0.0,0.333,0.432,19.0,NBA,375.0,0.0,0.15,0.067,0.106,0.087,0.356,PG,2017,SAC
26.0,20.7,0.0,0.418,0.451,0.359,0.0,0.344,0.92,0.364,0.0,0.641,0.371,0.692,0.346,0.483,0.352,58.0,NBA,863.0,0.0,0.202,0.038,0.076,0.085,0.159,SG,2018,DET
27.0,19.5,0.0,0.449,0.839,0.353,0.0,0.355,0.985,0.415,0.0,0.647,0.388,0.517,0.426,0.371,0.453,80.0,NBA,1745.0,0.0,0.374,0.099,0.104,0.06,0.09,SG,2019,DET
28.0,17.2,0.0,0.387,0.667,0.477,0.0,0.412,1.0,0.667,0.0,0.523,0.4,0.556,0.273,0.286,0.5,9.0,NBA,210.0,0.0,0.176,0.138,0.169,0.108,0.062,SG,2020,DET
