age,ast,blk,drb,efg_pct,fg,fg2,fg2_pct,fg2a,fg3,fg3_pct,fg3a,fg_pct,fga,ft,ft_pct,fta,g,gs,lg_id,mp,orb,pf,pos,pts,season,stl,team_id,tov,trb
23.0,150.0,12.0,153.0,0.46,204.0,142.0,0.424,335.0,62.0,0.352,176.0,0.399,511.0,63.0,0.808,78.0,45.0,41.0,NBA,1457.0,37.0,129.0,PG,533.0,2015,52.0,NYK,61.0,190.0
24.0,207.0,22.0,245.0,0.458,231.0,154.0,0.423,364.0,77.0,0.344,224.0,0.393,588.0,86.0,0.754,114.0,82.0,7.0,NBA,2033.0,43.0,177.0,PG,625.0,2016,77.0,NYK,61.0,288.0
25.0,93.0,6.0,129.0,0.49,207.0,87.0,0.367,237.0,120.0,0.39,308.0,0.38,545.0,51.0,0.797,64.0,74.0,2.0,NBA,1495.0,27.0,96.0,PG,585.0,2017,46.0,TOT,46.0,156.0
25.0,65.0,5.0,101.0,0.489,165.0,64.0,0.37,173.0,101.0,0.377,268.0,0.374,441.0,40.0,0.769,52.0,55.0,0.0,NBA,1120.0,20.0,76.0,PG,471.0,2017,40.0,NOP,28.0,121.0
25.0,28.0,1.0,28.0,0.495,42.0,23.0,0.359,64.0,19.0,0.475,40.0,0.404,104.0,11.0,0.917,12.0,19.0,2.0,NBA,375.0,7.0,20.0,PG,114.0,2017,6.0,SAC,18.0,35.0
26.0,58.0,5.0,79.0,0.481,126.0,51.0,0.418,122.0,75.0,0.344,218.0,0.371,340.0,33.0,0.805,41.0,58.0,2.0,NBA,863.0,13.0,39.0,SG,360.0,2018,35.0,DET,18.0,92.0
27.0,85.0,8.0,122.0,0.503,228.0,93.0,0.449,207.0,135.0,0.355,380.0,0.388,587.0,81.0,0.844,96.0,80.0,4.0,NBA,1745.0,49.0,135.0,SG,672.0,2019,37.0,DET,24.0,171.0
28.0,16.0,3.0,17.0,0.508,26.0,12.0,0.387,31.0,14.0,0.412,34.0,0.4,65.0,25.0,0.926,27.0,9.0,0.0,NBA,210.0,2.0,8.0,SG,91.0,2020,7.0,DET,5.0,19.0
