age,ast_per_poss,blk_per_poss,def_rtg,drb_per_poss,fg2_pct,fg2_per_poss,fg2a_per_poss,fg3_pct,fg3_per_poss,fg3a_per_poss,fg_pct,fg_per_poss,fga_per_poss,ft_pct,ft_per_poss,fta_per_poss,g,gs,lg_id,mp,off_rtg,orb_per_poss,pf_per_poss,pos,pts_per_poss,season,stl_per_poss,team_id,tov_per_poss,trb_per_poss
22.0,3.1,1.2,110.0,4.7,0.457,3.4,7.5,0.258,0.8,3.2,0.398,4.3,10.7,0.75,1.5,2.0,74.0,56.0,NBA,1449.0,100.0,1.6,6.1,SG,10.9,2019,1.4,DET,1.6,6.3
23.0,4.7,0.8,111.0,5.7,0.42,4.1,9.9,0.313,1.0,3.2,0.394,5.1,13.0,0.667,2.8,4.1,9.0,6.0,NBA,242.0,89.0,1.6,6.3,SG,14.0,2020,1.6,DET,4.1,7.3
