age,ast_per_g,blk_per_g,drb_per_g,efg_pct,fg2_pct,fg2_per_g,fg2a_per_g,fg3_pct,fg3_per_g,fg3a_per_g,fg_pct,fg_per_g,fga_per_g,ft_pct,ft_per_g,fta_per_g,g,gs,lg_id,mp_per_g,orb_per_g,pf_per_g,pos,pts_per_g,season,stl_per_g,team_id,tov_per_g,trb_per_g
22.0,1.2,0.5,1.9,0.436,0.457,1.4,3.0,0.258,0.3,1.3,0.398,1.7,4.2,0.75,0.6,0.8,74.0,56.0,NBA,19.6,0.6,2.4,SG,4.3,2019,0.5,DET,0.6,2.5
23.0,2.7,0.4,3.2,0.432,0.42,2.3,5.6,0.313,0.6,1.8,0.394,2.9,7.3,0.667,1.6,2.3,9.0,6.0,NBA,26.9,0.9,3.6,SG,7.9,2020,0.9,DET,2.3,4.1
