article_url,date,headline
https://www.hoopsrumors.com/2019/09/2019-offseason-in-review-chicago-bulls.html,2019/09/20,HoopsRumors: 2019 Offseason In Review: Chicago Bulls
https://dawindycity.com/2019/09/08/chicago-bulls-smart-cut-blakeney/,2019/09/08,Da Windy City: Chicago Bulls make smart move by cutting Antonio Blakeney
https://www.hoopsrumors.com/2019/06/2019-nba-qualifying-offer-recap.html,2019/06/20,HoopsRumors: 2019 NBA Qualifying Offer Recap
https://thunderousintentions.com/2019/06/30/2019-central-nba-free-agency-primer/,2019/06/30,Thunderous Intentions: 2019 Central NBA Free Agency Primer: Division with greatest potential for growth
