age,ast_per_poss,blk_per_poss,def_rtg,drb_per_poss,fg2_pct,fg2_per_poss,fg2a_per_poss,fg3_pct,fg3_per_poss,fg3a_per_poss,fg_pct,fg_per_poss,fga_per_poss,ft_pct,ft_per_poss,fta_per_poss,g,gs,lg_id,mp,off_rtg,orb_per_poss,pf_per_poss,pos,pts_per_poss,season,stl_per_poss,team_id,tov_per_poss,trb_per_poss
23.0,3.1,0.6,105.0,4.3,0.447,6.6,14.8,0.382,1.8,4.8,0.431,8.5,19.6,0.717,3.0,4.2,80.0,49.0,NBA,1809.0,105.0,3.3,4.8,SG,21.8,2001,1.8,TOR,2.3,7.6
24.0,4.2,0.3,106.0,3.6,0.469,6.9,14.6,0.364,2.3,6.3,0.438,9.1,20.9,0.751,3.5,4.6,63.0,56.0,NBA,1988.0,109.0,2.5,4.7,SF,24.0,2002,2.0,TOR,2.3,6.1
25.0,3.4,0.6,109.0,4.8,0.418,5.5,13.2,0.337,2.1,6.2,0.392,7.6,19.4,0.789,3.5,4.5,82.0,80.0,NBA,2949.0,101.0,1.8,4.2,SF,20.9,2003,1.6,TOR,2.3,6.6
26.0,2.9,0.4,101.0,5.8,0.453,2.9,6.4,0.371,3.2,8.8,0.405,6.1,15.1,0.809,2.0,2.4,82.0,29.0,NBA,2148.0,105.0,0.9,5.3,SF,17.5,2004,2.3,TOR,1.8,6.7
27.0,3.5,0.4,109.0,5.6,0.442,4.7,10.6,0.385,2.7,6.9,0.42,7.3,17.5,0.832,3.9,4.7,82.0,61.0,NBA,2510.0,110.0,1.5,4.5,SG,21.2,2005,1.9,TOR,1.9,7.0
28.0,3.2,0.3,113.0,5.3,0.465,5.1,10.9,0.395,3.0,7.5,0.436,8.0,18.4,0.82,4.0,4.9,82.0,77.0,NBA,3140.0,112.0,1.1,3.7,SG,23.1,2006,1.7,TOR,2.1,6.4
29.0,1.6,0.4,106.0,7.0,0.523,4.0,7.6,0.359,3.6,10.1,0.429,7.6,17.7,0.683,2.9,4.2,71.0,12.0,NBA,1515.0,106.0,1.1,4.3,SF,21.7,2007,1.5,TOR,1.8,8.1
30.0,2.0,0.2,108.0,5.1,0.445,3.0,6.8,0.394,3.4,8.5,0.417,6.4,15.3,0.765,1.9,2.5,76.0,76.0,NBA,1796.0,112.0,1.1,3.7,SG,18.1,2008,1.4,NOH,1.2,6.1
31.0,1.7,0.2,107.0,7.5,0.408,4.2,10.4,0.388,3.5,9.0,0.399,7.7,19.4,0.632,1.3,2.0,43.0,9.0,NBA,515.0,100.0,1.4,5.4,SG,20.3,2009,1.6,NOH,1.6,8.9
32.0,2.2,0.3,112.0,5.8,0.415,2.9,6.9,0.363,3.3,9.1,0.385,6.2,16.0,0.611,1.8,2.9,46.0,39.0,NBA,973.0,102.0,0.9,4.3,SG,17.4,2010,1.3,NOH,1.4,6.7
33.0,2.3,0.0,112.0,6.8,0.5,4.5,9.0,0.0,0.0,2.3,0.4,4.5,11.3,0.0,0.0,0.0,4.0,0.0,NBA,23.0,95.0,0.0,11.3,SG,9.0,2011,0.0,OKC,0.0,6.8
