age,ast,blk,drb,fg,fg2,fg2a,fg3,fg3a,fga,ft,fta,game_score,lg_id,mp,orb,pf,pts,season,stl,team_id,tov,trb
23.0,7.0,0.0,3.0,7.0,4.0,7.0,3.0,5.0,11.0,2.0,2.0,17.2,NBA,0.0,2.0,3.0,17.0,2001,2.0,TOR,3.0,4.0
24.0,3.0,1.0,5.0,8.0,7.0,8.0,1.0,5.0,13.0,4.0,4.0,17.2,NBA,0.0,1.0,4.0,20.0,2002,4.0,TOR,2.0,5.0
29.0,2.0,1.0,7.0,5.0,4.0,5.0,3.0,4.0,8.0,4.0,4.0,10.9,NBA,46.0,1.0,6.0,17.0,2007,2.0,TOR,3.0,8.0
30.0,2.0,2.0,6.0,5.0,4.0,4.0,4.0,6.0,9.0,2.0,2.0,12.7,NBA,37.0,1.0,4.0,12.0,2008,2.0,NOH,3.0,6.0
31.0,1.0,0.0,2.0,1.0,0.0,2.0,1.0,2.0,4.0,2.0,2.0,5.2,NBA,13.0,1.0,2.0,5.0,2009,1.0,NOH,0.0,3.0
