age,ast_per_g,blk_per_g,drb_per_g,efg_pct,fg2_pct,fg2_per_g,fg2a_per_g,fg3_pct,fg3_per_g,fg3a_per_g,fg_pct,fg_per_g,fga_per_g,ft_pct,ft_per_g,fta_per_g,g,gs,lg_id,mp_per_g,orb_per_g,pf_per_g,pos,pts_per_g,season,stl_per_g,team_id,tov_per_g,trb_per_g
20.0,3.3,0.5,2.1,0.512,0.503,3.5,7.0,0.367,0.6,1.7,0.476,4.2,8.7,0.8,1.9,2.4,82.0,73.0,NBA,26.5,0.7,2.1,PG,10.8,2019,1.2,LAC,1.7,2.8
21.0,3.1,0.6,4.7,0.514,0.481,5.8,12.1,0.404,1.7,4.3,0.461,7.5,16.4,0.75,3.3,4.4,11.0,11.0,NBA,34.6,1.1,1.4,SG,20.1,2020,0.7,OKC,2.0,5.8
