age,ast_per_poss,blk_per_poss,def_rtg,drb_per_poss,fg2_pct,fg2_per_poss,fg2a_per_poss,fg3_pct,fg3_per_poss,fg3a_per_poss,fg_pct,fg_per_poss,fga_per_poss,ft_pct,ft_per_poss,fta_per_poss,g,gs,lg_id,mp,off_rtg,orb_per_poss,pf_per_poss,pos,pts_per_poss,season,stl_per_poss,team_id,tov_per_poss,trb_per_poss
22.0,2.0,0.6,110.0,10.0,0.565,11.1,19.7,0.167,0.3,1.7,0.533,11.4,21.4,0.536,4.3,8.0,11.0,4.0,NBA,176.0,106.0,4.0,5.1,PF,27.4,2018,0.9,DAL,2.6,14.0
23.0,3.3,0.9,109.0,10.0,0.557,11.8,21.2,0.0,0.0,0.9,0.534,11.8,22.1,0.6,7.3,12.1,22.0,0.0,NBA,156.0,106.0,5.4,8.2,PF,30.9,2019,1.5,LAC,4.8,15.4
24.0,23.4,0.0,107.0,11.7,0.0,0.0,23.4,1.0,11.7,11.7,0.333,11.7,35.1,0.0,0.0,0.0,2.0,0.0,NBA,4.0,87.0,11.7,11.7,PF,35.1,2020,0.0,LAC,23.4,23.4
