age,ast_per_mp,blk_per_mp,drb_per_mp,fg2_pct,fg2_per_mp,fg2a_per_mp,fg3_pct,fg3_per_mp,fg3a_per_mp,fg_pct,fg_per_mp,fga_per_mp,ft_pct,ft_per_mp,fta_per_mp,g,gs,lg_id,mp,orb_per_mp,pf_per_mp,pos,pts_per_mp,season,stl_per_mp,team_id,tov_per_mp,trb_per_mp
23.0,2.9,0.2,5.0,0.417,1.7,4.2,0.22,1.6,7.1,0.292,3.3,11.3,0.5,0.9,1.7,19.0,0.0,NBA,208.0,2.1,2.8,PF,9.0,2009,0.9,SAS,1.2,7.1
24.0,2.2,0.8,6.0,0.481,3.6,7.5,0.329,1.3,3.8,0.43,4.9,11.3,0.769,2.6,3.4,46.0,29.0,NBA,1427.0,2.1,3.2,PF,13.6,2010,0.8,TOT,1.2,8.1
24.0,0.0,0.0,9.0,0.0,0.0,0.0,0.0,0.0,9.0,0.0,0.0,9.0,0.0,0.0,0.0,2.0,0.0,NBA,4.0,0.0,9.0,PF,0.0,2010,0.0,POR,0.0,9.0
24.0,2.2,0.8,5.9,0.481,3.6,7.5,0.331,1.3,3.8,0.431,4.9,11.3,0.769,2.6,3.4,44.0,29.0,NBA,1423.0,2.1,3.2,PF,13.6,2010,0.8,GSW,1.2,8.1
25.0,2.2,0.7,5.4,0.475,2.5,5.2,0.409,1.2,3.0,0.45,3.7,8.3,0.802,2.8,3.5,65.0,4.0,NBA,1362.0,2.4,3.8,SF,11.5,2011,0.7,MIN,1.3,7.8
26.0,0.9,0.8,4.2,0.568,1.9,3.3,0.248,1.0,4.1,0.39,2.9,7.4,0.745,1.7,2.2,51.0,0.0,NBA,882.0,2.0,3.5,SF,8.5,2012,0.7,MIN,1.4,6.2
27.0,1.2,0.4,4.6,0.446,1.4,3.1,0.338,1.7,5.0,0.38,3.1,8.1,0.863,1.6,1.9,62.0,11.0,NBA,963.0,1.2,2.5,SF,9.5,2013,0.6,ATL,1.3,5.8
28.0,1.2,0.4,3.7,0.45,0.7,1.7,0.413,2.8,6.9,0.42,3.6,8.5,0.805,0.9,1.1,64.0,9.0,NBA,1298.0,0.9,2.3,PF,10.9,2014,0.5,CHA,0.6,4.7
29.0,1.5,0.4,4.7,0.534,1.4,2.6,0.366,2.7,7.3,0.41,4.0,9.9,0.783,1.4,1.7,76.0,11.0,NBA,1432.0,1.3,3.4,PF,12.1,2015,0.6,TOT,1.3,5.9
29.0,1.3,0.1,5.0,0.167,0.3,1.6,0.387,3.2,8.2,0.351,3.4,9.8,0.667,0.5,0.8,24.0,0.0,NBA,272.0,0.8,2.6,PF,10.6,2015,0.5,PHO,1.5,5.8
29.0,1.5,0.5,4.6,0.582,1.6,2.8,0.36,2.5,7.1,0.423,4.2,9.9,0.794,1.6,2.0,52.0,11.0,NBA,1160.0,1.4,3.6,PF,12.5,2015,0.6,DET,1.2,6.0
30.0,1.4,0.4,5.1,0.5,0.8,1.6,0.36,2.6,7.3,0.386,3.4,8.9,0.617,0.8,1.3,72.0,5.0,NBA,1341.0,1.0,2.3,PF,10.3,2016,0.7,DET,0.8,6.1
31.0,1.9,0.5,4.5,0.537,1.6,2.9,0.391,2.2,5.6,0.442,3.8,8.6,0.744,1.5,2.0,65.0,9.0,NBA,1477.0,1.2,2.7,PF,11.2,2017,0.8,SAC,1.4,5.8
32.0,1.8,0.4,3.9,0.561,1.2,2.2,0.436,3.3,7.5,0.464,4.5,9.7,0.797,2.2,2.7,79.0,14.0,NBA,1757.0,1.0,3.0,PF,14.4,2018,0.7,DET,1.2,4.9
33.0,1.5,0.7,5.4,0.409,0.6,1.5,0.377,2.7,7.2,0.382,3.3,8.6,0.783,1.6,2.0,65.0,0.0,NBA,1079.0,0.5,3.0,PF,10.9,2019,0.6,MIN,1.2,5.9
34.0,1.5,0.7,5.8,0.25,0.4,1.5,0.242,1.5,6.2,0.244,1.9,7.6,0.778,1.3,1.7,11.0,5.0,NBA,193.0,1.3,2.1,PF,6.5,2020,0.6,POR,1.5,7.1
