age,ast_per_mp,blk_per_mp,drb_per_mp,fg2_pct,fg2_per_mp,fg2a_per_mp,fg3_pct,fg3_per_mp,fg3a_per_mp,fg_pct,fg_per_mp,fga_per_mp,ft_pct,ft_per_mp,fta_per_mp,g,gs,lg_id,mp,orb_per_mp,pf_per_mp,pos,pts_per_mp,season,stl_per_mp,team_id,tov_per_mp,trb_per_mp
22.0,1.3,0.4,4.8,0.412,4.2,10.1,0.34,1.7,4.9,0.389,5.8,15.0,0.659,2.8,4.3,49.0,1.0,NBA,345.0,3.0,5.6,SF,16.2,2000,1.0,LAL,2.2,7.8
23.0,1.2,0.9,4.6,0.353,3.0,8.4,0.221,0.9,4.1,0.309,3.9,12.6,0.709,2.4,3.3,59.0,1.0,NBA,593.0,2.1,5.3,SF,11.0,2001,0.9,LAL,2.1,6.7
24.0,2.3,0.9,4.6,0.432,3.0,7.1,0.371,1.4,3.6,0.411,4.4,10.7,0.675,1.7,2.6,82.0,1.0,NBA,1759.0,1.6,3.9,SF,11.9,2002,1.5,LAL,1.4,6.2
25.0,2.1,0.8,4.4,0.398,2.9,7.3,0.371,1.1,2.9,0.39,4.0,10.3,0.79,1.9,2.3,71.0,7.0,NBA,1613.0,2.0,4.0,SF,11.0,2003,1.2,LAL,1.5,6.4
26.0,2.1,0.7,4.5,0.436,3.1,7.1,0.349,1.2,3.4,0.408,4.3,10.5,0.76,1.3,1.8,82.0,48.0,NBA,1951.0,1.6,3.5,SF,11.1,2004,1.5,LAL,1.6,6.1
27.0,1.6,0.2,4.7,0.348,1.9,5.4,0.362,2.5,6.8,0.356,4.4,12.2,0.75,1.8,2.4,15.0,3.0,NBA,306.0,1.5,3.8,SF,12.9,2005,0.9,LAL,1.4,6.2
28.0,1.6,0.8,4.5,0.453,2.8,6.2,0.313,1.2,3.7,0.4,4.0,9.9,0.674,1.4,2.0,71.0,5.0,NBA,1542.0,1.9,3.7,SF,10.5,2006,1.5,LAL,1.3,6.4
29.0,0.9,0.6,4.4,0.423,2.6,6.2,0.353,1.5,4.2,0.395,4.1,10.4,0.75,1.0,1.3,60.0,17.0,NBA,1283.0,1.6,4.0,SF,10.7,2007,1.3,DAL,1.4,6.0
30.0,1.5,0.6,4.8,0.374,2.3,6.1,0.324,1.0,3.0,0.357,3.2,9.1,0.706,1.1,1.5,53.0,4.0,NBA,821.0,1.2,3.9,SF,8.5,2008,0.8,DAL,1.1,6.0
31.0,0.8,0.6,2.7,0.485,1.6,3.4,0.289,1.1,3.9,0.38,2.7,7.2,0.773,0.9,1.1,43.0,17.0,NBA,708.0,1.3,2.9,SF,7.5,2009,1.2,DAL,0.9,4.0
32.0,1.5,0.5,4.4,0.494,1.9,3.9,0.39,2.3,5.8,0.432,4.2,9.7,0.696,0.8,1.1,45.0,4.0,NBA,761.0,1.0,4.2,SF,11.4,2010,1.9,GSW,0.7,5.4
