age,avg_dist,fg2_dunk,fg2_pct,fg2_pct_ast,fg2a_pct_fga,fg3_heave,fg3_pct,fg3_pct_ast,fg3_pct_corner,fg3a_heave,fg3a_pct_fga,fg_pct,fg_pct_00_03,fg_pct_03_10,fg_pct_10_16,fg_pct_16_xx,g,lg_id,mp,pct_fg2_dunk,pct_fg3a_corner,pct_fga_00_03,pct_fga_03_10,pct_fga_10_16,pct_fga_16_xx,pos,season,team_id
23.0,5.3,46.0,0.552,0.583,0.996,0.0,0.0,0.0,0.0,0.0,0.004,0.549,0.708,0.476,0.143,0.161,65.0,NBA,1063.0,0.206,1.0,0.569,0.249,0.055,0.123,PF,2011,WAS
24.0,7.6,42.0,0.531,0.583,0.994,0.0,0.5,1.0,0.0,0.0,0.006,0.531,0.727,0.388,0.2,0.4,50.0,NBA,1261.0,0.129,0.0,0.452,0.249,0.073,0.22,PF,2012,WAS
25.0,7.1,19.0,0.502,0.574,0.977,0.0,0.0,0.0,0.0,1.0,0.023,0.491,0.676,0.321,0.294,0.378,48.0,NBA,887.0,0.091,0.0,0.477,0.255,0.077,0.168,PF,2013,WAS
26.0,7.4,23.0,0.554,0.635,0.995,0.0,0.0,0.0,0.0,0.0,0.005,0.551,0.726,0.442,0.457,0.392,72.0,NBA,1553.0,0.057,0.0,0.417,0.28,0.114,0.184,PF,2014,WAS
27.0,10.3,37.0,0.518,0.569,0.819,0.0,0.345,0.931,0.303,3.0,0.181,0.487,0.723,0.357,0.404,0.29,79.0,NBA,1564.0,0.088,0.393,0.373,0.211,0.101,0.134,PF,2015,UTA
28.0,5.8,61.0,0.513,0.596,0.894,0.0,0.293,1.0,0.344,1.0,0.106,0.49,0.635,0.306,0.133,0.222,79.0,NBA,1632.0,0.168,0.78,0.601,0.186,0.039,0.07,PF,2016,UTA
29.0,7.8,35.0,0.546,0.45,0.868,0.0,0.321,0.84,0.261,0.0,0.132,0.516,0.658,0.476,0.333,0.319,71.0,NBA,1754.0,0.066,0.295,0.45,0.281,0.056,0.08,PF,2017,BRK
30.0,6.6,7.0,0.545,0.598,0.904,0.0,0.242,1.0,0.222,0.0,0.096,0.516,0.674,0.469,0.346,0.308,68.0,NBA,1158.0,0.023,0.273,0.411,0.379,0.076,0.038,PF,2018,TOT
30.0,5.9,2.0,0.536,0.514,0.92,0.0,0.25,1.0,0.4,0.0,0.08,0.513,0.655,0.463,0.444,0.25,18.0,NBA,395.0,0.02,0.417,0.387,0.447,0.06,0.027,PF,2018,BRK
30.0,5.8,3.0,0.578,0.78,0.936,0.0,0.286,1.0,0.0,0.0,0.064,0.56,0.769,0.459,0.2,0.0,33.0,NBA,494.0,0.028,0.286,0.477,0.339,0.092,0.028,PF,2018,PHI
30.0,8.7,2.0,0.514,0.472,0.833,0.0,0.214,1.0,0.0,0.0,0.167,0.464,0.548,0.5,0.429,0.5,17.0,NBA,269.0,0.024,0.143,0.369,0.31,0.083,0.071,PF,2018,IND
