age,ast,blk,drb,fg,fg2,fg2a,fg3,fg3a,fga,ft,fta,game_score,lg_id,mp,orb,pf,pts,season,stl,team_id,tov,trb
23.0,7.0,0.0,2.0,2.0,1.0,2.0,1.0,1.0,3.0,2.0,4.0,7.8,NBA,20,0.0,1.0,5.0,2015,2.0,SAC,2.0,2.0
26.0,0.0,0.0,0.0,1.0,0.0,0.0,1.0,2.0,2.0,2.0,2.0,3.6,NBA,4,0.0,1.0,5.0,2018,0.0,UTA,1.0,0.0
