age,ast_per_mp,blk_per_mp,drb_per_mp,fg2_pct,fg2_per_mp,fg2a_per_mp,fg3_pct,fg3_per_mp,fg3a_per_mp,fg_pct,fg_per_mp,fga_per_mp,ft_pct,ft_per_mp,fta_per_mp,g,gs,lg_id,mp,orb_per_mp,pf_per_mp,pos,pts_per_mp,season,stl_per_mp,team_id,tov_per_mp,trb_per_mp
23.0,9.8,0.0,2.2,0.25,1.1,4.4,0.5,1.1,2.2,0.333,2.2,6.5,0.5,3.3,6.5,3.0,0.0,NBA,33.0,0.0,1.1,PG,8.7,2015,2.2,SAC,4.4,2.2
26.0,0.0,0.0,0.0,0.0,0.0,0.0,0.667,8.0,12.0,0.667,8.0,12.0,1.0,16.0,16.0,3.0,0.0,NBA,9.0,0.0,12.0,PG,40.0,2018,0.0,UTA,4.0,0.0
