age,ast_per_mp,blk_per_mp,drb_per_mp,fg2_pct,fg2_per_mp,fg2a_per_mp,fg3_pct,fg3_per_mp,fg3a_per_mp,fg_pct,fg_per_mp,fga_per_mp,ft_pct,ft_per_mp,fta_per_mp,g,gs,lg_id,mp,orb_per_mp,pf_per_mp,pos,pts_per_mp,season,stl_per_mp,team_id,tov_per_mp,trb_per_mp
21.0,0.5,1.0,5.2,0.333,1.6,4.7,0.0,0.0,0.0,0.333,1.6,4.7,0.375,1.6,4.2,6.0,0.0,NBA,69.0,3.7,5.7,PF,4.7,2007,0.5,TOR,1.6,8.9
22.0,0.0,0.0,0.0,0.0,0.0,0.0,0.0,0.0,0.0,0.0,0.0,0.0,0.0,0.0,0.0,3.0,0.0,NBA,2.0,0.0,0.0,PF,0.0,2008,0.0,TOR,0.0,0.0
27.0,0.4,1.3,5.6,0.452,6.1,13.4,0.0,0.0,0.0,0.452,6.1,13.4,0.429,1.3,3.0,7.0,0.0,NBA,83.0,4.3,6.5,PF,13.4,2013,0.4,BRK,0.9,10.0
29.0,0.0,0.0,21.6,1.0,7.2,7.2,0.0,0.0,0.0,1.0,7.2,7.2,0.0,0.0,0.0,1.0,0.0,NBA,5.0,0.0,7.2,PF,14.4,2015,0.0,WAS,0.0,21.6
30.0,2.6,3.2,10.3,0.444,5.1,11.6,0.5,3.2,6.4,0.464,8.4,18.0,1.0,3.9,3.9,4.0,0.0,NBA,56.0,5.1,5.8,PF,23.8,2016,1.3,ATL,1.3,15.4
31.0,0.0,12.0,0.0,0.0,0.0,0.0,0.0,0.0,0.0,0.0,0.0,0.0,0.0,0.0,0.0,1.0,0.0,NBA,3.0,0.0,0.0,PF,0.0,2017,0.0,ATL,0.0,0.0
