age,ast,blk,drb,fg,fg2,fg2a,fg3,fg3a,fga,ft,fta,game_score,lg_id,mp,orb,pf,pts,season,stl,team_id,tov,trb
21.0,1.0,1.0,4.0,2.0,2.0,4.0,0.0,0.0,4.0,2.0,6.0,5.3,NBA,25,3.0,4.0,5.0,2007,1.0,TOR,1.0,6.0
22.0,0.0,0.0,0.0,0.0,0.0,0.0,0.0,0.0,0.0,0.0,0.0,0.0,NBA,1,0.0,0.0,0.0,2008,0.0,TOR,0.0,0.0
27.0,1.0,1.0,3.0,4.0,4.0,8.0,0.0,0.0,8.0,2.0,4.0,6.2,NBA,18,3.0,3.0,8.0,2013,1.0,BRK,1.0,6.0
29.0,0.0,0.0,3.0,1.0,1.0,1.0,0.0,0.0,1.0,0.0,0.0,2.2,NBA,6,0.0,1.0,2.0,2015,0.0,WAS,0.0,3.0
30.0,1.0,3.0,6.0,4.0,4.0,7.0,2.0,4.0,9.0,4.0,4.0,13.2,NBA,20,3.0,3.0,12.0,2016,1.0,TOT,1.0,9.0
30.0,1.0,3.0,6.0,4.0,4.0,7.0,2.0,4.0,9.0,4.0,4.0,13.2,NBA,20,3.0,3.0,12.0,2016,1.0,ATL,1.0,9.0
31.0,0.0,1.0,0.0,0.0,0.0,0.0,0.0,0.0,0.0,0.0,0.0,0.7,NBA,3,0.0,0.0,0.0,2017,0.0,ATL,0.0,0.0
