age,ast,blk,drb,fg,fg2,fg2a,fg3,fg3a,fga,ft,fta,game_score,lg_id,mp,orb,pf,pts,season,stl,team_id,tov,trb
23.0,1.0,0.0,0.0,4.0,4.0,7.0,0.0,0.0,7.0,2.0,2.0,0.0,NBA,0.0,0.0,2.0,8.0,1982,0.0,WSB,0.0,3.0
25.0,0.0,0.0,1.0,3.0,3.0,5.0,0.0,0.0,5.0,0.0,0.0,5.1,NBA,0.0,1.0,0.0,6.0,1984,0.0,WSB,1.0,2.0
26.0,2.0,0.0,2.0,3.0,3.0,7.0,0.0,2.0,9.0,3.0,4.0,7.7,NBA,0.0,4.0,1.0,9.0,1985,0.0,TOT,2.0,4.0
26.0,2.0,0.0,2.0,3.0,3.0,7.0,0.0,2.0,9.0,3.0,4.0,7.7,NBA,0.0,4.0,1.0,9.0,1985,0.0,MIL,2.0,4.0
27.0,3.0,0.0,4.0,4.0,4.0,11.0,0.0,1.0,12.0,5.0,6.0,11.8,NBA,0.0,4.0,6.0,13.0,1986,2.0,MIL,2.0,7.0
30.0,2.0,1.0,5.0,4.0,4.0,10.0,1.0,2.0,11.0,2.0,3.0,10.4,NBA,0.0,4.0,5.0,10.0,1989,4.0,CHI,3.0,9.0
31.0,1.0,0.0,0.0,1.0,1.0,2.0,0.0,1.0,2.0,0.0,0.0,2.4,NBA,0.0,1.0,2.0,2.0,1990,0.0,CHI,1.0,1.0
