age,ast_per_mp,blk_per_mp,drb_per_mp,fg2_pct,fg2_per_mp,fg2a_per_mp,fg3_pct,fg3_per_mp,fg3a_per_mp,fg_pct,fg_per_mp,fga_per_mp,ft_pct,ft_per_mp,fta_per_mp,g,gs,lg_id,mp,orb_per_mp,pf_per_mp,pos,pts_per_mp,season,stl_per_mp,team_id,tov_per_mp,trb_per_mp
23.0,1.9,0.8,4.9,0.484,5.5,11.4,0.0,0.0,0.1,0.478,5.5,11.5,0.811,1.9,2.3,54.0,10.0,NBA,575.0,3.4,5.6,SF,12.9,1982,0.6,WSB,2.7,8.3
24.0,2.3,0.7,4.0,0.475,7.7,16.2,0.2,0.1,0.3,0.47,7.8,16.6,0.629,1.7,2.8,74.0,10.0,NBA,1161.0,2.6,3.8,SF,17.4,1983,1.0,WSB,2.8,6.6
25.0,2.3,0.8,5.3,0.488,7.9,16.1,0.111,0.1,0.7,0.472,7.9,16.8,0.615,1.9,3.0,46.0,0.0,NBA,467.0,2.6,4.5,SF,17.8,1984,1.1,WSB,2.8,7.9
26.0,2.4,0.2,4.4,0.439,7.1,16.1,0.1,0.0,0.5,0.43,7.1,16.6,0.823,2.4,2.9,61.0,2.0,NBA,774.0,2.7,5.3,SF,16.7,1985,1.0,TOT,2.5,7.1
26.0,1.3,0.0,2.6,0.2,2.6,12.9,0.0,0.0,0.0,0.2,2.6,12.9,0.75,3.9,5.1,4.0,0.0,NBA,28.0,2.6,3.9,SF,9.0,1985,1.3,WSB,2.6,5.1
26.0,2.4,0.2,4.4,0.446,7.2,16.2,0.1,0.0,0.5,0.436,7.3,16.7,0.828,2.3,2.8,57.0,2.0,NBA,746.0,2.8,5.3,SF,16.9,1985,1.0,MIL,2.5,7.2
27.0,2.3,0.3,4.5,0.496,7.6,15.4,0.125,0.1,1.0,0.474,7.8,16.4,0.813,2.5,3.1,57.0,7.0,NBA,873.0,2.5,4.7,SF,18.1,1986,1.1,MIL,2.1,7.0
29.0,3.2,0.6,4.0,0.48,7.5,15.6,0.059,0.2,2.7,0.417,7.6,18.3,0.7,1.1,1.6,21.0,0.0,NBA,226.0,2.5,4.6,SF,16.6,1988,0.3,TOT,2.9,6.5
29.0,2.8,0.9,1.8,0.375,5.5,14.8,0.0,0.0,1.8,0.333,5.5,16.6,0.0,0.0,0.0,5.0,0.0,NBA,39.0,0.9,3.7,SF,11.1,1988,1.8,MIL,4.6,2.8
29.0,3.3,0.6,4.4,0.5,7.9,15.8,0.067,0.2,2.9,0.433,8.1,18.7,0.7,1.3,1.9,16.0,0.0,NBA,187.0,2.9,4.8,SF,17.7,1988,0.0,SAS,2.5,7.3
30.0,2.0,0.3,4.4,0.44,5.1,11.6,0.267,0.3,1.0,0.426,5.4,12.6,0.731,1.3,1.7,49.0,3.0,NBA,545.0,3.1,3.8,SF,12.2,1989,0.7,CHI,1.5,7.5
31.0,1.5,0.7,4.7,0.383,4.3,11.2,0.28,0.6,2.1,0.367,4.9,13.3,0.875,0.6,0.7,53.0,0.0,NBA,429.0,2.1,4.4,SF,10.9,1990,0.8,CHI,1.7,6.8
