age,ast_per_g,blk_per_g,drb_per_g,efg_pct,fg2_pct,fg2_per_g,fg2a_per_g,fg3_pct,fg3_per_g,fg3a_per_g,fg_pct,fg_per_g,fga_per_g,ft_pct,ft_per_g,fta_per_g,g,gs,lg_id,mp_per_g,orb_per_g,pf_per_g,pos,pts_per_g,season,stl_per_g,team_id,tov_per_g,trb_per_g
27.0,0.6,0.4,3.0,0.6,0.615,3.0,4.9,0.0,0.0,0.1,0.6,3.0,5.0,0.409,1.1,2.8,8.0,0.0,NBA,21.9,2.8,1.8,PF,7.1,1989,0.9,SEA,1.0,5.8
29.0,0.4,0.4,2.4,0.429,0.429,1.2,2.8,0.0,0.0,0.0,0.429,1.2,2.8,0.765,2.6,3.4,5.0,0.0,NBA,16.0,1.8,2.4,C,5.0,1991,0.6,SEA,0.6,4.2
30.0,0.4,0.9,3.7,0.559,0.559,2.1,3.8,0.0,0.0,0.0,0.559,2.1,3.8,1.0,0.1,0.1,9.0,4.0,NBA,21.9,2.0,2.4,PF,4.3,1992,0.7,SEA,0.9,5.7
31.0,0.5,0.4,3.4,0.525,0.525,2.2,4.2,0.0,0.0,0.0,0.525,2.2,4.2,0.389,0.4,0.9,19.0,2.0,NBA,19.9,2.5,2.3,C,4.8,1993,0.7,SEA,0.8,5.8
32.0,0.8,1.0,3.4,0.375,0.375,1.2,3.2,0.0,0.0,0.0,0.375,1.2,3.2,0.333,0.4,1.2,5.0,5.0,NBA,18.6,2.0,3.0,C,2.8,1994,0.8,SEA,0.6,5.4
33.0,0.8,1.0,2.5,0.444,0.471,2.0,4.3,0.0,0.0,0.3,0.444,2.0,4.5,0.0,0.0,0.5,4.0,0.0,NBA,20.3,2.0,2.3,C,4.0,1995,0.5,CLE,0.3,4.5
34.0,0.7,1.7,5.0,0.571,0.571,2.7,4.7,0.0,0.0,0.0,0.571,2.7,4.7,0.6,1.0,1.7,3.0,3.0,NBA,33.7,4.3,1.7,C,6.3,1996,0.7,CLE,0.0,9.3
