age,ast,blk,drb,fg,fg2,fg2a,fg3,fg3a,fga,ft,fta,game_score,lg_id,mp,orb,pf,pts,season,stl,team_id,tov,trb
22.0,2.0,3.0,3.0,2.0,2.0,8.0,1.0,2.0,9.0,2.0,3.0,4.2,NBA,0.0,2.0,5.0,6.0,2000,1.0,UTA,1.0,4.0
24.0,1.0,1.0,2.0,3.0,2.0,7.0,1.0,4.0,11.0,0.0,2.0,1.8,NBA,0.0,1.0,4.0,7.0,2002,2.0,UTA,1.0,3.0
