age,ast,blk,drb,efg_pct,fg,fg2,fg2_pct,fg2a,fg3,fg3_pct,fg3a,fg_pct,fga,ft,ft_pct,fta,g,gs,lg_id,mp,orb,pf,pos,pts,season,stl,team_id,tov,trb
25.0,24.0,8.0,78.0,0.491,55.0,54.0,0.482,112.0,1.0,1.0,1.0,0.487,113.0,26.0,0.703,37.0,70.0,3.0,NBA,641.0,74.0,111.0,PF,137.0,2001,8.0,LAL,27.0,152.0
26.0,44.0,13.0,73.0,0.452,66.0,66.0,0.458,144.0,0.0,0.0,2.0,0.452,146.0,35.0,0.648,54.0,59.0,5.0,NBA,650.0,89.0,104.0,PF,167.0,2002,16.0,LAL,22.0,162.0
27.0,38.0,19.0,73.0,0.423,69.0,69.0,0.423,163.0,0.0,0.0,0.0,0.423,163.0,36.0,0.59,61.0,54.0,22.0,NBA,781.0,86.0,116.0,PF,174.0,2003,15.0,LAL,27.0,159.0
28.0,28.0,18.0,138.0,0.495,101.0,101.0,0.51,198.0,0.0,0.0,6.0,0.495,204.0,57.0,0.483,118.0,72.0,12.0,NBA,1246.0,134.0,175.0,C,259.0,2004,33.0,MIN,47.0,272.0
29.0,18.0,14.0,65.0,0.515,34.0,34.0,0.515,66.0,0.0,0.0,0.0,0.515,66.0,20.0,0.5,40.0,41.0,14.0,NBA,601.0,63.0,103.0,C,88.0,2005,7.0,MIN,24.0,128.0
30.0,11.0,17.0,91.0,0.409,27.0,27.0,0.458,59.0,0.0,0.0,7.0,0.409,66.0,20.0,0.426,47.0,62.0,7.0,NBA,676.0,50.0,114.0,C,74.0,2006,23.0,MIN,26.0,141.0
31.0,10.0,10.0,52.0,0.535,23.0,23.0,0.535,43.0,0.0,0.0,0.0,0.535,43.0,15.0,0.517,29.0,56.0,0.0,NBA,473.0,35.0,100.0,C,61.0,2007,10.0,MIN,21.0,87.0
32.0,4.0,2.0,20.0,0.158,3.0,3.0,0.158,19.0,0.0,0.0,0.0,0.158,19.0,3.0,0.25,12.0,20.0,6.0,NBA,151.0,18.0,25.0,PF,9.0,2008,3.0,MIN,9.0,38.0
33.0,4.0,1.0,8.0,0.214,3.0,3.0,0.214,14.0,0.0,0.0,0.0,0.214,14.0,0.0,0.0,4.0,19.0,1.0,NBA,116.0,10.0,18.0,C,6.0,2009,1.0,MIN,3.0,18.0
