lg_id,salary,season,team_name
NBA,670000.0,1985,Phoenix Suns
NBA,680000.0,1986,Phoenix Suns
NBA,750000.0,1988,Phoenix Suns
NBA,600000.0,1989,Denver Nuggets
NBA,900000.0,1991,Portland Trail Blazers
NBA,1000000.0,1992,Portland Trail Blazers
NBA,215000.0,1992,Denver Nuggets
