age,ast,blk,drb,efg_pct,fg,fg2,fg2_pct,fg2a,fg3,fg3_pct,fg3a,fg_pct,fga,ft,ft_pct,fta,g,gs,lg_id,mp,orb,pf,pos,pts,season,stl,team_id,tov,trb
21.0,105.0,88.0,268.0,0.433,345.0,276.0,0.436,633.0,69.0,0.284,243.0,0.394,876.0,147.0,0.662,222.0,72.0,31.0,NBA,2086.0,137.0,157.0,SF,906.0,1995,45.0,TOT,115.0,405.0
21.0,57.0,50.0,132.0,0.411,158.0,126.0,0.397,317.0,32.0,0.302,106.0,0.374,423.0,83.0,0.68,122.0,40.0,8.0,NBA,1036.0,64.0,63.0,SF,431.0,1995,25.0,MIN,58.0,196.0
21.0,48.0,38.0,136.0,0.454,187.0,150.0,0.475,316.0,37.0,0.27,137.0,0.413,453.0,64.0,0.64,100.0,32.0,23.0,NBA,1050.0,73.0,94.0,SF,475.0,1995,20.0,GSW,57.0,209.0
22.0,49.0,31.0,148.0,0.443,125.0,97.0,0.441,220.0,28.0,0.298,94.0,0.398,314.0,64.0,0.771,83.0,62.0,6.0,NBA,934.0,65.0,83.0,SF,342.0,1996,22.0,GSW,48.0,213.0
23.0,54.0,46.0,184.0,0.455,174.0,139.0,0.448,310.0,35.0,0.315,111.0,0.413,421.0,61.0,0.622,98.0,61.0,20.0,NBA,1022.0,92.0,96.0,SF,444.0,1997,25.0,GSW,55.0,276.0
24.0,159.0,73.0,418.0,0.443,451.0,388.0,0.436,889.0,63.0,0.313,201.0,0.414,1090.0,158.0,0.731,216.0,73.0,73.0,NBA,2611.0,210.0,226.0,SF,1123.0,1998,95.0,GSW,147.0,628.0
25.0,66.0,37.0,227.0,0.447,208.0,182.0,0.431,422.0,26.0,0.361,72.0,0.421,494.0,88.0,0.727,121.0,48.0,20.0,NBA,1250.0,115.0,123.0,SF,530.0,1999,47.0,GSW,80.0,342.0
26.0,167.0,68.0,448.0,0.423,331.0,282.0,0.402,702.0,49.0,0.355,138.0,0.394,840.0,199.0,0.78,255.0,64.0,51.0,NBA,2071.0,189.0,180.0,PF,910.0,2000,68.0,GSW,123.0,637.0
27.0,133.0,78.0,394.0,0.527,427.0,386.0,0.535,721.0,41.0,0.32,128.0,0.503,849.0,205.0,0.751,273.0,81.0,49.0,NBA,2326.0,172.0,196.0,SF,1100.0,2001,85.0,UTA,128.0,566.0
28.0,101.0,67.0,285.0,0.529,343.0,330.0,0.533,619.0,13.0,0.31,42.0,0.519,661.0,160.0,0.708,226.0,58.0,42.0,NBA,1750.0,158.0,150.0,SF,859.0,2002,50.0,UTA,124.0,443.0
29.0,137.0,85.0,465.0,0.477,421.0,388.0,0.467,831.0,33.0,0.379,87.0,0.459,918.0,167.0,0.756,221.0,78.0,53.0,NBA,2378.0,234.0,234.0,PF,1042.0,2003,95.0,CHI,135.0,699.0
30.0,122.0,124.0,598.0,0.525,470.0,339.0,0.488,695.0,131.0,0.403,325.0,0.461,1020.0,134.0,0.736,182.0,82.0,74.0,NBA,2988.0,210.0,247.0,PF,1205.0,2004,93.0,TOT,117.0,808.0
30.0,28.0,20.0,71.0,0.46,57.0,46.0,0.422,109.0,11.0,0.407,27.0,0.419,136.0,14.0,0.7,20.0,16.0,8.0,NBA,408.0,28.0,47.0,PF,139.0,2004,13.0,CHI,22.0,99.0
30.0,94.0,104.0,527.0,0.535,413.0,293.0,0.5,586.0,120.0,0.403,298.0,0.467,884.0,120.0,0.741,162.0,66.0,66.0,NBA,2580.0,182.0,200.0,PF,1066.0,2004,80.0,TOR,95.0,709.0
31.0,81.0,46.0,333.0,0.57,262.0,111.0,0.485,229.0,151.0,0.416,363.0,0.443,592.0,72.0,0.791,91.0,65.0,2.0,NBA,1645.0,95.0,136.0,PF,747.0,2005,57.0,TOR,42.0,428.0
32.0,60.0,41.0,387.0,0.49,265.0,137.0,0.496,276.0,128.0,0.324,395.0,0.395,671.0,92.0,0.748,123.0,81.0,0.0,NBA,2077.0,105.0,160.0,PF,750.0,2006,59.0,CLE,90.0,492.0
33.0,46.0,43.0,237.0,0.52,209.0,114.0,0.514,222.0,95.0,0.351,271.0,0.424,493.0,53.0,0.663,80.0,81.0,0.0,NBA,1360.0,86.0,130.0,PF,566.0,2007,39.0,CLE,67.0,323.0
34.0,10.0,16.0,52.0,0.403,32.0,17.0,0.378,45.0,15.0,0.283,53.0,0.327,98.0,19.0,0.864,22.0,26.0,1.0,NBA,340.0,24.0,31.0,PF,98.0,2008,6.0,TOT,15.0,76.0
34.0,5.0,9.0,21.0,0.386,13.0,5.0,0.238,21.0,8.0,0.348,23.0,0.295,44.0,7.0,0.778,9.0,11.0,1.0,NBA,156.0,9.0,16.0,PF,41.0,2008,2.0,CLE,6.0,30.0
34.0,5.0,7.0,31.0,0.417,19.0,12.0,0.5,24.0,7.0,0.233,30.0,0.352,54.0,12.0,0.923,13.0,15.0,0.0,NBA,184.0,15.0,15.0,PF,57.0,2008,4.0,SEA,9.0,46.0
35.0,15.0,5.0,34.0,0.623,33.0,8.0,0.444,18.0,25.0,0.455,55.0,0.452,73.0,3.0,0.5,6.0,25.0,0.0,NBA,189.0,6.0,24.0,PF,94.0,2009,4.0,PHI,6.0,40.0
