age,ast_per_mp,blk_per_mp,drb_per_mp,fg2_pct,fg2_per_mp,fg2a_per_mp,fg3_pct,fg3_per_mp,fg3a_per_mp,fg_pct,fg_per_mp,fga_per_mp,ft_pct,ft_per_mp,fta_per_mp,g,gs,lg_id,mp,orb_per_mp,pf_per_mp,pos,pts_per_mp,season,stl_per_mp,team_id,tov_per_mp,trb_per_mp
21.0,1.8,1.5,4.6,0.436,4.8,10.9,0.284,1.2,4.2,0.394,6.0,15.1,0.662,2.5,3.8,72.0,31.0,NBA,2086.0,2.4,2.7,SF,15.6,1995,0.8,TOT,2.0,7.0
21.0,2.0,1.7,4.6,0.397,4.4,11.0,0.302,1.1,3.7,0.374,5.5,14.7,0.68,2.9,4.2,40.0,8.0,NBA,1036.0,2.2,2.2,SF,15.0,1995,0.9,MIN,2.0,6.8
21.0,1.6,1.3,4.7,0.475,5.1,10.8,0.27,1.3,4.7,0.413,6.4,15.5,0.64,2.2,3.4,32.0,23.0,NBA,1050.0,2.5,3.2,SF,16.3,1995,0.7,GSW,2.0,7.2
22.0,1.9,1.2,5.7,0.441,3.7,8.5,0.298,1.1,3.6,0.398,4.8,12.1,0.771,2.5,3.2,62.0,6.0,NBA,934.0,2.5,3.2,SF,13.2,1996,0.8,GSW,1.9,8.2
23.0,1.9,1.6,6.5,0.448,4.9,10.9,0.315,1.2,3.9,0.413,6.1,14.8,0.622,2.1,3.5,61.0,20.0,NBA,1022.0,3.2,3.4,SF,15.6,1997,0.9,GSW,1.9,9.7
24.0,2.2,1.0,5.8,0.436,5.3,12.3,0.313,0.9,2.8,0.414,6.2,15.0,0.731,2.2,3.0,73.0,73.0,NBA,2611.0,2.9,3.1,SF,15.5,1998,1.3,GSW,2.0,8.7
25.0,1.9,1.1,6.5,0.431,5.2,12.2,0.361,0.7,2.1,0.421,6.0,14.2,0.727,2.5,3.5,48.0,20.0,NBA,1250.0,3.3,3.5,SF,15.3,1999,1.4,GSW,2.3,9.8
26.0,2.9,1.2,7.8,0.402,4.9,12.2,0.355,0.9,2.4,0.394,5.8,14.6,0.78,3.5,4.4,64.0,51.0,NBA,2071.0,3.3,3.1,PF,15.8,2000,1.2,GSW,2.1,11.1
27.0,2.1,1.2,6.1,0.535,6.0,11.2,0.32,0.6,2.0,0.503,6.6,13.1,0.751,3.2,4.2,81.0,49.0,NBA,2326.0,2.7,3.0,SF,17.0,2001,1.3,UTA,2.0,8.8
28.0,2.1,1.4,5.9,0.533,6.8,12.7,0.31,0.3,0.9,0.519,7.1,13.6,0.708,3.3,4.6,58.0,42.0,NBA,1750.0,3.3,3.1,SF,17.7,2002,1.0,UTA,2.6,9.1
29.0,2.1,1.3,7.0,0.467,5.9,12.6,0.379,0.5,1.3,0.459,6.4,13.9,0.756,2.5,3.3,78.0,53.0,NBA,2378.0,3.5,3.5,PF,15.8,2003,1.4,CHI,2.0,10.6
30.0,1.5,1.5,7.2,0.488,4.1,8.4,0.403,1.6,3.9,0.461,5.7,12.3,0.736,1.6,2.2,82.0,74.0,NBA,2988.0,2.5,3.0,PF,14.5,2004,1.1,TOT,1.4,9.7
30.0,2.5,1.8,6.3,0.422,4.1,9.6,0.407,1.0,2.4,0.419,5.0,12.0,0.7,1.2,1.8,16.0,8.0,NBA,408.0,2.5,4.1,PF,12.3,2004,1.1,CHI,1.9,8.7
30.0,1.3,1.5,7.4,0.5,4.1,8.2,0.403,1.7,4.2,0.467,5.8,12.3,0.741,1.7,2.3,66.0,66.0,NBA,2580.0,2.5,2.8,PF,14.9,2004,1.1,TOR,1.3,9.9
31.0,1.8,1.0,7.3,0.485,2.4,5.0,0.416,3.3,7.9,0.443,5.7,13.0,0.791,1.6,2.0,65.0,2.0,NBA,1645.0,2.1,3.0,PF,16.3,2005,1.2,TOR,0.9,9.4
32.0,1.0,0.7,6.7,0.496,2.4,4.8,0.324,2.2,6.8,0.395,4.6,11.6,0.748,1.6,2.1,81.0,0.0,NBA,2077.0,1.8,2.8,PF,13.0,2006,1.0,CLE,1.6,8.5
33.0,1.2,1.1,6.3,0.514,3.0,5.9,0.351,2.5,7.2,0.424,5.5,13.1,0.663,1.4,2.1,81.0,0.0,NBA,1360.0,2.3,3.4,PF,15.0,2007,1.0,CLE,1.8,8.6
34.0,1.1,1.7,5.5,0.378,1.8,4.8,0.283,1.6,5.6,0.327,3.4,10.4,0.864,2.0,2.3,26.0,1.0,NBA,340.0,2.5,3.3,PF,10.4,2008,0.6,TOT,1.6,8.0
34.0,1.2,2.1,4.8,0.238,1.2,4.8,0.348,1.8,5.3,0.295,3.0,10.2,0.778,1.6,2.1,11.0,1.0,NBA,156.0,2.1,3.7,PF,9.5,2008,0.5,CLE,1.4,6.9
34.0,1.0,1.4,6.1,0.5,2.3,4.7,0.233,1.4,5.9,0.352,3.7,10.6,0.923,2.3,2.5,15.0,0.0,NBA,184.0,2.9,2.9,PF,11.2,2008,0.8,SEA,1.8,9.0
35.0,2.9,1.0,6.5,0.444,1.5,3.4,0.455,4.8,10.5,0.452,6.3,13.9,0.5,0.6,1.1,25.0,0.0,NBA,189.0,1.1,4.6,PF,17.9,2009,0.8,PHI,1.1,7.6
