age,ast_per_poss,blk_per_poss,def_rtg,drb_per_poss,fg2_pct,fg2_per_poss,fg2a_per_poss,fg3_pct,fg3_per_poss,fg3a_per_poss,fg_pct,fg_per_poss,fga_per_poss,ft_pct,ft_per_poss,fta_per_poss,g,gs,lg_id,mp,off_rtg,orb_per_poss,pf_per_poss,pos,pts_per_poss,season,stl_per_poss,team_id,tov_per_poss,trb_per_poss
23.0,1.8,2.5,110.0,8.2,0.546,8.6,15.7,0.143,0.1,0.7,0.529,8.7,16.4,0.521,3.7,7.0,49.0,18.0,NBA,1017.0,101.0,5.2,6.0,C,21.1,1995,1.1,GSW,4.0,13.4
24.0,1.7,2.4,113.0,4.4,0.542,8.6,15.9,0.143,0.1,1.0,0.517,8.8,17.0,0.546,3.5,6.4,56.0,18.0,NBA,1043.0,104.0,4.0,4.3,PF,21.2,1996,1.2,TOR,3.0,8.4
25.0,1.4,2.6,107.0,7.0,0.553,7.1,12.8,0.379,0.9,2.5,0.525,8.0,15.3,0.6,3.9,6.4,56.0,3.0,NBA,1397.0,117.0,4.6,5.3,PF,20.9,1997,1.6,TOR,2.0,11.5
26.0,2.5,1.1,113.0,4.4,0.528,6.5,12.3,0.0,0.0,0.3,0.516,6.5,12.6,0.563,2.5,4.4,21.0,0.0,NBA,376.0,111.0,4.8,4.8,PF,15.5,1998,1.4,TOT,1.9,9.3
26.0,2.4,1.2,114.0,4.6,0.523,6.6,12.7,0.0,0.0,0.1,0.517,6.6,12.8,0.563,2.7,4.7,18.0,0.0,NBA,351.0,112.0,5.0,5.0,PF,15.9,1998,1.3,TOR,1.9,9.6
26.0,4.3,0.0,106.0,2.1,0.667,4.3,6.4,0.0,0.0,2.1,0.5,4.3,8.5,0.0,0.0,0.0,3.0,0.0,NBA,25.0,101.0,2.1,2.1,PF,8.5,1998,2.1,POR,2.1,4.3
27.0,6.7,0.0,102.0,6.7,1.0,13.4,13.4,0.0,0.0,0.0,1.0,13.4,13.4,0.25,6.7,26.9,2.0,0.0,NBA,8.0,128.0,0.0,13.4,PF,33.6,1999,0.0,POR,0.0,6.7
28.0,1.9,1.6,106.0,8.2,0.545,7.8,14.3,0.071,0.0,0.6,0.525,7.9,15.0,0.591,3.7,6.3,53.0,15.0,NBA,1101.0,107.0,4.5,3.6,C,19.5,2000,0.6,HOU,2.9,12.7
29.0,0.9,1.8,103.0,8.9,0.688,7.3,10.6,0.0,0.0,0.1,0.682,7.3,10.7,0.558,2.8,5.1,39.0,0.0,NBA,544.0,129.0,4.7,3.2,C,17.5,2001,1.0,HOU,1.7,13.6
30.0,0.9,1.9,103.0,7.5,0.622,7.1,11.5,0.167,0.3,1.9,0.558,7.5,13.4,0.526,3.1,5.9,22.0,1.0,NBA,168.0,115.0,4.4,5.3,C,18.3,2002,1.6,IND,1.6,11.8
