age,ast_per_mp,blk_per_mp,drb_per_mp,fg2_pct,fg2_per_mp,fg2a_per_mp,fg3_pct,fg3_per_mp,fg3a_per_mp,fg_pct,fg_per_mp,fga_per_mp,ft_pct,ft_per_mp,fta_per_mp,g,gs,lg_id,mp,orb_per_mp,pf_per_mp,pos,pts_per_mp,season,stl_per_mp,team_id,tov_per_mp,trb_per_mp
24.0,2.6,1.1,3.5,0.457,7.3,15.9,0.471,1.2,2.6,0.459,8.5,18.5,0.87,6.1,7.0,6.0,6.0,NBA,238.0,0.9,2.3,SG,24.2,2009,1.2,POR,2.0,4.4
25.0,2.2,0.0,2.2,0.381,3.5,9.1,0.167,0.9,5.2,0.303,4.3,14.3,0.778,3.0,3.9,3.0,1.0,NBA,83.0,0.9,3.0,SG,12.6,2010,0.0,POR,1.3,3.0
26.0,4.4,0.0,2.9,0.6,4.7,7.8,0.286,1.0,3.7,0.5,5.7,11.5,0.615,2.1,3.4,6.0,0.0,NBA,138.0,0.5,3.4,SG,14.6,2011,0.3,POR,1.0,3.4
