age,ast,blk,drb,efg_pct,fg,fg2,fg2_pct,fg2a,fg3,fg3_pct,fg3a,fg_pct,fga,ft,ft_pct,fta,g,gs,lg_id,mp,orb,pf,pos,pts,season,stl,team_id,tov,trb
22.0,230.0,10.0,192.0,0.492,349.0,294.0,0.475,619.0,55.0,0.377,146.0,0.456,765.0,202.0,0.838,241.0,57.0,55.0,NBA,2015.0,58.0,139.0,SG,955.0,2007,67.0,POR,116.0,250.0
23.0,430.0,16.0,267.0,0.485,531.0,458.0,0.48,955.0,73.0,0.34,215.0,0.454,1170.0,281.0,0.753,373.0,74.0,74.0,NBA,2792.0,81.0,147.0,SG,1416.0,2008,79.0,POR,136.0,348.0
24.0,400.0,22.0,266.0,0.512,633.0,550.0,0.501,1098.0,83.0,0.377,220.0,0.48,1318.0,416.0,0.824,505.0,78.0,78.0,NBA,2903.0,104.0,127.0,SG,1765.0,2009,88.0,POR,152.0,370.0
25.0,305.0,16.0,212.0,0.508,491.0,418.0,0.512,817.0,73.0,0.33,221.0,0.473,1038.0,343.0,0.78,440.0,65.0,65.0,NBA,2419.0,73.0,136.0,SG,1398.0,2010,61.0,POR,129.0,285.0
26.0,129.0,12.0,93.0,0.436,209.0,171.0,0.418,409.0,38.0,0.333,114.0,0.4,523.0,117.0,0.848,138.0,47.0,23.0,NBA,1310.0,28.0,76.0,SG,573.0,2011,37.0,POR,55.0,121.0
28.0,23.0,0.0,11.0,0.314,11.0,11.0,0.423,26.0,0.0,0.0,9.0,0.314,35.0,7.0,0.7,10.0,5.0,5.0,NBA,122.0,3.0,5.0,SG,29.0,2013,3.0,MIN,7.0,14.0
