age,ast_per_g,blk_per_g,drb_per_g,efg_pct,fg2_pct,fg2_per_g,fg2a_per_g,fg3_pct,fg3_per_g,fg3a_per_g,fg_pct,fg_per_g,fga_per_g,ft_pct,ft_per_g,fta_per_g,g,gs,lg_id,mp_per_g,orb_per_g,pf_per_g,pos,pts_per_g,season,stl_per_g,team_id,tov_per_g,trb_per_g
22.0,4.0,0.2,3.4,0.492,0.475,5.2,10.9,0.377,1.0,2.6,0.456,6.1,13.4,0.838,3.5,4.2,57.0,55.0,NBA,35.4,1.0,2.4,SG,16.8,2007,1.2,POR,2.0,4.4
23.0,5.8,0.2,3.6,0.485,0.48,6.2,12.9,0.34,1.0,2.9,0.454,7.2,15.8,0.753,3.8,5.0,74.0,74.0,NBA,37.7,1.1,2.0,SG,19.1,2008,1.1,POR,1.8,4.7
24.0,5.1,0.3,3.4,0.512,0.501,7.1,14.1,0.377,1.1,2.8,0.48,8.1,16.9,0.824,5.3,6.5,78.0,78.0,NBA,37.2,1.3,1.6,SG,22.6,2009,1.1,POR,1.9,4.7
25.0,4.7,0.2,3.3,0.508,0.512,6.4,12.6,0.33,1.1,3.4,0.473,7.6,16.0,0.78,5.3,6.8,65.0,65.0,NBA,37.2,1.1,2.1,SG,21.5,2010,0.9,POR,2.0,4.4
26.0,2.7,0.3,2.0,0.436,0.418,3.6,8.7,0.333,0.8,2.4,0.4,4.4,11.1,0.848,2.5,2.9,47.0,23.0,NBA,27.9,0.6,1.6,SG,12.2,2011,0.8,POR,1.2,2.6
28.0,4.6,0.0,2.2,0.314,0.423,2.2,5.2,0.0,0.0,1.8,0.314,2.2,7.0,0.7,1.4,2.0,5.0,5.0,NBA,24.4,0.6,1.0,SG,5.8,2013,0.6,MIN,1.4,2.8
