age,ast,blk,drb,fg,fg2,fg2a,fg3,fg3a,fga,ft,fta,game_score,lg_id,mp,orb,pf,pts,season,stl,team_id,tov,trb
19.0,3.0,1.0,3.0,8.0,7.0,10.0,1.0,2.0,12.0,6.0,7.0,13.3,NBA,34,2.0,4.0,17.0,2011,2.0,MEM,3.0,3.0
20.0,3.0,1.0,5.0,8.0,7.0,14.0,1.0,2.0,14.0,6.0,7.0,18.6,NBA,27,3.0,4.0,19.0,2012,2.0,NOH,5.0,6.0
21.0,3.0,1.0,5.0,5.0,5.0,7.0,1.0,2.0,7.0,8.0,10.0,10.8,NBA,29,3.0,5.0,15.0,2013,2.0,NOH,3.0,6.0
22.0,4.0,2.0,5.0,9.0,8.0,17.0,3.0,5.0,22.0,9.0,16.0,22.4,NBA,42,3.0,5.0,27.0,2014,3.0,LAL,5.0,8.0
23.0,2.0,0.0,1.0,1.0,1.0,4.0,0.0,0.0,4.0,6.0,8.0,7.1,NBA,19,1.0,3.0,8.0,2015,1.0,LAL,1.0,2.0
