article_url,date,headline
https://www.hoopsrumors.com/2019/10/2019-offseason-in-review-los-angeles-clippers.html,2019/10/20,HoopsRumors: 2019 Offseason In Review: Los Angeles Clippers
https://www.hoopsrumors.com/2019/10/2019-offseason-in-review-oklahoma-city-thunder.html,2019/10/20,HoopsRumors: 2019 Offseason In Review: Oklahoma City Thunder
https://clipperholics.com/2019/09/26/la-clippers-offseason-acquisitions/,2019/09/26,Fully Clips: Analyzing the list of offseason acquisitions for the LA Clippers
