age,ast_pct,blk_pct,bpm,bpm-dum,dbpm,drb_pct,dws,fg3a_per_fga_pct,fta_per_fga_pct,g,lg_id,mp,obpm,orb_pct,ows,per,pos,season,stl_pct,team_id,tov_pct,trb_pct,ts_pct,usg_pct,vorp,ws,ws-dum,ws_per_48
22.0,6.9,1.8,-2.0,0.0,-0.1,9.6,0.4,0.008,0.176,31.0,NBA,350.0,-1.9,8.6,0.1,10.6,PF,1986,1.9,PHI,12.9,9.1,0.491,16.9,0.0,0.5,0.0,0.068
26.0,0.0,0.0,-19.0,0.0,-4.9,9.9,0.0,0.0,0.222,11.0,NBA,34.0,-14.1,6.7,-0.2,-8.2,PF,1990,0.0,SAC,23.3,8.3,0.202,16.3,-0.1,-0.2,0.0,-0.238
