age,ast,blk,fg,fg3,fg3_pct,fg3a,fg_pct,fga,ft,ft_pct,fta,g,gs,lg_id,mp,orb,pf,pos,pts,season,stl,team_id,tov,trb
23.0,4.0,0.0,5.0,2.0,0.667,3.0,0.556,9.0,0.0,0.0,2.0,1.0,0.0,NBA,19,0.0,2.0,PG,12.0,2001,0.0,NJN,3.0,0.0
25.0,6.0,0.0,1.0,0.0,0.0,2.0,0.333,3.0,2.0,1.0,2.0,1.0,0.0,NBA,16,0.0,0.0,PG,4.0,2003,0.0,PHO,2.0,1.0
