age,ast_per_mp,blk_per_mp,drb_per_mp,fg2_pct,fg2_per_mp,fg2a_per_mp,fg3_pct,fg3_per_mp,fg3a_per_mp,fg_pct,fg_per_mp,fga_per_mp,ft_pct,ft_per_mp,fta_per_mp,g,gs,lg_id,mp,orb_per_mp,pf_per_mp,pos,pts_per_mp,season,stl_per_mp,team_id,tov_per_mp,trb_per_mp
24.0,1.9,0.0,1.9,0.452,5.4,12.0,0.0,0.0,0.0,0.452,5.4,12.0,0.667,3.1,4.6,3.0,3.0,NBA,93.0,1.2,2.7,SG,13.9,1993,1.5,ATL,1.5,3.1
25.0,3.1,0.2,1.8,0.517,5.1,9.9,0.0,0.0,0.0,0.517,5.1,9.9,0.711,3.0,4.2,11.0,11.0,NBA,324.0,1.4,2.9,SG,13.2,1994,0.8,ATL,1.7,3.2
26.0,3.5,0.0,2.8,0.429,4.2,9.7,0.0,0.0,0.0,0.429,4.2,9.7,0.75,6.2,8.3,3.0,1.0,NBA,52.0,2.1,5.5,SG,14.5,1995,2.1,ATL,1.4,4.8
27.0,3.1,0.7,3.1,0.493,4.0,8.1,0.0,0.0,0.1,0.486,4.0,8.3,0.825,3.8,4.6,10.0,10.0,NBA,314.0,1.0,3.0,SF,11.8,1996,1.3,ATL,1.9,4.1
28.0,3.1,0.0,0.0,0.333,2.1,6.2,0.0,0.0,0.0,0.333,2.1,6.2,0.75,3.1,4.1,4.0,0.0,NBA,35.0,1.0,6.2,SG,7.2,1997,1.0,POR,1.0,1.0
29.0,1.3,1.3,2.6,0.5,2.6,5.1,0.0,0.0,0.0,0.5,2.6,5.1,0.5,1.3,2.6,4.0,0.0,NBA,28.0,1.3,2.6,SG,6.4,1998,2.6,POR,2.6,3.9
30.0,1.0,0.6,4.7,0.37,2.0,5.5,0.0,0.0,0.2,0.357,2.0,5.7,0.833,3.1,3.7,13.0,0.0,NBA,176.0,2.0,3.1,SF,7.2,1999,1.6,POR,0.6,6.8
31.0,0.0,0.0,2.1,0.333,4.2,12.7,0.0,0.0,0.0,0.333,4.2,12.7,0.5,1.1,2.1,7.0,0.0,NBA,34.0,0.0,6.4,SG,9.5,2000,0.0,POR,0.0,2.1
32.0,5.1,0.0,3.9,0.4,5.1,12.9,0.0,0.0,0.0,0.4,5.1,12.9,1.0,2.6,2.6,2.0,0.0,NBA,28.0,1.3,3.9,SG,12.9,2001,1.3,POR,1.3,5.1
33.0,3.1,0.2,4.7,0.39,3.8,9.7,0.0,0.0,0.0,0.39,3.8,9.7,0.762,3.8,5.0,9.0,0.0,NBA,152.0,1.7,5.0,SG,11.4,2002,2.4,CHH,2.8,6.4
34.0,1.6,0.0,4.7,0.333,2.6,7.8,0.0,0.0,0.0,0.333,2.6,7.8,0.875,3.7,4.2,4.0,0.0,NBA,69.0,0.5,4.2,SG,8.9,2003,1.6,NOH,1.6,5.2
35.0,1.5,0.2,3.2,0.383,3.9,10.1,0.0,0.0,0.2,0.375,3.9,10.3,0.889,3.4,3.9,7.0,0.0,NBA,168.0,0.9,2.8,SF,11.1,2004,1.3,NOH,2.8,4.1
