age,ast,blk,drb,fg,fg2,fg2a,fg3,fg3a,fga,ft,fta,game_score,lg_id,mp,orb,pf,pts,season,stl,team_id,tov,trb
24.0,4.0,0.0,3.0,6.0,6.0,12.0,0.0,0.0,12.0,3.0,5.0,11.7,NBA,0.0,2.0,3.0,15.0,1993,3.0,ATL,2.0,3.0
25.0,5.0,1.0,6.0,6.0,6.0,11.0,0.0,0.0,11.0,7.0,8.0,21.1,NBA,0.0,3.0,4.0,19.0,1994,3.0,ATL,3.0,8.0
26.0,4.0,0.0,3.0,5.0,5.0,9.0,0.0,0.0,9.0,5.0,6.0,14.0,NBA,0.0,2.0,5.0,14.0,1995,2.0,ATL,2.0,5.0
27.0,6.0,2.0,5.0,7.0,7.0,13.0,0.0,1.0,14.0,9.0,11.0,21.4,NBA,0.0,3.0,4.0,23.0,1996,3.0,ATL,4.0,7.0
28.0,2.0,0.0,0.0,1.0,1.0,3.0,0.0,0.0,3.0,2.0,2.0,2.0,NBA,0.0,1.0,3.0,3.0,1997,1.0,TOT,1.0,1.0
28.0,2.0,0.0,0.0,1.0,1.0,3.0,0.0,0.0,3.0,2.0,2.0,2.0,NBA,0.0,1.0,3.0,3.0,1997,1.0,POR,1.0,1.0
29.0,1.0,1.0,1.0,1.0,1.0,3.0,0.0,0.0,3.0,1.0,2.0,2.0,NBA,0.0,1.0,2.0,2.0,1998,1.0,POR,1.0,2.0
30.0,2.0,1.0,5.0,3.0,3.0,5.0,0.0,1.0,5.0,4.0,6.0,11.9,NBA,0.0,3.0,3.0,9.0,1999,3.0,POR,1.0,6.0
31.0,0.0,0.0,1.0,4.0,4.0,8.0,0.0,0.0,8.0,1.0,2.0,3.6,NBA,0.0,0.0,2.0,8.0,2000,0.0,POR,0.0,1.0
32.0,2.0,0.0,3.0,4.0,4.0,6.0,0.0,0.0,6.0,1.0,1.0,7.4,NBA,0.0,1.0,2.0,9.0,2001,1.0,POR,1.0,4.0
33.0,5.0,1.0,5.0,5.0,5.0,9.0,0.0,0.0,9.0,3.0,4.0,9.6,NBA,0.0,1.0,6.0,13.0,2002,3.0,CHH,3.0,6.0
34.0,2.0,0.0,4.0,2.0,2.0,5.0,0.0,0.0,5.0,7.0,8.0,6.5,NBA,0.0,1.0,4.0,11.0,2003,2.0,NOH,1.0,4.0
35.0,4.0,1.0,5.0,6.0,6.0,10.0,0.0,1.0,10.0,6.0,6.0,12.8,NBA,0.0,1.0,4.0,17.0,2004,2.0,NOH,3.0,6.0
