age,ast,blk,drb,efg_pct,fg,fg2,fg2_pct,fg2a,fg3,fg3_pct,fg3a,fg_pct,fga,ft,ft_pct,fta,g,gs,lg_id,mp,orb,pf,pos,pts,season,stl,team_id,tov,trb
25.0,3.0,1.0,8.0,0.5,9.0,8.0,0.571,14.0,1.0,0.2,5.0,0.474,19.0,0.0,0.0,0.0,4.0,0.0,NBA,73.0,7.0,9.0,SF,19.0,2012,2.0,UTA,3.0,15.0
27.0,11.0,3.0,22.0,0.561,23.0,14.0,0.519,27.0,9.0,0.409,22.0,0.469,49.0,7.0,0.636,11.0,7.0,7.0,NBA,246.0,12.0,21.0,SF,62.0,2014,5.0,ATL,8.0,34.0
28.0,32.0,5.0,71.0,0.568,86.0,57.0,0.543,105.0,29.0,0.403,72.0,0.486,177.0,32.0,0.78,41.0,16.0,16.0,NBA,558.0,26.0,36.0,SF,233.0,2015,18.0,ATL,15.0,97.0
29.0,17.0,7.0,58.0,0.472,62.0,36.0,0.45,80.0,26.0,0.329,79.0,0.39,159.0,27.0,0.75,36.0,20.0,19.0,NBA,596.0,23.0,62.0,SF,177.0,2016,18.0,TOR,18.0,81.0
30.0,5.0,5.0,23.0,0.5,15.0,8.0,0.533,15.0,7.0,0.318,22.0,0.405,37.0,5.0,0.556,9.0,10.0,7.0,NBA,155.0,4.0,13.0,SF,42.0,2017,8.0,TOR,5.0,27.0
32.0,2.0,0.0,14.0,0.329,9.0,2.0,0.143,14.0,7.0,0.292,24.0,0.237,38.0,8.0,1.0,8.0,5.0,3.0,NBA,119.0,6.0,8.0,PF,33.0,2019,4.0,BRK,3.0,20.0
