age,ast_per_poss,blk_per_poss,def_rtg,drb_per_poss,fg2_pct,fg2_per_poss,fg2a_per_poss,fg3_pct,fg3_per_poss,fg3a_per_poss,fg_pct,fg_per_poss,fga_per_poss,ft_pct,ft_per_poss,fta_per_poss,g,gs,lg_id,mp,off_rtg,orb_per_poss,pf_per_poss,pos,pts_per_poss,season,stl_per_poss,team_id,tov_per_poss,trb_per_poss
21.0,7.3,0.3,107.0,2.3,0.48,9.1,19.0,0.0,0.0,0.0,0.48,9.1,19.0,0.761,4.5,5.9,82.0,0.0,NBA,2753.0,99.0,1.6,4.6,PG,22.7,1979,1.6,CHI,5.1,3.9
22.0,8.0,0.3,109.0,2.9,0.504,8.4,16.6,0.267,0.4,1.6,0.483,8.8,18.2,0.838,7.8,9.3,82.0,0.0,NBA,3029.0,108.0,2.2,4.1,SG,25.8,1980,1.8,CHI,5.4,5.1
23.0,7.2,0.3,108.0,2.8,0.521,8.9,17.0,0.2,0.3,1.5,0.495,9.2,18.6,0.809,7.5,9.3,82.0,0.0,NBA,2820.0,115.0,2.1,4.4,SG,26.2,1981,2.1,CHI,4.4,4.9
24.0,8.1,0.3,111.0,3.4,0.489,9.1,18.7,0.25,0.4,1.7,0.469,9.6,20.4,0.808,6.2,7.7,82.0,82.0,NBA,2838.0,107.0,2.0,4.2,SG,25.8,1982,1.5,CHI,4.7,5.3
25.0,7.7,0.3,109.0,3.3,0.493,11.5,23.4,0.231,0.3,1.4,0.478,11.9,24.8,0.801,6.9,8.6,82.0,81.0,NBA,2856.0,106.0,1.4,4.4,PG,30.9,1983,2.3,CHI,5.1,4.8
26.0,11.1,0.4,110.0,2.5,0.437,8.0,18.4,0.167,0.2,1.3,0.419,8.3,19.7,0.762,6.7,8.9,61.0,35.0,NBA,1498.0,102.0,1.6,5.4,PG,23.5,1984,1.6,TOT,4.9,4.1
26.0,11.4,0.2,110.0,2.0,0.401,7.1,17.8,0.2,0.2,1.2,0.388,7.4,19.0,0.778,6.7,8.6,31.0,5.0,NBA,601.0,100.0,1.7,6.2,PG,21.7,1984,1.7,CHI,4.7,3.7
26.0,10.9,0.5,110.0,2.8,0.46,8.6,18.8,0.148,0.2,1.4,0.438,8.8,20.2,0.751,6.8,9.0,30.0,30.0,NBA,897.0,103.0,1.5,4.8,PG,24.7,1984,1.5,KCK,5.0,4.3
27.0,11.9,0.3,114.0,3.0,0.501,9.0,17.9,0.132,0.1,0.7,0.487,9.1,18.6,0.863,6.0,7.0,82.0,80.0,NBA,2543.0,109.0,1.9,4.5,SG,24.2,1985,1.7,KCK,5.5,4.9
28.0,12.7,0.3,110.0,3.7,0.49,8.7,17.8,0.171,0.1,0.6,0.48,8.8,18.3,0.827,6.5,7.9,82.0,82.0,NBA,2919.0,109.0,1.2,3.7,SG,24.2,1986,1.8,SAC,5.3,4.9
29.0,11.4,0.3,115.0,3.0,0.489,9.2,18.9,0.218,0.3,1.3,0.472,9.5,20.2,0.867,7.1,8.2,79.0,76.0,NBA,2872.0,112.0,1.4,3.4,PG,26.4,1987,1.3,SAC,4.8,4.4
30.0,8.3,0.3,116.0,2.9,0.479,10.8,22.6,0.271,0.3,1.1,0.47,11.1,23.6,0.831,5.7,6.9,73.0,73.0,NBA,2653.0,108.0,1.3,3.1,SG,28.2,1988,1.1,SAC,4.2,4.2
31.0,7.5,0.3,110.0,3.0,0.476,9.3,19.6,0.293,0.3,1.1,0.466,9.6,20.7,0.851,5.5,6.5,82.0,82.0,NBA,2517.0,111.0,1.7,4.6,SG,25.1,1989,2.1,ATL,3.8,4.7
32.0,8.0,0.2,117.0,2.9,0.458,9.6,21.0,0.248,0.5,2.1,0.439,10.1,23.1,0.853,7.4,8.7,76.0,71.0,NBA,2350.0,107.0,1.5,3.8,SG,28.2,1990,1.2,ORL,4.4,4.3
33.0,6.2,0.6,112.0,2.6,0.481,8.7,18.1,0.361,0.9,2.4,0.468,9.5,20.4,0.851,4.8,5.6,81.0,81.0,NBA,2955.0,107.0,1.1,3.8,SG,24.7,1991,1.4,NJN,4.1,3.7
