age,ast,blk,drb,fg,fg2,fg2a,fg3,fg3a,fga,ft,fta,game_score,lg_id,mp,orb,pf,pts,season,stl,team_id,tov,trb
21.0,0.0,0.0,0.0,12.0,0.0,0.0,0.0,0.0,0.0,10.0,13.0,0.0,NBA,0.0,0.0,0.0,30.0,1979,0.0,CHI,0.0,0.0
22.0,0.0,0.0,0.0,14.0,0.0,0.0,3.0,0.0,0.0,16.0,18.0,0.0,NBA,0.0,0.0,0.0,33.0,1980,0.0,CHI,0.0,0.0
23.0,0.0,0.0,0.0,14.0,0.0,0.0,2.0,0.0,0.0,16.0,18.0,0.0,NBA,0.0,0.0,0.0,32.0,1981,0.0,CHI,0.0,0.0
24.0,0.0,0.0,0.0,13.0,0.0,0.0,3.0,0.0,0.0,12.0,15.0,0.0,NBA,0.0,0.0,0.0,36.0,1982,0.0,CHI,0.0,0.0
25.0,0.0,0.0,0.0,18.0,18.0,0.0,3.0,0.0,33.0,15.0,18.0,0.0,NBA,0.0,0.0,0.0,46.0,1983,0.0,CHI,0.0,0.0
26.0,13.0,2.0,5.0,13.0,12.0,22.0,1.0,3.0,23.0,14.0,17.0,30.2,NBA,0.0,5.0,6.0,36.0,1984,3.0,TOT,8.0,8.0
26.0,11.0,1.0,4.0,9.0,9.0,15.0,1.0,3.0,15.0,8.0,10.0,19.2,NBA,0.0,3.0,6.0,22.0,1984,3.0,CHI,6.0,5.0
26.0,13.0,2.0,5.0,13.0,12.0,22.0,1.0,3.0,23.0,14.0,17.0,30.2,NBA,0.0,5.0,6.0,36.0,1984,3.0,KCK,8.0,8.0
27.0,16.0,2.0,6.0,14.0,14.0,24.0,1.0,3.0,25.0,12.0,13.0,30.8,NBA,0.0,4.0,5.0,32.0,1985,5.0,KCK,9.0,8.0
28.0,18.0,2.0,11.0,13.0,13.0,23.0,1.0,4.0,23.0,15.0,18.0,35.4,NBA,0.0,4.0,6.0,37.0,1986,5.0,SAC,9.0,14.0
29.0,16.0,2.0,7.0,14.0,13.0,24.0,2.0,6.0,27.0,15.0,18.0,32.0,NBA,0.0,5.0,6.0,33.0,1987,4.0,SAC,9.0,8.0
30.0,16.0,2.0,6.0,15.0,15.0,26.0,3.0,4.0,28.0,15.0,16.0,31.9,NBA,0.0,5.0,5.0,36.0,1988,3.0,SAC,7.0,8.0
31.0,10.0,2.0,6.0,14.0,14.0,19.0,2.0,4.0,20.0,12.0,14.0,30.2,NBA,0.0,4.0,5.0,32.0,1989,5.0,ATL,6.0,8.0
32.0,14.0,1.0,7.0,15.0,15.0,23.0,3.0,5.0,26.0,15.0,16.0,33.0,NBA,0.0,4.0,6.0,36.0,1990,4.0,ORL,7.0,8.0
33.0,11.0,4.0,6.0,15.0,13.0,22.0,4.0,8.0,26.0,12.0,14.0,30.8,NBA,0.0,3.0,5.0,36.0,1991,4.0,NJN,8.0,9.0
