age,ast_per_mp,blk_per_mp,drb_per_mp,fg2_pct,fg2_per_mp,fg2a_per_mp,fg3_pct,fg3_per_mp,fg3a_per_mp,fg_pct,fg_per_mp,fga_per_mp,ft_pct,ft_per_mp,fta_per_mp,g,gs,lg_id,mp,orb_per_mp,pf_per_mp,pos,pts_per_mp,season,stl_per_mp,team_id,tov_per_mp,trb_per_mp
23.0,3.1,4.7,1.6,0.357,7.8,21.9,0.0,0.0,0.0,0.357,7.8,21.9,0.333,1.6,4.7,4.0,0.0,NBA,23.0,4.7,1.6,SF,17.2,2000,0.0,MIA,3.1,6.3
24.0,1.5,0.9,3.7,0.306,2.7,9.0,0.333,0.2,0.5,0.308,2.9,9.5,0.857,2.2,2.6,30.0,0.0,NBA,197.0,2.7,4.9,SF,8.2,2001,0.4,CHH,1.5,6.4
25.0,0.9,0.9,1.8,0.385,4.4,11.4,0.0,0.0,0.0,0.385,4.4,11.4,0.333,1.8,5.3,9.0,0.0,NBA,41.0,4.4,4.4,SF,10.5,2002,0.0,PHI,2.6,6.1
