age,ast,blk,drb,efg_pct,fg,fg2,fg2_pct,fg2a,fg3,fg3_pct,fg3a,fg_pct,fga,ft,ft_pct,fta,g,gs,lg_id,mp,orb,pf,pos,pts,season,stl,team_id,tov,trb
22.0,42.0,0.0,38.0,0.466,43.0,18.0,0.316,57.0,25.0,0.403,62.0,0.361,119.0,14.0,0.824,17.0,24.0,0.0,NBA,344.0,6.0,23.0,PG,125.0,1999,13.0,TOT,17.0,44.0
22.0,13.0,0.0,11.0,0.432,14.0,4.0,0.267,15.0,10.0,0.345,29.0,0.318,44.0,11.0,0.846,13.0,11.0,0.0,NBA,131.0,2.0,7.0,PG,49.0,1999,7.0,NJN,5.0,13.0
22.0,29.0,0.0,27.0,0.487,29.0,14.0,0.333,42.0,15.0,0.455,33.0,0.387,75.0,3.0,0.75,4.0,13.0,0.0,NBA,213.0,4.0,16.0,PG,76.0,1999,6.0,BOS,12.0,31.0
23.0,96.0,1.0,43.0,0.483,80.0,39.0,0.415,94.0,41.0,0.36,114.0,0.385,208.0,32.0,0.667,48.0,55.0,1.0,NBA,612.0,12.0,34.0,PG,233.0,2000,18.0,TOT,40.0,55.0
23.0,39.0,0.0,16.0,0.565,25.0,14.0,0.452,31.0,11.0,0.478,23.0,0.463,54.0,7.0,0.778,9.0,13.0,1.0,NBA,196.0,0.0,13.0,PG,68.0,2000,6.0,GSW,15.0,16.0
23.0,57.0,1.0,27.0,0.455,55.0,25.0,0.397,63.0,30.0,0.33,91.0,0.357,154.0,25.0,0.641,39.0,42.0,0.0,NBA,416.0,12.0,21.0,PG,165.0,2000,12.0,DAL,25.0,39.0
24.0,224.0,1.0,108.0,0.51,170.0,86.0,0.465,185.0,84.0,0.364,231.0,0.409,416.0,37.0,0.712,52.0,71.0,10.0,NBA,1415.0,16.0,58.0,PG,461.0,2001,36.0,VAN,76.0,124.0
25.0,140.0,1.0,90.0,0.523,114.0,45.0,0.459,98.0,69.0,0.371,186.0,0.401,284.0,43.0,0.729,59.0,67.0,0.0,NBA,1083.0,13.0,83.0,PG,340.0,2002,23.0,DET,61.0,103.0
26.0,80.0,4.0,59.0,0.486,80.0,36.0,0.404,89.0,44.0,0.364,121.0,0.381,210.0,20.0,0.741,27.0,49.0,1.0,NBA,709.0,11.0,42.0,PG,224.0,2003,18.0,SAC,23.0,70.0
27.0,478.0,4.0,155.0,0.494,210.0,112.0,0.446,251.0,98.0,0.359,273.0,0.401,524.0,55.0,0.764,72.0,82.0,26.0,NBA,2016.0,15.0,92.0,PG,573.0,2004,30.0,MIL,103.0,170.0
28.0,350.0,5.0,217.0,0.611,331.0,106.0,0.517,205.0,225.0,0.432,521.0,0.456,726.0,68.0,0.791,86.0,82.0,66.0,NBA,2576.0,14.0,121.0,PG,955.0,2005,44.0,MIA,98.0,231.0
29.0,169.0,1.0,119.0,0.53,190.0,50.0,0.417,120.0,140.0,0.377,371.0,0.387,491.0,32.0,0.64,50.0,82.0,7.0,NBA,2089.0,14.0,112.0,PG,552.0,2006,37.0,CLE,55.0,133.0
30.0,94.0,2.0,57.0,0.511,137.0,48.0,0.387,124.0,89.0,0.385,231.0,0.386,355.0,30.0,0.682,44.0,60.0,0.0,NBA,1173.0,9.0,53.0,PG,393.0,2007,16.0,CLE,36.0,66.0
31.0,126.0,1.0,67.0,0.574,151.0,36.0,0.414,87.0,115.0,0.417,276.0,0.416,363.0,20.0,0.714,28.0,67.0,3.0,NBA,1336.0,5.0,66.0,SG,437.0,2008,19.0,CLE,36.0,72.0
32.0,7.0,0.0,6.0,0.485,11.0,0.0,0.0,6.0,11.0,0.393,28.0,0.324,34.0,0.0,0.0,0.0,18.0,0.0,NBA,108.0,0.0,4.0,PG,33.0,2009,3.0,MIL,6.0,6.0
