age,ast_pct,blk_pct,bpm,bpm-dum,dbpm,drb_pct,dws,fg3a_per_fga_pct,fta_per_fga_pct,g,lg_id,mp,obpm,orb_pct,ows,per,pos,season,stl_pct,team_id,tov_pct,trb_pct,ts_pct,usg_pct,vorp,ws,ws-dum,ws_per_48
21.0,10.4,1.1,0.0,0.0,-0.3,14.8,0.9,0.087,0.36,80.0,NBA,2376.0,0.3,9.1,3.7,15.2,SG,2005,1.6,ATL,12.5,11.8,0.543,16.0,1.2,4.6,0.0,0.093
22.0,9.4,1.3,1.5,0.0,0.1,13.9,1.1,0.129,0.399,74.0,NBA,2249.0,1.4,7.0,4.6,15.8,SF,2006,2.0,ATL,14.6,10.3,0.626,14.0,2.0,5.7,0.0,0.121
23.0,10.8,1.4,2.0,0.0,0.4,13.1,1.4,0.149,0.405,55.0,NBA,2024.0,1.6,7.2,4.1,16.2,SG,2007,1.5,ATL,11.6,10.1,0.586,15.7,2.0,5.5,0.0,0.13
24.0,8.5,1.4,2.4,0.0,0.0,10.2,1.5,0.105,0.48,76.0,NBA,2274.0,2.5,9.0,6.0,17.8,SF,2008,1.6,ATL,12.4,9.6,0.647,15.8,2.5,7.6,0.0,0.16
27.0,7.0,1.9,0.5,0.0,1.3,11.1,0.6,0.075,0.276,54.0,NBA,894.0,-0.7,8.9,0.8,13.0,SG,2011,1.9,PHO,15.5,10.0,0.567,14.3,0.6,1.4,0.0,0.076
28.0,10.0,0.9,1.1,0.0,1.4,14.6,0.4,0.242,0.02,34.0,NBA,491.0,-0.3,7.2,0.6,11.1,SF,2012,1.5,PHO,8.3,10.9,0.501,10.1,0.4,0.9,0.0,0.092
29.0,7.3,1.5,-3.5,0.0,0.3,10.7,0.1,0.143,0.095,14.0,NBA,100.0,-3.8,7.0,0.0,7.0,SF,2013,1.1,BRK,0.0,8.9,0.32,10.1,0.0,0.1,0.0,0.029
30.0,10.7,0.0,-4.3,0.0,2.0,14.7,0.0,0.0,0.0,4.0,NBA,24.0,-6.2,0.0,0.0,3.9,SF,2014,2.2,NOP,100.0,7.3,0.0,1.9,0.0,0.0,0.0,-0.003
