age,and1s,astd_pts,drawn_offensive,drawn_shooting,fouls_offensive,fouls_shooting,g,lg_id,mp,own_shots_blk,pct_1,pct_2,pct_3,pct_4,pct_5,plus_minus_net,plus_minus_on,pos,season,team_id,tov_bad_pass,tov_lost_ball
21.0,19.0,329.0,0.0,95.0,11.0,99.0,80.0,NBA,2376.0,75.0,8.0,66.0,25.0,1.0,0.0,0.9,-10.3,SG,2005,ATL,48.0,38.0
22.0,19.0,299.0,8.0,89.0,16.0,86.0,74.0,NBA,2249.0,49.0,0.0,46.0,52.0,2.0,0.0,2.0,-4.5,SF,2006,ATL,39.0,32.0
23.0,28.0,277.0,9.0,101.0,15.0,56.0,55.0,NBA,2024.0,56.0,16.0,67.0,16.0,1.0,0.0,5.5,-2.6,SG,2007,ATL,23.0,24.0
24.0,32.0,257.0,6.0,137.0,18.0,67.0,76.0,NBA,2274.0,66.0,0.0,21.0,74.0,5.0,0.0,-1.6,-2.7,SF,2008,ATL,35.0,29.0
27.0,9.0,98.0,5.0,29.0,5.0,40.0,54.0,NBA,894.0,23.0,3.0,50.0,46.0,1.0,0.0,-6.8,-6.1,SG,2011,PHO,17.0,15.0
28.0,0.0,79.0,3.0,1.0,0.0,22.0,34.0,NBA,491.0,4.0,0.0,0.0,97.0,3.0,0.0,-5.5,-5.0,SF,2012,PHO,5.0,2.0
29.0,0.0,11.0,1.0,1.0,0.0,2.0,14.0,NBA,100.0,0.0,0.0,7.0,82.0,11.0,0.0,-8.7,-6.5,SF,2013,BRK,0.0,0.0
30.0,0.0,4.0,0.0,0.0,0.0,0.0,4.0,NBA,24.0,0.0,0.0,0.0,84.0,16.0,0.0,32.7,29.9,SF,2014,NOP,0.0,1.0
