age,ast_per_mp,blk_per_mp,drb_per_mp,fg2_pct,fg2_per_mp,fg2a_per_mp,fg3_pct,fg3_per_mp,fg3a_per_mp,fg_pct,fg_per_mp,fga_per_mp,ft_pct,ft_per_mp,fta_per_mp,g,gs,lg_id,mp,orb_per_mp,pf_per_mp,pos,pts_per_mp,season,stl_per_mp,team_id,tov_per_mp,trb_per_mp
25.0,1.3,0.3,2.5,0.456,3.3,7.2,0.294,1.2,4.2,0.396,4.5,11.4,0.781,2.7,3.5,65.0,13.0,NBA,1075.0,1.6,2.1,SG,13.0,2002,0.8,HOU,1.6,4.1
26.0,1.0,0.7,3.0,0.391,3.0,7.6,0.538,2.3,4.3,0.444,5.3,11.9,0.7,4.6,6.6,17.0,0.0,NBA,109.0,1.0,3.0,SG,17.5,2003,1.3,GSW,2.6,4.0
