age,ast_per_poss,blk_per_poss,def_rtg,drb_per_poss,fg2_pct,fg2_per_poss,fg2a_per_poss,fg3_pct,fg3_per_poss,fg3a_per_poss,fg_pct,fg_per_poss,fga_per_poss,ft_pct,ft_per_poss,fta_per_poss,g,gs,lg_id,mp,off_rtg,orb_per_poss,pf_per_poss,pos,pts_per_poss,season,stl_per_poss,team_id,tov_per_poss,trb_per_poss
25.0,2.0,0.5,112.0,3.8,0.456,5.0,10.9,0.294,1.9,6.4,0.396,6.8,17.3,0.781,4.2,5.3,65.0,13.0,NBA,1075.0,102.0,2.4,3.2,SG,19.7,2002,1.3,HOU,2.5,6.2
26.0,1.4,0.9,111.0,4.2,0.391,4.2,10.7,0.538,3.3,6.1,0.444,7.5,16.8,0.7,6.5,9.3,17.0,0.0,NBA,109.0,110.0,1.4,4.2,SG,24.8,2003,1.9,GSW,3.7,5.6
