age,ast,ast_per_g,blk,college_id,fg,fg3,fg3_pct,fg3a,fg_pct,fga,ft,ft_pct,fta,g,mp,mp_per_g,orb,pf,pts,pts_per_g,season,stl,tov,trb,trb_per_g
19.0,36.0,1.1,106.0,LSU,172.0,0.0,0.0,5.0,0.534,322.0,91.0,0.695,131.0,34.0,1116.0,32.8,77.0,74.0,435.0,12.8,2014,21.0,78.0,267.0,7.9
20.0,40.0,1.3,112.0,LSU,191.0,1.0,0.111,9.0,0.504,379.0,95.0,0.646,147.0,31.0,1081.0,34.9,99.0,81.0,478.0,15.4,2015,29.0,101.0,308.0,9.9
