age,ast,blk,drb,efg_pct,fg,fg2,fg2_pct,fg2a,fg3,fg3_pct,fg3a,fg_pct,fga,ft,ft_pct,fta,g,gs,lg_id,mp,orb,pf,pos,pts,season,stl,team_id,tov,trb
22.0,239.0,1.0,68.0,0.454,217.0,208.0,0.461,451.0,9.0,0.243,37.0,0.445,488.0,64.0,0.889,72.0,73.0,2.0,NBA,1284.0,23.0,81.0,PG,507.0,1984,29.0,SEA,81.0,91.0
23.0,206.0,1.0,53.0,0.44,170.0,158.0,0.436,362.0,12.0,0.316,38.0,0.425,400.0,48.0,0.814,59.0,73.0,1.0,NBA,1150.0,17.0,87.0,PG,400.0,1985,36.0,SEA,85.0,70.0
24.0,261.0,0.0,58.0,0.484,220.0,199.0,0.478,416.0,21.0,0.35,60.0,0.462,476.0,39.0,0.813,48.0,70.0,4.0,NBA,1150.0,22.0,110.0,PG,500.0,1986,34.0,SAS,85.0,80.0
25.0,315.0,0.0,78.0,0.519,365.0,315.0,0.523,602.0,50.0,0.336,149.0,0.486,751.0,70.0,0.833,84.0,76.0,42.0,NBA,1765.0,20.0,109.0,PG,850.0,1987,35.0,SAS,97.0,98.0
26.0,183.0,2.0,34.0,0.499,176.0,150.0,0.476,315.0,26.0,0.406,64.0,0.464,379.0,43.0,0.896,48.0,52.0,12.0,NBA,1024.0,14.0,54.0,PG,421.0,1988,27.0,SAS,57.0,48.0
27.0,137.0,1.0,69.0,0.49,307.0,259.0,0.444,583.0,48.0,0.522,92.0,0.455,675.0,47.0,0.825,57.0,68.0,8.0,NBA,1338.0,18.0,78.0,SG,709.0,1989,27.0,MIA,87.0,87.0
28.0,102.0,0.0,56.0,0.468,148.0,104.0,0.395,263.0,44.0,0.44,100.0,0.408,363.0,44.0,0.846,52.0,63.0,2.0,NBA,867.0,15.0,69.0,SG,384.0,1990,25.0,MIA,52.0,71.0
29.0,24.0,0.0,6.0,0.472,43.0,28.0,0.389,72.0,15.0,0.429,35.0,0.402,107.0,11.0,1.0,11.0,24.0,0.0,NBA,225.0,3.0,11.0,SG,112.0,1991,7.0,MIA,16.0,9.0
30.0,2.0,0.0,0.0,0.5,1.0,0.0,0.0,2.0,1.0,1.0,1.0,0.333,3.0,0.0,0.0,0.0,3.0,0.0,NBA,8.0,0.0,2.0,PG,3.0,1992,0.0,MIA,0.0,0.0
