age,ast_per_poss,blk_per_poss,def_rtg,drb_per_poss,fg2_pct,fg2_per_poss,fg2a_per_poss,fg3_pct,fg3_per_poss,fg3a_per_poss,fg_pct,fg_per_poss,fga_per_poss,ft_pct,ft_per_poss,fta_per_poss,g,gs,lg_id,mp,off_rtg,orb_per_poss,pf_per_poss,pos,pts_per_poss,season,stl_per_poss,team_id,tov_per_poss,trb_per_poss
22.0,12.1,0.0,113.0,2.4,0.6,7.2,12.1,0.0,0.0,7.2,0.375,7.2,19.3,1.0,4.8,4.8,3.0,0.0,NBA,22.0,107.0,2.4,2.4,PG,19.3,1984,0.0,SEA,2.4,4.8
24.0,5.5,0.0,129.0,1.1,0.5,6.6,13.2,0.167,1.1,6.6,0.389,7.7,19.9,1.0,1.1,1.1,3.0,0.0,NBA,43.0,73.0,0.0,1.1,PG,17.7,1986,0.0,SAS,5.5,1.1
26.0,7.6,0.0,117.0,1.5,0.571,6.1,10.6,0.333,1.5,4.5,0.5,7.6,15.2,0.667,1.0,1.5,3.0,3.0,NBA,90.0,118.0,0.5,1.5,PG,17.7,1988,2.0,SAS,1.5,2.0
30.0,0.0,0.0,133.0,0.0,0.0,0.0,25.9,0.0,0.0,0.0,0.0,0.0,25.9,0.0,0.0,0.0,1.0,0.0,NBA,2.0,0.0,0.0,25.9,PG,0.0,1992,0.0,MIA,0.0,0.0
