age,ast,blk,drb,fg,fg2,fg2a,fg3,fg3a,fga,ft,fta,game_score,lg_id,mp,orb,pf,pts,season,stl,team_id,tov,trb
22.0,2.0,0.0,14.0,11.0,0.0,0.0,0.0,0.0,16.0,5.0,6.0,0.0,NBA,0.0,7.0,5.0,22.0,1979,2.0,GSW,5.0,18.0
23.0,0.0,0.0,0.0,10.0,0.0,0.0,1.0,0.0,0.0,12.0,14.0,0.0,NBA,0.0,0.0,0.0,30.0,1980,0.0,GSW,0.0,0.0
24.0,0.0,0.0,0.0,10.0,0.0,0.0,1.0,0.0,0.0,7.0,9.0,0.0,NBA,0.0,0.0,0.0,22.0,1981,0.0,UTA,0.0,0.0
25.0,0.0,0.0,0.0,11.0,0.0,0.0,1.0,0.0,0.0,8.0,8.0,0.0,NBA,0.0,0.0,0.0,22.0,1982,0.0,DAL,0.0,0.0
26.0,6.0,7.0,12.0,10.0,10.0,20.0,0.0,2.0,20.0,6.0,8.0,19.5,NBA,0.0,7.0,6.0,23.0,1983,3.0,POR,5.0,16.0
27.0,4.0,5.0,12.0,11.0,11.0,19.0,0.0,2.0,19.0,10.0,13.0,22.6,NBA,0.0,6.0,6.0,26.0,1984,3.0,POR,5.0,17.0
28.0,4.0,7.0,11.0,13.0,13.0,21.0,0.0,1.0,21.0,8.0,12.0,20.8,NBA,0.0,9.0,6.0,26.0,1985,2.0,DEN,5.0,16.0
29.0,4.0,9.0,13.0,13.0,13.0,22.0,1.0,2.0,22.0,11.0,14.0,30.3,NBA,0.0,9.0,6.0,32.0,1986,4.0,DEN,5.0,17.0
30.0,5.0,5.0,12.0,9.0,9.0,16.0,0.0,2.0,16.0,8.0,10.0,21.6,NBA,0.0,7.0,6.0,24.0,1987,2.0,DEN,5.0,16.0
31.0,5.0,8.0,11.0,10.0,10.0,16.0,0.0,1.0,16.0,5.0,5.0,18.7,NBA,0.0,10.0,6.0,23.0,1988,3.0,DEN,4.0,17.0
32.0,5.0,10.0,13.0,8.0,8.0,13.0,1.0,1.0,13.0,6.0,6.0,19.9,NBA,0.0,6.0,6.0,20.0,1989,2.0,DEN,4.0,19.0
33.0,3.0,3.0,7.0,6.0,6.0,10.0,0.0,1.0,10.0,3.0,4.0,12.0,NBA,0.0,6.0,6.0,12.0,1990,2.0,POR,3.0,10.0
34.0,3.0,5.0,6.0,5.0,5.0,8.0,0.0,1.0,8.0,7.0,7.0,11.7,NBA,0.0,3.0,5.0,13.0,1991,2.0,POR,2.0,9.0
35.0,4.0,5.0,8.0,4.0,4.0,6.0,0.0,0.0,6.0,2.0,3.0,12.1,NBA,0.0,4.0,4.0,10.0,1992,1.0,POR,2.0,9.0
