age,ast_per_g,blk_per_g,drb_per_g,efg_pct,fg2_pct,fg2_per_g,fg2a_per_g,fg3_pct,fg3_per_g,fg3a_per_g,fg_pct,fg_per_g,fga_per_g,ft_pct,ft_per_g,fta_per_g,g,gs,lg_id,mp_per_g,orb_per_g,pf_per_g,pos,pts_per_g,season,stl_per_g,team_id,tov_per_g,trb_per_g
19.0,0.3,1.0,2.0,0.438,0.438,1.8,4.0,0.0,0.0,0.0,0.438,1.8,4.0,0.0,0.0,0.3,4.0,0.0,NBA,10.8,2.0,1.8,C,3.5,2012,0.0,UTA,1.0,4.0
23.0,0.3,0.6,3.6,0.559,0.606,3.5,5.8,0.143,0.1,0.8,0.551,3.6,6.6,0.844,2.1,2.5,18.0,0.0,NBA,17.9,2.6,2.2,C,9.4,2016,0.3,OKC,0.9,6.2
24.0,0.2,0.8,1.2,0.385,0.385,2.0,5.2,0.0,0.0,0.0,0.385,2.0,5.2,1.0,0.8,0.8,5.0,0.0,NBA,9.0,0.6,1.6,C,4.8,2017,0.0,OKC,0.4,1.8
26.0,1.2,0.6,6.4,0.517,0.521,4.6,8.9,0.25,0.1,0.3,0.514,4.7,9.1,0.756,1.9,2.6,16.0,14.0,NBA,28.8,3.3,2.3,C,11.4,2019,0.7,POR,1.6,9.7
