age,ast,blk,drb,efg_pct,fg,fg2,fg2_pct,fg2a,fg3,fg3_pct,fg3a,fg_pct,fga,ft,ft_pct,fta,g,gs,lg_id,mp,orb,pf,pos,pts,season,stl,team_id,tov,trb
22.0,2.0,0.0,3.0,0.2,2.0,2.0,0.222,9.0,0.0,0.0,1.0,0.2,10.0,0.0,0.0,0.0,3.0,0.0,NBA,26.0,0.0,2.0,PG,4.0,1985,3.0,SEA,2.0,3.0
23.0,303.0,9.0,91.0,0.532,227.0,203.0,0.541,375.0,24.0,0.324,74.0,0.506,449.0,90.0,0.849,106.0,82.0,29.0,NBA,1901.0,29.0,113.0,PG,568.0,1986,110.0,SEA,92.0,120.0
24.0,353.0,3.0,90.0,0.509,132.0,103.0,0.493,209.0,29.0,0.367,79.0,0.458,288.0,59.0,0.831,71.0,73.0,26.0,NBA,1482.0,23.0,72.0,PG,352.0,1987,74.0,SEA,85.0,113.0
25.0,218.0,2.0,57.0,0.459,89.0,67.0,0.475,141.0,22.0,0.286,77.0,0.408,218.0,43.0,0.811,53.0,77.0,0.0,NBA,949.0,18.0,69.0,PG,243.0,1988,52.0,SEA,37.0,75.0
26.0,123.0,3.0,57.0,0.494,115.0,98.0,0.49,200.0,17.0,0.34,50.0,0.46,250.0,50.0,0.781,64.0,48.0,2.0,NBA,952.0,17.0,50.0,PG,297.0,1989,55.0,POR,45.0,74.0
27.0,231.0,4.0,93.0,0.445,138.0,122.0,0.454,269.0,16.0,0.271,59.0,0.421,328.0,91.0,0.813,112.0,82.0,8.0,NBA,1393.0,29.0,84.0,PG,383.0,1990,82.0,POR,80.0,122.0
28.0,141.0,7.0,53.0,0.446,103.0,67.0,0.401,167.0,36.0,0.346,104.0,0.38,271.0,41.0,0.911,45.0,75.0,1.0,NBA,897.0,22.0,49.0,PG,283.0,1991,50.0,POR,50.0,75.0
29.0,172.0,4.0,59.0,0.437,100.0,77.0,0.416,185.0,23.0,0.329,70.0,0.392,255.0,57.0,0.851,67.0,62.0,5.0,NBA,1023.0,16.0,53.0,PG,280.0,1992,46.0,TOT,47.0,75.0
29.0,20.0,0.0,9.0,0.438,16.0,13.0,0.433,30.0,3.0,0.3,10.0,0.4,40.0,10.0,0.714,14.0,18.0,0.0,NBA,134.0,0.0,6.0,PG,45.0,1992,6.0,POR,5.0,9.0
29.0,152.0,4.0,50.0,0.437,84.0,64.0,0.413,155.0,20.0,0.333,60.0,0.391,215.0,47.0,0.887,53.0,44.0,5.0,NBA,889.0,16.0,47.0,PG,235.0,1992,40.0,LAC,42.0,66.0
30.0,119.0,5.0,34.0,0.479,69.0,47.0,0.475,99.0,22.0,0.324,68.0,0.413,167.0,28.0,0.875,32.0,65.0,2.0,NBA,836.0,13.0,36.0,PG,188.0,1993,31.0,DET,30.0,47.0
32.0,12.0,0.0,4.0,0.676,9.0,4.0,0.8,5.0,5.0,0.417,12.0,0.529,17.0,1.0,1.0,1.0,7.0,0.0,NBA,77.0,1.0,8.0,PG,24.0,1995,4.0,MIL,4.0,5.0
