age,ast_per_g,blk_per_g,drb_per_g,efg_pct,fg2_pct,fg2_per_g,fg2a_per_g,fg3_pct,fg3_per_g,fg3a_per_g,fg_pct,fg_per_g,fga_per_g,ft_pct,ft_per_g,fta_per_g,g,gs,lg_id,mp_per_g,orb_per_g,pf_per_g,pos,pts_per_g,season,stl_per_g,team_id,tov_per_g,trb_per_g
22.0,0.7,0.0,1.0,0.2,0.222,0.7,3.0,0.0,0.0,0.3,0.2,0.7,3.3,0.0,0.0,0.0,3.0,0.0,NBA,8.7,0.0,0.7,PG,1.3,1985,1.0,SEA,0.7,1.0
23.0,3.7,0.1,1.1,0.532,0.541,2.5,4.6,0.324,0.3,0.9,0.506,2.8,5.5,0.849,1.1,1.3,82.0,29.0,NBA,23.2,0.4,1.4,PG,6.9,1986,1.3,SEA,1.1,1.5
24.0,4.8,0.0,1.2,0.509,0.493,1.4,2.9,0.367,0.4,1.1,0.458,1.8,3.9,0.831,0.8,1.0,73.0,26.0,NBA,20.3,0.3,1.0,PG,4.8,1987,1.0,SEA,1.2,1.5
25.0,2.8,0.0,0.7,0.459,0.475,0.9,1.8,0.286,0.3,1.0,0.408,1.2,2.8,0.811,0.6,0.7,77.0,0.0,NBA,12.3,0.2,0.9,PG,3.2,1988,0.7,SEA,0.5,1.0
26.0,2.6,0.1,1.2,0.494,0.49,2.0,4.2,0.34,0.4,1.0,0.46,2.4,5.2,0.781,1.0,1.3,48.0,2.0,NBA,19.8,0.4,1.0,PG,6.2,1989,1.1,POR,0.9,1.5
27.0,2.8,0.0,1.1,0.445,0.454,1.5,3.3,0.271,0.2,0.7,0.421,1.7,4.0,0.813,1.1,1.4,82.0,8.0,NBA,17.0,0.4,1.0,PG,4.7,1990,1.0,POR,1.0,1.5
28.0,1.9,0.1,0.7,0.446,0.401,0.9,2.2,0.346,0.5,1.4,0.38,1.4,3.6,0.911,0.5,0.6,75.0,1.0,NBA,12.0,0.3,0.7,PG,3.8,1991,0.7,POR,0.7,1.0
29.0,2.8,0.1,1.0,0.437,0.416,1.2,3.0,0.329,0.4,1.1,0.392,1.6,4.1,0.851,0.9,1.1,62.0,5.0,NBA,16.5,0.3,0.9,PG,4.5,1992,0.7,TOT,0.8,1.2
29.0,1.1,0.0,0.5,0.438,0.433,0.7,1.7,0.3,0.2,0.6,0.4,0.9,2.2,0.714,0.6,0.8,18.0,0.0,NBA,7.4,0.0,0.3,PG,2.5,1992,0.3,POR,0.3,0.5
29.0,3.5,0.1,1.1,0.437,0.413,1.5,3.5,0.333,0.5,1.4,0.391,1.9,4.9,0.887,1.1,1.2,44.0,5.0,NBA,20.2,0.4,1.1,PG,5.3,1992,0.9,LAC,1.0,1.5
30.0,1.8,0.1,0.5,0.479,0.475,0.7,1.5,0.324,0.3,1.0,0.413,1.1,2.6,0.875,0.4,0.5,65.0,2.0,NBA,12.9,0.2,0.6,PG,2.9,1993,0.5,DET,0.5,0.7
32.0,1.7,0.0,0.6,0.676,0.8,0.6,0.7,0.417,0.7,1.7,0.529,1.3,2.4,1.0,0.1,0.1,7.0,0.0,NBA,11.0,0.1,1.1,PG,3.4,1995,0.6,MIL,0.6,0.7
