age,ast_per_g,blk_per_g,drb_per_g,efg_pct,fg2_pct,fg2_per_g,fg2a_per_g,fg3_pct,fg3_per_g,fg3a_per_g,fg_pct,fg_per_g,fga_per_g,ft_pct,ft_per_g,fta_per_g,g,gs,lg_id,mp_per_g,orb_per_g,pf_per_g,pos,pts_per_g,season,stl_per_g,team_id,tov_per_g,trb_per_g
24.0,3.4,0.0,0.9,0.452,0.444,1.1,2.6,0.313,0.4,1.1,0.404,1.5,3.7,1.0,0.7,0.7,14.0,0.0,NBA,14.9,0.3,1.5,PG,4.1,1987,1.1,SEA,0.5,1.1
25.0,3.8,0.4,1.4,0.524,0.611,2.2,3.6,0.0,0.0,0.6,0.524,2.2,4.2,1.0,2.0,2.0,5.0,0.0,NBA,19.0,0.6,1.4,PG,6.4,1988,0.4,SEA,1.4,2.0
26.0,4.0,0.0,2.0,0.519,0.5,3.0,6.0,0.375,1.0,2.7,0.462,4.0,8.7,0.5,0.3,0.7,3.0,1.0,NBA,22.0,0.7,0.7,PG,9.3,1989,0.3,POR,0.7,2.7
27.0,1.5,0.1,0.9,0.465,0.395,0.8,2.0,0.379,0.5,1.4,0.389,1.3,3.4,0.704,0.9,1.3,21.0,0.0,NBA,14.0,0.5,1.4,PG,4.1,1990,0.7,POR,0.8,1.4
28.0,1.0,0.0,0.0,0.545,0.6,0.9,1.4,0.0,0.0,0.1,0.545,0.9,1.6,0.0,0.0,0.0,7.0,0.0,NBA,5.1,0.0,0.0,PG,1.7,1991,0.0,POR,0.3,0.0
29.0,0.3,0.0,0.0,0.5,1.0,0.7,0.7,0.0,0.0,0.7,0.5,0.7,1.3,0.0,0.0,0.0,3.0,0.0,NBA,3.7,0.0,0.0,PG,1.3,1992,0.0,LAC,0.7,0.0
