age,ast,ast_per_g,blk,college_id,fg,fg3,fg3_pct,fg3a,fg_pct,fga,ft,ft_pct,fta,g,mp,mp_per_g,orb,pf,pts,pts_per_g,season,stl,tov,trb,trb_per_g
21.0,31.0,1.2,18.0,PURDUE,160.0,4.0,0.222,18.0,0.618,259.0,132.0,0.677,195.0,25.0,757.0,30.3,0.0,0.0,456.0,18.2,2005,21.0,0.0,178.0,7.1
22.0,5.0,1.0,2.0,PURDUE,24.0,2.0,0.333,6.0,0.558,43.0,26.0,0.839,31.0,5.0,123.0,24.6,0.0,0.0,76.0,15.2,2006,4.0,0.0,26.0,5.2
23.0,42.0,1.2,32.0,PURDUE,219.0,4.0,0.211,19.0,0.597,367.0,201.0,0.726,277.0,34.0,1035.0,30.4,0.0,0.0,643.0,18.9,2007,40.0,0.0,249.0,7.3
