age,ast_per_poss,blk_per_poss,def_rtg,drb_per_poss,fg2_pct,fg2_per_poss,fg2a_per_poss,fg3_pct,fg3_per_poss,fg3a_per_poss,fg_pct,fg_per_poss,fga_per_poss,ft_pct,ft_per_poss,fta_per_poss,g,gs,lg_id,mp,off_rtg,orb_per_poss,pf_per_poss,pos,pts_per_poss,season,stl_per_poss,team_id,tov_per_poss,trb_per_poss
24.0,1.6,0.5,102.0,8.3,0.619,10.1,16.3,0.0,0.0,0.1,0.616,10.1,16.4,0.661,5.4,8.1,42.0,0.0,NBA,711.0,130.0,7.2,7.3,PF,25.6,2008,1.3,HOU,1.9,15.5
25.0,1.4,1.1,104.0,7.9,0.576,8.7,15.1,0.333,0.0,0.1,0.574,8.7,15.2,0.813,5.7,7.0,69.0,0.0,NBA,1467.0,123.0,4.5,6.0,PF,23.1,2009,0.9,HOU,2.5,12.4
26.0,1.4,1.3,110.0,5.8,0.537,10.3,19.2,0.333,0.0,0.1,0.536,10.3,19.3,0.806,7.1,8.8,80.0,29.0,NBA,2469.0,117.0,3.9,4.8,PF,27.8,2010,1.1,TOT,2.8,9.7
26.0,1.4,1.7,109.0,5.9,0.547,10.9,19.9,0.0,0.0,0.0,0.547,10.9,19.9,0.839,8.5,10.1,52.0,1.0,NBA,1415.0,120.0,4.4,5.3,PF,30.3,2010,1.0,HOU,3.1,10.3
26.0,1.3,0.8,111.0,5.6,0.521,9.5,18.2,0.333,0.0,0.1,0.52,9.5,18.4,0.741,5.3,7.1,28.0,28.0,NBA,1054.0,112.0,3.2,4.3,PF,24.4,2010,1.3,SAC,2.4,8.8
27.0,1.6,0.8,110.0,4.7,0.505,8.8,17.5,0.0,0.0,0.1,0.502,8.8,17.6,0.74,5.5,7.4,76.0,26.0,NBA,2008.0,110.0,4.2,5.0,PF,23.1,2011,1.0,TOT,2.8,8.9
27.0,1.8,0.7,112.0,4.5,0.495,8.5,17.2,0.0,0.0,0.1,0.492,8.5,17.4,0.721,5.6,7.7,53.0,16.0,NBA,1406.0,109.0,4.6,4.5,PF,22.6,2011,1.1,SAC,2.9,9.1
27.0,1.2,1.1,108.0,5.0,0.53,9.6,18.2,0.0,0.0,0.1,0.527,9.6,18.2,0.795,5.2,6.6,23.0,10.0,NBA,602.0,112.0,3.4,6.4,PF,24.4,2011,0.9,NOH,2.4,8.4
28.0,2.1,0.7,107.0,7.4,0.507,9.9,19.5,0.0,0.0,0.2,0.503,9.9,19.7,0.799,8.0,10.0,41.0,8.0,NBA,999.0,111.0,4.2,4.8,PF,27.8,2012,0.7,NOH,3.5,11.6
29.0,1.8,0.8,106.0,8.2,0.541,8.8,16.2,0.333,0.0,0.1,0.54,8.8,16.3,0.817,6.0,7.4,81.0,2.0,NBA,1876.0,116.0,4.9,5.1,PF,23.7,2013,0.9,GSW,3.1,13.1
30.0,1.1,0.2,110.0,9.2,0.517,6.8,13.1,0.0,0.0,0.0,0.517,6.8,13.1,0.824,3.1,3.7,18.0,1.0,NBA,233.0,112.0,3.3,7.4,PF,16.6,2014,0.7,SAC,2.0,12.4
31.0,1.1,0.7,111.0,7.1,0.515,8.0,15.6,0.0,0.0,0.0,0.515,8.0,15.6,0.82,5.2,6.3,70.0,15.0,NBA,1192.0,115.0,4.2,5.6,PF,21.2,2015,0.6,SAC,2.3,11.3
32.0,2.8,0.8,110.0,8.4,0.561,11.5,20.4,0.462,0.5,1.1,0.556,12.0,21.5,0.736,5.8,7.8,36.0,12.0,NBA,569.0,120.0,4.2,5.9,PF,30.2,2016,1.0,PHI,1.9,12.6
