age,ast,blk,drb,efg_pct,fg,fg2,fg2_pct,fg2a,fg3,fg3_pct,fg3a,fg_pct,fga,ft,ft_pct,fta,g,gs,lg_id,mp,orb,pf,pos,pts,season,stl,team_id,tov,trb
26.0,3.0,0.0,5.0,0.7,6.0,4.0,0.667,6.0,2.0,0.5,4.0,0.6,10.0,4.0,0.8,5.0,3.0,0.0,NBA,56.0,2.0,6.0,SG,18.0,2005,2.0,SAC,0.0,7.0
27.0,3.0,1.0,8.0,0.65,16.0,9.0,0.474,19.0,7.0,0.636,11.0,0.533,30.0,14.0,0.875,16.0,16.0,0.0,NBA,101.0,6.0,10.0,SG,53.0,2006,1.0,DET,2.0,14.0
28.0,3.0,0.0,5.0,0.481,10.0,5.0,0.385,13.0,5.0,0.385,13.0,0.385,26.0,0.0,0.0,0.0,5.0,0.0,NBA,82.0,3.0,4.0,SG,25.0,2007,2.0,LAL,0.0,8.0
29.0,7.0,1.0,18.0,0.616,35.0,20.0,0.606,33.0,15.0,0.417,36.0,0.507,69.0,5.0,0.625,8.0,10.0,10.0,NBA,282.0,7.0,12.0,SG,90.0,2008,8.0,ORL,9.0,25.0
30.0,10.0,3.0,8.0,0.492,28.0,20.0,0.541,37.0,8.0,0.286,28.0,0.431,65.0,4.0,0.667,6.0,11.0,8.0,NBA,265.0,8.0,29.0,SF,68.0,2009,6.0,ATL,4.0,16.0
31.0,2.0,0.0,9.0,0.338,11.0,8.0,0.296,27.0,3.0,0.3,10.0,0.297,37.0,0.0,0.0,0.0,11.0,0.0,NBA,148.0,4.0,19.0,SF,25.0,2010,9.0,ATL,5.0,13.0
