age,ast_per_poss,blk_per_poss,def_rtg,drb_per_poss,fg2_pct,fg2_per_poss,fg2a_per_poss,fg3_pct,fg3_per_poss,fg3a_per_poss,fg_pct,fg_per_poss,fga_per_poss,ft_pct,ft_per_poss,fta_per_poss,g,gs,lg_id,mp,off_rtg,orb_per_poss,pf_per_poss,pos,pts_per_poss,season,stl_per_poss,team_id,tov_per_poss,trb_per_poss
26.0,2.8,0.0,119.0,4.7,0.667,3.8,5.7,0.5,1.9,3.8,0.6,5.7,9.5,0.8,3.8,4.7,3.0,0.0,NBA,56.0,164.0,1.9,5.7,SG,17.1,2005,1.9,SAC,0.0,6.6
27.0,1.7,0.6,108.0,4.5,0.474,5.0,10.6,0.636,3.9,6.2,0.533,9.0,16.8,0.875,7.8,9.0,16.0,0.0,NBA,101.0,146.0,3.4,5.6,SG,29.7,2006,0.6,DET,1.1,7.8
28.0,1.9,0.0,118.0,3.1,0.385,3.1,8.1,0.385,3.1,8.1,0.385,6.2,16.1,0.0,0.0,0.0,5.0,0.0,NBA,82.0,117.0,1.9,2.5,SG,15.5,2007,1.2,LAL,0.0,5.0
29.0,1.4,0.2,112.0,3.5,0.606,3.9,6.4,0.417,2.9,7.0,0.507,6.8,13.4,0.625,1.0,1.6,10.0,10.0,NBA,282.0,118.0,1.4,2.3,SG,17.5,2008,1.6,ORL,1.8,4.9
30.0,2.2,0.7,115.0,1.8,0.541,4.4,8.1,0.286,1.8,6.2,0.431,6.2,14.3,0.667,0.9,1.3,11.0,8.0,NBA,265.0,107.0,1.8,6.4,SF,15.0,2009,1.3,ATL,0.9,3.5
31.0,0.8,0.0,111.0,3.4,0.296,3.0,10.2,0.3,1.1,3.8,0.297,4.2,14.0,0.0,0.0,0.0,11.0,0.0,NBA,148.0,72.0,1.5,7.2,SF,9.4,2010,3.4,ATL,1.9,4.9
