age,ast_per_poss,blk_per_poss,def_rtg,drb_per_poss,fg2_pct,fg2_per_poss,fg2a_per_poss,fg3_pct,fg3_per_poss,fg3a_per_poss,fg_pct,fg_per_poss,fga_per_poss,ft_pct,ft_per_poss,fta_per_poss,g,gs,lg_id,mp,off_rtg,orb_per_poss,pf_per_poss,pos,pts_per_poss,season,stl_per_poss,team_id,tov_per_poss,trb_per_poss
22.0,10.2,0.1,112.0,2.9,0.423,5.2,12.3,0.368,1.1,3.0,0.412,6.3,15.3,0.782,4.1,5.2,80.0,60.0,NBA,2481.0,106.0,1.3,4.2,PG,17.8,1996,1.8,SAC,4.0,4.2
23.0,8.7,0.1,110.0,3.0,0.407,5.4,13.4,0.19,0.3,1.6,0.384,5.7,15.0,0.823,6.8,8.2,70.0,20.0,NBA,1376.0,102.0,1.3,3.8,PG,18.6,1997,2.3,SAC,4.3,4.3
24.0,11.5,0.1,104.0,2.9,0.437,7.4,17.0,0.3,0.2,0.8,0.431,7.7,17.8,0.793,7.3,9.2,52.0,7.0,NBA,623.0,105.0,1.7,5.7,PG,22.9,1998,4.2,BOS,5.5,4.5
27.0,11.0,0.0,102.0,3.9,0.4,6.9,17.4,0.167,0.2,1.2,0.385,7.1,18.6,0.897,7.1,8.0,24.0,0.0,NBA,263.0,99.0,1.0,3.5,PG,21.6,2001,3.5,IND,5.1,4.9
