age,ast_per_poss,blk_per_poss,def_rtg,drb_per_poss,fg2_pct,fg2_per_poss,fg2a_per_poss,fg3_pct,fg3_per_poss,fg3a_per_poss,fg_pct,fg_per_poss,fga_per_poss,ft_pct,ft_per_poss,fta_per_poss,g,gs,lg_id,mp,off_rtg,orb_per_poss,pf_per_poss,pos,pts_per_poss,season,stl_per_poss,team_id,tov_per_poss,trb_per_poss
23.0,5.6,0.3,113.0,4.3,0.471,4.0,8.5,0.34,2.7,7.8,0.408,6.6,16.3,0.953,6.8,7.1,26.0,0.0,NBA,299.0,115.0,1.0,6.5,PG,22.8,2017,1.5,TOT,3.2,5.3
23.0,4.0,0.7,111.0,3.3,0.545,4.0,7.2,0.4,4.0,9.9,0.462,7.9,17.1,1.0,7.9,7.9,8.0,0.0,NBA,74.0,130.0,0.0,7.2,PG,27.7,2017,2.0,PHI,2.0,3.3
23.0,6.2,0.2,114.0,4.7,0.45,4.0,8.9,0.313,2.2,7.1,0.389,6.2,16.0,0.935,6.4,6.9,18.0,0.0,NBA,225.0,110.0,1.3,6.2,PG,21.1,2017,1.3,NYK,3.6,6.0
25.0,6.2,0.2,117.0,2.9,0.441,2.9,6.5,0.4,2.9,7.3,0.419,5.8,13.8,0.694,2.7,4.0,49.0,2.0,NBA,743.0,108.0,0.6,5.8,PG,17.3,2019,1.6,WAS,2.7,3.6
