age,ast_per_g,blk_per_g,drb_per_g,efg_pct,fg2_pct,fg2_per_g,fg2a_per_g,fg3_pct,fg3_per_g,fg3a_per_g,fg_pct,fg_per_g,fga_per_g,ft_pct,ft_per_g,fta_per_g,g,gs,mp_per_g,orb_per_g,pf_per_g,player,pts_per_g,stl_per_g,tov_per_g,trb_per_g
23.0,2.8,0.4,3.3,0.457,0.449,6.9,15.5,0.385,0.4,1.1,0.444,7.4,16.5,0.788,3.2,4.1,37.0,37.0,38.1,0.8,2.0,Ron Mercer,18.3,0.9,2.4,4.1
28.0,9.0,0.1,3.5,0.445,0.419,4.3,10.3,0.332,1.7,5.1,0.39,6.0,15.4,0.817,2.5,3.0,79.0,79.0,37.3,0.4,1.9,Nick Van Exel,16.1,0.9,2.8,3.9
25.0,2.0,1.7,5.6,0.507,0.508,7.6,14.9,0.0,0.0,0.0,0.507,7.6,15.0,0.626,4.0,6.4,81.0,81.0,33.3,2.9,3.9,Antonio McDyess,19.1,0.9,2.8,8.5
23.0,1.2,2.2,5.8,0.48,0.477,4.1,8.6,0.328,0.7,2.3,0.446,4.8,10.9,0.686,2.0,2.9,81.0,80.0,30.1,2.1,3.6,Raef LaFrentz,12.4,0.5,1.2,7.9
32.0,3.2,0.3,2.7,0.501,0.448,2.0,4.6,0.378,1.4,3.6,0.417,3.4,8.2,0.818,1.9,2.3,78.0,11.0,27.2,0.9,2.3,George McCloud,10.1,0.6,1.7,3.7
23.0,1.8,0.4,2.9,0.506,0.468,1.8,3.9,0.373,1.0,2.7,0.429,2.8,6.6,0.8,1.5,1.9,81.0,77.0,25.3,1.0,2.6,James Posey,8.2,1.2,1.2,3.9
25.0,1.7,0.8,1.9,0.393,0.388,3.3,8.6,0.5,0.1,0.1,0.389,3.4,8.7,0.738,2.1,2.8,15.0,10.0,24.9,1.6,2.1,Tariq Abdul-Wahad,8.9,0.4,1.3,3.5
23.0,3.0,0.2,2.0,0.371,0.45,2.1,4.6,0.171,0.5,3.2,0.337,2.6,7.8,0.841,2.8,3.4,13.0,5.0,23.5,0.6,2.1,Chauncey Billups,8.6,0.8,1.8,2.6
24.0,0.9,1.4,4.2,0.543,0.548,3.5,6.4,0.125,0.0,0.1,0.542,3.5,6.5,0.688,1.5,2.2,81.0,20.0,22.8,2.0,2.9,Keon Clark,8.6,0.6,1.5,6.2
32.0,0.8,0.3,3.6,0.472,0.491,3.6,7.3,0.234,0.3,1.2,0.456,3.9,8.5,0.742,2.4,3.2,40.0,0.0,19.3,1.6,2.6,Chris Gatling,10.4,0.9,1.6,5.1
29.0,1.4,0.3,1.4,0.5,0.519,1.5,3.0,0.304,0.4,1.2,0.455,1.9,4.2,0.831,1.4,1.7,45.0,6.0,15.4,0.5,1.2,Bryant Stith,5.6,0.4,0.7,1.9
24.0,2.5,0.0,0.9,0.46,0.368,0.5,1.3,0.358,0.5,1.5,0.363,1.0,2.8,0.675,0.6,0.9,45.0,1.0,13.3,0.3,1.6,Chris Herren,3.1,0.3,0.9,1.2
24.0,0.4,0.3,0.8,0.397,0.417,0.9,2.1,0.111,0.0,0.2,0.393,0.9,2.3,0.717,0.7,1.0,52.0,0.0,11.3,1.4,1.8,Ryan Bowen,2.5,0.8,0.3,2.2
26.0,2.0,0.1,1.2,0.332,0.302,0.7,2.2,0.257,0.3,1.2,0.286,1.0,3.4,0.773,0.6,0.8,29.0,2.0,11.3,0.3,1.3,Cory Alexander,2.8,0.8,1.0,1.4
26.0,0.2,1.0,1.2,0.398,0.402,0.9,2.2,0.0,0.0,0.0,0.398,0.9,2.2,0.463,0.5,1.0,40.0,0.0,8.9,0.8,0.9,Roy Rogers,2.2,0.1,0.3,2.0
29.0,0.5,0.2,1.6,0.433,0.416,1.1,2.5,0.667,0.1,0.1,0.423,1.1,2.6,0.737,0.4,0.5,40.0,1.0,8.3,1.0,1.3,Popeye Jones,2.6,0.1,0.3,2.6
25.0,0.0,0.0,1.0,0.0,0.0,0.0,2.0,0.0,0.0,0.0,0.0,0.0,2.0,0.0,0.0,0.0,1.0,0.0,5.0,0.0,1.0,Johnny Taylor,0.0,0.0,0.0,1.0
