age,ast_per_poss,blk_per_poss,def_rtg,drb_per_poss,fg2_pct,fg2_per_poss,fg2a_per_poss,fg3_pct,fg3_per_poss,fg3a_per_poss,fg_pct,fg_per_poss,fga_per_poss,ft_pct,ft_per_poss,fta_per_poss,g,gs,lg_id,mp,off_rtg,orb_per_poss,pf_per_poss,pos,pts_per_poss,season,stl_per_poss,team_id,tov_per_poss,trb_per_poss
23.0,6.1,0.0,101.0,2.8,0.381,5.9,15.5,0.0,0.0,0.0,0.381,5.9,15.5,0.6,2.2,3.7,76.0,0.0,NBA,1098.0,87.0,2.0,3.9,PG,14.0,1978,2.4,GSW,3.3,4.8
24.0,6.5,0.1,106.0,2.6,0.379,7.0,18.4,0.0,0.0,0.0,0.379,7.0,18.4,0.672,4.7,7.0,27.0,0.0,NBA,431.0,88.0,1.6,3.8,PG,18.6,1979,2.6,DET,4.6,4.2
26.0,8.8,0.0,109.0,3.2,0.482,6.6,13.7,0.0,0.0,0.0,0.481,6.6,13.8,0.722,2.6,3.6,47.0,0.0,NBA,1307.0,105.0,1.1,4.6,PG,15.9,1981,2.8,UTA,3.1,4.4
27.0,10.3,0.1,111.0,2.6,0.497,8.2,16.5,0.0,0.0,0.1,0.493,8.2,16.6,0.765,3.3,4.3,81.0,73.0,NBA,2822.0,111.0,1.4,3.0,PG,19.7,1982,3.0,UTA,3.2,4.0
28.0,11.2,0.1,105.0,2.6,0.497,7.4,14.9,0.154,0.0,0.2,0.493,7.5,15.1,0.797,3.0,3.7,78.0,78.0,NBA,2783.0,108.0,1.0,2.5,PG,17.9,1983,3.5,UTA,3.6,3.6
29.0,12.4,0.2,107.0,2.9,0.493,7.2,14.7,0.118,0.0,0.3,0.486,7.3,14.9,0.821,3.2,3.9,81.0,81.0,NBA,2768.0,115.0,0.9,2.6,PG,17.7,1984,3.6,UTA,2.8,3.8
30.0,11.2,0.1,105.0,2.9,0.482,7.0,14.6,0.3,0.1,0.4,0.477,7.2,15.0,0.869,4.4,5.0,77.0,77.0,NBA,2431.0,112.0,0.7,2.5,PG,18.8,1985,2.5,UTA,3.3,3.5
31.0,9.5,0.1,107.0,2.4,0.483,8.1,16.8,0.172,0.1,0.7,0.471,8.2,17.5,0.852,4.9,5.8,80.0,44.0,NBA,2012.0,111.0,0.7,3.0,PG,21.5,1986,2.4,UTA,3.0,3.1
32.0,12.0,0.0,107.0,2.8,0.47,6.5,13.9,0.368,0.2,0.4,0.467,6.7,14.3,0.827,3.8,4.6,81.0,80.0,NBA,2090.0,113.0,0.8,2.4,PG,17.4,1987,2.4,UTA,3.0,3.6
33.0,12.7,0.0,106.0,2.8,0.436,6.5,14.9,0.211,0.2,0.8,0.424,6.7,15.7,0.904,3.2,3.5,81.0,3.0,NBA,1116.0,102.0,0.6,3.5,PG,16.6,1988,2.4,UTA,4.0,3.4
34.0,10.4,0.1,111.0,3.2,0.498,7.0,14.0,0.273,0.2,0.6,0.489,7.2,14.7,0.909,1.7,1.8,63.0,2.0,NBA,871.0,106.0,0.6,1.9,PG,16.2,1989,2.2,TOT,3.4,3.8
34.0,10.6,0.0,114.0,2.5,0.441,7.2,16.4,0.2,0.1,0.6,0.432,7.4,17.1,0.929,1.7,1.8,33.0,2.0,NBA,370.0,97.0,0.5,2.1,PG,16.6,1989,2.3,CHH,3.6,3.0
34.0,10.2,0.2,108.0,3.8,0.556,6.8,12.2,0.333,0.2,0.6,0.545,7.0,12.8,0.895,1.7,1.8,30.0,0.0,NBA,501.0,114.0,0.7,1.8,PG,15.8,1989,2.1,MIL,3.2,4.5
35.0,9.7,0.1,112.0,2.4,0.45,5.3,11.7,0.091,0.1,0.6,0.433,5.3,12.3,0.843,2.3,2.7,69.0,0.0,NBA,927.0,101.0,0.5,3.2,PG,13.0,1990,2.7,IND,3.3,2.9
36.0,9.2,0.1,113.0,2.3,0.475,7.3,15.3,0.222,0.2,0.8,0.463,7.5,16.1,0.83,2.6,3.1,79.0,75.0,NBA,2248.0,109.0,0.7,2.9,PG,17.7,1991,1.3,PHI,2.4,3.1
37.0,9.3,0.1,109.0,2.9,0.455,6.1,13.5,0.25,0.1,0.5,0.447,6.3,14.1,0.722,1.8,2.5,26.0,0.0,NBA,367.0,105.0,0.4,3.8,PG,14.5,1992,2.3,BOS,2.5,3.3
