age,ast,blk,drb,efg_pct,fg,fg2,fg2_pct,fg2a,fg3,fg3_pct,fg3a,fg_pct,fga,ft,ft_pct,fta,g,gs,lg_id,mp,orb,pf,pos,pts,season,stl,team_id,tov,trb
22.0,45.0,1.0,20.0,0.315,18.0,15.0,0.313,48.0,3.0,0.214,14.0,0.29,62.0,10.0,0.833,12.0,13.0,0.0,NBA,205.0,6.0,18.0,PG,49.0,1987,5.0,MIL,21.0,26.0
23.0,180.0,3.0,55.0,0.426,86.0,80.0,0.423,189.0,6.0,0.3,20.0,0.411,209.0,45.0,0.833,54.0,51.0,2.0,NBA,760.0,11.0,97.0,PG,223.0,1988,22.0,IND,76.0,66.0
24.0,390.0,2.0,128.0,0.471,198.0,178.0,0.485,367.0,20.0,0.267,75.0,0.448,442.0,130.0,0.903,144.0,80.0,13.0,NBA,1571.0,21.0,151.0,PG,546.0,1989,64.0,IND,177.0,149.0
25.0,334.0,4.0,136.0,0.466,190.0,138.0,0.416,332.0,52.0,0.394,132.0,0.409,464.0,104.0,0.874,119.0,70.0,32.0,NBA,1460.0,23.0,126.0,PG,536.0,1990,36.0,ORL,90.0,159.0
26.0,660.0,4.0,213.0,0.489,462.0,369.0,0.455,811.0,93.0,0.408,228.0,0.445,1039.0,340.0,0.902,377.0,79.0,66.0,NBA,2714.0,57.0,192.0,PG,1357.0,1991,89.0,ORL,252.0,270.0
27.0,544.0,5.0,166.0,0.466,359.0,268.0,0.434,618.0,91.0,0.364,250.0,0.414,868.0,248.0,0.895,277.0,75.0,63.0,NBA,2377.0,36.0,188.0,PG,1057.0,1992,74.0,ORL,233.0,202.0
28.0,735.0,2.0,238.0,0.512,416.0,336.0,0.512,656.0,80.0,0.34,235.0,0.467,891.0,289.0,0.892,324.0,78.0,78.0,NBA,3086.0,52.0,244.0,PG,1201.0,1993,86.0,ORL,267.0,290.0
29.0,503.0,2.0,147.0,0.481,276.0,208.0,0.434,479.0,68.0,0.412,165.0,0.429,644.0,195.0,0.878,222.0,82.0,46.0,NBA,2303.0,42.0,171.0,PG,815.0,1994,47.0,ORL,193.0,189.0
30.0,452.0,6.0,133.0,0.537,265.0,169.0,0.476,355.0,96.0,0.421,228.0,0.455,583.0,179.0,0.886,202.0,62.0,62.0,NBA,2077.0,26.0,135.0,PG,805.0,1995,70.0,WSB,172.0,159.0
31.0,38.0,0.0,15.0,0.482,20.0,5.0,0.217,23.0,15.0,0.441,34.0,0.351,57.0,8.0,0.8,10.0,10.0,9.0,NBA,236.0,1.0,21.0,PG,63.0,1996,7.0,PHI,16.0,16.0
