age,ast,blk,drb,fg,fg2,fg2a,fg3,fg3a,fga,ft,fta,game_score,lg_id,mp,orb,pf,pts,season,stl,team_id,tov,trb
23.0,3.0,0.0,3.0,5.0,5.0,7.0,1.0,2.0,7.0,4.0,6.0,13.3,NBA,22,1.0,2.0,14.0,2006,2.0,GSW,2.0,4.0
26.0,11.0,1.0,5.0,10.0,10.0,18.0,2.0,3.0,19.0,14.0,16.0,30.0,NBA,45,2.0,6.0,32.0,2009,3.0,DET,5.0,6.0
27.0,20.0,2.0,7.0,11.0,10.0,16.0,2.0,4.0,17.0,9.0,14.0,23.3,NBA,42,3.0,5.0,27.0,2010,4.0,DET,7.0,8.0
28.0,10.0,2.0,5.0,12.0,11.0,22.0,2.0,5.0,24.0,8.0,9.0,19.1,NBA,49,2.0,6.0,29.0,2011,4.0,DET,5.0,5.0
29.0,6.0,2.0,4.0,8.0,8.0,13.0,1.0,3.0,15.0,6.0,9.0,14.3,NBA,28,2.0,4.0,20.0,2012,2.0,DET,4.0,6.0
30.0,12.0,1.0,3.0,13.0,10.0,20.0,4.0,6.0,26.0,9.0,11.0,23.2,NBA,37,3.0,5.0,31.0,2013,3.0,DET,6.0,5.0
31.0,10.0,2.0,7.0,9.0,9.0,18.0,2.0,4.0,18.0,10.0,12.0,15.0,NBA,39,3.0,5.0,19.0,2014,3.0,DET,5.0,8.0
32.0,8.0,1.0,2.0,5.0,5.0,10.0,0.0,5.0,15.0,1.0,2.0,9.3,NBA,21,2.0,3.0,11.0,2015,1.0,WAS,4.0,4.0
