age,ast,blk,drb,efg_pct,fg,fg2,fg2_pct,fg2a,fg3,fg3_pct,fg3a,fg_pct,fga,ft,ft_pct,fta,g,gs,lg_id,mp,orb,pf,pos,pts,season,stl,team_id,tov,trb
26.0,10.0,0.0,5.0,0.474,18.0,17.0,0.486,35.0,1.0,0.25,4.0,0.462,39.0,10.0,1.0,10.0,4.0,0.0,NBA,78.0,1.0,9.0,PG,47.0,2009,5.0,DET,8.0,6.0
32.0,3.0,1.0,1.0,0.536,7.0,6.0,0.5,12.0,1.0,0.5,2.0,0.5,14.0,4.0,0.8,5.0,3.0,0.0,NBA,31.0,2.0,6.0,SG,19.0,2015,2.0,WAS,5.0,3.0
