age,ast_per_g,blk_per_g,drb_per_g,efg_pct,fg2_pct,fg2_per_g,fg2a_per_g,fg3_pct,fg3_per_g,fg3a_per_g,fg_pct,fg_per_g,fga_per_g,ft_pct,ft_per_g,fta_per_g,g,gs,lg_id,mp_per_g,orb_per_g,pf_per_g,pos,pts_per_g,season,stl_per_g,team_id,tov_per_g,trb_per_g
26.0,2.5,0.0,1.3,0.474,0.486,4.3,8.8,0.25,0.3,1.0,0.462,4.5,9.8,1.0,2.5,2.5,4.0,0.0,NBA,19.5,0.3,2.3,PG,11.8,2009,1.3,DET,2.0,1.5
32.0,1.0,0.3,0.3,0.536,0.5,2.0,4.0,0.5,0.3,0.7,0.5,2.3,4.7,0.8,1.3,1.7,3.0,0.0,NBA,10.3,0.7,2.0,SG,6.3,2015,0.7,WAS,1.7,1.0
