age,ast_per_poss,blk_per_poss,def_rtg,drb_per_poss,fg2_pct,fg2_per_poss,fg2a_per_poss,fg3_pct,fg3_per_poss,fg3a_per_poss,fg_pct,fg_per_poss,fga_per_poss,ft_pct,ft_per_poss,fta_per_poss,g,gs,lg_id,mp,off_rtg,orb_per_poss,pf_per_poss,pos,pts_per_poss,season,stl_per_poss,team_id,tov_per_poss,trb_per_poss
23.0,6.0,0.0,108.0,2.9,0.442,6.0,13.7,0.222,0.6,2.9,0.404,6.7,16.5,0.625,3.2,5.1,15.0,0.0,NBA,162.0,88.0,1.0,3.2,PG,17.2,2006,2.2,GSW,4.4,3.8
26.0,10.8,0.1,109.0,3.9,0.474,10.5,22.3,0.158,0.2,1.3,0.456,10.8,23.6,0.798,6.5,8.2,57.0,1.0,NBA,803.0,103.0,1.3,5.9,PG,28.3,2009,2.3,DET,5.2,5.2
27.0,9.2,0.2,113.0,3.8,0.47,7.3,15.6,0.218,0.4,1.8,0.444,7.7,17.4,0.798,4.6,5.8,63.0,20.0,NBA,1667.0,105.0,0.8,4.7,PG,20.4,2010,1.8,DET,3.7,4.6
28.0,9.3,0.2,113.0,2.8,0.466,7.9,17.0,0.32,0.8,2.4,0.448,8.7,19.4,0.836,4.9,5.8,61.0,5.0,NBA,1125.0,106.0,0.7,5.4,PG,23.1,2011,2.5,DET,4.0,3.5
29.0,6.9,0.3,106.0,4.8,0.406,7.0,17.3,0.241,0.7,3.0,0.381,7.7,20.3,0.766,5.1,6.7,36.0,0.0,NBA,514.0,88.0,1.0,6.4,PG,21.3,2012,2.4,DET,5.7,5.9
30.0,10.0,0.2,111.0,3.0,0.494,9.9,20.1,0.316,1.0,3.3,0.469,11.0,23.4,0.809,4.6,5.7,65.0,0.0,NBA,1219.0,103.0,1.2,5.5,PG,27.6,2013,2.0,DET,5.4,4.2
31.0,10.4,0.3,112.0,3.6,0.446,7.9,17.7,0.323,1.0,3.0,0.428,8.8,20.6,0.802,4.7,5.8,56.0,3.0,NBA,1054.0,102.0,1.2,5.8,PG,23.3,2014,1.9,DET,4.9,4.7
32.0,13.8,0.8,107.0,3.1,0.455,7.6,16.8,0.0,0.0,6.9,0.323,7.6,23.7,0.5,1.5,3.1,7.0,0.0,NBA,67.0,77.0,1.5,6.9,SG,16.8,2015,0.8,WAS,6.1,4.6
