age,ast,blk,drb,efg_pct,fg,fg2,fg2_pct,fg2a,fg3,fg3_pct,fg3a,fg_pct,fga,ft,ft_pct,fta,g,gs,lg_id,mp,orb,pf,pos,pts,season,stl,team_id,tov,trb
22.0,126.0,30.0,147.0,0.481,241.0,218.0,0.479,455.0,23.0,0.329,70.0,0.459,525.0,139.0,0.755,184.0,81.0,5.0,NBA,1535.0,73.0,230.0,SF,644.0,1992,78.0,BOS,123.0,220.0
23.0,113.0,21.0,104.0,0.489,184.0,180.0,0.504,357.0,4.0,0.174,23.0,0.484,380.0,81.0,0.802,101.0,71.0,14.0,NBA,1082.0,55.0,133.0,SF,453.0,1993,61.0,BOS,77.0,159.0
24.0,217.0,52.0,250.0,0.49,340.0,307.0,0.489,628.0,33.0,0.33,100.0,0.467,728.0,174.0,0.757,230.0,82.0,53.0,NBA,2096.0,105.0,244.0,SF,887.0,1994,81.0,BOS,158.0,355.0
25.0,139.0,19.0,94.0,0.526,169.0,138.0,0.5,276.0,31.0,0.413,75.0,0.481,351.0,95.0,0.772,123.0,53.0,7.0,NBA,1039.0,61.0,154.0,SF,464.0,1995,52.0,BOS,78.0,155.0
26.0,369.0,41.0,292.0,0.507,421.0,322.0,0.491,656.0,99.0,0.364,272.0,0.454,928.0,196.0,0.772,254.0,81.0,81.0,NBA,2588.0,158.0,290.0,SF,1137.0,1996,113.0,BOS,216.0,450.0
27.0,286.0,40.0,280.0,0.509,433.0,332.0,0.494,672.0,101.0,0.363,278.0,0.456,950.0,207.0,0.787,263.0,76.0,75.0,NBA,2650.0,114.0,279.0,SF,1174.0,1997,167.0,BOS,178.0,394.0
28.0,276.0,48.0,280.0,0.527,363.0,277.0,0.547,506.0,86.0,0.325,265.0,0.471,771.0,171.0,0.743,230.0,82.0,82.0,NBA,2709.0,78.0,309.0,SF,983.0,1998,100.0,LAL,201.0,358.0
29.0,89.0,10.0,63.0,0.497,148.0,116.0,0.494,235.0,32.0,0.337,95.0,0.448,330.0,66.0,0.742,89.0,44.0,1.0,NBA,944.0,26.0,114.0,SF,394.0,1999,28.0,LAL,56.0,89.0
30.0,138.0,26.0,135.0,0.473,206.0,147.0,0.464,317.0,59.0,0.326,181.0,0.414,498.0,63.0,0.808,78.0,82.0,1.0,NBA,1473.0,63.0,203.0,SF,534.0,2000,52.0,LAL,87.0,198.0
31.0,262.0,29.0,245.0,0.536,287.0,169.0,0.488,346.0,118.0,0.393,300.0,0.444,646.0,95.0,0.779,122.0,82.0,77.0,NBA,2291.0,80.0,225.0,SF,787.0,2001,70.0,LAL,136.0,325.0
32.0,283.0,21.0,299.0,0.475,255.0,190.0,0.479,397.0,65.0,0.313,208.0,0.421,605.0,70.0,0.824,85.0,82.0,82.0,NBA,2289.0,90.0,244.0,SF,645.0,2002,67.0,LAL,132.0,389.0
33.0,253.0,14.0,259.0,0.506,262.0,157.0,0.46,341.0,105.0,0.375,280.0,0.422,621.0,52.0,0.754,69.0,76.0,75.0,NBA,2181.0,64.0,215.0,SF,681.0,2003,69.0,LAL,121.0,323.0
34.0,98.0,4.0,73.0,0.433,73.0,58.0,0.464,125.0,15.0,0.246,61.0,0.392,186.0,22.0,0.733,30.0,38.0,34.0,NBA,846.0,29.0,99.0,SF,183.0,2004,29.0,LAL,48.0,102.0
