article_url,date,headline
https://lakeshowlife.com/2019/09/13/los-angeles-lakers-5-players-will-x-factors/,2019/09/13,Lake Show Life: Los Angeles Lakers: 5 Players who will be X-Factors
https://lakeshowlife.com/2019/09/02/los-angeles-lakers-4-ways-jared-dudley-underrated-role-player/,2019/09/02,Lake Show Life: Los Angeles Lakers: 4 reasons Jared Dudley will be an underrated role player
https://sircharlesincharge.com/2019/08/28/kobe-bryant-shaq-goat-better-work-ethic/,2019/08/28,Sir Charles In Charge: Kobe Bryant: Shaq would've been the GOAT if he had a better work ethic
https://lakeshowlife.com/2019/08/27/los-angeles-lakers-3-role-players-must-deliver-win-title/,2019/08/27,Lake Show Life: Los Angeles Lakers: 3 Role players who must deliver to win a title
https://sircharlesincharge.com/2019/06/03/toronto-raptors-canada-winners/,2019/06/03,Sir Charles In Charge: Basketball fans in Canada are already winners
