age,ast_per_mp,blk_per_mp,drb_per_mp,fg2_pct,fg2_per_mp,fg2a_per_mp,fg3_pct,fg3_per_mp,fg3a_per_mp,fg_pct,fg_per_mp,fga_per_mp,ft_pct,ft_per_mp,fta_per_mp,g,gs,lg_id,mp,orb_per_mp,pf_per_mp,pos,pts_per_mp,season,stl_per_mp,team_id,tov_per_mp,trb_per_mp
22.0,2.4,0.3,5.3,0.497,9.8,19.8,0.25,0.0,0.1,0.497,9.9,19.9,0.716,4.0,5.6,81.0,62.0,NBA,2626.0,2.5,4.2,PF,23.7,1982,1.2,DAL,2.7,7.7
23.0,2.8,0.6,5.0,0.49,8.2,16.8,0.0,0.0,0.0,0.489,8.2,16.8,0.784,3.6,4.5,81.0,73.0,NBA,2726.0,2.9,3.9,PF,20.0,1983,0.9,DAL,2.5,7.8
24.0,2.9,0.3,4.2,0.436,6.4,14.6,0.0,0.0,0.0,0.435,6.4,14.7,0.781,4.3,5.4,61.0,5.0,NBA,1421.0,2.1,4.0,SF,17.0,1984,0.8,DAL,2.9,6.3
25.0,2.4,0.3,7.3,0.481,7.7,16.1,0.0,0.0,0.1,0.479,7.7,16.1,0.836,5.0,5.9,79.0,47.0,NBA,2543.0,2.6,3.2,PF,20.4,1985,0.7,DAL,2.4,10.0
26.0,3.2,0.4,4.7,0.483,8.0,16.5,0.0,0.0,0.1,0.481,8.0,16.6,0.81,4.0,4.9,80.0,3.0,NBA,1994.0,1.9,3.5,PF,20.0,1986,1.2,DAL,2.6,6.6
27.0,2.2,0.4,3.7,0.449,7.1,15.8,0.0,0.0,0.1,0.447,7.1,15.9,0.769,3.4,4.4,51.0,17.0,NBA,1386.0,1.8,3.3,SF,17.6,1987,1.0,WSB,2.0,5.5
28.0,2.9,0.5,4.7,0.466,9.1,19.6,0.25,0.0,0.1,0.466,9.1,19.7,0.805,4.7,5.9,73.0,8.0,NBA,1755.0,1.6,4.1,SF,23.1,1988,0.9,DEN,2.8,6.3
29.0,1.5,0.2,4.0,0.406,5.7,14.2,0.333,0.1,0.2,0.405,5.8,14.3,0.667,2.2,3.3,29.0,4.0,NBA,646.0,2.1,3.5,SF,13.9,1989,0.3,TOT,2.3,6.1
29.0,1.9,0.4,6.1,0.333,4.5,13.6,0.5,0.4,0.8,0.342,4.9,14.4,0.556,1.9,3.4,5.0,1.0,NBA,95.0,0.8,4.2,SF,12.1,1989,0.4,DEN,1.9,6.8
29.0,1.4,0.2,3.7,0.417,5.9,14.2,0.0,0.0,0.1,0.416,5.9,14.3,0.686,2.3,3.3,24.0,3.0,NBA,551.0,2.4,3.4,SF,14.2,1989,0.3,SAS,2.4,6.0
30.0,1.4,0.4,3.3,0.47,6.7,14.2,0.5,0.1,0.2,0.47,6.7,14.4,0.837,3.2,3.8,41.0,6.0,NBA,459.0,1.6,4.1,SF,16.8,1990,1.4,TOT,2.6,4.9
30.0,1.1,0.3,3.2,0.423,6.1,14.5,1.0,0.1,0.1,0.429,6.3,14.6,0.892,4.6,5.1,17.0,5.0,NBA,259.0,1.8,3.2,SF,17.2,1990,1.4,PHI,1.9,5.0
30.0,1.8,0.5,3.4,0.532,7.4,13.9,0.0,0.0,0.2,0.526,7.4,14.0,0.667,1.4,2.2,24.0,1.0,NBA,200.0,1.3,5.2,SF,16.2,1990,1.4,LAL,3.4,4.7
