age,ast_per_poss,blk_per_poss,def_rtg,drb_per_poss,fg2_pct,fg2_per_poss,fg2a_per_poss,fg3_pct,fg3_per_poss,fg3a_per_poss,fg_pct,fg_per_poss,fga_per_poss,ft_pct,ft_per_poss,fta_per_poss,g,gs,lg_id,mp,off_rtg,orb_per_poss,pf_per_poss,pos,pts_per_poss,season,stl_per_poss,team_id,tov_per_poss,trb_per_poss
22.0,3.3,0.4,109.0,7.1,0.497,13.3,26.8,0.25,0.0,0.1,0.497,13.3,26.9,0.716,5.4,7.6,81.0,62.0,NBA,2626.0,107.0,3.4,5.7,PF,32.1,1982,1.7,DAL,3.6,10.5
23.0,3.6,0.8,109.0,6.4,0.49,10.7,21.7,0.0,0.0,0.1,0.489,10.7,21.8,0.784,4.6,5.9,81.0,73.0,NBA,2726.0,109.0,3.7,5.1,PF,25.9,1983,1.2,DAL,3.2,10.1
24.0,3.9,0.3,111.0,5.7,0.436,8.6,19.7,0.0,0.0,0.0,0.435,8.6,19.8,0.781,5.7,7.3,61.0,5.0,NBA,1421.0,100.0,2.8,5.4,SF,22.9,1984,1.0,DAL,3.9,8.4
25.0,3.2,0.4,108.0,9.9,0.481,10.4,21.7,0.0,0.0,0.1,0.479,10.4,21.7,0.836,6.7,8.0,79.0,47.0,NBA,2543.0,110.0,3.5,4.3,PF,27.5,1985,0.9,DAL,3.2,13.4
26.0,4.2,0.5,111.0,6.1,0.483,10.4,21.6,0.0,0.0,0.1,0.481,10.4,21.6,0.81,5.2,6.5,80.0,3.0,NBA,1994.0,106.0,2.5,4.5,PF,26.1,1986,1.6,DAL,3.4,8.7
27.0,2.9,0.6,109.0,4.9,0.449,9.5,21.1,0.0,0.0,0.1,0.447,9.5,21.2,0.769,4.5,5.8,51.0,17.0,NBA,1386.0,104.0,2.4,4.4,SF,23.4,1987,1.4,WSB,2.7,7.3
28.0,3.7,0.7,108.0,5.9,0.466,11.5,24.7,0.25,0.0,0.1,0.466,11.6,24.8,0.805,6.0,7.4,73.0,8.0,NBA,1755.0,103.0,2.1,5.1,SF,29.1,1988,1.2,DEN,3.6,8.0
29.0,1.9,0.3,112.0,5.1,0.406,7.3,18.0,0.333,0.1,0.2,0.405,7.4,18.2,0.667,2.8,4.3,29.0,4.0,NBA,646.0,90.0,2.7,4.5,SF,17.7,1989,0.4,TOT,3.0,7.8
29.0,2.3,0.5,109.0,7.5,0.333,5.6,16.9,0.5,0.5,0.9,0.342,6.1,17.9,0.556,2.3,4.2,5.0,1.0,NBA,95.0,80.0,0.9,5.2,SF,15.0,1989,0.5,DEN,2.3,8.5
29.0,1.8,0.3,113.0,4.7,0.417,7.6,18.2,0.0,0.0,0.1,0.416,7.6,18.3,0.686,2.9,4.3,24.0,3.0,NBA,551.0,92.0,3.0,4.3,SF,18.2,1989,0.4,SAS,3.1,7.7
30.0,2.0,0.5,109.0,4.6,0.47,9.2,19.6,0.5,0.1,0.2,0.47,9.3,19.8,0.837,4.4,5.3,41.0,6.0,NBA,459.0,100.0,2.2,5.6,SF,23.2,1990,2.0,TOT,3.6,6.7
30.0,1.5,0.4,110.0,4.4,0.423,8.4,20.0,1.0,0.2,0.2,0.429,8.6,20.2,0.892,6.3,7.1,17.0,5.0,NBA,259.0,105.0,2.5,4.4,SF,23.8,1990,1.9,PHI,2.7,6.9
30.0,2.5,0.7,108.0,4.7,0.532,10.2,19.2,0.0,0.0,0.2,0.526,10.2,19.4,0.667,2.0,3.0,24.0,1.0,NBA,200.0,94.0,1.7,7.2,SF,22.4,1990,2.0,LAL,4.7,6.5
