age,ast_per_g,blk_per_g,drb_per_g,efg_pct,fg2_pct,fg2_per_g,fg2a_per_g,fg3_pct,fg3_per_g,fg3a_per_g,fg_pct,fg_per_g,fga_per_g,ft_pct,ft_per_g,fta_per_g,g,gs,lg_id,mp_per_g,orb_per_g,pf_per_g,pos,pts_per_g,season,stl_per_g,team_id,tov_per_g,trb_per_g
22.0,2.2,0.3,4.7,0.497,0.497,8.9,17.8,0.25,0.0,0.0,0.497,8.9,17.9,0.716,3.6,5.0,81.0,62.0,NBA,32.4,2.2,3.8,PF,21.4,1982,1.1,DAL,2.4,7.0
23.0,2.6,0.6,4.6,0.489,0.49,7.7,15.7,0.0,0.0,0.0,0.489,7.7,15.7,0.784,3.3,4.2,81.0,73.0,NBA,33.7,2.7,3.6,PF,18.7,1983,0.9,DAL,2.3,7.3
24.0,1.9,0.2,2.7,0.435,0.436,4.1,9.5,0.0,0.0,0.0,0.435,4.1,9.5,0.781,2.8,3.5,61.0,5.0,NBA,23.3,1.3,2.6,SF,11.0,1984,0.5,DAL,1.9,4.0
25.0,2.1,0.3,6.6,0.479,0.481,6.9,14.4,0.0,0.0,0.1,0.479,6.9,14.4,0.836,4.4,5.3,79.0,47.0,NBA,32.2,2.3,2.9,PF,18.2,1985,0.6,DAL,2.2,8.9
26.0,2.3,0.3,3.3,0.481,0.483,5.5,11.5,0.0,0.0,0.0,0.481,5.5,11.5,0.81,2.8,3.4,80.0,3.0,NBA,24.9,1.3,2.4,PF,13.8,1986,0.8,DAL,1.8,4.6
27.0,1.7,0.3,2.8,0.447,0.449,5.4,12.0,0.0,0.0,0.1,0.447,5.4,12.0,0.769,2.5,3.3,51.0,17.0,NBA,27.2,1.4,2.5,SF,13.3,1987,0.8,WSB,1.5,4.1
28.0,2.0,0.4,3.1,0.466,0.466,6.1,13.1,0.25,0.0,0.1,0.466,6.1,13.1,0.805,3.2,3.9,73.0,8.0,NBA,24.0,1.1,2.7,SF,15.4,1988,0.6,DEN,1.9,4.2
29.0,0.9,0.1,2.5,0.407,0.406,3.6,8.8,0.333,0.0,0.1,0.405,3.6,8.9,0.667,1.4,2.1,29.0,4.0,NBA,22.3,1.3,2.2,SF,8.6,1989,0.2,TOT,1.4,3.8
29.0,1.0,0.2,3.2,0.355,0.333,2.4,7.2,0.5,0.2,0.4,0.342,2.6,7.6,0.556,1.0,1.8,5.0,1.0,NBA,19.0,0.4,2.2,SF,6.4,1989,0.2,DEN,1.0,3.6
29.0,0.9,0.1,2.3,0.416,0.417,3.8,9.1,0.0,0.0,0.0,0.416,3.8,9.1,0.686,1.5,2.1,24.0,3.0,NBA,23.0,1.5,2.2,SF,9.0,1989,0.2,SAS,1.5,3.8
30.0,0.4,0.1,1.0,0.473,0.47,2.1,4.4,0.5,0.0,0.0,0.47,2.1,4.5,0.837,1.0,1.2,41.0,6.0,NBA,11.2,0.5,1.3,SF,5.2,1990,0.4,TOT,0.8,1.5
30.0,0.5,0.1,1.4,0.433,0.423,2.6,6.1,1.0,0.1,0.1,0.429,2.6,6.2,0.892,1.9,2.2,17.0,5.0,NBA,15.2,0.8,1.4,SF,7.3,1990,0.6,PHI,0.8,2.1
30.0,0.4,0.1,0.8,0.526,0.532,1.7,3.2,0.0,0.0,0.0,0.526,1.7,3.3,0.667,0.3,0.5,24.0,1.0,NBA,8.3,0.3,1.2,SF,3.8,1990,0.3,LAL,0.8,1.1
