age,avg_dist,fg2_dunk,fg2_pct,fg2_pct_ast,fg2a_pct_fga,fg3_heave,fg3_pct,fg3_pct_ast,fg3_pct_corner,fg3a_heave,fg3a_pct_fga,fg_pct,fg_pct_00_03,fg_pct_03_10,fg_pct_10_16,fg_pct_16_xx,g,lg_id,mp,pct_fg2_dunk,pct_fg3a_corner,pct_fga_00_03,pct_fga_03_10,pct_fga_10_16,pct_fga_16_xx,pos,season,team_id
21.0,5.4,2.0,0.429,0.111,0.913,0.0,0.5,1.0,0.0,0.0,0.087,0.435,0.5,0.375,0.0,0.0,19.0,NBA,93.0,0.087,0.0,0.522,0.348,0.043,0.0,SF,2013,BRK
22.0,8.0,3.0,0.591,0.385,0.786,0.0,0.0,0.0,0.0,0.0,0.214,0.464,0.688,0.4,0.0,0.0,26.0,NBA,154.0,0.107,0.167,0.571,0.179,0.0,0.036,SF,2014,TOT
22.0,8.8,2.0,0.611,0.364,0.75,0.0,0.0,0.0,0.0,0.0,0.25,0.458,0.692,0.5,0.0,0.0,17.0,NBA,137.0,0.083,0.167,0.542,0.167,0.0,0.042,SF,2014,BRK
22.0,2.8,1.0,0.5,0.5,1.0,0.0,0.0,0.0,0.0,0.0,0.0,0.5,0.667,0.0,0.0,0.0,9.0,NBA,17.0,0.25,0.0,0.75,0.25,0.0,0.0,SF,2014,CHI
