age,ast,blk,drb,fg,fg2,fg2a,fg3,fg3a,fga,ft,fta,game_score,lg_id,mp,orb,pf,pts,season,stl,team_id,tov,trb
23.0,6.0,2.0,8.0,15.0,11.0,17.0,5.0,9.0,22.0,6.0,7.0,31.4,NBA,46,6.0,5.0,37.0,2009,3.0,GSW,3.0,12.0
24.0,6.0,2.0,8.0,16.0,13.0,16.0,6.0,13.0,23.0,8.0,8.0,29.1,NBA,50,4.0,5.0,35.0,2010,6.0,GSW,5.0,11.0
25.0,4.0,1.0,7.0,11.0,11.0,17.0,5.0,10.0,21.0,8.0,9.0,22.5,NBA,53,4.0,5.0,30.0,2011,3.0,NJN,4.0,7.0
26.0,5.0,1.0,5.0,13.0,7.0,12.0,8.0,11.0,20.0,8.0,8.0,32.0,NBA,41,3.0,5.0,42.0,2012,3.0,NJN,4.0,6.0
27.0,3.0,1.0,4.0,6.0,4.0,9.0,3.0,5.0,11.0,4.0,5.0,13.1,NBA,25,2.0,3.0,17.0,2013,3.0,TOT,1.0,5.0
27.0,3.0,1.0,4.0,6.0,4.0,9.0,3.0,5.0,11.0,4.0,5.0,13.1,NBA,25,2.0,3.0,17.0,2013,3.0,ATL,1.0,5.0
27.0,3.0,0.0,1.0,3.0,3.0,5.0,1.0,2.0,6.0,2.0,2.0,8.4,NBA,14,1.0,2.0,8.0,2013,1.0,DAL,1.0,1.0
28.0,5.0,1.0,6.0,9.0,7.0,12.0,4.0,7.0,17.0,7.0,8.0,22.9,NBA,42,3.0,5.0,27.0,2014,3.0,NOP,3.0,6.0
29.0,3.0,1.0,10.0,11.0,7.0,11.0,6.0,10.0,17.0,8.0,9.0,27.4,NBA,37,6.0,6.0,32.0,2015,3.0,OKC,3.0,11.0
30.0,2.0,1.0,3.0,8.0,5.0,7.0,4.0,8.0,15.0,6.0,6.0,15.2,NBA,34,2.0,3.0,20.0,2016,2.0,OKC,2.0,4.0
31.0,4.0,1.0,2.0,8.0,5.0,7.0,4.0,7.0,12.0,8.0,8.0,16.4,NBA,32,2.0,4.0,21.0,2017,2.0,TOT,1.0,3.0
31.0,4.0,1.0,2.0,8.0,5.0,7.0,4.0,7.0,12.0,4.0,4.0,16.4,NBA,32,2.0,4.0,21.0,2017,2.0,OKC,1.0,3.0
31.0,3.0,0.0,1.0,3.0,2.0,4.0,1.0,3.0,7.0,8.0,8.0,13.6,NBA,22,1.0,2.0,15.0,2017,2.0,CHI,0.0,2.0
