age,ast_per_mp,blk_per_mp,drb_per_mp,fg2_pct,fg2_per_mp,fg2a_per_mp,fg3_pct,fg3_per_mp,fg3a_per_mp,fg_pct,fg_per_mp,fga_per_mp,ft_pct,ft_per_mp,fta_per_mp,g,gs,lg_id,mp,orb_per_mp,pf_per_mp,pos,pts_per_mp,season,stl_per_mp,team_id,tov_per_mp,trb_per_mp
23.0,1.9,0.3,2.9,0.483,4.0,8.3,0.467,2.0,4.4,0.478,6.1,12.7,0.87,1.9,2.2,67.0,17.0,NBA,1515.0,1.9,3.1,SG,16.1,2009,0.9,GSW,1.2,4.7
24.0,1.9,0.3,3.5,0.477,3.4,7.1,0.456,2.5,5.5,0.468,5.9,12.5,0.886,1.8,2.0,69.0,37.0,NBA,2018.0,1.1,2.8,SG,16.0,2010,1.2,GSW,1.5,4.6
25.0,1.3,0.1,2.6,0.469,3.3,7.0,0.423,2.1,5.0,0.45,5.4,12.0,0.897,1.9,2.1,58.0,47.0,NBA,1856.0,0.7,2.6,SG,14.8,2011,0.4,NJN,1.0,3.3
26.0,1.3,0.2,2.1,0.446,3.7,8.2,0.371,2.3,6.3,0.413,6.0,14.5,0.933,2.1,2.3,62.0,18.0,NBA,1636.0,0.7,1.9,SG,16.4,2012,1.0,NJN,1.5,2.8
27.0,1.2,0.1,1.8,0.471,4.5,9.6,0.372,1.5,4.0,0.441,6.0,13.6,0.909,1.9,2.1,41.0,1.0,NBA,383.0,1.0,4.0,SG,15.4,2013,1.2,TOT,0.8,2.8
27.0,1.1,0.1,1.9,0.438,3.8,8.7,0.395,1.8,4.5,0.423,5.6,13.3,0.889,1.9,2.2,24.0,1.0,NBA,301.0,1.2,3.9,SG,15.0,2013,1.4,ATL,0.5,3.1
27.0,1.8,0.0,1.3,0.552,7.0,12.7,0.2,0.4,2.2,0.5,7.5,14.9,1.0,1.8,1.8,17.0,0.0,NBA,82.0,0.4,4.4,SG,17.1,2013,0.4,DAL,1.8,1.8
28.0,1.5,0.3,2.8,0.462,3.8,8.2,0.451,2.2,4.9,0.458,6.0,13.1,0.828,1.8,2.2,76.0,9.0,NBA,1426.0,0.7,2.6,SG,16.1,2014,1.0,NOP,1.3,3.5
29.0,1.2,0.2,3.1,0.497,2.9,5.8,0.434,2.8,6.5,0.463,5.7,12.3,0.888,1.6,1.8,74.0,0.0,NBA,1806.0,0.8,2.7,SG,15.7,2015,1.1,OKC,0.8,3.9
30.0,0.9,0.2,2.0,0.442,2.2,5.0,0.387,3.1,7.9,0.408,5.3,12.9,0.744,1.1,1.5,68.0,6.0,NBA,926.0,0.4,2.5,SG,14.8,2016,0.9,OKC,0.7,2.4
31.0,1.3,0.1,1.0,0.479,2.9,6.0,0.308,2.1,6.7,0.389,4.9,12.7,0.919,1.7,1.9,49.0,7.0,NBA,714.0,0.6,2.2,SG,13.7,2017,1.2,TOT,0.3,1.6
31.0,1.1,0.1,1.0,0.49,2.9,6.0,0.294,2.0,6.8,0.386,4.9,12.8,0.885,1.3,1.5,40.0,7.0,NBA,627.0,0.6,2.3,SG,13.2,2017,1.3,OKC,0.3,1.7
31.0,2.5,0.0,0.4,0.4,2.5,6.2,0.429,2.5,5.8,0.414,5.0,12.0,1.0,4.6,4.6,9.0,0.0,NBA,87.0,0.4,1.7,SG,17.0,2017,0.8,CHI,0.0,0.8
