age,and1s,astd_pts,drawn_offensive,drawn_shooting,fouls_offensive,fouls_shooting,g,lg_id,mp,own_shots_blk,pct_1,pct_2,pct_3,pct_4,pct_5,plus_minus_net,plus_minus_on,pos,season,team_id,tov_bad_pass,tov_lost_ball
20.0,5.0,158.0,6.0,33.0,5.0,43.0,61.0,NBA,1169.0,23.0,51.0,49.0,0.0,0.0,0.0,-5.6,-5.3,PG,2019,NOP,29.0,5.0
21.0,2.0,43.0,2.0,9.0,3.0,11.0,11.0,NBA,204.0,5.0,100.0,0.0,0.0,0.0,0.0,4.4,-1.7,PG,2020,NOP,5.0,5.0
