age,ast_per_g,blk_per_g,drb_per_g,efg_pct,fg2_pct,fg2_per_g,fg2a_per_g,fg3_pct,fg3_per_g,fg3a_per_g,fg_pct,fg_per_g,fga_per_g,ft_pct,ft_per_g,fta_per_g,g,gs,lg_id,mp_per_g,orb_per_g,pf_per_g,pos,pts_per_g,season,stl_per_g,team_id,tov_per_g,trb_per_g
25.0,2.0,0.0,0.7,0.4,0.4,0.7,1.7,0.0,0.0,0.0,0.4,0.7,1.7,1.0,0.7,0.7,3.0,0.0,NBA,9.3,0.3,1.3,SG,2.0,1991,0.0,NYK,2.0,1.0
26.0,3.2,0.0,1.9,0.419,0.455,2.9,6.4,0.239,0.9,3.8,0.374,3.8,10.3,0.808,3.5,4.3,12.0,0.0,NBA,24.6,0.6,3.8,SG,12.1,1992,1.4,NYK,1.8,2.5
27.0,6.4,0.2,3.2,0.51,0.48,4.0,8.3,0.373,1.9,5.0,0.44,5.9,13.3,0.717,2.9,4.0,15.0,15.0,NBA,38.3,0.3,3.8,SG,16.5,1993,1.0,NYK,3.7,3.5
28.0,4.6,0.1,2.0,0.462,0.401,2.5,6.3,0.356,1.9,5.3,0.381,4.4,11.6,0.77,3.9,5.0,25.0,18.0,NBA,33.6,0.4,3.4,SG,14.6,1994,1.4,NYK,2.3,2.3
29.0,5.2,0.1,2.1,0.566,0.5,2.5,5.1,0.411,2.7,6.6,0.45,5.3,11.7,0.619,2.4,3.8,11.0,11.0,NBA,34.5,0.2,3.6,SG,15.6,1995,1.2,NYK,2.4,2.3
30.0,4.1,0.1,3.3,0.569,0.429,2.3,5.3,0.467,2.6,5.6,0.448,4.9,10.9,0.744,3.6,4.9,8.0,8.0,NBA,39.3,0.4,3.3,SG,16.0,1996,1.6,NYK,3.1,3.6
31.0,2.8,0.0,2.7,0.51,0.534,3.4,6.4,0.317,1.4,4.6,0.444,4.9,11.0,0.806,2.8,3.4,9.0,1.0,NBA,28.1,0.8,2.8,SG,14.0,1997,1.1,NYK,2.2,3.4
32.0,2.3,0.1,3.6,0.572,0.515,3.4,6.6,0.424,2.5,5.9,0.472,5.9,12.5,0.875,2.1,2.4,10.0,2.0,NBA,31.4,0.4,3.5,SG,16.4,1998,1.6,NYK,1.1,4.0
35.0,0.3,0.3,1.0,0.375,0.375,1.0,2.7,0.25,0.3,1.3,0.333,1.3,4.0,1.0,0.7,0.7,3.0,0.0,NBA,12.0,0.0,1.7,SG,3.7,2001,0.3,UTA,0.7,1.0
