lg_id,salary,season,team_name
NBA,1660000.0,1991,Denver Nuggets
NBA,2008000.0,1992,Denver Nuggets
NBA,2358000.0,1993,Denver Nuggets
NBA,1825000.0,1994,Denver Nuggets
NBA,2200000.0,1995,Denver Nuggets
NBA,2600000.0,1996,Denver Nuggets
NBA,3100000.0,1997,Sacramento Kings
NBA,3300000.0,1998,Sacramento Kings
NBA,798500.0,2001,Vancouver Grizzlies
