age,ast,blk,drb,fg,fg2,fg2a,fg3,fg3a,fga,ft,fta,game_score,lg_id,mp,orb,pf,pts,season,stl,team_id,tov,trb
24.0,6.0,1.0,4.0,9.0,9.0,19.0,3.0,7.0,21.0,6.0,6.0,15.2,NBA,0.0,1.0,5.0,23.0,1994,1.0,DEN,4.0,4.0
25.0,2.0,0.0,1.0,7.0,6.0,10.0,1.0,5.0,13.0,6.0,6.0,11.2,NBA,0.0,1.0,4.0,21.0,1995,1.0,DEN,5.0,2.0
