age,ast_per_mp,blk_per_mp,drb_per_mp,fg2_pct,fg2_per_mp,fg2a_per_mp,fg3_pct,fg3_per_mp,fg3a_per_mp,fg_pct,fg_per_mp,fga_per_mp,ft_pct,ft_per_mp,fta_per_mp,g,gs,lg_id,mp,orb_per_mp,pf_per_mp,pos,pts_per_mp,season,stl_per_mp,team_id,tov_per_mp,trb_per_mp
24.0,3.2,0.1,1.6,0.385,4.8,12.4,0.324,1.3,3.9,0.37,6.1,16.4,0.935,3.1,3.3,12.0,12.0,NBA,339.0,0.3,3.1,PG,16.5,1994,0.5,DEN,1.5,1.9
25.0,2.4,0.0,1.4,0.476,4.7,9.9,0.167,0.9,5.7,0.364,5.7,15.6,1.0,6.6,6.6,3.0,2.0,NBA,76.0,0.9,3.8,PG,18.9,1995,0.9,DEN,3.8,2.4
