age,ast,blk,drb,fg,fg2,fg2a,fg3,fg3a,fga,ft,fta,game_score,lg_id,mp,orb,pf,pts,season,stl,team_id,tov,trb
23.0,2.0,2.0,8.0,4.0,3.0,8.0,1.0,2.0,9.0,5.0,6.0,11.4,NBA,0.0,6.0,5.0,11.0,2004,4.0,DAL,4.0,14.0
24.0,4.0,4.0,11.0,13.0,13.0,19.0,2.0,3.0,21.0,9.0,10.0,21.7,NBA,0.0,6.0,6.0,29.0,2005,2.0,DAL,5.0,14.0
25.0,4.0,2.0,12.0,10.0,8.0,17.0,3.0,5.0,22.0,11.0,11.0,23.9,NBA,51.0,5.0,6.0,29.0,2006,4.0,DAL,5.0,15.0
26.0,5.0,2.0,9.0,10.0,10.0,17.0,3.0,7.0,21.0,6.0,7.0,24.1,NBA,47.0,4.0,5.0,23.0,2007,5.0,DAL,3.0,13.0
27.0,2.0,1.0,7.0,6.0,6.0,14.0,1.0,3.0,16.0,8.0,10.0,11.0,NBA,44.0,4.0,4.0,18.0,2008,1.0,DAL,4.0,9.0
28.0,3.0,2.0,8.0,9.0,7.0,14.0,3.0,6.0,18.0,11.0,13.0,19.3,NBA,37.0,3.0,5.0,28.0,2009,3.0,DAL,4.0,11.0
31.0,1.0,1.0,3.0,3.0,3.0,9.0,1.0,1.0,9.0,4.0,5.0,9.2,NBA,25.0,2.0,1.0,10.0,2012,1.0,UTA,2.0,5.0
