age,ast,blk,drb,fg,fg2,fg2a,fg3,fg3a,fga,ft,fta,game_score,lg_id,mp,orb,pf,pts,season,stl,team_id,tov,trb
23.0,5.0,3.0,11.0,8.0,8.0,14.0,2.0,5.0,16.0,8.0,10.0,18.7,NBA,0.0,8.0,6.0,19.0,2004,4.0,DAL,5.0,14.0
24.0,4.0,6.0,10.0,11.0,10.0,17.0,3.0,5.0,18.0,12.0,13.0,29.9,NBA,0.0,7.0,6.0,30.0,2005,6.0,DAL,4.0,16.0
25.0,6.0,5.0,13.0,11.0,11.0,18.0,2.0,4.0,19.0,9.0,13.0,25.5,NBA,51.0,6.0,6.0,29.0,2006,4.0,DAL,4.0,18.0
26.0,5.0,3.0,13.0,12.0,11.0,22.0,4.0,7.0,24.0,9.0,9.0,28.5,NBA,46.0,6.0,6.0,30.0,2007,4.0,DAL,6.0,17.0
27.0,6.0,2.0,12.0,14.0,14.0,24.0,4.0,8.0,27.0,15.0,17.0,43.4,NBA,45.0,6.0,6.0,47.0,2008,4.0,DAL,5.0,14.0
28.0,7.0,3.0,11.0,12.0,11.0,21.0,5.0,8.0,24.0,10.0,14.0,25.8,NBA,46.0,6.0,6.0,31.0,2009,7.0,DAL,4.0,14.0
29.0,4.0,1.0,7.0,9.0,8.0,14.0,3.0,6.0,17.0,10.0,12.0,17.7,NBA,41.0,3.0,5.0,25.0,2010,3.0,TOT,5.0,9.0
29.0,4.0,1.0,7.0,9.0,8.0,14.0,3.0,6.0,16.0,10.0,12.0,17.7,NBA,41.0,3.0,4.0,25.0,2010,3.0,DAL,5.0,9.0
29.0,4.0,1.0,4.0,8.0,7.0,13.0,1.0,4.0,17.0,6.0,8.0,15.5,NBA,34.0,3.0,5.0,20.0,2010,3.0,WAS,2.0,7.0
30.0,3.0,2.0,7.0,7.0,7.0,15.0,3.0,6.0,16.0,5.0,6.0,13.5,NBA,37.0,2.0,6.0,16.0,2011,3.0,WAS,2.0,7.0
31.0,4.0,1.0,7.0,8.0,7.0,15.0,2.0,3.0,16.0,7.0,8.0,17.0,NBA,41.0,4.0,6.0,19.0,2012,3.0,UTA,4.0,9.0
32.0,2.0,2.0,8.0,7.0,5.0,11.0,2.0,3.0,14.0,2.0,2.0,9.6,NBA,34.0,2.0,5.0,16.0,2013,3.0,MIN,4.0,10.0
