age,ast,ast_per_g,blk,college_id,fg,fg3,fg3_pct,fg3a,fg_pct,fga,ft,ft_pct,fta,g,mp,mp_per_g,orb,pf,pts,pts_per_g,season,stl,tov,trb,trb_per_g
19.0,64.0,1.8,33.0,WAKE,128.0,12.0,0.286,42.0,0.46,278.0,63.0,0.583,108.0,36.0,896.0,24.9,0.0,103.0,331.0,9.2,2000,44.0,61.0,168.0,4.7
20.0,52.0,1.8,32.0,WAKE,143.0,18.0,0.391,46.0,0.49,292.0,89.0,0.685,130.0,29.0,790.0,27.2,0.0,91.0,393.0,13.6,2001,58.0,65.0,171.0,5.9
21.0,64.0,2.1,30.0,WAKE,170.0,26.0,0.329,79.0,0.504,337.0,65.0,0.657,99.0,31.0,848.0,27.4,0.0,90.0,431.0,13.9,2002,49.0,67.0,240.0,7.7
22.0,59.0,1.9,48.0,WAKE,204.0,53.0,0.373,142.0,0.477,428.0,145.0,0.833,174.0,31.0,1002.0,32.3,0.0,89.0,606.0,19.5,2003,64.0,82.0,257.0,8.3
