age,ast,ast_per_g,blk,college_id,fg,fg3,fg3_pct,fg3a,fg_pct,fga,ft,ft_pct,fta,g,mp,mp_per_g,orb,pf,pts,pts_per_g,season,stl,tov,trb,trb_per_g
18.0,42.0,1.6,6.0,ULALA,179.0,12.0,0.353,34.0,0.565,317.0,83.0,0.761,109.0,27.0,998.0,37.0,0.0,56.0,453.0,16.8,1988,18.0,52.0,170.0,6.3
19.0,48.0,1.7,8.0,ULALA,218.0,36.0,0.383,94.0,0.522,418.0,128.0,0.753,170.0,29.0,1097.0,37.8,0.0,62.0,600.0,20.7,1989,16.0,91.0,158.0,5.4
20.0,61.0,2.1,18.0,ULALA,225.0,40.0,0.404,99.0,0.499,451.0,93.0,0.816,114.0,29.0,1117.0,38.5,0.0,51.0,583.0,20.1,1990,14.0,53.0,204.0,7.0
21.0,22.0,0.7,12.0,ULALA,261.0,59.0,0.447,132.0,0.515,507.0,77.0,0.778,99.0,31.0,1121.0,36.2,0.0,48.0,658.0,21.2,1991,24.0,74.0,187.0,6.0
