age,ast,blk,drb,fg,fg2,fg2a,fg3,fg3a,fga,ft,fta,game_score,lg_id,mp,orb,pf,pts,season,stl,team_id,tov,trb
26.0,5.0,2.0,3.0,12.0,9.0,12.0,5.0,10.0,21.0,2.0,2.0,22.1,NBA,39,1.0,4.0,29.0,2015,1.0,NOP,5.0,4.0
28.0,4.0,2.0,6.0,8.0,5.0,8.0,6.0,9.0,14.0,4.0,5.0,16.9,NBA,44,2.0,3.0,22.0,2017,2.0,HOU,2.0,8.0
29.0,6.0,2.0,5.0,9.0,7.0,10.0,6.0,12.0,22.0,9.0,10.0,23.7,NBA,40,2.0,4.0,27.0,2018,2.0,HOU,5.0,6.0
30.0,4.0,2.0,4.0,11.0,6.0,8.0,7.0,14.0,20.0,6.0,6.0,17.9,NBA,46,2.0,4.0,30.0,2019,2.0,HOU,5.0,5.0
