age,ast_per_g,blk_per_g,drb_per_g,efg_pct,fg2_pct,fg2_per_g,fg2a_per_g,fg3_pct,fg3_per_g,fg3a_per_g,fg_pct,fg_per_g,fga_per_g,ft_pct,ft_per_g,fta_per_g,g,gs,lg_id,mp_per_g,orb_per_g,pf_per_g,pos,pts_per_g,season,stl_per_g,team_id,tov_per_g,trb_per_g
23.0,1.2,0.0,1.7,0.498,0.442,2.0,4.5,0.38,1.3,3.5,0.415,3.3,8.1,0.9,1.6,1.8,61.0,1.0,NBA,20.3,0.2,1.9,SG,9.7,2006,0.4,ATL,1.3,1.9
24.0,1.0,0.0,1.1,0.482,0.448,2.0,4.4,0.361,0.9,2.5,0.416,2.9,7.0,0.897,1.0,1.1,61.0,0.0,NBA,17.0,0.1,1.4,SG,7.7,2007,0.3,ATL,0.9,1.2
25.0,0.8,0.1,0.6,0.442,0.379,1.0,2.7,0.341,0.8,2.4,0.361,1.9,5.1,0.82,1.2,1.4,35.0,0.0,NBA,11.5,0.1,1.0,PG,5.7,2008,0.2,ATL,0.6,0.7
