age,avg_dist,fg2_dunk,fg2_pct,fg2_pct_ast,fg2a_pct_fga,fg3_heave,fg3_pct,fg3_pct_ast,fg3_pct_corner,fg3a_heave,fg3a_pct_fga,fg_pct,fg_pct_00_03,fg_pct_03_10,fg_pct_10_16,fg_pct_16_xx,g,lg_id,mp,pct_fg2_dunk,pct_fg3a_corner,pct_fga_00_03,pct_fga_03_10,pct_fga_10_16,pct_fga_16_xx,pos,season,team_id
23.0,18.0,4.0,0.442,0.385,0.561,0.0,0.38,0.768,0.321,1.0,0.439,0.415,0.486,0.355,0.395,0.453,61.0,NBA,1236.0,0.01,0.13,0.15,0.063,0.087,0.26,SG,2006,ATL
24.0,18.5,2.0,0.448,0.537,0.635,0.0,0.361,0.893,0.5,1.0,0.365,0.416,0.586,0.636,0.458,0.39,61.0,NBA,1034.0,0.007,0.168,0.136,0.026,0.056,0.416,SG,2007,ATL
25.0,20.3,0.0,0.379,0.611,0.528,0.0,0.341,0.828,0.4,1.0,0.472,0.361,0.5,0.333,0.2,0.377,35.0,NBA,402.0,0.0,0.118,0.1,0.033,0.056,0.339,PG,2008,ATL
