age,ast_per_mp,blk_per_mp,drb_per_mp,fg2_pct,fg2_per_mp,fg2a_per_mp,fg3_pct,fg3_per_mp,fg3a_per_mp,fg_pct,fg_per_mp,fga_per_mp,ft_pct,ft_per_mp,fta_per_mp,g,gs,lg_id,mp,orb_per_mp,pf_per_mp,pos,pts_per_mp,season,stl_per_mp,team_id,tov_per_mp,trb_per_mp
23.0,2.2,0.1,3.0,0.442,3.6,8.0,0.38,2.4,6.3,0.415,5.9,14.3,0.9,2.9,3.2,61.0,1.0,NBA,1236.0,0.3,3.4,SG,17.2,2006,0.8,ATL,2.4,3.4
24.0,2.1,0.1,2.4,0.448,4.2,9.4,0.361,1.9,5.4,0.416,6.2,14.8,0.897,2.1,2.4,61.0,0.0,NBA,1034.0,0.2,3.1,SG,16.4,2007,0.7,ATL,1.9,2.6
25.0,2.5,0.4,1.8,0.379,3.2,8.5,0.341,2.6,7.6,0.361,5.8,16.1,0.82,3.7,4.5,35.0,0.0,NBA,402.0,0.4,3.0,PG,17.9,2008,0.6,ATL,1.9,2.1
