age,ast,blk,drb,fg,fg2,fg2a,fg3,fg3a,fga,ft,fta,game_score,lg_id,mp,orb,pf,pts,season,stl,team_id,tov,trb
28.0,3.0,2.0,7.0,14.0,13.0,25.0,4.0,8.0,29.0,7.0,9.0,22.8,NBA,47,3.0,6.0,33.0,2013,2.0,NYK,4.0,9.0
29.0,3.0,2.0,3.0,7.0,3.0,5.0,5.0,11.0,16.0,2.0,2.0,15.4,NBA,27,1.0,5.0,19.0,2014,1.0,IND,2.0,4.0
30.0,4.0,1.0,9.0,8.0,6.0,12.0,6.0,11.0,21.0,5.0,6.0,12.7,NBA,39,3.0,5.0,21.0,2015,1.0,IND,5.0,12.0
31.0,3.0,0.0,2.0,3.0,2.0,4.0,2.0,7.0,9.0,2.0,2.0,5.0,NBA,21,1.0,5.0,10.0,2016,1.0,MIL,2.0,2.0
