age,ast,blk,drb,fg,fg2,fg2a,fg3,fg3a,fga,ft,fta,game_score,lg_id,mp,orb,pf,pts,season,stl,team_id,tov,trb
22.0,4.0,2.0,11.0,8.0,8.0,13.0,1.0,3.0,14.0,8.0,12.0,18.9,NBA,42,7.0,6.0,19.0,2008,4.0,CHA,3.0,18.0
23.0,6.0,2.0,7.0,7.0,6.0,10.0,4.0,8.0,13.0,5.0,6.0,14.3,NBA,39,6.0,6.0,17.0,2009,5.0,TOT,5.0,11.0
23.0,4.0,1.0,6.0,6.0,6.0,10.0,1.0,3.0,10.0,4.0,4.0,13.7,NBA,39,4.0,6.0,13.0,2009,3.0,CHA,3.0,7.0
23.0,6.0,2.0,7.0,7.0,6.0,9.0,4.0,8.0,13.0,5.0,6.0,14.3,NBA,30,6.0,5.0,17.0,2009,5.0,PHO,5.0,11.0
24.0,5.0,2.0,8.0,7.0,5.0,8.0,6.0,8.0,14.0,6.0,6.0,24.1,NBA,49,4.0,6.0,20.0,2010,4.0,PHO,3.0,12.0
25.0,5.0,2.0,8.0,11.0,7.0,13.0,7.0,10.0,16.0,7.0,9.0,31.6,NBA,44,5.0,5.0,33.0,2011,5.0,PHO,4.0,12.0
26.0,4.0,3.0,8.0,10.0,8.0,13.0,4.0,7.0,16.0,8.0,10.0,26.0,NBA,42,5.0,5.0,28.0,2012,3.0,PHO,5.0,11.0
27.0,10.0,2.0,6.0,11.0,7.0,12.0,5.0,8.0,17.0,9.0,10.0,29.3,NBA,44,6.0,5.0,36.0,2013,3.0,PHO,6.0,10.0
28.0,5.0,2.0,5.0,8.0,5.0,7.0,6.0,9.0,15.0,6.0,6.0,19.0,NBA,40,2.0,5.0,21.0,2014,4.0,LAC,3.0,7.0
29.0,7.0,1.0,8.0,10.0,6.0,9.0,5.0,7.0,12.0,5.0,6.0,25.8,NBA,41,3.0,5.0,24.0,2015,4.0,MIL,5.0,9.0
30.0,6.0,2.0,9.0,7.0,6.0,8.0,6.0,10.0,12.0,6.0,7.0,21.1,NBA,42,4.0,6.0,19.0,2016,4.0,WAS,4.0,9.0
31.0,10.0,2.0,8.0,8.0,5.0,8.0,4.0,11.0,14.0,4.0,5.0,16.9,NBA,36,2.0,6.0,19.0,2017,3.0,PHO,3.0,9.0
32.0,9.0,2.0,9.0,4.0,3.0,4.0,3.0,5.0,8.0,4.0,4.0,13.9,NBA,32,2.0,5.0,13.0,2018,2.0,PHO,3.0,9.0
33.0,4.0,2.0,6.0,6.0,5.0,5.0,4.0,7.0,9.0,6.0,6.0,16.9,NBA,38,4.0,5.0,16.0,2019,3.0,BRK,3.0,6.0
34.0,1.0,0.0,1.0,2.0,0.0,1.0,2.0,2.0,2.0,0.0,0.0,4.6,NBA,14,0.0,2.0,6.0,2020,1.0,LAL,0.0,1.0
