age,ast_per_mp,blk_per_mp,drb_per_mp,fg2_pct,fg2_per_mp,fg2a_per_mp,fg3_pct,fg3_per_mp,fg3a_per_mp,fg_pct,fg_per_mp,fga_per_mp,ft_pct,ft_per_mp,fta_per_mp,g,gs,lg_id,mp,orb_per_mp,pf_per_mp,pos,pts_per_mp,season,stl_per_mp,team_id,tov_per_mp,trb_per_mp
20.0,2.4,0.6,2.9,0.489,3.2,6.5,0.473,1.0,2.2,0.485,4.2,8.7,0.711,2.0,2.9,72.0,17.0,NBA,1218.0,1.2,3.1,SF,11.5,2011,0.9,UTA,2.1,4.1
21.0,3.7,0.7,3.1,0.496,3.8,7.6,0.346,1.0,2.8,0.456,4.8,10.5,0.832,3.4,4.1,66.0,58.0,NBA,2015.0,1.1,1.9,SF,14.0,2012,0.9,UTA,1.9,4.1
22.0,3.6,0.7,3.0,0.444,4.0,9.0,0.415,1.7,4.2,0.435,5.7,13.2,0.827,4.2,5.0,72.0,27.0,NBA,2104.0,0.9,2.1,SF,17.4,2013,1.0,UTA,2.1,3.8
23.0,5.1,0.5,4.2,0.453,4.4,9.7,0.304,1.1,3.6,0.413,5.5,13.3,0.816,4.0,4.9,77.0,77.0,NBA,2800.0,0.8,2.0,SF,16.0,2014,1.4,UTA,2.7,5.0
24.0,4.3,0.4,4.4,0.481,5.0,10.4,0.364,1.7,4.5,0.445,6.7,14.9,0.812,5.2,6.4,76.0,76.0,NBA,2618.0,0.7,1.8,SF,20.1,2015,1.5,UTA,2.8,5.1
25.0,3.7,0.3,4.2,0.477,4.7,9.9,0.349,1.8,5.1,0.433,6.5,15.0,0.824,4.9,5.9,80.0,80.0,NBA,2893.0,0.8,2.3,SF,19.6,2016,1.2,UTA,2.5,4.9
26.0,3.6,0.3,4.9,0.506,5.7,11.2,0.398,2.1,5.4,0.471,7.8,16.5,0.844,5.2,6.1,73.0,73.0,NBA,2516.0,0.7,1.7,SF,22.9,2017,1.0,UTA,2.0,5.6
27.0,0.0,0.0,7.2,1.0,7.2,7.2,0.0,0.0,7.2,0.5,7.2,14.4,0.0,0.0,0.0,1.0,1.0,NBA,5.0,0.0,7.2,SF,14.4,2018,0.0,BOS,0.0,7.2
28.0,4.7,0.4,5.2,0.542,4.2,7.8,0.333,1.5,4.5,0.466,5.7,12.3,0.834,3.0,3.6,72.0,18.0,NBA,1863.0,1.0,2.0,PF,15.9,2019,1.2,BOS,2.0,6.2
29.0,4.8,0.3,7.4,0.6,6.9,11.6,0.433,1.9,4.3,0.555,8.8,15.9,0.842,2.3,2.7,8.0,8.0,NBA,249.0,0.9,2.2,SF,21.8,2020,0.9,BOS,2.2,8.2
