age,ast_per_poss,blk_per_poss,def_rtg,drb_per_poss,fg2_pct,fg2_per_poss,fg2a_per_poss,fg3_pct,fg3_per_poss,fg3a_per_poss,fg_pct,fg_per_poss,fga_per_poss,ft_pct,ft_per_poss,fta_per_poss,g,gs,lg_id,mp,off_rtg,orb_per_poss,pf_per_poss,pos,pts_per_poss,season,stl_per_poss,team_id,tov_per_poss,trb_per_poss
21.0,5.1,0.0,115.0,3.8,0.238,2.1,8.9,0.083,0.4,5.1,0.182,2.5,14.0,1.0,6.8,6.8,4.0,4.0,NBA,123.0,92.0,0.8,1.7,SF,12.3,2012,1.3,UTA,1.3,4.7
26.0,4.7,0.4,112.0,7.6,0.458,7.0,15.2,0.412,3.5,8.6,0.441,10.5,23.8,0.934,9.0,9.6,11.0,11.0,NBA,411.0,115.0,0.9,2.9,SF,33.6,2017,1.3,UTA,3.0,8.5
28.0,4.0,0.5,105.0,5.9,0.435,3.6,8.3,0.375,1.6,4.3,0.414,5.2,12.6,1.0,3.4,3.4,9.0,0.0,NBA,267.0,101.0,0.5,2.9,PF,15.5,2019,1.1,BOS,2.7,6.5
