age,ast_per_poss,blk_per_poss,def_rtg,drb_per_poss,fg2_pct,fg2_per_poss,fg2a_per_poss,fg3_pct,fg3_per_poss,fg3a_per_poss,fg_pct,fg_per_poss,fga_per_poss,ft_pct,ft_per_poss,fta_per_poss,g,gs,lg_id,mp,off_rtg,orb_per_poss,pf_per_poss,pos,pts_per_poss,season,stl_per_poss,team_id,tov_per_poss,trb_per_poss
23.0,3.0,1.2,112.0,3.8,0.472,7.9,16.7,0.293,1.4,4.8,0.432,9.3,21.4,0.717,5.5,7.7,71.0,37.0,NBA,1931.0,105.0,3.7,5.7,SG,25.4,1993,1.9,MIL,3.1,7.5
24.0,3.3,1.2,109.0,4.7,0.456,7.6,16.6,0.223,0.8,3.5,0.415,8.4,20.2,0.698,5.5,7.9,76.0,39.0,NBA,2127.0,100.0,2.7,5.3,SG,23.1,1994,2.5,MIL,3.1,7.4
25.0,2.6,1.2,111.0,4.3,0.447,5.4,12.0,0.39,3.1,8.0,0.424,8.5,20.0,0.754,4.9,6.5,82.0,81.0,NBA,2717.0,108.0,1.8,5.4,SG,25.0,1995,2.0,MIL,3.0,6.1
26.0,3.0,1.4,109.0,4.3,0.386,5.5,14.3,0.331,2.8,8.4,0.366,8.3,22.7,0.78,6.2,8.0,79.0,12.0,NBA,1807.0,101.0,1.9,6.2,SG,25.6,1996,2.2,TOT,3.0,6.2
26.0,1.6,0.9,113.0,4.4,0.37,5.3,14.3,0.2,1.6,7.8,0.31,6.8,22.1,0.923,7.5,8.1,8.0,0.0,NBA,171.0,92.0,2.5,8.4,SG,22.7,1996,1.2,MIL,3.4,6.8
26.0,3.1,1.5,109.0,4.3,0.388,5.5,14.3,0.343,2.9,8.4,0.371,8.4,22.7,0.766,6.1,8.0,71.0,12.0,NBA,1636.0,101.0,1.9,6.0,SG,25.9,1996,2.3,BOS,3.0,6.2
27.0,2.6,1.1,111.0,4.9,0.418,6.0,14.3,0.362,2.8,7.7,0.398,8.8,22.0,0.773,5.6,7.3,81.0,27.0,NBA,2277.0,105.0,2.4,4.6,SG,25.9,1997,2.4,BOS,2.8,7.3
28.0,5.5,0.0,99.0,1.6,0.474,7.1,15.0,0.167,1.6,9.5,0.355,8.7,24.5,0.667,4.7,7.1,5.0,0.0,NBA,69.0,99.0,3.2,7.9,SG,23.7,1998,5.5,MIA,2.4,4.7
30.0,3.5,1.2,99.0,5.3,0.4,3.6,9.0,0.388,3.5,9.0,0.394,7.1,17.9,0.667,3.9,5.9,58.0,1.0,NBA,941.0,104.0,1.7,6.9,SG,21.5,2000,2.4,PHO,2.7,7.0
31.0,4.2,1.1,106.0,4.1,0.367,2.7,7.4,0.377,3.9,10.5,0.373,6.7,17.9,0.783,2.7,3.5,31.0,0.0,NBA,345.0,98.0,1.5,7.9,SG,20.0,2001,1.5,MIN,3.6,5.6
