article_url,date,headline
https://thejnotes.com/2019/11/14/nba-2k-depicts-an-almost-accurate-picture-of-the-utah-jazz/,2019/11/14,Purple and Blues: NBA 2K depicts an (almost) accurate picture of the Utah Jazz
https://thejnotes.com/2019/11/12/utah-jazz-three-pleasant-surprises-three-disappointments-10-games-season/,2019/11/12,Purple and Blues: Utah Jazz: Three pleasant surprises and three disappointments 10 games into season
https://thejnotes.com/2019/11/09/utah-jazz-prove-belong-among-leagues-elite-back-back-statement-wins/,2019/11/09,Purple and Blues: Utah Jazz prove they belong among league's elite with back-to-back statement wins
