age,ast,blk,drb,efg_pct,fg,fg2,fg2_pct,fg2a,fg3,fg3_pct,fg3a,fg_pct,fga,ft,ft_pct,fta,g,gs,lg_id,mp,orb,pf,pos,pts,season,stl,team_id,tov,trb
29.0,36.0,5.0,39.0,0.524,25.0,10.0,0.476,21.0,15.0,0.366,41.0,0.403,62.0,6.0,0.667,9.0,11.0,11.0,NBA,334.0,2.0,28.0,SF,71.0,2017,22.0,UTA,16.0,41.0
30.0,37.0,2.0,43.0,0.616,57.0,22.0,0.5,44.0,35.0,0.455,77.0,0.471,121.0,11.0,0.647,17.0,11.0,11.0,NBA,382.0,5.0,29.0,SF,160.0,2018,6.0,UTA,26.0,48.0
31.0,25.0,0.0,21.0,0.432,12.0,4.0,0.5,8.0,8.0,0.276,29.0,0.324,37.0,0.0,0.0,0.0,5.0,5.0,NBA,151.0,3.0,14.0,PF,32.0,2019,11.0,UTA,8.0,24.0
