age,and1s,astd_pts,drawn_offensive,drawn_shooting,fouls_offensive,fouls_shooting,g,lg_id,mp,own_shots_blk,pct_1,pct_2,pct_3,pct_4,pct_5,plus_minus_net,plus_minus_on,pos,season,team_id,tov_bad_pass,tov_lost_ball
27.0,4.0,415.0,8.0,13.0,12.0,47.0,79.0,NBA,1673.0,8.0,0.0,51.0,42.0,7.0,0.0,-3.9,-2.1,SF,2015,UTA,55.0,23.0
28.0,4.0,219.0,3.0,6.0,8.0,29.0,81.0,NBA,1241.0,7.0,0.0,0.0,81.0,19.0,0.0,-5.4,-1.8,SF,2016,UTA,31.0,16.0
29.0,2.0,522.0,7.0,18.0,11.0,60.0,82.0,NBA,1972.0,16.0,0.0,37.0,50.0,13.0,0.0,0.4,4.8,SF,2017,UTA,63.0,19.0
30.0,9.0,886.0,7.0,31.0,9.0,73.0,82.0,NBA,2578.0,23.0,0.0,0.0,54.0,46.0,0.0,0.9,5.1,SF,2018,UTA,111.0,22.0
31.0,9.0,1063.0,16.0,32.0,18.0,56.0,82.0,NBA,2568.0,31.0,0.0,0.0,35.0,66.0,0.0,6.6,7.7,PF,2019,UTA,123.0,39.0
32.0,0.0,95.0,1.0,1.0,5.0,5.0,11.0,NBA,310.0,2.0,0.0,48.0,52.0,0.0,0.0,0.6,5.0,SF,2020,UTA,8.0,1.0
