age,ast_pct,blk_pct,bpm,bpm-dum,dbpm,drb_pct,dws,fg3a_per_fga_pct,fta_per_fga_pct,g,lg_id,mp,obpm,orb_pct,ows,per,pos,season,stl_pct,team_id,tov_pct,trb_pct,ts_pct,usg_pct,vorp,ws,ws-dum,ws_per_48
27.0,16.8,0.5,-0.8,0.0,0.3,10.5,1.6,0.571,0.113,79.0,NBA,1673.0,-1.1,1.5,0.5,9.6,SF,2015,2.3,UTA,20.9,6.0,0.533,12.9,0.5,2.2,0.0,0.062
28.0,12.1,0.3,0.1,0.0,0.4,12.4,1.6,0.722,0.062,81.0,NBA,1241.0,-0.3,1.8,0.7,10.3,SF,2016,2.3,UTA,17.9,7.1,0.572,13.5,0.7,2.3,0.0,0.089
29.0,17.2,0.3,2.7,0.0,1.8,13.6,3.0,0.619,0.151,82.0,NBA,1972.0,0.9,1.4,2.0,12.4,SF,2017,2.6,UTA,18.2,7.6,0.604,13.9,2.3,5.0,0.0,0.123
30.0,22.9,0.7,3.1,0.0,1.0,13.9,3.6,0.646,0.116,82.0,NBA,2578.0,2.1,1.1,4.0,14.4,SF,2018,1.8,UTA,17.4,7.6,0.623,15.9,3.3,7.6,0.0,0.141
31.0,26.1,0.6,1.8,0.0,0.8,12.2,3.6,0.602,0.153,82.0,NBA,2568.0,1.0,1.5,2.5,13.4,PF,2019,1.8,UTA,18.4,7.0,0.581,17.5,2.5,6.0,0.0,0.113
32.0,18.2,0.5,0.9,0.0,2.5,14.0,0.5,0.676,0.189,11.0,NBA,310.0,-1.7,0.8,0.0,7.9,SF,2020,1.2,UTA,15.8,7.8,0.474,13.6,0.2,0.5,0.0,0.08
