age,ast_pct,blk_pct,bpm,bpm-dum,dbpm,drb_pct,dws,fg3a_per_fga_pct,fta_per_fga_pct,g,lg_id,mp,obpm,orb_pct,ows,per,pos,season,stl_pct,team_id,tov_pct,trb_pct,ts_pct,usg_pct,vorp,ws,ws-dum,ws_per_48
22.0,2.8,0.4,-4.9,0.0,-2.5,16.9,1.1,0.009,0.323,64.0,NBA,1092.0,-2.4,11.0,0.6,12.6,PF,1986,1.4,PHI,12.3,13.9,0.502,20.7,-0.8,1.7,0.0,0.074
23.0,4.0,0.4,-2.4,0.0,-1.7,15.7,2.1,0.005,0.401,78.0,NBA,2149.0,-0.7,12.0,1.5,14.2,PF,1987,1.0,WSB,12.9,13.8,0.522,21.1,-0.2,3.6,0.0,0.08
24.0,5.9,0.3,-1.0,0.0,-1.2,15.2,1.5,0.003,0.402,70.0,NBA,1610.0,0.3,12.4,2.0,14.7,PF,1988,1.0,WSB,12.8,13.8,0.542,20.2,0.4,3.5,0.0,0.103
25.0,5.0,0.7,-1.9,0.0,-0.6,18.8,1.9,0.007,0.373,79.0,NBA,2077.0,-1.3,11.6,1.4,12.6,PF,1989,1.1,WSB,13.1,15.0,0.518,17.6,0.0,3.3,0.0,0.077
26.0,4.5,0.4,-3.4,0.0,-3.2,12.9,0.1,0.007,0.422,74.0,NBA,2462.0,-0.2,11.3,2.4,15.0,PF,1990,0.7,ORL,11.7,12.1,0.525,24.6,-0.9,2.5,0.0,0.049
27.0,6.3,0.4,-2.5,0.0,-1.6,14.4,0.9,0.008,0.408,51.0,NBA,1459.0,-0.9,12.2,0.6,14.5,PF,1991,1.1,ORL,12.6,13.3,0.5,23.8,-0.2,1.6,0.0,0.051
28.0,7.1,0.4,-0.5,0.0,-1.0,13.8,1.4,0.004,0.375,78.0,NBA,2430.0,0.5,11.5,3.2,15.2,PF,1992,1.2,ORL,11.4,12.6,0.537,20.7,0.9,4.6,0.0,0.091
29.0,2.8,0.2,-6.2,0.0,-2.0,11.4,0.2,0.0,0.466,21.0,NBA,262.0,-4.2,8.3,-0.1,8.5,PF,1993,0.8,ORL,22.1,9.9,0.563,18.6,-0.3,0.1,0.0,0.027
