age,ast_per_poss,blk_per_poss,def_rtg,drb_per_poss,fg2_pct,fg2_per_poss,fg2a_per_poss,fg3_pct,fg3_per_poss,fg3a_per_poss,fg_pct,fg_per_poss,fga_per_poss,ft_pct,ft_per_poss,fta_per_poss,g,gs,lg_id,mp,off_rtg,orb_per_poss,pf_per_poss,pos,pts_per_poss,season,stl_per_poss,team_id,tov_per_poss,trb_per_poss
22.0,0.9,0.3,107.0,7.2,0.473,8.8,18.7,0.0,0.0,0.2,0.469,8.8,18.9,0.647,3.9,6.1,64.0,7.0,NBA,1092.0,103.0,4.7,5.6,PF,21.6,1986,1.4,PHI,3.0,11.9
23.0,1.2,0.3,109.0,7.0,0.497,9.2,18.5,0.0,0.0,0.1,0.495,9.2,18.6,0.594,4.4,7.5,78.0,77.0,NBA,2149.0,105.0,5.5,4.3,PF,22.9,1987,1.0,WSB,3.2,12.5
24.0,1.9,0.3,109.0,6.6,0.508,9.0,17.7,0.0,0.0,0.1,0.506,9.0,17.8,0.655,4.7,7.1,70.0,40.0,NBA,1610.0,109.0,5.5,5.2,PF,22.7,1988,1.0,WSB,3.1,12.1
25.0,1.7,0.6,109.0,7.8,0.493,7.6,15.5,0.2,0.0,0.1,0.49,7.7,15.6,0.602,3.5,5.8,79.0,77.0,NBA,2077.0,105.0,5.3,5.7,PF,18.8,1989,1.1,WSB,2.7,13.1
26.0,1.3,0.3,116.0,5.5,0.476,10.2,21.4,0.25,0.0,0.1,0.474,10.2,21.6,0.702,6.4,9.1,74.0,72.0,NBA,2462.0,106.0,5.1,3.8,PF,26.9,1990,0.7,ORL,3.4,10.5
27.0,1.9,0.3,111.0,6.2,0.466,9.7,20.7,0.0,0.0,0.2,0.462,9.7,20.9,0.624,5.3,8.5,51.0,38.0,NBA,1459.0,102.0,5.6,3.7,PF,24.6,1991,1.1,ORL,3.5,11.7
28.0,2.2,0.3,112.0,5.9,0.498,9.2,18.5,0.0,0.0,0.1,0.496,9.2,18.6,0.694,4.8,7.0,78.0,67.0,NBA,2430.0,110.0,5.2,3.9,PF,23.3,1992,1.2,ORL,2.8,11.1
29.0,1.0,0.2,110.0,5.3,0.493,6.8,13.9,0.0,0.0,0.0,0.493,6.8,13.9,0.794,5.1,6.5,21.0,1.0,NBA,262.0,97.0,3.4,5.9,PF,18.8,1993,0.8,ORL,4.8,8.8
