age,ast_per_poss,blk_per_poss,def_rtg,drb_per_poss,fg2_pct,fg2_per_poss,fg2a_per_poss,fg3_pct,fg3_per_poss,fg3a_per_poss,fg_pct,fg_per_poss,fga_per_poss,ft_pct,ft_per_poss,fta_per_poss,g,gs,lg_id,mp,off_rtg,orb_per_poss,pf_per_poss,pos,pts_per_poss,season,stl_per_poss,team_id,tov_per_poss,trb_per_poss
26.0,2.2,0.0,109.0,9.0,0.222,2.2,10.1,0.0,0.0,0.0,0.222,2.2,10.1,0.833,5.6,6.7,8.0,0.0,NBA,49.0,104.0,5.6,6.7,PF,10.1,1994,0.0,DEN,1.1,14.6
27.0,1.2,2.4,121.0,4.8,0.643,10.8,16.8,0.0,0.0,0.0,0.643,10.8,16.8,0.333,2.4,7.2,3.0,0.0,NBA,44.0,98.0,3.6,14.4,PF,24.1,1995,0.0,DEN,4.8,8.4
30.0,1.0,0.5,116.0,5.9,0.429,5.9,13.8,0.0,0.0,0.0,0.429,5.9,13.8,0.75,5.9,7.9,5.0,1.0,NBA,113.0,109.0,4.9,8.9,PF,17.7,1998,0.0,MIN,2.0,10.8
31.0,0.0,0.0,107.0,6.3,0.0,0.0,0.0,0.0,0.0,0.0,0.0,0.0,0.0,1.0,12.6,12.6,4.0,0.0,NBA,18.0,149.0,0.0,12.6,PF,12.6,1999,0.0,MIN,3.2,6.3
32.0,0.0,0.0,115.0,0.0,0.0,0.0,0.0,0.0,0.0,0.0,0.0,0.0,0.0,0.0,0.0,0.0,1.0,0.0,NBA,2.0,0.0,0.0,0.0,PF,0.0,2000,0.0,MIN,0.0,0.0
