lg_id,salary,season,team_name
NBA,800000.0,1991,Washington Bullets
NBA,825000.0,1992,Washington Bullets
NBA,850000.0,1993,Charlotte Hornets
NBA,800000.0,1994,Denver Nuggets
NBA,700000.0,1995,Denver Nuggets
NBA,970000.0,1996,Denver Nuggets
NBA,1070000.0,1997,Denver Nuggets
NBA,970000.0,1998,Denver Nuggets
NBA,1800000.0,2000,Minnesota Timberwolves
NBA,1130000.0,2001,Minnesota Timberwolves
NBA,1800000.0,2002,Minnesota Timberwolves
