age,ast,ast_per_g,blk,college_id,fg,fg3,fg3_pct,fg3a,fg_pct,fga,ft,ft_pct,fta,g,mp,mp_per_g,orb,pf,pts,pts_per_g,season,stl,tov,trb,trb_per_g
19.0,40.0,1.2,40.0,FRESNOST,148.0,0.0,0.0,0.0,0.576,257.0,85.0,0.586,145.0,33.0,913.0,27.7,76.0,99.0,381.0,11.5,2010,27.0,69.0,192.0,5.8
20.0,54.0,1.7,35.0,FRESNOST,139.0,0.0,0.0,1.0,0.574,242.0,86.0,0.544,158.0,31.0,942.0,30.4,70.0,81.0,364.0,11.7,2011,35.0,57.0,252.0,8.1
