age,ast_per_g,blk_per_g,drb_per_g,efg_pct,fg2_pct,fg2_per_g,fg2a_per_g,fg3_pct,fg3_per_g,fg3a_per_g,fg_pct,fg_per_g,fga_per_g,ft_pct,ft_per_g,fta_per_g,g,gs,lg_id,mp_per_g,orb_per_g,pf_per_g,pos,pts_per_g,season,stl_per_g,team_id,tov_per_g,trb_per_g
21.0,0.1,0.6,1.9,0.636,0.636,0.9,1.4,0.0,0.0,0.0,0.636,0.9,1.4,0.0,0.0,0.0,8.0,0.0,NBA,8.6,0.6,2.1,C,1.8,2012,0.3,HOU,0.1,2.5
22.0,0.4,0.6,3.0,0.62,0.623,2.4,3.9,0.0,0.0,0.0,0.62,2.4,3.9,0.623,1.2,1.9,70.0,10.0,NBA,15.9,1.6,2.5,C,6.0,2013,0.3,HOU,0.6,4.6
23.0,0.0,0.2,1.5,0.643,0.643,1.6,2.5,0.0,0.0,0.0,0.643,1.6,2.5,0.4,0.2,0.5,11.0,0.0,NBA,9.1,1.0,1.5,C,3.5,2014,0.1,HOU,0.5,2.5
24.0,0.2,0.3,1.3,0.612,0.612,0.7,1.2,0.0,0.0,0.0,0.612,0.7,1.2,0.513,0.5,0.9,42.0,2.0,NBA,8.6,0.6,1.3,PF,1.9,2015,0.2,DAL,0.3,1.9
25.0,0.3,0.1,1.7,0.563,0.563,1.0,1.8,0.0,0.0,0.0,0.563,1.0,1.8,0.412,0.4,0.9,18.0,0.0,NBA,10.7,0.7,1.6,PF,2.4,2016,0.2,MIN,0.4,2.3
