age,and1s,astd_pts,drawn_offensive,drawn_shooting,fouls_offensive,fouls_shooting,g,lg_id,mp,own_shots_blk,pct_1,pct_2,pct_3,pct_4,pct_5,plus_minus_net,plus_minus_on,pos,season,team_id,tov_bad_pass,tov_lost_ball
23.0,2.0,175.0,5.0,9.0,0.0,29.0,37.0,NBA,562.0,8.0,77.0,23.0,1.0,0.0,0.0,2.6,0.6,PG,2018,LAL,31.0,8.0
24.0,4.0,173.0,10.0,26.0,0.0,33.0,25.0,NBA,531.0,18.0,62.0,38.0,0.0,0.0,0.0,6.8,4.1,PG,2019,LAL,29.0,12.0
25.0,1.0,23.0,4.0,2.0,0.0,0.0,6.0,NBA,106.0,1.0,32.0,68.0,0.0,0.0,0.0,-4.6,6.4,SG,2020,LAL,6.0,5.0
