article_url,date,headline
https://atlallday.com/2019/07/03/atlanta-hawks-signing-boogie-cousins-horrendous/,2019/07/03,ATL All Day: Atlanta Hawks: Signing Boogie Cousins Would Be Horrendous
https://dailyknicks.com/2019/05/24/new-york-knicks-nba-draft-history-no-3-pick-lottery-era/,2019/05/24,Daily Knicks: New York Knicks: NBA Draft history of No. 3 pick in lottery era
