age,ast_per_mp,blk_per_mp,drb_per_mp,fg2_pct,fg2_per_mp,fg2a_per_mp,fg3_pct,fg3_per_mp,fg3a_per_mp,fg_pct,fg_per_mp,fga_per_mp,ft_pct,ft_per_mp,fta_per_mp,g,gs,lg_id,mp,orb_per_mp,pf_per_mp,pos,pts_per_mp,season,stl_per_mp,team_id,tov_per_mp,trb_per_mp
21.0,2.7,0.2,3.0,0.486,5.5,11.3,0.111,0.0,0.2,0.481,5.5,11.5,0.866,3.3,3.8,81.0,69.0,NBA,2032.0,2.3,3.0,SF,14.4,1990,0.8,SAS,2.0,5.3
22.0,2.8,0.4,3.7,0.502,5.4,10.8,0.313,0.2,0.8,0.49,5.7,11.5,0.808,3.8,4.8,82.0,82.0,NBA,3044.0,1.7,2.2,SF,15.4,1991,0.8,SAS,1.7,5.4
23.0,2.5,0.3,3.4,0.51,5.6,11.1,0.305,0.3,0.9,0.494,5.9,12.0,0.861,3.3,3.8,82.0,82.0,NBA,3120.0,1.6,1.7,SF,15.4,1992,1.0,SAS,1.8,5.1
24.0,3.7,0.4,3.3,0.509,5.7,11.3,0.356,0.5,1.4,0.491,6.2,12.7,0.795,3.7,4.7,70.0,70.0,NBA,2604.0,1.2,1.8,SF,16.7,1993,0.9,SAS,2.1,4.5
25.0,2.9,0.4,2.9,0.474,5.0,10.5,0.299,0.4,1.3,0.455,5.4,11.8,0.803,2.1,2.6,73.0,73.0,NBA,2409.0,1.0,2.6,SF,13.2,1994,0.8,DET,1.9,3.9
26.0,2.6,0.5,2.8,0.495,4.6,9.3,0.408,1.7,4.2,0.468,6.3,13.5,0.807,4.1,5.1,81.0,81.0,NBA,2858.0,0.8,2.7,SF,18.5,1995,1.0,SAS,1.9,3.6
27.0,2.6,0.4,4.1,0.495,4.5,9.1,0.411,2.0,4.9,0.466,6.5,14.0,0.771,4.0,5.2,77.0,77.0,NBA,2901.0,0.9,2.2,SF,19.1,1996,0.9,SAS,2.5,4.9
28.0,3.2,0.6,3.7,0.456,4.0,8.7,0.333,1.1,3.3,0.422,5.1,12.0,0.755,3.8,5.1,39.0,39.0,NBA,1393.0,1.2,2.7,SF,15.0,1997,0.6,SAS,2.3,4.9
29.0,2.2,0.5,3.8,0.413,3.1,7.6,0.378,1.2,3.2,0.403,4.3,10.8,0.718,2.0,2.8,36.0,36.0,NBA,1012.0,0.6,3.3,SF,11.9,1998,0.9,SAS,2.0,4.4
30.0,2.8,0.4,4.2,0.436,4.0,9.3,0.328,0.9,2.8,0.41,5.0,12.1,0.757,2.5,3.3,50.0,50.0,NBA,1509.0,0.8,2.5,SF,13.4,1999,0.6,SAS,1.7,5.1
31.0,2.6,0.2,3.8,0.362,2.3,6.4,0.351,1.2,3.4,0.358,3.5,9.8,0.781,2.3,2.9,19.0,19.0,NBA,391.0,0.6,3.1,SF,10.5,2000,1.1,SAS,1.7,4.3
32.0,2.4,0.7,4.5,0.438,2.7,6.2,0.426,1.6,3.8,0.434,4.3,9.9,0.714,1.8,2.5,52.0,34.0,NBA,1229.0,0.5,2.3,SF,12.0,2001,0.7,SAS,1.5,5.0
