age,ast,blk,drb,fg,fg2,fg2a,fg3,fg3a,fga,ft,fta,game_score,lg_id,mp,orb,pf,pts,season,stl,team_id,tov,trb
22.0,0.0,0.0,0.0,12.0,0.0,0.0,0.0,0.0,0.0,8.0,11.0,0.0,NBA,0.0,0.0,0.0,28.0,1979,0.0,DET,0.0,0.0
23.0,0.0,0.0,0.0,18.0,0.0,0.0,1.0,0.0,0.0,11.0,13.0,0.0,NBA,0.0,0.0,0.0,38.0,1980,0.0,DET,0.0,0.0
24.0,0.0,0.0,0.0,17.0,0.0,0.0,1.0,0.0,0.0,8.0,8.0,0.0,NBA,0.0,0.0,0.0,40.0,1981,0.0,DET,0.0,0.0
25.0,0.0,0.0,0.0,17.0,0.0,0.0,1.0,0.0,0.0,13.0,15.0,0.0,NBA,0.0,0.0,0.0,41.0,1982,0.0,DET,0.0,0.0
26.0,0.0,0.0,0.0,13.0,13.0,0.0,1.0,0.0,23.0,5.0,7.0,0.0,NBA,0.0,0.0,0.0,29.0,1983,0.0,DET,0.0,0.0
27.0,8.0,2.0,6.0,18.0,18.0,25.0,1.0,1.0,25.0,9.0,10.0,37.7,NBA,0.0,6.0,6.0,41.0,1984,5.0,DET,7.0,9.0
28.0,5.0,2.0,6.0,14.0,14.0,28.0,1.0,2.0,28.0,9.0,9.0,26.1,NBA,0.0,4.0,5.0,28.0,1985,4.0,DET,6.0,7.0
29.0,5.0,2.0,3.0,14.0,14.0,22.0,1.0,1.0,22.0,8.0,8.0,22.4,NBA,0.0,4.0,5.0,28.0,1986,3.0,DET,3.0,5.0
30.0,7.0,1.0,6.0,16.0,15.0,28.0,2.0,5.0,29.0,11.0,11.0,34.4,NBA,0.0,5.0,6.0,44.0,1987,4.0,IND,5.0,7.0
31.0,7.0,2.0,7.0,14.0,14.0,23.0,2.0,5.0,28.0,8.0,8.0,24.1,NBA,0.0,3.0,6.0,32.0,1988,4.0,IND,5.0,7.0
32.0,5.0,1.0,6.0,9.0,8.0,17.0,2.0,3.0,17.0,7.0,8.0,21.1,NBA,0.0,2.0,6.0,25.0,1989,4.0,TOT,4.0,6.0
32.0,5.0,1.0,6.0,9.0,8.0,17.0,2.0,3.0,17.0,7.0,8.0,21.1,NBA,0.0,2.0,6.0,25.0,1989,4.0,IND,4.0,6.0
32.0,4.0,1.0,2.0,6.0,6.0,7.0,0.0,0.0,7.0,5.0,6.0,16.4,NBA,0.0,1.0,3.0,17.0,1989,0.0,DET,2.0,2.0
33.0,6.0,1.0,5.0,9.0,9.0,18.0,2.0,5.0,19.0,6.0,7.0,16.4,NBA,0.0,3.0,5.0,20.0,1990,5.0,ATL,6.0,6.0
34.0,3.0,1.0,7.0,6.0,6.0,10.0,1.0,1.0,10.0,8.0,8.0,12.0,NBA,0.0,2.0,3.0,14.0,1991,2.0,DET,3.0,8.0
40.0,2.0,1.0,4.0,6.0,5.0,9.0,2.0,4.0,12.0,4.0,4.0,8.8,NBA,0.0,1.0,4.0,15.0,1997,2.0,TOR,3.0,5.0
