age,ast,blk,drb,efg_pct,fg,fg2,fg2_pct,fg2a,fg3,fg3_pct,fg3a,fg_pct,fga,ft,ft_pct,fta,g,gs,lg_id,mp,orb,pf,pos,pts,season,stl,team_id,tov,trb
22.0,121.0,19.0,139.0,0.469,581.0,581.0,0.469,1240.0,0.0,0.0,0.0,0.469,1240.0,157.0,0.826,190.0,82.0,0.0,NBA,2498.0,127.0,224.0,SG,1319.0,1979,102.0,DET,137.0,266.0
23.0,206.0,26.0,185.0,0.506,588.0,587.0,0.51,1152.0,1.0,0.083,12.0,0.505,1164.0,160.0,0.825,194.0,69.0,0.0,NBA,2364.0,152.0,221.0,SG,1337.0,1980,129.0,DET,206.0,337.0
24.0,106.0,22.0,102.0,0.462,441.0,439.0,0.464,946.0,2.0,0.182,11.0,0.461,957.0,160.0,0.87,184.0,59.0,0.0,NBA,1750.0,95.0,164.0,SG,1044.0,1981,95.0,DET,151.0,197.0
25.0,148.0,25.0,162.0,0.493,637.0,635.0,0.496,1279.0,2.0,0.133,15.0,0.492,1294.0,238.0,0.865,275.0,69.0,66.0,NBA,2211.0,95.0,173.0,SG,1514.0,1982,65.0,DET,167.0,257.0
26.0,105.0,12.0,124.0,0.452,312.0,310.0,0.453,685.0,2.0,0.286,7.0,0.451,692.0,111.0,0.76,146.0,70.0,30.0,NBA,1485.0,56.0,130.0,SG,737.0,1983,44.0,DET,144.0,180.0
27.0,205.0,18.0,150.0,0.472,545.0,544.0,0.473,1150.0,1.0,0.2,5.0,0.472,1155.0,243.0,0.884,275.0,82.0,82.0,NBA,2514.0,139.0,199.0,SG,1334.0,1984,93.0,DET,143.0,289.0
28.0,130.0,14.0,109.0,0.49,431.0,426.0,0.49,870.0,5.0,0.333,15.0,0.487,885.0,106.0,0.862,123.0,66.0,55.0,NBA,1820.0,81.0,139.0,SG,973.0,1985,71.0,DET,98.0,190.0
29.0,82.0,13.0,51.0,0.484,264.0,261.0,0.491,532.0,3.0,0.188,16.0,0.482,548.0,89.0,0.856,104.0,62.0,30.0,NBA,1176.0,47.0,92.0,SG,620.0,1986,41.0,DET,59.0,98.0
30.0,258.0,8.0,142.0,0.427,490.0,471.0,0.427,1103.0,19.0,0.284,67.0,0.419,1170.0,219.0,0.89,246.0,80.0,68.0,NBA,2265.0,75.0,167.0,SG,1218.0,1987,96.0,IND,153.0,217.0
31.0,173.0,11.0,157.0,0.494,417.0,383.0,0.478,802.0,34.0,0.442,77.0,0.474,879.0,166.0,0.907,183.0,81.0,81.0,NBA,2022.0,72.0,164.0,SG,1034.0,1988,84.0,IND,127.0,229.0
32.0,80.0,3.0,59.0,0.421,147.0,139.0,0.41,339.0,8.0,0.4,20.0,0.409,359.0,70.0,0.921,76.0,68.0,1.0,NBA,919.0,18.0,84.0,SG,372.0,1989,29.0,TOT,57.0,77.0
32.0,65.0,1.0,50.0,0.414,128.0,120.0,0.401,299.0,8.0,0.4,20.0,0.401,319.0,59.0,0.937,63.0,44.0,1.0,NBA,767.0,16.0,68.0,SG,323.0,1989,29.0,IND,48.0,66.0
32.0,15.0,2.0,9.0,0.475,19.0,19.0,0.475,40.0,0.0,0.0,0.0,0.475,40.0,11.0,0.846,13.0,24.0,0.0,NBA,152.0,2.0,16.0,SG,49.0,1989,0.0,DET,9.0,11.0
33.0,85.0,5.0,57.0,0.466,174.0,164.0,0.462,355.0,10.0,0.345,29.0,0.453,384.0,46.0,0.836,55.0,48.0,19.0,NBA,1030.0,26.0,66.0,SG,404.0,1990,45.0,ATL,75.0,83.0
34.0,18.0,2.0,23.0,0.424,35.0,33.0,0.418,79.0,2.0,0.333,6.0,0.412,85.0,24.0,0.96,25.0,25.0,0.0,NBA,256.0,9.0,17.0,SG,96.0,1991,9.0,DET,14.0,32.0
40.0,21.0,2.0,34.0,0.444,46.0,34.0,0.41,83.0,12.0,0.353,34.0,0.393,117.0,25.0,0.893,28.0,32.0,0.0,NBA,370.0,6.0,28.0,SG,129.0,1997,9.0,TOR,24.0,40.0
