age,ast,blk,drb,efg_pct,fg,fg2,fg2_pct,fg2a,fg3,fg3_pct,fg3a,fg_pct,fga,ft,ft_pct,fta,g,gs,lg_id,mp,orb,pf,pos,pts,season,stl,team_id,tov,trb
22.0,275.0,34.0,162.0,0.475,371.0,355.0,0.477,745.0,16.0,0.302,53.0,0.465,798.0,233.0,0.747,312.0,61.0,56.0,NBA,2126.0,85.0,140.0,PG,991.0,2004,86.0,MIA,196.0,247.0
23.0,520.0,82.0,287.0,0.483,630.0,617.0,0.485,1273.0,13.0,0.289,45.0,0.478,1318.0,581.0,0.762,762.0,77.0,77.0,NBA,2974.0,110.0,230.0,SG,1854.0,2005,121.0,MIA,321.0,397.0
24.0,503.0,58.0,323.0,0.499,699.0,686.0,0.513,1337.0,13.0,0.171,76.0,0.495,1413.0,629.0,0.783,803.0,75.0,75.0,NBA,2892.0,107.0,217.0,SG,2040.0,2006,146.0,MIA,268.0,430.0
25.0,384.0,62.0,188.0,0.502,472.0,451.0,0.511,883.0,21.0,0.266,79.0,0.491,962.0,432.0,0.807,535.0,51.0,50.0,NBA,1931.0,51.0,117.0,SG,1397.0,2007,107.0,MIA,216.0,239.0
26.0,354.0,37.0,169.0,0.48,439.0,417.0,0.485,860.0,22.0,0.286,77.0,0.469,937.0,354.0,0.758,467.0,51.0,49.0,NBA,1954.0,45.0,137.0,SG,1254.0,2008,87.0,MIA,224.0,214.0
27.0,589.0,106.0,309.0,0.516,854.0,766.0,0.524,1461.0,88.0,0.317,278.0,0.491,1739.0,590.0,0.765,771.0,79.0,79.0,NBA,3048.0,89.0,178.0,SG,2386.0,2009,173.0,MIA,272.0,398.0
28.0,501.0,82.0,266.0,0.5,719.0,646.0,0.509,1268.0,73.0,0.3,243.0,0.476,1511.0,534.0,0.761,702.0,77.0,77.0,NBA,2792.0,107.0,181.0,SG,2045.0,2010,142.0,MIA,252.0,373.0
29.0,346.0,87.0,362.0,0.523,692.0,629.0,0.534,1178.0,63.0,0.306,206.0,0.5,1384.0,494.0,0.758,652.0,76.0,76.0,NBA,2823.0,123.0,197.0,SG,1941.0,2011,111.0,MIA,237.0,485.0
30.0,225.0,63.0,164.0,0.506,416.0,401.0,0.513,781.0,15.0,0.268,56.0,0.497,837.0,235.0,0.791,297.0,49.0,49.0,NBA,1625.0,73.0,110.0,SG,1082.0,2012,82.0,MIA,129.0,237.0
31.0,352.0,56.0,258.0,0.528,569.0,552.0,0.537,1027.0,17.0,0.258,66.0,0.521,1093.0,308.0,0.725,425.0,69.0,69.0,NBA,2391.0,86.0,140.0,SG,1463.0,2013,128.0,MIA,194.0,344.0
32.0,252.0,29.0,181.0,0.551,415.0,406.0,0.557,729.0,9.0,0.281,32.0,0.545,761.0,189.0,0.733,258.0,54.0,53.0,NBA,1775.0,60.0,106.0,SG,1028.0,2014,79.0,MIA,161.0,241.0
33.0,299.0,21.0,161.0,0.483,509.0,480.0,0.489,982.0,29.0,0.284,102.0,0.47,1084.0,284.0,0.768,370.0,62.0,62.0,NBA,1971.0,58.0,105.0,SG,1331.0,2015,73.0,MIA,209.0,219.0
34.0,344.0,42.0,220.0,0.459,540.0,533.0,0.468,1139.0,7.0,0.159,44.0,0.456,1183.0,322.0,0.793,406.0,74.0,73.0,NBA,2258.0,82.0,116.0,SG,1409.0,2016,79.0,MIA,203.0,302.0
35.0,228.0,41.0,207.0,0.457,414.0,369.0,0.456,810.0,45.0,0.31,145.0,0.434,955.0,223.0,0.794,281.0,60.0,59.0,NBA,1792.0,63.0,112.0,SG,1096.0,2017,86.0,CHI,138.0,270.0
36.0,228.0,47.0,202.0,0.462,299.0,267.0,0.468,571.0,32.0,0.288,111.0,0.438,682.0,135.0,0.714,189.0,67.0,3.0,NBA,1536.0,50.0,124.0,SG,765.0,2018,61.0,TOT,140.0,252.0
36.0,163.0,32.0,142.0,0.482,198.0,175.0,0.479,365.0,23.0,0.329,70.0,0.455,435.0,94.0,0.701,134.0,46.0,3.0,NBA,1069.0,39.0,84.0,SG,513.0,2018,42.0,CLE,92.0,181.0
36.0,65.0,15.0,60.0,0.427,101.0,92.0,0.447,206.0,9.0,0.22,41.0,0.409,247.0,41.0,0.745,55.0,21.0,0.0,NBA,467.0,11.0,40.0,SG,252.0,2018,19.0,MIA,48.0,71.0
37.0,301.0,38.0,216.0,0.478,416.0,330.0,0.472,699.0,86.0,0.33,261.0,0.433,960.0,165.0,0.708,233.0,72.0,2.0,NBA,1885.0,69.0,118.0,SG,1083.0,2019,59.0,MIA,166.0,285.0
