article_url,date,headline
https://sircharlesincharge.com/2019/11/14/golden-state-warriors-miss-playoffs-history/,2019/11/14,Sir Charles In Charge: Golden State Warriors: History says Dubs won't recover from horrid start
https://allucanheat.com/2019/11/14/miami-heat-15-greatest-wade-moments/,2019/11/14,All U Can Heat: Miami Heat: The 15 Greatest Dwyane Wade moments of all time
https://hoopshabit.com/2019/11/14/miami-heat-jimmy-butler-new-look/,2019/11/14,Hoops Habit: Jimmy Butler giving the Miami Heat a whole new look
https://crownhoops.com/2019/11/12/spencer-dinwiddie-was-right-about-socal-basketball-players/,2019/11/12,HoopLifeTV: Spencer Dinwiddie was Right About SoCal Basketball Players
https://lakeshowlife.com/2019/11/09/los-angeles-lakers-4-lessons-win-miami-heat/,2019/11/09,Lake Show Life: Los Angeles Lakers: 4 Lessons from the win over the Miami Heat
