age,avg_dist,fg2_dunk,fg2_pct,fg2_pct_ast,fg2a_pct_fga,fg3_heave,fg3_pct,fg3_pct_ast,fg3_pct_corner,fg3a_heave,fg3a_pct_fga,fg_pct,fg_pct_00_03,fg_pct_03_10,fg_pct_10_16,fg_pct_16_xx,g,lg_id,mp,pct_fg2_dunk,pct_fg3a_corner,pct_fga_00_03,pct_fga_03_10,pct_fga_10_16,pct_fga_16_xx,pos,season,team_id
22.0,7.4,63.0,0.477,0.341,0.934,0.0,0.302,0.813,0.455,2.0,0.066,0.465,0.584,0.462,0.293,0.287,61.0,NBA,2126.0,0.085,0.415,0.476,0.198,0.115,0.144,PG,2004,MIA
23.0,8.3,114.0,0.485,0.251,0.966,1.0,0.289,0.308,0.1,3.0,0.034,0.478,0.587,0.401,0.343,0.429,77.0,NBA,2974.0,0.095,0.222,0.441,0.149,0.135,0.241,SG,2005,MIA
24.0,9.9,152.0,0.513,0.334,0.946,0.0,0.171,0.692,0.167,10.0,0.054,0.495,0.661,0.485,0.366,0.397,75.0,NBA,2892.0,0.115,0.237,0.386,0.142,0.132,0.287,SG,2006,MIA
25.0,11.0,59.0,0.511,0.275,0.918,0.0,0.266,0.238,0.143,1.0,0.082,0.491,0.67,0.511,0.4,0.377,51.0,NBA,1931.0,0.063,0.089,0.366,0.098,0.104,0.35,SG,2007,MIA
26.0,11.5,39.0,0.485,0.283,0.918,0.0,0.286,0.455,0.417,3.0,0.082,0.469,0.655,0.443,0.406,0.368,51.0,NBA,1954.0,0.046,0.156,0.331,0.094,0.137,0.356,SG,2008,MIA
27.0,12.3,128.0,0.524,0.253,0.84,0.0,0.317,0.295,0.262,8.0,0.16,0.491,0.664,0.479,0.445,0.416,79.0,NBA,3048.0,0.082,0.151,0.334,0.084,0.094,0.328,SG,2009,MIA
28.0,11.2,115.0,0.509,0.279,0.839,0.0,0.3,0.26,0.208,4.0,0.161,0.476,0.682,0.45,0.353,0.356,77.0,NBA,2792.0,0.081,0.099,0.366,0.106,0.124,0.244,SG,2010,MIA
29.0,10.4,102.0,0.534,0.37,0.851,0.0,0.306,0.333,0.333,1.0,0.149,0.5,0.686,0.483,0.359,0.387,76.0,NBA,2823.0,0.082,0.146,0.366,0.193,0.113,0.179,SG,2011,MIA
30.0,9.4,63.0,0.513,0.409,0.933,1.0,0.268,0.133,0.125,1.0,0.067,0.497,0.673,0.453,0.415,0.358,49.0,NBA,1625.0,0.088,0.143,0.369,0.216,0.141,0.207,SG,2012,MIA
31.0,9.5,95.0,0.537,0.438,0.94,0.0,0.258,0.353,0.444,2.0,0.06,0.521,0.728,0.431,0.37,0.42,69.0,NBA,2391.0,0.093,0.136,0.373,0.198,0.134,0.235,SG,2013,MIA
32.0,9.6,40.0,0.557,0.429,0.958,0.0,0.281,0.778,0.556,0.0,0.042,0.545,0.703,0.517,0.5,0.418,54.0,NBA,1775.0,0.053,0.281,0.353,0.198,0.158,0.248,SG,2014,MIA
33.0,11.9,25.0,0.489,0.342,0.906,0.0,0.284,0.483,0.333,1.0,0.094,0.47,0.681,0.488,0.429,0.378,62.0,NBA,1971.0,0.024,0.176,0.229,0.187,0.202,0.283,SG,2015,MIA
34.0,9.6,36.0,0.468,0.278,0.963,1.0,0.159,0.714,0.333,3.0,0.037,0.456,0.648,0.43,0.34,0.386,74.0,NBA,2258.0,0.03,0.136,0.295,0.23,0.179,0.259,SG,2016,MIA
35.0,12.3,29.0,0.456,0.328,0.848,0.0,0.31,0.644,0.476,0.0,0.152,0.434,0.569,0.425,0.431,0.374,60.0,NBA,1792.0,0.036,0.145,0.25,0.16,0.206,0.232,SG,2017,CHI
36.0,11.1,20.0,0.468,0.401,0.837,0.0,0.288,0.531,0.25,0.0,0.163,0.438,0.659,0.398,0.306,0.368,67.0,NBA,1536.0,0.031,0.216,0.309,0.151,0.196,0.183,SG,2018,TOT
36.0,10.9,12.0,0.479,0.4,0.839,0.0,0.329,0.522,0.176,0.0,0.161,0.455,0.678,0.404,0.313,0.353,46.0,NBA,1069.0,0.03,0.243,0.329,0.131,0.228,0.156,SG,2018,CLE
36.0,11.6,8.0,0.447,0.402,0.834,0.0,0.22,0.556,0.429,0.0,0.166,0.409,0.618,0.391,0.286,0.386,21.0,NBA,467.0,0.032,0.171,0.275,0.186,0.142,0.231,SG,2018,MIA
37.0,13.0,18.0,0.472,0.333,0.728,1.0,0.33,0.547,0.429,3.0,0.272,0.433,0.619,0.46,0.379,0.336,72.0,NBA,1885.0,0.019,0.268,0.246,0.168,0.203,0.111,SG,2019,MIA
