age,ast_per_poss,blk_per_poss,def_rtg,drb_per_poss,fg2_pct,fg2_per_poss,fg2a_per_poss,fg3_pct,fg3_per_poss,fg3a_per_poss,fg_pct,fg_per_poss,fga_per_poss,ft_pct,ft_per_poss,fta_per_poss,g,gs,lg_id,mp,off_rtg,orb_per_poss,pf_per_poss,pos,pts_per_poss,season,stl_per_poss,team_id,tov_per_poss,trb_per_poss
22.0,2.1,1.5,105.0,6.8,0.423,6.5,15.3,0.0,0.0,0.0,0.423,6.5,15.3,0.7,2.1,2.9,31.0,0.0,NBA,180.0,99.0,6.2,8.2,C,15.0,2007,1.8,LAC,2.4,12.9
23.0,2.7,1.6,108.0,5.9,0.369,6.4,17.5,0.0,0.0,0.0,0.369,6.4,17.5,0.6,1.6,2.7,22.0,1.0,NBA,194.0,90.0,6.7,8.9,PF,14.5,2008,1.6,LAC,2.4,12.6
24.0,2.0,0.5,112.0,6.4,0.412,6.5,15.8,0.0,0.0,0.2,0.408,6.5,16.0,0.794,4.4,5.5,27.0,1.0,NBA,320.0,102.0,4.6,7.2,PF,17.4,2009,1.6,LAC,2.1,10.9
25.0,19.6,6.5,111.0,0.0,0.5,13.1,26.2,0.0,0.0,0.0,0.5,13.1,26.2,0.5,6.5,13.1,2.0,0.0,NBA,8.0,129.0,0.0,0.0,PF,32.7,2010,0.0,WAS,0.0,0.0
