age,ast,blk,drb,efg_pct,fg,fg2,fg2_pct,fg2a,fg3,fg3_pct,fg3a,fg_pct,fga,ft,ft_pct,fta,g,gs,lg_id,mp,orb,pf,pos,pts,season,stl,team_id,tov,trb
22.0,7.0,5.0,23.0,0.423,22.0,22.0,0.423,52.0,0.0,0.0,0.0,0.423,52.0,7.0,0.7,10.0,31.0,0.0,NBA,180.0,21.0,28.0,C,51.0,2007,6.0,LAC,8.0,44.0
23.0,10.0,6.0,22.0,0.369,24.0,24.0,0.369,65.0,0.0,0.0,0.0,0.369,65.0,6.0,0.6,10.0,22.0,1.0,NBA,194.0,25.0,33.0,PF,54.0,2008,6.0,LAC,9.0,47.0
24.0,12.0,3.0,39.0,0.408,40.0,40.0,0.412,97.0,0.0,0.0,1.0,0.408,98.0,27.0,0.794,34.0,27.0,1.0,NBA,320.0,28.0,44.0,PF,107.0,2009,10.0,LAC,13.0,67.0
25.0,3.0,1.0,0.0,0.5,2.0,2.0,0.5,4.0,0.0,0.0,0.0,0.5,4.0,1.0,0.5,2.0,2.0,0.0,NBA,8.0,0.0,0.0,PF,5.0,2010,0.0,WAS,0.0,0.0
