age,ast_per_g,blk_per_g,drb_per_g,efg_pct,fg2_pct,fg2_per_g,fg2a_per_g,fg3_pct,fg3_per_g,fg3a_per_g,fg_pct,fg_per_g,fga_per_g,ft_pct,ft_per_g,fta_per_g,g,gs,lg_id,mp_per_g,orb_per_g,pf_per_g,pos,pts_per_g,season,stl_per_g,team_id,tov_per_g,trb_per_g
22.0,0.2,0.2,0.7,0.423,0.423,0.7,1.7,0.0,0.0,0.0,0.423,0.7,1.7,0.7,0.2,0.3,31.0,0.0,NBA,5.8,0.7,0.9,C,1.6,2007,0.2,LAC,0.3,1.4
23.0,0.5,0.3,1.0,0.369,0.369,1.1,3.0,0.0,0.0,0.0,0.369,1.1,3.0,0.6,0.3,0.5,22.0,1.0,NBA,8.8,1.1,1.5,PF,2.5,2008,0.3,LAC,0.4,2.1
24.0,0.4,0.1,1.4,0.408,0.412,1.5,3.6,0.0,0.0,0.0,0.408,1.5,3.6,0.794,1.0,1.3,27.0,1.0,NBA,11.9,1.0,1.6,PF,4.0,2009,0.4,LAC,0.5,2.5
25.0,1.5,0.5,0.0,0.5,0.5,1.0,2.0,0.0,0.0,0.0,0.5,1.0,2.0,0.5,0.5,1.0,2.0,0.0,NBA,4.0,0.0,0.0,PF,2.5,2010,0.0,WAS,0.0,0.0
