age,ast,blk,drb,fg,fg2,fg2a,fg3,fg3a,fga,ft,fta,game_score,lg_id,mp,orb,pf,pts,season,stl,team_id,tov,trb
22.0,1.0,1.0,4.0,7.0,7.0,10.0,0.0,0.0,10.0,2.0,4.0,13.1,NBA,23,4.0,4.0,15.0,2007,1.0,LAC,2.0,7.0
23.0,2.0,2.0,4.0,5.0,5.0,7.0,0.0,0.0,7.0,2.0,3.0,9.6,NBA,20,4.0,5.0,10.0,2008,4.0,LAC,3.0,8.0
24.0,3.0,1.0,5.0,5.0,5.0,10.0,0.0,1.0,10.0,10.0,10.0,18.2,NBA,39,4.0,4.0,18.0,2009,3.0,LAC,2.0,5.0
25.0,2.0,1.0,0.0,2.0,2.0,3.0,0.0,0.0,3.0,1.0,2.0,4.8,NBA,5,0.0,0.0,4.0,2010,0.0,WAS,0.0,0.0
