age,ast_per_g,blk_per_g,drb_per_g,efg_pct,fg2_pct,fg2_per_g,fg2a_per_g,fg3_pct,fg3_per_g,fg3a_per_g,fg_pct,fg_per_g,fga_per_g,ft_pct,ft_per_g,fta_per_g,g,gs,lg_id,mp_per_g,orb_per_g,pf_per_g,pos,pts_per_g,season,stl_per_g,team_id,tov_per_g,trb_per_g
23.0,0.4,0.3,1.4,0.468,0.468,0.9,2.0,0.0,0.0,0.0,0.468,0.9,2.0,0.537,0.8,1.4,48.0,0.0,NBA,8.5,0.5,1.4,C,2.6,1986,0.1,DAL,0.6,1.9
24.0,0.4,0.3,0.8,0.392,0.392,0.7,1.7,0.0,0.0,0.0,0.392,0.7,1.7,0.464,0.4,0.9,30.0,0.0,NBA,5.3,0.4,1.1,C,1.8,1987,0.1,DAL,0.5,1.2
25.0,0.5,0.4,1.1,0.439,0.439,0.8,1.8,0.0,0.0,0.0,0.439,0.8,1.8,0.708,0.6,0.9,73.0,1.0,NBA,9.0,0.7,1.5,C,2.2,1988,0.1,DAL,0.7,1.8
26.0,0.3,0.4,0.9,0.462,0.462,0.6,1.4,0.0,0.0,0.0,0.462,0.6,1.4,0.8,0.5,0.7,37.0,0.0,NBA,5.6,0.3,1.0,C,1.8,1989,0.1,DAL,0.4,1.2
27.0,0.5,0.5,1.7,0.398,0.398,0.8,2.1,0.0,0.0,0.0,0.398,0.8,2.1,0.541,0.4,0.8,47.0,33.0,NBA,11.3,0.6,2.2,C,2.1,1990,0.0,TOT,0.7,2.3
27.0,0.6,0.6,1.8,0.379,0.379,0.8,2.2,0.0,0.0,0.0,0.379,0.8,2.2,0.548,0.4,0.8,40.0,33.0,NBA,12.0,0.7,2.3,C,2.1,1990,0.0,GSW,0.8,2.5
27.0,0.1,0.0,1.1,0.545,0.545,0.9,1.6,0.0,0.0,0.0,0.545,0.9,1.6,0.5,0.4,0.9,7.0,0.0,NBA,7.1,0.1,1.3,C,2.1,1990,0.0,SAS,0.7,1.3
