age,ast_pct,blk_pct,bpm,bpm-dum,dbpm,drb_pct,dws,fg3a_per_fga_pct,fta_per_fga_pct,g,lg_id,mp,obpm,orb_pct,ows,per,pos,season,stl_pct,team_id,tov_pct,trb_pct,ts_pct,usg_pct,vorp,ws,ws-dum,ws_per_48
23.0,5.1,1.6,-5.7,0.0,-1.4,17.4,0.2,0.0,0.713,48.0,NBA,409.0,-4.3,6.9,-0.1,7.6,C,1986,0.3,DAL,18.5,12.2,0.502,15.1,-0.4,0.1,0.0,0.01
24.0,10.4,3.2,-4.9,0.0,0.8,16.6,0.2,0.0,0.549,30.0,NBA,160.0,-5.7,7.6,-0.3,7.1,C,1987,1.2,DAL,19.2,12.2,0.419,19.9,-0.1,-0.1,0.0,-0.027
25.0,6.9,2.5,-3.3,0.0,0.6,13.3,0.6,0.0,0.492,73.0,NBA,658.0,-3.9,8.7,-0.1,7.4,C,1988,0.6,DAL,23.4,11.1,0.504,13.2,-0.2,0.5,0.0,0.036
26.0,8.2,3.6,-3.7,0.0,0.5,17.3,0.2,0.0,0.481,37.0,NBA,208.0,-4.2,5.9,0.1,10.8,C,1989,0.7,DAL,18.2,11.7,0.54,16.0,-0.1,0.3,0.0,0.069
27.0,5.8,2.3,-6.4,0.0,-0.5,15.2,0.2,0.0,0.378,47.0,NBA,531.0,-5.9,6.1,-0.6,3.3,C,1990,0.1,TOT,23.4,10.9,0.429,11.3,-0.6,-0.4,0.0,-0.039
27.0,6.1,2.5,-6.0,0.0,-0.3,15.0,0.1,0.0,0.356,40.0,NBA,481.0,-5.7,6.5,-0.6,3.3,C,1990,0.1,GSW,23.0,11.0,0.412,10.8,-0.5,-0.4,0.0,-0.041
27.0,2.7,0.0,-10.0,0.0,-2.5,17.5,0.1,0.0,0.545,7.0,NBA,50.0,-7.5,2.3,-0.1,3.1,C,1990,0.0,SAS,26.8,10.1,0.55,15.5,-0.1,0.0,0.0,-0.022
