age,ast_per_g,blk_per_g,drb_per_g,efg_pct,fg2_pct,fg2_per_g,fg2a_per_g,fg3_pct,fg3_per_g,fg3a_per_g,fg_pct,fg_per_g,fga_per_g,ft_pct,ft_per_g,fta_per_g,g,gs,lg_id,mp_per_g,orb_per_g,pf_per_g,pos,pts_per_g,season,stl_per_g,team_id,tov_per_g,trb_per_g
22.0,4.5,0.3,1.7,0.48,0.495,3.0,6.1,0.053,0.0,0.2,0.479,3.0,6.3,0.61,1.3,2.1,82.0,0.0,NBA,19.2,0.7,2.2,PG,7.4,1981,1.5,SAS,1.9,2.4
23.0,9.6,0.2,2.7,0.464,0.477,3.9,8.2,0.048,0.0,0.3,0.463,3.9,8.4,0.67,1.5,2.3,79.0,78.0,NBA,29.0,0.8,3.2,PG,9.4,1982,2.1,SAS,2.2,3.5
24.0,9.8,0.4,2.8,0.471,0.475,5.1,10.6,0.227,0.1,0.3,0.468,5.1,10.9,0.744,1.9,2.6,77.0,73.0,NBA,33.1,0.8,3.2,PG,12.2,1983,2.5,SAS,2.9,3.6
25.0,9.6,0.3,2.4,0.473,0.471,3.4,7.3,0.322,0.5,1.5,0.446,3.9,8.8,0.755,1.8,2.4,59.0,42.0,NBA,28.0,0.6,2.8,PG,10.1,1984,2.1,SAS,2.4,3.0
26.0,10.0,0.2,3.5,0.471,0.476,4.8,10.0,0.281,0.3,1.1,0.457,5.1,11.1,0.762,2.3,3.0,82.0,82.0,NBA,32.8,1.1,3.0,PG,12.8,1985,2.8,SAS,2.9,4.6
27.0,9.0,0.2,2.2,0.502,0.52,5.2,10.0,0.182,0.1,0.8,0.495,5.4,10.8,0.686,2.1,3.1,28.0,23.0,NBA,30.6,0.9,2.8,PG,13.0,1986,2.5,SAS,2.9,3.1
28.0,4.5,0.1,1.2,0.467,0.477,3.2,6.7,0.278,0.4,1.4,0.442,3.6,8.1,0.8,1.0,1.3,55.0,27.0,NBA,22.4,0.6,1.8,PG,8.6,1987,1.5,SAS,1.9,1.8
29.0,2.4,0.0,0.8,0.4,0.444,0.8,1.8,0.0,0.0,0.2,0.4,0.8,2.0,0.0,0.0,0.0,5.0,0.0,NBA,12.2,0.4,0.2,PG,1.6,1988,0.6,TOT,1.4,1.2
29.0,2.8,0.0,0.8,0.444,0.5,1.0,2.0,0.0,0.0,0.3,0.444,1.0,2.3,0.0,0.0,0.0,4.0,0.0,NBA,12.8,0.3,0.3,PG,2.0,1988,0.8,SAS,1.0,1.0
29.0,1.0,0.0,1.0,0.0,0.0,0.0,1.0,0.0,0.0,0.0,0.0,0.0,1.0,0.0,0.0,0.0,1.0,0.0,NBA,10.0,1.0,0.0,PG,0.0,1988,0.0,NJN,3.0,2.0
31.0,1.5,0.1,0.7,0.405,0.424,0.7,1.7,0.235,0.2,0.6,0.373,0.9,2.4,0.593,0.3,0.5,53.0,8.0,NBA,9.7,0.3,1.0,PG,2.2,1990,0.6,SAS,0.7,1.0
