age,ast,ast_per_g,blk,college_id,fg,fg3,fg3_pct,fg3a,fg_pct,fga,ft,ft_pct,fta,g,mp,mp_per_g,orb,pf,pts,pts_per_g,season,stl,tov,trb,trb_per_g
17.0,0.0,0.0,0.0,TEXAS,154.0,0.0,0.0,0.0,0.436,353.0,45.0,0.738,61.0,26.0,0.0,0.0,0.0,0.0,353.0,13.6,1976,0.0,0.0,61.0,2.3
18.0,0.0,0.0,0.0,TEXAS,168.0,0.0,0.0,0.0,0.434,387.0,78.0,0.804,97.0,26.0,0.0,0.0,0.0,0.0,414.0,15.9,1977,0.0,0.0,97.0,3.7
19.0,0.0,0.0,0.0,TEXAS,168.0,0.0,0.0,0.0,0.488,344.0,81.0,0.736,110.0,31.0,0.0,0.0,0.0,0.0,417.0,13.5,1978,0.0,0.0,159.0,5.1
20.0,0.0,0.0,0.0,TEXAS,119.0,0.0,0.0,0.0,0.469,254.0,57.0,0.648,88.0,29.0,0.0,0.0,0.0,0.0,295.0,10.2,1979,0.0,0.0,129.0,4.4
