age,ast_per_poss,blk_per_poss,def_rtg,drb_per_poss,fg2_pct,fg2_per_poss,fg2a_per_poss,fg3_pct,fg3_per_poss,fg3a_per_poss,fg_pct,fg_per_poss,fga_per_poss,ft_pct,ft_per_poss,fta_per_poss,g,gs,lg_id,mp,off_rtg,orb_per_poss,pf_per_poss,pos,pts_per_poss,season,stl_per_poss,team_id,tov_per_poss,trb_per_poss
22.0,10.8,0.4,111.0,2.0,0.529,7.2,13.6,0.0,0.0,1.2,0.486,7.2,14.8,0.75,2.4,3.2,7.0,0.0,NBA,124.0,114.0,3.2,5.6,PG,16.8,1981,4.0,SAS,3.2,5.2
23.0,15.0,1.0,109.0,3.6,0.494,6.3,12.8,0.0,0.0,0.5,0.476,6.3,13.2,0.593,2.6,4.4,9.0,0.0,NBA,292.0,116.0,1.5,6.1,PG,15.2,1982,2.4,SAS,2.4,5.0
24.0,17.3,0.3,106.0,4.2,0.533,10.3,19.3,0.529,1.0,1.8,0.533,11.3,21.1,0.8,3.0,3.8,11.0,0.0,NBA,414.0,127.0,0.9,4.4,PG,26.5,1983,3.0,SAS,3.0,5.0
26.0,11.5,0.5,114.0,4.6,0.471,6.5,13.9,0.333,0.3,0.8,0.463,6.8,14.7,0.652,4.1,6.3,5.0,5.0,NBA,168.0,108.0,3.5,4.6,PG,18.0,1985,2.7,SAS,4.4,8.2
31.0,11.5,0.5,104.0,4.4,0.333,3.3,9.8,0.0,0.0,3.3,0.25,3.3,13.1,0.5,2.2,4.4,9.0,0.0,NBA,86.0,80.0,1.6,6.0,PG,8.7,1990,3.8,SAS,3.8,6.0
