age,ast,blk,drb,fg,fg2,fg2a,fg3,fg3a,fga,ft,fta,game_score,lg_id,mp,orb,pf,pts,season,stl,team_id,tov,trb
21.0,0.0,0.0,0.0,0.0,0.0,0.0,0.0,0.0,0.0,0.0,0.0,-0.8,NBA,2,0.0,2.0,0.0,2011,0.0,SAC,0.0,0.0
22.0,0.0,3.0,6.0,2.0,2.0,6.0,0.0,0.0,6.0,2.0,4.0,8.2,NBA,20,5.0,2.0,5.0,2012,1.0,SAC,2.0,10.0
25.0,1.0,12.0,19.0,12.0,12.0,17.0,0.0,0.0,17.0,6.0,16.0,28.5,NBA,38,10.0,6.0,24.0,2015,3.0,MIA,4.0,25.0
26.0,2.0,11.0,15.0,12.0,12.0,17.0,0.0,0.0,17.0,10.0,12.0,27.8,NBA,42,8.0,6.0,27.0,2016,3.0,MIA,7.0,23.0
27.0,3.0,6.0,18.0,14.0,14.0,22.0,0.0,0.0,22.0,10.0,13.0,30.4,NBA,47,10.0,6.0,32.0,2017,3.0,MIA,5.0,25.0
28.0,4.0,6.0,17.0,11.0,11.0,17.0,1.0,1.0,17.0,8.0,12.0,27.6,NBA,37,8.0,6.0,27.0,2018,3.0,MIA,7.0,22.0
29.0,3.0,9.0,19.0,14.0,14.0,20.0,1.0,2.0,21.0,9.0,11.0,33.9,NBA,35,11.0,5.0,29.0,2019,4.0,MIA,6.0,24.0
30.0,3.0,5.0,14.0,10.0,10.0,18.0,0.0,0.0,18.0,7.0,9.0,22.3,NBA,36,9.0,6.0,22.0,2020,2.0,POR,4.0,19.0
