age,ast,blk,drb,fg,fg2,fg2a,fg3,fg3a,fga,ft,fta,game_score,lg_id,mp,orb,pf,pts,season,stl,team_id,tov,trb
20.0,2.0,1.0,5.0,6.0,6.0,10.0,0.0,0.0,10.0,5.0,6.0,12.5,NBA,0.0,4.0,3.0,14.0,2002,1.0,POR,2.0,9.0
21.0,3.0,1.0,9.0,13.0,13.0,25.0,0.0,1.0,25.0,7.0,8.0,29.1,NBA,0.0,11.0,5.0,31.0,2003,2.0,POR,5.0,20.0
22.0,6.0,3.0,15.0,13.0,13.0,27.0,1.0,1.0,27.0,10.0,17.0,32.0,NBA,0.0,10.0,5.0,34.0,2004,5.0,POR,7.0,20.0
23.0,6.0,5.0,12.0,13.0,13.0,25.0,0.0,1.0,25.0,13.0,14.0,29.3,NBA,0.0,9.0,6.0,33.0,2005,4.0,POR,6.0,18.0
24.0,8.0,1.0,13.0,14.0,14.0,28.0,3.0,8.0,28.0,13.0,19.0,27.7,NBA,46.0,9.0,6.0,37.0,2006,3.0,POR,6.0,15.0
25.0,6.0,3.0,15.0,17.0,16.0,38.0,1.0,3.0,40.0,15.0,20.0,39.2,NBA,47.0,8.0,6.0,43.0,2007,3.0,POR,7.0,17.0
26.0,6.0,2.0,16.0,11.0,11.0,23.0,3.0,6.0,23.0,9.0,13.0,25.0,NBA,48.0,7.0,6.0,29.0,2008,4.0,NYK,7.0,22.0
27.0,6.0,2.0,13.0,15.0,14.0,28.0,4.0,5.0,30.0,11.0,14.0,28.6,NBA,50.0,8.0,5.0,38.0,2009,3.0,TOT,6.0,19.0
27.0,3.0,1.0,13.0,10.0,10.0,18.0,2.0,4.0,21.0,11.0,12.0,23.8,NBA,48.0,7.0,5.0,29.0,2009,3.0,NYK,5.0,19.0
27.0,6.0,2.0,12.0,15.0,14.0,28.0,4.0,5.0,30.0,10.0,14.0,28.6,NBA,50.0,8.0,5.0,38.0,2009,3.0,LAC,6.0,16.0
28.0,7.0,3.0,16.0,14.0,14.0,23.0,1.0,3.0,24.0,11.0,15.0,33.9,NBA,51.0,11.0,6.0,33.0,2010,4.0,MEM,6.0,25.0
29.0,7.0,3.0,15.0,15.0,15.0,27.0,1.0,2.0,27.0,14.0,17.0,33.3,NBA,47.0,10.0,4.0,35.0,2011,4.0,MEM,6.0,21.0
30.0,4.0,1.0,11.0,11.0,11.0,17.0,1.0,3.0,20.0,9.0,14.0,23.4,NBA,40.0,6.0,4.0,25.0,2012,3.0,MEM,4.0,14.0
31.0,6.0,3.0,15.0,15.0,15.0,23.0,1.0,2.0,23.0,9.0,14.0,37.3,NBA,45.0,10.0,5.0,38.0,2013,4.0,MEM,7.0,22.0
32.0,7.0,4.0,12.0,15.0,15.0,25.0,1.0,2.0,25.0,9.0,12.0,26.7,NBA,47.0,10.0,5.0,32.0,2014,4.0,MEM,7.0,20.0
33.0,6.0,2.0,15.0,12.0,12.0,22.0,1.0,2.0,22.0,8.0,10.0,24.0,NBA,49.0,13.0,6.0,27.0,2015,3.0,MEM,7.0,22.0
34.0,10.0,3.0,13.0,12.0,12.0,20.0,1.0,2.0,21.0,8.0,8.0,26.6,NBA,41.0,8.0,5.0,28.0,2016,3.0,MEM,6.0,18.0
35.0,6.0,2.0,12.0,12.0,12.0,19.0,2.0,4.0,21.0,7.0,9.0,26.4,NBA,39.0,8.0,6.0,28.0,2017,3.0,MEM,4.0,16.0
36.0,7.0,2.0,11.0,14.0,12.0,17.0,5.0,9.0,23.0,6.0,7.0,28.1,NBA,41.0,4.0,5.0,35.0,2018,3.0,SAC,6.0,13.0
