age,ast_per_g,blk_per_g,drb_per_g,efg_pct,fg2_pct,fg2_per_g,fg2a_per_g,fg3_pct,fg3_per_g,fg3a_per_g,fg_pct,fg_per_g,fga_per_g,ft_pct,ft_per_g,fta_per_g,g,gs,lg_id,mp_per_g,orb_per_g,pf_per_g,pos,pts_per_g,season,stl_per_g,team_id,tov_per_g,trb_per_g
20.0,0.0,0.0,0.0,0.0,0.0,0.0,0.0,0.0,0.0,0.0,0.0,0.0,0.0,0.0,0.0,0.0,1.0,0.0,NBA,1.0,0.0,0.0,PF,0.0,2002,0.0,POR,0.0,0.0
21.0,1.6,0.3,5.6,0.525,0.525,4.6,8.7,0.0,0.0,0.0,0.525,4.6,8.7,0.892,4.7,5.3,7.0,4.0,NBA,29.3,3.1,2.4,PF,13.9,2003,0.4,POR,1.9,8.7
29.0,2.4,0.8,7.5,0.451,0.454,7.5,16.6,0.25,0.2,0.6,0.446,7.7,17.2,0.821,6.7,8.2,13.0,13.0,NBA,39.6,3.3,3.5,PF,22.2,2011,1.1,MEM,2.1,10.8
30.0,0.9,0.6,6.0,0.42,0.44,5.3,12.0,0.0,0.0,0.6,0.42,5.3,12.6,0.629,3.1,5.0,7.0,7.0,NBA,35.4,3.9,3.6,PF,13.7,2012,1.0,MEM,1.6,9.9
31.0,1.6,0.5,6.1,0.46,0.463,6.6,14.3,0.0,0.0,0.1,0.46,6.6,14.3,0.67,4.2,6.3,15.0,15.0,NBA,36.9,3.9,3.5,PF,17.4,2013,0.7,MEM,2.1,10.0
32.0,2.3,0.2,5.8,0.404,0.408,7.0,17.2,0.0,0.0,0.2,0.404,7.0,17.3,0.61,4.2,6.8,6.0,6.0,NBA,39.0,2.8,2.2,PF,18.2,2014,0.8,MEM,1.7,8.7
33.0,2.1,0.0,5.5,0.426,0.429,6.4,14.8,0.2,0.1,0.5,0.423,6.5,15.3,0.879,2.6,3.0,11.0,11.0,NBA,34.7,2.9,3.4,PF,15.6,2015,0.5,MEM,2.1,8.5
34.0,1.8,0.0,5.0,0.371,0.371,5.8,15.5,0.0,0.0,0.0,0.371,5.8,15.5,0.857,1.5,1.8,4.0,4.0,NBA,30.0,3.8,2.5,PF,13.0,2016,0.3,MEM,1.8,8.8
35.0,0.7,0.3,6.7,0.428,0.447,5.7,12.7,0.143,0.2,1.2,0.422,5.8,13.8,0.727,1.3,1.8,6.0,4.0,NBA,31.8,1.5,2.3,PF,13.2,2017,0.8,MEM,1.2,8.2
