age,ast,blk,drb,fg,fg2,fg2a,fg3,fg3a,fga,ft,fta,game_score,lg_id,mp,orb,pf,pts,season,stl,team_id,tov,trb
27.0,5.0,1.0,3.0,7.0,5.0,11.0,3.0,8.0,19.0,2.0,3.0,14.9,NBA,0.0,3.0,2.0,19.0,2004,2.0,DEN,2.0,6.0
28.0,5.0,1.0,1.0,12.0,12.0,18.0,0.0,3.0,20.0,8.0,9.0,23.6,NBA,0.0,1.0,5.0,32.0,2005,2.0,DEN,3.0,2.0
29.0,5.0,0.0,3.0,5.0,4.0,11.0,3.0,7.0,17.0,5.0,7.0,9.1,NBA,34.0,2.0,2.0,14.0,2006,2.0,DEN,1.0,3.0
