age,ast_per_poss,blk_per_poss,def_rtg,drb_per_poss,fg2_pct,fg2_per_poss,fg2a_per_poss,fg3_pct,fg3_per_poss,fg3a_per_poss,fg_pct,fg_per_poss,fga_per_poss,ft_pct,ft_per_poss,fta_per_poss,g,gs,lg_id,mp,off_rtg,orb_per_poss,pf_per_poss,pos,pts_per_poss,season,stl_per_poss,team_id,tov_per_poss,trb_per_poss
24.0,1.8,0.0,117.0,0.0,0.25,3.5,14.2,0.0,0.0,0.0,0.25,3.5,14.2,0.0,0.0,0.0,4.0,0.0,NBA,28.0,49.0,0.0,14.2,PG,7.1,1990,0.0,CHI,3.5,0.0
25.0,3.4,0.5,108.0,3.0,0.5,6.9,13.8,0.0,0.0,0.5,0.483,6.9,14.3,0.667,3.0,4.4,7.0,0.0,NBA,99.0,92.0,0.5,4.4,PG,16.7,1991,1.0,SAS,3.9,3.4
