age,ast,ast_per_g,blk,college_id,fg,fg3,fg3_pct,fg3a,fg_pct,fga,ft,ft_pct,fta,g,mp,mp_per_g,orb,pf,pts,pts_per_g,season,stl,tov,trb,trb_per_g
20.0,18.0,0.7,32.0,CALSTFULL,139.0,6.0,0.188,32.0,0.421,330.0,118.0,0.648,182.0,26.0,867.0,33.3,0.0,0.0,402.0,15.5,2002,35.0,0.0,223.0,8.6
21.0,13.0,0.7,13.0,CALSTFULL,82.0,6.0,0.5,12.0,0.513,160.0,79.0,0.681,116.0,18.0,566.0,31.4,0.0,0.0,249.0,13.8,2003,25.0,0.0,159.0,8.8
22.0,25.0,0.9,16.0,CALSTFULL,160.0,8.0,0.333,24.0,0.494,324.0,156.0,0.675,231.0,28.0,901.0,32.2,0.0,0.0,484.0,17.3,2004,44.0,0.0,272.0,9.7
