lg_id,salary,season,team_name
NBA,332817.0,2002,Chicago Bulls
NBA,512435.0,2003,Chicago Bulls
NBA,638679.0,2004,Minnesota Timberwolves
NBA,4350000.0,2005,Minnesota Timberwolves
NBA,4350000.0,2006,Minnesota Timberwolves
NBA,4350000.0,2007,Minnesota Timberwolves
NBA,4350000.0,2008,New Jersey Nets
NBA,4350000.0,2009,New Jersey Nets
NBA,4350000.0,2010,New Jersey Nets
