age,ast_per_poss,blk_per_poss,def_rtg,drb_per_poss,fg2_pct,fg2_per_poss,fg2a_per_poss,fg3_pct,fg3_per_poss,fg3a_per_poss,fg_pct,fg_per_poss,fga_per_poss,ft_pct,ft_per_poss,fta_per_poss,g,gs,lg_id,mp,off_rtg,orb_per_poss,pf_per_poss,pos,pts_per_poss,season,stl_per_poss,team_id,tov_per_poss,trb_per_poss
22.0,4.1,1.0,110.0,4.5,0.447,4.9,11.0,0.364,1.4,3.9,0.425,6.3,14.9,0.763,2.1,2.7,78.0,47.0,NBA,2237.0,99.0,1.5,4.4,SG,16.1,2002,1.3,CHI,2.4,6.0
23.0,3.9,1.6,107.0,5.6,0.372,3.4,9.0,0.325,0.3,1.0,0.367,3.7,10.1,0.745,1.1,1.4,82.0,53.0,NBA,1999.0,86.0,0.9,5.1,SG,8.8,2003,1.2,CHI,2.1,6.5
24.0,3.2,1.3,103.0,4.5,0.47,4.1,8.8,0.308,0.1,0.3,0.465,4.2,9.1,0.787,1.1,1.5,81.0,74.0,NBA,2264.0,107.0,1.6,4.8,SG,9.7,2004,0.9,MIN,1.1,6.1
25.0,3.3,0.8,111.0,3.6,0.483,5.8,12.1,0.091,0.0,0.3,0.474,5.9,12.4,0.789,2.3,3.0,82.0,51.0,NBA,2068.0,108.0,2.1,5.2,SG,14.1,2005,0.8,MIN,1.7,5.7
26.0,4.4,0.6,109.0,2.9,0.47,6.0,12.8,0.304,0.2,0.5,0.464,6.2,13.2,0.744,2.8,3.8,77.0,67.0,NBA,2514.0,101.0,1.8,4.3,SG,15.3,2006,0.9,MIN,2.7,4.6
27.0,4.8,0.6,112.0,3.8,0.505,5.0,9.9,0.24,0.1,0.6,0.49,5.2,10.5,0.783,1.7,2.2,76.0,68.0,NBA,2223.0,109.0,2.0,3.4,SG,12.2,2007,0.5,MIN,1.9,5.8
28.0,2.8,0.2,111.0,4.3,0.437,3.8,8.6,0.222,0.1,0.6,0.422,3.9,9.2,0.7,0.5,0.7,63.0,6.0,NBA,773.0,93.0,1.4,6.2,SG,8.4,2008,0.9,TOT,1.5,5.7
28.0,3.0,0.1,110.0,3.8,0.474,4.1,8.7,0.25,0.1,0.5,0.463,4.3,9.2,0.5,0.1,0.2,37.0,6.0,NBA,463.0,97.0,1.3,6.3,SG,8.7,2008,1.0,DAL,1.6,5.1
28.0,2.5,0.3,113.0,5.1,0.38,3.2,8.5,0.2,0.2,0.8,0.364,3.4,9.3,0.75,1.0,1.4,26.0,0.0,NBA,310.0,89.0,1.5,5.9,SG,8.0,2008,0.7,NJN,1.4,6.6
29.0,2.5,0.8,114.0,4.7,0.459,4.1,8.9,0.25,0.1,0.4,0.45,4.2,9.3,0.8,1.0,1.2,53.0,31.0,NBA,1094.0,103.0,2.4,4.5,SF,9.5,2009,1.0,NJN,1.5,7.1
30.0,2.4,0.4,114.0,4.6,0.421,4.3,10.2,0.0,0.0,0.2,0.411,4.3,10.4,0.754,2.5,3.3,52.0,31.0,NBA,1106.0,94.0,2.7,4.3,SF,11.0,2010,0.8,NJN,2.2,7.2
