age,ast,ast_per_g,blk,college_id,fg,fg3,fg3_pct,fg3a,fg_pct,fga,ft,ft_pct,fta,g,mp,mp_per_g,orb,pf,pts,pts_per_g,season,stl,tov,trb,trb_per_g
19.0,67.0,2.0,3.0,GONZAGA,29.0,8.0,0.229,35.0,0.279,104.0,23.0,0.676,34.0,33.0,0.0,0.0,0.0,0.0,89.0,2.7,2006,29.0,0.0,71.0,2.2
20.0,156.0,4.6,3.0,GONZAGA,142.0,22.0,0.373,59.0,0.486,292.0,104.0,0.732,142.0,34.0,0.0,0.0,0.0,0.0,410.0,12.1,2007,48.0,0.0,146.0,4.3
21.0,199.0,6.0,9.0,GONZAGA,149.0,22.0,0.265,83.0,0.497,300.0,78.0,0.678,115.0,33.0,0.0,0.0,0.0,0.0,398.0,12.1,2008,47.0,111.0,121.0,3.7
22.0,167.0,4.9,5.0,GONZAGA,138.0,23.0,0.359,64.0,0.479,288.0,49.0,0.7,70.0,34.0,0.0,0.0,0.0,0.0,348.0,10.2,2009,46.0,81.0,117.0,3.4
