age,ast_per_g,blk_per_g,drb_per_g,efg_pct,fg2_pct,fg2_per_g,fg2a_per_g,fg3_pct,fg3_per_g,fg3a_per_g,fg_pct,fg_per_g,fga_per_g,ft_pct,ft_per_g,fta_per_g,g,gs,lg_id,mp_per_g,orb_per_g,pf_per_g,pos,pts_per_g,season,stl_per_g,team_id,tov_per_g,trb_per_g
23.0,0.7,0.5,3.2,0.471,0.486,2.8,5.8,0.294,0.8,2.8,0.423,3.7,8.7,0.556,1.7,3.0,6.0,0.0,NBA,25.3,1.2,2.2,SF,9.8,2010,0.8,POR,0.5,4.3
27.0,0.5,0.5,1.9,0.439,0.6,0.8,1.4,0.231,0.5,2.4,0.366,1.4,3.7,0.667,0.5,0.8,11.0,0.0,NBA,17.7,0.4,1.3,SF,3.8,2014,0.4,WAS,0.4,2.3
28.0,0.0,0.0,0.0,0.5,1.0,1.0,1.0,0.0,0.0,1.0,0.5,1.0,2.0,0.0,0.0,0.0,1.0,0.0,NBA,4.0,0.0,0.0,SF,2.0,2015,0.0,WAS,0.0,0.0
