age,ast_pct,blk_pct,bpm,bpm-dum,dbpm,drb_pct,dws,fg3a_per_fga_pct,fta_per_fga_pct,g,lg_id,mp,obpm,orb_pct,ows,per,pos,season,stl_pct,team_id,tov_pct,trb_pct,ts_pct,usg_pct,vorp,ws,ws-dum,ws_per_48
21.0,7.2,0.9,-2.9,0.0,-1.7,10.6,0.8,0.429,0.092,73.0,NBA,1239.0,-1.3,3.3,0.0,10.4,SG,2013,1.8,TOR,9.2,6.9,0.491,19.6,-0.3,0.9,0.0,0.034
22.0,6.1,1.0,-0.1,0.0,-0.7,11.3,2.2,0.543,0.13,81.0,NBA,2159.0,0.6,2.3,2.0,12.0,SG,2014,1.5,TOR,10.0,6.8,0.553,18.6,1.0,4.2,0.0,0.094
23.0,6.5,1.0,-1.6,0.0,-1.8,10.7,1.0,0.518,0.074,82.0,NBA,2092.0,0.2,1.8,1.3,11.2,SF,2015,1.3,TOR,8.1,6.2,0.519,18.3,0.2,2.4,0.0,0.054
24.0,5.3,1.2,-0.2,0.0,-1.2,10.6,1.6,0.542,0.099,73.0,NBA,1747.0,1.1,1.4,2.1,12.9,SF,2016,1.6,TOR,6.6,6.1,0.551,18.2,0.8,3.6,0.0,0.1
25.0,7.1,1.4,-0.3,0.0,-0.6,10.8,2.0,0.524,0.103,78.0,NBA,1955.0,0.4,1.0,1.5,13.4,SF,2017,2.2,TOT,8.0,5.9,0.55,19.3,0.9,3.5,0.0,0.086
25.0,5.9,1.4,0.3,0.0,-0.9,11.6,1.3,0.534,0.104,54.0,NBA,1207.0,1.2,1.3,1.6,14.9,SF,2017,2.2,TOR,6.2,6.5,0.558,19.8,0.7,2.9,0.0,0.116
25.0,9.0,1.4,-1.2,0.0,-0.2,9.6,0.6,0.506,0.101,24.0,NBA,748.0,-1.0,0.6,0.0,11.1,SF,2017,2.3,ORL,11.2,5.0,0.536,18.5,0.1,0.6,0.0,0.037
26.0,9.3,1.5,-2.1,0.0,0.1,11.6,0.5,0.487,0.188,24.0,NBA,600.0,-2.2,1.8,-0.2,9.9,SG,2018,2.2,ORL,12.3,6.7,0.505,17.3,0.0,0.3,0.0,0.025
27.0,9.9,1.1,-0.3,0.0,-1.3,12.8,2.6,0.551,0.14,81.0,NBA,2150.0,1.0,1.3,1.7,15.4,SG,2019,1.6,ORL,7.6,7.0,0.561,23.9,0.9,4.3,0.0,0.095
28.0,8.8,0.9,-4.1,0.0,-0.5,12.9,0.3,0.602,0.148,9.0,NBA,200.0,-3.6,2.0,-0.4,7.7,SG,2020,2.2,ORL,13.0,7.2,0.443,23.4,-0.1,-0.1,0.0,-0.015
