age,ast_per_g,blk_per_g,drb_per_g,efg_pct,fg2_pct,fg2_per_g,fg2a_per_g,fg3_pct,fg3_per_g,fg3a_per_g,fg_pct,fg_per_g,fga_per_g,ft_pct,ft_per_g,fta_per_g,g,gs,lg_id,mp_per_g,orb_per_g,pf_per_g,pos,pts_per_g,season,stl_per_g,team_id,tov_per_g,trb_per_g
21.0,0.7,0.2,1.5,0.478,0.464,1.7,3.6,0.332,0.9,2.7,0.407,2.5,6.3,0.714,0.4,0.6,73.0,2.0,NBA,17.0,0.5,1.7,SG,6.4,2013,0.6,TOR,0.7,2.0
22.0,1.0,0.3,2.6,0.531,0.458,1.9,4.2,0.395,2.0,5.0,0.423,3.9,9.3,0.837,1.0,1.2,81.0,62.0,NBA,26.7,0.5,2.3,SG,10.9,2014,0.8,TOR,1.1,3.1
23.0,1.0,0.3,2.4,0.507,0.452,2.0,4.4,0.372,1.8,4.8,0.41,3.8,9.2,0.786,0.5,0.7,82.0,61.0,NBA,25.5,0.4,1.7,SF,9.8,2015,0.6,TOR,0.8,2.8
24.0,0.8,0.3,2.2,0.536,0.484,1.9,3.9,0.386,1.8,4.6,0.431,3.7,8.6,0.79,0.7,0.8,73.0,7.0,NBA,23.9,0.3,1.6,SF,9.9,2016,0.7,TOR,0.6,2.5
25.0,1.1,0.4,2.4,0.532,0.518,2.4,4.6,0.363,1.8,5.0,0.437,4.2,9.6,0.831,0.8,1.0,78.0,24.0,NBA,25.1,0.2,1.8,SF,11.0,2017,1.1,TOT,0.9,2.6
25.0,0.8,0.4,2.3,0.541,0.516,2.1,4.1,0.375,1.8,4.7,0.441,3.9,8.9,0.82,0.8,0.9,54.0,0.0,NBA,22.4,0.3,1.5,SF,10.4,2017,1.0,TOR,0.6,2.6
25.0,1.8,0.5,2.7,0.517,0.523,2.9,5.5,0.341,1.9,5.6,0.431,4.8,11.1,0.852,1.0,1.1,24.0,24.0,NBA,31.2,0.2,2.5,SF,12.5,2017,1.4,ORL,1.5,2.8
26.0,1.6,0.5,2.6,0.476,0.469,1.9,4.1,0.323,1.3,3.9,0.398,3.2,8.0,0.75,1.1,1.5,24.0,20.0,NBA,25.0,0.4,1.9,SG,8.7,2018,1.1,ORL,1.2,3.0
27.0,1.7,0.4,3.1,0.534,0.484,2.8,5.7,0.383,2.7,7.0,0.428,5.4,12.7,0.875,1.6,1.8,81.0,0.0,NBA,26.5,0.3,1.5,SG,15.1,2019,0.9,ORL,1.1,3.5
28.0,1.2,0.2,2.7,0.403,0.457,1.8,3.9,0.245,1.4,5.9,0.33,3.2,9.8,0.923,1.3,1.4,9.0,0.0,NBA,22.2,0.4,1.9,SG,9.2,2020,1.0,ORL,1.6,3.1
