age,ast_per_g,blk_per_g,drb_per_g,efg_pct,fg2_pct,fg2_per_g,fg2a_per_g,fg3_pct,fg3_per_g,fg3a_per_g,fg_pct,fg_per_g,fga_per_g,ft_pct,ft_per_g,fta_per_g,g,gs,lg_id,mp_per_g,orb_per_g,pf_per_g,pos,pts_per_g,season,stl_per_g,team_id,tov_per_g,trb_per_g
21.0,8.2,0.9,6.3,0.545,0.551,6.7,12.2,0.0,0.0,0.1,0.545,6.7,12.3,0.56,2.4,4.2,81.0,81.0,NBA,33.7,1.8,2.6,PG,15.8,2018,1.7,PHI,3.4,8.1
22.0,7.7,0.8,6.6,0.563,0.566,6.8,12.1,0.0,0.0,0.1,0.563,6.8,12.2,0.6,3.3,5.4,79.0,79.0,NBA,34.2,2.2,2.6,PG,16.9,2019,1.4,PHI,3.5,8.8
23.0,6.6,0.6,4.7,0.55,0.55,6.1,11.1,0.0,0.0,0.0,0.55,6.1,11.1,0.536,1.7,3.1,9.0,9.0,NBA,32.6,1.0,3.1,PG,13.9,2020,2.6,PHI,3.6,5.7
