age,and1s,astd_pts,drawn_offensive,drawn_shooting,fouls_offensive,fouls_shooting,g,lg_id,mp,own_shots_blk,pct_1,pct_2,pct_3,pct_4,pct_5,plus_minus_net,plus_minus_on,pos,season,team_id,tov_bad_pass,tov_lost_ball
21.0,26.0,1621.0,9.0,121.0,27.0,72.0,81.0,NBA,2732.0,49.0,74.0,26.0,0.0,0.0,0.0,7.3,6.9,PG,2018,PHI,167.0,50.0
22.0,45.0,1480.0,4.0,183.0,35.0,83.0,79.0,NBA,2700.0,57.0,80.0,20.0,0.0,0.0,0.0,-2.4,2.2,PG,2019,PHI,148.0,62.0
23.0,6.0,143.0,0.0,13.0,11.0,6.0,9.0,NBA,293.0,5.0,100.0,0.0,0.0,0.0,0.0,-0.4,1.6,PG,2020,PHI,17.0,2.0
