age,ast,blk,drb,efg_pct,fg,fg2,fg2_pct,fg2a,fg3,fg3_pct,fg3a,fg_pct,fga,ft,ft_pct,fta,g,gs,lg_id,mp,orb,pf,pos,pts,season,stl,team_id,tov,trb
22.0,3.0,4.0,57.0,0.435,32.0,29.0,0.446,65.0,3.0,0.25,12.0,0.416,77.0,18.0,0.692,26.0,29.0,1.0,NBA,301.0,35.0,32.0,PF,85.0,1997,10.0,PHI,14.0,92.0
23.0,41.0,9.0,110.0,0.389,58.0,58.0,0.403,144.0,0.0,0.0,5.0,0.389,149.0,47.0,0.825,57.0,48.0,1.0,NBA,737.0,33.0,60.0,PF,163.0,1998,26.0,SAC,31.0,143.0
24.0,13.0,1.0,41.0,0.443,39.0,39.0,0.448,87.0,0.0,0.0,1.0,0.443,88.0,42.0,0.84,50.0,22.0,6.0,NBA,399.0,27.0,39.0,PF,120.0,1999,12.0,NJN,15.0,68.0
25.0,6.0,1.0,10.0,0.625,5.0,5.0,0.625,8.0,0.0,0.0,0.0,0.625,8.0,3.0,0.75,4.0,15.0,0.0,NBA,71.0,3.0,8.0,PF,13.0,2000,2.0,TOT,3.0,13.0
25.0,3.0,1.0,9.0,0.714,5.0,5.0,0.714,7.0,0.0,0.0,0.0,0.714,7.0,2.0,1.0,2.0,10.0,0.0,NBA,47.0,2.0,7.0,PF,12.0,2000,2.0,CLE,3.0,11.0
25.0,3.0,0.0,1.0,0.0,0.0,0.0,0.0,1.0,0.0,0.0,0.0,0.0,1.0,1.0,0.5,2.0,5.0,0.0,NBA,24.0,1.0,1.0,PF,1.0,2000,0.0,NJN,0.0,2.0
