age,ast,blk,drb,fg,fg2,fg2a,fg3,fg3a,fga,ft,fta,game_score,lg_id,mp,orb,pf,pts,season,stl,team_id,tov,trb
24.0,3.0,2.0,5.0,5.0,5.0,9.0,1.0,1.0,9.0,4.0,6.0,11.5,NBA,0.0,2.0,6.0,14.0,1992,4.0,DAL,2.0,6.0
25.0,4.0,2.0,8.0,8.0,8.0,14.0,1.0,1.0,14.0,5.0,7.0,14.4,NBA,0.0,4.0,6.0,18.0,1993,6.0,DAL,4.0,9.0
