age,ast,blk,drb,fg,fg2,fg2a,fg3,fg3a,fga,ft,fta,game_score,lg_id,mp,orb,pf,pts,season,stl,team_id,tov,trb
22.0,10.0,5.0,16.0,16.0,16.0,31.0,1.0,1.0,31.0,12.0,16.0,34.6,NBA,0.0,6.0,5.0,42.0,1991,6.0,SAC,8.0,19.0
23.0,12.0,7.0,15.0,14.0,14.0,25.0,1.0,1.0,25.0,14.0,14.0,35.1,NBA,0.0,6.0,5.0,33.0,1992,5.0,SAC,7.0,19.0
24.0,8.0,4.0,10.0,14.0,14.0,25.0,1.0,2.0,25.0,14.0,15.0,32.8,NBA,0.0,11.0,6.0,35.0,1993,6.0,SAC,8.0,15.0
25.0,13.0,3.0,12.0,14.0,14.0,25.0,3.0,4.0,25.0,9.0,12.0,29.7,NBA,0.0,10.0,6.0,33.0,1994,6.0,SAC,7.0,16.0
26.0,6.0,2.0,9.0,9.0,9.0,15.0,1.0,2.0,15.0,5.0,7.0,16.1,NBA,0.0,6.0,5.0,18.0,1995,2.0,SAC,4.0,10.0
27.0,6.0,3.0,7.0,7.0,7.0,11.0,5.0,9.0,13.0,6.0,10.0,15.3,NBA,0.0,4.0,4.0,19.0,1996,3.0,SAC,3.0,9.0
28.0,7.0,2.0,8.0,4.0,3.0,8.0,2.0,4.0,9.0,5.0,5.0,15.6,NBA,0.0,4.0,5.0,13.0,1997,3.0,SAC,4.0,9.0
