age,ast,blk,drb,efg_pct,fg,fg2,fg2_pct,fg2a,fg3,fg3_pct,fg3a,fg_pct,fga,ft,ft_pct,fta,g,gs,lg_id,mp,orb,pf,pos,pts,season,stl,team_id,tov,trb
23.0,78.0,8.0,39.0,0.387,60.0,53.0,0.402,132.0,7.0,0.219,32.0,0.366,164.0,52.0,0.765,68.0,11.0,11.0,NBA,420.0,5.0,29.0,PG,179.0,2014,18.0,WAS,36.0,44.0
24.0,83.0,10.0,28.0,0.405,43.0,40.0,0.43,93.0,3.0,0.176,17.0,0.391,110.0,33.0,0.846,39.0,7.0,7.0,NBA,273.0,5.0,13.0,PG,122.0,2015,10.0,WAS,27.0,33.0
26.0,134.0,15.0,41.0,0.489,127.0,106.0,0.482,220.0,21.0,0.344,61.0,0.452,281.0,78.0,0.839,93.0,13.0,13.0,NBA,507.0,7.0,26.0,PG,353.0,2017,22.0,WAS,55.0,48.0
27.0,69.0,8.0,31.0,0.457,56.0,52.0,0.491,106.0,4.0,0.19,21.0,0.441,127.0,40.0,0.851,47.0,6.0,6.0,NBA,234.0,3.0,16.0,PG,156.0,2018,14.0,WAS,27.0,34.0
