age,ast,blk,drb,efg_pct,fg,fg2,fg2_pct,fg2a,fg3,fg3_pct,fg3a,fg_pct,fga,ft,ft_pct,fta,g,gs,lg_id,mp,orb,pf,pos,pts,season,stl,team_id,tov,trb
21.0,0.0,0.0,1.0,0.0,0.0,0.0,0.0,1.0,0.0,0.0,0.0,0.0,1.0,1.0,0.5,2.0,1.0,0.0,NBA,3.0,0.0,0.0,C,1.0,2012,0.0,PHI,0.0,1.0
28.0,15.0,5.0,31.0,0.388,21.0,18.0,0.4,45.0,3.0,0.231,13.0,0.362,58.0,11.0,0.786,14.0,5.0,5.0,NBA,147.0,9.0,12.0,C,56.0,2019,2.0,ORL,13.0,40.0
