age,ast,ast_per_g,blk,college_id,fg,fg3,fg3_pct,fg3a,fg_pct,fga,ft,ft_pct,fta,g,mp,mp_per_g,orb,pf,pts,pts_per_g,season,stl,tov,trb,trb_per_g
19.0,36.0,1.3,52.0,WISCONSIN,167.0,0.0,0.0,0.0,0.476,351.0,44.0,0.657,67.0,27.0,964.0,35.7,0.0,77.0,378.0,14.0,1982,22.0,66.0,254.0,9.4
20.0,37.0,1.3,68.0,WISCONSIN,189.0,0.0,0.0,1.0,0.508,372.0,82.0,0.828,99.0,28.0,1009.0,36.0,0.0,98.0,460.0,16.4,1983,23.0,64.0,219.0,7.8
22.0,30.0,1.0,90.0,OHIOST,186.0,0.0,0.0,0.0,0.525,354.0,97.0,0.776,125.0,30.0,979.0,32.6,0.0,91.0,469.0,15.6,1985,25.0,67.0,264.0,8.8
23.0,53.0,1.6,97.0,OHIOST,234.0,0.0,0.0,0.0,0.476,492.0,185.0,0.819,226.0,33.0,1234.0,37.4,0.0,96.0,653.0,19.8,1986,43.0,97.0,416.0,12.6
