age,ast_per_poss,blk_per_poss,def_rtg,drb_per_poss,fg2_pct,fg2_per_poss,fg2a_per_poss,fg3_pct,fg3_per_poss,fg3a_per_poss,fg_pct,fg_per_poss,fga_per_poss,ft_pct,ft_per_poss,fta_per_poss,g,gs,lg_id,mp,off_rtg,orb_per_poss,pf_per_poss,pos,pts_per_poss,season,stl_per_poss,team_id,tov_per_poss,trb_per_poss
24.0,2.7,0.7,108.0,8.0,0.494,8.9,18.0,0.0,0.0,0.0,0.494,8.9,18.0,0.727,8.9,12.2,25.0,0.0,NBA,236.0,104.0,4.7,10.5,PF,26.7,1995,1.6,DEN,5.8,12.7
25.0,1.4,2.1,106.0,7.8,0.519,10.0,19.3,0.0,0.0,0.0,0.519,10.0,19.3,0.429,2.1,5.0,11.0,0.0,NBA,72.0,83.0,2.9,7.8,PF,22.1,1996,1.4,TOT,6.4,10.7
25.0,0.0,5.2,97.0,7.8,0.6,7.8,13.0,0.0,0.0,0.0,0.6,7.8,13.0,0.0,0.0,0.0,4.0,0.0,NBA,20.0,67.0,0.0,2.6,PF,15.5,1996,2.6,POR,7.8,7.8
25.0,4.0,2.0,105.0,8.0,0.545,12.0,22.0,0.0,0.0,0.0,0.545,12.0,22.0,0.4,4.0,10.0,4.0,0.0,NBA,26.0,96.0,6.0,8.0,PF,28.0,1996,2.0,DEN,6.0,14.0
25.0,0.0,0.0,114.0,7.7,0.455,9.7,21.3,0.0,0.0,0.0,0.455,9.7,21.3,0.5,1.9,3.9,3.0,0.0,NBA,26.0,77.0,1.9,11.6,PF,21.3,1996,0.0,DAL,5.8,9.7
26.0,2.7,0.8,109.0,7.2,0.558,10.7,19.2,0.0,0.0,0.3,0.55,10.7,19.4,0.52,5.1,9.8,26.0,0.0,NBA,406.0,107.0,5.2,4.4,PF,26.5,1997,1.2,TOR,3.8,12.4
27.0,2.3,0.9,113.0,5.3,0.46,6.6,14.3,0.0,0.0,0.0,0.46,6.6,14.3,0.63,6.3,10.0,78.0,28.0,NBA,1662.0,104.0,4.2,6.3,PF,19.5,1998,1.4,TOR,3.2,9.5
28.0,1.0,0.6,107.0,7.0,0.383,6.4,16.7,0.0,0.0,0.0,0.383,6.4,16.7,0.624,10.9,17.5,30.0,0.0,NBA,263.0,96.0,7.4,10.3,PF,23.6,1999,0.6,TOR,5.1,14.4
30.0,2.0,0.7,104.0,8.2,0.514,6.9,13.3,0.0,0.0,0.0,0.514,6.9,13.3,0.673,5.6,8.4,55.0,16.0,NBA,686.0,110.0,5.9,9.6,PF,19.4,2001,1.4,MIN,3.3,14.2
31.0,1.1,1.1,108.0,4.4,0.467,7.8,16.7,0.0,0.0,0.0,0.467,7.8,16.7,0.7,7.8,11.1,8.0,0.0,NBA,47.0,117.0,5.6,3.3,PF,23.3,2002,1.1,TOT,1.1,10.0
31.0,0.0,0.0,102.0,10.5,1.0,10.5,10.5,0.0,0.0,0.0,1.0,10.5,10.5,1.0,5.2,5.2,4.0,0.0,NBA,10.0,124.0,0.0,5.2,PF,26.1,2002,0.0,NJN,5.2,10.5
31.0,1.4,1.4,109.0,2.8,0.385,7.1,18.4,0.0,0.0,0.0,0.385,7.1,18.4,0.667,8.5,12.7,4.0,0.0,NBA,37.0,116.0,7.1,2.8,PF,22.6,2002,1.4,ATL,0.0,9.9
32.0,1.5,0.4,104.0,4.8,0.54,10.0,18.5,0.0,0.0,0.0,0.54,10.0,18.5,0.6,10.0,16.7,26.0,0.0,NBA,141.0,114.0,6.7,11.5,PF,30.0,2003,2.2,MIN,3.3,11.5
