age,ast,ast_per_g,blk,college_id,fg,fg3,fg3_pct,fg3a,fg_pct,fga,ft,ft_pct,fta,g,mp,mp_per_g,orb,pf,pts,pts_per_g,season,stl,tov,trb,trb_per_g
19.0,11.0,0.4,5.0,NOTREDAME,32.0,0.0,0.0,0.0,0.64,50.0,12.0,0.75,16.0,29.0,291.0,10.0,0.0,44.0,76.0,2.6,1981,6.0,0.0,71.0,2.4
21.0,18.0,0.6,9.0,ARKANSAS,165.0,0.0,0.0,0.0,0.537,307.0,69.0,0.633,109.0,30.0,950.0,31.7,0.0,98.0,399.0,13.3,1983,19.0,81.0,219.0,7.3
22.0,25.0,0.8,21.0,ARKANSAS,209.0,0.0,0.0,0.0,0.595,351.0,163.0,0.773,211.0,32.0,1173.0,36.7,0.0,86.0,581.0,18.2,1984,26.0,98.0,293.0,9.2
23.0,23.0,0.7,16.0,ARKANSAS,294.0,0.0,0.0,0.0,0.607,484.0,185.0,0.72,257.0,35.0,1289.0,36.8,0.0,99.0,773.0,22.1,1985,38.0,87.0,294.0,8.4
