age,ast,blk,drb,fg,fg2,fg2a,fg3,fg3a,fga,ft,fta,game_score,lg_id,mp,orb,pf,pts,season,stl,team_id,tov,trb
22.0,3.0,5.0,8.0,7.0,7.0,11.0,0.0,1.0,11.0,5.0,6.0,12.9,NBA,28,5.0,5.0,15.0,2010,3.0,TOT,2.0,9.0
22.0,2.0,2.0,3.0,5.0,5.0,9.0,0.0,1.0,9.0,4.0,6.0,9.1,NBA,20,5.0,5.0,10.0,2010,3.0,NYK,2.0,7.0
22.0,3.0,5.0,8.0,7.0,7.0,11.0,0.0,0.0,11.0,5.0,6.0,12.9,NBA,28,4.0,5.0,15.0,2010,2.0,HOU,2.0,9.0
23.0,3.0,4.0,7.0,8.0,8.0,12.0,0.0,1.0,12.0,6.0,6.0,15.2,NBA,35,5.0,6.0,16.0,2011,3.0,HOU,3.0,10.0
24.0,3.0,5.0,11.0,6.0,6.0,12.0,0.0,1.0,12.0,4.0,6.0,14.5,NBA,36,7.0,5.0,14.0,2012,3.0,TOT,3.0,15.0
24.0,3.0,5.0,11.0,6.0,6.0,11.0,0.0,1.0,11.0,4.0,6.0,14.5,NBA,29,7.0,5.0,14.0,2012,2.0,HOU,3.0,15.0
24.0,2.0,3.0,9.0,6.0,6.0,12.0,0.0,0.0,12.0,3.0,4.0,13.9,NBA,36,6.0,5.0,14.0,2012,3.0,LAL,2.0,15.0
25.0,3.0,4.0,6.0,8.0,8.0,11.0,0.0,1.0,11.0,5.0,8.0,19.8,NBA,31,7.0,5.0,17.0,2013,1.0,LAL,4.0,12.0
26.0,4.0,4.0,12.0,13.0,13.0,18.0,0.0,1.0,18.0,10.0,13.0,28.9,NBA,42,9.0,6.0,28.0,2014,3.0,LAL,3.0,17.0
27.0,7.0,4.0,13.0,11.0,11.0,22.0,1.0,3.0,22.0,7.0,9.0,21.6,NBA,43,9.0,6.0,26.0,2015,3.0,LAL,6.0,16.0
28.0,4.0,6.0,9.0,9.0,9.0,16.0,0.0,1.0,16.0,6.0,8.0,24.1,NBA,39,7.0,5.0,20.0,2016,4.0,IND,5.0,13.0
29.0,0.0,0.0,3.0,2.0,2.0,7.0,0.0,0.0,7.0,2.0,2.0,3.3,NBA,19,3.0,5.0,4.0,2017,1.0,MIN,2.0,6.0
