age,ast_per_g,blk_per_g,drb_per_g,efg_pct,fg2_pct,fg2_per_g,fg2a_per_g,fg3_pct,fg3_per_g,fg3a_per_g,fg_pct,fg_per_g,fga_per_g,ft_pct,ft_per_g,fta_per_g,g,gs,lg_id,mp_per_g,orb_per_g,pf_per_g,pos,pts_per_g,season,stl_per_g,team_id,tov_per_g,trb_per_g
22.0,0.4,0.1,1.1,0.438,0.441,1.2,2.8,0.0,0.0,0.0,0.438,1.2,2.8,0.588,0.7,1.2,57.0,0.0,NBA,9.6,0.9,1.6,PF,3.2,1996,0.2,CHI,0.8,1.9
23.0,1.2,0.1,2.2,0.532,0.534,2.7,5.1,0.0,0.0,0.0,0.532,2.7,5.1,0.659,1.9,2.8,75.0,19.0,NBA,18.7,1.8,2.0,PF,7.3,1997,0.3,CHI,1.3,4.0
24.0,0.8,0.3,2.3,0.485,0.487,2.8,5.8,0.0,0.0,0.0,0.485,2.8,5.8,0.655,1.6,2.5,80.0,14.0,NBA,17.8,2.0,2.3,PF,7.3,1998,0.3,TOT,1.3,4.3
24.0,0.7,0.3,1.9,0.503,0.505,2.0,3.9,0.0,0.0,0.0,0.503,2.0,3.9,0.66,1.3,2.0,51.0,8.0,NBA,13.9,1.5,1.8,PF,5.3,1998,0.3,CHI,0.9,3.4
24.0,1.1,0.1,3.0,0.472,0.474,4.3,9.2,0.0,0.0,0.0,0.472,4.3,9.2,0.649,2.2,3.3,29.0,6.0,NBA,24.6,2.9,3.1,PF,10.9,1998,0.4,GSW,2.0,5.9
25.0,0.5,0.3,3.6,0.444,0.446,3.5,7.9,0.0,0.0,0.0,0.444,3.5,7.9,0.633,1.8,2.8,35.0,32.0,NBA,25.0,2.3,3.2,PF,8.8,1999,0.7,GSW,2.1,5.9
26.0,1.7,0.3,4.1,0.479,0.48,4.5,9.5,0.0,0.0,0.0,0.479,4.5,9.5,0.597,2.9,4.9,71.0,56.0,NBA,30.4,2.7,3.8,PF,12.0,2000,0.9,GSW,2.4,6.8
27.0,0.8,0.4,3.1,0.488,0.488,2.6,5.2,0.0,0.0,0.0,0.488,2.6,5.2,0.673,2.0,3.0,70.0,33.0,NBA,20.9,1.9,2.6,PF,7.1,2001,0.5,MIL,1.1,5.0
28.0,0.5,0.2,1.1,0.5,0.507,1.6,3.1,0.0,0.0,0.0,0.5,1.6,3.1,0.628,1.2,1.9,23.0,0.0,NBA,12.3,1.0,1.7,PF,4.3,2002,0.2,MIL,0.8,2.2
29.0,0.7,0.3,2.1,0.456,0.456,2.2,4.9,0.0,0.0,0.0,0.456,2.2,4.9,0.651,1.4,2.1,51.0,16.0,NBA,17.5,1.3,2.4,PF,5.8,2003,0.4,MIL,1.1,3.5
