age,ast,blk,drb,efg_pct,fg,fg2,fg2_pct,fg2a,fg3,fg3_pct,fg3a,fg_pct,fga,ft,ft_pct,fta,g,gs,lg_id,mp,orb,pf,pos,pts,season,stl,team_id,tov,trb
20.0,18.0,30.0,83.0,0.434,55.0,39.0,0.394,99.0,16.0,0.348,46.0,0.379,145.0,19.0,0.76,25.0,27.0,10.0,NBA,536.0,16.0,48.0,PF,145.0,2018,33.0,ORL,27.0,99.0
21.0,80.0,98.0,312.0,0.499,262.0,176.0,0.51,345.0,86.0,0.323,266.0,0.429,611.0,110.0,0.815,135.0,75.0,64.0,NBA,1996.0,99.0,143.0,PF,720.0,2019,59.0,ORL,75.0,411.0
22.0,18.0,31.0,59.0,0.566,49.0,35.0,0.583,60.0,14.0,0.359,39.0,0.495,99.0,21.0,0.913,23.0,11.0,11.0,NBA,337.0,13.0,24.0,SF,133.0,2020,14.0,ORL,18.0,72.0
