age,ast_pct,blk_pct,bpm,bpm-dum,dbpm,drb_pct,dws,fg3a_per_fga_pct,fta_per_fga_pct,g,lg_id,mp,obpm,orb_pct,ows,per,pos,season,stl_pct,team_id,tov_pct,trb_pct,ts_pct,usg_pct,vorp,ws,ws-dum,ws_per_48
22.0,10.4,2.5,-1.8,0.0,-0.9,10.8,0.3,0.183,0.534,42.0,NBA,348.0,-0.9,11.5,0.3,14.9,PF,1997,1.9,TOT,10.0,11.2,0.482,23.8,0.0,0.6,0.0,0.081
22.0,21.1,2.9,-6.5,0.0,-2.6,12.9,0.0,0.286,1.0,10.0,NBA,27.0,-3.9,9.0,-0.1,11.9,PF,1997,0.0,MIA,13.0,11.0,0.422,40.3,0.0,0.0,0.0,-0.063
22.0,9.5,2.5,-1.4,0.0,-0.7,10.7,0.3,0.171,0.479,32.0,NBA,321.0,-0.6,11.7,0.3,15.1,PF,1997,2.0,DAL,9.6,11.2,0.491,22.4,0.1,0.6,0.0,0.093
23.0,8.5,1.6,-0.9,0.0,-0.4,12.8,0.6,0.199,0.351,41.0,NBA,603.0,-0.5,8.3,0.8,14.9,PF,1998,2.6,DAL,11.6,10.5,0.528,18.9,0.2,1.4,0.0,0.111
