age,ast_per_g,blk_per_g,drb_per_g,efg_pct,fg2_pct,fg2_per_g,fg2a_per_g,fg3_pct,fg3_per_g,fg3a_per_g,fg_pct,fg_per_g,fga_per_g,ft_pct,ft_per_g,fta_per_g,g,gs,lg_id,mp_per_g,orb_per_g,pf_per_g,pos,pts_per_g,season,stl_per_g,team_id,tov_per_g,trb_per_g
22.0,0.5,0.3,0.8,0.427,0.467,1.2,2.5,0.167,0.1,0.6,0.412,1.3,3.1,0.629,1.0,1.7,42.0,0.0,NBA,8.3,0.8,1.4,PF,3.7,1997,0.3,TOT,0.4,1.6
22.0,0.3,0.1,0.3,0.393,0.4,0.4,1.0,0.25,0.1,0.4,0.357,0.5,1.4,0.429,0.6,1.4,10.0,0.0,NBA,2.7,0.2,0.3,PF,1.7,1997,0.0,MIA,0.3,0.5
22.0,0.5,0.3,0.9,0.432,0.474,1.4,3.0,0.15,0.1,0.6,0.419,1.5,3.7,0.679,1.2,1.8,32.0,0.0,NBA,10.0,1.0,1.7,PF,4.3,1997,0.4,DAL,0.5,1.9
23.0,0.7,0.3,1.7,0.476,0.438,1.6,3.7,0.421,0.4,0.9,0.435,2.0,4.7,0.761,1.2,1.6,41.0,7.0,NBA,14.7,1.1,2.3,PF,5.7,1998,0.7,DAL,0.7,2.8
