age,ast_per_mp,blk_per_mp,drb_per_mp,fg2_pct,fg2_per_mp,fg2a_per_mp,fg3_pct,fg3_per_mp,fg3a_per_mp,fg_pct,fg_per_mp,fga_per_mp,ft_pct,ft_per_mp,fta_per_mp,g,gs,lg_id,mp,orb_per_mp,pf_per_mp,pos,pts_per_mp,season,stl_per_mp,team_id,tov_per_mp,trb_per_mp
22.0,2.1,1.1,3.3,0.467,5.2,11.1,0.167,0.4,2.5,0.412,5.6,13.6,0.629,4.6,7.2,42.0,0.0,NBA,348.0,3.6,6.0,PF,16.1,1997,1.2,TOT,1.9,6.9
22.0,4.0,1.3,4.0,0.4,5.3,13.3,0.25,1.3,5.3,0.357,6.7,18.7,0.429,8.0,18.7,10.0,0.0,NBA,27.0,2.7,4.0,PF,22.7,1997,0.0,MIA,4.0,6.7
22.0,1.9,1.1,3.3,0.474,5.2,10.9,0.15,0.3,2.2,0.419,5.5,13.1,0.679,4.3,6.3,32.0,0.0,NBA,321.0,3.7,6.2,PF,15.6,1997,1.3,DAL,1.7,7.0
23.0,1.8,0.8,4.1,0.438,4.0,9.1,0.421,1.0,2.3,0.435,5.0,11.4,0.761,3.0,4.0,41.0,7.0,NBA,603.0,2.7,5.7,PF,13.9,1998,1.7,DAL,1.7,6.8
