age,ast_per_g,blk_per_g,drb_per_g,efg_pct,fg2_pct,fg2_per_g,fg2a_per_g,fg3_pct,fg3_per_g,fg3a_per_g,fg_pct,fg_per_g,fga_per_g,ft_pct,ft_per_g,fta_per_g,g,gs,lg_id,mp_per_g,orb_per_g,pf_per_g,pos,pts_per_g,season,stl_per_g,team_id,tov_per_g,trb_per_g
21.0,2.7,2.1,6.0,0.518,0.519,6.7,12.9,0.2,0.0,0.1,0.518,6.7,13.0,0.709,4.1,5.8,82.0,79.0,NBA,36.7,2.9,2.4,C,17.6,2002,0.5,MEM,2.7,8.9
22.0,2.8,1.8,6.4,0.51,0.514,6.9,13.5,0.1,0.0,0.1,0.51,6.9,13.6,0.736,5.1,6.9,82.0,82.0,NBA,36.0,2.3,2.7,PF,19.0,2003,0.4,MEM,2.6,8.8
23.0,2.5,1.7,5.1,0.484,0.485,6.4,13.3,0.267,0.1,0.2,0.482,6.5,13.4,0.714,4.7,6.6,78.0,78.0,NBA,31.5,2.6,2.4,PF,17.7,2004,0.6,MEM,2.4,7.7
24.0,2.4,1.7,5.0,0.514,0.517,6.4,12.3,0.167,0.0,0.1,0.514,6.4,12.4,0.768,5.0,6.6,56.0,53.0,NBA,32.0,2.3,2.6,PF,17.8,2005,0.7,MEM,2.4,7.3
25.0,4.6,1.9,6.5,0.504,0.505,7.5,14.8,0.25,0.0,0.2,0.503,7.5,14.9,0.689,5.3,7.7,80.0,80.0,NBA,39.2,2.4,2.3,PF,20.4,2006,0.6,MEM,2.9,8.9
26.0,3.4,2.1,7.3,0.54,0.542,7.8,14.4,0.273,0.1,0.2,0.538,7.8,14.5,0.748,5.1,6.8,59.0,59.0,NBA,36.2,2.5,2.3,C,20.8,2007,0.5,MEM,2.7,9.8
27.0,3.2,1.5,6.0,0.536,0.539,7.1,13.2,0.25,0.1,0.2,0.534,7.2,13.5,0.807,4.4,5.5,66.0,66.0,NBA,35.6,2.3,2.1,C,18.9,2008,0.5,TOT,1.9,8.4
27.0,3.0,1.4,6.4,0.504,0.507,7.1,13.9,0.267,0.1,0.4,0.501,7.2,14.3,0.819,4.5,5.5,39.0,39.0,NBA,36.7,2.4,2.2,C,18.9,2008,0.4,MEM,2.1,8.8
27.0,3.5,1.6,5.6,0.589,0.59,7.3,12.3,0.0,0.0,0.0,0.589,7.3,12.3,0.789,4.3,5.4,27.0,27.0,NBA,34.0,2.3,2.0,C,18.8,2008,0.5,LAL,1.6,7.8
28.0,3.5,1.0,6.4,0.567,0.567,7.3,12.9,0.5,0.0,0.0,0.567,7.3,12.9,0.781,4.2,5.4,81.0,81.0,NBA,37.0,3.2,2.1,C,18.9,2009,0.6,LAL,1.9,9.6
29.0,3.4,1.7,7.6,0.536,0.539,7.0,12.9,0.0,0.0,0.1,0.536,7.0,13.0,0.79,4.4,5.6,65.0,65.0,NBA,37.0,3.7,2.3,C,18.3,2010,0.6,LAL,2.2,11.3
30.0,3.3,1.6,6.9,0.53,0.53,7.2,13.6,0.333,0.0,0.0,0.529,7.2,13.7,0.823,4.3,5.2,82.0,82.0,NBA,37.0,3.3,2.5,C,18.8,2011,0.6,LAL,1.7,10.2
31.0,3.6,1.4,7.6,0.504,0.508,7.0,13.7,0.259,0.1,0.4,0.501,7.1,14.1,0.782,3.1,4.0,65.0,65.0,NBA,37.4,2.8,2.0,PF,17.4,2012,0.6,LAL,2.2,10.4
32.0,4.1,1.2,6.3,0.473,0.475,5.3,11.2,0.286,0.2,0.6,0.466,5.5,11.8,0.702,2.6,3.6,49.0,42.0,NBA,33.8,2.3,1.9,PF,13.7,2013,0.5,LAL,2.1,8.6
33.0,3.4,1.5,7.6,0.482,0.483,7.0,14.5,0.286,0.1,0.2,0.48,7.1,14.8,0.736,3.1,4.2,60.0,60.0,NBA,31.4,2.1,2.1,C,17.4,2014,0.5,LAL,2.4,9.7
34.0,2.7,1.9,9.0,0.5,0.495,7.2,14.4,0.462,0.2,0.3,0.494,7.3,14.8,0.803,3.8,4.7,78.0,78.0,NBA,34.4,2.8,1.9,PF,18.5,2015,0.3,CHI,2.0,11.8
35.0,4.1,2.0,8.9,0.481,0.478,6.2,12.9,0.348,0.3,1.0,0.469,6.5,13.8,0.792,3.2,4.0,72.0,72.0,NBA,31.8,2.2,2.1,C,16.5,2016,0.6,CHI,2.3,11.0
36.0,2.3,1.1,6.2,0.548,0.494,3.9,7.8,0.538,0.9,1.6,0.502,4.7,9.4,0.707,2.0,2.9,64.0,39.0,NBA,25.4,1.7,1.7,C,12.4,2017,0.4,SAS,1.3,7.8
37.0,3.1,1.0,6.4,0.492,0.481,3.2,6.6,0.358,0.6,1.6,0.458,3.7,8.1,0.756,2.1,2.7,77.0,63.0,NBA,23.5,1.7,1.6,C,10.1,2018,0.3,SAS,1.4,8.0
38.0,1.7,0.5,3.8,0.479,0.444,1.2,2.7,0.462,0.2,0.4,0.447,1.4,3.1,0.7,0.9,1.3,30.0,6.0,NBA,12.0,0.7,1.0,C,3.9,2019,0.2,TOT,0.5,4.6
38.0,1.9,0.5,3.9,0.494,0.462,1.3,2.9,0.5,0.2,0.4,0.466,1.5,3.3,0.711,1.0,1.4,27.0,6.0,NBA,12.2,0.8,1.0,C,4.2,2019,0.2,SAS,0.5,4.7
38.0,0.7,0.3,3.3,0.25,0.0,0.0,1.0,0.333,0.3,1.0,0.167,0.3,2.0,0.5,0.3,0.7,3.0,0.0,NBA,10.0,0.0,0.3,C,1.3,2019,0.0,MIL,0.7,3.3
