age,and1s,astd_pts,drawn_offensive,drawn_shooting,fouls_offensive,fouls_shooting,g,lg_id,mp,own_shots_blk,pct_1,pct_2,pct_3,pct_4,pct_5,plus_minus_net,plus_minus_on,pos,season,team_id,tov_bad_pass,tov_lost_ball
21.0,54.0,487.0,0.0,191.0,22.0,105.0,82.0,NBA,3007.0,105.0,0.0,0.0,0.0,0.0,100.0,10.2,-5.8,C,2002,MEM,84.0,89.0
22.0,59.0,523.0,0.0,225.0,29.0,119.0,82.0,NBA,2948.0,94.0,0.0,0.0,0.0,50.0,50.0,3.8,-2.5,PF,2003,MEM,65.0,97.0
23.0,39.0,455.0,0.0,183.0,19.0,91.0,78.0,NBA,2458.0,132.0,0.0,0.0,0.0,53.0,48.0,-1.3,2.3,PF,2004,MEM,71.0,77.0
24.0,37.0,327.0,0.0,163.0,10.0,81.0,56.0,NBA,1790.0,71.0,0.0,0.0,0.0,54.0,47.0,2.9,4.5,PF,2005,MEM,53.0,54.0
25.0,45.0,916.0,22.0,243.0,32.0,98.0,80.0,NBA,3135.0,114.0,0.0,0.0,0.0,57.0,43.0,4.9,5.5,PF,2006,MEM,99.0,83.0
26.0,43.0,478.0,17.0,185.0,12.0,98.0,59.0,NBA,2133.0,75.0,0.0,0.0,0.0,0.0,100.0,-0.7,-5.9,C,2007,MEM,75.0,57.0
27.0,42.0,497.0,15.0,160.0,8.0,77.0,66.0,NBA,2351.0,57.0,0.0,0.0,0.0,22.0,78.0,5.9,4.6,C,2008,TOT,57.0,47.0
27.0,25.0,277.0,9.0,96.0,4.0,49.0,39.0,NBA,1433.0,38.0,0.0,0.0,0.0,36.0,64.0,8.2,-1.5,C,2008,MEM,35.0,34.0
27.0,17.0,220.0,6.0,64.0,4.0,28.0,27.0,NBA,918.0,19.0,0.0,0.0,0.0,0.0,100.0,8.3,14.1,C,2008,LAL,22.0,13.0
28.0,37.0,654.0,15.0,183.0,6.0,101.0,81.0,NBA,2999.0,66.0,0.0,0.0,0.0,30.0,70.0,4.4,9.3,C,2009,LAL,71.0,64.0
29.0,37.0,500.0,16.0,153.0,14.0,83.0,65.0,NBA,2403.0,60.0,0.0,0.0,0.0,38.0,62.0,3.4,6.5,C,2010,LAL,62.0,51.0
30.0,52.0,609.0,11.0,178.0,9.0,104.0,82.0,NBA,3037.0,85.0,0.0,0.0,0.0,29.0,72.0,9.5,9.1,C,2011,LAL,67.0,51.0
31.0,22.0,519.0,10.0,101.0,12.0,57.0,65.0,NBA,2430.0,56.0,0.0,0.0,0.0,63.0,37.0,8.5,3.6,PF,2012,LAL,59.0,52.0
32.0,7.0,464.0,5.0,64.0,6.0,44.0,49.0,NBA,1655.0,40.0,0.0,0.0,0.0,60.0,40.0,2.5,3.1,PF,2013,LAL,56.0,37.0
33.0,30.0,485.0,5.0,113.0,5.0,70.0,60.0,NBA,1884.0,57.0,0.0,0.0,0.0,18.0,83.0,-5.0,-8.7,C,2014,LAL,68.0,63.0
34.0,33.0,505.0,6.0,141.0,7.0,79.0,78.0,NBA,2681.0,61.0,0.0,0.0,0.0,48.0,52.0,0.1,3.4,PF,2015,CHI,82.0,58.0
35.0,27.0,669.0,4.0,106.0,7.0,91.0,72.0,NBA,2291.0,59.0,0.0,0.0,0.0,0.0,100.0,1.4,-1.1,C,2016,CHI,81.0,68.0
36.0,16.0,340.0,6.0,74.0,4.0,66.0,64.0,NBA,1627.0,37.0,0.0,0.0,0.0,0.0,100.0,-2.2,6.6,C,2017,SAS,47.0,24.0
37.0,19.0,528.0,2.0,88.0,8.0,87.0,77.0,NBA,1812.0,36.0,0.0,0.0,0.0,0.0,100.0,-3.1,1.3,C,2018,SAS,66.0,25.0
38.0,0.0,120.0,1.0,13.0,1.0,17.0,30.0,NBA,360.0,6.0,0.0,0.0,0.0,0.0,100.0,-10.6,-4.7,C,2019,TOT,7.0,7.0
38.0,0.0,114.0,1.0,12.0,1.0,17.0,27.0,NBA,330.0,6.0,0.0,0.0,0.0,0.0,100.0,-5.5,-2.9,C,2019,SAS,5.0,7.0
38.0,0.0,6.0,0.0,1.0,0.0,0.0,3.0,NBA,30.0,0.0,0.0,0.0,0.0,2.0,98.0,-32.9,-24.1,C,2019,MIL,2.0,0.0
