article_url,date,headline
https://dunkingwithwolves.com/2019/11/08/minnesota-timberwolves-wing-rotation-promise/,2019/11/08,Dunking with Wolves: Minnesota Timberwolves wing rotation showing promise
https://dunkingwithwolves.com/2019/11/06/player-grades-minnesota-timberwolves-loss-grizzlies/,2019/11/06,Dunking with Wolves: Player grades from Minnesota Timberwolves' loss to the Grizzlies
https://behindthebuckpass.com/2019/11/04/milwaukee-bucks-3-things-watch-road-minnesota-timberwolves/,2019/11/04,Behind the Buck Pass: Milwaukee Bucks: 3 things to watch for on the road against Minnesota Timberwolves
https://dunkingwithwolves.com/2019/11/02/minnesota-timberwolves-player-grades-win-wizards/,2019/11/02,Dunking with Wolves: Minnesota Timberwolves: Player grades from win over Wizards
https://wizofawes.com/2019/11/02/washington-wizards-2019-2020-season-preview-the-minnesota-timberwolves/,2019/11/02,Wiz of Awes: Washington Wizards 2019-2020 Season Preview: the Minnesota Timberwolves
