age,ast,ast_per_g,blk,college_id,fg,fg3,fg3_pct,fg3a,fg_pct,fga,ft,ft_pct,fta,g,mp,mp_per_g,orb,pf,pts,pts_per_g,season,stl,tov,trb,trb_per_g
18.0,10.0,0.5,27.0,DUKE,100.0,0.0,0.0,0.0,0.592,169.0,81.0,0.604,134.0,21.0,0.0,0.0,0.0,0.0,281.0,13.4,1998,32.0,0.0,154.0,7.3
19.0,41.0,1.1,86.0,DUKE,255.0,0.0,0.0,0.0,0.62,411.0,181.0,0.707,256.0,39.0,1141.0,29.3,0.0,97.0,691.0,17.7,1999,49.0,67.0,382.0,9.8
