age,ast,blk,drb,fg,fg2,fg2a,fg3,fg3a,fga,ft,fta,game_score,lg_id,mp,orb,pf,pts,season,stl,team_id,tov,trb
26.0,8.0,5.0,11.0,18.0,18.0,26.0,0.0,1.0,26.0,13.0,17.0,38.8,NBA,55,7.0,6.0,40.0,2006,3.0,LAC,5.0,15.0
31.0,2.0,2.0,8.0,10.0,10.0,17.0,0.0,0.0,17.0,3.0,4.0,17.0,NBA,41,3.0,6.0,22.0,2011,1.0,PHI,2.0,11.0
32.0,2.0,4.0,6.0,8.0,8.0,15.0,0.0,0.0,15.0,3.0,4.0,16.8,NBA,37,5.0,6.0,19.0,2012,2.0,PHI,1.0,10.0
34.0,2.0,3.0,4.0,1.0,1.0,4.0,0.0,0.0,4.0,2.0,3.0,6.8,NBA,21,3.0,4.0,4.0,2014,1.0,ATL,0.0,7.0
35.0,0.0,0.0,1.0,0.0,0.0,1.0,0.0,0.0,1.0,1.0,2.0,0.2,NBA,4,0.0,1.0,1.0,2015,0.0,ATL,0.0,1.0
