age,ast,blk,drb,efg_pct,fg,fg2,fg2_pct,fg2a,fg3,fg3_pct,fg3a,fg_pct,fga,ft,ft_pct,fta,g,gs,lg_id,mp,orb,pf,pos,pts,season,stl,team_id,tov,trb
26.0,48.0,31.0,72.0,0.551,124.0,124.0,0.554,224.0,0.0,0.0,1.0,0.551,225.0,57.0,0.75,76.0,12.0,12.0,NBA,517.0,51.0,34.0,PF,305.0,2006,11.0,LAC,29.0,123.0
31.0,3.0,6.0,30.0,0.548,34.0,34.0,0.548,62.0,0.0,0.0,0.0,0.548,62.0,10.0,0.769,13.0,5.0,5.0,NBA,185.0,12.0,21.0,PF,78.0,2011,2.0,PHI,4.0,42.0
32.0,7.0,20.0,41.0,0.465,46.0,46.0,0.465,99.0,0.0,0.0,0.0,0.465,99.0,20.0,0.625,32.0,13.0,13.0,NBA,356.0,22.0,36.0,C,112.0,2012,11.0,PHI,7.0,63.0
34.0,6.0,6.0,16.0,0.167,2.0,2.0,0.167,12.0,0.0,0.0,0.0,0.167,12.0,4.0,0.8,5.0,7.0,0.0,NBA,81.0,7.0,10.0,C,8.0,2014,1.0,ATL,0.0,23.0
35.0,0.0,0.0,1.0,0.0,0.0,0.0,0.0,1.0,0.0,0.0,0.0,0.0,1.0,1.0,0.5,2.0,3.0,0.0,NBA,4.0,0.0,3.0,C,1.0,2015,0.0,ATL,0.0,1.0
