age,ast_per_poss,blk_per_poss,def_rtg,drb_per_poss,fg2_pct,fg2_per_poss,fg2a_per_poss,fg3_pct,fg3_per_poss,fg3a_per_poss,fg_pct,fg_per_poss,fga_per_poss,ft_pct,ft_per_poss,fta_per_poss,g,gs,lg_id,mp,off_rtg,orb_per_poss,pf_per_poss,pos,pts_per_poss,season,stl_per_poss,team_id,tov_per_poss,trb_per_poss
26.0,4.8,3.1,106.0,7.2,0.554,12.4,22.3,0.0,0.0,0.1,0.551,12.4,22.4,0.75,5.7,7.6,12.0,12.0,NBA,517.0,122.0,5.1,3.4,PF,30.4,2006,1.1,LAC,2.9,12.3
31.0,0.9,1.8,109.0,9.1,0.548,10.3,18.7,0.0,0.0,0.0,0.548,10.3,18.7,0.769,3.0,3.9,5.0,5.0,NBA,185.0,116.0,3.6,6.3,PF,23.5,2011,0.6,PHI,1.2,12.7
32.0,1.1,3.0,97.0,6.2,0.465,7.0,15.1,0.0,0.0,0.0,0.465,7.0,15.1,0.625,3.0,4.9,13.0,13.0,NBA,356.0,105.0,3.4,5.5,C,17.1,2012,1.7,PHI,1.1,9.6
34.0,3.9,3.9,99.0,10.5,0.167,1.3,7.8,0.0,0.0,0.0,0.167,1.3,7.8,0.8,2.6,3.3,7.0,0.0,NBA,81.0,101.0,4.6,6.5,C,5.2,2014,0.7,ATL,0.0,15.0
35.0,0.0,0.0,102.0,12.8,0.0,0.0,12.8,0.0,0.0,0.0,0.0,0.0,12.8,0.5,12.8,25.7,3.0,0.0,NBA,4.0,61.0,0.0,38.5,C,12.8,2015,0.0,ATL,0.0,12.8
