lg_id,salary,season,team_name
NBA,175000.0,1991,Phoenix Suns
NBA,250000.0,1992,Phoenix Suns
NBA,350000.0,1993,Phoenix Suns
NBA,2000000.0,1994,Phoenix Suns
NBA,1750000.0,1995,Los Angeles Lakers
NBA,2245000.0,1996,Los Angeles Lakers
NBA,2400000.0,1997,Los Angeles Lakers
NBA,2605000.0,1998,Phoenix Suns
NBA,750000.0,1999,Dallas Mavericks
NBA,3500000.0,2000,Dallas Mavericks
NBA,3937500.0,2001,Miami Heat
