age,ast_per_mp,blk_per_mp,drb_per_mp,fg2_pct,fg2_per_mp,fg2a_per_mp,fg3_pct,fg3_per_mp,fg3a_per_mp,fg_pct,fg_per_mp,fga_per_mp,ft_pct,ft_per_mp,fta_per_mp,g,gs,lg_id,mp,orb_per_mp,pf_per_mp,pos,pts_per_mp,season,stl_per_mp,team_id,tov_per_mp,trb_per_mp
21.0,3.0,0.0,3.0,0.583,10.5,18.0,0.0,0.0,0.0,0.583,10.5,18.0,0.333,3.0,9.0,3.0,0.0,NBA,24.0,4.5,0.0,SF,24.0,1991,3.0,PHO,1.5,7.5
22.0,2.3,1.1,5.9,0.55,8.4,15.3,0.0,0.0,0.0,0.55,8.4,15.3,0.667,3.8,5.7,8.0,8.0,NBA,188.0,3.8,2.7,SF,20.7,1992,1.1,PHO,2.1,9.8
23.0,2.5,1.4,4.7,0.571,7.8,13.6,0.0,0.0,0.0,0.571,7.8,13.6,0.727,3.1,4.3,16.0,3.0,NBA,185.0,2.5,2.3,SF,18.7,1993,1.0,PHO,1.0,7.2
24.0,1.4,0.3,4.8,0.473,7.3,15.5,0.0,0.0,0.3,0.462,7.3,15.8,0.833,2.5,3.1,10.0,8.0,NBA,212.0,2.7,1.5,SF,17.2,1994,1.4,PHO,1.9,7.5
25.0,1.9,0.7,5.3,0.395,3.2,8.0,0.36,1.9,5.3,0.381,5.1,13.3,0.737,3.0,4.0,10.0,10.0,NBA,340.0,1.2,2.2,SF,15.0,1995,1.3,LAL,2.2,6.5
26.0,1.3,0.3,5.6,0.543,6.3,11.7,0.313,1.3,4.1,0.484,7.6,15.7,0.917,2.8,3.0,4.0,4.0,NBA,142.0,2.8,2.3,SF,19.3,1996,1.0,LAL,2.0,8.4
27.0,1.0,1.0,5.7,0.381,2.7,7.1,0.25,1.0,4.0,0.333,3.7,11.1,1.0,2.7,2.7,5.0,0.0,NBA,107.0,3.0,4.0,SF,11.1,1997,1.3,PHO,2.7,8.7
31.0,2.4,0.0,7.2,0.286,4.8,16.8,0.0,0.0,0.0,0.286,4.8,16.8,0.5,2.4,4.8,3.0,0.0,NBA,15.0,7.2,7.2,SF,12.0,2001,0.0,MIA,2.4,14.4
