age,ast,blk,drb,efg_pct,fg,fg2,fg2_pct,fg2a,fg3,fg3_pct,fg3a,fg_pct,fga,ft,ft_pct,fta,g,gs,lg_id,mp,orb,pf,pos,pts,season,stl,team_id,tov,trb
27.0,42.0,3.0,39.0,0.418,28.0,18.0,0.383,47.0,10.0,0.313,32.0,0.354,79.0,18.0,0.783,23.0,6.0,6.0,NBA,181.0,5.0,13.0,PG,84.0,2018,8.0,UTA,18.0,44.0
28.0,43.0,1.0,13.0,0.455,28.0,24.0,0.522,46.0,4.0,0.2,20.0,0.424,66.0,17.0,0.85,20.0,5.0,5.0,NBA,168.0,3.0,14.0,PG,77.0,2019,12.0,UTA,15.0,16.0
