article_url,date,headline
https://valleyofthesuns.com/2019/11/14/kaminsky-start-over-saric-phoenix-suns/,2019/11/14,Sun-N-Gun: Frank Kaminsky should start over Dario Saric for the Phoenix Suns
https://fansided.com/2019/11/14/draftkings-nba-picks-november-14-beware-kristaps/,2019/11/14,FanSided: DraftKings NBA picks November 14: Beware the Kristaps!
https://fansided.com/2019/11/14/nba-dfs-studs-scrubs-duds-november-14/,2019/11/14,"FanSided: NBA DFS - Studs, scrubs, and duds for November 14"
