age,ast,blk,drb,efg_pct,fg,fg2,fg2_pct,fg2a,fg3,fg3_pct,fg3a,fg_pct,fga,ft,ft_pct,fta,g,gs,lg_id,mp,orb,pf,pos,pts,season,stl,team_id,tov,trb
21.0,336.0,8.0,150.0,0.398,139.0,107.0,0.363,295.0,32.0,0.34,94.0,0.357,389.0,126.0,0.803,157.0,41.0,31.0,NBA,1404.0,21.0,97.0,PG,436.0,2012,91.0,MIN,131.0,171.0
22.0,418.0,5.0,185.0,0.386,185.0,158.0,0.374,422.0,27.0,0.293,92.0,0.36,514.0,211.0,0.799,264.0,57.0,47.0,NBA,1691.0,44.0,143.0,PG,608.0,2013,137.0,MIN,172.0,229.0
23.0,704.0,11.0,281.0,0.413,255.0,211.0,0.393,537.0,44.0,0.331,133.0,0.381,670.0,227.0,0.802,283.0,82.0,82.0,NBA,2638.0,61.0,218.0,PG,781.0,2014,191.0,MIN,221.0,342.0
24.0,193.0,1.0,106.0,0.386,78.0,65.0,0.387,168.0,13.0,0.255,51.0,0.356,219.0,57.0,0.803,71.0,22.0,22.0,NBA,692.0,19.0,59.0,PG,226.0,2015,38.0,MIN,64.0,125.0
25.0,658.0,10.0,286.0,0.427,219.0,157.0,0.396,396.0,62.0,0.326,190.0,0.374,586.0,266.0,0.847,314.0,76.0,76.0,NBA,2323.0,40.0,201.0,PG,766.0,2016,162.0,MIN,193.0,326.0
26.0,682.0,10.0,237.0,0.448,261.0,201.0,0.443,454.0,60.0,0.306,196.0,0.402,650.0,254.0,0.891,285.0,75.0,75.0,NBA,2469.0,68.0,202.0,PG,836.0,2017,128.0,MIN,195.0,305.0
27.0,410.0,11.0,307.0,0.476,346.0,250.0,0.451,554.0,96.0,0.352,273.0,0.418,827.0,220.0,0.866,254.0,77.0,77.0,NBA,2254.0,44.0,206.0,PG,1008.0,2018,121.0,UTA,207.0,351.0
28.0,416.0,10.0,210.0,0.458,295.0,216.0,0.454,476.0,79.0,0.311,254.0,0.404,730.0,195.0,0.855,228.0,68.0,67.0,NBA,1899.0,33.0,180.0,PG,864.0,2019,91.0,UTA,180.0,243.0
29.0,87.0,0.0,58.0,0.461,47.0,35.0,0.422,83.0,12.0,0.375,32.0,0.409,115.0,30.0,0.882,34.0,10.0,10.0,NBA,323.0,5.0,29.0,PG,136.0,2020,14.0,PHO,22.0,63.0
