age,ast_per_g,blk_per_g,drb_per_g,efg_pct,fg2_pct,fg2_per_g,fg2a_per_g,fg3_pct,fg3_per_g,fg3a_per_g,fg_pct,fg_per_g,fga_per_g,ft_pct,ft_per_g,fta_per_g,g,gs,lg_id,mp_per_g,orb_per_g,pf_per_g,pos,pts_per_g,season,stl_per_g,team_id,tov_per_g,trb_per_g
27.0,7.0,0.5,6.5,0.418,0.383,3.0,7.8,0.313,1.7,5.3,0.354,4.7,13.2,0.783,3.0,3.8,6.0,6.0,NBA,30.2,0.8,2.2,PG,14.0,2018,1.3,UTA,3.0,7.3
28.0,8.6,0.2,2.6,0.455,0.522,4.8,9.2,0.2,0.8,4.0,0.424,5.6,13.2,0.85,3.4,4.0,5.0,5.0,NBA,33.6,0.6,2.8,PG,15.4,2019,2.4,UTA,3.0,3.2
