age,ast,ast_per_g,blk,college_id,fg,fg3,fg3_pct,fg3a,fg_pct,fga,ft,ft_pct,fta,g,mp,mp_per_g,orb,pf,pts,pts_per_g,season,stl,tov,trb,trb_per_g
20.0,21.0,0.7,21.0,UTAHST,203.0,24.0,0.308,78.0,0.487,417.0,102.0,0.694,147.0,31.0,872.0,28.1,0.0,0.0,532.0,17.2,2002,11.0,0.0,214.0,6.9
21.0,14.0,0.4,14.0,UTAHST,192.0,29.0,0.363,80.0,0.468,410.0,106.0,0.721,147.0,33.0,913.0,27.7,0.0,0.0,519.0,15.7,2003,30.0,0.0,218.0,6.6
