age,ast_per_mp,blk_per_mp,drb_per_mp,fg2_pct,fg2_per_mp,fg2a_per_mp,fg3_pct,fg3_per_mp,fg3a_per_mp,fg_pct,fg_per_mp,fga_per_mp,ft_pct,ft_per_mp,fta_per_mp,g,gs,lg_id,mp,orb_per_mp,pf_per_mp,pos,pts_per_mp,season,stl_per_mp,team_id,tov_per_mp,trb_per_mp
22.0,2.4,0.3,4.2,0.482,6.7,13.9,0.321,1.0,3.3,0.451,7.7,17.2,0.796,4.8,6.1,80.0,76.0,NBA,2958.0,2.1,2.8,SF,21.4,1995,1.4,MIL,3.8,6.2
23.0,3.2,0.5,4.1,0.48,6.0,12.4,0.342,1.0,2.9,0.454,6.9,15.3,0.812,3.5,4.3,82.0,82.0,NBA,3249.0,1.5,2.6,SF,18.4,1996,1.1,MIL,3.1,5.6
24.0,2.9,0.8,4.3,0.482,7.0,14.5,0.35,0.7,2.1,0.465,7.7,16.6,0.791,3.3,4.2,80.0,79.0,NBA,3114.0,1.5,2.6,SF,19.5,1997,1.2,MIL,3.1,5.8
25.0,2.5,0.5,3.5,0.475,8.0,16.8,0.385,0.4,1.0,0.47,8.4,17.8,0.808,3.4,4.2,56.0,56.0,NBA,2294.0,1.3,2.6,SF,20.5,1998,1.1,MIL,3.1,4.8
26.0,2.3,0.9,4.6,0.467,7.2,15.4,0.392,0.7,1.8,0.459,7.9,17.2,0.87,3.2,3.7,47.0,47.0,NBA,1579.0,1.7,2.6,SF,19.7,1999,1.0,MIL,2.4,6.3
27.0,2.4,0.5,4.7,0.493,7.5,15.1,0.363,1.1,2.9,0.472,8.5,18.1,0.802,2.8,3.5,81.0,81.0,NBA,2909.0,1.3,2.6,SF,21.0,2000,1.0,MIL,2.8,6.0
28.0,3.2,0.8,5.1,0.493,8.0,16.3,0.299,0.7,2.4,0.468,8.8,18.7,0.82,3.2,3.9,76.0,74.0,NBA,2813.0,1.6,2.4,SF,21.4,2001,1.1,MIL,2.8,6.7
29.0,2.6,0.6,5.2,0.493,7.3,14.9,0.326,0.9,2.7,0.467,8.2,17.6,0.837,3.6,4.3,66.0,63.0,NBA,2346.0,1.1,2.7,SF,21.0,2002,1.5,MIL,2.7,6.2
30.0,2.8,0.4,5.2,0.456,6.2,13.7,0.342,1.3,3.7,0.432,7.5,17.3,0.876,3.7,4.3,69.0,68.0,NBA,2591.0,1.2,2.5,SF,20.0,2003,1.3,ATL,3.4,6.3
31.0,1.5,0.2,3.9,0.469,6.5,13.9,0.34,0.9,2.7,0.448,7.4,16.5,0.832,3.1,3.7,42.0,42.0,NBA,1336.0,1.2,2.6,SF,18.8,2004,1.1,PHI,2.9,5.1
32.0,1.8,0.7,4.6,0.451,7.3,16.3,0.333,0.5,1.4,0.442,7.8,17.7,0.87,4.6,5.3,9.0,0.0,NBA,157.0,0.9,4.4,SF,20.6,2005,0.9,SAS,1.6,5.5
