age,ast_pct,blk_pct,bpm,bpm-dum,dbpm,drb_pct,dws,fg3a_per_fga_pct,fta_per_fga_pct,g,lg_id,mp,obpm,orb_pct,ows,per,pos,season,stl_pct,team_id,tov_pct,trb_pct,ts_pct,usg_pct,vorp,ws,ws-dum,ws_per_48
22.0,12.2,0.6,-1.1,0.0,-1.2,14.4,2.2,0.19,0.354,80.0,NBA,2958.0,0.1,6.7,1.1,16.6,SF,1995,2.0,MIL,16.1,10.4,0.538,29.1,0.7,3.2,0.0,0.053
23.0,15.7,1.0,0.2,0.0,-0.5,14.1,1.7,0.19,0.281,82.0,NBA,3249.0,0.7,5.0,1.8,15.9,SF,1996,1.6,MIL,15.4,9.5,0.534,25.8,1.8,3.5,0.0,0.052
24.0,14.8,1.6,0.3,0.0,0.0,14.6,2.7,0.125,0.253,80.0,NBA,3114.0,0.3,5.1,2.0,17.5,SF,1997,1.8,MIL,14.4,9.9,0.528,27.8,1.8,4.7,0.0,0.072
25.0,13.8,1.1,-1.0,0.0,-0.9,12.1,1.8,0.057,0.234,56.0,NBA,2294.0,0.0,4.3,1.3,16.8,SF,1998,1.6,MIL,13.8,8.2,0.522,28.9,0.6,3.1,0.0,0.065
26.0,12.5,2.1,0.9,0.0,-0.5,15.3,1.5,0.104,0.213,47.0,NBA,1579.0,1.4,5.7,2.5,19.7,SF,1999,1.6,MIL,11.4,10.5,0.523,28.2,1.1,4.0,0.0,0.122
27.0,11.8,1.1,-0.8,0.0,-1.9,15.1,1.3,0.162,0.194,81.0,NBA,2909.0,1.1,4.3,3.5,17.8,SF,2000,1.4,MIL,12.3,9.7,0.534,27.6,0.9,4.8,0.0,0.08
28.0,16.5,1.6,0.7,0.0,-0.6,16.1,2.5,0.126,0.21,76.0,NBA,2813.0,1.3,5.0,4.2,20.1,SF,2001,1.6,MIL,12.1,10.6,0.525,29.2,1.9,6.7,0.0,0.114
29.0,13.4,1.3,-0.4,0.0,-1.0,15.8,2.1,0.155,0.246,66.0,NBA,2346.0,0.6,3.6,2.6,19.1,SF,2002,2.2,MIL,12.0,10.0,0.537,28.8,1.0,4.7,0.0,0.096
30.0,15.5,0.7,-1.0,0.0,-1.3,15.7,1.9,0.211,0.245,69.0,NBA,2591.0,0.3,3.9,1.0,16.7,SF,2003,1.9,ATL,15.2,10.0,0.519,28.8,0.7,2.9,0.0,0.055
31.0,9.1,0.5,-2.5,0.0,-1.7,12.5,1.3,0.163,0.223,42.0,NBA,1336.0,-0.9,4.1,0.3,15.0,SF,2004,1.7,PHI,13.6,8.3,0.518,27.4,-0.2,1.6,0.0,0.056
32.0,9.8,1.4,-2.9,0.0,-1.0,14.9,0.3,0.078,0.299,9.0,NBA,157.0,-1.8,3.0,0.2,17.2,SF,2005,1.4,SAS,7.4,8.9,0.517,27.9,0.0,0.5,0.0,0.147
