age,and1s,astd_pts,drawn_offensive,drawn_shooting,fouls_offensive,fouls_shooting,g,lg_id,mp,own_shots_blk,pct_1,pct_2,pct_3,pct_4,pct_5,plus_minus_net,plus_minus_on,pos,season,team_id,tov_bad_pass,tov_lost_ball
20.0,5.0,869.0,10.0,28.0,7.0,49.0,52.0,NBA,1780.0,39.0,84.0,14.0,2.0,0.0,0.0,1.2,-0.9,PG,2018,LAL,96.0,21.0
21.0,4.0,571.0,6.0,17.0,7.0,57.0,47.0,NBA,1423.0,25.0,98.0,2.0,0.0,0.0,0.0,1.3,-1.0,PG,2019,LAL,68.0,19.0
22.0,0.0,113.0,2.0,5.0,2.0,5.0,7.0,NBA,210.0,2.0,79.0,21.0,0.0,0.0,0.0,3.2,-4.1,PG,2020,NOP,11.0,1.0
