age,ast_per_poss,blk_per_poss,def_rtg,drb_per_poss,fg2_pct,fg2_per_poss,fg2a_per_poss,fg3_pct,fg3_per_poss,fg3a_per_poss,fg_pct,fg_per_poss,fga_per_poss,ft_pct,ft_per_poss,fta_per_poss,g,gs,lg_id,mp,off_rtg,orb_per_poss,pf_per_poss,pos,pts_per_poss,season,stl_per_poss,team_id,tov_per_poss,trb_per_poss
20.0,10.1,1.2,106.0,7.8,0.42,3.0,7.2,0.305,2.4,7.9,0.36,5.5,15.2,0.451,0.9,1.9,52.0,50.0,NBA,1780.0,97.0,1.9,3.1,PG,14.2,2018,2.4,LAL,3.7,9.7
21.0,8.3,0.6,109.0,6.4,0.482,3.6,7.5,0.329,2.5,7.5,0.406,6.0,14.9,0.417,0.7,1.6,47.0,45.0,NBA,1423.0,100.0,1.8,3.7,PG,15.2,2019,2.3,LAL,3.4,8.2
22.0,10.1,0.2,115.0,5.8,0.5,3.2,6.4,0.386,3.6,9.4,0.432,6.8,15.8,0.6,1.3,2.1,7.0,7.0,NBA,210.0,114.0,1.1,3.0,PG,18.6,2020,2.4,NOP,3.2,6.8
