age,ast,blk,drb,efg_pct,fg,fg2,fg2_pct,fg2a,fg3,fg3_pct,fg3a,fg_pct,fga,ft,ft_pct,fta,g,gs,lg_id,mp,orb,pf,pos,pts,season,stl,team_id,tov,trb
20.0,376.0,43.0,291.0,0.44,203.0,113.0,0.42,269.0,90.0,0.305,295.0,0.36,564.0,32.0,0.451,71.0,52.0,50.0,NBA,1780.0,69.0,117.0,PG,528.0,2018,88.0,LAL,136.0,360.0
21.0,255.0,19.0,197.0,0.488,185.0,110.0,0.482,228.0,75.0,0.329,228.0,0.406,456.0,20.0,0.417,48.0,47.0,45.0,NBA,1423.0,54.0,114.0,PG,465.0,2019,69.0,LAL,103.0,251.0
22.0,47.0,1.0,27.0,0.547,32.0,15.0,0.5,30.0,17.0,0.386,44.0,0.432,74.0,6.0,0.6,10.0,7.0,7.0,NBA,210.0,5.0,14.0,PG,87.0,2020,11.0,NOP,15.0,32.0
