article_url,date,headline
https://pelicandebrief.com/2019/11/08/new-orleans-pelicans-host-raptors-rematch/,2019/11/08,Pelican Debrief: New Orleans Pelicans host Toronto Raptors for opening night rematch
https://empirewritesback.com/2019/11/07/lamelo-ball-new-york-knicks-point-guard-of-the-future/,2019/11/07,Empire Writes Back: LaMelo Ball: New York Knicks point guard of the future?
https://hoopshabit.com/2019/11/07/nba-4-teams-desperate-need-big-november/,2019/11/07,Hoops Habit: 4 NBA teams in desperate need of a big November
https://pippenainteasy.com/2019/11/06/2020-nba-mock-draft-1-0-start-college-basketball-season/,2019/11/06,Pippen Ain't Easy: 2020 NBA Mock Draft 1.0 at start of college basketball season
https://hoopshabit.com/2019/11/06/2020-nba-mock-draft-cole-anthony-top/,2019/11/06,Hoops Habit: Cole Anthony atop lottery prospects for 2020 NBA Draft
