age,ast,blk,drb,fg,fg2,fg2a,fg3,fg3a,fga,ft,fta,game_score,lg_id,mp,orb,pf,pts,season,stl,team_id,tov,trb
22.0,3.0,6.0,9.0,11.0,11.0,19.0,0.0,1.0,19.0,9.0,13.0,24.1,NBA,0.0,9.0,6.0,27.0,1989,4.0,IND,5.0,15.0
23.0,5.0,7.0,13.0,14.0,14.0,24.0,0.0,1.0,24.0,10.0,12.0,28.0,NBA,0.0,9.0,6.0,34.0,1990,3.0,IND,6.0,15.0
24.0,5.0,8.0,8.0,12.0,12.0,21.0,0.0,0.0,21.0,8.0,9.0,25.4,NBA,0.0,6.0,6.0,31.0,1991,3.0,IND,5.0,10.0
25.0,5.0,5.0,13.0,14.0,14.0,26.0,0.0,1.0,26.0,8.0,10.0,21.9,NBA,0.0,7.0,6.0,31.0,1992,3.0,IND,8.0,16.0
26.0,6.0,4.0,13.0,18.0,18.0,27.0,0.0,0.0,27.0,13.0,16.0,35.0,NBA,0.0,5.0,6.0,37.0,1993,1.0,IND,6.0,16.0
27.0,8.0,4.0,11.0,17.0,17.0,24.0,0.0,1.0,24.0,12.0,15.0,37.2,NBA,0.0,7.0,6.0,40.0,1994,4.0,IND,6.0,13.0
28.0,7.0,5.0,11.0,15.0,15.0,23.0,0.0,1.0,23.0,11.0,13.0,32.5,NBA,0.0,7.0,6.0,35.0,1995,2.0,IND,7.0,15.0
29.0,6.0,2.0,10.0,20.0,20.0,29.0,1.0,1.0,29.0,10.0,13.0,34.8,NBA,0.0,7.0,6.0,44.0,1996,3.0,IND,7.0,13.0
30.0,4.0,4.0,11.0,17.0,17.0,28.0,1.0,2.0,28.0,10.0,11.0,29.2,NBA,0.0,7.0,6.0,40.0,1997,3.0,IND,7.0,16.0
31.0,7.0,5.0,12.0,14.0,14.0,23.0,0.0,1.0,23.0,7.0,10.0,22.6,NBA,0.0,5.0,6.0,29.0,1998,4.0,IND,5.0,15.0
32.0,4.0,3.0,13.0,12.0,12.0,26.0,0.0,1.0,26.0,15.0,16.0,29.7,NBA,0.0,5.0,6.0,35.0,1999,2.0,IND,5.0,17.0
33.0,4.0,5.0,10.0,12.0,12.0,20.0,0.0,1.0,20.0,8.0,8.0,24.6,NBA,0.0,3.0,6.0,29.0,2000,2.0,IND,6.0,12.0
