age,avg_dist,fg2_dunk,fg2_pct,fg2_pct_ast,fg2a_pct_fga,fg3_heave,fg3_pct,fg3_pct_ast,fg3_pct_corner,fg3a_heave,fg3a_pct_fga,fg_pct,fg_pct_00_03,fg_pct_03_10,fg_pct_10_16,fg_pct_16_xx,g,lg_id,mp,pct_fg2_dunk,pct_fg3a_corner,pct_fga_00_03,pct_fga_03_10,pct_fga_10_16,pct_fga_16_xx,pos,season,team_id
30.0,17.6,7.0,0.392,0.654,0.517,0.0,0.395,0.969,0.444,1.0,0.483,0.394,0.544,0.161,0.39,0.351,72.0,NBA,1583.0,0.014,0.399,0.154,0.06,0.08,0.222,SF,2001,HOU
31.0,16.4,12.0,0.413,0.602,0.538,0.0,0.426,1.0,0.45,0.0,0.462,0.419,0.522,0.095,0.37,0.387,48.0,NBA,1117.0,0.035,0.328,0.227,0.053,0.068,0.189,SF,2002,HOU
32.0,16.3,10.0,0.412,0.586,0.499,0.0,0.374,0.969,0.324,0.0,0.501,0.393,0.494,0.333,0.214,0.368,66.0,NBA,1161.0,0.035,0.415,0.238,0.053,0.041,0.167,SF,2003,DAL
