age,ast_per_mp,blk_per_mp,drb_per_mp,fg2_pct,fg2_per_mp,fg2a_per_mp,fg3_pct,fg3_per_mp,fg3a_per_mp,fg_pct,fg_per_mp,fga_per_mp,ft_pct,ft_per_mp,fta_per_mp,g,gs,lg_id,mp,orb_per_mp,pf_per_mp,pos,pts_per_mp,season,stl_per_mp,team_id,tov_per_mp,trb_per_mp
25.0,2.6,0.5,4.6,0.556,2.6,4.6,0.111,0.5,4.6,0.333,3.1,9.3,0.5,0.5,1.0,3.0,3.0,NBA,70.0,1.5,2.1,SF,7.2,1996,0.5,MIA,1.5,6.2
27.0,3.2,0.0,3.9,0.563,3.2,5.6,0.533,2.8,5.3,0.548,6.0,10.9,0.786,3.9,4.9,4.0,0.0,NBA,102.0,1.1,6.4,SF,18.7,1998,0.4,POR,0.4,4.9
28.0,2.1,0.6,2.1,0.308,1.6,5.1,0.406,2.5,6.2,0.362,4.1,11.3,0.571,1.6,2.7,13.0,0.0,NBA,185.0,1.0,5.3,SF,12.3,1999,1.4,POR,2.1,3.1
32.0,2.4,1.9,4.9,0.45,2.9,6.3,0.341,2.2,6.5,0.395,5.1,12.8,1.0,1.1,1.1,15.0,3.0,NBA,227.0,1.9,4.4,SF,13.5,2003,0.8,DAL,2.7,6.8
