age,ast_per_mp,blk_per_mp,drb_per_mp,fg2_pct,fg2_per_mp,fg2a_per_mp,fg3_pct,fg3_per_mp,fg3a_per_mp,fg_pct,fg_per_mp,fga_per_mp,ft_pct,ft_per_mp,fta_per_mp,g,gs,lg_id,mp,orb_per_mp,pf_per_mp,pos,pts_per_mp,season,stl_per_mp,team_id,tov_per_mp,trb_per_mp
22.0,3.8,0.6,3.2,0.47,6.4,13.6,0.319,1.3,4.1,0.435,7.7,17.7,0.742,4.8,6.5,59.0,26.0,NBA,1673.0,2.5,4.5,SF,21.5,1993,1.4,SAC,3.9,5.7
23.0,3.5,0.6,4.4,0.42,5.0,11.9,0.288,1.0,3.5,0.39,6.0,15.4,0.635,3.9,6.2,57.0,4.0,NBA,1356.0,1.9,5.3,SF,16.9,1994,1.4,SAC,3.8,6.2
24.0,4.2,0.8,3.2,0.487,4.5,9.2,0.348,1.4,3.9,0.446,5.8,13.1,0.731,3.5,4.8,77.0,77.0,NBA,2739.0,1.3,3.5,SF,16.5,1995,1.6,SAC,3.2,4.5
25.0,3.8,1.0,3.7,0.476,4.1,8.5,0.389,1.9,4.9,0.444,6.0,13.4,0.703,2.7,3.9,73.0,73.0,NBA,2169.0,1.6,4.0,SF,16.5,1996,1.4,TOT,2.5,5.3
25.0,4.3,1.1,3.8,0.478,4.6,9.6,0.341,1.5,4.4,0.435,6.1,14.1,0.756,3.4,4.5,45.0,45.0,NBA,1381.0,1.6,3.9,SF,17.2,1996,1.4,SAC,2.7,5.4
25.0,3.0,0.7,3.4,0.469,3.1,6.6,0.455,2.6,5.6,0.463,5.7,12.2,0.55,1.5,2.7,28.0,28.0,NBA,788.0,1.7,4.0,SF,15.4,1996,1.5,MIA,2.2,5.1
26.0,2.7,0.8,3.6,0.448,3.3,7.4,0.4,2.4,5.9,0.427,5.7,13.4,0.765,2.5,3.3,73.0,73.0,NBA,2647.0,1.4,3.8,SF,16.3,1997,1.3,TOR,2.4,5.0
27.0,3.0,0.9,3.7,0.4,3.2,8.0,0.365,2.0,5.4,0.386,5.1,13.3,0.864,2.6,3.1,59.0,17.0,NBA,1470.0,1.2,3.9,SF,14.9,1998,1.4,TOT,2.3,4.9
27.0,2.8,0.9,3.7,0.4,3.1,7.8,0.38,2.0,5.3,0.392,5.1,13.1,0.817,2.0,2.5,28.0,16.0,NBA,876.0,1.1,4.1,SF,14.3,1998,1.6,TOR,2.1,4.8
27.0,3.2,0.7,3.6,0.4,3.3,8.2,0.344,1.9,5.5,0.378,5.2,13.6,0.908,3.6,3.9,31.0,1.0,NBA,594.0,1.4,3.7,SF,15.8,1998,1.2,POR,2.4,5.0
28.0,2.8,1.0,3.7,0.414,2.9,7.0,0.438,2.2,5.0,0.424,5.1,12.0,0.832,3.1,3.7,48.0,16.0,NBA,1044.0,1.2,3.5,SF,15.4,1999,1.3,POR,2.2,4.9
29.0,3.0,0.9,4.6,0.5,4.1,8.1,0.391,2.0,5.1,0.458,6.0,13.2,0.821,2.0,2.4,76.0,66.0,NBA,1859.0,1.3,3.7,SF,16.0,2000,0.9,HOU,2.2,5.9
30.0,2.2,0.6,4.9,0.392,2.4,6.0,0.395,2.2,5.6,0.394,4.6,11.7,0.77,2.2,2.9,72.0,31.0,NBA,1583.0,0.7,3.5,SF,13.6,2001,0.7,HOU,1.7,5.6
31.0,2.2,0.3,4.0,0.413,2.8,6.9,0.426,2.5,5.9,0.419,5.4,12.8,0.784,1.3,1.6,48.0,25.0,NBA,1117.0,1.2,3.4,SF,14.5,2002,0.6,HOU,1.7,5.2
32.0,1.8,0.8,4.8,0.412,2.2,5.3,0.374,2.0,5.3,0.393,4.2,10.6,0.62,1.0,1.6,66.0,1.0,NBA,1161.0,1.6,4.4,SF,11.3,2003,1.3,DAL,1.1,6.4
