lg_id,salary,season,team_name
NBA,2250000.0,1992,Miami Heat
NBA,2252000.0,1993,Miami Heat
NBA,2252000.0,1994,Miami Heat
NBA,1935900.0,1995,Atlanta Hawks
NBA,2568000.0,1996,Atlanta Hawks
NBA,4500000.0,1997,Atlanta Hawks
NBA,5400000.0,1998,Atlanta Hawks
NBA,6300000.0,1999,Atlanta Hawks
NBA,7200000.0,2000,Portland Trail Blazers
NBA,8100000.0,2001,Portland Trail Blazers
NBA,9000000.0,2002,San Antonio Spurs
NBA,9900000.0,2003,San Antonio Spurs
NBA,1070000.0,2004,New Orleans Hornets
NBA,1100000.0,2005,Charlotte Bobcats
