age,ast_per_mp,blk_per_mp,drb_per_mp,fg2_pct,fg2_per_mp,fg2a_per_mp,fg3_pct,fg3_per_mp,fg3a_per_mp,fg_pct,fg_per_mp,fga_per_mp,ft_pct,ft_per_mp,fta_per_mp,g,gs,lg_id,mp,orb_per_mp,pf_per_mp,pos,pts_per_mp,season,stl_per_mp,team_id,tov_per_mp,trb_per_mp
24.0,0.9,0.7,6.3,0.429,5.7,13.3,0.0,0.0,0.1,0.425,5.7,13.4,0.672,2.5,3.7,78.0,18.0,NBA,1259.0,3.3,5.4,C,13.9,1991,0.5,MIA,3.1,9.6
25.0,1.0,1.0,6.0,0.413,4.8,11.5,0.0,0.0,0.0,0.413,4.8,11.5,0.817,2.8,3.5,77.0,4.0,NBA,1197.0,3.4,5.6,PF,12.3,1992,0.5,MIA,1.7,9.4
26.0,1.2,1.0,5.7,0.468,4.5,9.6,0.455,0.4,1.0,0.467,4.9,10.6,0.766,3.1,4.1,40.0,2.0,NBA,415.0,2.2,5.5,PF,13.4,1993,0.3,MIA,1.8,7.9
27.0,1.1,0.5,3.3,0.375,3.3,8.7,0.556,2.7,4.9,0.44,6.0,13.6,0.75,3.3,4.4,15.0,0.0,NBA,66.0,2.2,7.6,PF,18.0,1994,0.5,MIA,2.7,5.5
