age,ast,ast_per_g,blk,college_id,fg,fg3,fg3_pct,fg3a,fg_pct,fga,ft,ft_pct,fta,g,mp,mp_per_g,orb,pf,pts,pts_per_g,season,stl,tov,trb,trb_per_g
18.0,10.0,0.5,2.0,IOWA,9.0,1.0,1.0,1.0,0.31,29.0,7.0,0.538,13.0,20.0,0.0,0.0,0.0,13.0,26.0,1.3,1983,1.0,0.0,11.0,0.6
19.0,28.0,1.0,12.0,IOWA,78.0,0.0,0.0,0.0,0.404,193.0,35.0,0.673,52.0,28.0,626.0,22.4,0.0,62.0,191.0,6.8,1984,11.0,42.0,146.0,5.2
21.0,13.0,0.4,17.0,IOWA,44.0,0.0,0.0,0.0,0.431,102.0,27.0,0.794,34.0,32.0,407.0,12.7,0.0,38.0,115.0,3.6,1986,17.0,34.0,101.0,3.2
22.0,63.0,1.8,37.0,IOWA,149.0,25.0,0.347,72.0,0.54,276.0,72.0,0.692,104.0,35.0,943.0,26.9,0.0,68.0,395.0,11.3,1987,17.0,59.0,268.0,7.7
