age,ast,blk,drb,efg_pct,fg,fg2,fg2_pct,fg2a,fg3,fg3_pct,fg3a,fg_pct,fga,ft,ft_pct,fta,g,gs,lg_id,mp,orb,pf,pos,pts,season,stl,team_id,tov,trb
20.0,85.0,22.0,156.0,0.503,175.0,175.0,0.512,342.0,0.0,0.0,6.0,0.503,348.0,58.0,0.637,91.0,58.0,0.0,NBA,820.0,66.0,150.0,PF,408.0,2019,31.0,SAC,73.0,222.0
21.0,0.0,1.0,3.0,0.4,2.0,2.0,0.4,5.0,0.0,0.0,0.0,0.4,5.0,2.0,1.0,2.0,2.0,0.0,NBA,14.0,0.0,4.0,PF,6.0,2020,0.0,SAC,1.0,3.0
