age,ast,ast_per_g,blk,college_id,fg,fg3,fg3_pct,fg3a,fg_pct,fga,ft,ft_pct,fta,g,mp,mp_per_g,orb,pf,pts,pts_per_g,season,stl,tov,trb,trb_per_g
20.0,3.0,0.3,0.0,BOISEST,14.0,0.0,0.0,0.0,0.56,25.0,1.0,0.2,5.0,11.0,98.0,8.9,0.0,0.0,29.0,2.6,1992,0.0,0.0,17.0,1.5
21.0,13.0,0.6,0.0,BOISEST,65.0,0.0,0.0,0.0,0.52,125.0,18.0,0.692,26.0,22.0,298.0,13.5,0.0,0.0,148.0,6.7,1993,0.0,0.0,86.0,3.9
22.0,39.0,1.3,0.0,BOISEST,231.0,0.0,0.0,0.0,0.573,403.0,59.0,0.504,117.0,30.0,866.0,28.9,0.0,0.0,521.0,17.4,1994,0.0,0.0,203.0,6.8
23.0,17.0,0.8,0.0,BOISEST,129.0,0.0,0.0,0.0,0.529,244.0,76.0,0.679,112.0,21.0,573.0,27.3,0.0,0.0,334.0,15.9,1995,0.0,0.0,153.0,7.3
