age,ast_per_poss,blk_per_poss,def_rtg,drb_per_poss,fg2_pct,fg2_per_poss,fg2a_per_poss,fg3_pct,fg3_per_poss,fg3a_per_poss,fg_pct,fg_per_poss,fga_per_poss,ft_pct,ft_per_poss,fta_per_poss,g,gs,lg_id,mp,off_rtg,orb_per_poss,pf_per_poss,pos,pts_per_poss,season,stl_per_poss,team_id,tov_per_poss,trb_per_poss
24.0,4.7,4.7,114.0,0.0,0.8,18.7,23.4,0.0,0.0,0.0,0.8,18.7,23.4,0.0,0.0,0.0,5.0,0.0,NBA,11.0,166.0,9.4,4.7,C,37.4,1996,0.0,PHO,0.0,9.4
27.0,0.0,1.1,104.0,8.2,0.419,7.1,16.9,0.0,0.0,0.0,0.419,7.1,16.9,0.833,2.7,3.3,14.0,0.0,NBA,98.0,100.0,3.8,9.3,C,16.9,1999,0.5,WAS,1.1,12.0
29.0,3.2,0.0,111.0,3.2,0.125,1.6,12.8,0.0,0.0,0.0,0.125,1.6,12.8,0.0,0.0,0.0,6.0,0.0,NBA,32.0,47.0,4.8,6.4,C,3.2,2001,1.6,GSW,3.2,8.0
