article_url,date,headline
https://orlandomagicdaily.com/2019/11/15/orlando-magic-biggest-room-growth-defense/,2019/11/15,Orlando Magic Daily: Orlando Magic's biggest room for growth is on defense
https://orlandomagicdaily.com/2019/11/15/orlando-magics-offense-has-a-pulse/,2019/11/15,Orlando Magic Daily: Orlando Magic's offense has a pulse as team finds its rhythm
https://lastwordonprobasketball.com/2019/11/14/disappointing-nba-teams/,2019/11/14,Last Word on Sports: The Most Disappointing NBA Teams so Far This Season
https://orlandomagicdaily.com/2019/11/14/orlando-magics-best-players-came-needed-critical-win/,2019/11/14,Orlando Magic Daily: Orlando Magic's best players came through when needed for critical win
