age,avg_dist,fg2_dunk,fg2_pct,fg2_pct_ast,fg2a_pct_fga,fg3_heave,fg3_pct,fg3_pct_ast,fg3_pct_corner,fg3a_heave,fg3a_pct_fga,fg_pct,fg_pct_00_03,fg_pct_03_10,fg_pct_10_16,fg_pct_16_xx,g,lg_id,mp,pct_fg2_dunk,pct_fg3a_corner,pct_fga_00_03,pct_fga_03_10,pct_fga_10_16,pct_fga_16_xx,pos,season,team_id
19.0,9.5,22.0,0.5,0.488,0.769,0.0,0.271,0.923,0.346,1.0,0.231,0.447,0.635,0.419,0.1,0.308,47.0,NBA,797.0,0.125,0.542,0.462,0.149,0.096,0.063,PF,2015,ORL
20.0,10.3,72.0,0.531,0.517,0.755,0.0,0.296,0.976,0.315,5.0,0.245,0.473,0.654,0.344,0.34,0.338,78.0,NBA,1863.0,0.131,0.38,0.454,0.105,0.086,0.112,PF,2016,ORL
21.0,12.7,99.0,0.528,0.503,0.691,0.0,0.288,0.844,0.265,3.0,0.309,0.454,0.683,0.325,0.446,0.319,80.0,NBA,2298.0,0.123,0.255,0.361,0.092,0.106,0.131,SF,2017,ORL
22.0,14.1,92.0,0.497,0.488,0.605,0.0,0.336,0.835,0.368,0.0,0.395,0.434,0.718,0.287,0.38,0.273,58.0,NBA,1909.0,0.111,0.199,0.275,0.109,0.106,0.114,PF,2018,ORL
23.0,13.0,104.0,0.499,0.504,0.668,0.0,0.349,0.843,0.402,4.0,0.332,0.449,0.671,0.311,0.355,0.34,78.0,NBA,2633.0,0.109,0.251,0.328,0.129,0.116,0.096,PF,2019,ORL
24.0,13.8,11.0,0.524,0.455,0.672,0.0,0.317,0.769,0.143,1.0,0.328,0.456,0.737,0.429,0.353,0.267,11.0,NBA,342.0,0.096,0.171,0.304,0.112,0.136,0.12,PF,2020,ORL
