age,ast,blk,drb,efg_pct,fg,fg2,fg2_pct,fg2a,fg3,fg3_pct,fg3a,fg_pct,fga,ft,ft_pct,fta,g,gs,lg_id,mp,orb,pf,pos,pts,season,stl,team_id,tov,trb
25.0,2.0,1.0,22.0,0.538,14.0,14.0,0.538,26.0,0.0,0.0,0.0,0.538,26.0,9.0,0.5,18.0,17.0,0.0,NBA,158.0,14.0,33.0,C,37.0,1988,1.0,BOS,6.0,36.0
26.0,0.0,0.0,1.0,0.0,0.0,0.0,0.0,0.0,0.0,0.0,1.0,0.0,1.0,0.0,0.0,0.0,2.0,0.0,NBA,2.0,0.0,0.0,C,0.0,1989,0.0,BOS,0.0,1.0
