age,ast_per_g,blk_per_g,drb_per_g,efg_pct,fg2_pct,fg2_per_g,fg2a_per_g,fg3_pct,fg3_per_g,fg3a_per_g,fg_pct,fg_per_g,fga_per_g,ft_pct,ft_per_g,fta_per_g,g,gs,lg_id,mp_per_g,orb_per_g,pf_per_g,pos,pts_per_g,season,stl_per_g,team_id,tov_per_g,trb_per_g
25.0,0.5,0.3,2.1,0.532,0.532,1.4,2.6,0.0,0.0,0.0,0.532,1.4,2.6,0.64,0.9,1.4,79.0,5.0,NBA,14.6,1.3,2.5,C,3.6,1988,0.4,BOS,0.7,3.4
26.0,0.3,0.1,1.4,0.487,0.478,0.9,1.8,1.0,0.0,0.0,0.482,0.9,1.8,0.542,0.4,0.8,62.0,0.0,NBA,10.2,1.0,1.5,C,2.2,1989,0.3,BOS,0.4,2.4
27.0,0.8,0.3,3.5,0.489,0.48,1.7,3.5,0.75,0.0,0.1,0.484,1.7,3.6,0.692,1.0,1.5,80.0,50.0,NBA,21.1,1.9,3.1,C,4.5,1990,0.5,ORL,0.9,5.4
28.0,0.4,0.4,3.2,0.512,0.512,1.6,3.1,0.333,0.0,0.0,0.509,1.6,3.1,0.653,1.0,1.5,68.0,0.0,NBA,19.3,2.1,3.2,C,4.2,1991,0.4,ORL,0.6,5.3
29.0,0.3,0.2,2.3,0.52,0.52,1.1,2.2,0.333,0.0,0.0,0.517,1.1,2.2,0.761,0.8,1.0,68.0,6.0,NBA,13.6,1.4,2.1,C,3.1,1992,0.4,ORL,0.5,3.7
30.0,0.3,0.3,2.3,0.541,0.532,1.4,2.6,0.5,0.1,0.1,0.531,1.4,2.7,0.688,0.6,0.9,18.0,7.0,NBA,14.9,1.4,1.9,C,3.6,1993,0.2,TOT,0.7,3.7
30.0,0.0,0.0,0.7,0.278,0.143,0.2,1.2,0.5,0.2,0.3,0.222,0.3,1.5,0.5,0.2,0.3,6.0,0.0,NBA,3.8,0.3,0.3,C,1.0,1993,0.0,HOU,0.3,1.0
30.0,0.4,0.5,3.1,0.6,0.6,2.0,3.3,0.0,0.0,0.0,0.6,2.0,3.3,0.714,0.8,1.2,12.0,7.0,NBA,20.5,2.0,2.7,C,4.8,1993,0.3,WSB,0.9,5.1
