age,ast_per_g,blk_per_g,drb_per_g,efg_pct,fg2_pct,fg2_per_g,fg2a_per_g,fg3_pct,fg3_per_g,fg3a_per_g,fg_pct,fg_per_g,fga_per_g,ft_pct,ft_per_g,fta_per_g,g,gs,lg_id,mp_per_g,orb_per_g,pf_per_g,pos,pts_per_g,season,stl_per_g,team_id,tov_per_g,trb_per_g
25.0,0.1,0.1,1.3,0.538,0.538,0.8,1.5,0.0,0.0,0.0,0.538,0.8,1.5,0.5,0.5,1.1,17.0,0.0,NBA,9.3,0.8,1.9,C,2.2,1988,0.1,BOS,0.4,2.1
26.0,0.0,0.0,0.5,0.0,0.0,0.0,0.0,0.0,0.0,0.5,0.0,0.0,0.5,0.0,0.0,0.0,2.0,0.0,NBA,1.0,0.0,0.0,C,0.0,1989,0.0,BOS,0.0,0.5
