age,ast,blk,drb,efg_pct,fg,fg2,fg2_pct,fg2a,fg3,fg3_pct,fg3a,fg_pct,fga,ft,ft_pct,fta,g,gs,lg_id,mp,orb,pf,pos,pts,season,stl,team_id,tov,trb
25.0,42.0,27.0,165.0,0.532,108.0,108.0,0.532,203.0,0.0,0.0,0.0,0.532,203.0,71.0,0.64,111.0,79.0,5.0,NBA,1151.0,105.0,198.0,C,287.0,1988,29.0,BOS,54.0,270.0
26.0,19.0,6.0,87.0,0.487,55.0,54.0,0.478,113.0,1.0,1.0,1.0,0.482,114.0,26.0,0.542,48.0,62.0,0.0,NBA,632.0,59.0,94.0,C,137.0,1989,19.0,BOS,23.0,146.0
27.0,67.0,25.0,277.0,0.489,138.0,135.0,0.48,281.0,3.0,0.75,4.0,0.484,285.0,83.0,0.692,120.0,80.0,50.0,NBA,1691.0,154.0,248.0,C,362.0,1990,36.0,ORL,70.0,431.0
28.0,25.0,25.0,219.0,0.512,109.0,108.0,0.512,211.0,1.0,0.333,3.0,0.509,214.0,66.0,0.653,101.0,68.0,0.0,NBA,1313.0,140.0,218.0,C,285.0,1991,25.0,ORL,42.0,359.0
29.0,22.0,15.0,155.0,0.52,78.0,77.0,0.52,148.0,1.0,0.333,3.0,0.517,151.0,51.0,0.761,67.0,68.0,6.0,NBA,926.0,97.0,140.0,C,208.0,1992,25.0,ORL,33.0,252.0
30.0,5.0,6.0,41.0,0.541,26.0,25.0,0.532,47.0,1.0,0.5,2.0,0.531,49.0,11.0,0.688,16.0,18.0,7.0,NBA,269.0,26.0,34.0,C,64.0,1993,3.0,TOT,13.0,67.0
30.0,0.0,0.0,4.0,0.278,2.0,1.0,0.143,7.0,1.0,0.5,2.0,0.222,9.0,1.0,0.5,2.0,6.0,0.0,NBA,23.0,2.0,2.0,C,6.0,1993,0.0,HOU,2.0,6.0
30.0,5.0,6.0,37.0,0.6,24.0,24.0,0.6,40.0,0.0,0.0,0.0,0.6,40.0,10.0,0.714,14.0,12.0,7.0,NBA,246.0,24.0,32.0,C,58.0,1993,3.0,WSB,11.0,61.0
