age,ast_pct,blk_pct,bpm,bpm-dum,dbpm,drb_pct,dws,fg3a_per_fga_pct,fta_per_fga_pct,g,lg_id,mp,obpm,orb_pct,ows,per,pos,season,stl_pct,team_id,tov_pct,trb_pct,ts_pct,usg_pct,vorp,ws,ws-dum,ws_per_48
24.0,5.4,0.4,-6.4,0.0,-3.2,21.3,0.4,0.007,0.381,40.0,NBA,376.0,-3.2,12.1,0.5,16.3,PF,2013,0.6,ATL,10.9,16.7,0.533,23.7,-0.4,0.9,0.0,0.11
25.0,8.9,0.4,-3.0,0.0,-2.3,17.2,1.2,0.318,0.21,80.0,NBA,1482.0,-0.7,4.9,1.3,15.3,PF,2014,1.0,ATL,10.3,11.1,0.559,23.5,-0.4,2.6,0.0,0.084
26.0,10.9,0.2,-1.6,0.0,-2.1,15.2,1.1,0.424,0.17,68.0,NBA,1123.0,0.6,4.7,1.6,15.1,PF,2015,1.1,ATL,7.4,10.1,0.543,21.4,0.1,2.7,0.0,0.115
27.0,10.5,1.2,-0.6,0.0,-0.4,14.2,1.5,0.42,0.168,75.0,NBA,1146.0,-0.2,5.2,1.7,14.0,PF,2016,1.1,ATL,9.4,9.8,0.575,17.4,0.4,3.2,0.0,0.132
28.0,12.5,1.3,-5.3,0.0,-0.1,15.0,0.2,0.458,0.136,18.0,NBA,195.0,-5.3,5.7,-0.3,5.9,PF,2017,1.0,ATL,11.3,10.4,0.36,15.8,-0.2,-0.1,0.0,-0.014
29.0,9.1,0.6,-2.3,0.0,-1.8,15.8,1.0,0.311,0.145,76.0,NBA,1406.0,-0.5,4.0,1.4,13.6,PF,2018,0.8,WAS,12.4,9.9,0.599,20.0,-0.1,2.5,0.0,0.085
30.0,6.4,0.7,-2.7,0.0,-1.2,17.2,1.2,0.6,0.079,79.0,NBA,1395.0,-1.5,3.4,0.4,8.6,PF,2019,0.9,TOT,9.2,10.5,0.528,14.4,-0.2,1.6,0.0,0.053
30.0,8.1,0.8,-2.3,0.0,-0.7,20.6,0.7,0.578,0.078,52.0,NBA,748.0,-1.6,3.5,0.1,9.4,PF,2019,1.1,LAC,10.2,12.3,0.521,14.9,-0.1,0.9,0.0,0.055
30.0,4.6,0.6,-3.1,0.0,-1.7,13.2,0.5,0.626,0.079,27.0,NBA,647.0,-1.4,3.2,0.2,7.7,PF,2019,0.7,PHI,8.0,8.3,0.537,13.8,-0.2,0.7,0.0,0.052
31.0,3.6,0.0,-2.1,0.0,-2.1,16.7,0.2,0.533,0.083,11.0,NBA,194.0,0.0,5.7,0.3,11.7,PF,2020,0.7,PHI,8.8,11.2,0.603,14.5,0.0,0.5,0.0,0.12
