age,ast_per_poss,blk_per_poss,def_rtg,drb_per_poss,fg2_pct,fg2_per_poss,fg2a_per_poss,fg3_pct,fg3_per_poss,fg3a_per_poss,fg_pct,fg_per_poss,fga_per_poss,ft_pct,ft_per_poss,fta_per_poss,g,gs,lg_id,mp,off_rtg,orb_per_poss,pf_per_poss,pos,pts_per_poss,season,stl_per_poss,team_id,tov_per_poss,trb_per_poss
24.0,2.6,0.0,101.0,15.8,0.556,13.2,23.7,0.0,0.0,2.6,0.5,13.2,26.3,0.75,7.9,10.5,4.0,0.0,NBA,20.0,117.0,2.6,5.3,PF,34.2,2013,0.0,ATL,0.0,18.4
25.0,1.1,0.0,108.0,5.4,0.406,4.7,11.6,0.323,3.6,11.2,0.365,8.3,22.8,0.714,3.6,5.1,7.0,0.0,NBA,146.0,99.0,1.1,4.0,PF,23.9,2014,0.4,ATL,0.7,6.5
26.0,1.5,0.0,104.0,9.0,0.586,5.1,8.7,0.154,1.2,7.8,0.382,6.3,16.4,1.0,1.2,1.2,11.0,0.0,NBA,172.0,93.0,4.8,4.8,PF,14.9,2015,1.5,ATL,2.1,13.7
27.0,1.6,0.9,106.0,8.4,0.708,5.3,7.5,0.5,2.5,5.0,0.625,7.8,12.5,0.875,2.2,2.5,10.0,0.0,NBA,161.0,124.0,1.6,6.2,PF,20.2,2016,0.9,ATL,2.5,10.0
29.0,1.6,0.4,116.0,5.9,0.633,7.4,11.8,0.636,2.7,4.3,0.634,10.2,16.1,1.0,2.4,2.4,6.0,0.0,NBA,126.0,134.0,2.4,3.9,PF,25.5,2018,0.8,WAS,2.0,8.2
30.0,1.3,0.0,110.0,7.5,0.692,2.3,3.3,0.353,3.0,8.5,0.447,5.3,11.8,1.0,0.5,0.5,10.0,0.0,NBA,193.0,107.0,1.0,5.5,PF,14.1,2019,0.8,PHI,1.8,8.5
