age,ast,blk,drb,efg_pct,fg,fg2,fg2_pct,fg2a,fg3,fg3_pct,fg3a,fg_pct,fga,ft,ft_pct,fta,g,gs,lg_id,mp,orb,pf,pos,pts,season,stl,team_id,tov,trb
21.0,31.0,69.0,255.0,0.564,198.0,198.0,0.564,351.0,0.0,0.0,0.0,0.564,351.0,144.0,0.637,226.0,61.0,39.0,NBA,1314.0,169.0,238.0,C,540.0,2009,25.0,POR,87.0,424.0
22.0,19.0,48.0,114.0,0.605,92.0,92.0,0.605,152.0,0.0,0.0,0.0,0.605,152.0,49.0,0.766,64.0,21.0,21.0,NBA,502.0,64.0,84.0,C,233.0,2010,8.0,POR,39.0,178.0
26.0,1.0,13.0,31.0,0.551,27.0,27.0,0.551,49.0,0.0,0.0,0.0,0.551,49.0,13.0,0.565,23.0,23.0,6.0,NBA,212.0,23.0,52.0,C,67.0,2014,7.0,MIA,12.0,54.0
