age,ast,blk,drb,fg,fg2,fg2a,fg3,fg3a,fga,ft,fta,game_score,lg_id,mp,orb,pf,pts,season,stl,team_id,tov,trb
21.0,3.0,6.0,11.0,9.0,9.0,14.0,0.0,0.0,14.0,7.0,11.0,24.3,NBA,43,9.0,6.0,24.0,2009,3.0,POR,5.0,15.0
22.0,2.0,5.0,9.0,8.0,8.0,13.0,0.0,0.0,13.0,10.0,12.0,24.9,NBA,35,11.0,6.0,24.0,2010,2.0,POR,7.0,20.0
26.0,1.0,2.0,4.0,3.0,3.0,6.0,0.0,0.0,6.0,2.0,3.0,6.5,NBA,16,4.0,5.0,8.0,2014,2.0,MIA,2.0,6.0
