age,ast_per_poss,blk_per_poss,def_rtg,drb_per_poss,fg2_pct,fg2_per_poss,fg2a_per_poss,fg3_pct,fg3_per_poss,fg3a_per_poss,fg_pct,fg_per_poss,fga_per_poss,ft_pct,ft_per_poss,fta_per_poss,g,gs,lg_id,mp,off_rtg,orb_per_poss,pf_per_poss,pos,pts_per_poss,season,stl_per_poss,team_id,tov_per_poss,trb_per_poss
21.0,3.6,0.5,106.0,6.2,0.536,7.8,14.6,0.143,1.0,7.3,0.405,8.8,21.8,1.0,2.1,2.1,11.0,0.0,NBA,100.0,101.0,2.1,4.2,SG,20.8,2014,3.6,OKC,1.6,8.3
23.0,4.4,0.0,109.0,13.2,0.5,17.6,35.2,1.0,4.4,4.4,0.556,22.0,39.6,0.0,0.0,0.0,3.0,0.0,NBA,12.0,121.0,4.4,0.0,SG,48.4,2016,0.0,CHO,0.0,17.6
