age,ast,blk,drb,efg_pct,fg,fg2,fg2_pct,fg2a,fg3,fg3_pct,fg3a,fg_pct,fga,ft,ft_pct,fta,g,gs,lg_id,mp,orb,pf,pos,pts,season,stl,team_id,tov,trb
20.0,5.0,2.0,13.0,0.419,24.0,15.0,0.395,38.0,9.0,0.3,30.0,0.353,68.0,14.0,1.0,14.0,23.0,0.0,NBA,147.0,5.0,13.0,SF,71.0,2013,2.0,OKC,6.0,18.0
21.0,115.0,26.0,162.0,0.504,263.0,175.0,0.483,362.0,88.0,0.356,247.0,0.432,609.0,51.0,0.797,64.0,78.0,0.0,NBA,1538.0,27.0,143.0,SG,665.0,2014,56.0,OKC,61.0,189.0
22.0,44.0,6.0,99.0,0.492,104.0,66.0,0.475,139.0,38.0,0.342,111.0,0.416,250.0,49.0,0.891,55.0,47.0,8.0,NBA,633.0,8.0,52.0,SG,295.0,2015,21.0,OKC,27.0,107.0
23.0,77.0,30.0,208.0,0.506,230.0,174.0,0.529,329.0,56.0,0.309,181.0,0.451,510.0,64.0,0.727,88.0,66.0,0.0,NBA,1227.0,44.0,105.0,SG,580.0,2016,42.0,CHO,50.0,252.0
24.0,75.0,23.0,234.0,0.502,226.0,185.0,0.536,345.0,41.0,0.281,146.0,0.46,491.0,110.0,0.853,129.0,62.0,5.0,NBA,1143.0,30.0,98.0,SG,603.0,2017,27.0,CHO,40.0,264.0
25.0,186.0,32.0,275.0,0.513,380.0,286.0,0.495,578.0,94.0,0.37,254.0,0.457,832.0,179.0,0.861,208.0,80.0,18.0,NBA,1967.0,49.0,138.0,SG,1033.0,2018,61.0,CHO,93.0,324.0
26.0,172.0,32.0,369.0,0.499,431.0,316.0,0.487,649.0,115.0,0.348,330.0,0.44,979.0,231.0,0.888,260.0,79.0,55.0,NBA,2250.0,65.0,140.0,SG,1208.0,2019,88.0,CHO,80.0,434.0
27.0,11.0,4.0,27.0,0.5,31.0,25.0,0.532,47.0,6.0,0.286,21.0,0.456,68.0,17.0,0.85,20.0,5.0,5.0,NBA,165.0,5.0,14.0,SG,85.0,2020,7.0,IND,6.0,32.0
