age,ast_per_poss,blk_per_poss,def_rtg,drb_per_poss,fg2_pct,fg2_per_poss,fg2a_per_poss,fg3_pct,fg3_per_poss,fg3a_per_poss,fg_pct,fg_per_poss,fga_per_poss,ft_pct,ft_per_poss,fta_per_poss,g,gs,lg_id,mp,off_rtg,orb_per_poss,pf_per_poss,pos,pts_per_poss,season,stl_per_poss,team_id,tov_per_poss,trb_per_poss
23.0,2.4,4.2,102.0,5.1,0.54,10.3,19.1,0.0,0.0,0.0,0.54,10.3,19.1,0.639,3.9,6.1,17.0,0.0,NBA,296.0,115.0,4.9,8.6,PF,24.6,1981,0.7,BOS,2.5,10.0
24.0,1.6,3.9,100.0,6.3,0.575,11.0,19.1,0.0,0.0,0.0,0.575,11.0,19.1,0.755,5.7,7.6,12.0,0.0,NBA,344.0,127.0,5.8,6.3,PF,27.7,1982,0.7,BOS,2.3,12.1
25.0,1.4,2.0,102.0,7.6,0.557,9.6,17.2,0.0,0.0,0.3,0.548,9.6,17.5,0.556,2.8,5.1,7.0,0.0,NBA,177.0,106.0,4.2,4.5,PF,22.0,1983,0.8,BOS,2.8,11.8
26.0,1.9,2.4,109.0,5.6,0.51,8.6,16.8,0.0,0.0,0.2,0.504,8.6,17.0,0.777,6.6,8.4,23.0,0.0,NBA,702.0,118.0,4.3,5.2,PF,23.7,1984,0.2,BOS,2.7,10.0
27.0,1.8,2.6,108.0,7.6,0.568,9.7,17.1,0.0,0.0,0.0,0.568,9.7,17.1,0.807,6.8,8.5,21.0,21.0,NBA,837.0,119.0,4.2,4.1,PF,26.2,1985,0.7,BOS,3.4,11.7
28.0,3.3,2.9,105.0,7.1,0.581,11.5,19.7,0.0,0.0,0.1,0.579,11.5,19.8,0.794,7.6,9.6,18.0,18.0,NBA,715.0,123.0,3.5,4.4,PF,30.6,1986,0.5,BOS,3.3,10.6
29.0,2.3,1.8,116.0,7.6,0.584,10.4,17.8,0.0,0.0,0.0,0.584,10.4,17.8,0.762,5.7,7.5,21.0,19.0,NBA,827.0,119.0,3.9,4.2,PF,26.5,1987,0.4,BOS,3.2,11.6
30.0,2.9,2.2,110.0,5.9,0.602,11.4,19.0,1.0,0.1,0.1,0.603,11.5,19.0,0.839,8.4,10.0,17.0,17.0,NBA,716.0,129.0,4.0,4.7,PF,31.4,1988,0.5,BOS,2.8,9.9
31.0,4.0,0.9,110.0,7.6,0.488,9.0,18.4,0.0,0.0,0.0,0.488,9.0,18.4,0.739,7.6,10.3,3.0,3.0,NBA,115.0,116.0,3.1,5.8,PF,25.6,1989,0.4,BOS,1.8,10.8
32.0,3.3,2.5,118.0,7.8,0.621,10.3,16.5,0.333,0.3,0.8,0.609,10.5,17.3,0.862,6.3,7.3,5.0,5.0,NBA,192.0,123.0,2.0,4.3,PF,27.5,1990,0.5,BOS,3.5,9.8
33.0,2.7,1.9,113.0,7.2,0.526,9.6,18.3,0.545,0.8,1.5,0.527,10.4,19.8,0.825,8.8,10.7,11.0,1.0,NBA,376.0,128.0,2.4,5.6,PF,30.5,1991,0.7,BOS,1.9,9.6
34.0,2.2,0.9,115.0,7.9,0.52,11.1,21.4,0.0,0.0,0.2,0.516,11.1,21.6,0.795,6.0,7.5,10.0,0.0,NBA,306.0,122.0,3.6,5.8,PF,28.3,1992,0.9,BOS,1.5,11.5
35.0,1.4,3.3,109.0,9.5,0.582,15.3,26.3,0.0,0.0,0.0,0.582,15.3,26.3,0.857,5.7,6.7,4.0,0.0,NBA,113.0,127.0,4.3,2.9,PF,36.3,1993,1.0,BOS,2.4,13.8
