age,ast_per_poss,blk_per_poss,def_rtg,drb_per_poss,fg2_pct,fg2_per_poss,fg2a_per_poss,fg3_pct,fg3_per_poss,fg3a_per_poss,fg_pct,fg_per_poss,fga_per_poss,ft_pct,ft_per_poss,fta_per_poss,g,gs,lg_id,mp,off_rtg,orb_per_poss,pf_per_poss,pos,pts_per_poss,season,stl_per_poss,team_id,tov_per_poss,trb_per_poss
26.0,0.0,0.0,124.0,1.5,0.333,2.9,8.7,0.4,2.9,7.3,0.364,5.8,16.0,0.857,8.7,10.2,3.0,0.0,NBA,38.0,126.0,1.5,7.3,SG,23.2,1997,1.5,LAC,0.0,2.9
33.0,0.0,0.0,99.0,13.7,0.0,0.0,13.7,0.0,0.0,0.0,0.0,0.0,13.7,0.0,0.0,0.0,1.0,0.0,NBA,4.0,0.0,0.0,13.7,SF,0.0,2004,0.0,HOU,0.0,13.7
34.0,2.3,0.8,106.0,6.0,0.167,0.8,4.5,0.385,3.8,9.8,0.316,4.5,14.3,0.857,4.5,5.3,5.0,0.0,NBA,66.0,116.0,0.8,2.3,SG,17.3,2005,3.0,CHI,0.8,6.8
35.0,1.8,1.8,109.0,7.3,1.0,1.8,1.8,0.4,3.6,9.1,0.5,5.5,10.9,1.0,3.6,3.6,6.0,0.0,NBA,28.0,155.0,1.8,1.8,SG,18.2,2006,0.0,CHI,0.0,9.1
36.0,0.0,0.0,115.0,0.0,1.0,17.0,17.0,0.0,0.0,0.0,1.0,17.0,17.0,0.0,0.0,0.0,1.0,0.0,NBA,3.0,200.0,0.0,0.0,SG,34.0,2007,0.0,PHO,0.0,0.0
37.0,0.0,0.0,113.0,0.0,0.0,0.0,0.0,0.0,0.0,0.0,0.0,0.0,0.0,0.0,0.0,0.0,1.0,0.0,NBA,2.0,0.0,0.0,25.9,SF,0.0,2008,0.0,PHO,0.0,0.0
