article_url,date,headline
https://lakeshowlife.com/2019/10/20/los-angeles-lakers-laker-nation-worried-clippers/,2019/10/20,Lake Show Life: Los Angeles Lakers: Should Laker Nation be worried about the Clippers?
https://clipperholics.com/2019/09/05/lifers-guide-for-bandwagon-clippers-fans/,2019/09/05,Fully Clips: Lifer's Guide for Bandwagon Clippers Fans
