age,avg_dist,fg2_dunk,fg2_pct,fg2_pct_ast,fg2a_pct_fga,fg3_heave,fg3_pct,fg3_pct_ast,fg3_pct_corner,fg3a_heave,fg3a_pct_fga,fg_pct,fg_pct_00_03,fg_pct_03_10,fg_pct_10_16,fg_pct_16_xx,g,lg_id,mp,pct_fg2_dunk,pct_fg3a_corner,pct_fga_00_03,pct_fga_03_10,pct_fga_10_16,pct_fga_16_xx,pos,season,team_id
30.0,17.2,3.0,0.456,0.673,0.558,0.0,0.404,0.892,0.453,0.0,0.442,0.433,0.631,0.386,0.338,0.403,81.0,NBA,2144.0,0.004,0.253,0.165,0.085,0.101,0.207,SG,2001,LAC
31.0,18.1,1.0,0.412,0.604,0.495,0.0,0.466,0.946,0.488,0.0,0.505,0.439,0.573,0.4,0.302,0.341,71.0,NBA,1718.0,0.002,0.172,0.159,0.042,0.113,0.18,SG,2002,LAC
32.0,15.6,0.0,0.531,0.623,0.549,0.0,0.398,0.925,0.385,0.0,0.451,0.471,0.672,0.273,0.381,0.452,62.0,NBA,1360.0,0.002,0.259,0.267,0.049,0.094,0.139,SG,2003,LAC
33.0,19.5,0.0,0.42,0.793,0.361,0.0,0.352,0.977,0.383,0.0,0.639,0.377,0.583,0.333,0.333,0.333,49.0,NBA,703.0,0.0,0.385,0.126,0.031,0.079,0.126,SF,2004,HOU
34.0,17.9,0.0,0.435,0.704,0.481,0.0,0.425,0.877,0.468,0.0,0.519,0.43,0.596,0.25,0.25,0.377,68.0,NBA,841.0,0.0,0.351,0.182,0.047,0.047,0.205,SG,2005,CHI
35.0,18.2,0.0,0.536,0.8,0.459,0.0,0.273,1.0,0.2,0.0,0.541,0.393,0.667,0.0,0.0,0.538,29.0,NBA,228.0,0.0,0.455,0.197,0.016,0.033,0.213,SG,2006,CHI
36.0,21.1,0.0,0.286,0.5,0.28,0.0,0.389,0.857,0.4,0.0,0.72,0.36,1.0,0.0,0.0,0.0,11.0,NBA,73.0,0.0,0.556,0.08,0.04,0.0,0.16,SG,2007,PHO
37.0,22.9,0.0,0.143,1.0,0.212,0.0,0.423,1.0,0.5,0.0,0.788,0.364,0.0,0.0,0.0,0.2,16.0,NBA,113.0,0.0,0.308,0.03,0.03,0.0,0.152,SF,2008,PHO
