age,ast,ast_per_g,blk,college_id,fg,fg3,fg3_pct,fg3a,fg_pct,fga,ft,ft_pct,fta,g,mp,mp_per_g,orb,pf,pts,pts_per_g,season,stl,tov,trb,trb_per_g
18.0,99.0,3.5,4.0,COLORADO,74.0,0.0,0.0,0.0,0.517,143.0,31.0,0.66,47.0,28.0,762.0,27.2,0.0,79.0,179.0,6.4,1981,41.0,47.0,59.0,2.1
19.0,116.0,4.3,7.0,COLORADO,113.0,0.0,0.0,0.0,0.467,242.0,53.0,0.639,83.0,27.0,948.0,35.1,0.0,86.0,279.0,10.3,1982,52.0,64.0,71.0,2.6
20.0,174.0,6.2,6.0,COLORADO,170.0,0.0,0.0,0.0,0.501,339.0,60.0,0.632,95.0,28.0,1034.0,36.9,0.0,98.0,400.0,14.3,1983,115.0,85.0,91.0,3.3
21.0,173.0,6.0,3.0,COLORADO,170.0,0.0,0.0,0.0,0.509,334.0,108.0,0.788,137.0,29.0,1120.0,38.6,0.0,87.0,448.0,15.4,1984,101.0,90.0,94.0,3.2
