age,ast_per_g,blk_per_g,drb_per_g,efg_pct,fg2_pct,fg2_per_g,fg2a_per_g,fg3_pct,fg3_per_g,fg3a_per_g,fg_pct,fg_per_g,fga_per_g,ft_pct,ft_per_g,fta_per_g,g,gs,lg_id,mp_per_g,orb_per_g,pf_per_g,pos,pts_per_g,season,stl_per_g,team_id,tov_per_g,trb_per_g
22.0,5.3,0.0,1.3,0.645,0.645,6.7,10.3,0.0,0.0,0.0,0.645,6.7,10.3,0.75,3.0,4.0,3.0,3.0,NBA,30.0,0.3,4.0,SG,16.3,1985,0.7,PHO,2.7,1.7
25.0,0.5,0.0,1.0,0.0,0.0,0.0,2.5,0.0,0.0,0.0,0.0,0.0,2.5,0.0,0.0,0.0,2.0,0.0,NBA,9.0,0.5,3.0,PG,0.0,1988,0.5,MIL,0.5,1.5
26.0,7.8,0.0,2.1,0.51,0.568,5.1,9.0,0.167,0.3,2.0,0.495,5.4,11.0,0.882,3.3,3.8,9.0,9.0,NBA,35.9,0.9,3.2,PG,14.6,1989,0.9,MIL,1.3,3.0
27.0,6.3,0.0,1.3,0.567,0.583,2.3,4.0,0.333,0.3,1.0,0.533,2.7,5.0,0.769,3.3,4.3,3.0,2.0,NBA,26.3,0.3,2.0,PG,9.0,1990,1.0,MIL,2.7,1.7
28.0,8.3,0.0,1.3,0.563,0.556,5.0,9.0,0.4,0.7,1.7,0.531,5.7,10.7,0.9,3.0,3.3,3.0,3.0,NBA,41.0,0.7,5.7,PG,15.0,1991,0.7,MIL,2.0,2.0
30.0,3.4,0.6,1.0,0.364,0.36,1.8,5.0,0.25,0.4,1.6,0.333,2.2,6.6,0.5,0.4,0.8,5.0,0.0,NBA,23.0,1.0,1.6,SG,5.2,1993,0.6,UTA,1.2,2.0
31.0,2.4,0.1,1.8,0.458,0.453,2.4,5.4,0.318,0.4,1.4,0.426,2.9,6.8,0.679,1.2,1.8,16.0,0.0,NBA,22.3,0.5,2.8,SG,7.4,1994,0.8,UTA,1.0,2.3
