age,ast_per_poss,blk_per_poss,def_rtg,drb_per_poss,fg2_pct,fg2_per_poss,fg2a_per_poss,fg3_pct,fg3_per_poss,fg3a_per_poss,fg_pct,fg_per_poss,fga_per_poss,ft_pct,ft_per_poss,fta_per_poss,g,gs,lg_id,mp,off_rtg,orb_per_poss,pf_per_poss,pos,pts_per_poss,season,stl_per_poss,team_id,tov_per_poss,trb_per_poss
22.0,7.9,0.2,108.0,3.0,0.454,6.2,13.8,0.2,0.1,0.5,0.446,6.3,14.2,0.829,3.2,3.9,80.0,39.0,NBA,2062.0,98.0,0.7,4.7,SG,16.0,1985,2.4,PHO,3.8,3.7
23.0,8.8,0.2,109.0,3.4,0.493,5.8,11.8,0.138,0.1,0.5,0.479,5.9,12.3,0.767,3.3,4.3,82.0,82.0,NBA,2733.0,108.0,0.9,3.7,PG,15.2,1986,2.2,PHO,3.2,4.4
24.0,11.5,0.2,112.0,3.6,0.488,6.5,13.2,0.185,0.1,0.5,0.477,6.6,13.7,0.769,3.6,4.7,82.0,82.0,NBA,2579.0,110.0,1.1,4.4,PG,16.8,1987,2.0,PHO,3.6,4.7
25.0,10.4,0.1,112.0,3.3,0.54,7.4,13.7,0.167,0.1,0.5,0.528,7.5,14.2,0.732,3.0,4.0,68.0,33.0,NBA,1809.0,113.0,1.3,4.7,PG,18.0,1988,2.1,TOT,3.3,4.6
25.0,10.8,0.1,113.0,3.3,0.558,7.9,14.3,0.188,0.1,0.5,0.545,8.0,14.7,0.741,3.1,4.2,50.0,33.0,NBA,1557.0,116.0,1.3,4.7,PG,19.3,1988,1.9,PHO,3.3,4.6
25.0,8.0,0.2,105.0,3.5,0.385,3.9,10.2,0.0,0.0,0.4,0.37,3.9,10.5,0.643,1.8,2.7,18.0,0.0,NBA,252.0,86.0,1.0,4.5,PG,9.6,1988,3.9,MIL,3.7,4.5
26.0,8.9,0.1,107.0,2.6,0.516,7.0,13.6,0.266,0.5,2.1,0.483,7.6,15.7,0.816,2.8,3.5,73.0,50.0,NBA,2220.0,109.0,1.5,4.1,PG,18.5,1989,3.1,MIL,3.5,4.1
27.0,8.2,0.2,109.0,3.3,0.508,8.3,16.2,0.3,0.4,1.2,0.494,8.6,17.5,0.786,3.9,5.0,81.0,81.0,NBA,2818.0,115.0,1.4,4.4,PG,21.5,1990,2.7,MIL,2.6,4.7
28.0,9.9,0.1,109.0,3.0,0.528,7.7,14.6,0.373,1.1,2.9,0.502,8.8,17.6,0.799,3.5,4.4,80.0,80.0,NBA,2726.0,119.0,1.0,4.3,PG,22.3,1991,2.4,MIL,2.8,4.0
29.0,10.4,0.3,112.0,3.1,0.508,7.4,14.6,0.292,0.9,3.2,0.469,8.4,17.8,0.783,4.3,5.5,71.0,71.0,NBA,2261.0,115.0,1.0,4.7,PG,22.0,1992,2.6,MIL,3.3,4.1
30.0,7.7,0.3,109.0,2.5,0.466,6.6,14.3,0.2,0.4,1.8,0.436,7.0,16.1,0.777,2.5,3.2,78.0,20.0,NBA,2034.0,99.0,1.0,5.8,SG,16.9,1993,2.5,UTA,3.2,3.5
31.0,7.0,0.4,107.0,2.9,0.444,6.2,14.0,0.396,1.2,3.1,0.436,7.4,17.0,0.75,1.8,2.4,75.0,19.0,NBA,1619.0,101.0,1.1,5.3,SG,17.9,1994,2.1,UTA,3.0,4.0
32.0,4.9,0.0,110.0,2.3,0.2,1.5,7.7,0.5,0.5,1.0,0.235,2.1,8.7,0.5,0.5,1.0,18.0,0.0,NBA,201.0,60.0,1.0,9.0,SG-PG,5.1,1995,2.3,TOT,4.4,3.3
32.0,3.1,0.0,108.0,2.8,0.091,0.7,7.7,0.667,0.7,1.0,0.16,1.4,8.7,0.0,0.0,0.0,12.0,0.0,NBA,149.0,45.0,0.7,8.7,SG,3.5,1995,2.4,UTA,4.2,3.5
32.0,9.8,0.0,114.0,1.0,0.5,3.9,7.9,0.0,0.0,1.0,0.444,3.9,8.8,0.5,2.0,3.9,6.0,0.0,NBA,52.0,91.0,2.0,9.8,PG,9.8,1995,2.0,BOS,4.9,2.9
