age,ast_per_poss,blk_per_poss,def_rtg,drb_per_poss,fg2_pct,fg2_per_poss,fg2a_per_poss,fg3_pct,fg3_per_poss,fg3a_per_poss,fg_pct,fg_per_poss,fga_per_poss,ft_pct,ft_per_poss,fta_per_poss,g,gs,lg_id,mp,off_rtg,orb_per_poss,pf_per_poss,pos,pts_per_poss,season,stl_per_poss,team_id,tov_per_poss,trb_per_poss
22.0,0.4,2.9,115.0,9.9,0.5,9.9,19.8,0.0,0.0,0.0,0.5,9.9,19.8,0.714,2.1,2.9,4.0,1.0,NBA,114.0,109.0,7.4,7.4,PF,21.9,1987,0.4,DAL,2.9,17.4
23.0,2.7,2.4,109.0,11.9,0.525,11.3,21.6,0.0,0.0,0.3,0.519,11.3,21.8,0.74,4.9,6.6,17.0,0.0,NBA,563.0,120.0,8.0,6.3,PF,27.6,1988,1.9,DAL,2.9,19.8
25.0,0.4,3.8,102.0,14.2,0.489,8.4,17.2,0.0,0.0,0.4,0.478,8.4,17.6,0.5,2.3,4.6,3.0,3.0,NBA,129.0,92.0,3.4,4.6,PF,19.1,1990,2.7,DAL,3.4,17.6
