age,ast,blk,drb,efg_pct,fg,fg2,fg2_pct,fg2a,fg3,fg3_pct,fg3a,fg_pct,fga,ft,ft_pct,fta,g,gs,lg_id,mp,orb,pf,pos,pts,season,stl,team_id,tov,trb
28.0,17.0,1.0,18.0,0.548,20.0,14.0,0.583,24.0,6.0,0.333,18.0,0.476,42.0,11.0,0.846,13.0,5.0,0.0,NBA,143.0,3.0,6.0,PG,57.0,1997,8.0,ORL,7.0,21.0
30.0,25.0,0.0,14.0,0.467,17.0,8.0,0.364,22.0,9.0,0.375,24.0,0.37,46.0,16.0,1.0,16.0,4.0,4.0,NBA,163.0,6.0,16.0,PG,59.0,1999,9.0,ORL,25.0,20.0
32.0,19.0,2.0,17.0,0.456,17.0,10.0,0.385,26.0,7.0,0.368,19.0,0.378,45.0,12.0,0.923,13.0,4.0,4.0,NBA,167.0,5.0,10.0,PG,53.0,2001,8.0,ORL,11.0,22.0
33.0,13.0,0.0,8.0,0.524,20.0,16.0,0.64,25.0,4.0,0.235,17.0,0.476,42.0,17.0,0.81,21.0,4.0,4.0,NBA,158.0,3.0,14.0,PG,61.0,2002,5.0,ORL,7.0,11.0
34.0,26.0,0.0,10.0,0.523,20.0,14.0,0.538,26.0,6.0,0.333,18.0,0.455,44.0,20.0,0.909,22.0,7.0,1.0,NBA,226.0,7.0,22.0,PG,66.0,2003,6.0,ORL,17.0,17.0
35.0,16.0,0.0,9.0,0.309,8.0,3.0,0.333,9.0,5.0,0.2,25.0,0.235,34.0,3.0,1.0,3.0,7.0,0.0,NBA,150.0,6.0,10.0,PG,24.0,2004,6.0,NOH,13.0,15.0
36.0,9.0,2.0,1.0,0.563,8.0,6.0,0.75,8.0,2.0,0.25,8.0,0.5,16.0,0.0,0.0,0.0,9.0,0.0,NBA,66.0,3.0,9.0,PG,18.0,2005,3.0,DAL,2.0,4.0
37.0,2.0,1.0,6.0,0.2,3.0,3.0,0.375,8.0,0.0,0.0,7.0,0.2,15.0,2.0,1.0,2.0,11.0,0.0,NBA,47.0,1.0,9.0,PG,8.0,2006,3.0,DAL,1.0,7.0
