age,ast,ast_per_g,blk,college_id,fg,fg3,fg3_pct,fg3a,fg_pct,fga,ft,ft_pct,fta,g,mp,mp_per_g,orb,pf,pts,pts_per_g,season,stl,tov,trb,trb_per_g
18.0,24.0,0.8,51.0,ALABAMA,126.0,0.0,0.0,1.0,0.538,234.0,76.0,0.71,107.0,32.0,0.0,0.0,0.0,0.0,328.0,10.3,2009,30.0,68.0,242.0,7.6
19.0,33.0,1.1,52.0,ALABAMA,162.0,0.0,0.0,5.0,0.495,327.0,114.0,0.695,164.0,31.0,837.0,27.0,86.0,97.0,438.0,14.1,2010,27.0,79.0,222.0,7.2
20.0,49.0,1.4,70.0,ALABAMA,190.0,1.0,1.0,1.0,0.508,374.0,146.0,0.737,198.0,34.0,948.0,27.9,106.0,111.0,527.0,15.5,2011,49.0,95.0,256.0,7.5
21.0,46.0,1.8,39.0,ALABAMA,136.0,2.0,0.2,10.0,0.546,249.0,89.0,0.69,129.0,26.0,760.0,29.2,63.0,82.0,363.0,14.0,2012,19.0,70.0,192.0,7.4
