age,ast,blk,drb,efg_pct,fg,fg2,fg2_pct,fg2a,fg3,fg3_pct,fg3a,fg_pct,fga,ft,ft_pct,fta,g,gs,lg_id,mp,orb,pf,pos,pts,season,stl,team_id,tov,trb
22.0,12.0,2.0,32.0,0.513,17.0,10.0,0.588,17.0,7.0,0.304,23.0,0.425,40.0,6.0,0.857,7.0,28.0,0.0,NBA,226.0,9.0,19.0,SF,47.0,2014,5.0,IND,13.0,41.0
23.0,184.0,18.0,244.0,0.45,251.0,183.0,0.43,426.0,68.0,0.327,208.0,0.396,634.0,159.0,0.824,193.0,82.0,78.0,NBA,2381.0,70.0,177.0,SF,729.0,2015,66.0,IND,115.0,314.0
24.0,57.0,11.0,127.0,0.505,93.0,69.0,0.515,134.0,24.0,0.324,74.0,0.447,208.0,36.0,0.857,42.0,59.0,3.0,NBA,866.0,39.0,68.0,SF,246.0,2016,37.0,IND,33.0,166.0
25.0,141.0,32.0,256.0,0.481,183.0,89.0,0.428,208.0,94.0,0.348,270.0,0.383,478.0,103.0,0.805,128.0,80.0,71.0,NBA,2374.0,51.0,182.0,SF,563.0,2017,72.0,NOP,82.0,307.0
26.0,22.0,1.0,27.0,0.317,11.0,7.0,0.35,20.0,4.0,0.19,21.0,0.268,41.0,3.0,0.5,6.0,12.0,1.0,NBA,187.0,9.0,22.0,SF,29.0,2018,7.0,NOP,9.0,36.0
27.0,55.0,10.0,99.0,0.472,68.0,36.0,0.468,77.0,32.0,0.317,101.0,0.382,178.0,23.0,0.719,32.0,44.0,15.0,NBA,878.0,34.0,80.0,SF,191.0,2019,23.0,NOP,31.0,133.0
28.0,15.0,1.0,22.0,0.591,20.0,8.0,0.444,18.0,12.0,0.462,26.0,0.455,44.0,7.0,0.583,12.0,9.0,0.0,NBA,156.0,4.0,15.0,SF,59.0,2020,7.0,MEM,9.0,26.0
