age,ast_pct,blk_pct,bpm,bpm-dum,dbpm,drb_pct,dws,fg3a_per_fga_pct,fta_per_fga_pct,g,lg_id,mp,obpm,orb_pct,ows,per,pos,season,stl_pct,team_id,tov_pct,trb_pct,ts_pct,usg_pct,vorp,ws,ws-dum,ws_per_48
22.0,7.9,0.7,-2.3,0.0,1.0,15.2,0.4,0.575,0.175,28.0,NBA,226.0,-3.3,4.7,0.0,7.6,SF,2014,1.1,IND,23.2,10.2,0.545,11.3,0.0,0.4,0.0,0.08
23.0,11.9,0.6,-0.3,0.0,0.8,11.2,2.6,0.328,0.304,82.0,NBA,2381.0,-1.1,3.3,0.9,10.2,SF,2015,1.4,IND,13.8,7.3,0.507,15.9,1.0,3.5,0.0,0.072
24.0,9.6,1.0,0.0,0.0,1.3,15.9,1.3,0.356,0.202,59.0,NBA,866.0,-1.3,4.9,0.8,12.2,SF,2016,2.1,IND,12.7,10.5,0.543,13.2,0.4,2.1,0.0,0.117
25.0,8.1,1.1,-0.3,0.0,1.5,11.4,2.3,0.565,0.268,80.0,NBA,2374.0,-1.8,2.3,0.4,8.0,SF,2017,1.5,NOP,13.3,6.8,0.527,11.5,1.0,2.7,0.0,0.055
26.0,14.4,0.4,-3.8,0.0,0.6,15.1,0.2,0.512,0.146,12.0,NBA,187.0,-4.4,5.4,-0.2,4.8,SF,2018,1.8,NOP,17.1,10.4,0.332,12.2,-0.1,-0.1,0.0,-0.014
27.0,7.6,0.9,-2.3,0.0,-0.2,11.5,0.4,0.567,0.18,44.0,NBA,878.0,-2.1,4.1,0.1,6.8,SF,2019,1.2,NOP,13.9,7.8,0.497,10.4,-0.1,0.5,0.0,0.029
28.0,13.0,0.6,-0.9,0.0,-1.0,15.1,0.1,0.591,0.273,9.0,NBA,156.0,0.2,2.7,0.2,12.6,SF,2020,2.1,MEM,15.4,8.8,0.599,15.3,0.0,0.2,0.0,0.068
