article_url,date,headline
https://oldnorthbanter.com/2019/11/13/hornets-grizzlies-similar-situations/,2019/11/13,"Old North Banter: Hornets, Grizzlies meet in similar situations"
https://hoopshabit.com/2019/10/28/memphis-grizzlies-building-3-takeaways-opening-week/,2019/10/28,Hoops Habit: Memphis Grizzlies are building: 3 takeaways from opening week
