age,ast_per_poss,blk_per_poss,def_rtg,drb_per_poss,fg2_pct,fg2_per_poss,fg2a_per_poss,fg3_pct,fg3_per_poss,fg3a_per_poss,fg_pct,fg_per_poss,fga_per_poss,ft_pct,ft_per_poss,fta_per_poss,g,gs,lg_id,mp,off_rtg,orb_per_poss,pf_per_poss,pos,pts_per_poss,season,stl_per_poss,team_id,tov_per_poss,trb_per_poss
23.0,2.4,0.7,108.0,3.4,0.395,5.5,13.9,0.143,0.2,1.2,0.375,5.6,15.1,0.563,3.1,5.5,39.0,1.0,NBA,265.0,86.0,2.6,7.2,SG,14.5,1983,1.4,DET,3.1,6.0
24.0,2.2,0.5,115.0,2.8,0.478,9.9,20.8,0.0,0.0,0.3,0.47,9.9,21.1,0.861,5.5,6.4,69.0,35.0,NBA,1280.0,109.0,2.2,5.3,SG,25.4,1984,1.0,SDC,3.0,5.0
25.0,5.1,0.3,106.0,3.7,0.541,9.0,16.5,0.25,0.1,0.2,0.537,9.0,16.8,0.823,5.6,6.8,44.0,3.0,NBA,882.0,117.0,2.7,6.4,SG,23.6,1985,1.9,MIL,3.4,6.4
26.0,3.9,0.1,106.0,3.0,0.55,9.3,17.0,0.13,0.1,0.5,0.538,9.4,17.5,0.858,5.8,6.8,81.0,8.0,NBA,2147.0,122.0,2.1,5.5,SG,24.7,1986,1.8,MIL,2.3,5.1
27.0,2.8,0.5,110.0,2.8,0.545,10.9,20.0,0.107,0.1,0.5,0.534,11.0,20.6,0.88,7.4,8.4,79.0,31.0,NBA,2505.0,122.0,2.2,4.2,SG,29.4,1987,1.2,MIL,2.3,5.1
28.0,3.7,0.4,112.0,2.7,0.519,12.5,24.1,0.214,0.2,0.7,0.51,12.6,24.8,0.877,5.5,6.2,37.0,0.0,NBA,965.0,111.0,1.5,4.8,SG,30.9,1988,1.1,MIL,2.9,4.2
29.0,3.7,0.4,109.0,2.7,0.529,12.2,23.0,0.222,0.2,0.8,0.518,12.4,23.9,0.859,6.0,7.0,75.0,4.0,NBA,2078.0,116.0,1.9,4.5,SG,30.9,1989,1.8,MIL,2.6,4.6
30.0,3.8,0.2,112.0,3.0,0.535,13.1,24.5,0.346,1.3,3.8,0.51,14.4,28.3,0.839,8.8,10.5,59.0,0.0,NBA,1709.0,116.0,1.8,4.5,SG,38.9,1990,1.4,MIL,3.7,4.8
31.0,3.9,0.3,112.0,2.9,0.495,11.9,24.0,0.397,1.1,2.7,0.485,12.9,26.6,0.913,9.9,10.9,78.0,2.0,NBA,2167.0,118.0,1.5,3.9,SG,36.8,1991,1.4,TOT,3.4,4.4
31.0,3.6,0.4,111.0,3.0,0.514,12.1,23.6,0.398,1.4,3.5,0.499,13.5,27.1,0.907,10.6,11.7,46.0,0.0,NBA,1327.0,119.0,1.4,3.4,SG,39.0,1991,1.4,MIL,3.5,4.4
31.0,4.3,0.1,113.0,2.6,0.467,11.5,24.5,0.391,0.5,1.4,0.463,12.0,25.9,0.925,8.8,9.5,32.0,2.0,NBA,840.0,116.0,1.8,4.8,SG,33.3,1991,1.3,SEA,3.2,4.4
32.0,4.6,0.4,113.0,2.7,0.496,11.1,22.4,0.268,0.6,2.3,0.475,11.7,24.7,0.916,7.9,8.6,78.0,78.0,NBA,2658.0,116.0,1.8,4.0,SG,32.0,1992,1.6,SEA,3.6,4.4
33.0,5.0,0.2,108.0,3.0,0.503,10.9,21.6,0.372,0.9,2.5,0.489,11.8,24.1,0.889,7.1,7.9,77.0,72.0,NBA,2218.0,116.0,1.3,3.8,SG,31.6,1993,2.3,SEA,3.6,4.3
34.0,4.5,0.2,106.0,2.7,0.488,13.1,26.9,0.188,0.3,1.6,0.471,13.4,28.5,0.896,9.3,10.4,51.0,0.0,NBA,1022.0,114.0,1.4,4.1,SG,36.5,1994,2.1,SEA,3.2,4.1
35.0,2.9,0.1,115.0,3.8,0.478,6.4,13.4,0.329,1.7,5.1,0.437,8.1,18.5,0.877,6.8,7.7,27.0,6.0,NBA,673.0,117.0,0.9,2.8,PG,24.6,1995,1.6,GSW,1.7,4.7
36.0,3.9,0.2,108.0,3.7,0.471,8.8,18.6,0.337,1.3,4.0,0.447,10.1,22.6,0.849,6.7,7.8,76.0,2.0,NBA,1404.0,108.0,1.5,7.2,SG,28.2,1996,2.2,IND,3.6,5.2
37.0,3.4,0.4,113.0,3.6,0.49,8.4,17.1,0.442,1.8,4.0,0.481,10.2,21.1,0.897,5.9,6.6,60.0,27.0,NBA,1250.0,113.0,1.5,4.1,SG,28.0,1997,1.2,TOT,2.9,5.1
37.0,2.7,0.4,115.0,3.1,0.489,9.4,19.1,0.308,1.0,3.4,0.462,10.4,22.5,0.902,7.2,8.0,33.0,10.0,NBA,600.0,108.0,1.5,4.2,SG,29.0,1997,1.2,DEN,3.3,4.6
37.0,4.1,0.3,112.0,4.1,0.492,7.4,15.1,0.536,2.5,4.7,0.502,9.9,19.8,0.889,4.7,5.3,27.0,17.0,NBA,650.0,119.0,1.6,4.0,SG,27.0,1997,1.2,CHH,2.5,5.7
38.0,4.1,0.0,110.0,3.1,0.369,5.8,15.7,0.308,0.5,1.6,0.364,6.3,17.2,0.827,5.2,6.3,39.0,0.0,NBA,442.0,99.0,2.3,4.2,SG,18.2,1998,1.1,MIL,2.5,5.4
