age,ast,ast_per_g,blk,college_id,fg,fg3,fg3_pct,fg3a,fg_pct,fga,ft,ft_pct,fta,g,mp,mp_per_g,orb,pf,pts,pts_per_g,season,stl,tov,trb,trb_per_g
20.0,37.0,1.4,0.0,RICE,202.0,0.0,0.0,0.0,0.48,421.0,94.0,0.718,131.0,26.0,878.0,33.8,0.0,0.0,498.0,19.2,1980,0.0,0.0,214.0,8.2
21.0,31.0,1.2,0.0,RICE,230.0,0.0,0.0,0.0,0.518,444.0,84.0,0.706,119.0,26.0,901.0,34.7,0.0,0.0,544.0,20.9,1981,0.0,0.0,181.0,7.0
22.0,26.0,0.9,0.0,RICE,314.0,0.0,0.0,0.0,0.511,614.0,177.0,0.794,223.0,30.0,1104.0,36.8,0.0,0.0,805.0,26.8,1982,0.0,0.0,226.0,7.5
