article_url,date,headline
https://hoopshabit.com/2019/09/18/nba-top-10-candidates-2019-20-sixth-man-year/,2019/09/18,Hoops Habit: NBA: Top 10 candidates for 2019-20 Sixth Man of the Year
https://lastwordonprobasketball.com/2019/08/23/milwaukee-bucks-all-time-team/,2019/08/23,Last Word on Sports: Milwaukee Bucks All-Time Team
