age,ast,ast_per_g,blk,college_id,fg,fg3,fg3_pct,fg3a,fg_pct,fga,ft,ft_pct,fta,g,mp,mp_per_g,orb,pf,pts,pts_per_g,season,stl,tov,trb,trb_per_g
22.0,38.0,1.2,15.0,BYU,155.0,3.0,0.273,11.0,0.558,278.0,70.0,0.642,109.0,32.0,802.0,25.1,0.0,0.0,383.0,12.0,2003,45.0,0.0,286.0,8.9
23.0,37.0,1.2,25.0,BYU,211.0,8.0,0.267,30.0,0.573,368.0,122.0,0.722,169.0,30.0,895.0,29.8,0.0,0.0,552.0,18.4,2004,43.0,0.0,303.0,10.1
