age,ast,blk,drb,efg_pct,fg,fg2,fg2_pct,fg2a,fg3,fg3_pct,fg3a,fg_pct,fga,ft,ft_pct,fta,g,gs,lg_id,mp,orb,pf,pos,pts,season,stl,team_id,tov,trb
21.0,13.0,2.0,27.0,0.328,19.0,19.0,0.339,56.0,0.0,0.0,2.0,0.328,58.0,13.0,0.765,17.0,29.0,0.0,NBA,145.0,9.0,14.0,PF,51.0,2019,6.0,SAS,15.0,36.0
22.0,2.0,2.0,3.0,0.545,6.0,6.0,0.545,11.0,0.0,0.0,0.0,0.545,11.0,1.0,0.5,2.0,4.0,0.0,NBA,18.0,7.0,0.0,PF,13.0,2020,0.0,SAS,0.0,10.0
