age,ast_per_mp,blk_per_mp,drb_per_mp,fg2_pct,fg2_per_mp,fg2a_per_mp,fg3_pct,fg3_per_mp,fg3a_per_mp,fg_pct,fg_per_mp,fga_per_mp,ft_pct,ft_per_mp,fta_per_mp,g,gs,lg_id,mp,orb_per_mp,pf_per_mp,pos,pts_per_mp,season,stl_per_mp,team_id,tov_per_mp,trb_per_mp
20.0,6.9,0.1,2.3,0.384,4.2,11.1,0.259,0.5,1.7,0.367,4.7,12.8,0.783,2.3,3.0,36.0,4.0,NBA,560.0,1.1,2.8,PG,12.2,2002,2.0,DEN,3.4,3.3
21.0,4.9,0.1,1.9,0.323,3.6,11.1,0.179,0.4,2.0,0.301,3.9,13.1,0.68,1.2,1.8,39.0,6.0,NBA,502.0,1.1,2.6,PG,9.5,2003,1.4,TOT,3.1,3.1
21.0,4.5,0.2,2.0,0.336,3.9,11.7,0.179,0.4,2.4,0.309,4.4,14.1,0.696,1.4,2.0,22.0,6.0,NBA,420.0,1.0,2.6,PG,10.5,2003,1.5,DEN,3.1,3.0
21.0,6.6,0.0,1.8,0.222,1.8,7.9,0.0,0.0,0.0,0.222,1.8,7.9,0.5,0.4,0.9,17.0,0.0,NBA,82.0,1.8,2.6,PG,4.0,2003,0.9,PHI,3.1,3.5
