age,ast_per_g,blk_per_g,drb_per_g,efg_pct,fg2_pct,fg2_per_g,fg2a_per_g,fg3_pct,fg3_per_g,fg3a_per_g,fg_pct,fg_per_g,fga_per_g,ft_pct,ft_per_g,fta_per_g,g,gs,lg_id,mp_per_g,orb_per_g,pf_per_g,pos,pts_per_g,season,stl_per_g,team_id,tov_per_g,trb_per_g
22.0,0.5,0.4,2.4,0.476,0.481,1.9,4.0,0.0,0.0,0.0,0.476,1.9,4.0,0.632,1.4,2.2,77.0,14.0,NBA,14.3,1.1,2.3,PF,5.2,1987,0.3,PHO,1.1,3.5
24.0,0.0,0.0,0.5,0.0,0.0,0.0,0.5,0.0,0.0,0.0,0.0,0.0,0.5,0.5,0.5,1.0,2.0,0.0,NBA,4.5,0.0,1.0,PF,0.5,1989,0.0,PHO,0.0,0.5
25.0,0.6,0.5,1.9,0.552,0.549,2.3,4.3,1.0,0.0,0.0,0.55,2.3,4.3,0.682,1.2,1.7,63.0,2.0,NBA,14.9,1.2,2.4,PF,5.9,1990,0.6,CHH,1.1,3.1
26.0,0.6,0.9,3.4,0.532,0.534,3.4,6.3,0.0,0.0,0.0,0.532,3.4,6.3,0.661,2.3,3.4,72.0,6.0,NBA,21.6,1.9,2.9,PF,9.0,1991,0.7,CHH,1.4,5.3
27.0,1.6,0.8,4.9,0.529,0.531,5.2,9.7,0.0,0.0,0.0,0.529,5.2,9.7,0.688,2.4,3.5,82.0,71.0,NBA,27.1,2.2,3.3,PF,12.7,1992,0.7,CHH,1.7,7.1
28.0,0.9,0.7,3.3,0.529,0.533,2.7,5.1,0.0,0.0,0.0,0.529,2.7,5.1,0.604,1.4,2.3,75.0,5.0,NBA,19.7,1.4,3.2,PF,6.8,1993,0.6,CHH,0.9,4.7
29.0,1.2,0.6,3.3,0.524,0.524,3.0,5.8,0.0,0.0,0.0,0.524,3.0,5.8,0.646,1.6,2.5,77.0,18.0,NBA,21.4,1.4,3.0,PF,7.7,1994,0.8,CHH,1.0,4.6
30.0,0.8,0.7,2.6,0.47,0.475,2.2,4.7,0.0,0.0,0.0,0.47,2.2,4.8,0.608,1.5,2.4,21.0,0.0,NBA,19.5,1.0,3.0,PF,6.0,1995,0.3,CHH,1.0,3.6
31.0,0.6,0.4,3.2,0.479,0.479,3.6,7.6,0.0,0.0,0.0,0.479,3.6,7.6,0.603,1.9,3.1,25.0,14.0,NBA,22.8,1.4,3.0,PF,9.2,1996,0.4,VAN,1.6,4.6
