age,ast_per_g,blk_per_g,drb_per_g,efg_pct,fg2_pct,fg2_per_g,fg2a_per_g,fg3_pct,fg3_per_g,fg3a_per_g,fg_pct,fg_per_g,fga_per_g,ft_pct,ft_per_g,fta_per_g,g,gs,lg_id,mp_per_g,orb_per_g,pf_per_g,pos,pts_per_g,season,stl_per_g,team_id,tov_per_g,trb_per_g
28.0,1.2,0.1,2.2,0.478,0.478,2.4,5.1,0.0,0.0,0.0,0.478,2.4,5.1,0.429,1.0,2.3,9.0,0.0,NBA,20.8,2.1,2.0,PF,5.9,1993,0.6,CHH,0.8,4.3
30.0,0.5,0.0,1.8,0.625,0.625,1.3,2.0,0.0,0.0,0.0,0.625,1.3,2.0,0.625,1.3,2.0,4.0,0.0,NBA,14.5,1.3,4.0,PF,3.8,1995,0.5,CHH,1.3,3.0
