age,ast_per_poss,blk_per_poss,def_rtg,drb_per_poss,fg2_pct,fg2_per_poss,fg2a_per_poss,fg3_pct,fg3_per_poss,fg3a_per_poss,fg_pct,fg_per_poss,fga_per_poss,ft_pct,ft_per_poss,fta_per_poss,g,gs,lg_id,mp,off_rtg,orb_per_poss,pf_per_poss,pos,pts_per_poss,season,stl_per_poss,team_id,tov_per_poss,trb_per_poss
28.0,3.1,0.3,108.0,5.6,0.478,6.1,12.9,0.0,0.0,0.0,0.478,6.1,12.9,0.429,2.5,5.9,9.0,0.0,NBA,187.0,105.0,5.3,5.0,PF,14.8,1993,1.4,CHH,2.0,10.9
30.0,2.0,0.0,109.0,6.8,0.625,4.9,7.8,0.0,0.0,0.0,0.625,4.9,7.8,0.625,4.9,7.8,4.0,0.0,NBA,58.0,101.0,4.9,15.6,PF,14.6,1995,2.0,CHH,4.9,11.7
