age,ast_per_poss,blk_per_poss,def_rtg,drb_per_poss,fg2_pct,fg2_per_poss,fg2a_per_poss,fg3_pct,fg3_per_poss,fg3a_per_poss,fg_pct,fg_per_poss,fga_per_poss,ft_pct,ft_per_poss,fta_per_poss,g,gs,lg_id,mp,off_rtg,orb_per_poss,pf_per_poss,pos,pts_per_poss,season,stl_per_poss,team_id,tov_per_poss,trb_per_poss
21.0,2.4,2.2,109.0,6.7,0.562,8.7,15.6,0.0,0.0,0.1,0.558,8.7,15.7,0.714,1.8,2.5,52.0,6.0,NBA,868.0,118.0,5.0,4.5,PF,19.3,2011,1.0,HOU,1.8,11.7
22.0,1.9,1.3,107.0,6.1,0.443,7.9,17.9,0.0,0.0,0.1,0.44,7.9,18.0,0.702,1.4,2.0,64.0,1.0,NBA,1483.0,99.0,4.0,4.0,PF,17.3,2012,1.0,HOU,1.7,10.1
23.0,2.3,1.1,110.0,6.4,0.546,7.6,13.9,0.386,1.4,3.7,0.512,9.0,17.7,0.762,1.4,1.8,71.0,41.0,NBA,1775.0,114.0,3.2,3.9,PF,20.9,2013,0.9,TOT,1.7,9.6
23.0,2.1,1.1,109.0,6.1,0.56,8.2,14.7,0.365,1.4,3.9,0.519,9.7,18.6,0.755,1.5,2.0,47.0,38.0,NBA,1219.0,114.0,3.0,3.7,PF,22.3,2013,0.7,HOU,1.7,9.1
23.0,2.8,1.2,112.0,7.0,0.508,6.2,12.2,0.444,1.5,3.3,0.494,7.7,15.5,0.786,1.0,1.3,24.0,3.0,NBA,556.0,114.0,3.7,4.4,PF,17.8,2013,1.2,SAC,1.8,10.7
24.0,2.6,1.3,105.0,7.6,0.503,5.8,11.4,0.364,1.9,5.1,0.46,7.6,16.6,0.704,1.7,2.4,65.0,13.0,NBA,1533.0,109.0,4.0,5.4,PF,18.8,2014,1.9,TOT,2.2,11.6
24.0,1.8,0.4,109.0,8.0,0.494,5.0,10.2,0.231,1.1,4.8,0.41,6.1,15.0,0.563,1.1,2.0,17.0,6.0,NBA,415.0,99.0,4.2,4.8,PF,14.5,2014,1.6,SAC,2.0,12.1
24.0,2.9,1.6,103.0,7.5,0.506,6.0,11.9,0.411,2.2,5.2,0.477,8.2,17.2,0.745,1.9,2.6,48.0,7.0,NBA,1118.0,113.0,3.9,5.6,PF,20.4,2014,2.0,TOR,2.3,11.4
25.0,3.7,1.1,108.0,7.3,0.536,3.2,6.0,0.371,2.5,6.8,0.449,5.8,12.8,0.788,1.5,1.9,81.0,4.0,NBA,2156.0,122.0,3.0,3.6,PF,15.5,2015,1.4,TOR,1.3,10.4
26.0,2.4,0.8,107.0,6.8,0.49,2.5,5.1,0.362,2.7,7.5,0.414,5.2,12.6,0.853,0.7,0.9,79.0,0.0,NBA,2020.0,108.0,2.0,3.3,PF,13.9,2016,1.4,TOR,1.7,8.7
27.0,2.4,0.7,109.0,7.3,0.458,1.9,4.2,0.372,3.0,8.0,0.401,4.9,12.2,0.717,1.4,1.9,65.0,8.0,NBA,1599.0,115.0,2.0,3.8,PF,14.1,2017,1.3,TOR,1.2,9.3
28.0,2.2,0.9,108.0,6.3,0.421,1.6,3.7,0.386,2.6,6.7,0.398,4.1,10.4,0.87,1.6,1.8,82.0,3.0,NBA,1270.0,114.0,1.3,3.4,PF,12.4,2018,1.9,OKC,1.3,7.5
29.0,1.7,0.7,110.0,5.7,0.439,2.0,4.4,0.336,2.5,7.4,0.374,4.4,11.9,0.633,1.0,1.6,63.0,5.0,NBA,861.0,106.0,2.3,2.5,PF,12.4,2019,0.9,OKC,1.2,8.0
30.0,2.6,0.2,110.0,6.3,0.267,0.9,3.2,0.381,3.5,9.1,0.351,4.3,12.3,0.5,0.4,0.9,12.0,11.0,NBA,217.0,106.0,2.4,2.8,PF,12.5,2020,0.4,LAC,1.3,8.6
