article_url,date,headline
https://thejnotes.com/2019/11/08/game-thread-utah-jazz-chance-assert-battle-bucks/,2019/11/08,Purple and Blues: Game thread: Utah Jazz have further chance to assert themselves in battle against Bucks
https://behindthebuckpass.com/2019/11/08/milwaukee-bucks-3-things-to-watch-for-on-the-road-against-utah-jazz/,2019/11/08,Behind the Buck Pass: Milwaukee Bucks: 3 things to watch for on the road against Utah Jazz
