age,ast_per_poss,blk_per_poss,def_rtg,drb_per_poss,fg2_pct,fg2_per_poss,fg2a_per_poss,fg3_pct,fg3_per_poss,fg3a_per_poss,fg_pct,fg_per_poss,fga_per_poss,ft_pct,ft_per_poss,fta_per_poss,g,gs,lg_id,mp,off_rtg,orb_per_poss,pf_per_poss,pos,pts_per_poss,season,stl_per_poss,team_id,tov_per_poss,trb_per_poss
20.0,8.1,0.1,113.0,4.3,0.453,5.8,12.8,0.33,1.1,3.3,0.428,6.9,16.1,0.732,3.3,4.5,53.0,46.0,NBA,1381.0,103.0,0.8,3.1,PG,18.2,2008,1.6,MEM,3.2,5.1
21.0,7.5,0.2,111.0,5.3,0.458,5.0,10.9,0.406,1.9,4.6,0.442,6.9,15.5,0.817,3.4,4.2,82.0,61.0,NBA,2508.0,109.0,0.5,3.1,PG,19.0,2009,1.9,MEM,3.0,5.9
22.0,8.5,0.2,112.0,3.2,0.464,5.7,12.3,0.387,1.6,4.2,0.445,7.4,16.6,0.743,2.8,3.7,80.0,80.0,NBA,2569.0,108.0,0.6,3.6,PG,19.2,2010,2.2,MEM,3.4,3.8
23.0,9.6,0.3,107.0,3.9,0.466,6.2,13.4,0.369,1.5,3.9,0.444,7.7,17.3,0.733,3.3,4.5,81.0,81.0,NBA,2872.0,108.0,0.6,3.3,PG,20.1,2011,2.6,MEM,3.2,4.5
24.0,9.8,0.3,102.0,3.3,0.45,5.7,12.8,0.377,1.5,3.9,0.433,7.2,16.6,0.861,3.3,3.8,62.0,61.0,NBA,2174.0,110.0,0.5,3.2,PG,19.2,2012,3.3,MEM,3.0,3.8
25.0,9.6,0.5,100.0,3.6,0.476,6.1,12.7,0.362,2.1,5.8,0.44,8.2,18.5,0.83,4.6,5.6,80.0,80.0,NBA,2757.0,111.0,0.8,3.4,PG,23.0,2013,3.4,MEM,3.7,4.4
26.0,9.6,0.3,106.0,3.8,0.484,7.8,16.1,0.361,2.3,6.4,0.45,10.1,22.5,0.815,4.9,6.0,73.0,73.0,NBA,2446.0,113.0,0.9,3.1,PG,27.4,2014,2.4,MEM,3.3,4.7
27.0,8.8,0.3,104.0,4.2,0.473,6.7,14.2,0.386,2.5,6.5,0.446,9.2,20.7,0.859,5.0,5.8,70.0,70.0,NBA,2225.0,110.0,0.7,3.3,PG,26.0,2015,2.1,MEM,3.7,4.9
28.0,10.0,0.5,110.0,4.0,0.449,6.3,14.1,0.363,2.3,6.3,0.422,8.6,20.3,0.834,5.6,6.7,56.0,56.0,NBA,1761.0,115.0,0.8,2.9,PG,25.0,2016,2.0,MEM,2.5,4.8
29.0,9.8,0.4,108.0,4.8,0.497,6.7,13.4,0.408,3.9,9.5,0.46,10.5,22.9,0.859,7.2,8.4,69.0,68.0,NBA,2292.0,121.0,0.7,2.9,PG,32.1,2017,2.1,MEM,3.5,5.5
30.0,6.6,0.4,114.0,3.7,0.44,5.4,12.3,0.312,3.3,10.4,0.381,8.7,22.8,0.803,7.2,8.9,12.0,12.0,NBA,373.0,108.0,0.0,3.3,PG,27.8,2018,1.6,MEM,2.4,3.7
31.0,9.5,0.5,111.0,4.2,0.483,7.1,14.7,0.364,3.3,9.0,0.438,10.4,23.8,0.845,7.3,8.6,70.0,70.0,NBA,2342.0,117.0,0.8,2.6,PG,31.4,2019,2.0,MEM,2.8,5.1
32.0,6.0,0.4,101.0,3.5,0.362,4.3,11.9,0.286,2.5,8.6,0.33,6.8,20.6,0.8,4.9,6.2,8.0,8.0,NBA,237.0,85.0,0.8,4.1,PG,21.0,2020,1.9,UTA,5.4,4.3
