age,ast,blk,drb,fg,fg2,fg2a,fg3,fg3a,fga,ft,fta,game_score,lg_id,mp,orb,pf,pts,season,stl,team_id,tov,trb
20.0,11.0,1.0,7.0,8.0,7.0,13.0,3.0,5.0,15.0,7.0,8.0,23.7,NBA,39,3.0,6.0,25.0,2008,3.0,MEM,4.0,7.0
21.0,10.0,2.0,9.0,14.0,12.0,15.0,4.0,7.0,21.0,10.0,12.0,25.9,NBA,45,2.0,6.0,31.0,2009,7.0,MEM,7.0,10.0
22.0,11.0,1.0,7.0,11.0,10.0,17.0,5.0,7.0,20.0,10.0,11.0,24.2,NBA,45,2.0,6.0,26.0,2010,5.0,MEM,7.0,7.0
23.0,14.0,2.0,7.0,10.0,10.0,15.0,4.0,7.0,20.0,9.0,12.0,25.5,NBA,47,2.0,5.0,28.0,2011,7.0,MEM,6.0,7.0
24.0,12.0,2.0,5.0,10.0,9.0,15.0,4.0,7.0,18.0,8.0,10.0,22.3,NBA,52,2.0,6.0,22.0,2012,5.0,MEM,5.0,7.0
25.0,15.0,3.0,7.0,11.0,10.0,17.0,4.0,9.0,21.0,12.0,14.0,23.3,NBA,48,4.0,5.0,26.0,2013,6.0,MEM,7.0,7.0
26.0,14.0,1.0,6.0,12.0,10.0,18.0,5.0,10.0,23.0,10.0,12.0,29.0,NBA,42,3.0,6.0,31.0,2014,6.0,MEM,6.0,7.0
27.0,11.0,2.0,9.0,13.0,8.0,16.0,5.0,9.0,22.0,8.0,9.0,27.0,NBA,47,2.0,5.0,36.0,2015,5.0,MEM,7.0,10.0
28.0,11.0,2.0,6.0,10.0,8.0,15.0,4.0,10.0,25.0,8.0,10.0,25.2,NBA,41,3.0,5.0,27.0,2016,4.0,MEM,5.0,7.0
29.0,12.0,2.0,9.0,13.0,8.0,16.0,7.0,12.0,23.0,11.0,14.0,37.1,NBA,46,3.0,5.0,38.0,2017,5.0,MEM,6.0,9.0
30.0,7.0,1.0,5.0,9.0,6.0,11.0,4.0,9.0,18.0,10.0,12.0,22.7,NBA,36,0.0,4.0,27.0,2018,2.0,MEM,3.0,5.0
31.0,12.0,3.0,7.0,13.0,11.0,18.0,7.0,11.0,25.0,11.0,15.0,33.0,NBA,46,3.0,6.0,40.0,2019,4.0,MEM,6.0,8.0
32.0,8.0,1.0,4.0,11.0,6.0,12.0,5.0,9.0,17.0,6.0,8.0,24.1,NBA,36,2.0,5.0,29.0,2020,4.0,UTA,5.0,6.0
