age,ast_per_g,blk_per_g,drb_per_g,efg_pct,fg2_pct,fg2_per_g,fg2a_per_g,fg3_pct,fg3_per_g,fg3a_per_g,fg_pct,fg_per_g,fga_per_g,ft_pct,ft_per_g,fta_per_g,g,gs,lg_id,mp_per_g,orb_per_g,pf_per_g,pos,pts_per_g,season,stl_per_g,team_id,tov_per_g,trb_per_g
20.0,4.2,0.0,2.2,0.462,0.453,3.0,6.6,0.33,0.6,1.7,0.428,3.6,8.3,0.732,1.7,2.3,53.0,46.0,NBA,26.1,0.4,1.6,PG,9.4,2008,0.8,MEM,1.7,2.6
21.0,4.3,0.1,3.1,0.503,0.458,2.9,6.3,0.406,1.1,2.6,0.442,3.9,8.9,0.817,2.0,2.4,82.0,61.0,NBA,30.6,0.3,1.8,PG,10.9,2009,1.1,MEM,1.7,3.4
22.0,5.3,0.2,2.0,0.494,0.464,3.6,7.7,0.387,1.0,2.7,0.445,4.6,10.4,0.743,1.7,2.3,80.0,80.0,NBA,32.1,0.4,2.2,PG,12.0,2010,1.4,MEM,2.1,2.4
23.0,6.5,0.2,2.7,0.486,0.466,4.2,9.1,0.369,1.0,2.7,0.444,5.2,11.8,0.733,2.2,3.0,81.0,81.0,NBA,35.5,0.4,2.2,PG,13.7,2011,1.8,MEM,2.2,3.0
24.0,6.5,0.2,2.2,0.477,0.45,3.8,8.5,0.377,1.0,2.6,0.433,4.8,11.0,0.861,2.2,2.5,62.0,61.0,NBA,35.1,0.4,2.1,PG,12.7,2012,2.2,MEM,2.0,2.5
25.0,6.1,0.3,2.3,0.497,0.476,3.9,8.1,0.362,1.3,3.7,0.44,5.2,11.8,0.83,2.9,3.5,80.0,80.0,NBA,34.5,0.5,2.1,PG,14.6,2013,2.2,MEM,2.4,2.8
26.0,6.0,0.2,2.4,0.5,0.484,4.9,10.1,0.361,1.4,4.0,0.45,6.3,14.1,0.815,3.1,3.8,73.0,73.0,NBA,33.5,0.6,1.9,PG,17.2,2014,1.5,MEM,2.1,2.9
27.0,5.4,0.2,2.6,0.506,0.473,4.1,8.6,0.386,1.5,4.0,0.446,5.6,12.6,0.859,3.1,3.6,70.0,70.0,NBA,31.8,0.4,2.0,PG,15.8,2015,1.3,MEM,2.2,3.0
28.0,6.1,0.3,2.5,0.478,0.449,3.9,8.6,0.363,1.4,3.8,0.422,5.3,12.4,0.834,3.4,4.1,56.0,56.0,NBA,31.4,0.5,1.8,PG,15.3,2016,1.2,MEM,1.5,2.9
29.0,6.3,0.3,3.0,0.545,0.497,4.2,8.6,0.408,2.5,6.1,0.46,6.7,14.6,0.859,4.6,5.3,69.0,68.0,NBA,33.2,0.4,1.8,PG,20.5,2017,1.3,MEM,2.3,3.5
30.0,4.1,0.3,2.3,0.452,0.44,3.3,7.6,0.312,2.0,6.4,0.381,5.3,14.0,0.803,4.4,5.5,12.0,12.0,NBA,31.1,0.0,2.0,PG,17.1,2018,1.0,MEM,1.5,2.3
31.0,6.4,0.3,2.8,0.507,0.483,4.8,9.9,0.364,2.2,6.1,0.438,7.0,16.0,0.845,4.9,5.8,70.0,70.0,NBA,33.5,0.6,1.8,PG,21.1,2019,1.3,MEM,1.9,3.4
32.0,3.6,0.3,2.1,0.39,0.362,2.6,7.3,0.286,1.5,5.3,0.33,4.1,12.5,0.8,3.0,3.8,8.0,8.0,NBA,29.6,0.5,2.5,PG,12.8,2020,1.1,UTA,3.3,2.6
