age,ast,blk,drb,efg_pct,fg,fg2,fg2_pct,fg2a,fg3,fg3_pct,fg3a,fg_pct,fga,ft,ft_pct,fta,g,gs,lg_id,mp,orb,pf,pos,pts,season,stl,team_id,tov,trb
23.0,20.0,2.0,9.0,0.435,18.0,14.0,0.35,40.0,4.0,0.667,6.0,0.391,46.0,7.0,0.636,11.0,5.0,5.0,NBA,146.0,4.0,7.0,PG,47.0,2011,5.0,IND,9.0,13.0
24.0,33.0,0.0,11.0,0.543,36.0,32.0,0.542,59.0,4.0,0.364,11.0,0.514,70.0,20.0,0.87,23.0,11.0,0.0,NBA,205.0,3.0,11.0,PG,96.0,2012,14.0,IND,11.0,14.0
26.0,31.0,1.0,17.0,0.394,35.0,34.0,0.436,78.0,1.0,0.083,12.0,0.389,90.0,39.0,0.867,45.0,13.0,0.0,NBA,249.0,10.0,17.0,PG,110.0,2014,6.0,LAC,12.0,27.0
30.0,33.0,0.0,20.0,0.515,31.0,23.0,0.511,45.0,8.0,0.348,23.0,0.456,68.0,9.0,0.75,12.0,7.0,7.0,NBA,214.0,1.0,7.0,PG,79.0,2018,7.0,IND,9.0,21.0
31.0,16.0,0.0,8.0,0.467,19.0,15.0,0.441,34.0,4.0,0.364,11.0,0.422,45.0,6.0,1.0,6.0,4.0,4.0,NBA,117.0,4.0,11.0,PG,48.0,2019,2.0,IND,10.0,12.0
