age,and1s,astd_pts,drawn_offensive,drawn_shooting,fouls_offensive,fouls_shooting,g,lg_id,mp,own_shots_blk,pct_1,pct_2,pct_3,pct_4,pct_5,plus_minus_net,plus_minus_on,pos,season,team_id,tov_bad_pass,tov_lost_ball
22.0,0.0,13.0,1.0,0.0,0.0,3.0,5.0,NBA,75.0,1.0,0.0,66.0,34.0,0.0,0.0,16.1,20.6,SG,2014,HOU,3.0,0.0
23.0,0.0,52.0,4.0,2.0,3.0,19.0,47.0,NBA,397.0,8.0,7.0,88.0,5.0,0.0,0.0,-9.6,-12.4,SG,2015,TOT,12.0,4.0
23.0,0.0,11.0,0.0,0.0,1.0,5.0,17.0,NBA,108.0,0.0,3.0,79.0,18.0,0.0,0.0,-22.8,-18.6,SG,2015,HOU,4.0,0.0
23.0,0.0,31.0,2.0,0.0,1.0,9.0,19.0,NBA,154.0,5.0,14.0,86.0,0.0,0.0,0.0,4.7,-5.1,SG,2015,MIN,6.0,0.0
23.0,0.0,10.0,2.0,2.0,1.0,5.0,11.0,NBA,135.0,3.0,4.0,96.0,0.0,0.0,0.0,-12.7,-15.7,SG,2015,CHO,2.0,4.0
24.0,0.0,48.0,0.0,3.0,0.0,27.0,43.0,NBA,476.0,3.0,0.0,52.0,48.0,0.0,0.0,-9.1,-5.1,SG,2016,CHO,8.0,13.0
25.0,6.0,101.0,8.0,18.0,1.0,48.0,67.0,NBA,1183.0,12.0,4.0,87.0,10.0,0.0,0.0,0.5,1.1,SG,2017,MEM,21.0,17.0
26.0,0.0,111.0,2.0,18.0,12.0,55.0,79.0,NBA,1622.0,16.0,13.0,84.0,3.0,0.0,0.0,-4.5,-12.3,SG,2018,PHO,24.0,13.0
27.0,4.0,59.0,6.0,8.0,8.0,30.0,51.0,NBA,760.0,6.0,9.0,72.0,19.0,0.0,0.0,1.8,-7.5,SG,2019,PHO,13.0,4.0
28.0,1.0,15.0,0.0,1.0,0.0,1.0,7.0,NBA,107.0,1.0,24.0,56.0,20.0,0.0,0.0,-14.9,-0.8,SG,2020,LAL,1.0,2.0
