lg_id,salary,season,team_name
NBA,816482.0,2015,Charlotte Hornets
NBA,947276.0,2016,Charlotte Hornets
NBA,3332940.0,2017,Memphis Grizzlies
NBA,3408520.0,2018,Phoenix Suns
NBA,3258539.0,2019,Phoenix Suns
