age,ast_pct,blk_pct,bpm,bpm-dum,dbpm,drb_pct,dws,fg3a_per_fga_pct,fta_per_fga_pct,g,lg_id,mp,obpm,orb_pct,ows,per,pos,season,stl_pct,team_id,tov_pct,trb_pct,ts_pct,usg_pct,vorp,ws,ws-dum,ws_per_48
22.0,11.4,0.0,-1.2,0.0,-5.5,5.6,0.0,0.806,0.0,5.0,NBA,75.0,4.3,0.0,0.2,16.0,SG,2014,0.0,HOU,8.8,3.0,0.677,19.9,0.0,0.2,0.0,0.15
23.0,9.2,0.2,-4.9,0.0,-4.6,7.2,0.1,0.715,0.079,47.0,NBA,397.0,-0.3,2.2,0.1,9.6,SG,2015,0.8,TOT,10.5,4.7,0.515,21.3,-0.3,0.2,0.0,0.022
23.0,5.9,0.0,-8.2,0.0,-5.8,6.1,0.0,0.915,0.085,17.0,NBA,108.0,-2.4,0.0,-0.1,4.5,SG,2015,0.0,HOU,9.3,3.1,0.472,21.6,-0.2,0.0,0.0,-0.013
23.0,13.4,0.0,-5.8,0.0,-4.5,10.0,0.0,0.661,0.034,19.0,NBA,154.0,-1.4,4.3,-0.1,7.4,SG,2015,1.0,MIN,11.8,7.1,0.443,19.4,-0.1,-0.1,0.0,-0.038
23.0,7.0,0.6,-1.2,0.0,-3.7,5.0,0.1,0.61,0.119,11.0,NBA,135.0,2.5,1.6,0.2,16.1,SG,2015,1.1,CHO,10.1,3.3,0.62,23.3,0.0,0.3,0.0,0.119
24.0,7.6,0.5,-1.1,0.0,-2.7,11.6,0.4,0.652,0.048,43.0,NBA,476.0,1.6,1.6,0.6,14.9,SG,2016,1.2,CHO,11.2,6.5,0.634,20.4,0.1,1.1,0.0,0.11
25.0,6.6,0.3,-3.1,0.0,-3.5,7.8,0.8,0.717,0.109,67.0,NBA,1183.0,0.4,2.1,0.5,10.4,SG,2017,0.9,MEM,8.0,4.8,0.531,21.7,-0.3,1.3,0.0,0.051
26.0,4.5,0.2,-2.9,0.0,-3.6,7.7,0.0,0.797,0.111,79.0,NBA,1622.0,0.7,0.8,1.4,9.8,SG,2018,0.8,PHO,8.5,4.2,0.583,17.2,-0.4,1.4,0.0,0.042
27.0,5.0,0.5,-4.4,0.0,-3.4,8.9,0.1,0.705,0.084,51.0,NBA,760.0,-1.0,1.9,0.2,9.8,SG,2019,1.6,PHO,8.7,5.3,0.558,17.6,-0.5,0.3,0.0,0.02
28.0,7.5,0.0,-4.0,0.0,-1.9,6.8,0.1,0.769,0.077,7.0,NBA,107.0,-2.2,1.0,-0.1,6.6,SG,2020,1.3,LAL,6.9,3.9,0.434,17.2,-0.1,0.1,0.0,0.027
