age,ast_pct,blk_pct,bpm,bpm-dum,dbpm,drb_pct,dws,fg3a_per_fga_pct,fta_per_fga_pct,g,lg_id,mp,obpm,orb_pct,ows,per,pos,season,stl_pct,team_id,tov_pct,trb_pct,ts_pct,usg_pct,vorp,ws,ws-dum,ws_per_48
22.0,4.1,4.3,-7.1,0.0,3.2,15.4,0.1,0.3,0.2,6.0,NBA,31.0,-10.3,7.2,-0.2,1.9,SG,1993,5.0,CHI,26.9,11.2,0.276,20.8,0.0,-0.1,0.0,-0.163
23.0,13.2,1.6,-6.2,0.0,-0.7,10.1,0.5,0.132,0.163,36.0,NBA,419.0,-5.4,2.5,-0.5,6.3,SG,1994,1.0,CHI,20.7,6.3,0.47,18.4,-0.4,0.0,0.0,-0.005
24.0,8.0,0.6,-4.9,0.0,-1.4,1.9,0.2,0.308,0.333,8.0,NBA,127.0,-3.4,0.9,0.0,7.7,SG,1995,2.9,CHI,11.8,1.4,0.481,17.8,-0.1,0.1,0.0,0.053
