age,and1s,astd_pts,drawn_offensive,drawn_shooting,fouls_offensive,fouls_shooting,g,lg_id,mp,own_shots_blk,pct_1,pct_2,pct_3,pct_4,pct_5,plus_minus_net,plus_minus_on,pos,season,team_id,tov_bad_pass,tov_lost_ball
31.0,2.0,30.0,0.0,21.0,7.0,31.0,35.0,NBA,542.0,15.0,0.0,0.0,0.0,21.0,79.0,-0.4,4.4,C,2001,PHI,6.0,8.0
32.0,0.0,0.0,0.0,1.0,0.0,1.0,4.0,NBA,36.0,0.0,0.0,0.0,0.0,4.0,96.0,-40.6,-38.3,C,2002,PHI,1.0,1.0
