age,ast_per_poss,blk_per_poss,def_rtg,drb_per_poss,fg2_pct,fg2_per_poss,fg2a_per_poss,fg3_pct,fg3_per_poss,fg3a_per_poss,fg_pct,fg_per_poss,fga_per_poss,ft_pct,ft_per_poss,fta_per_poss,g,gs,lg_id,mp,off_rtg,orb_per_poss,pf_per_poss,pos,pts_per_poss,season,stl_per_poss,team_id,tov_per_poss,trb_per_poss
20.0,3.9,0.0,101.0,4.8,0.621,11.6,18.7,0.5,1.0,1.9,0.609,12.6,20.6,0.647,3.5,5.5,33.0,0.0,NBA,163.0,101.0,3.2,5.5,SF,29.6,1998,3.2,PHO,6.8,8.1
21.0,2.0,1.0,104.0,2.0,0.421,8.1,19.1,0.0,0.0,1.0,0.4,8.1,20.1,0.0,0.0,0.0,11.0,0.0,NBA,53.0,69.0,3.0,7.0,SG,16.1,1999,3.0,PHO,6.0,5.0
