age,ast,blk,drb,efg_pct,fg,fg2,fg2_pct,fg2a,fg3,fg3_pct,fg3a,fg_pct,fga,ft,ft_pct,fta,g,gs,lg_id,mp,orb,pf,pos,pts,season,stl,team_id,tov,trb
20.0,29.0,7.0,43.0,0.353,66.0,45.0,0.395,114.0,21.0,0.204,103.0,0.304,217.0,35.0,0.745,47.0,55.0,6.0,NBA,719.0,21.0,71.0,SG,188.0,2015,39.0,DEN,38.0,64.0
21.0,147.0,18.0,166.0,0.538,359.0,254.0,0.543,468.0,105.0,0.354,297.0,0.469,765.0,109.0,0.82,133.0,76.0,76.0,NBA,2439.0,54.0,143.0,SG,932.0,2016,97.0,DEN,98.0,220.0
22.0,164.0,8.0,130.0,0.586,320.0,213.0,0.558,382.0,107.0,0.42,255.0,0.502,637.0,104.0,0.776,134.0,57.0,56.0,NBA,1782.0,48.0,92.0,SG,851.0,2017,71.0,DEN,76.0,178.0
23.0,194.0,15.0,139.0,0.57,440.0,284.0,0.553,514.0,156.0,0.396,394.0,0.485,908.0,134.0,0.827,162.0,67.0,65.0,NBA,2304.0,37.0,119.0,SG,1170.0,2018,122.0,DEN,119.0,176.0
24.0,127.0,19.0,119.0,0.488,270.0,188.0,0.476,395.0,82.0,0.339,242.0,0.424,637.0,115.0,0.799,144.0,57.0,48.0,NBA,1639.0,41.0,113.0,SG,737.0,2019,55.0,DEN,68.0,160.0
25.0,19.0,3.0,35.0,0.478,46.0,29.0,0.433,67.0,17.0,0.362,47.0,0.404,114.0,11.0,0.733,15.0,11.0,11.0,NBA,357.0,6.0,26.0,SG,120.0,2020,16.0,DEN,12.0,41.0
