age,ast_pct,blk_pct,bpm,bpm-dum,dbpm,drb_pct,dws,fg3a_per_fga_pct,fta_per_fga_pct,g,lg_id,mp,obpm,orb_pct,ows,per,pos,season,stl_pct,team_id,tov_pct,trb_pct,ts_pct,usg_pct,vorp,ws,ws-dum,ws_per_48
20.0,5.9,0.8,-4.3,0.0,-0.1,6.7,0.5,0.475,0.217,55.0,NBA,719.0,-4.2,3.0,-1.2,4.9,SG,2015,2.7,DEN,13.8,4.8,0.395,16.6,-0.4,-0.7,0.0,-0.046
21.0,9.5,0.6,0.2,0.0,-0.7,7.7,1.2,0.388,0.174,76.0,NBA,2439.0,0.9,2.4,2.8,12.7,SG,2016,2.0,DEN,10.6,5.0,0.566,16.5,1.3,4.0,0.0,0.079
22.0,13.6,0.3,1.5,0.0,-1.6,8.0,0.7,0.4,0.21,57.0,NBA,1782.0,3.1,3.0,3.9,16.5,SG,2017,1.9,DEN,9.8,5.5,0.611,18.4,1.6,4.6,0.0,0.124
23.0,13.0,0.5,0.9,0.0,-1.5,6.8,1.5,0.434,0.178,67.0,NBA,2304.0,2.4,1.8,3.9,16.5,SG,2018,2.6,DEN,10.8,4.3,0.597,20.7,1.7,5.5,0.0,0.114
24.0,11.0,1.0,-1.8,0.0,-1.0,7.9,1.5,0.38,0.226,57.0,NBA,1639.0,-0.7,2.7,1.1,12.2,SG,2019,1.6,DEN,8.9,5.3,0.526,20.0,0.1,2.6,0.0,0.076
25.0,7.9,0.8,-0.5,0.0,1.4,10.3,0.5,0.412,0.132,11.0,NBA,357.0,-1.9,1.7,0.0,9.8,SG,2020,2.2,DEN,9.0,6.0,0.498,16.0,0.1,0.5,0.0,0.072
