age,ast_per_g,blk_per_g,drb_per_g,efg_pct,fg2_pct,fg2_per_g,fg2a_per_g,fg3_pct,fg3_per_g,fg3a_per_g,fg_pct,fg_per_g,fga_per_g,ft_pct,ft_per_g,fta_per_g,g,gs,lg_id,mp_per_g,orb_per_g,pf_per_g,pos,pts_per_g,season,stl_per_g,team_id,tov_per_g,trb_per_g
20.0,0.5,0.1,0.8,0.353,0.395,0.8,2.1,0.204,0.4,1.9,0.304,1.2,3.9,0.745,0.6,0.9,55.0,6.0,NBA,13.1,0.4,1.3,SG,3.4,2015,0.7,DEN,0.7,1.2
21.0,1.9,0.2,2.2,0.538,0.543,3.3,6.2,0.354,1.4,3.9,0.469,4.7,10.1,0.82,1.4,1.8,76.0,76.0,NBA,32.1,0.7,1.9,SG,12.3,2016,1.3,DEN,1.3,2.9
22.0,2.9,0.1,2.3,0.586,0.558,3.7,6.7,0.42,1.9,4.5,0.502,5.6,11.2,0.776,1.8,2.4,57.0,56.0,NBA,31.3,0.8,1.6,SG,14.9,2017,1.2,DEN,1.3,3.1
23.0,2.9,0.2,2.1,0.57,0.553,4.2,7.7,0.396,2.3,5.9,0.485,6.6,13.6,0.827,2.0,2.4,67.0,65.0,NBA,34.4,0.6,1.8,SG,17.5,2018,1.8,DEN,1.8,2.6
24.0,2.2,0.3,2.1,0.488,0.476,3.3,6.9,0.339,1.4,4.2,0.424,4.7,11.2,0.799,2.0,2.5,57.0,48.0,NBA,28.8,0.7,2.0,SG,12.9,2019,1.0,DEN,1.2,2.8
25.0,1.7,0.3,3.2,0.478,0.433,2.6,6.1,0.362,1.5,4.3,0.404,4.2,10.4,0.733,1.0,1.4,11.0,11.0,NBA,32.5,0.5,2.4,SG,10.9,2020,1.5,DEN,1.1,3.7
