age,ast_per_poss,blk_per_poss,def_rtg,drb_per_poss,fg2_pct,fg2_per_poss,fg2a_per_poss,fg3_pct,fg3_per_poss,fg3a_per_poss,fg_pct,fg_per_poss,fga_per_poss,ft_pct,ft_per_poss,fta_per_poss,g,gs,lg_id,mp,off_rtg,orb_per_poss,pf_per_poss,pos,pts_per_poss,season,stl_per_poss,team_id,tov_per_poss,trb_per_poss
29.0,3.4,0.4,105.0,7.7,0.464,4.2,9.1,0.342,1.8,5.2,0.42,6.0,14.4,0.731,1.5,2.1,67.0,60.0,NBA,1909.0,101.0,1.3,2.4,PF,15.4,2007,2.1,TOR,1.7,9.0
30.0,2.2,0.0,105.0,9.3,0.222,1.4,6.5,0.375,4.3,11.5,0.32,5.8,18.0,0.0,0.0,0.0,7.0,0.0,NBA,74.0,95.0,1.4,1.4,PF,15.8,2008,2.2,TOR,0.7,10.8
