age,ast,blk,drb,efg_pct,fg,fg2,fg2_pct,fg2a,fg3,fg3_pct,fg3a,fg_pct,fga,ft,ft_pct,fta,g,gs,lg_id,mp,orb,pf,pos,pts,season,stl,team_id,tov,trb
20.0,125.0,67.0,506.0,0.585,509.0,509.0,0.588,866.0,0.0,0.0,4.0,0.585,870.0,141.0,0.746,189.0,71.0,70.0,NBA,2183.0,223.0,209.0,C,1159.0,2019,61.0,PHO,126.0,729.0
21.0,0.0,4.0,8.0,0.643,9.0,9.0,0.643,14.0,0.0,0.0,0.0,0.643,14.0,0.0,0.0,0.0,1.0,1.0,NBA,33.0,3.0,2.0,C,18.0,2020,1.0,PHO,0.0,11.0
