age,ast_per_mp,blk_per_mp,drb_per_mp,fg2_pct,fg2_per_mp,fg2a_per_mp,fg3_pct,fg3_per_mp,fg3a_per_mp,fg_pct,fg_per_mp,fga_per_mp,ft_pct,ft_per_mp,fta_per_mp,g,gs,lg_id,mp,orb_per_mp,pf_per_mp,pos,pts_per_mp,season,stl_per_mp,team_id,tov_per_mp,trb_per_mp
20.0,2.1,1.1,8.3,0.588,8.4,14.3,0.0,0.0,0.1,0.585,8.4,14.3,0.746,2.3,3.1,71.0,70.0,NBA,2183.0,3.7,3.4,C,19.1,2019,1.0,PHO,2.1,12.0
21.0,0.0,4.4,8.7,0.643,9.8,15.3,0.0,0.0,0.0,0.643,9.8,15.3,0.0,0.0,0.0,1.0,1.0,NBA,33.0,3.3,2.2,C,19.6,2020,1.1,PHO,0.0,12.0
