age,ast,ast_per_g,blk,college_id,fg,fg3,fg3_pct,fg3a,fg_pct,fga,ft,ft_pct,fta,g,mp,mp_per_g,orb,pf,pts,pts_per_g,season,stl,tov,trb,trb_per_g
18.0,87.0,3.0,6.0,UCONN,111.0,40.0,0.385,104.0,0.405,274.0,26.0,0.565,46.0,29.0,829.0,28.6,0.0,72.0,288.0,9.9,1989,39.0,40.0,82.0,2.8
19.0,132.0,3.6,7.0,UCONN,207.0,75.0,0.393,191.0,0.417,496.0,146.0,0.811,180.0,37.0,1221.0,33.0,0.0,87.0,635.0,17.2,1990,63.0,82.0,92.0,2.5
20.0,105.0,3.4,15.0,UCONN,208.0,46.0,0.393,117.0,0.439,474.0,123.0,0.719,171.0,31.0,1130.0,36.5,0.0,63.0,585.0,18.9,1991,55.0,81.0,90.0,2.9
21.0,112.0,3.7,15.0,UCONN,202.0,81.0,0.42,193.0,0.415,487.0,152.0,0.8,190.0,30.0,1090.0,36.3,0.0,54.0,637.0,21.2,1992,36.0,83.0,98.0,3.3
