age,ast_per_poss,blk_per_poss,def_rtg,drb_per_poss,fg2_pct,fg2_per_poss,fg2a_per_poss,fg3_pct,fg3_per_poss,fg3a_per_poss,fg_pct,fg_per_poss,fga_per_poss,ft_pct,ft_per_poss,fta_per_poss,g,gs,lg_id,mp,off_rtg,orb_per_poss,pf_per_poss,pos,pts_per_poss,season,stl_per_poss,team_id,tov_per_poss,trb_per_poss
22.0,1.8,1.8,112.0,6.1,0.2,2.6,13.1,0.0,0.0,0.0,0.2,2.6,13.1,0.0,0.0,1.8,12.0,0.0,NBA,59.0,61.0,6.1,4.4,C,5.3,2011,1.8,TOR,2.6,12.3
23.0,1.3,4.0,98.0,14.1,0.361,5.7,15.9,0.0,0.0,0.0,0.361,5.7,15.9,0.875,3.1,3.5,14.0,0.0,NBA,122.0,95.0,6.6,4.8,C,14.5,2012,0.9,TOR,2.2,20.7
