age,ast_per_g,blk_per_g,drb_per_g,efg_pct,fg2_pct,fg2_per_g,fg2a_per_g,fg3_pct,fg3_per_g,fg3a_per_g,fg_pct,fg_per_g,fga_per_g,ft_pct,ft_per_g,fta_per_g,g,gs,lg_id,mp_per_g,orb_per_g,pf_per_g,pos,pts_per_g,season,stl_per_g,team_id,tov_per_g,trb_per_g
22.0,0.2,0.2,0.6,0.2,0.2,0.3,1.3,0.0,0.0,0.0,0.2,0.3,1.3,0.0,0.0,0.2,12.0,0.0,NBA,4.9,0.6,0.4,C,0.5,2011,0.2,TOR,0.3,1.2
23.0,0.2,0.6,2.3,0.361,0.361,0.9,2.6,0.0,0.0,0.0,0.361,0.9,2.6,0.875,0.5,0.6,14.0,0.0,NBA,8.7,1.1,0.8,C,2.4,2012,0.1,TOR,0.4,3.4
