lg_id,salary,season,team_name
NBA,2000000.0,1991,Miami Heat
NBA,1402000.0,1992,Miami Heat
NBA,802000.0,1993,Miami Heat
NBA,1002000.0,1994,Miami Heat
NBA,1052000.0,1995,Miami Heat
NBA,150000.0,1995,Philadelphia 76ers
NBA,247500.0,1997,Atlanta Hawks
