age,and1s,astd_pts,drawn_offensive,drawn_shooting,fouls_offensive,fouls_shooting,g,lg_id,mp,own_shots_blk,pct_1,pct_2,pct_3,pct_4,pct_5,plus_minus_net,plus_minus_on,pos,season,team_id,tov_bad_pass,tov_lost_ball
28.0,115.0,644.0,0.0,365.0,39.0,147.0,74.0,NBA,2924.0,50.0,0.0,0.0,0.0,0.0,100.0,15.6,8.0,C,2001,LAL,72.0,50.0
29.0,108.0,446.0,0.0,318.0,43.0,103.0,67.0,NBA,2422.0,56.0,0.0,0.0,0.0,0.0,100.0,9.9,11.3,C,2002,LAL,56.0,36.0
30.0,95.0,470.0,0.0,323.0,44.0,137.0,67.0,NBA,2535.0,49.0,0.0,0.0,0.0,0.0,100.0,12.8,7.0,C,2003,LAL,60.0,50.0
31.0,87.0,431.0,0.0,282.0,38.0,120.0,67.0,NBA,2464.0,28.0,0.0,0.0,0.0,0.0,100.0,11.5,8.3,C,2004,LAL,68.0,29.0
32.0,92.0,469.0,0.0,308.0,39.0,149.0,73.0,NBA,2492.0,48.0,0.0,0.0,0.0,0.0,100.0,6.1,9.6,C,2005,MIA,57.0,46.0
33.0,71.0,271.0,6.0,204.0,43.0,125.0,59.0,NBA,1806.0,34.0,0.0,0.0,0.0,0.0,100.0,5.3,7.1,C,2006,MIA,32.0,38.0
34.0,38.0,188.0,5.0,141.0,18.0,88.0,40.0,NBA,1135.0,15.0,0.0,0.0,0.0,0.0,100.0,3.2,1.6,C,2007,MIA,20.0,20.0
35.0,36.0,207.0,9.0,159.0,38.0,127.0,61.0,NBA,1748.0,27.0,0.0,0.0,0.0,0.0,100.0,3.1,0.8,C,2008,TOT,46.0,46.0
35.0,20.0,103.0,4.0,91.0,21.0,75.0,33.0,NBA,945.0,17.0,0.0,0.0,0.0,0.0,100.0,7.1,-4.0,C,2008,MIA,20.0,30.0
35.0,16.0,104.0,5.0,68.0,17.0,52.0,28.0,NBA,803.0,10.0,0.0,0.0,0.0,0.0,100.0,0.5,6.1,C,2008,PHO,26.0,16.0
36.0,68.0,292.0,4.0,248.0,32.0,159.0,75.0,NBA,2252.0,40.0,0.0,0.0,0.0,0.0,100.0,1.3,2.6,C,2009,PHO,57.0,29.0
37.0,29.0,182.0,4.0,118.0,28.0,108.0,53.0,NBA,1240.0,25.0,0.0,0.0,0.0,0.0,100.0,-5.5,3.6,C,2010,CLE,29.0,23.0
38.0,19.0,53.0,0.0,66.0,13.0,73.0,37.0,NBA,752.0,13.0,0.0,0.0,0.0,0.0,100.0,9.6,13.8,C,2011,BOS,13.0,13.0
