age,avg_dist,fg2_dunk,fg2_pct,fg2_pct_ast,fg2a_pct_fga,fg3_heave,fg3_pct,fg3_pct_ast,fg3_pct_corner,fg3a_heave,fg3a_pct_fga,fg_pct,fg_pct_00_03,fg_pct_03_10,fg_pct_10_16,fg_pct_16_xx,g,lg_id,mp,pct_fg2_dunk,pct_fg3a_corner,pct_fga_00_03,pct_fga_03_10,pct_fga_10_16,pct_fga_16_xx,pos,season,team_id
21.0,15.9,16.0,0.406,0.563,0.556,0.0,0.42,0.985,0.462,0.0,0.444,0.412,0.547,0.205,0.208,0.441,61.0,NBA,1230.0,0.051,0.248,0.212,0.11,0.068,0.167,PF,2002,SEA
22.0,16.4,26.0,0.453,0.629,0.561,0.0,0.355,0.933,0.318,3.0,0.439,0.41,0.678,0.321,0.327,0.371,72.0,NBA,1910.0,0.042,0.29,0.181,0.121,0.073,0.186,PF,2003,SEA
23.0,16.5,43.0,0.471,0.527,0.536,0.0,0.371,0.936,0.342,2.0,0.464,0.425,0.647,0.301,0.362,0.386,77.0,NBA,2321.0,0.059,0.318,0.209,0.09,0.058,0.179,PF,2004,SEA
24.0,17.3,30.0,0.43,0.486,0.494,0.0,0.389,0.969,0.351,3.0,0.506,0.409,0.588,0.278,0.314,0.353,63.0,NBA,1856.0,0.048,0.225,0.202,0.083,0.054,0.157,PF,2005,SEA
25.0,17.7,21.0,0.429,0.613,0.449,0.0,0.39,0.964,0.492,1.0,0.551,0.407,0.516,0.269,0.45,0.393,77.0,NBA,1974.0,0.039,0.178,0.199,0.081,0.031,0.138,PF,2006,TOT
25.0,17.4,13.0,0.436,0.634,0.49,0.0,0.367,0.972,0.625,1.0,0.51,0.401,0.513,0.289,0.385,0.443,47.0,NBA,1089.0,0.039,0.122,0.198,0.099,0.034,0.159,PF,2006,SEA
25.0,18.2,8.0,0.416,0.571,0.39,0.0,0.418,0.955,0.41,0.0,0.61,0.417,0.519,0.214,0.571,0.286,30.0,NBA,885.0,0.039,0.247,0.201,0.054,0.027,0.108,PF,2006,LAC
26.0,13.1,9.0,0.475,0.606,0.627,0.0,0.339,0.95,0.476,0.0,0.373,0.424,0.569,0.55,0.227,0.265,55.0,NBA,986.0,0.028,0.356,0.323,0.127,0.07,0.108,PF,2007,LAL
27.0,16.2,20.0,0.507,0.748,0.465,0.0,0.406,0.937,0.424,1.0,0.535,0.453,0.63,0.324,0.389,0.395,65.0,NBA,1483.0,0.053,0.423,0.247,0.078,0.041,0.098,SF,2008,LAL
28.0,18.0,16.0,0.446,0.626,0.438,0.0,0.401,0.971,0.402,3.0,0.562,0.421,0.619,0.273,0.393,0.322,78.0,NBA,1445.0,0.039,0.37,0.18,0.071,0.06,0.127,SF,2009,TOT
28.0,18.8,8.0,0.449,0.829,0.364,0.0,0.441,0.983,0.4,1.0,0.636,0.444,0.639,0.273,0.455,0.2,46.0,NBA,771.0,0.042,0.404,0.168,0.051,0.051,0.093,SF,2009,LAL
28.0,17.3,8.0,0.444,0.5,0.5,0.0,0.357,0.956,0.405,2.0,0.5,0.401,0.604,0.273,0.353,0.385,32.0,NBA,674.0,0.036,0.333,0.19,0.087,0.067,0.155,SF,2009,CHA
29.0,14.2,12.0,0.442,0.575,0.604,0.0,0.278,0.933,0.267,0.0,0.396,0.377,0.556,0.222,0.478,0.324,41.0,NBA,891.0,0.051,0.278,0.297,0.099,0.084,0.125,PF,2010,TOT
29.0,16.1,0.0,0.35,0.429,0.476,0.0,0.318,1.0,0.286,0.0,0.524,0.333,0.417,0.5,0.5,0.0,8.0,NBA,133.0,0.0,0.318,0.286,0.048,0.048,0.095,PF,2010,CHA
29.0,13.9,12.0,0.455,0.591,0.628,0.0,0.267,0.913,0.261,0.0,0.372,0.385,0.58,0.2,0.476,0.367,33.0,NBA,758.0,0.061,0.267,0.299,0.108,0.091,0.13,PF,2010,GSW
30.0,16.8,13.0,0.462,0.522,0.456,0.0,0.405,0.957,0.458,0.0,0.544,0.431,0.634,0.355,0.143,0.31,74.0,NBA,1169.0,0.041,0.277,0.223,0.097,0.044,0.091,PF,2011,GSW
31.0,19.4,3.0,0.387,0.625,0.315,0.0,0.37,0.96,0.326,0.0,0.685,0.376,0.5,0.286,0.0,0.333,49.0,NBA,755.0,0.02,0.341,0.162,0.036,0.025,0.091,SF,2012,ATL
32.0,17.3,1.0,0.5,0.625,0.372,0.0,0.185,1.0,0.231,0.0,0.628,0.302,0.6,0.333,0.0,0.5,25.0,NBA,144.0,0.023,0.481,0.233,0.07,0.023,0.047,PF,2013,CHI
