age,ast_pct,blk_pct,bpm,bpm-dum,dbpm,drb_pct,dws,fg3a_per_fga_pct,fta_per_fga_pct,g,lg_id,mp,obpm,orb_pct,ows,per,pos,season,stl_pct,team_id,tov_pct,trb_pct,ts_pct,usg_pct,vorp,ws,ws-dum,ws_per_48
22.0,18.6,0.9,0.1,0.0,-0.9,12.9,0.8,0.087,0.301,51.0,NBA,1468.0,1.0,6.7,1.0,17.3,SF,1982,1.2,DAL,12.7,9.7,0.514,29.8,0.8,1.9,0.0,0.061
23.0,18.2,0.5,1.7,0.0,-0.7,12.5,1.0,0.048,0.371,81.0,NBA,2784.0,2.4,7.3,5.9,20.5,SF,1983,1.3,DAL,12.4,9.8,0.535,30.0,2.6,6.9,0.0,0.118
24.0,21.0,0.4,3.3,0.0,-1.3,12.3,2.0,0.032,0.352,79.0,NBA,2900.0,4.6,6.4,7.0,23.5,SF,1984,1.3,DAL,12.3,9.4,0.572,33.4,3.9,9.0,0.0,0.149
25.0,15.3,0.5,1.7,0.0,-1.6,12.5,1.9,0.054,0.37,80.0,NBA,2699.0,3.3,7.8,5.3,21.3,SF,1985,1.1,DAL,12.2,10.1,0.563,32.2,2.5,7.2,0.0,0.128
26.0,20.9,0.3,1.5,0.0,-1.5,11.6,0.9,0.042,0.34,74.0,NBA,2501.0,3.0,7.9,3.7,19.2,SF,1986,1.2,DAL,14.2,9.8,0.547,29.0,2.2,4.7,0.0,0.09
27.0,15.7,0.6,2.8,0.0,-1.6,9.8,2.1,0.094,0.35,80.0,NBA,2663.0,4.4,7.5,6.8,22.1,SF,1987,1.5,DAL,10.6,8.7,0.56,31.3,3.2,8.9,0.0,0.16
28.0,18.4,1.3,3.1,0.0,-1.2,10.3,2.3,0.109,0.321,77.0,NBA,2610.0,4.3,7.7,6.5,21.9,SF,1988,1.3,DAL,10.2,9.0,0.539,31.6,3.4,8.8,0.0,0.163
29.0,17.9,0.8,0.5,0.0,-1.2,10.0,2.1,0.137,0.309,80.0,NBA,2597.0,1.7,6.4,2.4,16.4,SF,1989,0.9,TOT,12.6,8.3,0.524,27.4,1.7,4.5,0.0,0.082
29.0,21.5,1.1,0.1,0.0,-1.5,10.3,1.0,0.119,0.294,44.0,NBA,1529.0,1.7,6.6,0.7,17.3,SF,1989,0.9,DAL,13.0,8.5,0.509,30.5,0.8,1.7,0.0,0.052
29.0,12.7,0.4,1.1,0.0,-0.7,9.6,1.1,0.17,0.338,36.0,NBA,1068.0,1.7,6.2,1.7,15.1,SF,1989,0.8,DET,11.8,8.0,0.551,23.0,0.8,2.8,0.0,0.126
30.0,11.6,0.6,0.6,0.0,-0.5,10.6,2.5,0.104,0.283,78.0,NBA,2005.0,1.1,6.7,3.1,15.8,SF,1990,0.9,DET,10.7,8.7,0.544,24.3,1.3,5.7,0.0,0.136
31.0,11.6,0.6,0.7,0.0,-0.3,13.7,2.7,0.086,0.349,78.0,NBA,2006.0,0.9,7.6,2.8,16.7,SF,1991,1.2,DET,10.9,10.7,0.526,25.7,1.4,5.5,0.0,0.132
32.0,13.4,0.4,-2.6,0.0,-1.0,12.0,2.0,0.09,0.292,75.0,NBA,1582.0,-1.6,4.8,0.1,13.7,SF,1992,1.7,DET,10.6,8.4,0.479,27.6,-0.2,2.2,0.0,0.066
33.0,15.3,0.4,-1.5,0.0,-1.3,12.0,0.7,0.197,0.306,51.0,NBA,1056.0,-0.3,4.3,1.1,13.7,SF,1993,0.8,DET,12.4,8.0,0.525,22.2,0.1,1.8,0.0,0.082
34.0,18.5,0.6,-2.1,0.0,-2.1,10.8,0.3,0.267,0.207,39.0,NBA,859.0,0.0,3.5,0.6,13.1,SF,1994,1.2,LAC,15.6,7.2,0.544,21.6,0.0,0.9,0.0,0.05
