age,ast,blk,drb,fg,fg2,fg2a,fg3,fg3a,fga,ft,fta,game_score,lg_id,mp,orb,pf,pts,season,stl,team_id,tov,trb
24.0,6.0,1.0,12.0,14.0,14.0,23.0,0.0,2.0,23.0,9.0,10.0,29.2,NBA,0.0,5.0,6.0,34.0,1984,1.0,DAL,5.0,17.0
25.0,7.0,0.0,6.0,15.0,15.0,26.0,1.0,2.0,26.0,9.0,10.0,27.6,NBA,0.0,8.0,6.0,39.0,1985,1.0,DAL,6.0,14.0
26.0,10.0,0.0,11.0,19.0,18.0,29.0,1.0,3.0,30.0,11.0,12.0,29.7,NBA,0.0,4.0,6.0,39.0,1986,2.0,DAL,6.0,12.0
27.0,4.0,0.0,4.0,12.0,12.0,20.0,0.0,4.0,20.0,8.0,9.0,25.3,NBA,0.0,6.0,6.0,28.0,1987,3.0,DAL,4.0,8.0
28.0,7.0,2.0,9.0,14.0,14.0,22.0,3.0,5.0,25.0,9.0,9.0,32.6,NBA,0.0,6.0,5.0,38.0,1988,3.0,DAL,6.0,13.0
29.0,4.0,1.0,8.0,10.0,9.0,17.0,2.0,5.0,19.0,6.0,8.0,18.5,NBA,0.0,4.0,5.0,25.0,1989,2.0,TOT,4.0,10.0
29.0,4.0,1.0,8.0,10.0,9.0,17.0,2.0,5.0,19.0,6.0,8.0,18.5,NBA,0.0,4.0,5.0,25.0,1989,2.0,DET,4.0,10.0
30.0,3.0,1.0,8.0,11.0,10.0,13.0,2.0,3.0,15.0,7.0,12.0,20.0,NBA,0.0,3.0,5.0,25.0,1990,2.0,DET,3.0,10.0
31.0,7.0,1.0,7.0,11.0,9.0,18.0,3.0,4.0,22.0,10.0,13.0,26.7,NBA,0.0,5.0,5.0,34.0,1991,3.0,DET,3.0,8.0
32.0,5.0,1.0,2.0,4.0,4.0,15.0,1.0,2.0,16.0,5.0,6.0,6.0,NBA,0.0,2.0,4.0,13.0,1992,1.0,DET,6.0,3.0
