age,ast,ast_per_g,blk,college_id,fg,fg3,fg3_pct,fg3a,fg_pct,fga,ft,ft_pct,fta,g,mp,mp_per_g,orb,pf,pts,pts_per_g,season,stl,tov,trb,trb_per_g
20.0,23.0,0.8,21.0,GEORGIASOU,106.0,0.0,0.0,0.0,0.549,193.0,57.0,0.606,94.0,28.0,725.0,25.9,0.0,81.0,269.0,9.6,1986,15.0,85.0,180.0,6.4
21.0,56.0,1.8,25.0,GEORGIASOU,150.0,0.0,0.0,0.0,0.521,288.0,58.0,0.659,88.0,31.0,986.0,31.8,0.0,95.0,358.0,11.5,1987,24.0,80.0,202.0,6.5
22.0,35.0,1.1,16.0,GEORGIASOU,231.0,0.0,0.0,0.0,0.551,419.0,98.0,0.726,135.0,31.0,1092.0,35.2,0.0,87.0,560.0,18.1,1988,21.0,83.0,255.0,8.2
23.0,61.0,2.1,39.0,GEORGIASOU,279.0,0.0,0.0,0.0,0.542,515.0,116.0,0.73,159.0,29.0,1031.0,35.6,0.0,96.0,674.0,23.2,1989,27.0,88.0,256.0,8.8
