age,ast_per_poss,blk_per_poss,def_rtg,drb_per_poss,fg2_pct,fg2_per_poss,fg2a_per_poss,fg3_pct,fg3_per_poss,fg3a_per_poss,fg_pct,fg_per_poss,fga_per_poss,ft_pct,ft_per_poss,fta_per_poss,g,gs,lg_id,mp,off_rtg,orb_per_poss,pf_per_poss,pos,pts_per_poss,season,stl_per_poss,team_id,tov_per_poss,trb_per_poss
24.0,2.5,1.1,110.0,6.0,0.325,3.5,10.9,0.0,0.0,0.0,0.325,3.5,10.9,0.5,0.5,1.1,31.0,0.0,NBA,182.0,74.0,4.6,7.4,PF,7.6,1990,1.1,CHI,4.1,10.6
25.0,1.1,1.1,111.0,6.9,0.429,6.9,16.1,0.0,0.0,0.0,0.429,6.9,16.1,0.5,1.1,2.3,3.0,0.0,NBA,43.0,96.0,3.4,6.9,PF,14.9,1991,1.1,CHH,1.1,10.3
26.0,3.8,1.3,107.0,7.1,0.444,8.4,18.9,0.0,0.0,0.0,0.444,8.4,18.9,0.778,2.9,3.8,12.0,0.0,NBA,117.0,106.0,3.8,6.3,SF,19.7,1992,2.1,ATL,2.1,10.9
27.0,2.5,0.4,107.0,7.0,0.4,4.1,10.2,0.0,0.0,0.0,0.4,4.1,10.2,0.5,1.6,3.3,9.0,0.0,NBA,120.0,81.0,4.9,6.6,PF,9.8,1993,3.3,ATL,4.5,11.9
