age,and1s,astd_pts,drawn_offensive,drawn_shooting,fouls_offensive,fouls_shooting,g,lg_id,mp,own_shots_blk,pct_1,pct_2,pct_3,pct_4,pct_5,plus_minus_net,plus_minus_on,pos,season,team_id,tov_bad_pass,tov_lost_ball
20.0,15.0,808.0,11.0,112.0,16.0,36.0,81.0,NBA,2339.0,61.0,100.0,0.0,0.0,0.0,0.0,-7.8,-13.2,PG,2010,MIN,117.0,66.0
21.0,3.0,434.0,3.0,10.0,6.0,24.0,53.0,NBA,983.0,9.0,100.0,0.0,0.0,0.0,0.0,-3.2,-9.5,PG,2011,MIN,67.0,35.0
22.0,2.0,224.0,1.0,14.0,1.0,16.0,29.0,NBA,416.0,11.0,100.0,0.0,0.0,0.0,0.0,-15.6,-15.0,PG,2012,TOT,24.0,9.0
22.0,0.0,64.0,1.0,4.0,1.0,7.0,11.0,NBA,135.0,3.0,100.0,0.0,0.0,0.0,0.0,-27.5,-26.0,PG,2012,HOU,7.0,2.0
22.0,2.0,160.0,0.0,10.0,0.0,9.0,18.0,NBA,281.0,8.0,100.0,0.0,0.0,0.0,0.0,-9.4,-9.7,PG,2012,POR,17.0,7.0
