article_url,date,headline
https://bluemanhoop.com/2019/08/19/stephen-curry-greatest-superstar-almost-never/,2019/08/19,Blue Man Hoop: Stephen Curry: The greatest superstar that almost never was
https://hoopshabit.com/2019/07/29/minnesota-timberwolves-5-worst-mistakes-franchise-history/,2019/07/29,Hoops Habit: Minnesota Timberwolves: 5 worst mistakes in franchise history
https://pippenainteasy.com/2019/06/24/chicago-bulls-can-coby-white-best-pg-2019-nba-draft/,2019/06/24,Pippen Ain't Easy: Chicago Bulls: Can Coby White be the best PG from the 2019 NBA Draft?
https://pippenainteasy.com/2019/06/22/chicago-bulls-what-drafting-speedy-pg-coby-white-means/,2019/06/22,Pippen Ain't Easy: Chicago Bulls: What drafting speedy PG Coby White means
https://sircharlesincharge.com/2019/06/12/nba-point-guards-drafted-steph-currry/,2019/06/12,Sir Charles In Charge: NBA: Looking back at the two point guards drafted ahead of Steph Curry in the 2009 NBA Draft
