lg_id,salary,season,team_name
NBA,3726600.0,2012,Cleveland Cavaliers
NBA,4006080.0,2013,Cleveland Cavaliers
NBA,4062000.0,2014,Cleveland Cavaliers
NBA,5138430.0,2015,Cleveland Cavaliers
NBA,14260870.0,2016,Cleveland Cavaliers
NBA,15330435.0,2017,Cleveland Cavaliers
NBA,16400000.0,2018,Cleveland Cavaliers
NBA,17469565.0,2019,Cleveland Cavaliers
