age,ast_per_mp,blk_per_mp,drb_per_mp,fg2_pct,fg2_per_mp,fg2a_per_mp,fg3_pct,fg3_per_mp,fg3a_per_mp,fg_pct,fg_per_mp,fga_per_mp,ft_pct,ft_per_mp,fta_per_mp,g,gs,lg_id,mp,orb_per_mp,pf_per_mp,pos,pts_per_mp,season,stl_per_mp,team_id,tov_per_mp,trb_per_mp
20.0,0.7,1.6,5.1,0.441,4.9,11.1,0.0,0.0,0.1,0.439,4.9,11.2,0.552,2.7,4.9,60.0,25.0,NBA,1424.0,4.7,3.4,PF,12.5,2012,0.7,CLE,2.0,9.8
21.0,1.5,1.0,6.6,0.49,5.5,11.2,0.0,0.0,0.0,0.488,5.5,11.2,0.608,2.5,4.1,82.0,82.0,NBA,2564.0,4.3,3.3,PF,13.4,2013,0.8,CLE,1.7,10.9
22.0,1.0,0.5,6.7,0.478,5.0,10.5,0.0,0.0,0.0,0.477,5.0,10.6,0.693,3.3,4.7,82.0,82.0,NBA,2594.0,3.7,2.6,PF,13.3,2014,0.6,CLE,1.5,10.5
23.0,0.6,1.0,6.3,0.547,4.4,8.0,0.0,0.0,0.0,0.547,4.4,8.0,0.641,2.6,4.1,82.0,15.0,NBA,2194.0,4.5,3.1,PF,11.4,2015,0.6,CLE,1.4,10.8
24.0,1.0,0.8,7.5,0.588,3.9,6.7,0.0,0.0,0.0,0.588,3.9,6.7,0.616,2.4,3.8,82.0,34.0,NBA,2269.0,4.3,3.2,PF,10.2,2016,0.6,CLE,1.0,11.7
25.0,1.2,1.3,6.6,0.604,4.0,6.7,0.0,0.0,0.0,0.6,4.0,6.7,0.498,1.6,3.3,78.0,78.0,NBA,2336.0,4.4,2.7,C,9.7,2017,0.6,CLE,1.0,11.0
26.0,1.1,0.6,7.6,0.562,4.4,7.9,0.0,0.0,0.0,0.562,4.4,7.9,0.544,1.4,2.7,53.0,22.0,NBA,1072.0,4.2,3.4,C,10.3,2018,0.5,CLE,1.2,11.8
27.0,2.6,0.5,8.0,0.529,6.0,11.4,0.0,0.0,0.0,0.529,6.0,11.4,0.642,2.0,3.2,43.0,40.0,NBA,1198.0,5.2,2.7,C,14.1,2019,0.8,CLE,1.8,13.2
28.0,2.4,1.5,6.7,0.539,6.9,12.9,0.5,0.3,0.6,0.537,7.2,13.5,0.588,2.0,3.4,11.0,11.0,NBA,358.0,5.0,3.1,C,16.8,2020,1.0,CLE,1.3,11.8
