article_url,date,headline
https://kingjamesgospel.com/2019/11/15/cleveland-cavaliers-three-reasons-lost-heat/,2019/11/15,Right Down Euclid: Cleveland Cavaliers: Three reasons they lost to the Heat
https://allucanheat.com/2019/11/15/miami-heat-nunn-23-defeat-cavaliers/,2019/11/15,All U Can Heat: Miami Heat: Kendrick Nunn scores 23 as Heat defeat Cavaliers 108-97
https://hoopshabit.com/2019/11/14/cleveland-cavaliers-analyzing-success-starting-5/,2019/11/14,Hoops Habit: Analyzing success of Cleveland Cavaliers starting 5
