age,ast_per_mp,blk_per_mp,drb_per_mp,fg2_pct,fg2_per_mp,fg2a_per_mp,fg3_pct,fg3_per_mp,fg3a_per_mp,fg_pct,fg_per_mp,fga_per_mp,ft_pct,ft_per_mp,fta_per_mp,g,gs,lg_id,mp,orb_per_mp,pf_per_mp,pos,pts_per_mp,season,stl_per_mp,team_id,tov_per_mp,trb_per_mp
22.0,0.0,0.0,4.5,0.5,9.0,18.0,0.0,0.0,0.0,0.5,9.0,18.0,0.0,0.0,0.0,2.0,0.0,NBA,8.0,9.0,0.0,SF,18.0,1996,0.0,PHO,9.0,13.5
24.0,0.0,3.6,14.4,0.5,3.6,7.2,0.0,0.0,0.0,0.5,3.6,7.2,1.0,7.2,7.2,4.0,0.0,NBA,10.0,7.2,7.2,PF,14.4,1998,0.0,LAL,0.0,21.6
