age,ast_per_mp,blk_per_mp,drb_per_mp,fg2_pct,fg2_per_mp,fg2a_per_mp,fg3_pct,fg3_per_mp,fg3a_per_mp,fg_pct,fg_per_mp,fga_per_mp,ft_pct,ft_per_mp,fta_per_mp,g,gs,lg_id,mp,orb_per_mp,pf_per_mp,pos,pts_per_mp,season,stl_per_mp,team_id,tov_per_mp,trb_per_mp
22.0,0.9,1.7,4.4,0.46,4.5,9.9,0.0,0.0,0.2,0.453,4.5,10.0,0.643,4.2,6.6,19.0,14.0,NBA,230.0,3.3,7.2,SF,13.3,1996,1.7,PHO,1.7,7.7
24.0,1.8,1.1,6.7,0.594,8.0,13.5,0.5,0.1,0.2,0.593,8.1,13.7,0.364,1.6,4.5,45.0,4.0,NBA,354.0,6.1,6.2,PF,18.0,1998,1.9,LAL,2.1,12.8
25.0,0.0,0.0,5.7,0.333,3.8,11.4,0.0,0.0,0.0,0.333,3.8,11.4,0.75,5.7,7.6,3.0,0.0,NBA,19.0,3.8,7.6,PF,13.3,1999,1.9,CHI,1.9,9.5
26.0,0.0,0.0,12.0,0.0,0.0,36.0,0.0,0.0,0.0,0.0,0.0,36.0,0.0,0.0,0.0,1.0,0.0,NBA,3.0,12.0,12.0,PF,0.0,2000,0.0,LAC,0.0,24.0
