age,ast,blk,drb,fg,fg2,fg2a,fg3,fg3a,fga,ft,fta,game_score,lg_id,mp,orb,pf,pts,season,stl,team_id,tov,trb
21.0,4.0,0.0,4.0,3.0,3.0,6.0,0.0,1.0,6.0,5.0,6.0,9.6,NBA,0.0,3.0,3.0,11.0,2000,2.0,VAN,4.0,4.0
22.0,7.0,0.0,6.0,7.0,7.0,10.0,2.0,5.0,12.0,7.0,9.0,15.0,NBA,0.0,3.0,4.0,19.0,2001,3.0,BOS,7.0,7.0
23.0,6.0,1.0,5.0,9.0,8.0,12.0,3.0,4.0,14.0,8.0,12.0,13.3,NBA,0.0,1.0,3.0,19.0,2002,5.0,TOT,3.0,5.0
23.0,6.0,1.0,5.0,9.0,8.0,12.0,3.0,4.0,14.0,8.0,12.0,12.0,NBA,0.0,1.0,3.0,19.0,2002,5.0,BOS,3.0,5.0
23.0,3.0,1.0,3.0,5.0,4.0,7.0,1.0,2.0,9.0,4.0,4.0,13.3,NBA,0.0,1.0,3.0,15.0,2002,2.0,PHO,2.0,4.0
24.0,9.0,2.0,8.0,9.0,9.0,12.0,2.0,4.0,12.0,6.0,6.0,19.0,NBA,0.0,3.0,6.0,20.0,2003,5.0,CLE,5.0,10.0
25.0,10.0,3.0,5.0,7.0,7.0,12.0,1.0,4.0,14.0,5.0,6.0,22.7,NBA,0.0,1.0,5.0,19.0,2004,4.0,TOR,5.0,5.0
26.0,9.0,2.0,9.0,8.0,8.0,15.0,1.0,1.0,15.0,6.0,6.0,19.9,NBA,0.0,2.0,5.0,19.0,2005,5.0,TOR,6.0,9.0
27.0,9.0,2.0,6.0,9.0,9.0,16.0,1.0,2.0,16.0,9.0,11.0,16.9,NBA,40.0,2.0,6.0,20.0,2006,4.0,UTA,5.0,6.0
