age,ast_pct,blk_pct,bpm,bpm-dum,dbpm,drb_pct,dws,fg3a_per_fga_pct,fta_per_fga_pct,g,lg_id,mp,obpm,orb_pct,ows,per,pos,season,stl_pct,team_id,tov_pct,trb_pct,ts_pct,usg_pct,vorp,ws,ws-dum,ws_per_48
21.0,19.7,0.0,-5.9,0.0,-1.2,10.4,0.2,0.02,0.378,53.0,NBA,394.0,-4.7,5.1,-0.5,8.8,PG,2000,2.7,VAN,27.8,7.7,0.473,18.3,-0.4,-0.3,0.0,-0.041
22.0,22.5,0.0,-3.5,0.0,-1.7,8.2,0.7,0.135,0.345,58.0,NBA,1141.0,-1.8,2.4,1.1,12.3,PG,2001,2.2,BOS,20.6,5.2,0.556,15.4,-0.4,1.8,0.0,0.076
23.0,16.5,0.4,-4.6,0.0,-0.9,8.9,0.8,0.192,0.346,69.0,NBA,790.0,-3.8,1.5,0.0,9.7,PG-SG,2002,2.0,TOT,14.0,5.1,0.468,16.4,-0.5,0.8,0.0,0.05
23.0,16.8,0.5,-3.8,0.0,-0.5,9.1,0.6,0.252,0.378,41.0,NBA,518.0,-3.3,1.7,0.2,10.5,PG,2002,2.1,BOS,13.2,5.3,0.483,16.0,-0.2,0.8,0.0,0.071
23.0,15.9,0.3,-6.2,0.0,-1.5,8.4,0.2,0.089,0.291,28.0,NBA,272.0,-4.7,1.2,-0.1,8.2,SG,2002,1.7,PHO,15.2,4.8,0.443,17.3,-0.3,0.1,0.0,0.011
24.0,20.6,0.6,-4.3,0.0,-0.7,10.8,0.8,0.095,0.224,80.0,NBA,1976.0,-3.6,2.7,-0.6,8.2,PG,2003,1.8,CLE,23.5,6.7,0.466,12.2,-1.1,0.2,0.0,0.004
25.0,26.3,0.7,-6.3,0.0,-0.5,8.3,1.3,0.087,0.228,59.0,NBA,1211.0,-5.8,1.4,-1.8,7.4,PG,2004,1.9,TOR,21.0,4.8,0.392,16.6,-1.3,-0.5,0.0,-0.02
26.0,28.8,0.6,-4.0,0.0,-1.8,8.1,0.7,0.031,0.395,80.0,NBA,1533.0,-2.2,1.9,1.0,12.5,PG,2005,1.6,TOR,18.4,4.9,0.507,16.8,-0.8,1.7,0.0,0.054
27.0,24.4,0.8,-5.1,0.0,-1.3,10.4,1.1,0.04,0.372,71.0,NBA,1376.0,-3.7,1.5,-0.9,9.9,PG,2006,1.9,UTA,19.0,5.9,0.47,19.5,-1.1,0.2,0.0,0.008
