age,ast_per_poss,blk_per_poss,def_rtg,drb_per_poss,fg2_pct,fg2_per_poss,fg2a_per_poss,fg3_pct,fg3_per_poss,fg3a_per_poss,fg_pct,fg_per_poss,fga_per_poss,ft_pct,ft_per_poss,fta_per_poss,g,gs,lg_id,mp,off_rtg,orb_per_poss,pf_per_poss,pos,pts_per_poss,season,stl_per_poss,team_id,tov_per_poss,trb_per_poss
21.0,6.4,0.0,108.0,4.6,0.448,5.8,12.9,0.0,0.0,0.3,0.439,5.8,13.1,0.595,2.9,5.0,53.0,0.0,NBA,394.0,84.0,2.3,4.3,PG,14.5,2000,2.7,VAN,5.9,6.8
22.0,6.9,0.0,106.0,3.5,0.494,5.2,10.5,0.333,0.5,1.6,0.472,5.7,12.1,0.848,3.5,4.2,58.0,6.0,NBA,1141.0,104.0,1.1,3.8,PG,15.5,2001,2.2,BOS,3.6,4.6
23.0,5.5,0.3,105.0,4.1,0.399,4.6,11.4,0.317,0.9,2.7,0.383,5.4,14.1,0.73,3.6,4.9,69.0,1.0,NBA,790.0,97.0,0.7,4.0,PG-SG,15.2,2002,2.0,TOT,2.6,4.8
23.0,5.4,0.3,103.0,4.2,0.396,4.0,10.1,0.353,1.2,3.4,0.385,5.2,13.5,0.706,3.6,5.1,41.0,0.0,NBA,518.0,99.0,0.8,3.8,PG,15.2,2002,2.1,BOS,2.4,5.0
23.0,5.6,0.2,107.0,3.9,0.403,5.6,13.9,0.143,0.2,1.4,0.38,5.8,15.2,0.783,3.5,4.4,28.0,1.0,NBA,272.0,92.0,0.6,4.4,SG,15.2,2002,1.7,PHO,3.1,4.4
24.0,6.7,0.4,109.0,4.8,0.439,4.0,9.1,0.216,0.2,1.0,0.418,4.2,10.0,0.747,1.7,2.2,80.0,46.0,NBA,1976.0,92.0,1.2,4.3,PG,10.3,2003,1.8,CLE,3.4,6.1
25.0,8.4,0.5,103.0,4.0,0.368,4.6,12.4,0.154,0.2,1.2,0.349,4.8,13.6,0.662,2.1,3.1,59.0,13.0,NBA,1211.0,81.0,0.7,4.1,PG,11.7,2004,1.9,TOR,4.0,4.7
26.0,9.4,0.4,111.0,3.6,0.455,5.8,12.8,0.167,0.1,0.4,0.446,5.9,13.2,0.742,3.9,5.2,80.0,4.0,NBA,1533.0,104.0,0.9,4.3,PG,15.8,2005,1.6,TOR,3.5,4.5
27.0,7.5,0.6,108.0,4.6,0.439,6.8,15.4,0.063,0.0,0.6,0.424,6.8,16.0,0.653,3.9,6.0,71.0,18.0,NBA,1376.0,93.0,0.7,5.0,PG,17.5,2006,1.9,UTA,4.4,5.3
