age,avg_dist,fg2_dunk,fg2_pct,fg2_pct_ast,fg2a_pct_fga,fg3_heave,fg3_pct,fg3_pct_ast,fg3_pct_corner,fg3a_heave,fg3a_pct_fga,fg_pct,fg_pct_00_03,fg_pct_03_10,fg_pct_10_16,fg_pct_16_xx,g,lg_id,mp,pct_fg2_dunk,pct_fg3a_corner,pct_fga_00_03,pct_fga_03_10,pct_fga_10_16,pct_fga_16_xx,pos,season,team_id
22.0,10.0,1.0,0.494,0.43,0.865,0.0,0.333,0.75,0.444,2.0,0.135,0.472,0.575,0.429,0.5,0.357,58.0,NBA,1141.0,0.004,0.25,0.449,0.131,0.075,0.21,PG,2001,BOS
23.0,11.6,2.0,0.399,0.435,0.808,0.0,0.317,0.923,0.409,1.0,0.192,0.383,0.5,0.267,0.263,0.327,69.0,NBA,790.0,0.009,0.537,0.393,0.07,0.089,0.257,PG-SG,2002,TOT
23.0,13.6,1.0,0.396,0.375,0.748,0.0,0.353,0.917,0.471,1.0,0.252,0.385,0.571,0.273,0.111,0.308,41.0,NBA,518.0,0.007,0.5,0.311,0.081,0.067,0.289,PG,2002,BOS
23.0,8.1,1.0,0.403,0.517,0.911,0.0,0.143,1.0,0.2,0.0,0.089,0.38,0.429,0.25,0.4,0.375,28.0,NBA,272.0,0.013,0.714,0.532,0.051,0.127,0.203,SG,2002,PHO
24.0,11.3,0.0,0.439,0.636,0.905,0.0,0.216,0.75,0.364,2.0,0.095,0.418,0.536,0.296,0.351,0.402,80.0,NBA,1976.0,0.0,0.297,0.361,0.07,0.147,0.327,PG,2003,CLE
25.0,9.8,3.0,0.368,0.44,0.913,0.0,0.154,1.0,0.25,1.0,0.087,0.349,0.462,0.15,0.244,0.338,59.0,NBA,1211.0,0.01,0.462,0.436,0.067,0.151,0.258,PG,2004,TOR
26.0,9.0,1.0,0.455,0.41,0.969,0.0,0.167,0.5,0.0,2.0,0.031,0.446,0.505,0.182,0.403,0.455,80.0,NBA,1533.0,0.003,0.0,0.469,0.056,0.158,0.286,PG,2005,TOR
27.0,7.8,2.0,0.439,0.465,0.96,0.0,0.063,0.0,0.0,3.0,0.04,0.424,0.52,0.276,0.367,0.336,71.0,NBA,1376.0,0.005,0.125,0.548,0.072,0.074,0.266,PG,2006,UTA
