age,ast,blk,drb,fg,fg2,fg2a,fg3,fg3a,fga,ft,fta,game_score,lg_id,mp,orb,pf,pts,season,stl,team_id,tov,trb
22.0,2.0,0.0,2.0,4.0,3.0,7.0,2.0,5.0,10.0,4.0,4.0,7.1,NBA,19,2.0,4.0,11.0,2006,1.0,SAC,2.0,3.0
23.0,3.0,1.0,5.0,6.0,5.0,9.0,3.0,4.0,13.0,4.0,5.0,14.3,NBA,31,2.0,4.0,16.0,2007,2.0,SAC,3.0,5.0
24.0,5.0,1.0,3.0,7.0,5.0,8.0,2.0,5.0,11.0,3.0,4.0,16.2,NBA,35,2.0,5.0,16.0,2008,3.0,UTA,2.0,4.0
25.0,8.0,1.0,4.0,7.0,7.0,13.0,4.0,5.0,13.0,4.0,6.0,14.7,NBA,41,2.0,4.0,16.0,2009,3.0,UTA,4.0,6.0
26.0,9.0,2.0,3.0,6.0,5.0,10.0,3.0,4.0,14.0,4.0,6.0,14.4,NBA,40,4.0,4.0,14.0,2010,4.0,UTA,4.0,6.0
27.0,6.0,1.0,4.0,5.0,4.0,8.0,3.0,5.0,9.0,4.0,4.0,12.3,NBA,31,2.0,6.0,14.0,2011,4.0,UTA,5.0,5.0
28.0,8.0,1.0,3.0,7.0,6.0,9.0,2.0,4.0,13.0,5.0,6.0,18.3,NBA,34,2.0,5.0,18.0,2012,3.0,PHO,5.0,5.0
29.0,6.0,1.0,5.0,4.0,3.0,7.0,2.0,3.0,8.0,3.0,5.0,10.0,NBA,21,2.0,6.0,10.0,2013,3.0,POR,3.0,6.0
30.0,11.0,1.0,5.0,4.0,4.0,5.0,2.0,5.0,8.0,2.0,2.0,9.4,NBA,40,2.0,5.0,8.0,2014,3.0,ORL,6.0,7.0
31.0,12.0,1.0,4.0,6.0,5.0,9.0,5.0,7.0,11.0,4.0,4.0,18.8,NBA,34,4.0,6.0,18.0,2015,4.0,LAL,4.0,6.0
32.0,8.0,1.0,5.0,7.0,5.0,8.0,6.0,9.0,14.0,6.0,6.0,16.6,NBA,45,3.0,6.0,20.0,2016,5.0,PHO,7.0,5.0
33.0,4.0,1.0,3.0,2.0,1.0,3.0,1.0,5.0,7.0,2.0,2.0,4.7,NBA,20,1.0,3.0,5.0,2017,2.0,PHO,1.0,3.0
