age,ast,blk,drb,efg_pct,fg,fg2,fg2_pct,fg2a,fg3,fg3_pct,fg3a,fg_pct,fga,ft,ft_pct,fta,g,gs,lg_id,mp,orb,pf,pos,pts,season,stl,team_id,tov,trb
19.0,91.0,9.0,58.0,0.458,153.0,70.0,0.385,182.0,83.0,0.342,243.0,0.36,425.0,32.0,0.842,38.0,63.0,0.0,NBA,854.0,8.0,60.0,SG,421.0,2018,20.0,CHO,49.0,66.0
20.0,117.0,19.0,121.0,0.48,227.0,118.0,0.461,256.0,109.0,0.33,330.0,0.387,586.0,90.0,0.882,102.0,73.0,0.0,NBA,1258.0,16.0,106.0,SG,653.0,2019,37.0,CHO,86.0,137.0
21.0,26.0,3.0,28.0,0.555,40.0,29.0,0.644,45.0,11.0,0.297,37.0,0.488,82.0,10.0,0.769,13.0,11.0,0.0,NBA,223.0,2.0,20.0,SG,101.0,2020,3.0,CHO,19.0,30.0
