age,ast,ast_per_g,blk,college_id,fg,fg3,fg3_pct,fg3a,fg_pct,fga,ft,ft_pct,fta,g,mp,mp_per_g,orb,pf,pts,pts_per_g,season,stl,tov,trb,trb_per_g
19.0,8.0,0.3,60.0,STJOSEPHS,50.0,0.0,0.0,0.0,0.526,95.0,26.0,0.351,74.0,30.0,631.0,21.0,0.0,0.0,126.0,4.2,2003,11.0,0.0,189.0,6.3
20.0,29.0,0.9,63.0,STJOSEPHS,79.0,0.0,0.0,0.0,0.545,145.0,47.0,0.452,104.0,32.0,868.0,27.1,0.0,0.0,205.0,6.4,2004,17.0,0.0,224.0,7.0
21.0,31.0,0.9,109.0,STJOSEPHS,115.0,0.0,0.0,0.0,0.507,227.0,133.0,0.536,248.0,36.0,1254.0,34.8,0.0,0.0,363.0,10.1,2005,13.0,0.0,418.0,11.6
