age,ast_per_g,blk_per_g,drb_per_g,efg_pct,fg2_pct,fg2_per_g,fg2a_per_g,fg3_pct,fg3_per_g,fg3a_per_g,fg_pct,fg_per_g,fga_per_g,ft_pct,ft_per_g,fta_per_g,g,gs,lg_id,mp_per_g,orb_per_g,pf_per_g,pos,pts_per_g,season,stl_per_g,team_id,tov_per_g,trb_per_g
22.0,0.1,0.2,1.5,0.4,0.4,0.3,0.7,0.0,0.0,0.0,0.4,0.3,0.7,0.462,0.4,0.9,14.0,0.0,NBA,6.2,0.7,1.0,PF,1.0,2006,0.1,BOS,0.2,2.2
23.0,0.0,0.0,1.3,0.0,0.0,0.0,0.3,0.0,0.0,0.0,0.0,0.0,0.3,0.5,0.8,1.5,4.0,0.0,NBA,4.5,0.3,0.8,PF,0.8,2007,0.0,CLE,0.5,1.5
24.0,0.2,0.4,1.3,0.532,0.543,0.4,0.8,0.0,0.0,0.0,0.532,0.4,0.8,0.483,0.5,1.0,56.0,0.0,NBA,8.4,1.2,1.6,PF,1.4,2008,0.2,CLE,0.3,2.5
25.0,0.0,0.2,1.0,0.571,0.571,0.7,1.2,0.0,0.0,0.0,0.571,0.7,1.2,0.667,0.7,1.0,6.0,0.0,NBA,8.7,1.0,1.0,PF,2.0,2009,0.0,CHA,0.7,2.0
26.0,0.0,0.0,1.0,0.0,0.0,0.0,0.0,0.0,0.0,0.0,0.0,0.0,0.0,0.0,0.0,0.0,2.0,0.0,NBA,3.5,0.0,0.5,PF,0.0,2010,0.0,PHO,0.0,1.0
