age,ast_per_poss,blk_per_poss,def_rtg,drb_per_poss,fg2_pct,fg2_per_poss,fg2a_per_poss,fg3_pct,fg3_per_poss,fg3a_per_poss,fg_pct,fg_per_poss,fga_per_poss,ft_pct,ft_per_poss,fta_per_poss,g,gs,lg_id,mp,off_rtg,orb_per_poss,pf_per_poss,pos,pts_per_poss,season,stl_per_poss,team_id,tov_per_poss,trb_per_poss
22.0,1.2,1.8,104.0,12.6,0.4,2.4,6.0,0.0,0.0,0.0,0.4,2.4,6.0,0.462,3.6,7.8,14.0,0.0,NBA,87.0,103.0,6.0,8.4,PF,8.4,2006,0.6,BOS,1.8,18.6
23.0,0.0,0.0,101.0,14.7,0.0,0.0,2.9,0.0,0.0,0.0,0.0,0.0,2.9,0.5,8.8,17.6,4.0,0.0,NBA,18.0,64.0,2.9,8.8,PF,8.8,2007,0.0,CLE,5.9,17.6
24.0,1.1,2.8,104.0,8.0,0.543,2.8,5.2,0.0,0.0,0.1,0.532,2.8,5.3,0.483,3.2,6.5,56.0,0.0,NBA,472.0,116.0,7.8,9.9,PF,8.8,2008,1.1,CLE,1.9,15.8
25.0,0.0,1.0,110.0,6.3,0.571,4.2,7.3,0.0,0.0,0.0,0.571,4.2,7.3,0.667,4.2,6.3,6.0,0.0,NBA,52.0,102.0,6.3,6.3,PF,12.5,2009,0.0,CHA,4.2,12.5
26.0,0.0,0.0,108.0,14.4,0.0,0.0,0.0,0.0,0.0,0.0,0.0,0.0,0.0,0.0,0.0,0.0,2.0,0.0,NBA,7.0,0.0,0.0,7.2,PF,0.0,2010,0.0,PHO,0.0,14.4
