age,ast_pct,blk_pct,bpm,bpm-dum,dbpm,drb_pct,dws,fg3a_per_fga_pct,fta_per_fga_pct,g,lg_id,mp,obpm,orb_pct,ows,per,pos,season,stl_pct,team_id,tov_pct,trb_pct,ts_pct,usg_pct,vorp,ws,ws-dum,ws_per_48
23.0,5.3,0.5,-4.1,0.0,-1.2,15.9,0.7,0.0,0.279,56.0,NBA,803.0,-2.9,8.5,0.4,9.1,PF,1989,1.2,POR,12.9,12.1,0.505,15.3,-0.4,1.1,0.0,0.063
24.0,3.0,1.0,-3.1,0.0,0.3,18.0,0.9,0.0,0.327,58.0,NBA,562.0,-3.4,10.3,0.2,9.1,PF,1990,1.5,POR,12.5,14.1,0.48,14.0,-0.2,1.0,0.0,0.088
25.0,4.5,0.9,-1.9,0.0,-0.1,17.5,1.1,0.005,0.498,53.0,NBA,781.0,-1.8,9.3,1.0,11.2,PF,1991,0.9,POR,11.8,13.5,0.55,14.6,0.0,2.1,0.0,0.129
26.0,6.8,0.6,-0.3,0.0,0.9,15.5,1.2,0.015,0.303,56.0,NBA,800.0,-1.2,11.9,0.9,11.3,PF,1992,1.6,POR,11.8,13.7,0.512,12.9,0.3,2.1,0.0,0.125
27.0,4.1,1.0,-2.0,0.0,0.0,15.5,1.8,0.003,0.4,80.0,NBA,1396.0,-2.0,10.0,1.5,11.2,C,1993,1.3,POR,13.0,12.7,0.547,14.7,0.0,3.2,0.0,0.111
28.0,3.5,1.3,-3.0,0.0,-0.2,15.6,1.4,0.003,0.271,79.0,NBA,1441.0,-2.8,8.5,0.9,9.9,C,1994,1.1,POR,13.3,11.9,0.514,14.0,-0.4,2.3,0.0,0.076
29.0,6.4,1.8,-1.5,0.0,0.7,19.1,1.0,0.01,0.328,49.0,NBA,658.0,-2.2,9.0,0.6,13.2,PF,1995,1.5,POR,15.1,13.8,0.555,16.6,0.1,1.6,0.0,0.116
30.0,5.2,0.9,-2.8,0.0,-1.2,15.3,1.4,0.004,0.397,71.0,NBA,1587.0,-1.6,9.6,2.1,13.1,PF,1996,1.0,HOU,14.0,12.5,0.583,17.3,-0.3,3.6,0.0,0.107
31.0,7.2,0.4,-1.1,0.0,-0.5,16.5,0.7,0.0,0.393,41.0,NBA,1018.0,-0.6,7.7,1.6,13.3,PF,1997,1.1,PHO,12.5,12.2,0.589,16.3,0.2,2.3,0.0,0.109
32.0,6.0,1.0,-1.1,0.0,1.0,15.6,1.6,0.004,0.422,70.0,NBA,1110.0,-2.1,9.9,1.0,10.2,C,1998,1.7,PHO,17.9,12.8,0.545,13.3,0.2,2.5,0.0,0.109
33.0,8.0,1.0,-2.7,0.0,-0.3,14.4,1.0,0.003,0.316,45.0,NBA,1204.0,-2.4,8.6,0.5,12.1,PF,1999,1.5,CHI,14.6,11.4,0.513,18.1,-0.2,1.5,0.0,0.06
34.0,5.5,1.3,-2.0,0.0,0.6,14.9,1.4,0.0,0.272,75.0,NBA,1712.0,-2.6,8.1,1.0,8.9,PF,2000,0.9,CLE,18.3,11.5,0.547,12.0,0.0,2.4,0.0,0.067
35.0,4.2,1.4,-6.6,0.0,-0.5,18.3,0.1,0.0,0.25,18.0,NBA,101.0,-6.2,4.5,-0.1,2.1,PF,2001,0.5,DAL,18.4,11.6,0.428,12.2,-0.1,0.0,0.0,0.005
36.0,7.9,0.7,-0.1,0.0,0.5,10.3,0.3,0.0,0.145,30.0,NBA,206.0,-0.5,14.4,0.3,11.5,PF,2002,1.8,SAS,9.3,12.3,0.478,14.6,0.1,0.6,0.0,0.133
37.0,5.9,0.8,-9.7,0.0,-1.5,14.3,0.1,0.0,0.211,16.0,NBA,100.0,-8.2,9.2,-0.2,0.4,PF,2003,0.5,TOT,25.2,11.7,0.313,12.5,-0.2,-0.1,0.0,-0.068
37.0,1.9,1.0,-9.3,0.0,-1.8,14.0,0.1,0.0,0.118,11.0,NBA,77.0,-7.5,10.5,-0.1,1.5,PF,2003,0.7,PHI,21.9,12.2,0.336,13.3,-0.1,-0.1,0.0,-0.057
37.0,21.0,0.0,-12.1,0.0,-1.4,8.7,0.0,0.0,2.0,3.0,NBA,14.0,-10.7,7.9,-0.1,-5.0,PF,2003,0.0,DEN,51.5,8.3,0.266,12.3,0.0,0.0,0.0,-0.161
37.0,16.3,0.0,-9.8,0.0,0.6,25.9,0.0,0.0,0.0,2.0,NBA,9.0,-10.4,0.0,0.0,-1.1,PF,2003,0.0,BOS,0.0,12.6,0.0,5.2,0.0,0.0,0.0,-0.019
