age,ast,blk,drb,efg_pct,fg,fg2,fg2_pct,fg2a,fg3,fg3_pct,fg3a,fg_pct,fga,ft,ft_pct,fta,g,gs,lg_id,mp,orb,pf,pos,pts,season,stl,team_id,tov,trb
23.0,33.0,7.0,114.0,0.486,120.0,120.0,0.486,247.0,0.0,0.0,0.0,0.486,247.0,40.0,0.58,69.0,56.0,32.0,NBA,803.0,65.0,144.0,PF,280.0,1989,20.0,POR,41.0,179.0
24.0,13.0,9.0,92.0,0.458,70.0,70.0,0.458,153.0,0.0,0.0,0.0,0.458,153.0,28.0,0.56,50.0,58.0,0.0,NBA,562.0,54.0,93.0,PF,168.0,1990,18.0,POR,25.0,146.0
25.0,27.0,12.0,125.0,0.488,99.0,99.0,0.49,202.0,0.0,0.0,1.0,0.488,203.0,74.0,0.733,101.0,53.0,0.0,NBA,781.0,65.0,120.0,PF,272.0,1991,15.0,POR,33.0,190.0
26.0,41.0,8.0,114.0,0.48,95.0,95.0,0.487,195.0,0.0,0.0,3.0,0.48,198.0,40.0,0.667,60.0,56.0,0.0,NBA,800.0,87.0,105.0,PF,230.0,1992,26.0,POR,30.0,201.0
27.0,41.0,23.0,192.0,0.503,186.0,186.0,0.504,369.0,0.0,0.0,1.0,0.503,370.0,104.0,0.703,148.0,80.0,24.0,NBA,1396.0,132.0,226.0,C,476.0,1993,37.0,POR,65.0,324.0
28.0,37.0,29.0,198.0,0.482,185.0,185.0,0.483,383.0,0.0,0.0,1.0,0.482,384.0,72.0,0.692,104.0,79.0,10.0,NBA,1441.0,117.0,187.0,C,442.0,1994,32.0,POR,66.0,315.0
29.0,28.0,16.0,106.0,0.529,101.0,100.0,0.526,190.0,1.0,0.5,2.0,0.526,192.0,41.0,0.651,63.0,49.0,0.0,NBA,658.0,55.0,109.0,PF,244.0,1995,19.0,POR,39.0,161.0
30.0,52.0,19.0,220.0,0.543,242.0,242.0,0.545,444.0,0.0,0.0,2.0,0.543,446.0,127.0,0.718,177.0,71.0,9.0,NBA,1587.0,131.0,234.0,PF,611.0,1996,31.0,HOU,85.0,351.0
31.0,47.0,5.0,145.0,0.553,152.0,152.0,0.553,275.0,0.0,0.0,0.0,0.553,275.0,76.0,0.704,108.0,41.0,18.0,NBA,1018.0,67.0,136.0,PF,380.0,1997,22.0,PHO,46.0,212.0
32.0,46.0,15.0,152.0,0.484,109.0,109.0,0.487,224.0,0.0,0.0,1.0,0.484,225.0,73.0,0.768,95.0,70.0,22.0,NBA,1110.0,92.0,180.0,C,291.0,1998,36.0,PHO,58.0,244.0
33.0,48.0,16.0,140.0,0.483,168.0,168.0,0.484,347.0,0.0,0.0,1.0,0.483,348.0,71.0,0.645,110.0,45.0,29.0,NBA,1204.0,92.0,149.0,PF,407.0,1999,34.0,CHI,68.0,232.0
34.0,61.0,31.0,226.0,0.503,174.0,174.0,0.503,346.0,0.0,0.0,0.0,0.503,346.0,76.0,0.809,94.0,75.0,50.0,NBA,1712.0,126.0,250.0,PF,424.0,2000,31.0,CLE,87.0,352.0
35.0,3.0,2.0,17.0,0.4,8.0,8.0,0.4,20.0,0.0,0.0,0.0,0.4,20.0,3.0,0.6,5.0,18.0,1.0,NBA,101.0,4.0,29.0,PF,19.0,2001,1.0,DAL,5.0,21.0
36.0,10.0,2.0,19.0,0.455,25.0,25.0,0.455,55.0,0.0,0.0,0.0,0.455,55.0,6.0,0.75,8.0,30.0,3.0,NBA,206.0,25.0,38.0,PF,56.0,2002,7.0,SAS,6.0,44.0
37.0,4.0,1.0,12.0,0.263,5.0,5.0,0.263,19.0,0.0,0.0,0.0,0.263,19.0,3.0,0.75,4.0,16.0,0.0,NBA,100.0,8.0,18.0,PF,13.0,2003,1.0,TOT,7.0,20.0
37.0,1.0,1.0,9.0,0.294,5.0,5.0,0.294,17.0,0.0,0.0,0.0,0.294,17.0,2.0,1.0,2.0,11.0,0.0,NBA,77.0,7.0,12.0,PF,12.0,2003,1.0,PHI,5.0,16.0
37.0,2.0,0.0,1.0,0.0,0.0,0.0,0.0,1.0,0.0,0.0,0.0,0.0,1.0,1.0,0.5,2.0,3.0,0.0,NBA,14.0,1.0,4.0,PF,1.0,2003,0.0,DEN,2.0,2.0
37.0,1.0,0.0,2.0,0.0,0.0,0.0,0.0,1.0,0.0,0.0,0.0,0.0,1.0,0.0,0.0,0.0,2.0,0.0,NBA,9.0,0.0,2.0,PF,0.0,2003,0.0,BOS,0.0,2.0
