age,ast,ast_per_g,blk,college_id,fg,fg3,fg3_pct,fg3a,fg_pct,fga,ft,ft_pct,fta,g,mp,mp_per_g,orb,pf,pts,pts_per_g,season,stl,tov,trb,trb_per_g
18.0,85.0,2.7,14.0,MARQUETTE,138.0,13.0,0.283,46.0,0.442,312.0,54.0,0.75,72.0,31.0,0.0,0.0,0.0,0.0,343.0,11.1,2006,64.0,0.0,140.0,4.5
19.0,109.0,3.8,16.0,MARQUETTE,154.0,30.0,0.313,96.0,0.417,369.0,88.0,0.682,129.0,29.0,0.0,0.0,0.0,0.0,426.0,14.7,2007,76.0,0.0,138.0,4.8
20.0,124.0,3.5,15.0,MARQUETTE,198.0,35.0,0.304,115.0,0.456,434.0,92.0,0.702,131.0,35.0,0.0,0.0,0.0,0.0,523.0,14.9,2008,76.0,98.0,171.0,4.9
21.0,137.0,3.9,21.0,MARQUETTE,236.0,86.0,0.398,216.0,0.442,534.0,135.0,0.738,183.0,35.0,0.0,0.0,0.0,0.0,693.0,19.8,2009,71.0,103.0,159.0,4.5
