article_url,date,headline
https://oldnorthbanter.com/2019/11/13/hornets-grizzlies-similar-situations/,2019/11/13,"Old North Banter: Hornets, Grizzlies meet in similar situations"
https://swarmandsting.com/2019/11/12/charlotte-hornets-just-trade-michael-kidd-gilchrist/,2019/11/12,Swarm and Sting: Should the Charlotte Hornets just trade Michael Kidd-Gilchrist?
https://swarmandsting.com/2019/10/27/charlotte-hornets-size-frontcourt-problem/,2019/10/27,Swarm and Sting: Charlotte Hornets: Team's size in frontcourt is proving to be a problem
