lg_id,salary,season,team_name
NBA,1330000.0,1990,Chicago Bulls
NBA,1000000.0,1991,Chicago Bulls
NBA,1100000.0,1992,Chicago Bulls
NBA,1400000.0,1993,Chicago Bulls
NBA,1600000.0,1994,Chicago Bulls
NBA,1900000.0,1995,Minnesota Timberwolves
NBA,600000.0,1996,Miami Heat
NBA,100000.0,1998,Sacramento Kings
