age,ast,blk,drb,fg,fg2,fg2a,fg3,fg3a,fga,ft,fta,game_score,lg_id,mp,orb,pf,pts,season,stl,team_id,tov,trb
23.0,2.0,3.0,7.0,9.0,9.0,15.0,0.0,1.0,15.0,7.0,8.0,15.5,NBA,0.0,3.0,5.0,21.0,1990,2.0,CHI,3.0,9.0
24.0,1.0,1.0,4.0,2.0,2.0,5.0,0.0,1.0,5.0,2.0,5.0,3.5,NBA,0.0,3.0,4.0,4.0,1991,1.0,CHI,3.0,5.0
25.0,2.0,1.0,3.0,5.0,5.0,10.0,1.0,1.0,10.0,3.0,6.0,11.3,NBA,0.0,2.0,4.0,13.0,1992,1.0,CHI,2.0,4.0
26.0,3.0,2.0,3.0,3.0,3.0,7.0,0.0,0.0,7.0,5.0,6.0,6.8,NBA,0.0,4.0,4.0,9.0,1993,2.0,CHI,2.0,6.0
29.0,1.0,0.0,3.0,0.0,0.0,3.0,0.0,0.0,3.0,1.0,2.0,-0.3,NBA,0.0,0.0,1.0,1.0,1996,0.0,MIA,0.0,3.0
