age,ast_per_g,blk_per_g,drb_per_g,efg_pct,fg2_pct,fg2_per_g,fg2a_per_g,fg3_pct,fg3_per_g,fg3a_per_g,fg_pct,fg_per_g,fga_per_g,ft_pct,ft_per_g,fta_per_g,g,gs,lg_id,mp_per_g,orb_per_g,pf_per_g,pos,pts_per_g,season,stl_per_g,team_id,tov_per_g,trb_per_g
24.0,0.7,0.2,1.1,0.412,0.404,0.9,2.2,0.283,0.4,1.4,0.357,1.3,3.7,0.786,0.8,1.0,42.0,0.0,NBA,10.0,0.5,1.0,SF,3.8,2011,0.3,MIN,0.5,1.7
25.0,0.2,0.0,0.5,0.395,0.375,0.3,0.9,0.286,0.2,0.5,0.342,0.5,1.5,0.583,0.3,0.5,26.0,0.0,NBA,5.4,0.1,0.7,SF,1.4,2012,0.1,OKC,0.3,0.6
26.0,0.8,0.0,1.0,0.2,0.333,0.5,1.5,0.0,0.0,1.0,0.2,0.5,2.5,1.0,1.5,1.5,4.0,0.0,NBA,7.8,0.0,0.8,SF,2.5,2013,0.5,MIN,0.0,1.0
