age,ast_per_poss,blk_per_poss,def_rtg,drb_per_poss,fg2_pct,fg2_per_poss,fg2a_per_poss,fg3_pct,fg3_per_poss,fg3a_per_poss,fg_pct,fg_per_poss,fga_per_poss,ft_pct,ft_per_poss,fta_per_poss,g,gs,lg_id,mp,off_rtg,orb_per_poss,pf_per_poss,pos,pts_per_poss,season,stl_per_poss,team_id,tov_per_poss,trb_per_poss
24.0,3.3,0.8,112.0,5.6,0.404,4.5,11.2,0.283,2.0,7.1,0.357,6.5,18.3,0.786,3.9,5.0,42.0,0.0,NBA,419.0,101.0,2.7,5.2,SF,19.0,2011,1.4,MIN,2.3,8.3
25.0,1.5,0.4,107.0,5.1,0.375,3.3,8.8,0.286,1.5,5.1,0.342,4.8,13.9,0.583,2.6,4.4,26.0,0.0,NBA,141.0,80.0,0.7,6.6,SF,13.5,2012,1.1,OKC,3.3,5.9
26.0,5.0,0.0,103.0,6.7,0.333,3.3,10.0,0.0,0.0,6.7,0.2,3.3,16.7,1.0,10.0,10.0,4.0,0.0,NBA,31.0,102.0,0.0,5.0,SF,16.7,2013,3.3,MIN,0.0,6.7
