age,ast_per_mp,blk_per_mp,drb_per_mp,fg2_pct,fg2_per_mp,fg2a_per_mp,fg3_pct,fg3_per_mp,fg3a_per_mp,fg_pct,fg_per_mp,fga_per_mp,ft_pct,ft_per_mp,fta_per_mp,g,gs,lg_id,mp,orb_per_mp,pf_per_mp,pos,pts_per_mp,season,stl_per_mp,team_id,tov_per_mp,trb_per_mp
20.0,2.0,1.0,5.4,0.553,3.7,6.6,0.325,1.4,4.2,0.464,5.0,10.8,0.753,1.2,1.6,80.0,25.0,NBA,1696.0,1.4,2.4,SF,12.7,2019,1.2,CHO,1.1,6.9
21.0,2.0,0.7,4.2,0.577,4.0,6.9,0.389,1.9,4.8,0.5,5.8,11.6,0.643,1.2,1.9,8.0,8.0,NBA,272.0,1.5,2.3,SF,14.7,2020,0.3,CHO,2.8,5.7
