age,ast_per_poss,blk_per_poss,def_rtg,drb_per_poss,fg2_pct,fg2_per_poss,fg2a_per_poss,fg3_pct,fg3_per_poss,fg3a_per_poss,fg_pct,fg_per_poss,fga_per_poss,ft_pct,ft_per_poss,fta_per_poss,g,gs,lg_id,mp,off_rtg,orb_per_poss,pf_per_poss,pos,pts_per_poss,season,stl_per_poss,team_id,tov_per_poss,trb_per_poss
20.0,2.7,1.4,112.0,7.3,0.553,4.9,8.9,0.325,1.9,5.7,0.464,6.8,14.7,0.753,1.7,2.2,80.0,25.0,NBA,1696.0,111.0,1.9,3.2,SF,17.1,2019,1.6,CHO,1.4,9.3
21.0,2.6,0.9,113.0,5.6,0.577,5.3,9.1,0.389,2.5,6.3,0.5,7.7,15.4,0.643,1.6,2.5,8.0,8.0,NBA,272.0,102.0,1.9,3.0,SF,19.5,2020,0.4,CHO,3.7,7.5
