age,ast,blk,drb,efg_pct,fg,fg2,fg2_pct,fg2a,fg3,fg3_pct,fg3a,fg_pct,fga,ft,ft_pct,fta,g,gs,lg_id,mp,orb,pf,pos,pts,season,stl,team_id,tov,trb
23.0,0.0,0.0,0.0,0.25,1.0,1.0,0.25,4.0,0.0,0.0,0.0,0.25,4.0,0.0,0.0,0.0,3.0,0.0,NBA,6.0,0.0,1.0,SF,2.0,2008,0.0,ATL,0.0,0.0
24.0,0.0,0.0,0.0,0.0,0.0,0.0,0.0,1.0,0.0,0.0,0.0,0.0,1.0,0.0,0.0,0.0,1.0,0.0,NBA,2.0,0.0,0.0,SF,0.0,2009,0.0,ORL,1.0,0.0
