age,and1s,astd_pts,drawn_offensive,drawn_shooting,fouls_offensive,fouls_shooting,g,lg_id,mp,own_shots_blk,pct_1,pct_2,pct_3,pct_4,pct_5,plus_minus_net,plus_minus_on,pos,season,team_id,tov_bad_pass,tov_lost_ball
22.0,0.0,0.0,0.0,0.0,0.0,1.0,6.0,NBA,20.0,0.0,24.0,71.0,5.0,0.0,0.0,13.4,8.2,SG-SF,2007,TOT,1.0,0.0
22.0,0.0,0.0,0.0,0.0,0.0,1.0,5.0,NBA,19.0,0.0,26.0,75.0,0.0,0.0,0.0,-2.2,-7.5,SG,2007,ATL,1.0,0.0
22.0,0.0,0.0,0.0,0.0,0.0,0.0,1.0,NBA,1.0,0.0,0.0,0.0,100.0,0.0,0.0,305.1,300.0,SF,2007,POR,0.0,0.0
23.0,0.0,5.0,0.0,1.0,1.0,8.0,27.0,NBA,132.0,1.0,0.0,46.0,47.0,7.0,0.0,-23.4,-24.4,SG-SF,2008,TOT,1.0,4.0
23.0,0.0,3.0,0.0,0.0,0.0,1.0,3.0,NBA,15.0,0.0,0.0,0.0,100.0,0.0,0.0,-62.2,-68.7,SF,2008,MEM,0.0,1.0
23.0,0.0,2.0,0.0,1.0,0.0,2.0,5.0,NBA,29.0,1.0,0.0,100.0,0.0,0.0,0.0,-41.6,-35.9,SG,2008,SAS,0.0,0.0
23.0,0.0,0.0,0.0,0.0,1.0,5.0,19.0,NBA,88.0,0.0,0.0,36.0,54.0,10.0,0.0,-12.5,-14.2,SF,2008,ATL,1.0,3.0
24.0,0.0,9.0,0.0,2.0,0.0,3.0,12.0,NBA,93.0,2.0,0.0,1.0,92.0,7.0,0.0,-28.8,-20.3,SF,2009,ORL,1.0,1.0
