age,ast_per_mp,blk_per_mp,drb_per_mp,fg2_pct,fg2_per_mp,fg2a_per_mp,fg3_pct,fg3_per_mp,fg3a_per_mp,fg_pct,fg_per_mp,fga_per_mp,ft_pct,ft_per_mp,fta_per_mp,g,gs,lg_id,mp,orb_per_mp,pf_per_mp,pos,pts_per_mp,season,stl_per_mp,team_id,tov_per_mp,trb_per_mp
24.0,0.0,0.0,0.0,0.833,11.3,13.5,0.0,0.0,4.5,0.625,11.3,18.0,1.0,15.8,15.8,4.0,0.0,NBA,16.0,0.0,2.3,PF,38.3,1990,2.3,BOS,2.3,0.0
25.0,6.0,0.0,0.0,1.0,6.0,6.0,0.0,0.0,6.0,0.5,6.0,12.0,0.0,0.0,0.0,2.0,0.0,NBA,6.0,0.0,12.0,PF,12.0,1991,0.0,BOS,0.0,0.0
