age,ast_per_g,blk_per_g,drb_per_g,efg_pct,fg2_pct,fg2_per_g,fg2a_per_g,fg3_pct,fg3_per_g,fg3a_per_g,fg_pct,fg_per_g,fga_per_g,ft_pct,ft_per_g,fta_per_g,g,gs,lg_id,mp_per_g,orb_per_g,pf_per_g,pos,pts_per_g,season,stl_per_g,team_id,tov_per_g,trb_per_g
24.0,1.2,0.0,0.9,0.479,0.519,2.1,4.0,0.071,0.0,0.4,0.476,2.1,4.4,0.828,0.8,1.0,65.0,7.0,NBA,9.5,0.6,0.8,PF,5.0,1990,0.1,BOS,0.8,1.5
25.0,0.9,0.0,0.7,0.49,0.506,1.9,3.7,0.25,0.1,0.5,0.475,2.0,4.3,0.815,0.5,0.6,47.0,3.0,NBA,8.3,0.4,0.6,PF,4.6,1991,0.1,BOS,0.8,1.2
29.0,0.7,0.1,1.5,0.474,0.492,2.1,4.3,0.125,0.0,0.3,0.47,2.2,4.6,0.867,0.9,1.0,29.0,0.0,NBA,11.0,0.4,1.4,PF,5.3,1995,0.2,LAC,0.6,1.9
