age,ast,blk,drb,fg,fg2,fg2a,fg3,fg3a,fga,ft,fta,game_score,lg_id,mp,orb,pf,pts,season,stl,team_id,tov,trb
24.0,7.0,0.0,3.0,10.0,9.0,19.0,1.0,2.0,21.0,4.0,5.0,18.2,NBA,0.0,1.0,5.0,24.0,1988,2.0,NYK,4.0,3.0
25.0,10.0,1.0,8.0,16.0,16.0,21.0,1.0,3.0,22.0,7.0,9.0,28.8,NBA,0.0,3.0,6.0,34.0,1989,4.0,NYK,5.0,11.0
26.0,8.0,1.0,4.0,12.0,12.0,19.0,1.0,2.0,20.0,4.0,6.0,22.1,NBA,0.0,5.0,4.0,24.0,1990,3.0,NYK,3.0,8.0
27.0,2.0,1.0,3.0,7.0,6.0,11.0,1.0,4.0,15.0,2.0,2.0,4.8,NBA,0.0,2.0,4.0,15.0,1991,3.0,NYK,4.0,5.0
28.0,5.0,1.0,4.0,8.0,8.0,14.0,1.0,5.0,16.0,3.0,5.0,14.9,NBA,0.0,4.0,5.0,19.0,1992,1.0,NYK,3.0,7.0
29.0,6.0,1.0,3.0,10.0,9.0,17.0,1.0,4.0,19.0,4.0,4.0,17.3,NBA,0.0,2.0,5.0,22.0,1993,3.0,CLE,3.0,5.0
30.0,7.0,0.0,6.0,9.0,7.0,14.0,4.0,6.0,18.0,8.0,8.0,22.8,NBA,0.0,2.0,5.0,28.0,1994,1.0,CLE,2.0,8.0
33.0,2.0,1.0,2.0,4.0,3.0,8.0,1.0,3.0,10.0,5.0,6.0,8.2,NBA,0.0,2.0,4.0,11.0,1997,0.0,ORL,1.0,3.0
