age,ast,blk,drb,efg_pct,fg,fg2,fg2_pct,fg2a,fg3,fg3_pct,fg3a,fg_pct,fga,ft,ft_pct,fta,g,gs,lg_id,mp,orb,pf,pos,pts,season,stl,team_id,tov,trb
25.0,4.0,7.0,16.0,0.5,20.0,20.0,0.5,40.0,0.0,0.0,0.0,0.5,40.0,6.0,0.462,13.0,5.0,0.0,NBA,133.0,13.0,13.0,PF,46.0,1988,3.0,CLE,4.0,29.0
26.0,10.0,7.0,27.0,0.467,21.0,21.0,0.467,45.0,0.0,0.0,0.0,0.467,45.0,13.0,0.722,18.0,5.0,2.0,NBA,161.0,7.0,12.0,PF,55.0,1989,2.0,CLE,11.0,34.0
27.0,11.0,5.0,32.0,0.557,39.0,39.0,0.557,70.0,0.0,0.0,0.0,0.557,70.0,17.0,0.773,22.0,5.0,0.0,NBA,174.0,14.0,23.0,PF,95.0,1990,2.0,CLE,7.0,46.0
29.0,42.0,17.0,80.0,0.545,84.0,84.0,0.545,154.0,0.0,0.0,0.0,0.545,154.0,87.0,0.798,109.0,17.0,0.0,NBA,567.0,50.0,58.0,C,255.0,1992,24.0,CLE,31.0,130.0
30.0,17.0,14.0,29.0,0.4,30.0,30.0,0.4,75.0,0.0,0.0,0.0,0.4,75.0,21.0,0.75,28.0,9.0,0.0,NBA,237.0,12.0,26.0,C,81.0,1993,5.0,CLE,11.0,41.0
32.0,11.0,3.0,22.0,0.286,12.0,12.0,0.293,41.0,0.0,0.0,1.0,0.286,42.0,3.0,0.375,8.0,4.0,4.0,NBA,144.0,3.0,11.0,PF,27.0,1995,9.0,CLE,10.0,25.0
33.0,1.0,7.0,15.0,0.438,14.0,14.0,0.438,32.0,0.0,0.0,0.0,0.438,32.0,8.0,0.667,12.0,4.0,4.0,NBA,115.0,11.0,17.0,C,36.0,1996,0.0,PHO,6.0,26.0
34.0,3.0,8.0,13.0,0.533,8.0,8.0,0.533,15.0,0.0,0.0,0.0,0.533,15.0,4.0,0.4,10.0,5.0,5.0,NBA,105.0,10.0,12.0,C,20.0,1997,2.0,PHO,5.0,23.0
35.0,1.0,2.0,2.0,0.286,2.0,2.0,0.286,7.0,0.0,0.0,0.0,0.286,7.0,2.0,0.667,3.0,3.0,0.0,NBA,33.0,2.0,8.0,C,6.0,1998,0.0,PHO,0.0,4.0
