age,ast_per_poss,blk_per_poss,def_rtg,drb_per_poss,fg2_pct,fg2_per_poss,fg2a_per_poss,fg3_pct,fg3_per_poss,fg3a_per_poss,fg_pct,fg_per_poss,fga_per_poss,ft_pct,ft_per_poss,fta_per_poss,g,gs,lg_id,mp,off_rtg,orb_per_poss,pf_per_poss,pos,pts_per_poss,season,stl_per_poss,team_id,tov_per_poss,trb_per_poss
22.0,8.3,0.2,106.0,3.9,0.448,8.0,17.8,0.0,0.0,0.7,0.432,8.0,18.5,0.762,3.2,4.2,68.0,3.0,NBA,990.0,89.0,0.8,3.7,PG,19.2,1983,2.7,CLE,5.9,4.8
23.0,9.6,0.1,110.0,3.1,0.432,7.3,17.0,0.118,0.1,0.5,0.423,7.4,17.5,0.793,4.5,5.7,76.0,19.0,NBA,1712.0,97.0,1.4,3.3,PG,19.4,1984,2.2,CLE,4.9,4.5
24.0,13.7,0.1,108.0,4.6,0.502,6.6,13.1,0.115,0.1,0.5,0.488,6.6,13.6,0.749,2.5,3.3,81.0,65.0,NBA,2401.0,108.0,1.1,2.6,PG,15.8,1985,2.5,CLE,4.1,5.7
25.0,14.0,0.2,109.0,3.8,0.431,6.8,15.8,0.243,0.2,0.7,0.423,7.0,16.5,0.791,3.2,4.1,78.0,77.0,NBA,2472.0,102.0,1.5,3.2,PG,17.4,1986,2.3,CLE,4.6,5.3
26.0,8.2,0.2,108.0,4.3,0.447,6.1,13.7,0.301,0.7,2.2,0.426,6.8,15.9,0.831,2.5,3.0,72.0,67.0,NBA,2182.0,101.0,1.2,2.5,PG,16.7,1987,2.0,CLE,3.5,5.5
27.0,8.4,0.2,111.0,3.4,0.471,6.1,12.9,0.292,0.8,2.8,0.439,6.9,15.7,0.822,2.6,3.2,82.0,74.0,NBA,2774.0,102.0,1.1,2.8,PG,17.2,1988,1.9,NJN,3.5,4.5
28.0,11.4,0.1,111.0,3.2,0.443,5.5,12.5,0.204,0.3,1.6,0.416,5.8,14.0,0.724,2.6,3.6,68.0,20.0,NBA,1642.0,96.0,1.1,3.4,PG,14.6,1989,2.1,NJN,4.6,4.2
29.0,13.2,0.2,111.0,2.8,0.495,4.4,8.9,0.056,0.0,0.8,0.459,4.5,9.7,0.744,1.3,1.7,54.0,17.0,NBA,1095.0,102.0,1.2,3.4,PG,10.3,1990,1.8,BOS,4.0,4.0
31.0,13.8,0.1,110.0,3.5,0.459,6.1,13.3,0.238,0.3,1.2,0.441,6.4,14.6,0.716,2.0,2.7,73.0,59.0,NBA,1742.0,102.0,1.1,3.5,PG,15.1,1992,1.6,BOS,4.3,4.6
32.0,10.4,0.0,112.0,3.1,0.375,4.7,12.5,0.0,0.0,0.5,0.36,4.7,13.0,0.833,2.6,3.1,10.0,0.0,NBA,97.0,70.0,0.5,5.7,PG,12.0,1993,1.0,BOS,8.9,3.6
33.0,11.8,0.0,109.0,3.9,0.0,0.0,7.8,0.0,0.0,0.0,0.0,0.0,7.8,1.0,7.8,7.8,3.0,0.0,NBA,13.0,121.0,0.0,7.8,PG,7.8,1994,0.0,ATL,0.0,3.9
