age,ast_per_mp,blk_per_mp,drb_per_mp,fg2_pct,fg2_per_mp,fg2a_per_mp,fg3_pct,fg3_per_mp,fg3a_per_mp,fg_pct,fg_per_mp,fga_per_mp,ft_pct,ft_per_mp,fta_per_mp,g,gs,lg_id,mp,orb_per_mp,pf_per_mp,pos,pts_per_mp,season,stl_per_mp,team_id,tov_per_mp,trb_per_mp
22.0,0.0,9.0,9.0,0.0,0.0,0.0,0.0,0.0,0.0,0.0,0.0,0.0,1.0,18.0,18.0,1.0,0.0,NBA,4.0,9.0,18.0,PF,18.0,1998,0.0,ATL,18.0,18.0
23.0,1.4,0.3,3.7,0.353,3.5,9.8,0.286,1.2,4.0,0.333,4.6,13.8,0.885,6.6,7.5,6.0,5.0,NBA,125.0,1.7,5.5,PF,17.0,1999,0.3,ATL,1.7,5.5
