age,ast,blk,drb,fg,fg2,fg2a,fg3,fg3a,fga,ft,fta,game_score,lg_id,mp,orb,pf,pts,season,stl,team_id,tov,trb
22.0,0.0,1.0,1.0,0.0,0.0,0.0,0.0,0.0,0.0,2.0,2.0,0.9,NBA,0.0,1.0,2.0,2.0,1998,0.0,ATL,2.0,2.0
23.0,2.0,1.0,5.0,7.0,4.0,9.0,3.0,5.0,14.0,9.0,11.0,14.8,NBA,0.0,2.0,6.0,26.0,1999,1.0,ATL,3.0,6.0
