age,ast,ast_per_g,blk,college_id,fg,fg3,fg3_pct,fg3a,fg_pct,fga,ft,ft_pct,fta,g,mp,mp_per_g,orb,pf,pts,pts_per_g,season,stl,tov,trb,trb_per_g
18.0,6.0,0.2,10.0,SYRACUSE,47.0,0.0,0.0,0.0,0.511,92.0,29.0,0.763,38.0,36.0,351.0,9.8,0.0,61.0,123.0,3.4,1989,5.0,25.0,63.0,1.8
19.0,9.0,0.3,15.0,SYRACUSE,40.0,0.0,0.0,0.0,0.43,93.0,17.0,0.739,23.0,31.0,387.0,12.5,0.0,54.0,97.0,3.1,1990,8.0,27.0,67.0,2.2
21.0,22.0,0.8,15.0,WASHINGTON,209.0,0.0,0.0,0.0,0.568,368.0,68.0,0.673,101.0,29.0,915.0,31.6,0.0,76.0,486.0,16.8,1992,19.0,63.0,176.0,6.1
22.0,34.0,1.4,29.0,WASHINGTON,187.0,1.0,0.25,4.0,0.575,325.0,72.0,0.8,90.0,25.0,776.0,31.0,0.0,57.0,447.0,17.9,1993,15.0,59.0,209.0,8.4
