age,ast_per_mp,blk_per_mp,drb_per_mp,fg2_pct,fg2_per_mp,fg2a_per_mp,fg3_pct,fg3_per_mp,fg3a_per_mp,fg_pct,fg_per_mp,fga_per_mp,ft_pct,ft_per_mp,fta_per_mp,g,gs,lg_id,mp,orb_per_mp,pf_per_mp,pos,pts_per_mp,season,stl_per_mp,team_id,tov_per_mp,trb_per_mp
25.0,0.8,0.7,4.5,0.438,5.7,13.0,0.0,0.0,0.1,0.434,5.7,13.1,0.643,1.0,1.6,29.0,0.0,NBA,311.0,1.9,4.3,PF,12.4,1996,0.3,VAN,2.0,6.4
26.0,0.5,0.4,4.1,0.385,5.4,14.0,0.5,0.4,0.7,0.39,5.7,14.7,0.643,1.6,2.5,26.0,2.0,NBA,201.0,2.9,5.2,PF,13.4,1997,0.7,TOT,1.3,7.0
26.0,0.6,0.3,4.2,0.356,4.5,12.7,0.667,0.6,0.8,0.375,5.1,13.5,0.75,1.7,2.3,16.0,1.0,NBA,128.0,2.3,5.1,PF,12.4,1997,0.8,VAN,1.4,6.5
26.0,0.5,0.5,3.9,0.424,6.9,16.3,0.0,0.0,0.5,0.412,6.9,16.8,0.5,1.5,3.0,10.0,1.0,NBA,73.0,3.9,5.4,PF,15.3,1997,0.5,LAC,1.0,7.9
