article_url,date,headline
https://kingjamesgospel.com/2019/11/08/cleveland-cavaliers-3-under-radar-bigs-target-2021-nba-draft/,2019/11/08,Right Down Euclid: 3 under-the-radar bigs for Cavs to target in the 2021 NBA Draft
https://kingjamesgospel.com/2019/11/07/cleveland-cavaliers-john-beilein-right-in-highlighting-how-3-game-road-trip-will-help-off-floor/,2019/11/07,Right Down Euclid: Cavs: John Beilein is right in highlighting how 3-game road trip will help team off floor
https://kingjamesgospel.com/2019/11/06/cleveland-cavaliers-stock-up-stock-down-so-far-to-begin-2019-20/,2019/11/06,"Right Down Euclid: Cavaliers: Stock Up, Stock Down so far to begin 2019-20"
https://kingjamesgospel.com/2019/11/06/cleveland-cavaliers-kevin-love-cedi-osman-two-man-game-reliable-one/,2019/11/06,Right Down Euclid: Cavs: Kevin Love-Cedi Osman two-man game is a reliable one
