age,ast_pct,blk_pct,bpm,bpm-dum,dbpm,drb_pct,dws,fg3a_per_fga_pct,fta_per_fga_pct,g,lg_id,mp,obpm,orb_pct,ows,per,pos,season,stl_pct,team_id,tov_pct,trb_pct,ts_pct,usg_pct,vorp,ws,ws-dum,ws_per_48
23.0,31.5,0.2,-8.4,0.0,-3.4,6.6,0.3,0.19,0.222,65.0,NBA,645.0,-5.0,2.3,-0.7,7.6,PG,1993,1.4,LAL,28.5,4.4,0.45,16.1,-1.0,-0.4,0.0,-0.031
24.0,27.9,0.0,-9.5,0.0,-4.4,5.7,0.0,0.171,0.366,23.0,NBA,136.0,-5.1,1.7,-0.2,7.9,PG,1994,1.1,PHO,29.6,3.7,0.504,20.8,-0.3,-0.1,0.0,-0.038
