age,ast_pct,blk_pct,bpm,bpm-dum,dbpm,drb_pct,dws,fg3a_per_fga_pct,fta_per_fga_pct,g,lg_id,mp,obpm,orb_pct,ows,per,pos,season,stl_pct,team_id,tov_pct,trb_pct,ts_pct,usg_pct,vorp,ws,ws-dum,ws_per_48
20.0,4.9,0.8,-2.8,0.0,-1.9,10.9,0.3,0.031,0.379,77.0,NBA,1664.0,-0.9,4.8,2.0,12.5,SG,2010,1.3,TOR,9.4,7.9,0.554,18.1,-0.3,2.3,0.0,0.066
21.0,8.6,0.8,-2.4,0.0,-1.9,10.2,0.5,0.045,0.348,82.0,NBA,2851.0,-0.6,3.0,2.8,14.5,SG,2011,1.5,TOR,9.8,6.5,0.53,23.2,-0.3,3.2,0.0,0.055
22.0,10.8,0.6,-2.8,0.0,-1.5,9.0,1.4,0.102,0.367,63.0,NBA,2206.0,-1.4,2.1,1.1,12.8,SG,2012,1.2,TOR,10.5,5.6,0.503,25.0,-0.5,2.5,0.0,0.054
23.0,12.0,0.6,-1.9,0.0,-1.4,10.9,1.6,0.097,0.347,82.0,NBA,3013.0,-0.5,1.9,3.1,14.7,SG,2013,1.3,TOR,9.6,6.3,0.523,24.2,0.0,4.7,0.0,0.075
24.0,18.9,0.7,0.7,0.0,-0.7,11.3,3.0,0.149,0.448,79.0,NBA,3017.0,1.4,2.0,5.8,18.4,SG,2014,1.5,TOR,9.5,6.6,0.532,28.0,2.0,8.8,0.0,0.141
25.0,17.0,0.4,-1.6,0.0,-1.4,12.9,1.4,0.089,0.438,60.0,NBA,2100.0,-0.2,2.3,2.6,17.4,SG,2015,1.8,TOR,10.4,7.6,0.51,28.4,0.2,4.0,0.0,0.09
26.0,20.8,0.6,1.4,0.0,-1.2,11.5,2.4,0.101,0.474,78.0,NBA,2804.0,2.7,2.7,7.5,21.5,SG,2016,1.5,TOR,9.5,7.1,0.55,29.8,2.4,9.9,0.0,0.169
27.0,20.6,0.4,0.9,0.0,-1.5,13.6,2.4,0.08,0.419,74.0,NBA,2620.0,2.4,3.0,6.7,24.0,SG,2017,1.5,TOR,9.0,8.3,0.552,34.3,1.9,9.0,0.0,0.166
28.0,25.0,0.6,1.8,0.0,-0.9,10.4,2.8,0.203,0.396,80.0,NBA,2711.0,2.7,2.5,6.8,21.0,SG,2018,1.5,TOR,9.5,6.5,0.555,29.6,2.6,9.6,0.0,0.17
29.0,27.6,1.1,0.9,0.0,0.5,16.4,2.6,0.034,0.336,77.0,NBA,2688.0,0.4,2.2,3.6,19.6,SG,2019,1.6,SAS,11.7,9.4,0.542,27.9,2.0,6.3,0.0,0.112
30.0,22.0,1.4,-0.9,0.0,0.0,14.4,0.3,0.016,0.369,8.0,NBA,270.0,-0.9,1.5,0.2,17.9,SG,2020,1.6,SAS,17.0,7.8,0.564,26.1,0.1,0.5,0.0,0.093
