age,ast,blk,drb,efg_pct,fg,fg2,fg2_pct,fg2a,fg3,fg3_pct,fg3a,fg_pct,fga,ft,ft_pct,fta,g,gs,lg_id,mp,orb,pf,pos,pts,season,stl,team_id,tov,trb
20.0,53.0,18.0,157.0,0.502,255.0,251.0,0.506,496.0,4.0,0.25,16.0,0.498,512.0,148.0,0.763,194.0,77.0,65.0,NBA,1664.0,66.0,176.0,SG,662.0,2010,43.0,TOR,62.0,223.0
21.0,148.0,31.0,240.0,0.469,539.0,534.0,0.485,1102.0,5.0,0.096,52.0,0.467,1154.0,327.0,0.813,402.0,82.0,82.0,NBA,2851.0,75.0,217.0,SG,1410.0,2011,85.0,TOR,144.0,315.0
22.0,128.0,17.0,171.0,0.435,381.0,357.0,0.44,811.0,24.0,0.261,92.0,0.422,903.0,268.0,0.81,331.0,63.0,63.0,NBA,2206.0,40.0,162.0,SG,1054.0,2012,48.0,TOR,123.0,211.0
23.0,204.0,24.0,272.0,0.459,548.0,514.0,0.463,1111.0,34.0,0.283,120.0,0.445,1231.0,355.0,0.831,427.0,82.0,82.0,NBA,3013.0,48.0,173.0,SG,1485.0,2013,76.0,TOR,151.0,320.0
24.0,313.0,28.0,292.0,0.452,604.0,540.0,0.451,1197.0,64.0,0.305,210.0,0.429,1407.0,519.0,0.824,630.0,79.0,79.0,NBA,3017.0,51.0,197.0,SG,1791.0,2014,86.0,TOR,176.0,343.0
25.0,210.0,11.0,236.0,0.426,409.0,384.0,0.426,902.0,25.0,0.284,88.0,0.413,990.0,361.0,0.832,434.0,60.0,60.0,NBA,2100.0,41.0,122.0,SG,1204.0,2015,73.0,TOR,137.0,277.0
26.0,315.0,21.0,285.0,0.463,614.0,567.0,0.458,1238.0,47.0,0.338,139.0,0.446,1377.0,555.0,0.85,653.0,78.0,78.0,NBA,2804.0,64.0,167.0,SG,1830.0,2016,81.0,TOR,175.0,349.0
27.0,290.0,13.0,316.0,0.477,721.0,688.0,0.484,1421.0,33.0,0.266,124.0,0.467,1545.0,545.0,0.842,647.0,74.0,74.0,NBA,2620.0,70.0,134.0,SG,2020.0,2017,78.0,TOR,180.0,386.0
28.0,417.0,22.0,256.0,0.488,645.0,556.0,0.494,1126.0,89.0,0.31,287.0,0.456,1413.0,461.0,0.825,559.0,80.0,80.0,NBA,2711.0,59.0,151.0,SG,1840.0,2018,85.0,TOR,175.0,315.0
29.0,475.0,36.0,408.0,0.483,631.0,624.0,0.492,1268.0,7.0,0.156,45.0,0.481,1313.0,366.0,0.83,441.0,77.0,77.0,NBA,2688.0,54.0,177.0,SG,1635.0,2019,86.0,SAS,199.0,462.0
30.0,38.0,5.0,36.0,0.516,63.0,63.0,0.525,120.0,0.0,0.0,2.0,0.516,122.0,34.0,0.756,45.0,8.0,8.0,NBA,270.0,4.0,17.0,SG,160.0,2020,9.0,SAS,29.0,40.0
