age,ast_per_g,blk_per_g,drb_per_g,efg_pct,fg2_pct,fg2_per_g,fg2a_per_g,fg3_pct,fg3_per_g,fg3a_per_g,fg_pct,fg_per_g,fga_per_g,ft_pct,ft_per_g,fta_per_g,g,gs,lg_id,mp_per_g,orb_per_g,pf_per_g,pos,pts_per_g,season,stl_per_g,team_id,tov_per_g,trb_per_g
24.0,3.6,0.3,3.7,0.41,0.394,5.6,14.1,0.333,0.9,2.6,0.385,6.4,16.7,0.899,10.1,11.3,7.0,7.0,NBA,40.3,0.4,3.3,SG,23.9,2014,1.1,TOR,2.6,4.1
25.0,5.8,0.0,5.0,0.419,0.403,7.3,18.0,0.375,0.8,2.0,0.4,8.0,20.0,0.824,3.5,4.3,4.0,4.0,NBA,39.8,1.3,3.0,SG,20.3,2015,1.5,TOR,2.5,6.3
26.0,2.7,0.2,3.5,0.399,0.411,7.7,18.6,0.154,0.2,1.3,0.394,7.9,19.9,0.813,5.0,6.2,20.0,20.0,NBA,37.3,0.7,2.6,SG,20.9,2016,1.1,TOR,2.3,4.2
27.0,3.4,0.0,4.5,0.437,0.469,7.5,16.0,0.067,0.1,1.5,0.434,7.6,17.5,0.888,7.1,8.0,10.0,10.0,NBA,37.3,0.4,2.6,SG,22.4,2017,1.4,TOR,2.5,4.9
28.0,4.0,0.6,3.0,0.462,0.47,7.7,16.4,0.286,1.0,3.5,0.437,8.7,19.9,0.811,4.3,5.3,10.0,10.0,NBA,35.4,0.6,2.4,SG,22.7,2018,0.5,TOR,2.3,3.6
29.0,4.6,0.1,5.3,0.487,0.492,8.3,16.9,0.0,0.0,0.1,0.487,8.3,17.0,0.864,5.4,6.3,7.0,7.0,NBA,35.9,1.4,2.3,SG,22.0,2019,1.1,SAS,1.7,6.7
