article_url,date,headline
https://airalamo.com/2019/11/07/rapid-reaction-spurs-avoid-losing-streak-beat-thunder/,2019/11/07,"Air Alamo: Rapid Reaction: Spurs avoid losing streak, beat Thunder 121-112"
https://www.hoopsrumors.com/2019/11/2019-offseason-in-review-toronto-raptors.html,2019/11/20,HoopsRumors: 2019 Offseason In Review: Toronto Raptors
https://thunderousintentions.com/2019/11/07/preview-okc-thunder-san-antonio-spurs/,2019/11/07,Thunderous Intentions: Streaks are on the line as OKC Thunder face San Antonio Spurs
