lg_id,salary,season,team_name
NBA,2323080.0,2008,Golden State Warriors
NBA,2497320.0,2009,Golden State Warriors
NBA,2671440.0,2010,Golden State Warriors
NBA,3398072.0,2011,New Jersey Nets
NBA,5000000.0,2014,Dallas Mavericks
NBA,5000000.0,2015,Phoenix Suns
NBA,5500000.0,2016,Memphis Grizzlies
NBA,5700000.0,2017,Memphis Grizzlies
NBA,5179760.0,2018,Memphis Grizzlies
NBA,490461.0,2018,Houston Rockets
