age,ast_per_g,blk_per_g,drb_per_g,efg_pct,fg2_pct,fg2_per_g,fg2a_per_g,fg3_pct,fg3_per_g,fg3a_per_g,fg_pct,fg_per_g,fga_per_g,ft_pct,ft_per_g,fta_per_g,g,gs,lg_id,mp_per_g,orb_per_g,pf_per_g,pos,pts_per_g,season,stl_per_g,team_id,tov_per_g,trb_per_g
19.0,1.1,0.4,1.4,0.34,0.324,1.0,3.0,0.243,0.5,1.9,0.293,1.4,4.9,0.738,0.6,0.8,81.0,16.0,NBA,16.3,0.8,1.7,SF,3.9,2003,0.4,DEN,1.0,2.2
20.0,0.3,0.2,1.0,0.34,0.333,0.9,2.8,0.273,0.1,0.3,0.328,1.0,3.1,0.793,0.6,0.7,39.0,0.0,NBA,7.9,0.6,1.3,PF,2.7,2004,0.2,DEN,0.4,1.6
21.0,0.3,0.3,0.8,0.311,0.351,0.6,1.6,0.118,0.1,0.5,0.297,0.6,2.1,0.571,0.1,0.2,35.0,0.0,NBA,6.3,0.3,0.9,PF,1.4,2005,0.2,TOT,0.5,1.2
21.0,0.2,0.3,0.8,0.294,0.341,0.7,1.9,0.0,0.0,0.3,0.294,0.7,2.2,0.571,0.2,0.3,23.0,0.0,NBA,6.9,0.5,1.0,PF,1.5,2005,0.3,DEN,0.6,1.3
21.0,0.5,0.3,0.9,0.348,0.385,0.4,1.1,0.2,0.2,0.8,0.304,0.6,1.9,0.0,0.0,0.0,12.0,0.0,NBA,5.2,0.1,0.8,PF,1.3,2005,0.0,GSW,0.4,1.0
22.0,0.2,0.1,0.8,0.365,0.353,0.7,2.0,0.333,0.1,0.2,0.351,0.8,2.2,0.643,0.5,0.8,17.0,0.0,NBA,5.8,0.5,0.5,SF-PF,2.1,2006,0.1,TOT,0.4,1.3
22.0,0.0,0.0,0.4,0.25,0.25,0.2,0.8,0.0,0.0,0.0,0.25,0.2,0.8,0.5,0.2,0.4,5.0,0.0,NBA,2.6,0.0,0.0,PF,0.6,2006,0.0,MIN,0.4,0.4
22.0,0.3,0.2,0.9,0.379,0.367,0.9,2.5,0.333,0.1,0.3,0.364,1.0,2.8,0.667,0.7,1.0,12.0,0.0,NBA,7.2,0.8,0.7,SF,2.8,2006,0.1,PHO,0.3,1.7
