age,and1s,astd_pts,drawn_offensive,drawn_shooting,fouls_offensive,fouls_shooting,g,lg_id,mp,own_shots_blk,pct_1,pct_2,pct_3,pct_4,pct_5,plus_minus_net,plus_minus_on,pos,season,team_id,tov_bad_pass,tov_lost_ball
19.0,2.0,192.0,0.0,28.0,7.0,71.0,81.0,NBA,1320.0,26.0,0.0,0.0,73.0,27.0,1.0,-0.4,-9.7,SF,2003,DEN,30.0,27.0
20.0,1.0,23.0,0.0,14.0,4.0,26.0,39.0,NBA,307.0,4.0,0.0,0.0,0.0,60.0,40.0,-8.4,-6.8,PF,2004,DEN,4.0,4.0
21.0,1.0,22.0,0.0,4.0,2.0,19.0,35.0,NBA,220.0,2.0,0.0,0.0,2.0,63.0,35.0,-9.5,-9.4,PF,2005,TOT,4.0,9.0
21.0,1.0,8.0,0.0,4.0,2.0,15.0,23.0,NBA,158.0,0.0,0.0,0.0,3.0,62.0,36.0,-14.3,-11.6,PF,2005,DEN,3.0,6.0
21.0,0.0,14.0,0.0,0.0,0.0,4.0,12.0,NBA,62.0,2.0,0.0,0.0,0.0,65.0,35.0,-1.2,-3.6,PF,2005,GSW,1.0,3.0
22.0,2.0,6.0,0.0,6.0,0.0,4.0,17.0,NBA,99.0,2.0,0.0,3.0,45.0,47.0,4.0,-17.2,-14.9,SF-PF,2006,TOT,1.0,4.0
22.0,0.0,0.0,0.0,0.0,0.0,0.0,5.0,NBA,13.0,1.0,0.0,0.0,0.0,69.0,31.0,-39.9,-42.0,PF,2006,MIN,0.0,1.0
22.0,2.0,6.0,0.0,6.0,0.0,4.0,12.0,NBA,86.0,1.0,0.0,4.0,52.0,44.0,0.0,-17.6,-11.2,SF,2006,PHO,1.0,3.0
