age,ast,blk,drb,fg,fg2,fg2a,fg3,fg3a,fga,ft,fta,game_score,lg_id,mp,orb,pf,pts,season,stl,team_id,tov,trb
22.0,1.0,0.0,1.0,0.0,0.0,2.0,0.0,1.0,2.0,1.0,2.0,0.3,NBA,3,0.0,1.0,1.0,2006,0.0,TOT,1.0,1.0
22.0,1.0,0.0,1.0,0.0,0.0,2.0,0.0,1.0,2.0,1.0,2.0,0.3,NBA,3,0.0,1.0,1.0,2006,0.0,PHO,1.0,1.0
