age,ast,ast_per_g,blk,college_id,fg,fg3,fg3_pct,fg3a,fg_pct,fga,ft,ft_pct,fta,g,mp,mp_per_g,orb,pf,pts,pts_per_g,season,stl,tov,trb,trb_per_g
18.0,10.0,0.5,4.0,UTAH,26.0,4.0,0.308,13.0,0.456,57.0,17.0,0.515,33.0,21.0,0.0,0.0,0.0,0.0,73.0,3.5,1998,5.0,0.0,34.0,1.6
21.0,10.0,0.3,14.0,UTAH,100.0,20.0,0.426,47.0,0.455,220.0,65.0,0.65,100.0,31.0,684.0,22.1,0.0,0.0,285.0,9.2,2001,21.0,0.0,166.0,5.4
22.0,46.0,1.5,16.0,UTAH,131.0,31.0,0.356,87.0,0.496,264.0,86.0,0.601,143.0,30.0,836.0,27.9,0.0,0.0,379.0,12.6,2002,29.0,0.0,189.0,6.3
23.0,54.0,2.0,14.0,UTAH,123.0,17.0,0.258,66.0,0.477,258.0,51.0,0.531,96.0,27.0,789.0,29.2,0.0,0.0,314.0,11.6,2003,29.0,0.0,181.0,6.7
