age,ast,blk,drb,efg_pct,fg,fg2,fg2_pct,fg2a,fg3,fg3_pct,fg3a,fg_pct,fga,ft,ft_pct,fta,g,gs,lg_id,mp,orb,pf,pos,pts,season,stl,team_id,tov,trb
24.0,12.0,1.0,30.0,0.297,17.0,16.0,0.34,47.0,1.0,0.083,12.0,0.288,59.0,7.0,0.438,16.0,20.0,4.0,NBA,290.0,15.0,28.0,C,42.0,2004,7.0,ORL,14.0,45.0
25.0,4.0,0.0,5.0,0.273,6.0,6.0,0.333,18.0,0.0,0.0,4.0,0.273,22.0,0.0,0.0,0.0,6.0,1.0,NBA,87.0,5.0,10.0,SF,12.0,2005,1.0,IND,3.0,10.0
