age,ast,ast_per_g,blk,college_id,fg,fg3,fg3_pct,fg3a,fg_pct,fga,ft,ft_pct,fta,g,mp,mp_per_g,orb,pf,pts,pts_per_g,season,stl,tov,trb,trb_per_g
18.0,35.0,1.3,0.0,VANDY,40.0,0.0,0.0,0.0,0.417,96.0,20.0,0.645,31.0,28.0,586.0,20.9,0.0,83.0,100.0,3.6,1981,4.0,47.0,84.0,3.0
19.0,25.0,0.9,7.0,VANDY,99.0,0.0,0.0,0.0,0.524,189.0,52.0,0.732,71.0,27.0,772.0,28.6,0.0,87.0,250.0,9.3,1982,13.0,59.0,145.0,5.4
20.0,29.0,0.9,12.0,VANDY,180.0,0.0,0.0,0.0,0.492,366.0,75.0,0.765,98.0,33.0,1008.0,30.5,0.0,118.0,435.0,13.2,1983,33.0,67.0,182.0,5.5
21.0,53.0,1.8,4.0,VANDY,200.0,0.0,0.0,0.0,0.533,375.0,86.0,0.843,102.0,29.0,953.0,32.9,0.0,92.0,486.0,16.8,1984,14.0,66.0,213.0,7.3
