lg_id,salary,season,team_name
NBA,200000.0,1986,New Jersey Nets
NBA,150000.0,1987,New Jersey Nets
NBA,410000.0,1991,Orlando Magic
NBA,550000.0,1992,Orlando Magic
NBA,700000.0,1993,Orlando Magic
NBA,1100000.0,1995,Orlando Magic
NBA,1300000.0,1996,Orlando Magic
