age,ast_per_poss,blk_per_poss,def_rtg,drb_per_poss,fg2_pct,fg2_per_poss,fg2a_per_poss,fg3_pct,fg3_per_poss,fg3a_per_poss,fg_pct,fg_per_poss,fga_per_poss,ft_pct,ft_per_poss,fta_per_poss,g,gs,lg_id,mp,off_rtg,orb_per_poss,pf_per_poss,pos,pts_per_poss,season,stl_per_poss,team_id,tov_per_poss,trb_per_poss
21.0,8.1,0.3,103.0,4.9,0.41,7.6,18.6,0.188,0.2,0.8,0.401,7.8,19.4,0.814,6.5,7.9,57.0,2.0,NBA,1081.0,101.0,1.6,5.7,PG,22.2,2008,2.5,DET,4.0,6.6
22.0,8.5,0.2,110.0,4.5,0.453,8.3,18.4,0.295,0.5,1.7,0.439,8.8,20.1,0.803,5.1,6.4,79.0,65.0,NBA,2517.0,104.0,1.5,4.8,PG,23.3,2009,1.7,DET,3.8,6.0
23.0,7.5,0.3,112.0,4.6,0.418,9.3,22.3,0.228,0.4,1.7,0.405,9.7,24.1,0.833,6.5,7.8,73.0,67.0,NBA,2499.0,103.0,1.5,4.4,PG,26.4,2010,2.2,DET,3.5,6.1
24.0,8.9,0.2,114.0,3.6,0.457,8.3,18.2,0.289,0.6,2.2,0.439,9.0,20.4,0.866,8.1,9.4,70.0,54.0,NBA,2183.0,112.0,1.7,4.4,PG,26.7,2011,1.9,DET,3.8,5.3
25.0,6.9,0.3,109.0,3.4,0.452,7.3,16.1,0.317,1.1,3.4,0.429,8.4,19.5,0.834,8.7,10.5,55.0,48.0,NBA,1644.0,112.0,1.2,4.1,SG,26.6,2012,1.4,DET,3.5,4.6
26.0,6.6,0.4,111.0,4.1,0.44,6.1,13.8,0.302,1.3,4.4,0.406,7.4,18.2,0.783,5.2,6.6,76.0,24.0,NBA,2171.0,103.0,1.0,3.1,SG,21.3,2013,1.2,DET,3.3,5.2
27.0,3.9,0.3,113.0,3.4,0.455,9.0,19.8,0.273,0.6,2.3,0.436,9.6,22.1,0.836,6.3,7.6,73.0,5.0,NBA,1950.0,105.0,1.0,3.4,SG,26.2,2014,1.4,DET,3.2,4.4
28.0,6.0,0.3,105.0,5.8,0.452,7.6,16.9,0.39,1.5,3.9,0.44,9.1,20.7,0.819,4.9,5.9,71.0,36.0,NBA,1874.0,104.0,1.0,3.6,PG,24.6,2015,1.5,IND,3.2,6.8
29.0,5.5,0.3,105.0,5.3,0.453,6.3,14.0,0.241,0.8,3.2,0.413,7.1,17.3,0.829,5.1,6.2,58.0,1.0,NBA,1275.0,101.0,0.7,3.0,PG,20.1,2016,1.7,IND,3.0,6.1
30.0,6.0,0.0,112.0,5.6,0.391,5.2,13.2,0.317,1.4,4.3,0.373,6.5,17.5,0.748,5.8,7.7,39.0,0.0,NBA,696.0,94.0,0.4,3.2,PG,20.2,2017,1.2,IND,3.8,6.0
