lg_id,salary,season,team_name
NBA,1922520.0,2003,Los Angeles Clippers
NBA,2066760.0,2004,Los Angeles Clippers
NBA,2210880.0,2005,Los Angeles Clippers
NBA,2812239.0,2006,Los Angeles Clippers
NBA,6250000.0,2007,Seattle SuperSonics
NBA,6500000.0,2008,Seattle SuperSonics
NBA,6750000.0,2009,New York Knicks
NBA,3000000.0,2010,Detroit Pistons
NBA,3000000.0,2011,Detroit Pistons
NBA,3000000.0,2012,Boston Celtics
NBA,1352181.0,2013,Boston Celtics
