lg_id,salary,season,team_name
NBA,949320.0,1998,Cleveland Cavaliers
NBA,1092000.0,1999,Cleveland Cavaliers
NBA,1234080.0,2000,Cleveland Cavaliers
NBA,4250000.0,2001,Cleveland Cavaliers
NBA,4500000.0,2002,Memphis Grizzlies
NBA,5000000.0,2003,Memphis Grizzlies
NBA,5000000.0,2004,Washington Wizards
NBA,932546.0,2005,Charlotte Bobcats
NBA,4600000.0,2006,Charlotte Bobcats
NBA,4400000.0,2007,Charlotte Bobcats
NBA,1600000.0,2008,Los Angeles Clippers
NBA,2000000.0,2009,Utah Jazz
