age,ast_per_g,blk_per_g,drb_per_g,efg_pct,fg2_pct,fg2_per_g,fg2a_per_g,fg3_pct,fg3_per_g,fg3a_per_g,fg_pct,fg_per_g,fga_per_g,ft_pct,ft_per_g,fta_per_g,g,gs,lg_id,mp_per_g,orb_per_g,pf_per_g,pos,pts_per_g,season,stl_per_g,team_id,tov_per_g,trb_per_g
22.0,8.2,0.2,2.3,0.441,0.446,3.3,7.3,0.0,0.0,0.1,0.441,3.3,7.4,0.801,2.5,3.1,80.0,76.0,NBA,31.0,0.8,3.4,PG,9.0,1998,2.5,CLE,2.4,3.2
23.0,7.7,0.2,2.9,0.425,0.432,3.4,7.9,0.0,0.0,0.1,0.425,3.4,8.1,0.745,2.7,3.6,39.0,38.0,NBA,30.4,0.4,2.9,PG,9.6,1999,1.8,CLE,2.7,3.4
24.0,7.0,0.3,2.4,0.414,0.416,3.5,8.4,0.2,0.0,0.2,0.412,3.5,8.6,0.761,2.2,2.8,65.0,46.0,NBA,27.0,0.6,2.8,PG,9.3,2000,1.6,CLE,2.4,3.0
25.0,5.9,0.1,2.7,0.376,0.382,2.6,6.8,0.1,0.0,0.2,0.375,2.6,7.0,0.818,1.0,1.2,53.0,43.0,NBA,27.5,0.4,2.9,PG,6.3,2001,1.9,TOT,1.7,3.2
25.0,4.2,0.2,1.0,0.133,0.133,0.3,2.5,0.0,0.0,0.0,0.133,0.3,2.5,0.833,0.8,1.0,6.0,0.0,NBA,15.5,0.2,2.8,PG,1.5,2001,1.0,CLE,1.2,1.2
25.0,6.1,0.1,3.0,0.386,0.393,2.9,7.4,0.1,0.0,0.2,0.385,2.9,7.6,0.817,1.0,1.3,47.0,43.0,NBA,29.0,0.5,2.9,PG,6.9,2001,2.0,ATL,1.8,3.4
26.0,5.7,0.1,1.8,0.425,0.426,2.6,6.2,0.25,0.0,0.2,0.422,2.7,6.3,0.757,1.6,2.2,53.0,11.0,NBA,21.7,0.2,2.5,PG,7.0,2002,1.5,MEM,2.1,2.1
27.0,4.2,0.0,1.2,0.43,0.432,1.7,4.0,0.25,0.0,0.1,0.425,1.8,4.1,0.541,0.4,0.7,55.0,4.0,NBA,16.9,0.3,2.2,PG,3.9,2003,1.3,MEM,1.7,1.5
28.0,3.6,0.0,1.8,0.431,0.433,1.8,4.3,0.25,0.0,0.1,0.427,1.9,4.4,0.754,0.9,1.2,56.0,13.0,NBA,18.5,0.3,1.9,PG,4.7,2004,1.5,TOT,1.3,2.0
28.0,1.3,0.3,1.0,0.333,0.333,0.3,1.0,0.0,0.0,0.0,0.333,0.3,1.0,0.0,0.0,0.0,3.0,0.0,NBA,6.3,0.0,0.3,PG,0.7,2004,1.0,PHO,1.0,1.0
28.0,3.2,0.0,1.6,0.424,0.429,1.8,4.2,0.2,0.0,0.2,0.42,1.8,4.3,0.704,0.6,0.8,32.0,12.0,NBA,18.7,0.3,1.6,PG,4.3,2004,1.6,WAS,1.4,1.9
28.0,4.7,0.0,2.1,0.443,0.441,2.1,4.9,0.333,0.0,0.1,0.438,2.2,5.0,0.789,1.4,1.8,21.0,1.0,NBA,20.0,0.1,2.7,PG,5.9,2004,1.4,MIL,1.2,2.3
29.0,9.0,0.1,2.3,0.425,0.432,3.7,8.6,0.15,0.0,0.3,0.422,3.8,8.9,0.852,2.5,3.0,66.0,61.0,NBA,29.5,0.3,2.9,PG,10.1,2005,2.0,CHA,2.2,2.6
30.0,8.8,0.1,2.7,0.401,0.402,4.4,11.0,0.231,0.0,0.2,0.399,4.5,11.2,0.803,3.7,4.6,69.0,67.0,NBA,34.1,0.5,2.9,PG,12.6,2006,2.3,CHA,2.4,3.2
31.0,6.6,0.1,2.2,0.42,0.438,3.4,7.7,0.056,0.0,0.4,0.419,3.4,8.1,0.805,2.3,2.8,45.0,25.0,NBA,28.3,0.3,2.5,PG,9.1,2007,1.5,CHA,2.1,2.6
32.0,4.4,0.1,1.7,0.404,0.411,1.9,4.5,0.0,0.0,0.1,0.404,1.9,4.6,0.873,0.8,1.0,74.0,39.0,NBA,22.6,0.2,2.2,PG,4.6,2008,1.4,LAC,1.0,1.9
33.0,2.6,0.1,1.0,0.349,0.361,0.9,2.5,0.0,0.0,0.1,0.349,0.9,2.6,0.75,0.6,0.9,74.0,0.0,NBA,12.7,0.2,1.3,PG,2.4,2009,0.9,UTA,0.9,1.2
