age,ast,blk,drb,efg_pct,fg,fg2,fg2_pct,fg2a,fg3,fg3_pct,fg3a,fg_pct,fga,ft,ft_pct,fta,g,gs,lg_id,mp,orb,pf,pos,pts,season,stl,team_id,tov,trb
22.0,129.0,34.0,262.0,0.415,291.0,291.0,0.421,691.0,0.0,0.0,11.0,0.415,702.0,89.0,0.736,121.0,76.0,32.0,NBA,1707.0,129.0,259.0,PF,671.0,1992,62.0,DAL,97.0,391.0
23.0,104.0,52.0,232.0,0.434,289.0,289.0,0.437,662.0,0.0,0.0,4.0,0.434,666.0,56.0,0.757,74.0,61.0,42.0,NBA,1524.0,96.0,280.0,PF,634.0,1993,48.0,DAL,115.0,328.0
24.0,119.0,38.0,235.0,0.437,295.0,293.0,0.438,669.0,2.0,0.222,9.0,0.435,678.0,106.0,0.835,127.0,79.0,42.0,NBA,1684.0,114.0,287.0,PF,698.0,1994,82.0,DAL,93.0,349.0
25.0,44.0,26.0,101.0,0.419,131.0,130.0,0.43,302.0,1.0,0.083,12.0,0.417,314.0,57.0,0.76,75.0,63.0,0.0,NBA,826.0,43.0,132.0,PF,320.0,1995,29.0,DAL,37.0,144.0
26.0,4.0,0.0,10.0,0.359,14.0,14.0,0.359,39.0,0.0,0.0,0.0,0.359,39.0,5.0,0.625,8.0,17.0,2.0,NBA,92.0,12.0,21.0,PF,33.0,1996,3.0,BOS,11.0,22.0
