age,ast_per_mp,blk_per_mp,drb_per_mp,fg2_pct,fg2_per_mp,fg2a_per_mp,fg3_pct,fg3_per_mp,fg3a_per_mp,fg_pct,fg_per_mp,fga_per_mp,ft_pct,ft_per_mp,fta_per_mp,g,gs,lg_id,mp,orb_per_mp,pf_per_mp,pos,pts_per_mp,season,stl_per_mp,team_id,tov_per_mp,trb_per_mp
23.0,2.8,1.0,3.5,0.47,6.5,13.8,0.0,0.0,0.1,0.468,6.5,13.9,0.69,2.8,4.0,60.0,3.0,NBA,520.0,2.6,5.6,SF,15.8,1987,1.2,HOU,2.6,6.1
24.0,2.0,1.1,3.7,0.531,6.3,11.9,0.125,0.0,0.3,0.52,6.3,12.2,0.736,2.7,3.7,70.0,2.0,NBA,879.0,3.2,5.2,SF,15.5,1988,1.2,HOU,2.2,6.9
25.0,2.5,0.7,3.3,0.532,5.2,9.8,0.111,0.0,0.2,0.524,5.3,10.0,0.754,2.0,2.6,67.0,51.0,NBA,1850.0,2.2,4.1,SF,12.5,1989,1.2,HOU,2.1,5.6
26.0,3.2,0.8,3.4,0.501,6.4,12.7,0.118,0.0,0.2,0.495,6.4,13.0,0.759,2.6,3.4,82.0,82.0,NBA,2832.0,1.4,4.1,SF,15.4,1990,1.3,HOU,2.1,4.8
27.0,2.2,0.7,3.5,0.483,6.5,13.6,0.133,0.0,0.2,0.477,6.6,13.8,0.727,2.5,3.4,73.0,70.0,NBA,2279.0,1.7,3.8,SF,15.7,1991,1.3,HOU,1.9,5.2
28.0,2.6,0.8,3.5,0.463,4.7,10.2,0.111,0.0,0.1,0.458,4.7,10.3,0.727,1.7,2.3,80.0,69.0,NBA,2202.0,1.6,3.8,SF,11.2,1992,1.2,HOU,1.7,5.1
29.0,2.5,0.5,3.3,0.483,5.4,11.2,0.0,0.0,0.1,0.479,5.4,11.3,0.73,2.6,3.5,73.0,19.0,NBA,1287.0,2.2,5.2,SF,13.4,1993,1.0,WSB,2.0,5.5
