age,ast_per_poss,blk_per_poss,def_rtg,drb_per_poss,fg2_pct,fg2_per_poss,fg2a_per_poss,fg3_pct,fg3_per_poss,fg3a_per_poss,fg_pct,fg_per_poss,fga_per_poss,ft_pct,ft_per_poss,fta_per_poss,g,gs,lg_id,mp,off_rtg,orb_per_poss,pf_per_poss,pos,pts_per_poss,season,stl_per_poss,team_id,tov_per_poss,trb_per_poss
22.0,3.1,2.2,105.0,9.3,0.476,8.4,17.6,0.143,0.0,0.1,0.474,8.4,17.7,0.81,5.7,7.0,82.0,0.0,NBA,2791.0,107.0,3.8,5.3,PF,22.5,1980,1.0,CHI,3.5,13.1
23.0,3.8,2.2,104.0,8.5,0.487,8.5,17.4,0.0,0.0,0.0,0.486,8.5,17.4,0.748,3.8,5.1,82.0,0.0,NBA,2710.0,109.0,4.3,5.0,PF,20.8,1981,1.4,CHI,3.4,12.7
24.0,4.4,1.5,106.0,9.9,0.475,8.0,16.8,0.0,0.0,0.0,0.473,8.0,16.9,0.825,4.0,4.8,82.0,82.0,NBA,2914.0,108.0,3.2,4.9,PF,20.0,1982,1.2,CHI,3.0,13.1
25.0,2.9,1.7,105.0,10.5,0.457,6.0,13.1,0.0,0.0,0.1,0.455,6.0,13.2,0.708,3.2,4.5,79.0,61.0,NBA,2355.0,102.0,4.2,5.0,PF,15.2,1983,1.0,CHI,3.0,14.7
26.0,2.5,1.3,105.0,10.1,0.491,6.5,13.3,0.0,0.0,0.0,0.49,6.5,13.3,0.737,3.8,5.1,78.0,76.0,NBA,2718.0,107.0,3.8,4.7,PF,16.8,1984,1.2,CHI,2.6,13.9
27.0,2.5,0.6,109.0,8.9,0.459,4.8,10.5,0.0,0.0,0.0,0.458,4.8,10.5,0.713,2.1,3.0,61.0,28.0,NBA,1523.0,105.0,3.4,6.0,PF,11.8,1985,1.1,CHI,2.0,12.3
28.0,2.2,1.3,108.0,9.2,0.512,4.8,9.4,0.0,0.0,0.0,0.51,4.8,9.4,0.772,3.4,4.5,68.0,24.0,NBA,1910.0,109.0,3.7,5.0,PF,13.0,1986,0.9,SAS,2.7,12.9
29.0,4.3,0.9,109.0,9.6,0.513,6.1,11.8,0.5,0.1,0.1,0.513,6.1,12.0,0.785,4.4,5.6,79.0,78.0,NBA,2587.0,115.0,4.7,4.5,PF,16.7,1987,1.3,SAS,2.9,14.3
30.0,3.6,0.8,112.0,7.7,0.463,5.6,12.1,0.0,0.0,0.1,0.46,5.6,12.2,0.748,3.1,4.1,45.0,40.0,NBA,1236.0,104.0,3.4,5.0,PF,14.3,1988,1.2,SAS,2.8,11.2
31.0,3.1,1.7,106.0,8.5,0.423,5.4,12.8,0.0,0.0,0.0,0.423,5.4,12.8,0.75,4.3,5.7,67.0,18.0,NBA,1403.0,102.0,4.5,6.5,PF,15.1,1989,1.5,TOT,3.0,13.1
31.0,2.8,1.2,108.0,7.4,0.425,5.3,12.5,0.0,0.0,0.0,0.425,5.3,12.5,0.8,4.2,5.3,38.0,15.0,NBA,912.0,105.0,4.6,6.2,PF,14.9,1989,1.5,SAS,2.8,12.0
31.0,3.7,2.5,103.0,10.5,0.419,5.6,13.5,0.0,0.0,0.0,0.419,5.6,13.5,0.676,4.4,6.5,29.0,3.0,NBA,491.0,99.0,4.4,7.1,PF,15.6,1989,1.5,DEN,3.3,14.9
32.0,3.0,2.2,98.0,13.4,0.423,5.5,12.9,0.0,0.0,0.0,0.423,5.5,12.9,0.552,4.0,7.2,37.0,0.0,NBA,205.0,95.0,6.0,9.9,PF,14.9,1990,1.0,DET,4.0,19.4
33.0,2.5,1.2,103.0,7.7,0.509,4.1,8.0,0.0,0.0,0.1,0.503,4.1,8.1,0.734,3.3,4.5,63.0,11.0,NBA,1018.0,100.0,2.9,8.2,PF,11.4,1991,1.4,SAS,3.4,10.6
