age,ast,blk,drb,efg_pct,fg,fg2,fg2_pct,fg2a,fg3,fg3_pct,fg3a,fg_pct,fga,ft,ft_pct,fta,g,gs,lg_id,mp,orb,pf,pos,pts,season,stl,team_id,tov,trb
22.0,182.0,129.0,550.0,0.474,498.0,497.0,0.476,1044.0,1.0,0.143,7.0,0.474,1051.0,337.0,0.81,416.0,82.0,0.0,NBA,2791.0,223.0,313.0,PF,1334.0,1980,60.0,CHI,210.0,773.0
23.0,218.0,124.0,481.0,0.486,481.0,481.0,0.487,987.0,0.0,0.0,2.0,0.486,989.0,217.0,0.748,290.0,82.0,0.0,NBA,2710.0,243.0,282.0,PF,1179.0,1981,77.0,CHI,192.0,724.0
24.0,262.0,93.0,594.0,0.473,480.0,480.0,0.475,1011.0,0.0,0.0,3.0,0.473,1014.0,240.0,0.825,291.0,82.0,82.0,NBA,2914.0,192.0,292.0,PF,1200.0,1982,70.0,CHI,180.0,786.0
25.0,151.0,90.0,548.0,0.455,312.0,312.0,0.457,682.0,0.0,0.0,4.0,0.455,686.0,165.0,0.708,233.0,79.0,61.0,NBA,2355.0,217.0,261.0,PF,789.0,1983,54.0,CHI,154.0,765.0
26.0,139.0,72.0,572.0,0.49,369.0,369.0,0.491,752.0,0.0,0.0,1.0,0.49,753.0,213.0,0.737,289.0,78.0,76.0,NBA,2718.0,214.0,265.0,PF,951.0,1984,67.0,CHI,149.0,786.0
27.0,78.0,18.0,280.0,0.458,152.0,152.0,0.459,331.0,0.0,0.0,1.0,0.458,332.0,67.0,0.713,94.0,61.0,28.0,NBA,1523.0,108.0,190.0,PF,371.0,1985,34.0,CHI,63.0,388.0
28.0,90.0,52.0,380.0,0.51,198.0,198.0,0.512,387.0,0.0,0.0,1.0,0.51,388.0,142.0,0.772,184.0,68.0,24.0,NBA,1910.0,151.0,207.0,PF,538.0,1986,37.0,SAS,113.0,531.0
29.0,237.0,50.0,527.0,0.515,336.0,333.0,0.513,649.0,3.0,0.5,6.0,0.513,655.0,241.0,0.785,307.0,79.0,78.0,NBA,2587.0,256.0,248.0,PF,916.0,1987,71.0,SAS,161.0,783.0
30.0,97.0,22.0,208.0,0.46,151.0,151.0,0.463,326.0,0.0,0.0,2.0,0.46,328.0,83.0,0.748,111.0,45.0,40.0,NBA,1236.0,92.0,134.0,PF,385.0,1988,33.0,SAS,74.0,300.0
31.0,96.0,52.0,262.0,0.423,167.0,167.0,0.423,395.0,0.0,0.0,0.0,0.423,395.0,132.0,0.75,176.0,67.0,18.0,NBA,1403.0,140.0,201.0,PF,466.0,1989,47.0,TOT,91.0,402.0
31.0,55.0,24.0,146.0,0.425,105.0,105.0,0.425,247.0,0.0,0.0,0.0,0.425,247.0,84.0,0.8,105.0,38.0,15.0,NBA,912.0,92.0,123.0,PF,294.0,1989,30.0,SAS,55.0,238.0
31.0,41.0,28.0,116.0,0.419,62.0,62.0,0.419,148.0,0.0,0.0,0.0,0.419,148.0,48.0,0.676,71.0,29.0,3.0,NBA,491.0,48.0,78.0,PF,172.0,1989,17.0,DEN,36.0,164.0
32.0,12.0,9.0,54.0,0.423,22.0,22.0,0.423,52.0,0.0,0.0,0.0,0.423,52.0,16.0,0.552,29.0,37.0,0.0,NBA,205.0,24.0,40.0,PF,60.0,1990,4.0,DET,16.0,78.0
33.0,52.0,25.0,160.0,0.503,85.0,85.0,0.509,167.0,0.0,0.0,2.0,0.503,169.0,69.0,0.734,94.0,63.0,11.0,NBA,1018.0,61.0,172.0,PF,239.0,1991,29.0,SAS,71.0,221.0
