lg_id,salary,season,team_name
NBA,550000.0,1985,Chicago Bulls
NBA,600000.0,1986,San Antonio Spurs
NBA,700000.0,1988,San Antonio Spurs
NBA,700000.0,1989,San Antonio Spurs
NBA,650000.0,1991,San Antonio Spurs
NBA,100000.0,1992,San Antonio Spurs
