age,ast,blk,drb,fg,fg2,fg2a,fg3,fg3a,fga,ft,fta,game_score,lg_id,mp,orb,pf,pts,season,stl,team_id,tov,trb
23.0,5.0,0.0,0.0,11.0,11.0,17.0,0.0,1.0,18.0,2.0,5.0,0.0,NBA,0.0,0.0,5.0,24.0,1981,0.0,CHI,0.0,12.0
27.0,2.0,3.0,10.0,7.0,7.0,10.0,0.0,0.0,10.0,5.0,6.0,19.8,NBA,0.0,3.0,5.0,19.0,1985,3.0,CHI,3.0,13.0
28.0,1.0,1.0,8.0,5.0,5.0,9.0,0.0,0.0,9.0,4.0,6.0,11.7,NBA,0.0,1.0,5.0,14.0,1986,2.0,SAS,1.0,8.0
31.0,1.0,1.0,4.0,2.0,2.0,4.0,0.0,0.0,4.0,1.0,2.0,3.1,NBA,0.0,2.0,3.0,5.0,1989,1.0,TOT,3.0,6.0
31.0,1.0,1.0,4.0,2.0,2.0,4.0,0.0,0.0,4.0,1.0,2.0,3.1,NBA,0.0,2.0,3.0,5.0,1989,1.0,DEN,3.0,6.0
32.0,0.0,0.0,4.0,1.0,1.0,2.0,0.0,0.0,2.0,1.0,2.0,1.9,NBA,0.0,1.0,4.0,3.0,1990,1.0,DET,1.0,5.0
33.0,2.0,0.0,1.0,1.0,1.0,1.0,0.0,0.0,1.0,0.0,0.0,3.1,NBA,0.0,1.0,0.0,2.0,1991,0.0,SAS,1.0,2.0
