age,avg_dist,fg2_dunk,fg2_pct,fg2_pct_ast,fg2a_pct_fga,fg3_heave,fg3_pct,fg3_pct_ast,fg3_pct_corner,fg3a_heave,fg3a_pct_fga,fg_pct,fg_pct_00_03,fg_pct_03_10,fg_pct_10_16,fg_pct_16_xx,g,lg_id,mp,pct_fg2_dunk,pct_fg3a_corner,pct_fga_00_03,pct_fga_03_10,pct_fga_10_16,pct_fga_16_xx,pos,season,team_id
26.0,18.4,1.0,0.466,0.556,0.598,0.0,0.179,1.0,0.125,0.0,0.402,0.351,0.769,0.25,0.5,0.364,34.0,NBA,238.0,0.01,0.205,0.134,0.041,0.082,0.34,SF,2014,DET
27.0,17.7,3.0,0.51,0.6,0.551,0.0,0.45,0.944,0.2,0.0,0.449,0.483,0.667,0.714,0.429,0.375,21.0,NBA,209.0,0.034,0.125,0.135,0.079,0.157,0.18,SF,2015,TOT
27.0,12.8,0.0,0.5,0.25,0.667,0.0,0.25,1.0,0.0,0.0,0.333,0.417,0.5,1.0,0.5,0.0,3.0,NBA,17.0,0.0,0.25,0.333,0.083,0.167,0.083,SF,2015,DET
27.0,18.4,3.0,0.512,0.667,0.532,0.0,0.472,0.941,0.25,0.0,0.468,0.494,0.75,0.667,0.417,0.4,18.0,NBA,192.0,0.039,0.111,0.104,0.078,0.156,0.195,SF,2015,BOS
