article_url,date,headline
https://thunderousintentions.com/2019/09/17/okc-thunder-danilo-gallinari-loss-spain/,2019/09/17,Thunderous Intentions: OKC Thunder forward Danilo Gallinari's Team Italy open round two with loss to Spain
https://thunderousintentions.com/2019/09/17/okc-thunder-danilo-gallinari-team-italy-crushed-phillipines-game-1-world-cup-action/,2019/09/17,Thunderous Intentions: OKC Thunder forward Danilo Gallinari's Team Italy crushes Phillipines in FIBA World Cup action
https://hoopshabit.com/2019/08/29/fiba-world-cup-preview-predictions-group-d/,2019/08/29,Hoops Habit: FIBA World Cup 2019: Previewing Group D
https://thunderousintentions.com/2019/08/04/okc-thunder-danilo-gallinari-appendectomy/,2019/08/04,Thunderous Intentions: OKC Thunder forward Danilo Gallinari undergoes appendectomy
