age,ast_per_g,blk_per_g,drb_per_g,efg_pct,fg2_pct,fg2_per_g,fg2a_per_g,fg3_pct,fg3_per_g,fg3a_per_g,fg_pct,fg_per_g,fga_per_g,ft_pct,ft_per_g,fta_per_g,g,gs,lg_id,mp_per_g,orb_per_g,pf_per_g,pos,pts_per_g,season,stl_per_g,team_id,tov_per_g,trb_per_g
23.0,0.3,0.0,0.6,0.316,0.286,0.2,0.8,0.238,0.1,0.6,0.265,0.4,1.4,1.0,0.1,0.1,34.0,0.0,NBA,4.2,0.3,0.2,SG,1.1,2016,0.1,POR,0.3,0.9
24.0,0.7,0.1,1.1,0.632,0.513,0.5,1.0,0.515,0.4,0.8,0.514,0.9,1.8,0.778,0.2,0.2,39.0,1.0,NBA,8.1,0.3,0.6,SG,2.5,2017,0.2,POR,0.4,1.3
25.0,1.1,0.3,1.5,0.518,0.506,1.1,2.2,0.352,0.9,2.6,0.423,2.0,4.8,0.841,0.5,0.5,82.0,5.0,NBA,18.1,0.4,1.5,SG,5.4,2018,0.3,POR,0.5,2.0
26.0,2.0,0.4,3.2,0.56,0.647,1.6,2.5,0.33,1.1,3.3,0.466,2.7,5.7,0.725,0.5,0.7,61.0,2.0,NBA,20.7,1.0,1.3,SG,6.9,2019,0.5,MIL,0.5,4.2
27.0,1.6,0.4,2.7,0.474,0.5,0.9,1.7,0.308,1.1,3.7,0.368,2.0,5.4,1.0,0.1,0.1,7.0,0.0,NBA,16.9,0.1,1.3,SG,5.3,2020,0.1,MIL,0.1,2.9
