age,ast,blk,drb,fg,fg2,fg2a,fg3,fg3a,fga,ft,fta,game_score,lg_id,mp,orb,pf,pts,season,stl,team_id,tov,trb
24.0,3.0,2.0,8.0,7.0,6.0,11.0,2.0,7.0,17.0,4.0,4.0,14.5,NBA,42,1.0,4.0,15.0,2017,2.0,OKC,2.0,9.0
25.0,10.0,2.0,12.0,11.0,7.0,12.0,6.0,9.0,21.0,7.0,9.0,32.0,NBA,42,1.0,3.0,32.0,2018,4.0,IND,6.0,13.0
