age,avg_dist,fg2_dunk,fg2_pct,fg2_pct_ast,fg2a_pct_fga,fg3_heave,fg3_pct,fg3_pct_ast,fg3_pct_corner,fg3a_heave,fg3a_pct_fga,fg_pct,fg_pct_00_03,fg_pct_03_10,fg_pct_10_16,fg_pct_16_xx,g,lg_id,mp,pct_fg2_dunk,pct_fg3a_corner,pct_fga_00_03,pct_fga_03_10,pct_fga_10_16,pct_fga_16_xx,pos,season,team_id
22.0,14.7,17.0,0.476,0.624,0.617,0.0,0.338,0.917,0.344,0.0,0.383,0.423,0.649,0.393,0.319,0.455,59.0,NBA,1312.0,0.049,0.225,0.208,0.164,0.127,0.119,PF,2014,LAL
23.0,16.4,9.0,0.337,0.678,0.566,0.0,0.336,0.978,0.552,1.0,0.434,0.337,0.644,0.205,0.255,0.231,52.0,NBA,1233.0,0.029,0.216,0.146,0.142,0.152,0.126,PF,2015,LAL
24.0,12.9,3.0,0.446,0.72,0.752,0.0,0.135,1.0,0.125,1.0,0.248,0.369,0.5,0.393,0.3,0.536,36.0,NBA,470.0,0.027,0.216,0.242,0.188,0.134,0.188,PF,2016,LAL
25.0,15.2,1.0,0.222,1.0,0.643,0.0,0.4,1.0,0.75,0.0,0.357,0.286,0.4,0.0,0.5,0.167,16.0,NBA,110.0,0.036,0.4,0.179,0.179,0.071,0.214,PF,2017,ATL
