age,ast,blk,drb,fg,fg2,fg2a,fg3,fg3a,fga,ft,fta,game_score,lg_id,mp,orb,pf,pts,season,stl,team_id,tov,trb
22.0,8.0,3.0,9.0,8.0,6.0,9.0,4.0,8.0,16.0,8.0,11.0,21.3,NBA,42,4.0,5.0,26.0,2014,2.0,LAL,4.0,11.0
23.0,7.0,4.0,8.0,7.0,4.0,9.0,5.0,8.0,17.0,6.0,7.0,19.5,NBA,44,1.0,6.0,21.0,2015,2.0,LAL,4.0,8.0
24.0,3.0,3.0,9.0,5.0,5.0,8.0,1.0,3.0,9.0,4.0,6.0,10.3,NBA,28,3.0,4.0,12.0,2016,3.0,LAL,2.0,9.0
25.0,3.0,3.0,3.0,3.0,1.0,6.0,2.0,2.0,8.0,2.0,2.0,5.6,NBA,22,1.0,2.0,8.0,2017,1.0,ATL,1.0,3.0
