age,ast,blk,drb,efg_pct,fg,fg2,fg2_pct,fg2a,fg3,fg3_pct,fg3a,fg_pct,fga,ft,ft_pct,fta,g,gs,lg_id,mp,orb,pf,pos,pts,season,stl,team_id,tov,trb
22.0,133.0,16.0,184.0,0.468,211.0,211.0,0.469,450.0,0.0,0.0,1.0,0.468,451.0,232.0,0.795,292.0,77.0,0.0,NBA,1557.0,154.0,106.0,SG,654.0,1980,72.0,MIL,117.0,338.0
23.0,264.0,37.0,220.0,0.543,400.0,398.0,0.545,730.0,2.0,0.222,9.0,0.541,739.0,320.0,0.804,398.0,80.0,0.0,NBA,2417.0,186.0,156.0,SG,1122.0,1981,90.0,MIL,145.0,406.0
24.0,382.0,22.0,313.0,0.524,556.0,555.0,0.529,1049.0,1.0,0.071,14.0,0.523,1063.0,468.0,0.817,573.0,80.0,80.0,NBA,2980.0,221.0,206.0,SG,1581.0,1982,138.0,MIL,208.0,534.0
25.0,300.0,23.0,245.0,0.525,606.0,605.0,0.528,1146.0,1.0,0.1,10.0,0.524,1156.0,499.0,0.826,604.0,76.0,76.0,NBA,2710.0,192.0,180.0,SG,1712.0,1983,113.0,MIL,197.0,437.0
26.0,358.0,27.0,313.0,0.5,560.0,555.0,0.501,1107.0,5.0,0.278,18.0,0.498,1125.0,529.0,0.848,624.0,79.0,79.0,NBA,3075.0,215.0,204.0,SG,1654.0,1984,108.0,MIL,217.0,528.0
27.0,382.0,39.0,242.0,0.487,561.0,552.0,0.489,1129.0,9.0,0.273,33.0,0.483,1162.0,454.0,0.828,548.0,73.0,72.0,NBA,2734.0,149.0,197.0,PG,1585.0,1985,117.0,MIL,184.0,391.0
28.0,357.0,18.0,219.0,0.506,470.0,437.0,0.509,859.0,33.0,0.32,103.0,0.489,962.0,498.0,0.859,580.0,73.0,72.0,NBA,2567.0,115.0,178.0,PG,1471.0,1986,103.0,MIL,174.0,334.0
29.0,121.0,10.0,70.0,0.5,158.0,150.0,0.512,293.0,8.0,0.258,31.0,0.488,324.0,136.0,0.84,162.0,39.0,30.0,NBA,992.0,57.0,73.0,SG,460.0,1987,27.0,MIL,63.0,127.0
30.0,204.0,14.0,122.0,0.494,217.0,212.0,0.513,413.0,5.0,0.161,31.0,0.489,444.0,164.0,0.837,196.0,56.0,51.0,NBA,1428.0,58.0,109.0,SG,603.0,1988,41.0,MIL,86.0,180.0
31.0,188.0,13.0,126.0,0.514,261.0,236.0,0.514,459.0,25.0,0.342,73.0,0.491,532.0,205.0,0.865,237.0,62.0,50.0,NBA,1594.0,46.0,114.0,PG,752.0,1989,65.0,MIL,94.0,172.0
33.0,104.0,9.0,97.0,0.531,117.0,96.0,0.545,176.0,21.0,0.328,64.0,0.488,240.0,82.0,0.781,105.0,72.0,3.0,NBA,1096.0,31.0,112.0,SG,337.0,1991,50.0,ATL,66.0,128.0
