age,ast_per_mp,blk_per_mp,drb_per_mp,fg2_pct,fg2_per_mp,fg2a_per_mp,fg3_pct,fg3_per_mp,fg3a_per_mp,fg_pct,fg_per_mp,fga_per_mp,ft_pct,ft_per_mp,fta_per_mp,g,gs,lg_id,mp,orb_per_mp,pf_per_mp,pos,pts_per_mp,season,stl_per_mp,team_id,tov_per_mp,trb_per_mp
22.0,2.2,0.2,2.8,0.588,5.9,10.1,0.0,0.0,0.0,0.588,5.9,10.1,0.871,5.3,6.1,7.0,0.0,NBA,182.0,3.4,2.8,SG,17.2,1980,1.0,MIL,2.8,6.1
23.0,2.6,0.4,3.6,0.435,3.9,9.0,0.0,0.0,0.0,0.435,3.9,9.0,0.745,4.9,6.6,7.0,0.0,NBA,277.0,2.5,3.1,SG,12.7,1981,1.6,MIL,2.6,6.1
24.0,3.4,0.3,2.1,0.425,4.4,10.4,0.0,0.0,0.1,0.419,4.4,10.6,0.789,4.3,5.4,6.0,0.0,NBA,252.0,2.1,3.1,SG,13.1,1982,1.3,MIL,1.7,4.3
25.0,3.2,0.3,3.1,0.44,5.9,13.5,0.0,0.0,0.1,0.437,5.9,13.6,0.754,4.4,5.8,9.0,0.0,NBA,377.0,2.7,2.4,SG,16.2,1983,1.7,MIL,2.6,5.7
26.0,4.0,0.5,3.9,0.524,5.7,10.9,0.25,0.1,0.2,0.518,5.8,11.1,0.791,6.2,7.8,16.0,0.0,NBA,618.0,2.6,3.1,SG,17.8,1984,1.6,MIL,3.6,6.5
27.0,4.5,0.5,2.7,0.573,5.8,10.0,0.4,0.5,1.1,0.556,6.2,11.2,0.933,7.9,8.5,8.0,7.0,NBA,319.0,1.1,2.9,PG,20.8,1985,0.6,MIL,2.3,3.8
28.0,4.8,0.6,2.9,0.444,5.3,11.9,0.286,0.4,1.5,0.426,5.7,13.4,0.698,4.8,6.9,9.0,9.0,NBA,327.0,1.7,3.3,PG,16.7,1986,0.6,MIL,2.3,4.5
29.0,3.0,0.5,2.8,0.49,6.3,12.8,0.286,0.3,1.2,0.473,6.6,13.9,0.811,6.2,7.6,12.0,10.0,NBA,426.0,1.8,3.6,SG,19.7,1987,1.1,MIL,2.0,4.6
30.0,5.4,0.2,2.7,0.469,4.8,10.2,1.0,0.2,0.2,0.48,5.0,10.4,0.963,5.4,5.6,5.0,5.0,NBA,173.0,1.2,2.9,SG,15.6,1988,0.6,MIL,2.3,4.0
31.0,2.5,0.4,3.5,0.415,3.3,8.0,0.286,0.4,1.4,0.396,3.7,9.4,0.938,2.9,3.1,9.0,9.0,NBA,184.0,1.6,3.3,PG,10.8,1989,1.0,MIL,2.2,5.1
33.0,0.8,0.0,4.0,0.625,4.0,6.3,0.167,0.4,2.4,0.5,4.4,8.7,0.813,5.1,6.3,5.0,0.0,NBA,91.0,2.4,6.3,SG,14.2,1991,1.2,ATL,1.2,6.3
