age,ast_per_g,blk_per_g,drb_per_g,efg_pct,fg2_pct,fg2_per_g,fg2a_per_g,fg3_pct,fg3_per_g,fg3a_per_g,fg_pct,fg_per_g,fga_per_g,ft_pct,ft_per_g,fta_per_g,g,gs,lg_id,mp_per_g,orb_per_g,pf_per_g,pos,pts_per_g,season,stl_per_g,team_id,tov_per_g,trb_per_g
21.0,0.2,0.3,0.9,0.568,0.568,1.1,1.9,0.0,0.0,0.0,0.568,1.1,1.9,0.536,0.8,1.5,19.0,2.0,NBA,6.6,0.8,1.3,PF,3.0,2015,0.3,MEM,0.4,1.8
22.0,0.1,0.0,0.4,0.6,0.6,0.4,0.7,0.0,0.0,0.0,0.6,0.4,0.7,0.5,0.1,0.3,7.0,0.0,NBA,2.6,0.1,0.1,C,1.0,2016,0.1,TOT,0.0,0.6
22.0,0.0,0.0,0.5,0.0,0.0,0.0,0.0,0.0,0.0,0.0,0.0,0.0,0.0,0.0,0.0,0.0,2.0,0.0,NBA,2.0,0.5,0.0,C,0.0,2016,0.0,MEM,0.0,1.0
22.0,0.2,0.0,0.4,0.6,0.6,0.6,1.0,0.0,0.0,0.0,0.6,0.6,1.0,0.5,0.2,0.4,5.0,0.0,NBA,2.8,0.0,0.2,C,1.4,2016,0.2,MIA,0.0,0.4
23.0,1.0,0.0,0.5,1.0,1.0,0.5,0.5,0.0,0.0,0.0,1.0,0.5,0.5,0.5,0.5,1.0,2.0,0.0,NBA,3.5,0.5,1.5,C,1.5,2017,0.5,DEN,0.0,1.0
