age,and1s,astd_pts,drawn_offensive,drawn_shooting,fouls_offensive,fouls_shooting,g,lg_id,mp,own_shots_blk,pct_1,pct_2,pct_3,pct_4,pct_5,plus_minus_net,plus_minus_on,pos,season,team_id,tov_bad_pass,tov_lost_ball
24.0,11.0,468.0,7.0,31.0,11.0,40.0,71.0,NBA,1173.0,25.0,17.0,75.0,8.0,0.0,0.0,0.3,2.3,SG,2014,MEM,61.0,22.0
25.0,7.0,318.0,2.0,18.0,4.0,25.0,58.0,NBA,838.0,22.0,6.0,50.0,44.0,0.0,0.0,4.2,6.7,SG,2015,MEM,43.0,10.0
