age,ast,blk,drb,efg_pct,fg,fg2,fg2_pct,fg2a,fg3,fg3_pct,fg3a,fg_pct,fga,ft,ft_pct,fta,g,gs,lg_id,mp,orb,pf,pos,pts,season,stl,team_id,tov,trb
24.0,207.0,8.0,114.0,0.487,142.0,123.0,0.492,250.0,19.0,0.311,61.0,0.457,311.0,44.0,0.611,72.0,71.0,7.0,NBA,1173.0,23.0,117.0,SG,347.0,2014,66.0,MEM,101.0,137.0
25.0,146.0,5.0,87.0,0.443,104.0,93.0,0.456,204.0,11.0,0.256,43.0,0.421,247.0,24.0,0.533,45.0,58.0,0.0,NBA,838.0,19.0,100.0,SG,243.0,2015,63.0,MEM,61.0,106.0
