age,ast,blk,drb,efg_pct,fg,fg2,fg2_pct,fg2a,fg3,fg3_pct,fg3a,fg_pct,fga,ft,ft_pct,fta,g,gs,lg_id,mp,orb,pf,pos,pts,season,stl,team_id,tov,trb
24.0,17.0,0.0,7.0,0.42,30.0,22.0,0.4,55.0,8.0,0.308,26.0,0.37,81.0,11.0,0.524,21.0,4.0,4.0,NBA,159.0,5.0,12.0,SG,79.0,1990,5.0,HOU,6.0,12.0
25.0,9.0,1.0,7.0,0.491,23.0,14.0,0.483,29.0,9.0,0.333,27.0,0.411,56.0,1.0,0.5,2.0,3.0,3.0,NBA,113.0,1.0,8.0,SG,56.0,1991,2.0,HOU,7.0,8.0
27.0,32.0,2.0,19.0,0.449,47.0,36.0,0.507,71.0,11.0,0.239,46.0,0.402,117.0,21.0,0.875,24.0,9.0,7.0,NBA,308.0,3.0,17.0,SG,126.0,1993,11.0,HOU,17.0,22.0
28.0,96.0,2.0,69.0,0.447,118.0,73.0,0.415,176.0,45.0,0.326,138.0,0.376,314.0,37.0,0.685,54.0,23.0,23.0,NBA,880.0,12.0,55.0,SG,318.0,1994,20.0,HOU,49.0,81.0
29.0,1.0,0.0,3.0,0.143,1.0,1.0,0.2,5.0,0.0,0.0,2.0,0.143,7.0,1.0,1.0,1.0,1.0,0.0,NBA,16.0,0.0,1.0,SG,3.0,1995,0.0,HOU,1.0,3.0
33.0,5.0,0.0,7.0,0.408,19.0,8.0,0.32,25.0,11.0,0.314,35.0,0.317,60.0,7.0,0.7,10.0,5.0,0.0,NBA,129.0,4.0,12.0,SG,56.0,1999,6.0,SAC,6.0,11.0
35.0,5.0,0.0,5.0,0.2,2.0,2.0,0.4,5.0,0.0,0.0,5.0,0.2,10.0,0.0,0.0,0.0,4.0,0.0,NBA,43.0,1.0,6.0,PG,4.0,2001,0.0,DAL,2.0,6.0
