age,ast_per_mp,blk_per_mp,drb_per_mp,fg2_pct,fg2_per_mp,fg2a_per_mp,fg3_pct,fg3_per_mp,fg3a_per_mp,fg_pct,fg_per_mp,fga_per_mp,ft_pct,ft_per_mp,fta_per_mp,g,gs,lg_id,mp,orb_per_mp,pf_per_mp,pos,pts_per_mp,season,stl_per_mp,team_id,tov_per_mp,trb_per_mp
23.0,0.9,2.7,6.0,0.542,7.8,14.4,0.0,0.0,0.0,0.542,7.8,14.4,0.652,4.5,6.9,4.0,4.0,NBA,120.0,3.0,5.4,PF,20.1,1985,0.9,CLE,2.4,9.0
25.0,0.7,2.3,3.8,0.596,7.0,11.8,0.0,0.0,0.0,0.596,7.0,11.8,0.632,5.4,8.6,5.0,0.0,NBA,159.0,1.4,4.1,SF,19.5,1987,0.9,PHI,0.5,5.2
