age,ast_per_poss,blk_per_poss,def_rtg,drb_per_poss,fg2_pct,fg2_per_poss,fg2a_per_poss,fg3_pct,fg3_per_poss,fg3a_per_poss,fg_pct,fg_per_poss,fga_per_poss,ft_pct,ft_per_poss,fta_per_poss,g,gs,lg_id,mp,off_rtg,orb_per_poss,pf_per_poss,pos,pts_per_poss,season,stl_per_poss,team_id,tov_per_poss,trb_per_poss
22.0,1.8,3.8,105.0,8.6,0.496,4.9,9.8,0.0,0.0,0.0,0.496,4.9,9.8,0.59,1.8,3.1,80.0,61.0,NBA,1858.0,99.0,4.6,8.1,SF,11.6,1984,0.8,CLE,2.9,13.2
23.0,1.4,3.5,106.0,8.2,0.504,9.3,18.5,0.0,0.0,0.1,0.503,9.3,18.6,0.721,5.4,7.6,76.0,75.0,NBA,2344.0,106.0,3.7,6.2,PF,24.1,1985,1.0,CLE,3.4,12.0
24.0,1.7,1.9,107.0,7.9,0.534,10.4,19.4,0.0,0.0,0.1,0.532,10.4,19.5,0.719,6.1,8.4,82.0,82.0,NBA,2834.0,111.0,2.8,5.3,SF,26.8,1986,1.0,CLE,3.1,10.7
25.0,1.2,3.2,108.0,6.7,0.478,7.8,16.3,0.0,0.0,0.0,0.478,7.8,16.3,0.758,5.4,7.1,76.0,58.0,NBA,2489.0,107.0,3.0,5.6,SF,21.0,1987,0.9,PHI,3.0,9.7
26.0,1.9,2.7,108.0,6.8,0.488,8.6,17.6,0.0,0.0,0.0,0.487,8.6,17.6,0.775,5.2,6.7,77.0,57.0,NBA,2592.0,106.0,3.0,5.2,SF,22.3,1988,1.3,TOT,3.2,9.8
26.0,1.6,4.0,108.0,6.9,0.454,7.3,16.0,0.0,0.0,0.1,0.452,7.3,16.1,0.718,5.3,7.3,29.0,10.0,NBA,845.0,99.0,3.1,5.3,SF,19.8,1988,1.4,PHI,3.7,10.0
26.0,2.0,2.0,109.0,6.7,0.502,9.2,18.3,0.0,0.0,0.0,0.502,9.2,18.3,0.806,5.1,6.3,48.0,47.0,NBA,1747.0,109.0,3.0,5.2,SF,23.5,1988,1.3,NJN,3.0,9.7
27.0,1.3,2.3,110.0,7.0,0.483,9.3,19.3,0.0,0.0,0.0,0.482,9.3,19.4,0.757,6.0,7.9,82.0,39.0,NBA,2542.0,107.0,2.9,5.6,SF,24.7,1989,0.6,NJN,3.1,9.8
28.0,1.3,1.6,110.0,6.8,0.507,8.8,17.4,0.0,0.0,0.0,0.507,8.8,17.4,0.869,5.2,6.0,25.0,19.0,NBA,793.0,112.0,3.7,5.3,PF,22.9,1990,0.9,NJN,3.2,10.5
29.0,2.1,1.6,110.0,6.9,0.513,10.6,20.7,0.0,0.0,0.0,0.513,10.6,20.7,0.333,0.5,1.6,9.0,0.0,NBA,91.0,99.0,3.2,7.4,PF,21.8,1991,0.0,NJN,3.2,10.1
