lg_id,salary,season,team_name
NBA,102000.0,1985,San Antonio Spurs
NBA,175000.0,1986,Chicago Bulls
NBA,285000.0,1988,Chicago Bulls
NBA,325000.0,1989,Chicago Bulls
NBA,385000.0,1991,Chicago Bulls
NBA,1600000.0,1992,Chicago Bulls
NBA,1200000.0,1993,Chicago Bulls
NBA,800000.0,1994,Chicago Bulls
