age,ast_pct,blk_pct,bpm,bpm-dum,dbpm,drb_pct,dws,fg3a_per_fga_pct,fta_per_fga_pct,g,lg_id,mp,obpm,orb_pct,ows,per,pos,season,stl_pct,team_id,tov_pct,trb_pct,ts_pct,usg_pct,vorp,ws,ws-dum,ws_per_48
23.0,7.7,2.2,-5.9,0.0,-0.2,18.8,0.9,0.003,0.24,50.0,NBA,979.0,-5.7,9.2,-1.7,7.6,C,1987,0.9,PHO,17.7,14.1,0.422,19.9,-1.0,-0.8,0.0,-0.041
24.0,1.8,3.3,-5.0,0.0,-0.1,13.9,0.5,0.0,0.228,38.0,NBA,298.0,-4.9,10.4,-0.2,9.0,C,1988,1.3,DET,14.6,12.2,0.454,18.2,-0.2,0.2,0.0,0.039
26.0,2.6,4.4,-9.2,0.0,-1.2,19.8,0.5,0.048,0.176,42.0,NBA,246.0,-8.0,7.0,-0.5,9.5,C,1990,0.6,DET,13.5,13.4,0.438,27.2,-0.4,-0.1,0.0,-0.016
27.0,9.2,4.1,-1.4,0.0,0.2,15.5,0.8,0.054,0.322,60.0,NBA,562.0,-1.6,11.1,0.5,15.5,C,1991,0.2,DET,10.4,13.3,0.492,24.1,0.1,1.3,0.0,0.113
28.0,4.9,3.1,-4.4,0.0,0.5,12.0,0.5,0.008,0.182,32.0,NBA,363.0,-4.9,7.5,-0.2,8.4,C,1992,0.9,DET,10.3,9.8,0.436,17.6,-0.2,0.3,0.0,0.043
29.0,0.0,0.9,-15.7,0.0,-6.4,14.9,0.1,0.037,0.444,16.0,NBA,66.0,-9.3,1.8,-0.1,3.0,C,1993,0.0,SAS,3.0,8.7,0.387,22.2,-0.2,-0.1,0.0,-0.05
