age,ast_per_g,blk_per_g,drb_per_g,efg_pct,fg2_pct,fg2_per_g,fg2a_per_g,fg3_pct,fg3_per_g,fg3a_per_g,fg_pct,fg_per_g,fga_per_g,ft_pct,ft_per_g,fta_per_g,g,gs,lg_id,mp_per_g,orb_per_g,pf_per_g,pos,pts_per_g,season,stl_per_g,team_id,tov_per_g,trb_per_g
22.0,0.9,0.4,1.3,0.471,0.465,1.0,2.2,0.318,0.7,2.2,0.391,1.7,4.4,0.714,0.3,0.4,20.0,0.0,NBA,13.4,0.5,1.5,SG,4.4,2019,0.4,PHI,0.3,1.8
23.0,1.0,0.0,0.8,0.529,0.6,0.8,1.3,0.333,1.0,3.0,0.412,1.8,4.3,0.8,1.0,1.3,4.0,0.0,NBA,8.8,0.0,1.8,SG,5.5,2020,0.0,PHI,1.0,0.8
