age,ast_per_poss,blk_per_poss,def_rtg,drb_per_poss,fg2_pct,fg2_per_poss,fg2a_per_poss,fg3_pct,fg3_per_poss,fg3a_per_poss,fg_pct,fg_per_poss,fga_per_poss,ft_pct,ft_per_poss,fta_per_poss,g,gs,lg_id,mp,off_rtg,orb_per_poss,pf_per_poss,pos,pts_per_poss,season,stl_per_poss,team_id,tov_per_poss,trb_per_poss
22.0,3.2,1.4,111.0,4.6,0.465,3.5,7.6,0.318,2.5,7.8,0.391,6.0,15.3,0.714,0.9,1.2,20.0,0.0,NBA,268.0,105.0,1.6,5.1,SG,15.3,2019,1.4,PHI,1.1,6.2
23.0,5.3,0.0,110.0,4.0,0.6,4.0,6.7,0.333,5.3,16.0,0.412,9.3,22.7,0.8,5.3,6.7,4.0,0.0,NBA,35.0,101.0,0.0,9.3,SG,29.3,2020,0.0,PHI,5.3,4.0
