age,ast_pct,blk_pct,bpm,bpm-dum,dbpm,drb_pct,dws,fg3a_per_fga_pct,fta_per_fga_pct,g,lg_id,mp,obpm,orb_pct,ows,per,pos,season,stl_pct,team_id,tov_pct,trb_pct,ts_pct,usg_pct,vorp,ws,ws-dum,ws_per_48
22.0,6.2,2.4,-1.0,0.0,0.2,19.3,0.5,0.019,0.269,51.0,NBA,337.0,-1.2,14.9,0.4,14.7,PF,1991,1.8,CHI,16.5,17.1,0.546,17.7,0.1,0.9,0.0,0.129
23.0,9.1,3.3,0.9,0.0,1.7,25.6,1.3,0.017,0.43,63.0,NBA,690.0,-0.9,15.5,1.0,14.6,PF,1992,1.0,CHI,14.6,20.7,0.523,15.0,0.5,2.3,0.0,0.16
24.0,6.6,3.2,0.3,0.0,2.0,24.7,2.5,0.02,0.354,71.0,NBA,1369.0,-1.7,13.7,1.4,14.6,PF,1993,2.1,CHI,15.1,19.0,0.513,15.3,0.8,3.9,0.0,0.136
25.0,9.5,2.3,-1.2,0.0,0.2,20.6,1.1,0.021,0.415,38.0,NBA,638.0,-1.4,12.6,0.6,15.4,C,1994,1.3,CHI,13.6,16.6,0.518,22.4,0.1,1.7,0.0,0.125
26.0,5.3,1.7,-1.1,0.0,1.1,20.6,2.2,0.016,0.247,77.0,NBA,1781.0,-2.1,11.2,0.9,12.6,PF,1995,2.1,PHI,14.9,15.9,0.51,14.2,0.4,3.1,0.0,0.084
27.0,4.1,2.7,-3.3,0.0,0.6,20.3,0.1,0.069,0.414,13.0,NBA,193.0,-3.8,7.6,0.1,10.5,PF,1996,1.6,PHI,18.9,13.8,0.583,9.8,-0.1,0.3,0.0,0.07
28.0,4.9,2.2,-1.6,0.0,0.1,20.5,1.1,0.006,0.173,62.0,NBA,1317.0,-1.7,12.5,1.5,13.2,C,1997,1.7,PHI,12.7,16.4,0.529,12.6,0.1,2.6,0.0,0.094
29.0,6.0,1.9,-2.6,0.0,-0.6,17.9,0.8,0.023,0.296,58.0,NBA,801.0,-2.0,12.4,0.9,12.1,C,1998,1.1,PHI,11.1,15.1,0.492,15.2,-0.1,1.7,0.0,0.101
30.0,3.2,3.5,-13.9,0.0,-2.2,28.4,0.1,0.0,0.412,7.0,NBA,46.0,-11.8,7.8,-0.2,7.3,C,1999,3.6,TOT,16.6,18.3,0.349,24.8,-0.1,-0.1,0.0,-0.054
30.0,8.6,4.7,-2.0,0.0,8.0,7.0,0.0,0.0,0.0,2.0,NBA,17.0,-10.0,6.7,-0.1,-1.3,C,1999,6.4,PHI,50.0,6.8,0.0,10.7,0.0,0.0,0.0,-0.124
30.0,0.0,2.8,-21.0,0.0,-8.2,41.0,0.1,0.0,0.467,5.0,NBA,29.0,-12.8,8.4,-0.1,12.2,C,1999,1.9,MIL,10.0,25.0,0.387,33.1,-0.1,0.0,0.0,-0.013
31.0,2.9,3.3,-1.3,0.0,-0.6,21.2,1.4,0.0,0.303,68.0,NBA,1488.0,-0.7,14.0,2.5,15.6,C,2000,1.4,MIL,11.9,17.6,0.539,16.4,0.3,3.9,0.0,0.124
32.0,4.2,1.8,-2.0,0.0,0.1,23.6,1.7,0.011,0.194,66.0,NBA,1272.0,-2.1,8.7,1.7,14.2,C,2001,2.0,MIL,9.5,16.2,0.514,15.4,0.0,3.4,0.0,0.128
33.0,2.8,3.3,-5.3,0.0,-0.4,20.7,0.7,0.009,0.189,41.0,NBA,737.0,-4.9,12.1,-0.3,10.5,PF,2002,1.2,DEN,13.0,16.2,0.43,16.4,-0.6,0.4,0.0,0.027
34.0,4.1,1.8,-4.4,0.0,-0.4,15.8,1.1,0.007,0.144,69.0,NBA,872.0,-4.0,9.2,0.1,9.7,C,2003,1.6,PHO,9.3,12.5,0.44,17.6,-0.5,1.1,0.0,0.063
35.0,5.1,2.3,-2.7,0.0,-0.8,20.2,0.5,0.016,0.145,43.0,NBA,527.0,-1.9,8.0,0.6,14.4,C,2004,2.0,TOT,7.5,14.0,0.5,18.1,-0.1,1.1,0.0,0.104
35.0,4.1,2.0,-0.6,0.0,-0.6,21.0,0.4,0.02,0.129,16.0,NBA,267.0,0.0,9.8,0.6,19.3,C,2004,2.9,PHO,5.3,15.4,0.548,19.1,0.1,1.0,0.0,0.172
35.0,6.1,2.6,-4.9,0.0,-1.1,19.3,0.2,0.012,0.165,27.0,NBA,260.0,-3.8,6.1,0.0,9.3,C,2004,1.0,DAL,9.9,12.6,0.444,17.0,-0.2,0.2,0.0,0.033
36.0,7.8,2.9,-4.3,0.0,0.2,11.9,0.2,0.024,0.268,19.0,NBA,152.0,-4.5,11.4,-0.1,6.8,C,2005,1.4,CLE,9.8,11.6,0.36,15.1,-0.1,0.1,0.0,0.025
