age,ast_per_g,blk_per_g,drb_per_g,efg_pct,fg2_pct,fg2_per_g,fg2a_per_g,fg3_pct,fg3_per_g,fg3a_per_g,fg_pct,fg_per_g,fga_per_g,ft_pct,ft_per_g,fta_per_g,g,gs,lg_id,mp_per_g,orb_per_g,pf_per_g,pos,pts_per_g,season,stl_per_g,team_id,tov_per_g,trb_per_g
22.0,0.3,0.3,1.1,0.514,0.51,1.0,2.0,0.5,0.0,0.0,0.51,1.0,2.0,0.714,0.4,0.5,51.0,0.0,NBA,6.6,0.8,1.0,PF,2.5,1991,0.2,CHI,0.5,1.9
23.0,0.8,0.6,2.5,0.483,0.491,1.3,2.7,0.0,0.0,0.0,0.483,1.3,2.7,0.649,0.8,1.2,63.0,0.0,NBA,11.0,1.4,1.9,PF,3.4,1992,0.2,CHI,0.6,3.9
24.0,1.0,0.9,4.0,0.466,0.476,2.3,4.9,0.0,0.0,0.1,0.466,2.3,5.0,0.714,1.3,1.8,71.0,5.0,NBA,19.3,2.4,3.2,PF,5.9,1993,0.8,CHI,1.0,6.4
25.0,1.0,0.6,2.9,0.485,0.489,3.0,6.1,0.2,0.0,0.1,0.483,3.0,6.2,0.612,1.6,2.6,38.0,11.0,NBA,16.8,1.8,2.9,C,7.6,1994,0.4,CHI,1.2,4.8
26.0,0.8,0.5,4.1,0.475,0.482,2.7,5.5,0.0,0.0,0.1,0.475,2.7,5.6,0.738,1.0,1.4,77.0,43.0,NBA,23.1,2.2,3.1,PF,6.4,1995,0.9,PHI,1.1,6.3
27.0,0.4,0.5,2.5,0.517,0.556,1.2,2.1,0.0,0.0,0.2,0.517,1.2,2.2,0.833,0.8,0.9,13.0,1.0,NBA,14.8,1.0,2.1,PF,3.1,1996,0.5,PHI,0.6,3.5
28.0,0.7,0.7,3.9,0.509,0.513,2.6,5.1,0.0,0.0,0.0,0.509,2.6,5.1,0.691,0.6,0.9,62.0,52.0,NBA,21.2,2.5,3.3,C,5.8,1997,0.7,PHI,0.8,6.4
29.0,0.5,0.4,2.1,0.437,0.447,1.6,3.6,0.0,0.0,0.1,0.437,1.6,3.7,0.81,0.9,1.1,58.0,7.0,NBA,13.8,1.5,2.3,C,4.1,1998,0.3,PHI,0.5,3.6
30.0,0.1,0.3,1.6,0.294,0.294,0.7,2.4,0.0,0.0,0.0,0.294,0.7,2.4,0.571,0.6,1.0,7.0,0.0,NBA,6.6,0.4,1.3,C,2.0,1999,0.4,TOT,0.6,2.0
30.0,0.5,0.5,0.5,0.0,0.0,0.0,1.0,0.0,0.0,0.0,0.0,0.0,1.0,0.0,0.0,0.0,2.0,0.0,NBA,8.5,0.5,2.0,C,0.0,1999,1.0,PHI,1.0,1.0
30.0,0.0,0.2,2.0,0.333,0.333,1.0,3.0,0.0,0.0,0.0,0.333,1.0,3.0,0.571,0.8,1.4,5.0,0.0,NBA,5.8,0.4,1.0,C,2.8,1999,0.2,MIL,0.4,2.4
31.0,0.4,1.0,4.0,0.5,0.5,3.1,6.3,0.0,0.0,0.0,0.5,3.1,6.3,0.729,1.4,1.9,68.0,46.0,NBA,21.9,2.6,3.4,C,7.6,2000,0.6,MIL,1.0,6.6
32.0,0.5,0.5,4.0,0.475,0.476,2.6,5.4,0.25,0.0,0.1,0.474,2.6,5.5,0.857,0.9,1.1,66.0,31.0,NBA,19.3,1.5,2.7,C,6.1,2001,0.7,MIL,0.6,5.5
33.0,0.3,0.8,3.1,0.396,0.4,2.1,5.2,0.0,0.0,0.0,0.396,2.1,5.3,0.732,0.7,1.0,41.0,16.0,NBA,18.0,2.0,2.4,PF,4.9,2002,0.4,DEN,0.9,5.1
34.0,0.3,0.3,1.8,0.411,0.414,1.7,4.2,0.0,0.0,0.0,0.411,1.7,4.2,0.786,0.5,0.6,69.0,33.0,NBA,12.6,1.0,2.3,C,4.0,2003,0.4,PHO,0.5,2.8
35.0,0.4,0.4,2.2,0.489,0.481,2.0,4.3,0.667,0.0,0.1,0.484,2.1,4.3,0.593,0.4,0.6,43.0,21.0,NBA,12.3,0.9,2.2,C,4.6,2004,0.5,TOT,0.4,3.1
35.0,0.4,0.4,3.1,0.535,0.515,3.2,6.2,1.0,0.1,0.1,0.525,3.3,6.3,0.692,0.6,0.8,16.0,10.0,NBA,16.7,1.4,2.8,C,7.3,2004,0.9,PHO,0.4,4.5
35.0,0.4,0.3,1.7,0.435,0.44,1.4,3.1,0.0,0.0,0.0,0.435,1.4,3.1,0.5,0.3,0.5,27.0,11.0,NBA,9.6,0.6,1.9,C,3.0,2004,0.2,DAL,0.4,2.2
36.0,0.4,0.3,0.8,0.293,0.3,0.6,2.1,0.0,0.0,0.1,0.293,0.6,2.2,0.818,0.5,0.6,19.0,0.0,NBA,8.0,0.8,1.6,C,1.7,2005,0.2,CLE,0.3,1.6
