age,ast,blk,drb,efg_pct,fg,fg2,fg2_pct,fg2a,fg3,fg3_pct,fg3a,fg_pct,fga,ft,ft_pct,fta,g,gs,lg_id,mp,orb,pf,pos,pts,season,stl,team_id,tov,trb
22.0,16.0,5.0,35.0,0.525,26.0,14.0,0.583,24.0,12.0,0.324,37.0,0.426,61.0,15.0,0.682,22.0,33.0,4.0,NBA,235.0,17.0,23.0,PF,79.0,2018,4.0,BOS,12.0,52.0
23.0,15.0,7.0,30.0,0.513,35.0,26.0,0.531,49.0,9.0,0.321,28.0,0.455,77.0,15.0,0.682,22.0,41.0,1.0,NBA,251.0,23.0,32.0,PF,94.0,2019,8.0,BOS,15.0,53.0
