age,ast_per_g,blk_per_g,drb_per_g,efg_pct,fg2_pct,fg2_per_g,fg2a_per_g,fg3_pct,fg3_per_g,fg3a_per_g,fg_pct,fg_per_g,fga_per_g,ft_pct,ft_per_g,fta_per_g,g,gs,lg_id,mp_per_g,orb_per_g,pf_per_g,pos,pts_per_g,season,stl_per_g,team_id,tov_per_g,trb_per_g
22.0,0.3,0.0,0.7,0.111,0.333,0.1,0.3,0.0,0.0,0.5,0.111,0.1,0.8,0.4,0.2,0.4,12.0,0.0,NBA,4.0,0.3,0.8,PF,0.3,2018,0.2,BOS,0.0,0.9
23.0,0.3,0.3,0.3,0.5,0.667,0.5,0.8,0.0,0.0,0.3,0.5,0.5,1.0,0.571,1.0,1.8,4.0,0.0,NBA,3.5,0.3,0.8,PF,2.0,2019,0.0,BOS,0.3,0.5
