age,ast,blk,drb,efg_pct,fg,fg2,fg2_pct,fg2a,fg3,fg3_pct,fg3a,fg_pct,fga,ft,ft_pct,fta,g,gs,lg_id,mp,orb,pf,pos,pts,season,stl,team_id,tov,trb
24.0,65.0,9.0,79.0,0.487,108.0,70.0,0.473,148.0,38.0,0.336,113.0,0.414,261.0,53.0,0.803,66.0,24.0,24.0,NBA,811.0,19.0,53.0,SG,307.0,2003,33.0,SAS,68.0,98.0
26.0,29.0,6.0,43.0,0.449,70.0,50.0,0.435,115.0,20.0,0.317,63.0,0.393,178.0,49.0,0.817,60.0,13.0,13.0,NBA,472.0,7.0,39.0,SF,209.0,2005,25.0,IND,34.0,50.0
27.0,20.0,1.0,22.0,0.402,30.0,24.0,0.429,56.0,6.0,0.231,26.0,0.366,82.0,14.0,0.778,18.0,6.0,6.0,NBA,227.0,5.0,23.0,SG,80.0,2006,4.0,IND,15.0,27.0
28.0,40.0,8.0,34.0,0.46,61.0,35.0,0.393,89.0,26.0,0.361,72.0,0.379,161.0,71.0,0.816,87.0,11.0,11.0,NBA,454.0,6.0,39.0,SF,219.0,2007,22.0,GSW,41.0,40.0
31.0,15.0,1.0,14.0,0.381,24.0,21.0,0.429,49.0,3.0,0.167,18.0,0.358,67.0,21.0,0.808,26.0,4.0,4.0,NBA,156.0,6.0,13.0,SG,72.0,2010,5.0,CHA,17.0,20.0
33.0,24.0,3.0,23.0,0.718,38.0,12.0,0.429,28.0,26.0,0.605,43.0,0.535,71.0,14.0,0.933,15.0,14.0,0.0,NBA,299.0,5.0,38.0,SF,116.0,2012,9.0,SAS,18.0,28.0
