age,ast_per_g,blk_per_g,drb_per_g,efg_pct,fg2_pct,fg2_per_g,fg2a_per_g,fg3_pct,fg3_per_g,fg3a_per_g,fg_pct,fg_per_g,fga_per_g,ft_pct,ft_per_g,fta_per_g,g,gs,lg_id,mp_per_g,orb_per_g,pf_per_g,pos,pts_per_g,season,stl_per_g,team_id,tov_per_g,trb_per_g
22.0,1.8,0.2,2.2,0.47,0.458,2.5,5.4,0.335,0.7,2.0,0.425,3.2,7.4,0.719,1.3,1.8,77.0,40.0,NBA,21.6,0.5,2.2,SF,8.2,2001,1.1,NJN,1.7,2.7
23.0,0.5,0.1,1.0,0.423,0.455,1.1,2.4,0.25,0.4,1.6,0.374,1.5,4.0,0.706,0.5,0.7,23.0,1.0,NBA,9.9,0.1,1.3,SF,3.9,2002,0.7,SAS,1.0,1.1
24.0,2.3,0.4,2.8,0.493,0.501,3.3,6.5,0.32,1.2,3.7,0.435,4.5,10.2,0.76,1.7,2.3,80.0,58.0,NBA,28.2,0.8,2.5,SG,11.8,2003,1.6,SAS,2.2,3.6
25.0,3.1,0.3,3.4,0.483,0.469,4.9,10.4,0.34,1.8,5.3,0.425,6.7,15.8,0.785,2.9,3.7,80.0,78.0,NBA,36.8,1.2,2.7,SF,18.1,2004,1.8,ATL,2.8,4.6
26.0,2.3,0.3,4.0,0.466,0.426,4.5,10.5,0.36,2.0,5.6,0.403,6.5,16.1,0.83,3.7,4.5,51.0,49.0,NBA,35.4,0.9,3.0,SF,18.7,2005,1.3,IND,2.4,4.9
27.0,2.8,0.5,3.3,0.462,0.439,4.4,10.0,0.345,1.4,4.2,0.411,5.8,14.2,0.786,3.3,4.2,81.0,81.0,NBA,35.9,0.6,2.4,SG,16.4,2006,1.3,IND,2.5,3.9
28.0,3.8,0.5,2.1,0.486,0.488,4.1,8.4,0.322,1.3,4.1,0.433,5.5,12.6,0.813,3.2,4.0,75.0,69.0,NBA,33.1,0.8,2.7,SF-SG,15.5,2007,1.1,TOT,2.4,3.0
28.0,3.1,0.5,2.1,0.466,0.476,3.8,7.9,0.297,1.1,3.7,0.419,4.9,11.6,0.822,3.2,3.9,37.0,32.0,NBA,32.1,0.5,2.4,SG,14.1,2007,0.9,IND,2.2,2.6
28.0,4.6,0.4,2.2,0.503,0.499,4.5,9.0,0.341,1.6,4.6,0.446,6.0,13.5,0.804,3.2,4.0,38.0,37.0,NBA,34.0,1.2,3.0,SF,16.8,2007,1.3,GSW,2.7,3.3
29.0,4.1,0.4,3.4,0.481,0.435,4.2,9.6,0.363,2.5,6.9,0.405,6.7,16.5,0.832,4.2,5.1,73.0,73.0,NBA,39.1,0.9,2.3,SF,20.1,2008,1.3,GSW,2.7,4.4
30.0,6.5,0.5,3.9,0.466,0.448,5.3,11.7,0.338,1.7,5.2,0.414,7.0,16.9,0.826,5.0,6.0,59.0,59.0,NBA,39.6,1.2,2.6,SF,20.7,2009,1.5,GSW,3.9,5.1
31.0,3.7,0.5,4.0,0.469,0.46,5.8,12.7,0.328,1.6,4.9,0.423,7.4,17.5,0.779,4.2,5.4,81.0,81.0,NBA,38.6,1.0,2.4,SG-PF,20.6,2010,1.6,TOT,3.2,5.0
31.0,4.7,0.7,3.2,0.462,0.484,5.0,10.3,0.275,1.2,4.4,0.421,6.2,14.8,0.703,2.9,4.1,9.0,9.0,NBA,33.3,0.7,1.8,PF,16.6,2010,1.6,GSW,2.9,3.9
31.0,3.6,0.5,4.1,0.469,0.457,5.9,12.9,0.334,1.6,4.9,0.423,7.6,17.8,0.786,4.3,5.5,72.0,72.0,NBA,39.3,1.0,2.5,SG,21.1,2010,1.6,CHA,3.2,5.1
32.0,3.6,0.4,3.7,0.468,0.449,4.7,10.4,0.337,1.8,5.4,0.411,6.5,15.8,0.816,3.7,4.6,67.0,67.0,NBA,35.9,0.8,2.4,SG,18.5,2011,1.2,CHA,3.1,4.5
33.0,2.5,0.3,3.0,0.432,0.431,2.3,5.4,0.288,1.0,3.6,0.374,3.4,9.0,0.825,2.0,2.4,47.0,14.0,NBA,25.8,0.5,2.1,SF,9.8,2012,1.1,TOT,2.2,3.5
33.0,3.0,0.2,2.5,0.412,0.409,2.6,6.3,0.278,1.2,4.2,0.357,3.7,10.5,0.833,1.9,2.3,26.0,13.0,NBA,27.4,0.6,2.3,SF,10.5,2012,1.0,MIL,2.5,3.2
33.0,2.0,0.3,3.6,0.467,0.473,2.0,4.3,0.306,0.9,3.0,0.405,3.0,7.3,0.815,2.1,2.6,21.0,1.0,NBA,23.8,0.3,1.8,SF,8.9,2012,1.3,SAS,1.8,3.9
34.0,1.5,0.3,2.4,0.442,0.481,1.4,2.9,0.271,0.8,3.1,0.373,2.2,6.0,0.7,0.9,1.3,55.0,6.0,NBA,19.5,0.4,1.6,SF,6.2,2013,0.7,SAS,1.4,2.8
35.0,0.6,0.1,0.9,0.25,0.417,0.6,1.3,0.071,0.1,1.6,0.231,0.7,2.9,0.5,0.2,0.4,9.0,0.0,NBA,11.9,0.2,1.2,SF,1.7,2014,0.7,LAC,0.7,1.1
