age,ast,blk,drb,fg,fg2,fg2a,fg3,fg3a,fga,ft,fta,game_score,lg_id,mp,orb,pf,pts,season,stl,team_id,tov,trb
23.0,3.0,1.0,5.0,7.0,6.0,11.0,3.0,5.0,13.0,5.0,6.0,13.6,NBA,0.0,3.0,5.0,20.0,1997,3.0,UTA,4.0,7.0
24.0,7.0,2.0,6.0,11.0,11.0,17.0,2.0,2.0,17.0,6.0,7.0,23.6,NBA,0.0,6.0,5.0,26.0,1998,3.0,UTA,4.0,9.0
25.0,4.0,2.0,6.0,6.0,6.0,12.0,2.0,3.0,13.0,7.0,8.0,16.6,NBA,0.0,4.0,5.0,18.0,1999,3.0,UTA,4.0,7.0
26.0,8.0,3.0,11.0,12.0,12.0,17.0,6.0,11.0,21.0,10.0,14.0,29.1,NBA,0.0,5.0,5.0,35.0,2000,6.0,HOU,5.0,13.0
27.0,7.0,2.0,8.0,9.0,8.0,15.0,3.0,8.0,17.0,13.0,15.0,23.6,NBA,0.0,3.0,5.0,26.0,2001,5.0,HOU,4.0,11.0
28.0,4.0,2.0,6.0,8.0,7.0,10.0,3.0,7.0,16.0,8.0,10.0,16.5,NBA,0.0,4.0,6.0,22.0,2002,3.0,NYK,6.0,8.0
29.0,5.0,2.0,7.0,7.0,6.0,13.0,3.0,6.0,15.0,7.0,8.0,20.0,NBA,0.0,4.0,6.0,21.0,2003,3.0,NYK,6.0,8.0
30.0,7.0,2.0,7.0,11.0,11.0,17.0,2.0,6.0,22.0,12.0,15.0,19.6,NBA,0.0,3.0,6.0,28.0,2004,5.0,NYK,5.0,9.0
31.0,4.0,3.0,9.0,7.0,7.0,9.0,2.0,4.0,11.0,7.0,8.0,20.5,NBA,0.0,3.0,6.0,21.0,2005,4.0,TOT,4.0,10.0
31.0,0.0,0.0,0.0,0.0,0.0,1.0,0.0,1.0,2.0,0.0,0.0,-2.5,NBA,0.0,1.0,2.0,0.0,2005,0.0,NYK,1.0,1.0
31.0,4.0,3.0,9.0,7.0,7.0,9.0,2.0,4.0,11.0,7.0,8.0,20.5,NBA,0.0,3.0,6.0,21.0,2005,4.0,MIA,4.0,10.0
32.0,4.0,2.0,5.0,5.0,5.0,12.0,2.0,2.0,12.0,5.0,7.0,12.2,NBA,36.0,2.0,6.0,15.0,2006,2.0,MIA,2.0,6.0
