age,ast,blk,drb,efg_pct,fg,fg2,fg2_pct,fg2a,fg3,fg3_pct,fg3a,fg_pct,fga,ft,ft_pct,fta,g,gs,lg_id,mp,orb,pf,pos,pts,season,stl,team_id,tov,trb
23.0,83.0,4.0,29.0,0.54,75.0,75.0,0.54,139.0,0.0,0.0,0.0,0.54,139.0,26.0,0.765,34.0,12.0,0.0,NBA,430.0,4.0,33.0,SG,176.0,1977,24.0,HOU,0.0,33.0
28.0,20.0,1.0,8.0,0.558,14.0,13.0,0.565,23.0,1.0,0.333,3.0,0.538,26.0,2.0,0.667,3.0,7.0,0.0,NBA,74.0,0.0,6.0,PG,31.0,1982,3.0,WSB,4.0,8.0
31.0,27.0,0.0,14.0,0.338,26.0,24.0,0.364,66.0,2.0,0.143,14.0,0.325,80.0,14.0,0.636,22.0,5.0,4.0,NBA,152.0,7.0,14.0,PG,68.0,1985,6.0,HOU,7.0,21.0
33.0,62.0,1.0,21.0,0.493,68.0,56.0,0.491,114.0,12.0,0.333,36.0,0.453,150.0,39.0,0.813,48.0,12.0,12.0,NBA,362.0,4.0,17.0,PG,187.0,1987,14.0,MIL,20.0,25.0
34.0,19.0,0.0,3.0,0.426,10.0,7.0,0.5,14.0,3.0,0.231,13.0,0.37,27.0,6.0,0.667,9.0,5.0,0.0,NBA,80.0,5.0,5.0,PG,29.0,1988,5.0,MIL,6.0,8.0
35.0,8.0,0.0,1.0,0.294,5.0,5.0,0.357,14.0,0.0,0.0,3.0,0.294,17.0,1.0,0.5,2.0,4.0,0.0,NBA,37.0,0.0,5.0,PG,11.0,1989,0.0,SEA,2.0,1.0
