age,ast,ast_per_g,blk,college_id,fg,fg3,fg3_pct,fg3a,fg_pct,fga,ft,ft_pct,fta,g,mp,mp_per_g,orb,pf,pts,pts_per_g,season,stl,tov,trb,trb_per_g
19.0,8.0,0.3,0.0,ARIZONA,25.0,0.0,0.0,0.0,0.568,44.0,6.0,0.4,15.0,27.0,170.0,6.3,0.0,0.0,56.0,2.1,1992,0.0,0.0,47.0,1.7
20.0,10.0,0.4,0.0,ARIZONA,83.0,1.0,0.125,8.0,0.539,154.0,37.0,0.529,70.0,27.0,519.0,19.2,0.0,0.0,204.0,7.6,1993,0.0,0.0,137.0,5.1
21.0,24.0,0.7,0.0,ARIZONA,178.0,17.0,0.321,53.0,0.501,355.0,77.0,0.642,120.0,35.0,1024.0,29.3,0.0,0.0,450.0,12.9,1994,0.0,0.0,285.0,8.1
22.0,17.0,0.5,0.0,ARIZONA,173.0,14.0,0.483,29.0,0.482,359.0,108.0,0.659,164.0,31.0,937.0,30.2,0.0,0.0,468.0,15.1,1995,0.0,0.0,252.0,8.1
