age,ast,blk,drb,efg_pct,fg,fg2,fg2_pct,fg2a,fg3,fg3_pct,fg3a,fg_pct,fga,ft,ft_pct,fta,g,gs,lg_id,mp,orb,pf,pos,pts,season,stl,team_id,tov,trb
23.0,21.0,0.0,8.0,0.391,17.0,15.0,0.455,33.0,2.0,0.154,13.0,0.37,46.0,6.0,0.667,9.0,20.0,0.0,NBA,139.0,0.0,16.0,PG,42.0,2002,3.0,GSW,11.0,8.0
24.0,23.0,0.0,8.0,0.259,7.0,6.0,0.261,23.0,1.0,0.167,6.0,0.241,29.0,7.0,0.875,8.0,15.0,0.0,NBA,93.0,8.0,9.0,PG,22.0,2003,7.0,GSW,10.0,16.0
