article_url,date,headline
https://thejnotes.com/2019/07/30/utah-jazz-tape-rudy-gobert-draining-threes-much-ado-nothing/,2019/07/30,Purple and Blues: Utah Jazz: Tape of Rudy Gobert draining 3s likely much ado about nothing
https://hoopshabit.com/2019/07/16/san-antonio-spurs-summer-league-past-greats/,2019/07/16,Hoops Habit: San Antonio Spurs: What can past greats in the Summer League teach us about the future?
https://thejnotes.com/2019/06/14/utah-jazz-counting-top-15-draft-picks/,2019/06/14,Purple and Blues: Utah Jazz: Counting down the team's Top 15 all-time draft picks
