age,ast,blk,drb,efg_pct,fg,fg2,fg2_pct,fg2a,fg3,fg3_pct,fg3a,fg_pct,fga,ft,ft_pct,fta,g,gs,lg_id,mp,orb,pf,pos,pts,season,stl,team_id,tov,trb
24.0,15.0,25.0,75.0,0.474,63.0,63.0,0.474,133.0,0.0,0.0,0.0,0.474,133.0,37.0,0.712,52.0,45.0,14.0,NBA,524.0,46.0,84.0,C,163.0,2011,15.0,TOT,35.0,121.0
24.0,15.0,23.0,63.0,0.464,52.0,52.0,0.464,112.0,0.0,0.0,0.0,0.464,112.0,31.0,0.705,44.0,34.0,14.0,NBA,458.0,41.0,76.0,C,135.0,2011,14.0,NYK,32.0,104.0
24.0,0.0,2.0,12.0,0.524,11.0,11.0,0.524,21.0,0.0,0.0,0.0,0.524,21.0,6.0,0.75,8.0,11.0,0.0,NBA,66.0,5.0,8.0,C,28.0,2011,1.0,DEN,3.0,17.0
25.0,22.0,42.0,126.0,0.526,100.0,100.0,0.526,190.0,0.0,0.0,0.0,0.526,190.0,39.0,0.684,57.0,44.0,35.0,NBA,687.0,53.0,86.0,C,239.0,2012,15.0,DEN,53.0,179.0
26.0,9.0,18.0,57.0,0.506,44.0,44.0,0.518,85.0,0.0,0.0,2.0,0.506,87.0,20.0,0.769,26.0,41.0,1.0,NBA,366.0,50.0,57.0,C,108.0,2013,6.0,DEN,25.0,107.0
27.0,62.0,100.0,357.0,0.527,285.0,281.0,0.539,521.0,4.0,0.167,24.0,0.523,545.0,196.0,0.754,260.0,82.0,30.0,NBA,1770.0,171.0,213.0,C,770.0,2014,27.0,DEN,122.0,528.0
28.0,55.0,97.0,388.0,0.557,314.0,312.0,0.557,560.0,2.0,0.333,6.0,0.555,566.0,155.0,0.718,216.0,81.0,80.0,NBA,2045.0,203.0,227.0,C,785.0,2015,33.0,TOT,116.0,591.0
28.0,16.0,41.0,181.0,0.509,117.0,115.0,0.509,226.0,2.0,0.333,6.0,0.504,232.0,63.0,0.733,86.0,35.0,35.0,NBA,897.0,91.0,114.0,C,299.0,2015,15.0,DEN,47.0,272.0
28.0,39.0,56.0,207.0,0.59,197.0,197.0,0.59,334.0,0.0,0.0,0.0,0.59,334.0,92.0,0.708,130.0,46.0,45.0,NBA,1148.0,112.0,113.0,C,486.0,2015,18.0,CLE,69.0,319.0
29.0,33.0,57.0,227.0,0.567,203.0,202.0,0.574,352.0,1.0,0.143,7.0,0.565,359.0,68.0,0.716,95.0,76.0,48.0,NBA,1326.0,110.0,159.0,C,475.0,2016,22.0,CLE,71.0,337.0
30.0,43.0,31.0,160.0,0.515,169.0,169.0,0.517,327.0,0.0,0.0,1.0,0.515,328.0,63.0,0.808,78.0,54.0,52.0,NBA,1104.0,104.0,133.0,C,401.0,2017,16.0,LAL,72.0,264.0
31.0,11.0,13.0,66.0,0.581,52.0,48.0,0.64,75.0,4.0,0.222,18.0,0.559,93.0,23.0,0.767,30.0,31.0,13.0,NBA,359.0,32.0,39.0,C,131.0,2018,5.0,BRK,33.0,98.0
