age,and1s,astd_pts,drawn_offensive,drawn_shooting,fouls_offensive,fouls_shooting,g,lg_id,mp,own_shots_blk,pct_1,pct_2,pct_3,pct_4,pct_5,plus_minus_net,plus_minus_on,pos,season,team_id,tov_bad_pass,tov_lost_ball
24.0,5.0,37.0,3.0,25.0,3.0,53.0,45.0,NBA,524.0,15.0,0.0,0.0,0.0,0.0,100.0,-8.0,-4.3,C,2011,TOT,6.0,15.0
24.0,3.0,37.0,2.0,20.0,3.0,47.0,34.0,NBA,458.0,12.0,0.0,0.0,0.0,0.0,100.0,-8.5,-6.4,C,2011,NYK,6.0,14.0
24.0,2.0,0.0,1.0,5.0,0.0,6.0,11.0,NBA,66.0,3.0,0.0,0.0,0.0,0.0,100.0,4.4,9.5,C,2011,DEN,0.0,1.0
25.0,5.0,50.0,1.0,27.0,15.0,44.0,44.0,NBA,687.0,14.0,0.0,0.0,0.0,0.0,100.0,-9.8,-4.3,C,2012,DEN,14.0,12.0
26.0,2.0,22.0,0.0,12.0,5.0,33.0,41.0,NBA,366.0,7.0,0.0,0.0,0.0,0.0,100.0,-15.4,-8.8,C,2013,DEN,3.0,9.0
27.0,21.0,150.0,4.0,103.0,33.0,112.0,82.0,NBA,1770.0,51.0,0.0,0.0,0.0,0.0,100.0,6.1,1.2,C,2014,DEN,28.0,33.0
28.0,13.0,131.0,6.0,92.0,22.0,135.0,81.0,NBA,2045.0,54.0,0.0,0.0,0.0,0.0,100.0,7.4,5.8,C,2015,TOT,22.0,40.0
28.0,9.0,37.0,3.0,37.0,10.0,64.0,35.0,NBA,897.0,25.0,0.0,0.0,0.0,0.0,100.0,1.8,-2.4,C,2015,DEN,8.0,12.0
28.0,4.0,94.0,3.0,55.0,12.0,71.0,46.0,NBA,1148.0,29.0,0.0,0.0,0.0,0.0,100.0,10.8,12.2,C,2015,CLE,14.0,28.0
29.0,15.0,79.0,2.0,51.0,13.0,99.0,76.0,NBA,1326.0,30.0,0.0,0.0,0.0,0.0,100.0,-8.2,1.0,C,2016,CLE,10.0,31.0
30.0,6.0,105.0,5.0,37.0,20.0,75.0,54.0,NBA,1104.0,26.0,0.0,0.0,0.0,0.0,100.0,-2.2,-8.8,C,2017,LAL,23.0,15.0
31.0,3.0,27.0,0.0,12.0,9.0,13.0,31.0,NBA,359.0,6.0,0.0,0.0,0.0,0.0,100.0,-9.2,-12.2,C,2018,BRK,2.0,12.0
