age,ast_per_poss,blk_per_poss,def_rtg,drb_per_poss,fg2_pct,fg2_per_poss,fg2a_per_poss,fg3_pct,fg3_per_poss,fg3a_per_poss,fg_pct,fg_per_poss,fga_per_poss,ft_pct,ft_per_poss,fta_per_poss,g,gs,lg_id,mp,off_rtg,orb_per_poss,pf_per_poss,pos,pts_per_poss,season,stl_per_poss,team_id,tov_per_poss,trb_per_poss
24.0,1.4,2.4,108.0,7.2,0.474,6.0,12.7,0.0,0.0,0.0,0.474,6.0,12.7,0.712,3.5,5.0,45.0,14.0,NBA,524.0,100.0,4.4,8.1,C,15.6,2011,1.4,TOT,3.4,11.6
24.0,1.6,2.5,108.0,6.9,0.464,5.7,12.3,0.0,0.0,0.0,0.464,5.7,12.3,0.705,3.4,4.8,34.0,14.0,NBA,458.0,99.0,4.5,8.3,C,14.8,2011,1.5,NYK,3.5,11.4
24.0,0.0,1.5,107.0,9.1,0.524,8.4,16.0,0.0,0.0,0.0,0.524,8.4,16.0,0.75,4.6,6.1,11.0,0.0,NBA,66.0,110.0,3.8,6.1,C,21.3,2011,0.8,DEN,2.3,12.9
25.0,1.6,3.1,103.0,9.3,0.526,7.4,14.1,0.0,0.0,0.0,0.526,7.4,14.1,0.684,2.9,4.2,44.0,35.0,NBA,687.0,100.0,3.9,6.4,C,17.7,2012,1.1,DEN,3.9,13.3
26.0,1.2,2.5,105.0,7.9,0.518,6.1,11.7,0.0,0.0,0.3,0.506,6.1,12.0,0.769,2.8,3.6,41.0,1.0,NBA,366.0,107.0,6.9,7.9,C,14.9,2013,0.8,DEN,3.4,14.8
27.0,1.7,2.8,106.0,9.9,0.539,7.8,14.4,0.167,0.1,0.7,0.523,7.9,15.1,0.754,5.4,7.2,82.0,30.0,NBA,1770.0,111.0,4.7,5.9,C,21.3,2014,0.7,DEN,3.4,14.6
28.0,1.4,2.4,105.0,9.7,0.557,7.8,14.0,0.333,0.0,0.1,0.555,7.8,14.1,0.718,3.9,5.4,81.0,80.0,NBA,2045.0,113.0,5.1,5.7,C,19.6,2015,0.8,TOT,2.9,14.8
28.0,0.9,2.3,106.0,10.1,0.509,6.4,12.6,0.333,0.1,0.3,0.504,6.5,12.9,0.733,3.5,4.8,35.0,35.0,NBA,897.0,108.0,5.1,6.3,C,16.6,2015,0.8,DEN,2.6,15.1
28.0,1.8,2.5,105.0,9.4,0.59,8.9,15.1,0.0,0.0,0.0,0.59,8.9,15.1,0.708,4.2,5.9,46.0,45.0,NBA,1148.0,117.0,5.1,5.1,C,22.0,2015,0.8,CLE,3.1,14.4
29.0,1.3,2.2,103.0,8.8,0.574,7.8,13.7,0.143,0.0,0.3,0.565,7.9,13.9,0.716,2.6,3.7,76.0,48.0,NBA,1326.0,112.0,4.3,6.2,C,18.4,2016,0.9,CLE,2.8,13.1
30.0,1.9,1.4,114.0,7.1,0.517,7.5,14.4,0.0,0.0,0.0,0.515,7.5,14.5,0.808,2.8,3.4,54.0,52.0,NBA,1104.0,106.0,4.6,5.9,C,17.7,2017,0.7,LAL,3.2,11.7
31.0,1.5,1.8,110.0,8.9,0.64,6.5,10.1,0.222,0.5,2.4,0.559,7.0,12.6,0.767,3.1,4.1,31.0,13.0,NBA,359.0,103.0,4.3,5.3,C,17.7,2018,0.7,BRK,4.5,13.3
