age,ast_per_poss,blk_per_poss,def_rtg,drb_per_poss,fg2_pct,fg2_per_poss,fg2a_per_poss,fg3_pct,fg3_per_poss,fg3a_per_poss,fg_pct,fg_per_poss,fga_per_poss,ft_pct,ft_per_poss,fta_per_poss,g,gs,lg_id,mp,off_rtg,orb_per_poss,pf_per_poss,pos,pts_per_poss,season,stl_per_poss,team_id,tov_per_poss,trb_per_poss
19.0,1.4,2.6,104.0,10.2,0.521,6.7,12.8,0.0,0.0,0.0,0.52,6.7,12.8,0.671,5.3,7.8,82.0,82.0,NBA,2670.0,111.0,5.4,4.4,PF,18.6,2005,1.5,ORL,3.1,15.6
20.0,2.2,2.1,103.0,13.2,0.532,8.4,15.8,0.0,0.0,0.0,0.531,8.4,15.9,0.595,6.4,10.8,82.0,81.0,NBA,3021.0,108.0,5.2,5.0,PF,23.2,2006,1.2,ORL,3.9,18.4
21.0,2.8,2.8,99.0,12.8,0.603,9.3,15.4,0.5,0.0,0.0,0.603,9.3,15.4,0.586,6.9,11.8,82.0,82.0,NBA,3023.0,107.0,5.0,4.3,C,25.5,2007,1.2,ORL,5.6,17.8
22.0,1.8,2.9,99.0,14.7,0.601,9.7,16.1,0.0,0.0,0.1,0.599,9.7,16.2,0.59,8.8,14.9,82.0,82.0,NBA,3088.0,113.0,4.6,4.6,C,28.2,2008,1.2,ORL,4.4,19.3
23.0,2.1,4.3,95.0,13.9,0.573,10.3,18.0,0.0,0.0,0.0,0.572,10.3,18.0,0.594,9.3,15.6,79.0,79.0,NBA,2821.0,113.0,6.2,5.0,C,29.9,2009,1.4,ORL,4.4,20.1
24.0,2.6,4.2,95.0,14.6,0.617,9.4,15.2,0.0,0.0,0.1,0.612,9.4,15.3,0.592,8.9,15.0,82.0,82.0,NBA,2843.0,113.0,5.2,5.3,C,27.6,2010,1.4,ORL,5.0,19.8
25.0,1.9,3.3,94.0,14.1,0.597,11.1,18.6,0.0,0.0,0.1,0.593,11.1,18.7,0.596,9.8,16.4,78.0,78.0,NBA,2935.0,113.0,5.5,4.6,C,32.0,2011,1.9,ORL,5.0,19.7
26.0,2.7,3.0,96.0,15.2,0.579,10.8,18.7,0.0,0.0,0.2,0.573,10.8,18.9,0.491,7.3,14.9,54.0,54.0,NBA,2070.0,106.0,5.2,4.1,C,29.0,2012,2.1,ORL,4.6,20.4
27.0,2.0,3.5,100.0,13.0,0.581,8.8,15.1,0.167,0.0,0.1,0.578,8.8,15.2,0.492,6.6,13.5,76.0,76.0,NBA,2722.0,105.0,4.7,5.4,C,24.2,2013,1.6,LAL,4.2,17.6
28.0,2.7,2.7,101.0,13.2,0.594,9.8,16.5,0.286,0.0,0.1,0.591,9.8,16.6,0.547,7.3,13.3,71.0,71.0,NBA,2396.0,109.0,4.8,5.0,C,27.0,2014,1.2,HOU,4.8,18.0
29.0,2.0,2.2,100.0,13.0,0.594,10.2,17.1,0.5,0.0,0.1,0.593,10.2,17.2,0.528,5.8,11.0,41.0,41.0,NBA,1223.0,105.0,4.5,5.6,C,26.3,2015,1.1,HOU,4.7,17.5
30.0,2.1,2.4,104.0,12.9,0.626,8.0,12.8,0.0,0.0,0.1,0.62,8.0,12.9,0.489,5.0,10.2,71.0,71.0,NBA,2280.0,111.0,5.1,4.7,C,21.0,2016,1.5,HOU,3.6,18.0
31.0,2.3,2.1,100.0,14.4,0.635,8.7,13.7,0.0,0.0,0.0,0.633,8.7,13.7,0.533,5.1,9.5,74.0,74.0,NBA,2199.0,115.0,6.6,4.6,C,22.5,2017,1.4,ATL,3.8,21.1
32.0,2.1,2.6,104.0,15.0,0.559,10.0,17.9,0.143,0.0,0.1,0.555,10.0,18.0,0.574,6.6,11.5,81.0,81.0,NBA,2463.0,108.0,5.0,4.9,C,26.7,2018,1.0,CHO,4.1,20.0
33.0,0.8,0.8,111.0,12.1,0.623,8.9,14.2,0.0,0.0,0.0,0.623,8.9,14.2,0.604,6.0,9.9,9.0,9.0,NBA,230.0,116.0,4.9,7.0,C,23.7,2019,1.4,WAS,3.3,17.1
34.0,2.8,3.6,94.0,12.7,0.755,7.8,10.4,0.0,0.0,0.0,0.755,7.8,10.4,0.524,2.3,4.5,11.0,0.0,NBA,224.0,129.0,5.1,9.8,C,18.0,2020,1.1,LAL,2.8,17.8
