lg_id,salary,season,team_name
NBA,4179720.0,2005,Orlando Magic
NBA,4493160.0,2006,Orlando Magic
NBA,4806720.0,2007,Orlando Magic
NBA,6061274.0,2008,Orlando Magic
NBA,13758000.0,2009,Orlando Magic
NBA,15202590.0,2010,Orlando Magic
NBA,16647180.0,2011,Orlando Magic
NBA,18091770.0,2012,Orlando Magic
NBA,19536360.0,2013,Los Angeles Lakers
NBA,20513178.0,2014,Houston Rockets
NBA,21436271.0,2015,Houston Rockets
NBA,22359364.0,2016,Houston Rockets
NBA,23180275.0,2017,Atlanta Hawks
NBA,23500000.0,2018,Charlotte Hornets
NBA,18919725.0,2019,Brooklyn Nets
NBA,5337000.0,2019,Washington Wizards
