age,ast_per_g,blk_per_g,drb_per_g,efg_pct,fg2_pct,fg2_per_g,fg2a_per_g,fg3_pct,fg3_per_g,fg3a_per_g,fg_pct,fg_per_g,fga_per_g,ft_pct,ft_per_g,fta_per_g,g,gs,lg_id,mp_per_g,orb_per_g,pf_per_g,pos,pts_per_g,season,stl_per_g,team_id,tov_per_g,trb_per_g
21.0,1.8,1.0,10.8,0.548,0.548,5.8,10.5,0.0,0.0,0.0,0.548,5.8,10.5,0.455,3.8,8.3,4.0,4.0,NBA,41.8,4.0,3.3,C,15.3,2007,0.5,ORL,4.3,14.8
22.0,0.9,3.4,9.8,0.581,0.581,7.2,12.4,0.0,0.0,0.0,0.581,7.2,12.4,0.542,4.5,8.3,10.0,10.0,NBA,42.1,6.0,3.8,C,18.9,2008,0.8,ORL,3.2,15.8
23.0,1.9,2.6,11.0,0.601,0.605,7.0,11.6,0.0,0.0,0.1,0.601,7.0,11.7,0.636,6.3,9.9,23.0,23.0,NBA,39.3,4.3,4.4,C,20.3,2009,0.9,ORL,2.9,15.3
24.0,1.4,3.5,8.4,0.614,0.614,6.1,10.0,0.0,0.0,0.0,0.614,6.1,10.0,0.519,5.9,11.3,14.0,14.0,NBA,35.5,2.7,4.2,C,18.1,2010,0.8,ORL,3.6,11.1
25.0,0.5,1.8,11.0,0.63,0.638,8.5,13.3,0.0,0.0,0.2,0.63,8.5,13.5,0.682,10.0,14.7,6.0,6.0,NBA,43.0,4.5,4.2,C,27.0,2011,0.7,ORL,5.5,15.5
27.0,1.0,2.0,8.3,0.619,0.619,6.5,10.5,0.0,0.0,0.0,0.619,6.5,10.5,0.444,4.0,9.0,4.0,4.0,NBA,31.5,2.5,4.3,C,17.0,2013,0.5,LAL,4.0,10.8
28.0,1.8,2.8,9.2,0.547,0.547,9.7,17.7,0.0,0.0,0.0,0.547,9.7,17.7,0.625,6.7,10.7,6.0,6.0,NBA,38.5,4.5,4.2,C,26.0,2014,0.7,HOU,3.2,13.7
29.0,1.2,2.3,10.4,0.577,0.577,6.2,10.7,0.0,0.0,0.0,0.577,6.2,10.7,0.412,4.0,9.7,17.0,17.0,NBA,33.8,3.6,3.5,C,16.4,2015,1.4,HOU,2.2,14.0
30.0,1.6,1.4,8.8,0.542,0.553,5.2,9.4,0.0,0.0,0.2,0.542,5.2,9.6,0.368,2.8,7.6,5.0,5.0,NBA,36.0,5.2,4.2,C,13.2,2016,0.8,HOU,2.4,14.0
31.0,1.3,0.8,7.7,0.5,0.5,3.0,6.0,0.0,0.0,0.0,0.5,3.0,6.0,0.632,2.0,3.2,6.0,6.0,NBA,26.2,3.0,3.5,C,8.0,2017,1.0,ATL,1.8,10.7
