age,ast_per_mp,blk_per_mp,drb_per_mp,fg2_pct,fg2_per_mp,fg2a_per_mp,fg3_pct,fg3_per_mp,fg3a_per_mp,fg_pct,fg_per_mp,fga_per_mp,ft_pct,ft_per_mp,fta_per_mp,g,gs,lg_id,mp,orb_per_mp,pf_per_mp,pos,pts_per_mp,season,stl_per_mp,team_id,tov_per_mp,trb_per_mp
23.0,2.6,1.3,3.2,0.488,3.1,6.3,0.5,0.4,0.9,0.49,3.5,7.1,0.765,1.9,2.5,10.0,10.0,NBA,247.0,2.8,5.0,SF,9.3,2005,1.3,WAS,1.9,6.0
24.0,1.5,1.2,2.8,0.444,2.7,6.0,0.143,0.2,1.2,0.395,2.8,7.2,0.765,2.2,2.8,6.0,6.0,NBA,215.0,3.3,3.2,PF,8.0,2006,0.2,WAS,1.8,6.2
29.0,0.4,3.0,3.0,0.478,4.7,9.7,0.0,0.0,0.0,0.478,4.7,9.7,0.75,1.3,1.7,4.0,0.0,NBA,85.0,5.5,3.0,PF,10.6,2011,1.3,NYK,1.3,8.5
30.0,0.0,0.0,6.4,0.167,1.1,6.4,0.0,0.0,0.0,0.167,1.1,6.4,0.0,0.0,0.0,5.0,0.0,NBA,34.0,6.4,5.3,PF,2.1,2012,1.1,NYK,1.1,12.7
