age,ast_per_poss,blk_per_poss,def_rtg,drb_per_poss,fg2_pct,fg2_per_poss,fg2a_per_poss,fg3_pct,fg3_per_poss,fg3a_per_poss,fg_pct,fg_per_poss,fga_per_poss,ft_pct,ft_per_poss,fta_per_poss,g,gs,lg_id,mp,off_rtg,orb_per_poss,pf_per_poss,pos,pts_per_poss,season,stl_per_poss,team_id,tov_per_poss,trb_per_poss
20.0,1.3,1.7,105.0,6.0,0.413,4.3,10.4,0.382,1.8,4.7,0.404,6.1,15.2,0.478,1.5,3.2,24.0,4.0,NBA,362.0,95.0,3.5,5.4,PF,15.6,2016,3.9,BRK,2.1,9.5
21.0,1.2,1.2,112.0,5.9,0.6,8.9,14.9,0.143,0.6,4.2,0.5,9.5,19.0,0.6,1.8,3.0,16.0,0.0,NBA,80.0,107.0,5.4,4.2,PF,21.4,2017,1.2,TOT,1.8,11.3
21.0,1.3,1.3,113.0,5.3,0.6,9.9,16.5,0.167,0.7,4.0,0.516,10.5,20.4,0.667,1.3,2.0,14.0,0.0,NBA,72.0,113.0,5.9,4.6,PF,23.0,2017,0.7,BRK,1.3,11.2
21.0,0.0,0.0,98.0,12.3,0.0,0.0,0.0,0.0,0.0,6.2,0.0,0.0,6.2,0.5,6.2,12.3,2.0,0.0,NBA,8.0,37.0,0.0,0.0,PF,6.2,2017,6.2,WAS,6.2,12.3
22.0,2.2,2.8,108.0,9.9,0.5,9.4,18.8,0.125,0.6,4.4,0.429,9.9,23.2,0.643,5.0,7.7,19.0,0.0,NBA,90.0,104.0,3.9,4.4,PF,25.4,2018,0.0,WAS,1.1,13.8
