age,ast,ast_per_g,blk,college_id,fg,fg3,fg3_pct,fg3a,fg_pct,fga,ft,ft_pct,fta,g,mp,mp_per_g,orb,pf,pts,pts_per_g,season,stl,tov,trb,trb_per_g
20.0,77.0,2.3,21.0,NCSTATE,127.0,29.0,0.326,89.0,0.408,311.0,106.0,0.667,159.0,34.0,1083.0,31.9,0.0,0.0,389.0,11.4,2000,41.0,0.0,197.0,5.8
21.0,69.0,2.7,15.0,NCSTATE,109.0,19.0,0.268,71.0,0.408,267.0,67.0,0.713,94.0,26.0,848.0,32.6,0.0,0.0,304.0,11.7,2001,34.0,0.0,151.0,5.8
23.0,71.0,2.6,9.0,GEORGIA,65.0,6.0,0.273,22.0,0.411,158.0,67.0,0.736,91.0,27.0,569.0,21.1,0.0,0.0,203.0,7.5,2003,21.0,0.0,79.0,2.9
24.0,88.0,2.9,11.0,GEORGIA,117.0,27.0,0.321,84.0,0.406,288.0,118.0,0.787,150.0,30.0,1056.0,35.2,0.0,0.0,379.0,12.6,2004,44.0,0.0,162.0,5.4
