age,ast_pct,blk_pct,bpm,bpm-dum,dbpm,drb_pct,dws,fg3a_per_fga_pct,fta_per_fga_pct,g,lg_id,mp,obpm,orb_pct,ows,per,pos,season,stl_pct,team_id,tov_pct,trb_pct,ts_pct,usg_pct,vorp,ws,ws-dum,ws_per_48
21.0,10.9,1.5,-2.7,0.0,2.4,20.8,0.6,0.124,0.157,33.0,NBA,358.0,-5.2,1.6,-0.3,8.2,SF,2015,2.1,SAS,9.5,11.4,0.389,13.4,-0.1,0.3,0.0,0.044
22.0,13.7,1.8,1.8,0.0,3.7,19.4,2.8,0.125,0.281,78.0,NBA,1245.0,-1.9,2.4,0.7,12.9,SF,2016,2.5,SAS,15.1,11.2,0.528,14.4,1.2,3.5,0.0,0.133
23.0,12.4,2.1,1.6,0.0,3.7,19.0,2.0,0.191,0.273,72.0,NBA,1020.0,-2.1,3.7,0.7,12.5,SF,2017,2.5,SAS,14.3,11.5,0.525,12.1,0.9,2.7,0.0,0.127
24.0,14.7,2.5,4.1,0.0,4.3,17.6,3.8,0.13,0.333,74.0,NBA,1978.0,-0.3,4.7,2.4,15.9,SF,2018,2.9,SAS,15.8,11.1,0.582,13.5,3.0,6.2,0.0,0.151
25.0,15.0,2.7,1.2,0.0,3.3,18.1,1.8,0.123,0.232,43.0,NBA,1281.0,-2.1,4.1,0.8,12.8,SF,2019,2.1,MEM,16.0,11.0,0.569,12.6,1.0,2.7,0.0,0.1
26.0,14.7,3.1,0.9,0.0,1.7,18.7,0.1,0.15,0.4,7.0,NBA,145.0,-0.8,4.3,0.2,15.6,SF,2020,1.6,MEM,9.6,11.4,0.563,14.4,0.1,0.4,0.0,0.118
