age,ast_per_mp,blk_per_mp,drb_per_mp,fg2_pct,fg2_per_mp,fg2a_per_mp,fg3_pct,fg3_per_mp,fg3a_per_mp,fg_pct,fg_per_mp,fga_per_mp,ft_pct,ft_per_mp,fta_per_mp,g,gs,lg_id,mp,orb_per_mp,pf_per_mp,pos,pts_per_mp,season,stl_per_mp,team_id,tov_per_mp,trb_per_mp
22.0,2.3,0.6,3.6,0.423,1.1,2.7,0.393,1.1,2.9,0.407,2.3,5.6,1.0,0.4,0.4,52.0,2.0,NBA,694.0,0.4,4.6,SF,6.1,2013,0.9,NOH,1.2,4.0
23.0,2.1,0.4,2.1,0.539,2.4,4.4,0.325,1.2,3.8,0.44,3.6,8.3,0.806,1.4,1.8,45.0,7.0,NBA,723.0,0.4,4.4,SF,10.0,2014,1.2,NOP,1.1,2.6
24.0,1.7,0.0,0.8,0.167,0.8,5.0,0.0,0.0,0.8,0.143,0.8,5.9,0.0,0.0,0.0,5.0,1.0,NBA,43.0,0.0,6.7,SF,1.7,2015,0.8,NOP,0.8,0.8
27.0,2.1,0.3,2.7,0.535,1.3,2.4,0.411,2.7,6.6,0.444,4.0,9.0,0.866,1.1,1.2,82.0,3.0,NBA,1944.0,0.3,3.0,SF,11.8,2018,0.5,NOP,1.1,3.0
28.0,3.0,0.5,2.3,0.467,1.1,2.5,0.365,2.7,7.5,0.39,3.9,9.9,0.789,1.1,1.5,69.0,15.0,NBA,1757.0,0.3,3.4,SF,11.6,2019,0.8,NOP,1.2,2.6
