age,ast,blk,fg,fg3,fg3_pct,fg3a,fg_pct,fga,ft,ft_pct,fta,g,gs,lg_id,mp,orb,pf,pos,pts,season,stl,team_id,tov,trb
23.0,0.0,0.0,2.0,0.0,0.0,0.0,0.333,6.0,0.0,0.0,0.0,1.0,1.0,NBA,17,3.0,1.0,PF,4.0,1993,0.0,CHH,0.0,4.0
25.0,2.0,0.0,2.0,1.0,1.0,1.0,0.667,3.0,2.0,1.0,2.0,1.0,0.0,NBA,21,1.0,0.0,PF,7.0,1995,0.0,CHH,1.0,4.0
