age,ast_pct,blk_pct,bpm,bpm-dum,dbpm,drb_pct,dws,fg3a_per_fga_pct,fta_per_fga_pct,g,lg_id,mp,obpm,orb_pct,ows,per,pos,season,stl_pct,team_id,tov_pct,trb_pct,ts_pct,usg_pct,vorp,ws,ws-dum,ws_per_48
22.0,21.1,3.0,-4.8,0.0,-0.8,13.9,0.1,0.448,0.103,16.0,NBA,80.0,-4.0,5.5,-0.1,10.2,SG,2017,1.2,POR,26.6,9.7,0.511,22.8,-0.1,-0.1,0.0,-0.044
23.0,10.6,0.0,-10.8,0.0,-1.9,25.8,0.0,0.667,0.667,3.0,NBA,13.0,-8.9,0.0,0.0,2.9,SG,2018,0.0,HOU,34.0,13.0,0.515,20.0,0.0,0.0,0.0,-0.083
