age,ast,ast_per_g,blk,college_id,fg,fg3,fg3_pct,fg3a,fg_pct,fga,ft,ft_pct,fta,g,mp,mp_per_g,orb,pf,pts,pts_per_g,season,stl,tov,trb,trb_per_g
19.0,49.0,1.5,8.0,LSU,28.0,10.0,0.208,48.0,0.264,106.0,17.0,0.548,31.0,33.0,404.0,12.2,18.0,51.0,83.0,2.5,2014,24.0,35.0,61.0,1.8
20.0,133.0,4.0,19.0,LSU,125.0,40.0,0.313,128.0,0.427,293.0,89.0,0.718,124.0,33.0,1105.0,33.5,50.0,84.0,379.0,11.5,2015,47.0,80.0,173.0,5.2
21.0,120.0,3.6,13.0,LSU,118.0,48.0,0.343,140.0,0.415,284.0,84.0,0.632,133.0,33.0,952.0,28.8,52.0,79.0,368.0,11.2,2016,32.0,53.0,153.0,4.6
