age,ast_per_mp,blk_per_mp,drb_per_mp,fg2_pct,fg2_per_mp,fg2a_per_mp,fg3_pct,fg3_per_mp,fg3a_per_mp,fg_pct,fg_per_mp,fga_per_mp,ft_pct,ft_per_mp,fta_per_mp,g,gs,lg_id,mp,orb_per_mp,pf_per_mp,pos,pts_per_mp,season,stl_per_mp,team_id,tov_per_mp,trb_per_mp
28.0,1.9,0.3,4.6,0.588,5.4,9.1,0.0,0.0,0.0,0.588,5.4,9.1,0.538,1.9,3.5,4.0,4.0,NBA,134.0,0.8,3.2,PF,12.6,1987,0.0,IND,3.0,5.4
31.0,2.2,0.9,4.0,0.609,6.2,10.2,0.0,0.0,0.0,0.609,6.2,10.2,0.813,5.8,7.1,3.0,0.0,NBA,81.0,1.8,7.1,C,18.2,1990,0.4,DAL,1.3,5.8
34.0,1.0,2.1,4.7,0.357,2.6,7.3,0.0,0.0,0.0,0.357,2.6,7.3,1.0,2.1,2.1,7.0,0.0,NBA,69.0,2.6,6.8,C,7.3,1993,0.5,NYK,1.0,7.3
35.0,0.9,3.1,2.8,0.419,3.7,8.8,0.0,0.0,0.0,0.419,3.7,8.8,0.667,0.6,0.9,19.0,0.0,NBA,127.0,2.8,5.4,C,7.9,1994,0.9,NYK,2.0,5.7
36.0,0.0,3.3,2.6,0.231,2.0,8.5,0.0,0.0,0.0,0.231,2.0,8.5,1.0,1.3,1.3,8.0,0.0,NBA,55.0,2.0,8.5,C,5.2,1995,3.3,NYK,0.7,4.6
37.0,0.0,2.2,0.0,0.6,3.3,5.5,0.0,0.0,0.0,0.6,3.3,5.5,0.75,3.3,4.4,5.0,0.0,NBA,33.0,0.0,3.3,PF,9.8,1996,0.0,NYK,1.1,0.0
38.0,0.0,0.0,1.6,0.4,3.1,7.8,0.0,0.0,0.0,0.4,3.1,7.8,0.0,0.0,0.0,3.0,0.0,NBA,23.0,0.0,6.3,PF,6.3,1997,0.0,NYK,0.0,1.6
40.0,0.0,0.0,6.8,0.2,2.3,11.3,0.0,0.0,0.0,0.2,2.3,11.3,0.0,0.0,0.0,8.0,0.0,NBA,16.0,0.0,6.8,C,4.5,1999,0.0,NYK,0.0,6.8
