age,ast,blk,drb,fg,fg2,fg2a,fg3,fg3a,fga,ft,fta,game_score,lg_id,mp,orb,pf,pts,season,stl,team_id,tov,trb
23.0,13.0,0.0,0.0,10.0,10.0,0.0,2.0,0.0,23.0,10.0,11.0,0.0,NBA,0.0,0.0,0.0,27.0,1982,0.0,WSB,0.0,7.0
24.0,15.0,0.0,0.0,12.0,12.0,0.0,3.0,0.0,20.0,18.0,19.0,0.0,NBA,0.0,0.0,6.0,36.0,1983,0.0,WSB,0.0,8.0
25.0,15.0,0.0,0.0,11.0,11.0,17.0,3.0,5.0,18.0,10.0,15.0,0.0,NBA,0.0,0.0,6.0,28.0,1984,0.0,WSB,7.0,7.0
26.0,10.0,1.0,4.0,9.0,9.0,16.0,1.0,4.0,16.0,6.0,9.0,19.9,NBA,0.0,3.0,5.0,21.0,1985,4.0,WSB,4.0,5.0
27.0,10.0,1.0,4.0,11.0,11.0,20.0,0.0,1.0,20.0,8.0,11.0,24.7,NBA,0.0,2.0,4.0,27.0,1986,3.0,WSB,5.0,6.0
28.0,7.0,0.0,4.0,8.0,8.0,16.0,0.0,1.0,16.0,5.0,6.0,16.9,NBA,0.0,3.0,5.0,18.0,1987,4.0,WSB,5.0,6.0
29.0,11.0,1.0,4.0,10.0,10.0,19.0,1.0,1.0,19.0,8.0,8.0,17.5,NBA,0.0,4.0,5.0,23.0,1988,4.0,WSB,5.0,5.0
30.0,7.0,0.0,4.0,7.0,7.0,9.0,1.0,1.0,9.0,5.0,6.0,15.3,NBA,0.0,2.0,5.0,17.0,1989,6.0,HOU,5.0,4.0
34.0,9.0,1.0,4.0,9.0,8.0,11.0,1.0,2.0,11.0,4.0,5.0,21.8,NBA,0.0,3.0,5.0,22.0,1993,4.0,PHO,6.0,7.0
35.0,10.0,1.0,6.0,11.0,11.0,17.0,1.0,4.0,19.0,6.0,7.0,26.5,NBA,0.0,3.0,5.0,26.0,1994,3.0,PHO,4.0,7.0
