age,ast,blk,drb,efg_pct,fg,fg2,fg2_pct,fg2a,fg3,fg3_pct,fg3a,fg_pct,fga,ft,ft_pct,fta,g,gs,lg_id,mp,orb,pf,pos,pts,season,stl,team_id,tov,trb
20.0,17.0,10.0,59.0,0.467,75.0,71.0,0.504,141.0,4.0,0.167,24.0,0.455,165.0,36.0,0.61,59.0,51.0,3.0,NBA,526.0,38.0,77.0,SG,190.0,2019,21.0,OKC,23.0,97.0
21.0,6.0,4.0,24.0,0.485,32.0,30.0,0.536,56.0,2.0,0.167,12.0,0.471,68.0,11.0,0.611,18.0,8.0,0.0,NBA,175.0,14.0,19.0,SG,77.0,2020,10.0,OKC,11.0,38.0
