article_url,date,headline
https://thunderousintentions.com/2019/11/08/okc-thunder-danilo-gallinari-commitment/,2019/11/08,Thunderous Intentions: A single OKC Thunder Danilo Gallinari play embodies the new team commitment
https://thunderousintentions.com/2019/11/08/okc-thunder-justin-patton-assigned-okc-blue/,2019/11/08,Thunderous Intentions: OKC Thunder center Justin Patton assigned to OKC Blue for G-League season start
https://thunderousintentions.com/2019/11/08/okc-thunder-news-youngsters-offering-promise-week-three-action/,2019/11/08,Thunderous Intentions: OKC Thunder news - youngsters offering promise through week three of action
https://thunderousintentions.com/2019/11/08/okc-thunder-vs-spurs-player-grades/,2019/11/08,Thunderous Intentions: OKC Thunder bested by vintage Aldridge and poor rebounding versus Spurs: Player grades
https://thunderousintentions.com/2019/11/07/preview-okc-thunder-san-antonio-spurs/,2019/11/07,Thunderous Intentions: Streaks are on the line as OKC Thunder face San Antonio Spurs
