lg_id,salary,season,team_name
NBA,175000.0,1985,Portland Trail Blazers
NBA,420000.0,1986,Portland Trail Blazers
NBA,350000.0,1988,Portland Trail Blazers
NBA,1200000.0,1989,Portland Trail Blazers
NBA,1100000.0,1990,Portland Trail Blazers
NBA,1180000.0,1991,Portland Trail Blazers
NBA,1378000.0,1992,Portland Trail Blazers
NBA,1378000.0,1993,Portland Trail Blazers
NBA,1578000.0,1994,Portland Trail Blazers
NBA,1578000.0,1995,Portland Trail Blazers
NBA,9810000.0,1996,Houston Rockets
NBA,5500000.0,1997,Houston Rockets
NBA,5500000.0,1998,Houston Rockets
