age,ast_per_poss,blk_per_poss,def_rtg,drb_per_poss,fg2_pct,fg2_per_poss,fg2a_per_poss,fg3_pct,fg3_per_poss,fg3a_per_poss,fg_pct,fg_per_poss,fga_per_poss,ft_pct,ft_per_poss,fta_per_poss,g,gs,lg_id,mp,off_rtg,orb_per_poss,pf_per_poss,pos,pts_per_poss,season,stl_per_poss,team_id,tov_per_poss,trb_per_poss
21.0,4.6,0.6,112.0,5.8,0.441,8.7,19.7,0.0,0.0,0.6,0.429,8.7,20.3,0.857,3.5,4.1,5.0,0.0,NBA,85.0,98.0,4.1,6.4,SG,20.9,1984,2.9,POR,4.1,9.9
22.0,11.4,1.2,115.0,3.9,0.417,7.3,17.5,0.286,0.3,1.0,0.41,7.6,18.4,0.844,5.2,6.2,9.0,9.0,NBA,339.0,109.0,3.7,5.1,SG,20.6,1985,3.2,POR,4.0,7.6
23.0,8.3,1.0,113.0,5.1,0.462,7.7,16.6,0.4,0.6,1.6,0.456,8.3,18.2,0.783,5.8,7.4,4.0,4.0,NBA,145.0,100.0,2.9,6.1,SG,23.0,1986,1.9,POR,6.1,8.0
24.0,4.8,1.0,114.0,4.4,0.467,11.1,23.8,0.25,0.3,1.3,0.456,11.4,25.1,0.793,7.3,9.2,4.0,4.0,NBA,153.0,119.0,5.1,5.1,SG,30.4,1987,2.2,POR,1.9,9.5
25.0,5.9,0.6,105.0,4.5,0.377,8.1,21.5,0.5,0.8,1.7,0.386,8.9,23.2,0.724,5.9,8.1,4.0,4.0,NBA,170.0,103.0,3.3,3.9,SG,24.6,1988,3.3,POR,3.3,7.8
26.0,9.6,0.8,122.0,2.7,0.507,13.5,26.5,0.0,0.0,0.8,0.493,13.5,27.3,0.765,5.0,6.5,3.0,3.0,NBA,128.0,112.0,5.0,4.2,SG,31.9,1989,2.3,POR,4.6,7.7
27.0,8.5,1.0,106.0,5.0,0.467,9.2,19.8,0.22,0.5,2.3,0.441,9.8,22.1,0.774,5.4,7.0,21.0,21.0,NBA,853.0,108.0,3.6,4.1,SG,25.5,1990,3.0,POR,3.8,8.6
28.0,10.5,1.3,106.0,7.2,0.531,9.2,17.3,0.268,1.2,4.5,0.476,10.4,21.8,0.776,6.2,7.9,16.0,16.0,NBA,633.0,113.0,3.2,4.5,SG,28.1,1991,2.8,POR,4.9,10.5
29.0,8.8,1.2,110.0,5.7,0.52,10.7,20.6,0.235,1.1,4.9,0.466,11.9,25.5,0.807,8.3,10.3,21.0,21.0,NBA,847.0,120.0,3.6,4.6,SG,33.2,1992,1.9,POR,3.5,9.3
30.0,6.4,1.4,104.0,5.0,0.419,5.9,14.1,0.417,2.3,5.4,0.419,8.2,19.5,0.8,7.3,9.1,3.0,3.0,NBA,116.0,127.0,3.6,4.1,SG,25.9,1993,2.3,POR,1.4,8.6
31.0,7.2,0.7,113.0,10.1,0.467,9.1,19.5,0.231,1.0,4.2,0.425,10.1,23.8,0.826,6.2,7.5,4.0,4.0,NBA,157.0,112.0,3.3,2.3,SG,27.4,1994,2.6,POR,2.9,13.4
32.0,6.8,0.9,112.0,6.7,0.561,7.7,13.7,0.303,1.8,6.1,0.481,9.5,19.8,0.786,6.8,8.6,22.0,22.0,NBA,849.0,120.0,2.8,4.2,SG,27.6,1995,2.0,HOU,2.8,9.5
33.0,7.0,0.7,104.0,8.3,0.476,7.0,14.8,0.265,1.6,6.0,0.415,8.6,20.8,0.765,4.6,6.0,8.0,8.0,NBA,292.0,101.0,2.6,3.9,SG,23.4,1996,3.7,HOU,3.5,10.9
34.0,6.7,0.6,111.0,5.6,0.482,5.8,12.1,0.373,3.3,8.8,0.436,9.1,20.9,0.778,3.6,4.7,16.0,16.0,NBA,623.0,114.0,2.2,4.5,SG,25.2,1997,2.3,HOU,3.1,7.7
35.0,6.8,0.9,103.0,5.4,0.381,4.8,12.5,0.192,1.5,7.7,0.309,6.3,20.2,0.757,8.3,11.0,5.0,5.0,NBA,182.0,94.0,2.7,4.5,SG,22.3,1998,2.4,HOU,3.9,8.0
