age,ast_pct,blk_pct,bpm,bpm-dum,dbpm,drb_pct,dws,fg3a_per_fga_pct,fta_per_fga_pct,g,lg_id,mp,obpm,orb_pct,ows,per,pos,season,stl_pct,team_id,tov_pct,trb_pct,ts_pct,usg_pct,vorp,ws,ws-dum,ws_per_48
21.0,14.7,1.2,0.9,0.0,1.2,10.6,1.9,0.007,0.302,82.0,NBA,1408.0,-0.3,9.2,0.5,14.5,SG,1984,3.6,POR,16.3,9.9,0.496,21.6,1.0,2.4,0.0,0.083
22.0,24.4,1.5,5.2,0.0,1.7,11.3,3.5,0.032,0.253,80.0,NBA,2555.0,3.5,9.5,4.0,19.7,SG,1985,3.2,POR,14.7,10.4,0.534,23.5,4.6,7.5,0.0,0.141
23.0,33.3,1.0,5.1,0.0,1.8,11.0,3.1,0.053,0.334,75.0,NBA,2576.0,3.4,7.5,3.5,19.8,SG,1986,3.5,POR,17.7,9.3,0.53,24.4,4.6,6.7,0.0,0.124
24.0,26.2,1.3,5.7,0.0,1.7,10.2,3.7,0.033,0.334,82.0,NBA,3114.0,4.0,8.3,6.6,20.2,SG,1987,3.0,POR,13.5,9.3,0.552,23.6,6.0,10.3,0.0,0.158
25.0,23.5,1.0,7.4,0.0,1.3,9.6,3.9,0.031,0.35,81.0,NBA,3060.0,6.1,9.2,9.3,24.1,SG,1988,3.1,POR,10.9,9.4,0.564,28.0,7.3,13.2,0.0,0.207
26.0,22.2,1.0,7.3,0.0,1.5,11.9,3.8,0.062,0.328,78.0,NBA,3064.0,5.9,9.9,8.8,23.6,SG,1989,3.2,POR,11.6,10.9,0.555,27.2,7.2,12.6,0.0,0.197
27.0,24.8,1.2,7.9,0.0,2.4,12.3,4.3,0.078,0.317,73.0,NBA,2683.0,5.4,8.3,7.3,22.2,SG,1990,2.5,POR,11.0,10.3,0.551,25.5,6.6,11.6,0.0,0.208
28.0,25.7,1.3,7.3,0.0,2.1,12.8,4.5,0.143,0.392,82.0,NBA,2852.0,5.3,8.3,8.0,22.1,SG,1991,2.4,POR,12.9,10.6,0.563,25.7,6.7,12.4,0.0,0.209
29.0,29.9,1.6,8.4,0.0,1.7,13.2,4.5,0.229,0.342,76.0,NBA,2751.0,6.6,6.6,8.3,23.6,SG,1992,2.4,POR,12.4,9.9,0.56,28.7,7.2,12.8,0.0,0.223
30.0,26.2,1.4,6.1,0.0,1.9,12.4,2.5,0.163,0.358,49.0,NBA,1671.0,4.2,8.0,3.4,20.7,SG,1993,2.8,POR,10.9,10.1,0.517,26.1,3.4,6.0,0.0,0.171
31.0,21.9,0.9,3.9,0.0,0.6,14.2,2.7,0.198,0.333,68.0,NBA,2334.0,3.3,6.9,4.2,18.4,SG,1994,2.0,POR,11.6,10.4,0.514,25.0,3.5,6.8,0.0,0.14
32.0,22.1,1.2,6.5,0.0,1.0,13.7,3.7,0.33,0.357,76.0,NBA,2728.0,5.5,6.3,8.0,22.4,SG,1995,2.5,TOT,11.5,10.0,0.577,25.7,5.9,11.7,0.0,0.206
32.0,24.2,1.2,7.3,0.0,1.1,12.4,2.1,0.337,0.348,41.0,NBA,1428.0,6.2,6.4,4.4,22.7,SG,1995,2.7,POR,10.6,9.3,0.55,27.2,3.4,6.5,0.0,0.217
32.0,19.9,1.2,5.7,0.0,0.9,15.0,1.7,0.319,0.369,35.0,NBA,1300.0,4.7,6.3,3.6,22.1,SG,1995,2.4,HOU,12.7,10.9,0.613,24.2,2.5,5.2,0.0,0.193
33.0,24.7,0.9,4.7,0.0,1.2,15.3,2.6,0.308,0.442,52.0,NBA,1997.0,3.5,5.6,4.1,20.0,SG,1996,2.7,HOU,12.8,10.6,0.551,23.6,3.4,6.7,0.0,0.161
34.0,26.4,1.2,5.6,0.0,1.7,12.4,3.4,0.373,0.298,62.0,NBA,2271.0,3.9,6.3,4.8,19.9,SG,1997,2.7,HOU,13.3,9.5,0.548,23.5,4.3,8.1,0.0,0.172
35.0,27.6,1.2,4.1,0.0,0.1,11.4,1.8,0.315,0.327,70.0,NBA,2473.0,4.0,5.1,5.0,19.8,SG,1998,2.7,HOU,13.5,8.3,0.531,25.7,3.8,6.8,0.0,0.133
