article_url,date,headline
https://dunkingwithwolves.com/2019/11/15/timberwolves-vs-wizards-odds-injuries-and-what-to-watch-for/,2019/11/15,"Dunking with Wolves: Timberwolves vs. Wizards: Odds, injuries, and what to watch for"
https://dunkingwithwolves.com/2019/11/12/minnesota-timberwolves-shot-selection-2/,2019/11/12,Dunking with Wolves: Minnesota Timberwolves Observations: Shot Selection vs Shot Value
https://dunkingwithwolves.com/2019/11/09/checking-in-on-the-minnesota-timberwolves-top-3-offseason-additions/,2019/11/09,Dunking with Wolves: Checking in on the Minnesota Timberwolves' top 3 offseason additions
https://dunkingwithwolves.com/2019/11/08/minnesota-timberwolves-wing-rotation-promise/,2019/11/08,Dunking with Wolves: Minnesota Timberwolves wing rotation showing promise
