age,ast,blk,drb,fg,fg2,fg2a,fg3,fg3a,fga,ft,fta,game_score,lg_id,mp,orb,pf,pts,season,stl,team_id,tov,trb
22.0,1.0,0.0,1.0,1.0,1.0,2.0,1.0,1.0,3.0,1.0,2.0,3.5,NBA,11,0.0,2.0,3.0,2017,1.0,POR,0.0,1.0
23.0,1.0,0.0,1.0,3.0,3.0,3.0,0.0,0.0,3.0,0.0,0.0,8.1,NBA,8,0.0,0.0,6.0,2018,2.0,POR,0.0,1.0
24.0,0.0,0.0,3.0,1.0,1.0,1.0,0.0,2.0,2.0,2.0,2.0,1.8,NBA,6,1.0,2.0,2.0,2019,0.0,POR,0.0,3.0
