age,ast_per_poss,blk_per_poss,def_rtg,drb_per_poss,fg2_pct,fg2_per_poss,fg2a_per_poss,fg3_pct,fg3_per_poss,fg3a_per_poss,fg_pct,fg_per_poss,fga_per_poss,ft_pct,ft_per_poss,fta_per_poss,g,gs,lg_id,mp,off_rtg,orb_per_poss,pf_per_poss,pos,pts_per_poss,season,stl_per_poss,team_id,tov_per_poss,trb_per_poss
20.0,4.9,0.4,104.0,6.2,0.4,2.6,6.6,0.375,2.6,7.1,0.387,5.3,13.7,0.842,7.1,8.4,6.0,0.0,NBA,120.0,124.0,0.4,6.2,SG,20.3,2010,2.6,OKC,1.3,6.6
21.0,6.0,1.3,106.0,8.0,0.683,4.2,6.2,0.303,2.3,7.5,0.475,6.5,13.7,0.825,6.5,7.9,17.0,0.0,NBA,537.0,126.0,1.0,4.7,SG,21.8,2011,2.1,OKC,2.8,9.0
22.0,5.7,0.2,107.0,7.5,0.449,5.1,11.4,0.41,2.7,6.6,0.435,7.8,18.0,0.857,9.1,10.6,20.0,0.0,NBA,630.0,118.0,1.1,5.6,SG,27.4,2012,2.6,OKC,3.5,8.6
23.0,5.6,1.2,109.0,7.3,0.423,6.2,14.8,0.341,3.1,9.2,0.391,9.4,23.9,0.803,11.0,13.7,6.0,6.0,NBA,243.0,105.0,1.0,3.7,SG,32.9,2013,2.5,HOU,5.6,8.3
24.0,6.9,0.2,115.0,4.5,0.43,6.7,15.5,0.296,3.1,10.6,0.376,9.8,26.2,0.9,8.9,9.8,6.0,6.0,NBA,263.0,112.0,1.0,4.1,SG,31.7,2014,2.4,HOU,4.1,5.5
25.0,9.5,0.5,109.0,6.3,0.471,6.5,13.9,0.383,3.0,8.0,0.439,9.6,21.9,0.916,12.1,13.2,17.0,17.0,NBA,636.0,117.0,0.9,3.6,SG,34.3,2015,2.1,HOU,5.7,7.2
26.0,9.6,0.3,111.0,4.8,0.483,7.1,14.7,0.31,3.3,10.6,0.41,10.4,25.3,0.844,9.6,11.4,5.0,5.0,NBA,193.0,107.0,1.8,3.3,SG,33.6,2016,3.0,HOU,6.6,6.6
27.0,11.4,0.6,108.0,6.5,0.563,7.1,12.6,0.278,3.9,14.1,0.413,11.0,26.7,0.878,12.4,14.1,11.0,11.0,NBA,407.0,111.0,0.9,5.3,PG,38.3,2017,2.6,HOU,7.2,7.3
28.0,9.4,0.9,106.0,6.1,0.502,8.6,17.0,0.299,4.2,14.0,0.41,12.8,31.1,0.887,9.5,10.7,17.0,17.0,NBA,621.0,109.0,1.1,3.7,SG,39.2,2018,3.1,HOU,5.2,7.2
29.0,8.5,1.2,105.0,7.8,0.48,7.1,14.8,0.35,5.6,16.0,0.413,12.7,30.8,0.837,9.6,11.4,11.0,11.0,NBA,424.0,111.0,1.1,4.8,PG,40.6,2019,2.8,HOU,6.0,8.9
