age,ast_per_mp,blk_per_mp,drb_per_mp,fg2_pct,fg2_per_mp,fg2a_per_mp,fg3_pct,fg3_per_mp,fg3a_per_mp,fg_pct,fg_per_mp,fga_per_mp,ft_pct,ft_per_mp,fta_per_mp,g,gs,lg_id,mp,orb_per_mp,pf_per_mp,pos,pts_per_mp,season,stl_per_mp,team_id,tov_per_mp,trb_per_mp
20.0,2.8,0.4,4.1,0.424,2.9,6.8,0.375,1.9,5.1,0.403,4.8,12.0,0.808,4.0,5.0,76.0,0.0,NBA,1738.0,1.0,4.1,SG,15.6,2010,1.7,OKC,2.2,5.1
21.0,2.9,0.4,3.5,0.514,3.0,5.9,0.349,1.9,5.3,0.436,4.9,11.2,0.843,4.8,5.6,82.0,5.0,NBA,2189.0,0.7,3.4,SG,16.4,2011,1.5,OKC,1.7,4.2
22.0,4.2,0.3,4.1,0.579,3.6,6.2,0.39,2.1,5.4,0.491,5.7,11.6,0.846,5.8,6.8,62.0,2.0,NBA,1946.0,0.6,2.8,SG,19.3,2012,1.1,OKC,2.5,4.7
23.0,5.5,0.5,3.8,0.477,4.9,10.3,0.368,2.2,5.9,0.438,7.1,16.1,0.851,8.1,9.6,78.0,78.0,NBA,2985.0,0.7,2.1,SG,24.4,2013,1.7,HOU,3.6,4.6
24.0,5.8,0.4,3.7,0.515,4.8,9.4,0.366,2.3,6.3,0.456,7.1,15.6,0.866,7.5,8.6,73.0,73.0,NBA,2777.0,0.8,2.3,SG,24.0,2014,1.5,HOU,3.4,4.5
25.0,6.8,0.7,4.6,0.48,5.3,11.0,0.375,2.5,6.7,0.44,7.8,17.8,0.868,8.6,10.0,81.0,81.0,NBA,2981.0,0.9,2.5,SG,26.8,2015,1.9,HOU,3.9,5.5
26.0,7.1,0.6,5.0,0.494,5.5,11.1,0.359,2.7,7.6,0.439,8.2,18.6,0.86,8.3,9.6,82.0,82.0,NBA,3125.0,0.7,2.6,SG,27.4,2016,1.6,HOU,4.3,5.8
27.0,11.1,0.5,6.9,0.53,5.0,9.5,0.347,3.2,9.2,0.44,8.2,18.7,0.847,9.1,10.8,81.0,81.0,NBA,2947.0,1.2,2.6,PG,28.8,2017,1.5,HOU,5.7,8.1
28.0,8.9,0.7,4.9,0.531,5.4,10.3,0.367,3.7,10.2,0.449,9.2,20.4,0.858,8.8,10.3,72.0,72.0,NBA,2551.0,0.6,2.4,SG,30.9,2018,1.8,HOU,4.4,5.5
29.0,7.4,0.7,5.7,0.528,5.8,11.1,0.368,4.7,12.9,0.442,10.6,24.0,0.879,9.5,10.8,78.0,78.0,NBA,2867.0,0.8,3.1,PG,35.4,2019,2.0,HOU,4.9,6.5
30.0,8.1,0.6,4.4,0.539,5.6,10.3,0.318,4.4,13.8,0.413,10.0,24.1,0.887,13.4,15.1,11.0,11.0,NBA,401.0,1.0,2.8,SG,37.7,2020,1.5,HOU,5.7,5.4
