age,ast,blk,drb,fg,fg2,fg2a,fg3,fg3a,fga,ft,fta,game_score,lg_id,mp,orb,pf,pts,season,stl,team_id,tov,trb
20.0,4.0,1.0,5.0,4.0,3.0,7.0,3.0,4.0,10.0,7.0,8.0,19.1,NBA,32,1.0,6.0,18.0,2010,2.0,OKC,1.0,5.0
21.0,7.0,3.0,7.0,7.0,6.0,6.0,4.0,8.0,11.0,11.0,11.0,24.8,NBA,50,2.0,6.0,23.0,2011,4.0,OKC,4.0,9.0
22.0,7.0,1.0,8.0,11.0,10.0,12.0,5.0,9.0,17.0,11.0,13.0,29.0,NBA,37,2.0,6.0,30.0,2012,3.0,OKC,5.0,10.0
23.0,7.0,2.0,9.0,10.0,8.0,17.0,7.0,10.0,24.0,17.0,20.0,25.8,NBA,46,2.0,5.0,36.0,2013,5.0,HOU,10.0,11.0
24.0,7.0,1.0,8.0,13.0,10.0,24.0,4.0,14.0,35.0,12.0,12.0,31.3,NBA,50,2.0,6.0,37.0,2014,4.0,HOU,5.0,9.0
25.0,12.0,2.0,9.0,15.0,10.0,17.0,7.0,11.0,24.0,15.0,18.0,41.0,NBA,44,2.0,5.0,45.0,2015,4.0,HOU,12.0,11.0
26.0,11.0,1.0,6.0,12.0,9.0,16.0,4.0,14.0,26.0,13.0,15.0,26.7,NBA,44,3.0,5.0,35.0,2016,7.0,HOU,7.0,8.0
27.0,14.0,2.0,9.0,14.0,10.0,17.0,5.0,15.0,28.0,18.0,20.0,31.8,NBA,44,1.0,6.0,44.0,2017,4.0,HOU,9.0,10.0
28.0,12.0,3.0,10.0,15.0,10.0,16.0,7.0,15.0,29.0,12.0,13.0,36.8,NBA,44,2.0,5.0,44.0,2018,4.0,HOU,9.0,10.0
29.0,10.0,4.0,11.0,14.0,9.0,19.0,6.0,17.0,32.0,14.0,16.0,30.9,NBA,46,2.0,5.0,41.0,2019,6.0,HOU,8.0,13.0
