age,ast_per_g,blk_per_g,drb_per_g,efg_pct,fg2_pct,fg2_per_g,fg2a_per_g,fg3_pct,fg3_per_g,fg3a_per_g,fg_pct,fg_per_g,fga_per_g,ft_pct,ft_per_g,fta_per_g,g,gs,lg_id,mp_per_g,orb_per_g,pf_per_g,pos,pts_per_g,season,stl_per_g,team_id,tov_per_g,trb_per_g
22.0,0.0,0.0,0.3,0.0,0.0,0.0,0.3,0.0,0.0,0.3,0.0,0.0,0.7,0.0,0.0,0.0,3.0,0.0,NBA,1.3,0.0,0.0,SG,0.0,2006,0.0,CLE,0.0,0.3
23.0,1.6,0.3,1.9,0.434,0.397,2.6,6.6,0.345,1.0,2.9,0.381,3.6,9.5,0.528,1.0,1.8,20.0,20.0,NBA,30.8,0.7,3.2,SG,9.2,2007,1.0,CLE,1.8,2.6
24.0,0.1,0.0,0.5,0.462,0.353,0.8,2.1,0.444,0.5,1.1,0.385,1.3,3.3,0.667,0.5,0.8,8.0,0.0,NBA,13.9,0.8,2.1,SG,3.5,2008,0.3,CLE,0.3,1.3
25.0,0.4,0.0,1.3,0.55,0.667,0.7,1.1,0.25,0.2,0.7,0.5,0.9,1.8,0.333,0.1,0.3,11.0,0.0,NBA,8.3,0.1,0.8,SF,2.1,2009,0.4,CLE,0.3,1.4
28.0,0.1,0.1,0.3,0.389,0.5,0.2,0.4,0.2,0.1,0.5,0.333,0.3,0.9,0.0,0.0,0.0,10.0,0.0,NBA,4.0,0.2,0.4,SF,0.7,2012,0.1,BOS,0.4,0.5
