age,ast,blk,drb,fg,fg2,fg2a,fg3,fg3a,fga,ft,fta,game_score,lg_id,mp,orb,pf,pts,season,stl,team_id,tov,trb
20.0,5.0,3.0,7.0,8.0,6.0,11.0,2.0,4.0,13.0,5.0,8.0,13.1,NBA,0.0,4.0,6.0,18.0,2004,3.0,UTA,3.0,9.0
21.0,4.0,2.0,5.0,7.0,7.0,9.0,3.0,4.0,12.0,4.0,6.0,18.2,NBA,0.0,2.0,5.0,17.0,2005,4.0,CLE,4.0,5.0
22.0,4.0,1.0,5.0,7.0,4.0,7.0,4.0,8.0,13.0,5.0,6.0,17.8,NBA,40.0,2.0,6.0,21.0,2006,3.0,CLE,4.0,7.0
23.0,6.0,3.0,6.0,9.0,7.0,18.0,6.0,9.0,21.0,8.0,10.0,19.8,NBA,47.0,3.0,6.0,25.0,2007,4.0,CLE,5.0,7.0
24.0,7.0,1.0,6.0,9.0,6.0,11.0,5.0,9.0,17.0,4.0,6.0,16.3,NBA,45.0,5.0,6.0,24.0,2008,3.0,CLE,4.0,8.0
25.0,4.0,3.0,8.0,9.0,7.0,13.0,4.0,6.0,18.0,2.0,7.0,19.3,NBA,44.0,3.0,6.0,20.0,2009,2.0,CLE,5.0,9.0
26.0,3.0,1.0,9.0,7.0,5.0,9.0,4.0,6.0,14.0,3.0,5.0,15.1,NBA,30.0,2.0,6.0,17.0,2010,3.0,MIN,4.0,10.0
27.0,3.0,4.0,4.0,7.0,4.0,5.0,4.0,5.0,10.0,3.0,3.0,12.4,NBA,35.0,1.0,3.0,19.0,2011,2.0,TOT,2.0,4.0
27.0,2.0,2.0,3.0,5.0,4.0,5.0,3.0,4.0,7.0,3.0,3.0,10.5,NBA,25.0,0.0,3.0,11.0,2011,2.0,DAL,2.0,3.0
27.0,3.0,4.0,3.0,2.0,2.0,4.0,0.0,4.0,8.0,0.0,0.0,2.5,NBA,22.0,0.0,2.0,4.0,2011,0.0,NOH,1.0,3.0
27.0,2.0,0.0,4.0,7.0,3.0,5.0,4.0,5.0,10.0,1.0,3.0,12.4,NBA,35.0,1.0,3.0,19.0,2011,2.0,BOS,2.0,4.0
28.0,3.0,2.0,7.0,7.0,5.0,6.0,2.0,5.0,10.0,1.0,2.0,14.0,NBA,34.0,1.0,4.0,16.0,2012,3.0,BOS,3.0,7.0
29.0,5.0,1.0,7.0,5.0,5.0,7.0,2.0,5.0,12.0,1.0,1.0,8.4,NBA,42.0,1.0,5.0,10.0,2013,4.0,POR,2.0,7.0
