age,ast_per_g,blk_per_g,drb_per_g,efg_pct,fg2_pct,fg2_per_g,fg2a_per_g,fg3_pct,fg3_per_g,fg3a_per_g,fg_pct,fg_per_g,fga_per_g,ft_pct,ft_per_g,fta_per_g,g,gs,lg_id,mp_per_g,orb_per_g,pf_per_g,pos,pts_per_g,season,stl_per_g,team_id,tov_per_g,trb_per_g
21.0,0.5,0.0,0.9,0.471,0.5,0.9,1.8,0.286,0.4,1.3,0.412,1.3,3.1,0.789,0.7,0.9,22.0,0.0,NBA,9.0,0.1,1.0,SG,3.6,2017,0.2,SAC,0.4,1.0
22.0,0.5,0.0,1.1,0.4,0.36,0.7,1.9,0.3,0.5,1.5,0.333,1.2,3.5,0.773,0.7,0.8,26.0,4.0,NBA,12.5,0.2,1.0,SG,3.4,2018,0.4,TOT,0.4,1.3
22.0,0.5,0.0,1.1,0.398,0.347,0.7,2.0,0.308,0.5,1.6,0.33,1.2,3.5,0.773,0.7,0.9,25.0,4.0,NBA,12.8,0.2,1.1,SG,3.5,2018,0.4,SAC,0.4,1.3
22.0,0.0,0.0,1.0,0.5,1.0,1.0,1.0,0.0,0.0,1.0,0.5,1.0,2.0,0.0,0.0,0.0,1.0,0.0,NBA,5.0,0.0,0.0,SG,2.0,2018,0.0,TOR,0.0,1.0
23.0,0.0,0.0,0.5,0.448,0.25,0.0,0.2,0.32,0.4,1.1,0.31,0.4,1.3,0.8,0.2,0.2,22.0,0.0,NBA,4.7,0.1,0.6,SG,1.4,2019,0.0,TOR,0.4,0.6
