age,ast_per_mp,blk_per_mp,drb_per_mp,fg2_pct,fg2_per_mp,fg2a_per_mp,fg3_pct,fg3_per_mp,fg3a_per_mp,fg_pct,fg_per_mp,fga_per_mp,ft_pct,ft_per_mp,fta_per_mp,g,gs,lg_id,mp,orb_per_mp,pf_per_mp,pos,pts_per_mp,season,stl_per_mp,team_id,tov_per_mp,trb_per_mp
21.0,2.0,0.2,3.6,0.5,3.6,7.3,0.286,1.5,5.1,0.412,5.1,12.4,0.789,2.7,3.5,22.0,0.0,NBA,198.0,0.5,4.2,SG,14.4,2017,0.9,SAC,1.5,4.2
22.0,1.4,0.1,3.2,0.36,2.0,5.6,0.3,1.3,4.4,0.333,3.3,10.0,0.773,1.9,2.4,26.0,4.0,NBA,324.0,0.6,3.0,SG,9.9,2018,1.1,TOT,1.1,3.8
22.0,1.5,0.1,3.2,0.347,1.9,5.5,0.308,1.4,4.4,0.33,3.3,9.9,0.773,1.9,2.5,25.0,4.0,NBA,319.0,0.6,3.0,SG,9.8,2018,1.1,SAC,1.1,3.7
22.0,0.0,0.0,7.2,1.0,7.2,7.2,0.0,0.0,7.2,0.5,7.2,14.4,0.0,0.0,0.0,1.0,0.0,NBA,5.0,0.0,0.0,SG,14.4,2018,0.0,TOR,0.0,7.2
23.0,0.0,0.0,3.8,0.25,0.3,1.4,0.32,2.8,8.7,0.31,3.1,10.1,0.8,1.4,1.7,22.0,0.0,NBA,103.0,0.7,4.5,SG,10.5,2019,0.3,TOR,2.8,4.5
