age,and1s,astd_pts,drawn_offensive,drawn_shooting,fouls_offensive,fouls_shooting,g,lg_id,mp,own_shots_blk,pct_1,pct_2,pct_3,pct_4,pct_5,plus_minus_net,plus_minus_on,pos,season,team_id,tov_bad_pass,tov_lost_ball
21.0,3.0,27.0,1.0,10.0,2.0,8.0,22.0,NBA,198.0,0.0,0.0,77.0,23.0,0.0,0.0,0.7,-3.3,SG,2017,SAC,4.0,1.0
22.0,2.0,30.0,1.0,12.0,3.0,12.0,26.0,NBA,324.0,7.0,0.0,17.0,71.0,12.0,0.0,-10.3,-9.6,SG,2018,TOT,2.0,4.0
22.0,2.0,30.0,1.0,12.0,3.0,12.0,25.0,NBA,319.0,7.0,0.0,17.0,71.0,12.0,0.0,0.0,-7.7,SG,2018,SAC,2.0,4.0
22.0,0.0,0.0,0.0,0.0,0.0,0.0,1.0,NBA,5.0,0.0,0.0,0.0,100.0,0.0,0.0,-148.2,-140.0,SG,2018,TOR,0.0,0.0
23.0,1.0,0.0,1.0,3.0,0.0,4.0,22.0,NBA,103.0,2.0,0.0,6.0,78.0,16.0,0.0,-13.6,-7.3,SG,2019,TOR,2.0,4.0
