age,avg_dist,fg2_dunk,fg2_pct,fg2_pct_ast,fg2a_pct_fga,fg3_heave,fg3_pct,fg3_pct_ast,fg3_pct_corner,fg3a_heave,fg3a_pct_fga,fg_pct,fg_pct_00_03,fg_pct_03_10,fg_pct_10_16,fg_pct_16_xx,g,lg_id,mp,pct_fg2_dunk,pct_fg3a_corner,pct_fga_00_03,pct_fga_03_10,pct_fga_10_16,pct_fga_16_xx,pos,season,team_id
23.0,12.5,15.0,0.382,0.646,0.837,0.0,0.212,0.857,0.25,1.0,0.163,0.355,0.594,0.158,0.136,0.323,41.0,NBA,734.0,0.079,0.364,0.315,0.094,0.108,0.32,SF,2004,CHI
24.0,14.5,0.0,0.0,0.0,0.5,0.0,0.0,0.0,0.0,0.0,0.5,0.0,0.0,0.0,0.0,0.0,2.0,NBA,15.0,0.0,1.0,0.0,0.5,0.0,0.0,SF,2005,SAS
25.0,12.4,6.0,0.425,0.479,0.758,0.0,0.361,1.0,0.333,0.0,0.242,0.409,0.644,0.2,0.1,0.368,36.0,NBA,524.0,0.04,0.667,0.302,0.134,0.067,0.255,SF,2006,TOT
25.0,6.3,1.0,0.5,1.0,1.0,0.0,0.0,0.0,0.0,0.0,0.0,0.5,0.6,0.5,0.0,0.5,9.0,NBA,35.0,0.1,0.0,0.5,0.2,0.1,0.2,SF,2006,NJN
25.0,12.9,5.0,0.417,0.419,0.741,0.0,0.361,1.0,0.333,0.0,0.259,0.403,0.65,0.167,0.111,0.361,27.0,NBA,489.0,0.036,0.667,0.288,0.129,0.065,0.259,SF,2006,NOK
26.0,13.8,10.0,0.519,0.735,0.842,0.0,0.333,1.0,0.375,1.0,0.158,0.489,0.635,0.4,0.563,0.451,54.0,NBA,720.0,0.053,0.8,0.274,0.053,0.084,0.432,PF,2007,NOK
27.0,13.1,1.0,0.5,0.625,0.842,0.0,0.333,1.0,0.5,0.0,0.158,0.474,0.6,0.0,1.0,0.333,8.0,NBA,63.0,0.053,0.667,0.263,0.105,0.158,0.316,PF,2008,TOT
27.0,12.2,1.0,0.5,0.5,0.857,0.0,0.5,1.0,1.0,0.0,0.143,0.5,0.5,0.0,1.0,0.5,6.0,NBA,53.0,0.071,0.5,0.286,0.143,0.143,0.286,PF,2008,PHO
27.0,15.6,0.0,0.5,1.0,0.8,0.0,0.0,0.0,0.0,0.0,0.2,0.4,1.0,0.0,1.0,0.0,2.0,NBA,10.0,0.0,1.0,0.2,0.0,0.2,0.4,PF,2008,TOR
28.0,15.0,0.0,0.333,0.667,0.818,0.0,0.5,1.0,1.0,0.0,0.182,0.364,1.0,0.0,0.5,0.0,10.0,NBA,55.0,0.0,0.5,0.182,0.091,0.182,0.364,PF,2009,TOT
28.0,0.0,0.0,0.0,0.0,0.0,0.0,0.0,0.0,0.0,0.0,0.0,0.0,0.0,0.0,0.0,0.0,2.0,NBA,13.0,0.0,0.0,0.0,0.0,0.0,0.0,PF,2009,CHA
28.0,15.0,0.0,0.333,0.667,0.818,0.0,0.5,1.0,1.0,0.0,0.182,0.364,1.0,0.0,0.5,0.0,8.0,NBA,42.0,0.0,0.5,0.182,0.091,0.182,0.364,PF,2009,CHI
