age,ast_per_mp,blk_per_mp,drb_per_mp,fg2_pct,fg2_per_mp,fg2a_per_mp,fg3_pct,fg3_per_mp,fg3a_per_mp,fg_pct,fg_per_mp,fga_per_mp,ft_pct,ft_per_mp,fta_per_mp,g,gs,lg_id,mp,orb_per_mp,pf_per_mp,pos,pts_per_mp,season,stl_per_mp,team_id,tov_per_mp,trb_per_mp
22.0,3.4,0.6,5.2,0.39,3.4,8.8,0.462,1.3,2.8,0.407,4.7,11.6,0.692,1.9,2.8,5.0,5.0,NBA,167.0,1.3,4.1,SF,12.7,2002,2.8,IND,1.9,6.5
23.0,1.9,0.9,3.4,0.39,3.3,8.4,0.387,1.7,4.4,0.389,5.0,12.9,0.8,4.6,5.7,6.0,6.0,NBA,252.0,1.6,3.6,SF,16.3,2003,2.1,IND,2.3,5.0
24.0,3.0,1.0,4.6,0.409,4.9,11.9,0.288,1.2,4.1,0.378,6.0,16.0,0.718,3.8,5.2,15.0,15.0,NBA,584.0,1.5,2.8,SF,17.0,2004,1.3,IND,2.3,6.0
26.0,2.7,0.7,3.1,0.407,4.0,9.8,0.333,1.6,4.9,0.383,5.6,14.7,0.696,2.9,4.2,5.0,5.0,NBA,198.0,1.5,2.7,SF,15.8,2006,1.5,SAC,0.9,4.5
29.0,4.0,0.2,3.2,0.475,4.2,8.9,0.277,1.7,6.1,0.394,5.9,15.0,0.714,1.5,2.1,13.0,13.0,NBA,488.0,0.9,2.0,SF,15.0,2009,1.0,HOU,2.4,4.1
30.0,2.1,0.5,2.5,0.489,2.9,5.9,0.291,1.5,5.0,0.398,4.3,10.9,0.579,0.9,1.6,23.0,23.0,NBA,839.0,1.4,2.9,SF,11.1,2010,1.5,LAL,1.1,3.9
31.0,2.5,0.9,3.0,0.51,3.3,6.4,0.321,1.1,3.5,0.443,4.4,9.9,0.762,2.0,2.6,9.0,9.0,NBA,287.0,2.1,2.9,SF,11.9,2011,1.3,LAL,1.1,5.1
32.0,2.1,0.6,2.7,0.333,1.2,3.7,0.389,2.1,5.5,0.367,3.4,9.2,0.75,1.8,2.4,6.0,6.0,NBA,236.0,0.5,2.7,SF,10.7,2012,2.0,LAL,0.8,3.2
33.0,2.1,0.4,2.1,0.357,2.1,6.0,0.143,0.9,6.0,0.25,3.0,12.0,1.0,0.9,0.9,3.0,3.0,NBA,84.0,2.6,2.1,SF,7.7,2013,0.9,LAL,1.3,4.7
