age,ast_pct,blk_pct,bpm,bpm-dum,dbpm,drb_pct,dws,fg3a_per_fga_pct,fta_per_fga_pct,g,lg_id,mp,obpm,orb_pct,ows,per,pos,season,stl_pct,team_id,tov_pct,trb_pct,ts_pct,usg_pct,vorp,ws,ws-dum,ws_per_48
23.0,8.9,0.9,-2.5,0.0,-1.3,10.7,0.4,0.012,0.431,75.0,NBA,1321.0,-1.2,9.2,0.7,13.0,SG,1994,2.0,WSB,14.9,10.0,0.521,19.0,-0.2,1.1,0.0,0.04
24.0,8.8,0.5,-4.0,0.0,-1.5,9.8,0.8,0.278,0.364,76.0,NBA,1554.0,-2.6,3.1,-0.5,10.0,SG,1995,2.0,WSB,15.2,6.3,0.506,19.6,-0.8,0.3,0.0,0.01
25.0,11.1,1.0,-3.7,0.0,0.5,12.0,1.0,0.262,0.362,61.0,NBA,858.0,-4.2,4.1,-1.2,7.4,SG,1996,2.4,WSB,20.1,8.1,0.446,17.3,-0.4,-0.2,0.0,-0.01
26.0,10.0,0.3,-3.4,0.0,-1.1,8.4,0.5,0.312,0.4,49.0,NBA,465.0,-2.3,5.0,0.1,9.0,SG,1997,1.5,POR,15.5,6.8,0.503,16.9,-0.2,0.6,0.0,0.063
27.0,13.7,0.0,-4.4,0.0,0.6,9.4,0.3,0.128,0.213,18.0,NBA,206.0,-5.0,3.6,-0.2,4.8,SG,1998,2.1,CLE,13.5,6.6,0.36,13.3,-0.1,0.1,0.0,0.016
28.0,10.8,0.8,-2.5,0.0,-1.4,9.4,0.3,0.209,0.23,31.0,NBA,418.0,-1.0,4.0,0.1,12.6,SG,1999,2.0,CLE,15.9,6.7,0.549,21.2,0.0,0.5,0.0,0.053
31.0,8.6,0.8,-5.4,0.0,-2.6,10.6,0.0,0.13,0.522,11.0,NBA,90.0,-2.8,7.7,0.1,9.4,SG,2002,0.0,POR,15.0,9.1,0.513,16.9,-0.1,0.1,0.0,0.057
33.0,9.7,0.5,-3.0,0.0,-0.7,9.8,0.3,0.242,0.194,41.0,NBA,552.0,-2.3,4.7,0.2,9.3,SG,2004,2.1,WAS,15.1,7.2,0.498,12.7,-0.1,0.5,0.0,0.048
