age,ast_per_g,blk_per_g,drb_per_g,efg_pct,fg2_pct,fg2_per_g,fg2a_per_g,fg3_pct,fg3_per_g,fg3a_per_g,fg_pct,fg_per_g,fga_per_g,ft_pct,ft_per_g,fta_per_g,g,gs,lg_id,mp_per_g,orb_per_g,pf_per_g,pos,pts_per_g,season,stl_per_g,team_id,tov_per_g,trb_per_g
23.0,1.0,0.3,1.6,0.495,0.501,2.8,5.5,0.0,0.0,0.1,0.495,2.8,5.6,0.578,1.4,2.4,75.0,19.0,NBA,17.6,1.4,1.7,SG,6.9,1994,0.7,WSB,1.2,3.0
24.0,1.2,0.1,1.7,0.467,0.458,2.2,4.8,0.326,0.6,1.9,0.421,2.8,6.7,0.665,1.6,2.4,76.0,5.0,NBA,20.4,0.6,2.0,SG,7.9,1995,0.8,WSB,1.4,2.2
25.0,1.1,0.2,1.5,0.413,0.444,1.2,2.8,0.217,0.2,1.0,0.384,1.4,3.8,0.578,0.8,1.4,61.0,3.0,NBA,14.1,0.5,1.7,SG,3.9,1996,0.7,WSB,1.1,1.9
26.0,0.6,0.0,0.7,0.464,0.465,0.8,1.8,0.308,0.2,0.8,0.416,1.1,2.6,0.64,0.7,1.0,49.0,1.0,NBA,9.5,0.4,1.1,SG,3.0,1997,0.3,POR,0.6,1.1
27.0,1.0,0.0,0.9,0.33,0.341,0.8,2.3,0.167,0.1,0.3,0.319,0.8,2.6,0.6,0.3,0.6,18.0,0.0,NBA,11.4,0.3,1.4,SG,2.1,1998,0.4,CLE,0.4,1.2
28.0,0.7,0.1,1.0,0.522,0.509,1.8,3.5,0.379,0.4,0.9,0.482,2.2,4.5,0.719,0.7,1.0,31.0,1.0,NBA,13.5,0.4,1.3,SG,5.4,1999,0.5,CLE,0.9,1.4
31.0,0.5,0.1,0.7,0.457,0.45,0.8,1.8,0.333,0.1,0.3,0.435,0.9,2.1,0.667,0.7,1.1,11.0,0.0,NBA,8.2,0.5,0.9,SG,2.6,2002,0.0,POR,0.5,1.3
33.0,0.8,0.1,1.1,0.48,0.457,1.0,2.3,0.367,0.3,0.7,0.435,1.3,3.0,0.625,0.4,0.6,41.0,4.0,NBA,13.5,0.6,1.3,SG,3.3,2004,0.5,WAS,0.6,1.7
