age,ast_per_mp,blk_per_mp,drb_per_mp,fg2_pct,fg2_per_mp,fg2a_per_mp,fg3_pct,fg3_per_mp,fg3a_per_mp,fg_pct,fg_per_mp,fga_per_mp,ft_pct,ft_per_mp,fta_per_mp,g,gs,lg_id,mp,orb_per_mp,pf_per_mp,pos,pts_per_mp,season,stl_per_mp,team_id,tov_per_mp,trb_per_mp
23.0,2.1,0.5,3.2,0.501,5.6,11.3,0.0,0.0,0.1,0.495,5.6,11.4,0.578,2.8,4.9,75.0,19.0,NBA,1321.0,2.9,3.6,SG,14.1,1994,1.5,WSB,2.4,6.1
24.0,2.1,0.2,2.9,0.458,3.9,8.5,0.326,1.1,3.3,0.421,5.0,11.8,0.665,2.8,4.3,76.0,5.0,NBA,1554.0,1.0,3.6,SG,13.8,1995,1.4,WSB,2.5,3.9
25.0,2.8,0.5,3.7,0.444,3.1,7.1,0.217,0.5,2.5,0.384,3.7,9.6,0.578,2.0,3.5,61.0,3.0,NBA,858.0,1.2,4.4,SG,9.9,1996,1.7,WSB,2.8,5.0
26.0,2.3,0.2,2.6,0.465,3.1,6.7,0.308,0.9,3.0,0.416,4.0,9.7,0.64,2.5,3.9,49.0,1.0,NBA,465.0,1.5,4.3,SG,11.5,1997,1.0,POR,2.1,4.1
27.0,3.1,0.0,2.8,0.341,2.4,7.2,0.167,0.2,1.0,0.319,2.6,8.2,0.6,1.0,1.7,18.0,0.0,NBA,206.0,1.0,4.5,SG,6.5,1998,1.4,CLE,1.4,3.8
28.0,1.9,0.3,2.7,0.509,4.8,9.5,0.379,0.9,2.5,0.482,5.8,12.0,0.719,2.0,2.8,31.0,1.0,NBA,418.0,1.1,3.5,SG,14.5,1999,1.3,CLE,2.5,3.8
31.0,2.0,0.4,3.2,0.45,3.6,8.0,0.333,0.4,1.2,0.435,4.0,9.2,0.667,3.2,4.8,11.0,0.0,NBA,90.0,2.4,4.0,SG,11.6,2002,0.0,POR,2.0,5.6
33.0,2.1,0.3,3.1,0.457,2.8,6.1,0.367,0.7,2.0,0.435,3.5,8.1,0.625,1.0,1.6,41.0,4.0,NBA,552.0,1.6,3.5,SG,8.7,2004,1.4,WAS,1.6,4.6
