age,ast,ast_per_g,blk,college_id,fg,fg3,fg3_pct,fg3a,fg_pct,fga,ft,ft_pct,fta,g,mp,mp_per_g,orb,pf,pts,pts_per_g,season,stl,tov,trb,trb_per_g
21.0,117.0,3.4,0.0,BUTLERCOCC,292.0,0.0,0.0,1.0,0.659,443.0,101.0,0.656,154.0,34.0,887.0,26.1,0.0,0.0,686.0,20.2,1997,0.0,0.0,250.0,7.4
22.0,61.0,1.9,33.0,TXCHRIST,329.0,1.0,0.5,2.0,0.554,594.0,137.0,0.745,184.0,32.0,0.0,0.0,0.0,0.0,796.0,24.9,1998,56.0,0.0,285.0,8.9
23.0,79.0,2.5,29.0,TXCHRIST,266.0,4.0,0.267,15.0,0.508,524.0,171.0,0.715,239.0,31.0,990.0,31.9,0.0,111.0,707.0,22.8,1999,38.0,100.0,288.0,9.3
