age,ast,blk,drb,fg,fg2,fg2a,fg3,fg3a,fga,ft,fta,game_score,lg_id,mp,orb,pf,pts,season,stl,team_id,tov,trb
21.0,7.0,2.0,6.0,12.0,10.0,18.0,7.0,11.0,22.0,10.0,14.0,28.1,NBA,39,2.0,5.0,33.0,2013,4.0,CLE,6.0,6.0
22.0,11.0,3.0,7.0,13.0,12.0,22.0,4.0,8.0,25.0,7.0,12.0,20.5,NBA,45,3.0,5.0,30.0,2014,5.0,CLE,6.0,8.0
23.0,8.0,2.0,9.0,12.0,10.0,17.0,5.0,9.0,23.0,7.0,8.0,24.9,NBA,41,3.0,5.0,33.0,2015,4.0,TOT,4.0,10.0
23.0,8.0,2.0,5.0,11.0,10.0,17.0,3.0,6.0,21.0,7.0,8.0,21.5,NBA,38,3.0,4.0,26.0,2015,4.0,CLE,4.0,6.0
23.0,5.0,2.0,9.0,12.0,9.0,16.0,5.0,9.0,23.0,5.0,6.0,24.9,NBA,41,3.0,5.0,33.0,2015,4.0,OKC,4.0,10.0
24.0,6.0,1.0,7.0,10.0,9.0,15.0,4.0,7.0,22.0,7.0,7.0,21.1,NBA,43,3.0,5.0,25.0,2016,4.0,OKC,7.0,7.0
25.0,10.0,3.0,9.0,13.0,10.0,20.0,6.0,10.0,26.0,5.0,8.0,26.5,NBA,43,2.0,5.0,33.0,2017,3.0,MIA,6.0,10.0
26.0,8.0,1.0,6.0,14.0,13.0,20.0,4.0,11.0,28.0,4.0,6.0,20.5,NBA,40,2.0,6.0,33.0,2018,3.0,MIA,6.0,7.0
27.0,7.0,2.0,8.0,11.0,6.0,9.0,6.0,16.0,23.0,3.0,4.0,21.3,NBA,43,1.0,5.0,28.0,2019,3.0,MIA,5.0,8.0
