age,ast,ast_per_g,blk,college_id,fg,fg3,fg3_pct,fg3a,fg_pct,fga,ft,ft_pct,fta,g,mp,mp_per_g,orb,pf,pts,pts_per_g,season,stl,tov,trb,trb_per_g
17.0,0.0,0.0,0.0,UCLA,83.0,0.0,0.0,0.0,0.634,131.0,28.0,0.737,38.0,27.0,0.0,0.0,0.0,0.0,194.0,7.2,1974,0.0,0.0,90.0,3.3
18.0,0.0,0.0,0.0,UCLA,138.0,0.0,0.0,0.0,0.543,254.0,59.0,0.686,86.0,29.0,0.0,0.0,0.0,0.0,335.0,11.6,1975,0.0,0.0,205.0,7.1
19.0,0.0,0.0,0.0,UCLA,223.0,0.0,0.0,0.0,0.54,413.0,106.0,0.757,140.0,32.0,1165.0,36.4,0.0,0.0,552.0,17.3,1976,0.0,0.0,301.0,9.4
20.0,0.0,0.0,0.0,UCLA,244.0,0.0,0.0,0.0,0.591,413.0,90.0,0.621,145.0,27.0,1004.0,37.2,0.0,0.0,578.0,21.4,1977,0.0,0.0,301.0,11.1
