age,and1s,astd_pts,drawn_offensive,drawn_shooting,fouls_offensive,fouls_shooting,g,lg_id,mp,own_shots_blk,pct_1,pct_2,pct_3,pct_4,pct_5,plus_minus_net,plus_minus_on,pos,season,team_id,tov_bad_pass,tov_lost_ball
23.0,20.0,141.0,4.0,97.0,15.0,85.0,70.0,NBA,1275.0,35.0,0.0,0.0,0.0,8.0,92.0,-2.3,-2.3,C,2014,BRK,24.0,27.0
24.0,36.0,169.0,3.0,161.0,34.0,86.0,82.0,NBA,1743.0,59.0,0.0,0.0,0.0,25.0,75.0,-4.0,-5.4,C,2015,BRK,25.0,37.0
25.0,28.0,543.0,8.0,144.0,29.0,115.0,82.0,NBA,2084.0,63.0,0.0,0.0,0.0,2.0,98.0,2.1,1.8,C,2016,POR,59.0,56.0
26.0,29.0,664.0,8.0,124.0,32.0,98.0,81.0,NBA,2148.0,53.0,0.0,0.0,0.0,0.0,100.0,0.5,0.2,C,2017,TOT,58.0,35.0
26.0,22.0,495.0,2.0,93.0,19.0,62.0,54.0,NBA,1516.0,39.0,0.0,0.0,0.0,0.0,100.0,1.6,0.7,C,2017,POR,40.0,23.0
26.0,7.0,169.0,6.0,31.0,13.0,36.0,27.0,NBA,632.0,14.0,0.0,0.0,0.0,0.0,100.0,-1.0,-0.8,C,2017,DEN,18.0,12.0
27.0,22.0,332.0,3.0,70.0,10.0,79.0,74.0,NBA,1439.0,27.0,0.0,0.0,0.0,0.0,100.0,-2.8,-0.5,C,2018,DEN,42.0,26.0
28.0,19.0,569.0,11.0,81.0,29.0,117.0,82.0,NBA,1731.0,34.0,0.0,0.0,0.0,32.0,68.0,-0.9,3.2,C,2019,DEN,59.0,20.0
29.0,0.0,64.0,4.0,12.0,4.0,14.0,11.0,NBA,183.0,2.0,0.0,0.0,0.0,0.0,100.0,-10.3,-4.2,C,2020,DEN,6.0,1.0
