age,ast,blk,drb,fg,fg2,fg2a,fg3,fg3a,fga,ft,fta,game_score,lg_id,mp,orb,pf,pts,season,stl,team_id,tov,trb
23.0,1.0,2.0,4.0,2.0,2.0,4.0,0.0,0.0,4.0,3.0,6.0,4.5,NBA,21,2.0,5.0,5.0,2014,2.0,BRK,2.0,6.0
24.0,2.0,1.0,4.0,2.0,2.0,3.0,0.0,0.0,3.0,2.0,4.0,3.4,NBA,14,1.0,5.0,6.0,2015,1.0,BRK,1.0,4.0
25.0,10.0,3.0,18.0,6.0,6.0,11.0,0.0,0.0,11.0,7.0,9.0,23.5,NBA,36,7.0,5.0,17.0,2016,2.0,POR,6.0,21.0
28.0,4.0,2.0,8.0,4.0,4.0,7.0,0.0,1.0,7.0,3.0,5.0,11.6,NBA,25,4.0,5.0,8.0,2019,5.0,DEN,3.0,9.0
