age,ast_per_g,blk_per_g,drb_per_g,efg_pct,fg2_pct,fg2_per_g,fg2a_per_g,fg3_pct,fg3_per_g,fg3a_per_g,fg_pct,fg_per_g,fga_per_g,ft_pct,ft_per_g,fta_per_g,g,gs,lg_id,mp_per_g,orb_per_g,pf_per_g,pos,pts_per_g,season,stl_per_g,team_id,tov_per_g,trb_per_g
23.0,0.9,0.8,3.0,0.659,0.666,2.8,4.3,0.0,0.0,0.0,0.659,2.8,4.3,0.626,1.7,2.8,70.0,22.0,NBA,18.2,1.4,2.4,C,7.4,2014,0.7,BRK,1.1,4.4
24.0,0.9,0.8,4.1,0.573,0.576,3.4,5.9,0.0,0.0,0.0,0.573,3.4,6.0,0.495,1.9,3.9,82.0,45.0,NBA,21.3,2.1,2.5,C,8.7,2015,0.8,BRK,1.3,6.2
25.0,2.8,1.0,5.2,0.516,0.52,3.3,6.3,0.0,0.0,0.0,0.516,3.3,6.3,0.642,2.6,4.1,82.0,82.0,NBA,25.4,2.5,3.1,C,9.1,2016,0.8,POR,1.9,7.7
26.0,3.5,1.1,5.4,0.536,0.541,4.1,7.6,0.0,0.0,0.1,0.536,4.1,7.7,0.58,2.1,3.7,81.0,64.0,NBA,26.5,2.1,2.8,C,10.4,2017,0.9,TOT,1.7,7.5
26.0,4.0,1.2,5.8,0.532,0.538,4.4,8.1,0.0,0.0,0.1,0.532,4.4,8.2,0.567,2.4,4.1,54.0,54.0,NBA,28.1,2.2,2.8,C,11.1,2017,0.9,POR,1.6,8.0
26.0,2.6,1.1,4.6,0.547,0.55,3.7,6.7,0.0,0.0,0.0,0.547,3.7,6.7,0.618,1.7,2.8,27.0,10.0,NBA,23.4,1.9,2.9,C,9.1,2017,0.7,DEN,1.7,6.4
27.0,1.9,1.1,3.6,0.601,0.602,3.0,5.0,0.0,0.0,0.0,0.601,3.0,5.0,0.458,1.1,2.4,74.0,26.0,NBA,19.4,1.8,2.5,C,7.1,2018,0.7,DEN,1.4,5.4
28.0,3.0,0.9,4.4,0.595,0.602,3.2,5.3,0.2,0.0,0.1,0.593,3.2,5.4,0.561,1.4,2.4,82.0,17.0,NBA,21.1,2.0,3.1,C,7.8,2019,0.8,DEN,1.5,6.4
29.0,2.4,0.6,4.0,0.563,0.587,2.5,4.2,0.0,0.0,0.2,0.563,2.5,4.4,0.538,1.3,2.4,11.0,0.0,NBA,16.6,1.7,2.9,C,6.2,2020,0.6,DEN,1.3,5.7
