article_url,date,headline
https://thesmokingcuban.com/2019/09/01/dallas-mavericks-josh-powell-only-former-mav-playing-in-big3-championship/,2019/09/01,The Smoking Cuban: Dallas Mavericks: Josh Powell only former Mav playing in BIG3 championship
https://allucanheat.com/2019/08/17/miami-heat-smart-trade-first-round-picks/,2019/08/17,All U Can Heat: Miami Heat: Has Miami been smart in trading their first-round picks?
https://empirewritesback.com/2019/07/15/former-new-york-knicks-player-shawne-williams-supports-david-fizdales-vision/,2019/07/15,Empire Writes Back: Former New York Knicks player Shawne Williams supports David Fizdale's vision
https://thesmokingcuban.com/2019/06/24/dallas-mavericks-former-mavs-do-very-well-in-first-big3-weekend/,2019/06/24,The Smoking Cuban: Dallas Mavericks: Former Mavs do very well in first BIG3 weekend
