age,and1s,astd_pts,drawn_offensive,drawn_shooting,fouls_offensive,fouls_shooting,g,lg_id,mp,own_shots_blk,pct_1,pct_2,pct_3,pct_4,pct_5,plus_minus_net,plus_minus_on,pos,season,team_id,tov_bad_pass,tov_lost_ball
22.0,4.0,339.0,0.0,35.0,2.0,50.0,80.0,NBA,1149.0,21.0,85.0,15.0,0.0,0.0,0.0,-1.9,7.6,PG,2005,SAS,46.0,23.0
23.0,4.0,208.0,7.0,17.0,2.0,26.0,54.0,NBA,586.0,18.0,75.0,24.0,1.0,0.0,0.0,-2.9,5.7,PG,2006,SAS,29.0,17.0
24.0,3.0,286.0,6.0,18.0,5.0,37.0,73.0,NBA,948.0,19.0,76.0,24.0,0.0,0.0,0.0,-9.4,2.1,PG,2007,SAS,24.0,21.0
25.0,13.0,645.0,8.0,57.0,6.0,66.0,65.0,NBA,2080.0,50.0,88.0,12.0,0.0,0.0,0.0,2.9,-0.9,PG,2008,SAC,82.0,44.0
26.0,11.0,778.0,12.0,54.0,6.0,112.0,73.0,NBA,2270.0,29.0,80.0,20.0,0.0,0.0,0.0,3.8,-7.8,PG,2009,SAC,89.0,52.0
27.0,15.0,824.0,14.0,44.0,4.0,88.0,79.0,NBA,2477.0,25.0,92.0,8.0,0.0,0.0,0.0,-0.7,-4.9,PG,2010,SAC,88.0,36.0
28.0,25.0,858.0,25.0,83.0,8.0,109.0,79.0,NBA,2734.0,36.0,84.0,16.0,0.0,0.0,0.0,-0.7,-6.0,PG,2011,SAC,70.0,55.0
29.0,5.0,516.0,11.0,19.0,3.0,34.0,59.0,NBA,1080.0,12.0,56.0,44.0,1.0,0.0,0.0,16.0,10.8,SG,2012,MIL,44.0,25.0
30.0,6.0,675.0,11.0,38.0,4.0,42.0,66.0,NBA,1457.0,23.0,54.0,44.0,2.0,0.0,0.0,-2.2,-6.5,SG-PG,2013,TOT,69.0,26.0
30.0,3.0,315.0,8.0,12.0,2.0,20.0,39.0,NBA,719.0,10.0,24.0,72.0,4.0,0.0,0.0,-0.3,-2.1,SG,2013,MIL,37.0,10.0
30.0,3.0,360.0,3.0,26.0,2.0,22.0,27.0,NBA,738.0,13.0,83.0,17.0,0.0,0.0,0.0,-3.8,-10.8,PG,2013,ORL,32.0,16.0
31.0,0.0,263.0,11.0,8.0,0.0,27.0,41.0,NBA,643.0,7.0,92.0,8.0,0.0,0.0,0.0,-10.6,-9.2,SG,2014,TOT,29.0,16.0
31.0,0.0,248.0,11.0,7.0,0.0,26.0,31.0,NBA,588.0,7.0,92.0,9.0,0.0,0.0,0.0,-10.8,-10.2,SG,2014,NYK,25.0,15.0
31.0,0.0,15.0,0.0,1.0,0.0,1.0,10.0,NBA,55.0,0.0,96.0,4.0,0.0,0.0,0.0,-1.3,0.8,SG,2014,MEM,4.0,1.0
32.0,11.0,497.0,9.0,48.0,0.0,50.0,79.0,NBA,1494.0,20.0,93.0,7.0,0.0,0.0,0.0,-5.3,0.1,PG,2015,MEM,56.0,26.0
33.0,2.0,261.0,5.0,10.0,1.0,22.0,44.0,NBA,707.0,7.0,93.0,7.0,0.0,0.0,0.0,-0.6,-0.7,PG,2016,TOT,31.0,16.0
33.0,1.0,59.0,3.0,2.0,1.0,6.0,8.0,NBA,120.0,6.0,90.0,10.0,0.0,0.0,0.0,-4.0,-6.2,PG,2016,MEM,6.0,3.0
33.0,1.0,202.0,2.0,8.0,0.0,16.0,36.0,NBA,587.0,1.0,94.0,6.0,0.0,0.0,0.0,-1.8,0.5,PG,2016,MIA,25.0,13.0
34.0,4.0,297.0,4.0,13.0,0.0,15.0,39.0,NBA,560.0,15.0,99.0,1.0,0.0,0.0,0.0,8.9,6.2,PG,2017,DET,24.0,11.0
