age,ast,blk,drb,fg,fg2,fg2a,fg3,fg3a,fga,ft,fta,game_score,lg_id,mp,orb,pf,pts,season,stl,team_id,tov,trb
22.0,3.0,1.0,2.0,4.0,3.0,6.0,2.0,5.0,9.0,4.0,4.0,7.3,NBA,0.0,1.0,3.0,10.0,2005,2.0,SAS,3.0,3.0
23.0,4.0,0.0,2.0,3.0,3.0,8.0,1.0,3.0,10.0,3.0,4.0,5.0,NBA,14.0,1.0,4.0,8.0,2006,0.0,SAS,2.0,2.0
24.0,1.0,0.0,0.0,0.0,0.0,2.0,0.0,1.0,3.0,2.0,2.0,0.2,NBA,10.0,1.0,1.0,2.0,2007,0.0,SAS,2.0,1.0
31.0,3.0,0.0,3.0,6.0,6.0,8.0,2.0,3.0,8.0,3.0,4.0,10.3,NBA,21.0,1.0,2.0,14.0,2014,1.0,TOT,3.0,4.0
31.0,3.0,0.0,3.0,6.0,6.0,8.0,2.0,3.0,8.0,3.0,4.0,10.3,NBA,21.0,1.0,2.0,14.0,2014,1.0,MEM,3.0,4.0
32.0,7.0,0.0,6.0,9.0,8.0,13.0,1.0,3.0,14.0,3.0,4.0,20.4,NBA,25.0,1.0,3.0,20.0,2015,2.0,MEM,1.0,7.0
