age,ast_per_mp,blk_per_mp,drb_per_mp,fg2_pct,fg2_per_mp,fg2a_per_mp,fg3_pct,fg3_per_mp,fg3a_per_mp,fg_pct,fg_per_mp,fga_per_mp,ft_pct,ft_per_mp,fta_per_mp,g,gs,lg_id,mp,orb_per_mp,pf_per_mp,pos,pts_per_mp,season,stl_per_mp,team_id,tov_per_mp,trb_per_mp
24.0,4.2,0.3,2.4,0.388,2.5,6.5,0.327,1.3,4.0,0.364,3.8,10.5,1.0,0.7,0.7,34.0,0.0,NBA,441.0,0.2,5.0,PG,9.6,1999,1.0,HOU,2.5,2.6
25.0,4.5,0.0,2.2,0.396,2.8,7.0,0.362,1.6,4.5,0.383,4.4,11.5,0.849,1.3,1.5,72.0,5.0,NBA,1293.0,0.6,2.2,PG,11.7,2000,1.1,HOU,1.8,2.9
26.0,5.1,0.1,1.6,0.378,2.3,6.1,0.381,1.1,2.9,0.379,3.4,9.0,0.737,0.4,0.5,48.0,41.0,NBA,1305.0,0.3,2.7,PG,8.3,2001,0.9,CHI,1.9,1.9
27.0,4.7,0.1,2.7,0.431,2.2,5.1,0.425,1.4,3.4,0.429,3.6,8.5,0.793,1.1,1.3,61.0,0.0,NBA,774.0,0.7,2.3,PG,9.8,2002,1.5,CHH,1.5,3.3
28.0,5.0,0.0,4.1,0.25,2.3,9.1,0.429,1.4,3.2,0.296,3.6,12.3,0.0,0.0,0.0,13.0,0.0,NBA,79.0,1.8,0.9,PG,8.7,2003,0.9,NOH,1.4,5.9
29.0,6.0,0.0,2.8,0.273,1.4,5.1,0.143,0.5,3.2,0.222,1.8,8.3,1.0,1.4,1.4,15.0,0.0,NBA,78.0,0.0,0.5,PG,5.5,2004,1.8,NOH,3.7,2.8
