age,ast_per_poss,blk_per_poss,def_rtg,drb_per_poss,fg2_pct,fg2_per_poss,fg2a_per_poss,fg3_pct,fg3_per_poss,fg3a_per_poss,fg_pct,fg_per_poss,fga_per_poss,ft_pct,ft_per_poss,fta_per_poss,g,gs,lg_id,mp,off_rtg,orb_per_poss,pf_per_poss,pos,pts_per_poss,season,stl_per_poss,team_id,tov_per_poss,trb_per_poss
24.0,6.4,0.5,107.0,3.6,0.388,3.8,9.8,0.327,2.0,6.0,0.364,5.8,15.8,1.0,1.0,1.0,34.0,0.0,NBA,441.0,88.0,0.4,7.5,PG,14.5,1999,1.5,HOU,3.8,3.9
25.0,6.4,0.0,109.0,3.2,0.396,3.9,9.9,0.362,2.3,6.4,0.383,6.2,16.3,0.849,1.8,2.1,72.0,5.0,NBA,1293.0,102.0,0.9,3.1,PG,16.6,2000,1.6,HOU,2.6,4.1
26.0,7.6,0.1,112.0,2.3,0.378,3.5,9.1,0.381,1.6,4.3,0.379,5.1,13.5,0.737,0.6,0.8,48.0,41.0,NBA,1305.0,92.0,0.5,4.1,PG,12.4,2001,1.3,CHI,2.8,2.8
27.0,7.0,0.1,106.0,4.0,0.431,3.3,7.5,0.425,2.1,5.0,0.429,5.4,12.6,0.793,1.6,2.0,61.0,0.0,NBA,774.0,111.0,1.0,3.4,PG,14.5,2002,2.2,CHH,2.3,5.0
28.0,7.5,0.0,104.0,6.1,0.25,3.4,13.6,0.429,2.0,4.8,0.296,5.4,18.4,0.0,0.0,0.0,13.0,0.0,NBA,79.0,90.0,2.7,1.4,PG,12.9,2003,1.4,NOH,2.0,8.8
29.0,9.0,0.0,104.0,4.1,0.273,2.1,7.6,0.143,0.7,4.8,0.222,2.8,12.4,1.0,2.1,2.1,15.0,0.0,NBA,78.0,67.0,0.0,0.7,PG,8.3,2004,2.8,NOH,5.5,4.1
