age,ast_per_g,blk_per_g,drb_per_g,efg_pct,fg2_pct,fg2_per_g,fg2a_per_g,fg3_pct,fg3_per_g,fg3a_per_g,fg_pct,fg_per_g,fga_per_g,ft_pct,ft_per_g,fta_per_g,g,gs,lg_id,mp_per_g,orb_per_g,pf_per_g,pos,pts_per_g,season,stl_per_g,team_id,tov_per_g,trb_per_g
23.0,0.4,0.2,1.0,0.443,0.467,1.2,2.6,0.0,0.0,0.1,0.443,1.2,2.8,0.778,0.8,1.0,35.0,0.0,NBA,8.1,0.9,1.8,PF,3.3,1999,0.5,MIN,0.6,1.9
24.0,0.2,0.0,0.2,0.75,0.75,0.6,0.8,0.0,0.0,0.0,0.75,0.6,0.8,0.0,0.0,0.0,5.0,0.0,NBA,4.0,0.2,0.8,PF,1.2,2000,0.2,MIN,0.2,0.4
