age,ast,blk,drb,efg_pct,fg,fg2,fg2_pct,fg2a,fg3,fg3_pct,fg3a,fg_pct,fga,ft,ft_pct,fta,g,gs,lg_id,mp,orb,pf,pos,pts,season,stl,team_id,tov,trb
23.0,15.0,7.0,35.0,0.443,43.0,43.0,0.467,92.0,0.0,0.0,5.0,0.443,97.0,28.0,0.778,36.0,35.0,0.0,NBA,284.0,30.0,62.0,PF,114.0,1999,19.0,MIN,22.0,65.0
24.0,1.0,0.0,1.0,0.75,3.0,3.0,0.75,4.0,0.0,0.0,0.0,0.75,4.0,0.0,0.0,0.0,5.0,0.0,NBA,20.0,1.0,4.0,PF,6.0,2000,1.0,MIN,1.0,2.0
