age,ast_pct,blk_pct,bpm,bpm-dum,dbpm,drb_pct,dws,fg3a_per_fga_pct,fta_per_fga_pct,g,lg_id,mp,obpm,orb_pct,ows,per,pos,season,stl_pct,team_id,tov_pct,trb_pct,ts_pct,usg_pct,vorp,ws,ws-dum,ws_per_48
23.0,8.2,1.0,-4.1,0.0,-1.3,7.5,0.1,0.0,0.9,12.0,NBA,74.0,-2.8,26.3,-0.1,6.6,PF,2000,1.4,MIA,12.5,16.4,0.322,20.1,0.0,0.0,0.0,-0.017
25.0,5.5,0.4,-1.0,0.0,-1.6,9.5,0.1,0.0,0.349,25.0,NBA,176.0,0.5,15.6,0.4,13.9,PF,2002,1.5,LAC,10.8,12.5,0.544,14.3,0.0,0.5,0.0,0.126
