age,ast_pct,blk_pct,bpm,bpm-dum,dbpm,drb_pct,dws,fg3a_per_fga_pct,fta_per_fga_pct,g,lg_id,mp,obpm,orb_pct,ows,per,pos,season,stl_pct,team_id,tov_pct,trb_pct,ts_pct,usg_pct,vorp,ws,ws-dum,ws_per_48
24.0,6.6,0.8,-7.2,0.0,-2.7,5.8,0.2,0.207,0.405,42.0,NBA,340.0,-4.5,5.7,-0.2,8.9,SF,1995,1.6,HOU,10.1,5.7,0.449,20.9,-0.4,0.0,0.0,0.0
25.0,6.3,1.0,-7.0,0.0,-2.0,7.4,0.3,0.286,0.28,54.0,NBA,570.0,-5.0,4.5,-0.6,6.2,SF,1996,1.0,HOU,14.2,6.0,0.445,16.6,-0.7,-0.2,0.0,-0.021
27.0,11.1,2.5,-4.1,0.0,-0.3,8.2,0.0,0.273,0.182,6.0,NBA,30.0,-3.7,0.0,0.0,11.6,SF,1998,3.5,MIL,7.8,4.1,0.421,19.6,0.0,0.0,0.0,0.028
