age,ast,blk,drb,fg,fg2,fg2a,fg3,fg3a,fga,ft,fta,game_score,lg_id,mp,orb,pf,pts,season,stl,team_id,tov,trb
24.0,3.0,1.0,2.0,4.0,4.0,7.0,2.0,5.0,11.0,6.0,8.0,9.6,NBA,0.0,3.0,3.0,12.0,1995,2.0,HOU,3.0,4.0
25.0,4.0,1.0,6.0,7.0,4.0,11.0,3.0,4.0,12.0,6.0,7.0,15.5,NBA,0.0,5.0,5.0,17.0,1996,2.0,HOU,3.0,11.0
27.0,1.0,1.0,2.0,2.0,2.0,4.0,1.0,1.0,5.0,1.0,2.0,3.7,NBA,0.0,0.0,1.0,5.0,1998,1.0,MIL,1.0,2.0
