age,ast,blk,drb,fg,fg2,fg2a,fg3,fg3a,fga,ft,fta,game_score,lg_id,mp,orb,pf,pts,season,stl,team_id,tov,trb
23.0,13.0,1.0,4.0,5.0,5.0,11.0,1.0,3.0,13.0,5.0,5.0,14.0,NBA,0.0,2.0,5.0,11.0,1988,2.0,SAC,7.0,4.0
24.0,3.0,0.0,2.0,2.0,2.0,5.0,1.0,2.0,7.0,1.0,2.0,4.1,NBA,0.0,1.0,4.0,4.0,1989,1.0,SAC,2.0,3.0
25.0,2.0,0.0,2.0,1.0,1.0,2.0,1.0,1.0,2.0,3.0,6.0,4.0,NBA,0.0,2.0,1.0,6.0,1990,1.0,SAC,1.0,3.0
