age,ast_per_poss,blk_per_poss,def_rtg,drb_per_poss,fg2_pct,fg2_per_poss,fg2a_per_poss,fg3_pct,fg3_per_poss,fg3a_per_poss,fg_pct,fg_per_poss,fga_per_poss,ft_pct,ft_per_poss,fta_per_poss,g,gs,lg_id,mp,off_rtg,orb_per_poss,pf_per_poss,pos,pts_per_poss,season,stl_per_poss,team_id,tov_per_poss,trb_per_poss
23.0,11.2,0.3,115.0,2.6,0.397,3.6,9.1,0.24,0.4,1.6,0.374,4.0,10.7,0.719,1.4,2.0,58.0,0.0,NBA,760.0,95.0,1.1,5.1,PG,9.8,1988,1.3,SAC,3.6,3.7
24.0,7.5,0.0,112.0,2.0,0.389,4.8,12.3,0.333,1.4,4.1,0.375,6.1,16.4,0.5,0.7,1.4,14.0,0.0,NBA,70.0,93.0,0.7,8.2,PG,14.3,1989,2.0,SAC,2.7,2.7
25.0,6.8,0.0,106.0,4.3,0.222,1.7,7.7,0.5,0.9,1.7,0.273,2.6,9.4,0.5,2.6,5.1,17.0,0.0,NBA,58.0,81.0,1.7,2.6,PG,8.6,1990,4.3,SAC,3.4,6.0
