age,ast_per_mp,blk_per_mp,drb_per_mp,fg2_pct,fg2_per_mp,fg2a_per_mp,fg3_pct,fg3_per_mp,fg3a_per_mp,fg_pct,fg_per_mp,fga_per_mp,ft_pct,ft_per_mp,fta_per_mp,g,gs,lg_id,mp,orb_per_mp,pf_per_mp,pos,pts_per_mp,season,stl_per_mp,team_id,tov_per_mp,trb_per_mp
21.0,1.8,0.5,2.7,0.429,3.7,8.7,0.28,1.2,4.5,0.378,5.0,13.2,0.714,1.8,2.5,23.0,5.0,NBA,202.0,1.1,4.3,SG,13.0,2007,1.2,CLE,2.5,3.7
22.0,2.5,0.5,2.1,0.365,5.2,14.4,0.3,1.4,4.5,0.349,6.6,18.9,0.586,2.5,4.3,21.0,4.0,NBA,240.0,0.9,4.3,SG,17.1,2008,1.6,TOT,3.6,3.0
22.0,2.8,0.2,2.1,0.39,5.3,13.5,0.31,1.5,4.8,0.369,6.8,18.3,0.609,2.3,3.8,15.0,4.0,NBA,218.0,0.8,4.5,SG,17.3,2008,1.7,CLE,3.1,3.0
22.0,0.0,3.3,1.6,0.214,4.9,22.9,0.0,0.0,1.6,0.2,4.9,24.5,0.5,4.9,9.8,6.0,0.0,NBA,22.0,1.6,3.3,SG,14.7,2008,1.6,CHI,8.2,3.3
23.0,2.9,0.5,2.5,0.5,4.8,9.7,0.378,1.1,2.8,0.473,5.9,12.5,0.821,2.4,2.9,48.0,0.0,NBA,477.0,0.8,3.2,SG,15.2,2009,1.7,TOT,2.9,3.3
23.0,3.0,0.5,1.7,0.505,5.1,10.0,0.286,0.8,3.0,0.455,5.9,13.0,0.8,2.5,3.2,30.0,0.0,NBA,341.0,0.8,3.5,SG,15.2,2009,1.9,CHA,3.1,2.5
23.0,2.6,0.5,4.5,0.485,4.2,8.7,0.667,1.6,2.4,0.524,5.8,11.1,0.889,2.1,2.4,18.0,0.0,NBA,136.0,0.8,2.4,SG,15.4,2009,1.1,LAL,2.4,5.3
24.0,2.3,0.7,3.2,0.474,4.0,8.5,0.328,1.3,4.0,0.427,5.4,12.5,0.818,2.1,2.6,82.0,7.0,NBA,1700.0,0.6,2.7,SG,14.1,2010,1.2,LAL,1.4,3.9
25.0,2.2,0.4,2.8,0.462,4.6,9.9,0.349,1.7,4.9,0.425,6.3,14.8,0.911,2.1,2.3,82.0,0.0,NBA,1568.0,0.8,2.8,SG,16.3,2011,1.5,LAL,1.7,3.6
26.0,1.8,0.4,3.1,0.446,4.7,10.5,0.362,1.7,4.8,0.42,6.5,15.4,0.808,2.1,2.5,59.0,19.0,NBA,1400.0,1.0,1.7,SG,16.7,2012,1.1,PHO,1.6,4.0
27.0,2.8,0.4,2.7,0.467,5.2,11.0,0.277,1.0,3.6,0.42,6.2,14.7,0.784,2.5,3.2,59.0,22.0,NBA,1402.0,1.1,2.4,SG,15.8,2013,1.5,PHO,1.9,3.8
28.0,1.3,0.0,3.0,0.375,3.4,9.2,0.0,0.0,0.3,0.364,3.4,9.5,0.714,2.2,3.0,29.0,1.0,NBA,251.0,1.0,3.4,SG,9.0,2014,1.9,TOT,2.6,4.0
28.0,1.7,0.0,4.2,0.308,2.8,9.1,0.0,0.0,0.7,0.286,2.8,9.8,0.778,2.4,3.1,10.0,1.0,NBA,103.0,0.3,4.2,SG,8.0,2014,0.3,SAS,2.8,4.5
28.0,1.0,0.0,2.2,0.421,3.9,9.2,0.0,0.0,0.0,0.421,3.9,9.2,0.667,1.9,2.9,19.0,0.0,NBA,148.0,1.5,2.9,SG,9.7,2014,2.9,NYK,2.4,3.6
29.0,1.2,0.0,0.4,0.333,1.6,4.9,0.429,1.2,2.8,0.368,2.8,7.7,0.75,1.2,1.6,5.0,2.0,NBA,89.0,0.0,3.2,SG,8.1,2015,1.6,MIA,1.6,0.4
