age,ast,blk,drb,fg,fg2,fg2a,fg3,fg3a,fga,ft,fta,game_score,lg_id,mp,orb,pf,pts,season,stl,team_id,tov,trb
22.0,0.0,0.0,0.0,0.0,0.0,0.0,0.0,0.0,0.0,0.0,0.0,0.0,NBA,4,0.0,1.0,0.0,2012,0.0,CHI,0.0,0.0
23.0,6.0,2.0,12.0,7.0,5.0,10.0,3.0,6.0,15.0,9.0,10.0,19.2,NBA,49,2.0,5.0,21.0,2013,4.0,CHI,3.0,14.0
24.0,3.0,0.0,6.0,6.0,6.0,11.0,2.0,7.0,15.0,7.0,8.0,12.7,NBA,54,3.0,4.0,16.0,2014,3.0,CHI,2.0,7.0
25.0,6.0,2.0,7.0,12.0,7.0,17.0,5.0,9.0,22.0,8.0,14.0,28.3,NBA,54,5.0,5.0,33.0,2015,5.0,CHI,4.0,10.0
27.0,9.0,2.0,8.0,9.0,9.0,17.0,3.0,6.0,21.0,19.0,23.0,29.6,NBA,46,3.0,4.0,33.0,2017,4.0,CHI,5.0,9.0
28.0,5.0,1.0,7.0,10.0,6.0,13.0,4.0,6.0,19.0,4.0,6.0,22.7,NBA,42,2.0,4.0,28.0,2018,2.0,MIN,3.0,9.0
29.0,9.0,2.0,9.0,11.0,10.0,19.0,4.0,10.0,22.0,13.0,15.0,29.5,NBA,43,6.0,3.0,36.0,2019,3.0,TOT,4.0,11.0
29.0,9.0,2.0,9.0,11.0,10.0,19.0,4.0,10.0,22.0,13.0,15.0,29.5,NBA,43,6.0,3.0,36.0,2019,3.0,PHI,4.0,11.0
