age,ast_per_poss,blk_per_poss,def_rtg,drb_per_poss,fg2_pct,fg2_per_poss,fg2a_per_poss,fg3_pct,fg3_per_poss,fg3a_per_poss,fg_pct,fg_per_poss,fga_per_poss,ft_pct,ft_per_poss,fta_per_poss,g,gs,lg_id,mp,off_rtg,orb_per_poss,pf_per_poss,pos,pts_per_poss,season,stl_per_poss,team_id,tov_per_poss,trb_per_poss
24.0,1.6,2.4,103.0,9.0,0.494,7.3,14.7,0.0,0.0,0.0,0.494,7.3,14.7,0.646,2.6,4.1,82.0,70.0,NBA,2204.0,104.0,5.3,6.6,PF,17.2,2010,1.2,CHI,2.7,14.3
25.0,1.8,3.2,98.0,9.0,0.472,7.1,15.1,0.125,0.0,0.2,0.466,7.1,15.3,0.676,3.0,4.5,80.0,19.0,NBA,1742.0,106.0,4.9,6.2,PF,17.4,2011,1.2,CHI,2.2,14.0
26.0,2.0,3.4,96.0,8.3,0.495,8.4,16.9,0.0,0.0,0.0,0.495,8.4,16.9,0.622,3.5,5.7,63.0,0.0,NBA,1284.0,109.0,5.7,5.5,PF,20.3,2012,1.1,CHI,2.5,13.9
27.0,2.2,3.3,101.0,8.1,0.49,7.9,16.1,0.0,0.0,0.1,0.485,7.9,16.2,0.679,3.3,4.8,65.0,5.0,NBA,1459.0,104.0,4.6,6.1,PF,19.0,2013,1.0,CHI,2.8,12.7
28.0,2.1,2.5,100.0,8.1,0.483,9.7,20.1,0.0,0.0,0.2,0.479,9.7,20.3,0.751,4.8,6.4,82.0,8.0,NBA,2351.0,102.0,4.5,4.7,PF,24.2,2014,0.9,CHI,3.4,12.6
29.0,2.2,2.3,104.0,7.2,0.502,7.8,15.5,0.0,0.0,0.0,0.502,7.8,15.5,0.717,4.0,5.6,62.0,17.0,NBA,1692.0,112.0,5.0,5.0,PF,19.6,2015,1.1,CHI,2.4,12.1
30.0,2.7,2.0,106.0,7.7,0.529,6.8,12.9,0.0,0.0,0.1,0.526,6.8,12.9,0.692,2.6,3.8,73.0,55.0,NBA,1936.0,115.0,5.3,4.7,PF,16.2,2016,1.2,CHI,2.0,13.1
31.0,1.8,1.6,107.0,8.2,0.52,9.1,17.5,0.231,0.1,0.3,0.515,9.2,17.8,0.715,2.8,4.0,78.0,71.0,NBA,1989.0,107.0,4.0,4.1,PF,21.3,2017,1.0,TOT,2.6,12.2
31.0,2.0,1.7,107.0,8.8,0.529,9.2,17.4,0.167,0.1,0.4,0.521,9.3,17.8,0.714,2.9,4.0,55.0,55.0,NBA,1502.0,108.0,4.0,4.1,PF,21.4,2017,0.9,CHI,2.6,12.8
31.0,1.3,1.5,108.0,6.5,0.494,8.9,17.9,1.0,0.1,0.1,0.497,9.0,18.0,0.718,2.8,3.9,23.0,16.0,NBA,487.0,104.0,3.8,4.0,PF,20.9,2017,1.4,OKC,2.8,10.4
32.0,1.8,1.1,112.0,7.2,0.595,7.7,12.9,0.2,0.1,0.6,0.577,7.8,13.5,0.768,2.6,3.4,82.0,82.0,NBA,2726.0,123.0,3.6,4.0,PF,18.3,2018,1.1,MIN,1.6,10.7
33.0,2.4,1.1,112.0,8.1,0.583,8.3,14.3,0.324,0.3,1.0,0.566,8.6,15.3,0.757,3.8,5.0,70.0,57.0,NBA,1686.0,123.0,4.9,5.3,PF,21.4,2019,1.5,MIN,2.1,13.0
34.0,4.3,0.3,111.0,7.1,0.6,7.4,12.3,0.0,0.0,0.9,0.558,7.4,13.3,0.714,1.5,2.2,10.0,4.0,NBA,157.0,113.0,4.6,7.7,C,16.4,2020,1.9,NYK,2.8,11.7
