age,ast_per_poss,blk_per_poss,def_rtg,drb_per_poss,fg2_pct,fg2_per_poss,fg2a_per_poss,fg3_pct,fg3_per_poss,fg3a_per_poss,fg_pct,fg_per_poss,fga_per_poss,ft_pct,ft_per_poss,fta_per_poss,g,gs,lg_id,mp,off_rtg,orb_per_poss,pf_per_poss,pos,pts_per_poss,season,stl_per_poss,team_id,tov_per_poss,trb_per_poss
20.0,1.2,3.1,105.0,9.0,0.488,9.0,18.5,0.167,0.1,0.5,0.479,9.1,19.1,0.736,5.3,7.1,81.0,1.0,NBA,1120.0,103.0,6.6,9.2,PF,23.6,1990,2.1,SEA,4.8,15.6
21.0,2.9,2.5,106.0,8.4,0.513,9.4,18.3,0.167,0.0,0.2,0.508,9.4,18.6,0.661,5.9,8.9,81.0,66.0,NBA,2442.0,109.0,5.5,6.5,PF,24.8,1991,1.6,SEA,4.1,13.9
22.0,2.4,3.5,103.0,11.2,0.506,10.1,19.9,0.0,0.0,0.1,0.504,10.1,20.0,0.748,7.5,10.0,64.0,23.0,NBA,1808.0,113.0,7.3,7.3,PF,27.7,1992,1.9,SEA,4.3,18.5
23.0,3.0,2.8,100.0,10.6,0.494,10.0,20.2,0.0,0.0,0.1,0.492,10.0,20.3,0.712,6.9,9.7,78.0,68.0,NBA,2582.0,110.0,5.6,6.3,PF,26.9,1993,2.3,SEA,4.2,16.1
24.0,4.0,3.2,96.0,10.5,0.54,10.3,19.2,0.25,0.0,0.1,0.538,10.4,19.2,0.741,7.1,9.5,79.0,73.0,NBA,2597.0,112.0,6.1,6.1,PF,27.8,1994,2.8,SEA,5.0,16.5
25.0,2.8,2.3,102.0,10.8,0.548,10.2,18.6,0.286,0.0,0.1,0.547,10.2,18.7,0.749,8.2,11.0,82.0,79.0,NBA,2679.0,115.0,6.0,6.3,PF,28.7,1995,1.9,SEA,4.9,16.8
26.0,3.4,2.5,97.0,12.2,0.563,10.1,18.0,0.417,0.1,0.2,0.561,10.2,18.2,0.742,9.6,12.9,79.0,76.0,NBA,2631.0,111.0,5.4,5.8,PF,30.1,1996,1.8,SEA,6.1,17.6
27.0,3.0,1.6,99.0,10.3,0.515,9.9,19.3,0.364,0.2,0.6,0.51,10.2,19.9,0.742,8.7,11.8,81.0,75.0,NBA,2750.0,109.0,5.3,6.2,PF,29.3,1997,2.4,SEA,5.4,15.6
28.0,3.8,1.7,96.0,10.1,0.446,10.0,22.3,0.25,0.0,0.2,0.445,10.0,22.5,0.727,7.8,10.7,80.0,80.0,NBA,2769.0,98.0,4.2,6.0,PF,27.8,1998,2.1,CLE,5.2,14.4
29.0,3.8,1.7,99.0,9.7,0.482,10.4,21.6,0.5,0.0,0.1,0.482,10.4,21.7,0.789,11.6,14.7,42.0,42.0,NBA,1475.0,110.0,4.9,6.0,PF,32.5,1999,1.8,CLE,4.8,14.6
30.0,2.8,1.9,100.0,9.9,0.418,9.7,23.2,0.333,0.0,0.1,0.417,9.7,23.3,0.776,9.9,12.8,82.0,82.0,NBA,2492.0,96.0,4.6,7.5,C,29.4,2000,2.0,CLE,5.9,14.6
31.0,3.2,1.1,99.0,9.7,0.408,8.2,20.0,0.364,0.2,0.5,0.407,8.4,20.5,0.771,5.0,6.5,68.0,3.0,NBA,1083.0,90.0,3.1,9.1,PF,21.9,2001,2.2,POR,4.9,12.9
32.0,2.3,1.4,102.0,8.6,0.434,7.6,17.6,0.0,0.0,0.2,0.43,7.6,17.7,0.794,4.5,5.7,75.0,5.0,NBA,1232.0,98.0,3.9,8.0,PF,19.8,2002,1.9,POR,3.5,12.6
33.0,1.7,1.0,102.0,9.6,0.419,6.7,15.9,0.0,0.0,0.0,0.418,6.7,15.9,0.742,3.6,4.9,79.0,55.0,NBA,1633.0,95.0,4.6,7.5,C,17.0,2003,2.1,ORL,3.2,14.2
