age,ast_per_poss,blk_per_poss,def_rtg,drb_per_poss,fg2_pct,fg2_per_poss,fg2a_per_poss,fg3_pct,fg3_per_poss,fg3a_per_poss,fg_pct,fg_per_poss,fga_per_poss,ft_pct,ft_per_poss,fta_per_poss,g,gs,lg_id,mp,off_rtg,orb_per_poss,pf_per_poss,pos,pts_per_poss,season,stl_per_poss,team_id,tov_per_poss,trb_per_poss
24.0,0.0,0.0,90.0,51.5,0.0,0.0,51.5,0.0,0.0,0.0,0.0,0.0,51.5,1.0,103.1,103.1,1.0,0.0,NBA,1.0,137.0,0.0,0.0,C,103.1,1992,0.0,SEA,0.0,51.5
30.0,3.6,1.2,107.0,3.6,0.429,3.6,8.5,0.0,0.0,0.0,0.429,3.6,8.5,0.5,1.2,2.4,3.0,0.0,NBA,46.0,61.0,1.2,8.5,C,8.5,1998,1.2,MIA,7.3,4.9
