age,ast,ast_per_g,blk,college_id,fg,fg3,fg3_pct,fg3a,fg_pct,fga,ft,ft_pct,fta,g,mp,mp_per_g,orb,pf,pts,pts_per_g,season,stl,tov,trb,trb_per_g
19.0,16.0,0.5,7.0,PROVIDENCE,43.0,0.0,0.0,0.0,0.448,96.0,64.0,0.831,77.0,34.0,487.0,14.3,0.0,87.0,150.0,4.4,1987,11.0,42.0,100.0,2.9
20.0,19.0,1.7,5.0,PROVIDENCE,45.0,0.0,0.0,3.0,0.511,88.0,55.0,0.833,66.0,11.0,282.0,25.6,0.0,39.0,145.0,13.2,1988,5.0,43.0,62.0,5.6
21.0,60.0,2.1,14.0,PROVIDENCE,154.0,16.0,0.381,42.0,0.524,294.0,91.0,0.728,125.0,29.0,885.0,30.5,0.0,95.0,415.0,14.3,1989,29.0,94.0,202.0,7.0
22.0,72.0,2.5,15.0,PROVIDENCE,136.0,15.0,0.313,48.0,0.502,271.0,138.0,0.738,187.0,29.0,866.0,29.9,0.0,85.0,425.0,14.7,1990,17.0,73.0,220.0,7.6
