age,avg_dist,fg2_dunk,fg2_pct,fg2_pct_ast,fg2a_pct_fga,fg3_heave,fg3_pct,fg3_pct_ast,fg3_pct_corner,fg3a_heave,fg3a_pct_fga,fg_pct,fg_pct_00_03,fg_pct_03_10,fg_pct_10_16,fg_pct_16_xx,g,lg_id,mp,pct_fg2_dunk,pct_fg3a_corner,pct_fga_00_03,pct_fga_03_10,pct_fga_10_16,pct_fga_16_xx,pos,season,team_id
20.0,15.6,3.0,0.636,1.0,0.524,0.0,0.1,1.0,0.0,0.0,0.476,0.381,0.833,0.0,0.0,0.5,15.0,NBA,72.0,0.19,0.3,0.286,0.048,0.0,0.19,C,2018,LAL
21.0,9.0,117.0,0.685,0.783,0.803,0.0,0.333,0.97,0.2,0.0,0.197,0.616,0.82,0.466,0.414,0.444,72.0,NBA,1496.0,0.249,0.101,0.51,0.145,0.058,0.09,C,2019,WAS
22.0,12.1,7.0,0.558,0.759,0.722,0.0,0.3,0.833,0.333,0.0,0.278,0.486,0.708,0.455,0.4,0.429,7.0,NBA,207.0,0.097,0.15,0.333,0.153,0.139,0.097,C,2020,WAS
