article_url,date,headline
https://kingjamesgospel.com/2019/11/08/cleveland-cavaliers-odds-wizards-game/,2019/11/08,Right Down Euclid: Cleveland Cavaliers odds: Predicting the Wizards game against the spread
https://fansided.com/2019/11/08/roundtable-brandon-ingram-shooting-contracting-wizards/,2019/11/08,"FanSided: Roundtable: Brandon Ingram's finishing, contracting the Wizards and more"
https://kingjamesgospel.com/2019/11/08/cleveland-cavaliers-three-things-look-out-for-game-vs-wizards-friday/,2019/11/08,Right Down Euclid: Cavs: 3 things to look out for in game vs. Wizards on Friday
