age,and1s,astd_pts,drawn_offensive,drawn_shooting,fouls_offensive,fouls_shooting,g,lg_id,mp,own_shots_blk,pct_1,pct_2,pct_3,pct_4,pct_5,plus_minus_net,plus_minus_on,pos,season,team_id,tov_bad_pass,tov_lost_ball
29.0,3.0,45.0,0.0,12.0,16.0,63.0,54.0,NBA,649.0,8.0,0.0,0.0,0.0,0.0,100.0,-11.6,-10.3,C,2001,TOT,12.0,8.0
29.0,2.0,37.0,0.0,11.0,15.0,52.0,42.0,NBA,568.0,8.0,0.0,0.0,0.0,0.0,100.0,-8.3,-8.9,C,2001,DET,10.0,7.0
29.0,1.0,8.0,0.0,1.0,1.0,11.0,12.0,NBA,81.0,0.0,0.0,0.0,0.0,0.0,100.0,-23.5,-20.4,C,2001,TOR,2.0,1.0
30.0,1.0,36.0,0.0,10.0,7.0,57.0,49.0,NBA,655.0,12.0,0.0,0.0,0.0,0.0,100.0,-10.1,-9.0,C,2002,TOR,7.0,8.0
