age,ast,blk,drb,fg,fg2,fg2a,fg3,fg3a,fga,ft,fta,game_score,lg_id,mp,orb,pf,pts,season,stl,team_id,tov,trb
23.0,3.0,4.0,14.0,13.0,13.0,17.0,0.0,1.0,17.0,9.0,13.0,26.4,NBA,0.0,8.0,6.0,28.0,1995,2.0,BOS,6.0,16.0
24.0,3.0,3.0,12.0,9.0,9.0,14.0,0.0,0.0,14.0,3.0,8.0,15.0,NBA,0.0,5.0,6.0,19.0,1996,3.0,BOS,5.0,15.0
25.0,4.0,5.0,12.0,7.0,7.0,11.0,0.0,0.0,11.0,2.0,5.0,15.3,NBA,0.0,13.0,6.0,14.0,1997,2.0,TOT,4.0,18.0
25.0,3.0,4.0,8.0,6.0,6.0,9.0,0.0,0.0,9.0,2.0,4.0,12.1,NBA,0.0,8.0,6.0,12.0,1997,1.0,DAL,4.0,12.0
25.0,4.0,5.0,12.0,7.0,7.0,11.0,0.0,0.0,11.0,2.0,5.0,15.3,NBA,0.0,13.0,6.0,14.0,1997,2.0,NJN,3.0,18.0
26.0,1.0,2.0,10.0,4.0,4.0,9.0,0.0,0.0,9.0,3.0,4.0,9.4,NBA,0.0,5.0,6.0,9.0,1998,1.0,TOT,3.0,14.0
26.0,1.0,2.0,10.0,4.0,4.0,9.0,0.0,0.0,9.0,3.0,4.0,9.4,NBA,0.0,5.0,5.0,9.0,1998,1.0,PHI,2.0,12.0
26.0,1.0,2.0,10.0,3.0,3.0,7.0,0.0,0.0,7.0,3.0,4.0,8.9,NBA,0.0,5.0,6.0,6.0,1998,1.0,DET,3.0,14.0
27.0,2.0,4.0,10.0,4.0,4.0,6.0,0.0,1.0,6.0,2.0,4.0,13.9,NBA,0.0,6.0,6.0,9.0,1999,2.0,DET,2.0,14.0
28.0,2.0,1.0,6.0,2.0,2.0,4.0,0.0,0.0,4.0,2.0,4.0,6.1,NBA,0.0,2.0,5.0,4.0,2000,1.0,DET,2.0,6.0
29.0,1.0,3.0,9.0,6.0,6.0,9.0,0.0,0.0,9.0,2.0,4.0,16.7,NBA,0.0,5.0,5.0,13.0,2001,2.0,TOT,3.0,11.0
29.0,1.0,3.0,6.0,6.0,6.0,9.0,0.0,0.0,9.0,2.0,4.0,16.7,NBA,0.0,5.0,5.0,13.0,2001,1.0,DET,3.0,11.0
29.0,1.0,1.0,9.0,3.0,3.0,6.0,0.0,0.0,6.0,1.0,2.0,6.6,NBA,0.0,4.0,3.0,6.0,2001,2.0,TOR,1.0,11.0
30.0,3.0,2.0,10.0,5.0,5.0,11.0,0.0,1.0,11.0,4.0,10.0,10.5,NBA,0.0,5.0,6.0,10.0,2002,2.0,TOR,2.0,12.0
