age,ast_per_mp,blk_per_mp,drb_per_mp,fg2_pct,fg2_per_mp,fg2a_per_mp,fg3_pct,fg3_per_mp,fg3a_per_mp,fg_pct,fg_per_mp,fga_per_mp,ft_pct,ft_per_mp,fta_per_mp,g,gs,lg_id,mp,orb_per_mp,pf_per_mp,pos,pts_per_mp,season,stl_per_mp,team_id,tov_per_mp,trb_per_mp
23.0,0.0,0.0,1.2,0.455,2.9,6.4,0.0,0.0,0.0,0.455,2.9,6.4,0.5,1.7,3.5,4.0,4.0,NBA,62.0,4.1,7.5,C,7.5,1995,0.0,BOS,4.6,5.2
27.0,0.0,1.0,5.1,0.5,1.5,3.1,0.0,0.0,0.0,0.5,1.5,3.1,0.5,0.5,1.0,5.0,0.0,NBA,70.0,1.5,7.7,C,3.6,1999,0.0,DET,0.0,6.7
28.0,0.0,0.0,14.4,0.0,0.0,0.0,0.0,0.0,0.0,0.0,0.0,0.0,0.0,0.0,0.0,2.0,0.0,NBA,5.0,0.0,14.4,C,0.0,2000,0.0,DET,0.0,14.4
29.0,1.2,3.5,5.8,0.4,2.3,5.8,0.0,0.0,0.0,0.4,2.3,5.8,0.0,0.0,0.0,5.0,0.0,NBA,31.0,5.8,7.0,C,4.6,2001,0.0,TOR,2.3,11.6
