age,ast_pct,blk_pct,bpm,bpm-dum,dbpm,drb_pct,dws,fg3a_per_fga_pct,fta_per_fga_pct,g,lg_id,mp,obpm,orb_pct,ows,per,pos,season,stl_pct,team_id,tov_pct,trb_pct,ts_pct,usg_pct,vorp,ws,ws-dum,ws_per_48
20.0,22.6,1.5,-4.8,0.0,-0.2,12.4,0.5,0.198,0.259,38.0,NBA,322.0,-4.6,2.2,-0.4,9.6,PG,2017,1.3,SAS,22.7,7.4,0.503,23.5,-0.2,0.0,0.0,0.004
21.0,20.2,1.5,1.2,0.0,3.4,22.4,3.4,0.056,0.243,81.0,NBA,1743.0,-2.2,7.0,-0.2,15.1,PG,2018,2.8,SAS,16.6,14.6,0.485,20.7,1.4,3.2,0.0,0.087
23.0,29.8,1.7,2.3,0.0,2.8,29.0,0.3,0.116,0.395,10.0,NBA,227.0,-0.5,5.3,0.1,19.3,PG,2020,2.9,SAS,21.7,16.8,0.54,23.3,0.3,0.4,0.0,0.093
