age,ast_per_g,blk_per_g,drb_per_g,efg_pct,fg2_pct,fg2_per_g,fg2a_per_g,fg3_pct,fg3_per_g,fg3a_per_g,fg_pct,fg_per_g,fga_per_g,ft_pct,ft_per_g,fta_per_g,g,gs,lg_id,mp_per_g,orb_per_g,pf_per_g,pos,pts_per_g,season,stl_per_g,team_id,tov_per_g,trb_per_g
20.0,1.3,0.2,0.9,0.47,0.441,1.1,2.4,0.391,0.2,0.6,0.431,1.3,3.1,0.7,0.6,0.8,38.0,8.0,NBA,8.5,0.2,0.8,PG,3.4,2017,0.2,SAS,1.0,1.1
21.0,2.9,0.4,4.3,0.451,0.454,3.2,7.1,0.265,0.1,0.4,0.443,3.3,7.5,0.709,1.3,1.8,81.0,48.0,NBA,21.5,1.4,1.9,PG,8.1,2018,1.2,SAS,1.7,5.7
23.0,4.7,0.5,6.1,0.477,0.5,3.8,7.6,0.2,0.2,1.0,0.465,4.0,8.6,0.794,2.7,3.4,10.0,10.0,NBA,22.7,1.2,2.3,PG,10.9,2020,1.4,SAS,2.8,7.3
