age,ast_per_g,blk_per_g,drb_per_g,efg_pct,fg2_pct,fg2_per_g,fg2a_per_g,fg3_pct,fg3_per_g,fg3a_per_g,fg_pct,fg_per_g,fga_per_g,ft_pct,ft_per_g,fta_per_g,g,gs,lg_id,mp_per_g,orb_per_g,pf_per_g,pos,pts_per_g,season,stl_per_g,team_id,tov_per_g,trb_per_g
22.0,0.6,1.3,3.6,0.465,0.47,4.6,9.7,0.0,0.0,0.1,0.465,4.6,9.8,0.645,2.3,3.6,79.0,49.0,NBA,25.9,2.4,3.1,C,11.4,1995,0.5,PHI,1.9,6.0
23.0,0.7,0.9,3.6,0.485,0.485,4.3,8.9,0.333,0.0,0.1,0.484,4.4,9.0,0.645,2.9,4.5,57.0,38.0,NBA,25.2,2.6,2.9,C,11.6,1996,0.5,TOT,1.9,6.2
23.0,0.6,0.8,3.8,0.477,0.477,4.0,8.3,0.0,0.0,0.0,0.477,4.0,8.3,0.629,2.5,4.0,46.0,32.0,NBA,24.7,2.7,2.7,C,10.5,1996,0.5,PHI,1.8,6.5
23.0,1.0,0.9,3.0,0.512,0.512,5.8,11.4,0.333,0.1,0.3,0.508,5.9,11.6,0.685,4.5,6.6,11.0,6.0,NBA,27.1,2.2,3.5,C,16.5,1996,0.5,TOR,2.5,5.2
24.0,0.5,0.8,1.8,0.4,0.4,2.7,6.7,0.0,0.0,0.0,0.4,2.7,6.7,0.511,1.1,2.2,60.0,28.0,NBA,16.8,1.3,2.4,C,6.5,1997,0.3,TOR,1.6,3.1
25.0,0.6,0.0,1.1,0.5,0.5,1.0,2.0,0.0,0.0,0.0,0.5,1.0,2.0,0.5,0.3,0.6,7.0,0.0,NBA,6.3,0.1,1.0,C,2.3,1998,0.0,TOR,0.3,1.3
