age,ast_pct,blk_pct,bpm,bpm-dum,dbpm,drb_pct,dws,fg3a_per_fga_pct,fta_per_fga_pct,g,lg_id,mp,obpm,orb_pct,ows,per,pos,season,stl_pct,team_id,tov_pct,trb_pct,ts_pct,usg_pct,vorp,ws,ws-dum,ws_per_48
22.0,4.1,3.7,-4.1,0.0,-0.8,16.1,1.9,0.01,0.363,79.0,NBA,2044.0,-3.3,10.8,-0.2,14.0,C,1995,1.0,PHI,14.4,13.5,0.502,23.0,-1.1,1.7,0.0,0.04
23.0,4.8,2.5,-5.0,0.0,-2.1,17.2,0.7,0.006,0.506,57.0,NBA,1434.0,-2.9,11.7,0.6,15.1,C,1996,1.1,TOT,14.8,14.4,0.53,22.8,-1.1,1.3,0.0,0.043
23.0,4.3,2.5,-5.0,0.0,-1.8,18.3,0.6,0.0,0.484,46.0,NBA,1136.0,-3.2,12.3,0.3,14.5,C,1996,1.1,PHI,14.8,15.2,0.518,21.5,-0.9,0.9,0.0,0.037
23.0,6.6,2.6,-5.1,0.0,-3.3,13.3,0.1,0.023,0.57,11.0,NBA,298.0,-1.8,9.5,0.3,17.3,C,1996,1.0,TOR,14.9,11.4,0.565,27.8,-0.2,0.4,0.0,0.065
24.0,4.9,4.0,-9.5,0.0,-1.7,12.8,0.7,0.002,0.33,60.0,NBA,1009.0,-7.8,8.9,-2.3,7.4,C,1997,0.8,TOR,16.8,10.8,0.423,24.6,-1.9,-1.6,0.0,-0.076
25.0,15.5,0.0,-8.4,0.0,-4.4,21.2,0.0,0.0,0.286,7.0,NBA,44.0,-4.0,2.5,0.0,10.7,C,1998,0.0,TOR,11.3,11.5,0.508,17.7,-0.1,0.0,0.0,0.036
