age,ast_per_mp,blk_per_mp,drb_per_mp,fg2_pct,fg2_per_mp,fg2a_per_mp,fg3_pct,fg3_per_mp,fg3a_per_mp,fg_pct,fg_per_mp,fga_per_mp,ft_pct,ft_per_mp,fta_per_mp,g,gs,lg_id,mp,orb_per_mp,pf_per_mp,pos,pts_per_mp,season,stl_per_mp,team_id,tov_per_mp,trb_per_mp
22.0,0.8,1.8,4.9,0.47,6.4,13.5,0.0,0.0,0.1,0.465,6.4,13.7,0.645,3.2,5.0,79.0,49.0,NBA,2044.0,3.4,4.3,C,15.9,1995,0.7,PHI,2.7,8.3
23.0,1.0,1.2,5.2,0.485,6.2,12.8,0.333,0.0,0.1,0.484,6.2,12.9,0.645,4.2,6.5,57.0,38.0,NBA,1434.0,3.7,4.1,C,16.7,1996,0.8,TOT,2.7,8.9
23.0,0.9,1.2,5.5,0.477,5.8,12.2,0.0,0.0,0.0,0.477,5.8,12.2,0.629,3.7,5.9,46.0,32.0,NBA,1136.0,3.9,4.0,C,15.3,1996,0.8,PHI,2.6,9.5
23.0,1.3,1.2,4.0,0.512,7.7,15.1,0.333,0.1,0.4,0.508,7.9,15.5,0.685,6.0,8.8,11.0,6.0,NBA,298.0,2.9,4.6,C,21.9,1996,0.7,TOR,3.4,6.9
24.0,1.0,1.8,3.8,0.4,5.7,14.3,0.0,0.0,0.0,0.4,5.7,14.4,0.511,2.4,4.7,60.0,28.0,NBA,1009.0,2.8,5.2,C,13.9,1997,0.5,TOR,3.3,6.6
25.0,3.3,0.0,6.5,0.5,5.7,11.5,0.0,0.0,0.0,0.5,5.7,11.5,0.5,1.6,3.3,7.0,0.0,NBA,44.0,0.8,5.7,C,13.1,1998,0.0,TOR,1.6,7.4
