age,ast,ast_per_g,blk,college_id,fg,fg3,fg3_pct,fg3a,fg_pct,fga,ft,ft_pct,fta,g,mp,mp_per_g,orb,pf,pts,pts_per_g,season,stl,tov,trb,trb_per_g
18.0,28.0,1.0,92.0,CREIGHTON,162.0,0.0,0.0,0.0,0.555,292.0,76.0,0.655,116.0,27.0,871.0,32.3,0.0,71.0,400.0,14.8,1983,12.0,79.0,259.0,9.6
19.0,55.0,1.8,157.0,CREIGHTON,190.0,0.0,0.0,0.0,0.543,350.0,107.0,0.743,144.0,30.0,1112.0,37.1,0.0,93.0,487.0,16.2,1984,21.0,72.0,295.0,9.8
20.0,68.0,2.1,162.0,CREIGHTON,258.0,0.0,0.0,0.0,0.582,443.0,172.0,0.738,233.0,32.0,1193.0,37.3,0.0,100.0,688.0,21.5,1985,27.0,88.0,451.0,14.1
