age,ast_per_mp,blk_per_mp,drb_per_mp,fg2_pct,fg2_per_mp,fg2a_per_mp,fg3_pct,fg3_per_mp,fg3a_per_mp,fg_pct,fg_per_mp,fga_per_mp,ft_pct,ft_per_mp,fta_per_mp,g,gs,lg_id,mp,orb_per_mp,pf_per_mp,pos,pts_per_mp,season,stl_per_mp,team_id,tov_per_mp,trb_per_mp
21.0,2.6,0.3,4.6,0.451,4.8,10.7,0.262,0.7,2.6,0.415,5.5,13.2,0.817,3.0,3.7,60.0,10.0,NBA,590.0,1.6,4.7,SG,14.6,1996,0.6,PHO,2.4,6.2
22.0,2.1,0.4,3.6,0.514,4.1,7.9,0.352,1.3,3.8,0.461,5.4,11.8,0.767,2.4,3.2,55.0,10.0,NBA,830.0,1.3,4.0,SG,14.6,1997,1.0,MIN,1.6,4.9
23.0,2.6,0.3,3.5,0.462,4.6,10.0,0.315,1.2,3.9,0.42,5.9,14.0,0.848,2.6,3.1,51.0,40.0,NBA,1165.0,1.3,4.0,SG,15.6,1998,0.5,MIN,2.1,4.8
24.0,1.9,0.2,3.9,0.369,3.9,10.5,0.373,2.3,6.1,0.371,6.1,16.6,0.675,2.2,3.2,39.0,4.0,NBA,445.0,1.9,3.6,SG,16.7,1999,0.6,TOT,2.3,5.7
24.0,3.1,0.4,5.3,0.353,2.7,7.6,0.333,1.3,4.0,0.346,4.0,11.6,0.5,0.9,1.8,11.0,2.0,NBA,81.0,0.0,4.0,SG,10.2,1999,0.4,MIN,1.8,5.3
24.0,1.6,0.1,3.6,0.372,4.2,11.2,0.379,2.5,6.5,0.374,6.6,17.7,0.694,2.5,3.6,28.0,2.0,NBA,364.0,2.3,3.6,SG,18.2,1999,0.7,NJN,2.4,5.8
25.0,2.6,0.5,4.1,0.415,5.1,12.2,0.317,1.0,3.1,0.395,6.1,15.3,0.856,3.3,3.9,57.0,2.0,NBA,1166.0,1.3,3.5,SF-SG,16.4,2000,0.9,TOT,3.6,5.3
25.0,1.5,0.5,3.9,0.4,4.9,12.2,0.125,0.5,3.9,0.333,5.4,16.1,0.842,7.8,9.2,7.0,0.0,NBA,74.0,2.4,5.8,SG,19.0,2000,0.0,GSW,2.4,6.3
25.0,2.7,0.5,4.1,0.416,5.1,12.2,0.333,1.0,3.1,0.4,6.1,15.3,0.858,3.0,3.5,50.0,2.0,NBA,1092.0,1.2,3.3,SF,16.2,2000,1.0,CHI,3.7,5.3
26.0,1.3,0.3,3.8,0.48,4.2,8.7,0.459,2.0,4.3,0.473,6.2,13.0,0.767,5.4,7.0,35.0,0.0,NBA,309.0,1.3,5.2,SG,19.7,2001,0.5,BOS,2.2,5.1
