age,ast,blk,drb,efg_pct,fg,fg2,fg2_pct,fg2a,fg3,fg3_pct,fg3a,fg_pct,fga,ft,ft_pct,fta,g,gs,lg_id,mp,orb,pf,pos,pts,season,stl,team_id,tov,trb
21.0,4.0,1.0,4.0,0.714,9.0,7.0,0.636,11.0,2.0,0.667,3.0,0.643,14.0,4.0,0.8,5.0,3.0,0.0,NBA,36.0,3.0,6.0,SG,24.0,1996,2.0,PHO,4.0,7.0
22.0,1.0,0.0,2.0,0.0,0.0,0.0,0.0,0.0,0.0,0.0,2.0,0.0,2.0,0.0,0.0,0.0,1.0,0.0,NBA,8.0,0.0,0.0,SG,0.0,1997,0.0,MIN,1.0,2.0
