age,ast_per_mp,blk_per_mp,drb_per_mp,fg2_pct,fg2_per_mp,fg2a_per_mp,fg3_pct,fg3_per_mp,fg3a_per_mp,fg_pct,fg_per_mp,fga_per_mp,ft_pct,ft_per_mp,fta_per_mp,g,gs,lg_id,mp,orb_per_mp,pf_per_mp,pos,pts_per_mp,season,stl_per_mp,team_id,tov_per_mp,trb_per_mp
21.0,4.0,1.0,4.0,0.636,7.0,11.0,0.667,2.0,3.0,0.643,9.0,14.0,0.8,4.0,5.0,3.0,0.0,NBA,36.0,3.0,6.0,SG,24.0,1996,2.0,PHO,4.0,7.0
22.0,4.5,0.0,9.0,0.0,0.0,0.0,0.0,0.0,9.0,0.0,0.0,9.0,0.0,0.0,0.0,1.0,0.0,NBA,8.0,0.0,0.0,SG,0.0,1997,0.0,MIN,4.5,9.0
