age,ast_pct,blk_pct,bpm,bpm-dum,dbpm,drb_pct,dws,fg3a_per_fga_pct,fta_per_fga_pct,g,lg_id,mp,obpm,orb_pct,ows,per,pos,season,stl_pct,team_id,tov_pct,trb_pct,ts_pct,usg_pct,vorp,ws,ws-dum,ws_per_48
22.0,30.1,0.4,-3.7,0.0,-1.7,5.1,0.2,0.212,0.394,41.0,NBA,174.0,-2.1,3.8,-0.1,12.3,PG,1993,3.9,LAC,17.1,4.5,0.439,22.1,-0.1,0.1,0.0,0.037
23.0,28.6,0.3,-2.3,0.0,-2.8,4.8,0.2,0.586,0.263,40.0,NBA,352.0,0.5,4.0,0.0,12.8,PG,1994,3.3,LAC,18.6,4.4,0.489,21.4,0.0,0.3,0.0,0.035
24.0,39.0,0.0,-4.6,0.0,-2.1,8.6,0.5,0.632,0.325,62.0,NBA,495.0,-2.5,2.2,-0.3,10.9,PG,1995,4.2,LAC,29.1,5.2,0.464,16.6,-0.3,0.2,0.0,0.015
25.0,24.8,1.0,-0.6,0.0,-0.6,4.8,0.1,0.955,0.091,8.0,NBA,72.0,0.1,4.8,0.0,9.5,PG,1996,4.3,DEN,17.9,4.8,0.415,17.3,0.0,0.1,0.0,0.038
