age,and1s,astd_pts,drawn_offensive,drawn_shooting,fouls_offensive,fouls_shooting,g,lg_id,mp,own_shots_blk,pct_1,pct_2,pct_3,pct_4,pct_5,plus_minus_net,plus_minus_on,pos,season,team_id,tov_bad_pass,tov_lost_ball
21.0,13.0,62.0,13.0,63.0,14.0,108.0,73.0,NBA,1278.0,30.0,0.0,0.0,0.0,16.0,84.0,-2.9,-7.7,C,2008,NJN,13.0,27.0
22.0,2.0,29.0,11.0,15.0,6.0,38.0,33.0,NBA,366.0,8.0,0.0,0.0,5.0,63.0,33.0,-0.9,-3.6,PF,2009,NJN,7.0,4.0
23.0,1.0,2.0,6.0,5.0,4.0,24.0,20.0,NBA,227.0,0.0,0.0,0.0,0.0,53.0,47.0,6.2,-4.4,PF,2010,NJN,4.0,7.0
25.0,0.0,10.0,1.0,6.0,5.0,6.0,11.0,NBA,107.0,0.0,0.0,0.0,0.0,3.0,98.0,11.1,13.0,C,2012,TOT,1.0,4.0
25.0,0.0,4.0,1.0,3.0,3.0,5.0,8.0,NBA,65.0,0.0,0.0,0.0,0.0,0.0,100.0,2.7,3.9,C,2012,DAL,1.0,3.0
25.0,0.0,6.0,0.0,3.0,2.0,1.0,3.0,NBA,42.0,0.0,0.0,0.0,0.0,6.0,94.0,24.6,27.2,C,2012,BOS,0.0,1.0
