age,ast_per_mp,blk_per_mp,drb_per_mp,fg2_pct,fg2_per_mp,fg2a_per_mp,fg3_pct,fg3_per_mp,fg3a_per_mp,fg_pct,fg_per_mp,fga_per_mp,ft_pct,ft_per_mp,fta_per_mp,g,gs,lg_id,mp,orb_per_mp,pf_per_mp,pos,pts_per_mp,season,stl_per_mp,team_id,tov_per_mp,trb_per_mp
25.0,0.0,1.4,10.1,0.333,1.4,4.3,0.0,0.0,0.0,0.333,1.4,4.3,1.0,2.9,2.9,7.0,0.0,NBA,25.0,1.4,13.0,C,5.8,2006,0.0,DAL,4.3,11.5
27.0,0.0,1.2,7.2,0.625,6.0,9.6,0.0,0.0,0.0,0.625,6.0,9.6,0.0,0.0,0.0,7.0,0.0,NBA,30.0,3.6,10.8,C,12.0,2008,2.4,LAL,1.2,10.8
28.0,0.0,4.5,6.8,0.167,2.3,13.5,0.0,0.0,0.0,0.167,2.3,13.5,0.0,0.0,0.0,7.0,0.0,NBA,16.0,0.0,0.0,C,4.5,2009,0.0,LAL,4.5,6.8
29.0,3.0,0.0,15.0,0.333,6.0,18.0,0.0,0.0,0.0,0.333,6.0,18.0,1.0,3.0,3.0,3.0,0.0,NBA,12.0,0.0,6.0,C,15.0,2010,0.0,LAL,0.0,15.0
30.0,1.4,4.2,4.2,1.0,2.8,2.8,0.0,0.0,0.0,1.0,2.8,2.8,0.5,1.4,2.8,5.0,0.0,NBA,26.0,2.8,9.7,C,6.9,2011,2.8,NOH,1.4,6.9
