age,avg_dist,fg2_dunk,fg2_pct,fg2_pct_ast,fg2a_pct_fga,fg3_heave,fg3_pct,fg3_pct_ast,fg3_pct_corner,fg3a_heave,fg3a_pct_fga,fg_pct,fg_pct_00_03,fg_pct_03_10,fg_pct_10_16,fg_pct_16_xx,g,lg_id,mp,pct_fg2_dunk,pct_fg3a_corner,pct_fga_00_03,pct_fga_03_10,pct_fga_10_16,pct_fga_16_xx,pos,season,team_id
24.0,5.6,1.0,0.429,0.667,1.0,0.0,0.0,0.0,0.0,0.0,0.0,0.429,0.667,0.333,0.0,0.0,15.0,NBA,58.0,0.143,0.0,0.429,0.429,0.143,0.0,C,2005,DAL
25.0,7.7,4.0,0.542,0.688,0.983,0.0,0.0,0.0,0.0,0.0,0.017,0.533,0.684,0.375,0.474,0.8,43.0,NBA,237.0,0.067,0.0,0.317,0.267,0.317,0.083,C,2006,DAL
26.0,5.8,1.0,0.313,0.8,1.0,0.0,0.0,0.0,0.0,0.0,0.0,0.313,0.5,0.333,0.0,0.0,21.0,NBA,79.0,0.125,0.0,0.5,0.188,0.25,0.063,C,2007,DAL
27.0,6.6,7.0,0.464,0.744,1.0,0.0,0.0,0.0,0.0,0.0,0.0,0.464,0.515,0.5,0.4,0.25,42.0,NBA,326.0,0.095,0.0,0.393,0.262,0.298,0.048,C,2008,TOT
27.0,5.2,2.0,0.391,0.778,1.0,0.0,0.0,0.0,0.0,0.0,0.0,0.391,0.417,0.4,0.333,0.0,16.0,NBA,130.0,0.087,0.0,0.522,0.217,0.261,0.0,C,2008,GSW
27.0,7.2,5.0,0.492,0.733,1.0,0.0,0.0,0.0,0.0,0.0,0.0,0.492,0.571,0.529,0.421,0.25,26.0,NBA,196.0,0.098,0.0,0.344,0.279,0.311,0.066,C,2008,LAL
28.0,9.1,7.0,0.482,0.815,0.982,0.0,0.0,0.0,0.0,0.0,0.018,0.474,0.526,0.2,0.563,0.545,23.0,NBA,181.0,0.123,0.0,0.333,0.175,0.281,0.193,C,2009,LAL
29.0,9.0,4.0,0.466,0.563,1.0,0.0,0.0,0.0,0.0,0.0,0.0,0.466,0.647,0.421,0.45,0.3,49.0,NBA,355.0,0.049,0.0,0.33,0.184,0.194,0.291,C,2010,LAL
30.0,4.6,4.0,0.469,0.565,1.0,0.0,0.0,0.0,0.0,0.0,0.0,0.469,0.63,0.308,0.222,0.0,41.0,NBA,330.0,0.102,0.0,0.551,0.265,0.184,0.0,C,2011,NOH
