age,ast_per_mp,blk_per_mp,drb_per_mp,fg2_pct,fg2_per_mp,fg2a_per_mp,fg3_pct,fg3_per_mp,fg3a_per_mp,fg_pct,fg_per_mp,fga_per_mp,ft_pct,ft_per_mp,fta_per_mp,g,gs,lg_id,mp,orb_per_mp,pf_per_mp,pos,pts_per_mp,season,stl_per_mp,team_id,tov_per_mp,trb_per_mp
22.0,0.9,2.6,6.3,0.454,4.0,8.8,0.0,0.0,0.1,0.45,4.0,8.9,0.655,3.1,4.8,74.0,0.0,NBA,1095.0,3.4,4.6,C,11.1,2001,0.6,CHH,2.0,9.7
23.0,0.7,2.0,7.2,0.552,5.3,9.6,0.0,0.0,0.0,0.551,5.3,9.6,0.73,5.6,7.7,82.0,8.0,NBA,1549.0,3.6,4.7,C,16.2,2002,0.6,CHH,2.7,10.7
24.0,1.3,1.6,6.8,0.483,4.5,9.3,0.0,0.0,0.0,0.48,4.5,9.4,0.717,3.4,4.7,82.0,82.0,NBA,2443.0,3.8,4.1,C,12.4,2003,0.7,NOH,2.3,10.7
25.0,1.1,1.3,7.5,0.474,5.0,10.5,0.0,0.0,0.0,0.473,5.0,10.5,0.751,4.6,6.1,82.0,82.0,NBA,2777.0,3.5,3.6,C,14.5,2004,0.6,NOH,2.6,11.0
26.0,1.5,1.2,6.5,0.432,5.0,11.6,0.0,0.0,0.0,0.432,5.0,11.6,0.602,3.8,6.3,23.0,22.0,NBA,703.0,4.0,3.8,C,13.8,2005,0.4,NOH,3.0,10.5
27.0,0.8,1.2,8.1,0.467,4.2,9.0,0.0,0.0,0.0,0.467,4.2,9.0,0.535,2.6,4.9,82.0,82.0,NBA,2465.0,3.2,4.0,C,11.0,2006,0.4,MIL,2.4,11.4
28.0,0.6,1.4,7.2,0.504,4.2,8.3,0.0,0.0,0.0,0.504,4.2,8.3,0.541,2.8,5.1,81.0,23.0,NBA,1703.0,3.2,4.8,C,11.2,2007,0.4,POR,2.7,10.4
29.0,0.9,1.3,8.8,0.327,2.3,6.9,0.0,0.0,0.0,0.327,2.3,6.9,0.455,2.5,5.5,31.0,2.0,NBA,286.0,2.4,6.3,C,7.0,2008,0.1,TOT,3.8,11.2
29.0,1.0,1.4,8.8,0.306,2.1,6.8,0.0,0.0,0.0,0.306,2.1,6.8,0.452,1.9,4.3,24.0,2.0,NBA,259.0,2.5,5.8,C,6.1,2008,0.0,NJN,3.2,11.3
29.0,0.0,0.0,9.3,0.5,4.0,8.0,0.0,0.0,0.0,0.5,4.0,8.0,0.462,8.0,17.3,7.0,0.0,NBA,27.0,1.3,10.7,C,16.0,2008,1.3,DAL,9.3,10.7
30.0,1.1,1.3,7.1,0.496,3.3,6.7,0.0,0.0,0.0,0.496,3.3,6.7,0.483,1.5,3.0,55.0,12.0,NBA,709.0,4.2,6.1,C,8.1,2009,0.6,MIA,1.6,11.3
31.0,0.1,1.1,8.0,0.5,2.8,5.6,0.0,0.0,0.0,0.5,2.8,5.6,0.356,2.1,5.9,36.0,0.0,NBA,359.0,4.1,5.9,C,7.7,2010,0.9,MIA,1.7,12.1
32.0,0.7,0.5,10.0,0.591,3.0,5.0,0.0,0.0,0.0,0.591,3.0,5.0,0.5,2.1,4.1,18.0,0.0,NBA,158.0,3.9,5.9,C,8.0,2011,0.9,MIA,1.1,13.9
33.0,0.6,1.0,8.5,0.378,1.6,4.3,0.0,0.0,0.0,0.378,1.6,4.3,0.259,0.7,2.6,34.0,1.0,NBA,374.0,2.4,6.4,C,3.9,2012,0.4,TOR,2.1,10.9
