age,and1s,astd_pts,drawn_offensive,drawn_shooting,fouls_offensive,fouls_shooting,g,lg_id,mp,own_shots_blk,pct_1,pct_2,pct_3,pct_4,pct_5,plus_minus_net,plus_minus_on,pos,season,team_id,tov_bad_pass,tov_lost_ball
22.0,10.0,64.0,0.0,52.0,18.0,67.0,74.0,NBA,1095.0,26.0,0.0,0.0,0.0,0.0,100.0,0.8,3.0,C,2001,CHH,10.0,19.0
23.0,27.0,66.0,0.0,131.0,30.0,93.0,82.0,NBA,1549.0,47.0,0.0,0.0,0.0,0.0,100.0,4.4,3.7,C,2002,CHH,26.0,34.0
24.0,22.0,197.0,0.0,122.0,44.0,117.0,82.0,NBA,2443.0,58.0,0.0,0.0,0.0,0.0,100.0,0.5,2.5,C,2003,NOH,40.0,41.0
25.0,28.0,196.0,0.0,193.0,61.0,105.0,82.0,NBA,2777.0,87.0,0.0,0.0,0.0,0.0,100.0,-3.3,-1.4,C,2004,NOH,48.0,51.0
26.0,12.0,66.0,0.0,53.0,19.0,29.0,23.0,NBA,703.0,20.0,0.0,0.0,0.0,0.0,100.0,0.4,-8.0,C,2005,NOH,9.0,15.0
27.0,25.0,125.0,8.0,133.0,34.0,141.0,82.0,NBA,2465.0,59.0,0.0,0.0,0.0,0.0,100.0,-2.0,-2.1,C,2006,MIL,35.0,49.0
28.0,19.0,71.0,10.0,102.0,42.0,98.0,81.0,NBA,1703.0,43.0,0.0,0.0,0.0,22.0,78.0,-4.8,-7.8,C,2007,POR,16.0,31.0
29.0,2.0,15.0,2.0,17.0,8.0,19.0,31.0,NBA,286.0,6.0,0.0,0.0,0.0,2.0,98.0,-0.8,-1.1,C,2008,TOT,5.0,10.0
29.0,1.0,15.0,2.0,13.0,4.0,18.0,24.0,NBA,259.0,5.0,0.0,0.0,0.0,3.0,97.0,3.2,-2.7,C,2008,NJN,5.0,8.0
29.0,1.0,0.0,0.0,4.0,4.0,1.0,7.0,NBA,27.0,1.0,0.0,0.0,0.0,0.0,100.0,6.6,11.7,C,2008,DAL,0.0,2.0
30.0,4.0,50.0,15.0,28.0,9.0,61.0,55.0,NBA,709.0,14.0,0.0,0.0,0.0,0.0,100.0,4.4,3.8,C,2009,MIA,5.0,11.0
31.0,3.0,3.0,3.0,27.0,6.0,40.0,36.0,NBA,359.0,7.0,0.0,0.0,0.0,0.0,100.0,-3.6,-0.4,C,2010,MIA,2.0,4.0
32.0,0.0,6.0,1.0,5.0,1.0,19.0,18.0,NBA,158.0,2.0,0.0,0.0,0.0,7.0,94.0,-2.9,5.9,C,2011,MIA,1.0,1.0
33.0,2.0,15.0,2.0,8.0,10.0,24.0,34.0,NBA,374.0,4.0,0.0,0.0,0.0,12.0,88.0,11.3,6.2,C,2012,TOR,3.0,5.0
