age,ast,blk,drb,efg_pct,fg,fg2,fg2_pct,fg2a,fg3,fg3_pct,fg3a,fg_pct,fga,ft,ft_pct,fta,g,gs,lg_id,mp,orb,pf,pos,pts,season,stl,team_id,tov,trb
23.0,21.0,3.0,46.0,0.39,42.0,37.0,0.394,94.0,5.0,0.25,20.0,0.368,114.0,24.0,0.615,39.0,57.0,0.0,NBA,438.0,25.0,54.0,PF,113.0,1990,14.0,MIL,23.0,71.0
24.0,9.0,1.0,14.0,0.411,23.0,18.0,0.409,44.0,5.0,0.278,18.0,0.371,62.0,7.0,0.538,13.0,32.0,0.0,NBA,157.0,10.0,28.0,PF,58.0,1991,5.0,MIL,11.0,24.0
