age,ast_per_g,blk_per_g,drb_per_g,efg_pct,fg2_pct,fg2_per_g,fg2a_per_g,fg3_pct,fg3_per_g,fg3a_per_g,fg_pct,fg_per_g,fga_per_g,ft_pct,ft_per_g,fta_per_g,g,gs,lg_id,mp_per_g,orb_per_g,pf_per_g,pos,pts_per_g,season,stl_per_g,team_id,tov_per_g,trb_per_g
23.0,0.4,0.3,1.5,0.443,0.443,1.5,3.4,0.0,0.0,0.0,0.443,1.5,3.4,0.661,1.1,1.7,68.0,2.0,NBA,10.6,0.6,1.7,PF,4.1,2006,0.2,MEM,0.8,2.1
24.0,0.9,0.4,3.5,0.524,0.53,4.5,8.6,0.0,0.0,0.1,0.524,4.5,8.7,0.771,3.6,4.7,82.0,43.0,NBA,26.2,1.6,2.8,PF,12.7,2007,0.5,MEM,2.0,5.1
25.0,0.7,0.4,3.1,0.512,0.521,4.2,8.1,0.271,0.2,0.6,0.502,4.4,8.7,0.704,2.4,3.5,75.0,30.0,NBA,23.4,1.6,2.1,PF,11.4,2008,0.5,MEM,1.1,4.7
26.0,0.8,0.5,3.4,0.494,0.5,4.1,8.2,0.217,0.1,0.3,0.491,4.1,8.5,0.711,3.2,4.6,82.0,7.0,NBA,24.7,1.6,2.1,PF,11.6,2009,0.6,MEM,1.2,5.0
27.0,0.7,0.2,2.5,0.483,0.486,3.5,7.1,0.143,0.0,0.1,0.482,3.5,7.2,0.737,2.7,3.6,76.0,6.0,NBA,20.5,1.7,1.7,PF,9.6,2010,0.3,TOT,1.1,4.1
27.0,0.7,0.2,2.6,0.483,0.487,3.8,7.8,0.167,0.0,0.1,0.481,3.8,7.9,0.727,2.6,3.6,48.0,6.0,NBA,21.3,1.8,1.7,PF,10.2,2010,0.4,MIL,1.2,4.4
27.0,0.6,0.3,2.2,0.483,0.485,3.0,6.1,0.0,0.0,0.0,0.483,3.0,6.1,0.755,2.8,3.6,28.0,0.0,NBA,19.0,1.4,1.5,PF,8.7,2010,0.3,CHI,0.8,3.6
28.0,0.9,0.1,2.6,0.512,0.522,2.8,5.4,0.091,0.0,0.1,0.511,2.9,5.6,0.721,2.7,3.7,80.0,6.0,NBA,17.7,1.1,1.3,PF,8.4,2011,0.4,PHO,1.0,3.7
29.0,0.9,0.1,1.7,0.414,0.429,2.1,4.9,0.1,0.0,0.3,0.411,2.1,5.1,0.768,2.2,2.8,35.0,0.0,NBA,14.4,0.9,1.0,PF,6.4,2012,0.2,PHO,1.0,2.6
30.0,0.9,0.2,2.4,0.406,0.414,2.4,5.8,0.0,0.0,0.1,0.406,2.4,5.9,0.682,2.1,3.1,28.0,14.0,NBA,17.5,0.8,1.3,PF,6.9,2013,0.5,TOT,1.0,3.2
30.0,0.0,0.0,0.0,0.5,0.5,1.0,2.0,0.0,0.0,0.0,0.5,1.0,2.0,1.0,2.0,2.0,1.0,0.0,NBA,7.0,0.0,0.0,PF,4.0,2013,1.0,NOH,0.0,0.0
30.0,0.9,0.2,2.5,0.405,0.413,2.4,5.9,0.0,0.0,0.1,0.405,2.4,6.0,0.674,2.1,3.2,27.0,14.0,NBA,17.9,0.8,1.4,PF,7.0,2013,0.4,CHA,1.1,3.3
