article_url,date,headline
https://raptorsrapture.com/2019/11/08/toronto-raptors-mailbag-bench/,2019/11/08,"Raptors Rapture: Toronto Raptors mailbag: Bench questions, potential trades, and Pascal Siakam's most improved case"
https://raptorsrapture.com/2019/11/07/toronto-raptors-grades-sacramento-kings-2/,2019/11/07,Raptors Rapture: Grades for Toronto's 124-120 home win over Sacramento
https://raptorsrapture.com/2019/11/05/toronto-raptors-905-preview/,2019/11/05,"Raptors Rapture: Toronto Raptors: 905 preview, who and what to watch for this season"
https://raptorsrapture.com/2019/11/04/ceilings-toronto-raptors-young-core/,2019/11/04,Raptors Rapture: What are the ceilings of the Toronto Raptors young core?
https://raptorsrapture.com/2019/11/04/toronto-raptors-chris-boucher-ready/,2019/11/04,"Raptors Rapture: One thing from every Raptors game last week, including Chris Boucher's not ready yet"
https://raptorsrapture.com/2019/11/03/toronto-raptors-milwaukee-bucks-comeback-grades/,2019/11/03,Raptors Rapture: Individual grades from Toronto Raptors failed comeback against Milwaukee Bucks
