age,and1s,astd_pts,drawn_offensive,drawn_shooting,fouls_offensive,fouls_shooting,g,lg_id,mp,own_shots_blk,pct_1,pct_2,pct_3,pct_4,pct_5,plus_minus_net,plus_minus_on,pos,season,team_id,tov_bad_pass,tov_lost_ball
24.0,0.0,0.0,0.0,0.0,0.0,1.0,1.0,NBA,6.0,0.0,0.0,0.0,49.0,51.0,0.0,-85.4,-83.3,PF,2016,IND,0.0,0.0
25.0,1.0,8.0,3.0,12.0,5.0,15.0,29.0,NBA,219.0,6.0,0.0,0.0,0.0,62.0,38.0,-9.6,-9.2,PF,2017,IND,0.0,3.0
