age,ast,ast_per_g,blk,college_id,fg,fg3,fg3_pct,fg3a,fg_pct,fga,ft,ft_pct,fta,g,mp,mp_per_g,orb,pf,pts,pts_per_g,season,stl,tov,trb,trb_per_g
20.0,7.0,0.2,30.0,SYRACUSE,43.0,0.0,0.0,0.0,0.573,75.0,16.0,0.571,28.0,37.0,425.0,11.5,40.0,63.0,102.0,2.8,2012,11.0,23.0,108.0,2.9
21.0,9.0,0.2,73.0,SYRACUSE,87.0,0.0,0.0,0.0,0.53,164.0,31.0,0.574,54.0,40.0,834.0,20.9,72.0,100.0,205.0,5.1,2013,21.0,35.0,184.0,4.6
22.0,23.0,0.7,66.0,SYRACUSE,76.0,0.0,0.0,0.0,0.613,124.0,45.0,0.726,62.0,34.0,803.0,23.6,71.0,107.0,197.0,5.8,2014,16.0,26.0,172.0,5.1
23.0,47.0,1.5,78.0,SYRACUSE,203.0,0.0,0.0,1.0,0.552,368.0,136.0,0.712,191.0,31.0,1064.0,34.3,97.0,105.0,542.0,17.5,2015,29.0,78.0,282.0,9.1
