age,ast_per_g,blk_per_g,drb_per_g,efg_pct,fg2_pct,fg2_per_g,fg2a_per_g,fg3_pct,fg3_per_g,fg3a_per_g,fg_pct,fg_per_g,fga_per_g,ft_pct,ft_per_g,fta_per_g,g,gs,lg_id,mp_per_g,orb_per_g,pf_per_g,pos,pts_per_g,season,stl_per_g,team_id,tov_per_g,trb_per_g
25.0,0.6,0.2,1.4,0.55,0.554,1.6,2.8,0.25,0.0,0.1,0.547,1.6,2.9,0.671,0.9,1.4,59.0,8.0,NBA,12.4,0.7,1.6,SG,4.1,1990,0.6,PHO,0.5,2.1
26.0,1.1,0.3,1.7,0.477,0.504,2.3,4.6,0.125,0.1,0.4,0.472,2.4,5.0,0.753,1.3,1.7,56.0,8.0,NBA,16.9,1.5,1.9,SG,6.1,1991,1.1,TOT,0.9,3.1
26.0,0.9,0.4,2.0,0.442,0.452,2.4,5.3,0.0,0.0,0.1,0.442,2.4,5.4,0.69,1.3,1.8,16.0,4.0,NBA,16.4,1.3,1.6,SG,6.0,1991,1.2,PHO,1.1,3.3
26.0,1.2,0.3,1.5,0.492,0.529,2.3,4.4,0.136,0.1,0.6,0.485,2.4,4.9,0.781,1.3,1.6,40.0,4.0,NBA,17.1,1.6,2.1,SG,6.1,1991,1.0,DEN,0.9,3.1
27.0,0.3,0.1,0.8,0.647,0.688,0.7,1.0,0.0,0.0,0.1,0.647,0.7,1.1,0.833,0.6,0.8,16.0,0.0,NBA,5.8,0.3,0.6,SG,2.0,1992,0.1,TOT,0.3,1.0
27.0,0.0,0.0,0.8,0.75,0.75,0.4,0.5,0.0,0.0,0.0,0.75,0.4,0.5,1.0,1.0,1.0,8.0,0.0,NBA,5.8,0.4,0.5,SG,1.8,1992,0.1,BOS,0.3,1.1
27.0,0.5,0.3,0.8,0.615,0.667,1.0,1.5,0.0,0.0,0.1,0.615,1.0,1.6,0.5,0.3,0.5,8.0,0.0,NBA,5.8,0.1,0.8,SG,2.3,1992,0.1,GSW,0.3,0.9
28.0,0.7,0.0,1.3,0.462,0.5,2.0,4.0,0.0,0.0,0.3,0.462,2.0,4.3,1.0,0.7,0.7,3.0,1.0,NBA,9.7,2.3,0.7,SG,4.7,1993,0.3,BOS,0.7,3.7
