age,ast_per_poss,blk_per_poss,def_rtg,drb_per_poss,fg2_pct,fg2_per_poss,fg2a_per_poss,fg3_pct,fg3_per_poss,fg3a_per_poss,fg_pct,fg_per_poss,fga_per_poss,ft_pct,ft_per_poss,fta_per_poss,g,gs,lg_id,mp,off_rtg,orb_per_poss,pf_per_poss,pos,pts_per_poss,season,stl_per_poss,team_id,tov_per_poss,trb_per_poss
22.0,4.6,0.7,101.0,5.0,0.402,4.0,9.8,0.257,1.1,4.2,0.359,5.0,14.0,0.575,2.8,4.8,30.0,4.0,NBA,459.0,91.0,1.6,5.3,SG,13.9,2005,2.6,DET,2.8,6.6
23.0,3.4,1.1,103.0,6.5,0.428,5.4,12.6,0.333,1.5,4.6,0.403,6.9,17.2,0.672,3.4,5.1,68.0,1.0,NBA,726.0,98.0,2.1,6.6,SG,18.8,2006,1.6,DET,2.7,8.6
24.0,3.5,0.3,104.0,8.0,0.462,4.4,9.5,0.333,1.8,5.5,0.415,6.3,15.1,0.787,2.8,3.6,82.0,1.0,NBA,1372.0,105.0,2.7,3.9,SG,17.2,2007,1.8,DET,2.4,10.7
25.0,4.0,0.3,106.0,8.1,0.412,3.6,8.8,0.382,3.3,8.7,0.397,6.9,17.4,0.744,3.2,4.3,82.0,0.0,NBA,1928.0,107.0,1.8,4.9,SG,20.4,2008,1.9,TOR,2.1,9.9
27.0,4.6,0.5,103.0,7.9,0.45,3.8,8.4,0.367,3.1,8.4,0.408,6.9,16.8,0.782,2.1,2.7,75.0,66.0,NBA,2279.0,103.0,1.2,3.2,SF,19.0,2010,1.8,MIL,2.7,9.1
28.0,3.8,0.3,102.0,5.9,0.415,3.2,7.7,0.37,3.5,9.6,0.39,6.7,17.3,0.8,2.0,2.5,49.0,40.0,NBA,1590.0,104.0,0.8,2.4,SF,19.0,2011,2.6,MIL,1.9,6.7
29.0,4.1,0.3,104.0,6.3,0.449,3.2,7.1,0.36,2.9,8.0,0.402,6.1,15.1,0.792,1.3,1.6,54.0,53.0,NBA,1537.0,102.0,0.7,3.3,SF,16.3,2012,2.6,MIL,2.2,6.9
30.0,4.0,0.3,107.0,6.0,0.467,2.7,5.9,0.375,4.7,12.4,0.405,7.4,18.3,0.857,1.4,1.7,67.0,5.0,NBA,1689.0,109.0,0.5,3.4,SF,20.9,2013,2.0,HOU,2.1,6.5
