age,ast_per_mp,blk_per_mp,drb_per_mp,fg2_pct,fg2_per_mp,fg2a_per_mp,fg3_pct,fg3_per_mp,fg3a_per_mp,fg_pct,fg_per_mp,fga_per_mp,ft_pct,ft_per_mp,fta_per_mp,g,gs,lg_id,mp,orb_per_mp,pf_per_mp,pos,pts_per_mp,season,stl_per_mp,team_id,tov_per_mp,trb_per_mp
22.0,0.2,1.4,3.9,0.556,3.9,7.0,0.0,0.0,0.0,0.556,3.9,7.0,0.6,4.7,7.8,27.0,0.0,NBA,185.0,2.1,7.8,C,12.5,2007,0.8,CHA,3.1,6.0
23.0,0.9,2.0,3.7,0.489,3.1,6.4,0.0,0.0,0.0,0.489,3.1,6.4,0.671,3.7,5.5,60.0,1.0,NBA,532.0,3.6,6.5,PF,9.9,2008,0.7,CHA,1.7,7.2
24.0,0.6,2.6,4.1,0.532,4.1,7.6,0.0,0.0,0.0,0.532,4.1,7.6,0.597,3.5,5.8,45.0,3.0,NBA,444.0,3.7,6.3,C,11.6,2009,0.6,TOT,1.9,7.9
24.0,0.8,3.3,3.3,0.543,3.7,6.8,0.0,0.0,0.0,0.543,3.7,6.8,0.667,5.1,7.6,18.0,1.0,NBA,184.0,3.7,6.7,C,12.5,2009,0.6,CHA,2.0,7.0
24.0,0.4,2.1,4.7,0.525,4.3,8.2,0.0,0.0,0.0,0.525,4.3,8.2,0.515,2.4,4.6,27.0,2.0,NBA,260.0,3.7,6.1,C,10.9,2009,0.6,DAL,1.9,8.4
25.0,1.5,1.1,3.8,0.56,5.0,8.9,0.0,0.0,0.0,0.558,5.0,8.9,0.69,3.2,4.7,73.0,27.0,NBA,1223.0,2.3,5.9,C,13.2,2010,0.6,MIN,2.8,6.1
26.0,0.8,1.3,3.5,0.598,4.0,6.7,0.0,0.0,0.0,0.598,4.0,6.7,0.681,3.4,5.0,70.0,16.0,NBA,1182.0,2.1,6.1,C,11.4,2011,0.7,CLE,2.0,5.7
27.0,0.6,1.2,3.3,0.548,3.2,5.8,0.0,0.0,0.0,0.548,3.2,5.8,0.52,2.7,5.2,39.0,8.0,NBA,522.0,2.3,5.4,C,9.0,2012,0.3,TOT,2.4,5.7
27.0,0.6,1.2,3.1,0.5,2.8,5.6,0.0,0.0,0.0,0.5,2.8,5.6,0.6,3.3,5.5,24.0,7.0,NBA,362.0,2.5,5.5,C,8.9,2012,0.4,CLE,2.4,5.6
27.0,0.7,1.1,3.8,0.643,4.1,6.3,0.0,0.0,0.0,0.643,4.1,6.3,0.3,1.4,4.5,15.0,1.0,NBA,160.0,2.0,5.2,C,9.5,2012,0.2,BOS,2.5,5.9
28.0,0.6,1.8,4.8,0.614,3.8,6.2,0.0,0.0,0.0,0.614,3.8,6.2,0.75,3.6,4.8,60.0,0.0,NBA,663.0,2.7,7.2,C,11.2,2013,0.3,LAC,2.4,7.5
29.0,0.6,2.3,4.4,0.736,4.0,5.4,0.0,0.0,0.0,0.736,4.0,5.4,0.625,2.6,4.2,61.0,0.0,NBA,482.0,2.3,6.5,PF,10.5,2014,0.7,LAC,2.2,6.7
30.0,1.1,1.6,5.5,0.646,4.3,6.7,0.0,0.0,0.0,0.646,4.3,6.7,0.574,2.5,4.4,46.0,9.0,NBA,441.0,2.9,5.3,C,11.2,2015,0.5,SAC,2.0,8.4
31.0,0.8,1.6,4.0,0.62,3.8,6.2,0.0,0.0,0.0,0.62,3.8,6.2,0.619,2.0,3.3,37.0,12.0,NBA,460.0,3.7,4.9,C,9.7,2016,0.5,TOT,1.9,7.7
31.0,0.0,0.7,3.0,0.571,3.0,5.2,0.0,0.0,0.0,0.571,3.0,5.2,0.0,0.0,0.0,5.0,3.0,NBA,48.0,5.2,3.0,C,6.0,2016,0.0,WAS,2.3,8.2
31.0,0.9,1.7,4.1,0.625,3.9,6.3,0.0,0.0,0.0,0.625,3.9,6.3,0.619,2.3,3.7,32.0,9.0,NBA,412.0,3.5,5.1,C,10.1,2016,0.5,MEM,1.8,7.6
