age,ast_per_mp,blk_per_mp,drb_per_mp,fg2_pct,fg2_per_mp,fg2a_per_mp,fg3_pct,fg3_per_mp,fg3a_per_mp,fg_pct,fg_per_mp,fga_per_mp,ft_pct,ft_per_mp,fta_per_mp,g,gs,lg_id,mp,orb_per_mp,pf_per_mp,pos,pts_per_mp,season,stl_per_mp,team_id,tov_per_mp,trb_per_mp
24.0,2.3,0.7,4.5,0.528,4.8,9.0,0.333,0.1,0.3,0.523,4.8,9.3,0.424,1.2,2.8,40.0,4.0,NBA,431.0,3.4,4.0,PF,10.9,2001,1.1,DAL,1.4,7.9
25.0,1.0,0.8,5.1,0.503,4.0,7.9,0.0,0.0,0.1,0.5,4.0,8.0,0.676,2.7,3.9,62.0,11.0,NBA,1357.0,4.0,4.1,PF,10.6,2002,1.5,DAL,1.1,9.1
26.0,1.5,0.7,4.3,0.561,4.2,7.5,0.0,0.0,0.0,0.558,4.2,7.5,0.681,2.0,3.0,48.0,12.0,NBA,1103.0,2.9,4.2,SF,10.4,2003,1.3,DAL,0.8,7.3
27.0,1.2,0.9,4.4,0.443,3.5,7.9,0.5,0.1,0.2,0.444,3.6,8.1,0.652,1.5,2.3,58.0,7.0,NBA,720.0,3.3,4.5,SF,8.8,2004,1.7,DAL,1.4,7.8
28.0,2.0,0.7,4.3,0.462,4.2,9.1,0.286,0.2,0.6,0.45,4.4,9.8,0.637,1.8,2.8,68.0,4.0,NBA,1185.0,3.1,4.5,PF,10.8,2005,1.2,TOT,1.9,7.4
28.0,2.2,0.6,3.8,0.408,3.8,9.3,0.4,0.4,0.9,0.407,4.1,10.2,0.644,1.7,2.7,42.0,4.0,NBA,610.0,3.1,4.2,PF,10.3,2005,1.1,GSW,1.9,7.0
28.0,1.8,0.9,4.8,0.521,4.7,9.0,0.0,0.0,0.4,0.5,4.7,9.4,0.63,1.8,2.9,26.0,0.0,NBA,575.0,3.1,4.8,PF,11.2,2005,1.4,DEN,1.8,7.8
29.0,1.3,0.8,4.9,0.426,3.1,7.2,0.333,0.1,0.3,0.422,3.2,7.5,0.781,2.2,2.8,64.0,3.0,NBA,1449.0,3.2,4.1,PF,8.6,2006,1.3,DEN,1.3,8.1
30.0,1.4,0.6,3.9,0.594,4.4,7.4,0.083,0.0,0.3,0.576,4.4,7.7,0.715,1.9,2.7,75.0,36.0,NBA,1658.0,2.8,4.5,PF,10.8,2007,1.6,DEN,1.2,6.7
31.0,2.1,0.9,4.8,0.548,2.6,4.8,0.361,1.1,3.2,0.473,3.8,8.0,0.708,1.4,1.9,78.0,3.0,NBA,1664.0,2.4,4.3,PF,10.0,2008,1.5,DEN,1.3,7.3
32.0,2.1,0.5,5.6,0.571,3.2,5.5,0.2,0.6,2.8,0.446,3.7,8.4,0.364,0.9,2.5,27.0,0.0,NBA,319.0,1.9,5.6,PF,8.9,2009,1.1,NJN,2.0,7.6
33.0,1.5,0.7,4.3,0.524,2.3,4.3,0.297,1.0,3.4,0.425,3.3,7.7,0.583,0.7,1.3,46.0,5.0,NBA,685.0,1.8,4.9,PF,8.3,2010,1.4,TOT,1.3,6.0
33.0,2.6,0.4,4.6,0.472,3.0,6.4,0.176,0.5,3.0,0.377,3.5,9.4,0.5,1.1,2.1,13.0,2.0,NBA,204.0,2.1,5.8,PF,8.6,2010,1.6,NJN,2.1,6.7
33.0,1.0,0.9,4.1,0.565,1.9,3.4,0.34,1.2,3.5,0.452,3.1,7.0,0.667,0.6,0.9,33.0,3.0,NBA,481.0,1.6,4.6,PF,8.1,2010,1.3,DAL,1.0,5.8
34.0,1.9,0.6,2.9,0.395,1.5,3.7,0.324,1.1,3.3,0.361,2.5,7.0,0.545,0.6,1.1,31.0,0.0,NBA,372.0,1.4,5.0,PF,6.7,2011,1.1,CHA,1.3,4.3
35.0,1.6,0.5,5.2,0.457,2.1,4.7,0.276,1.1,3.9,0.375,3.2,8.5,0.5,0.3,0.5,22.0,0.0,NBA,270.0,1.5,5.3,PF,7.7,2012,2.5,CHA,0.9,6.7
