age,ast,blk,drb,efg_pct,fg,fg2,fg2_pct,fg2a,fg3,fg3_pct,fg3a,fg_pct,fga,ft,ft_pct,fta,g,gs,lg_id,mp,orb,pf,pos,pts,season,stl,team_id,tov,trb
24.0,27.0,8.0,54.0,0.527,58.0,57.0,0.528,108.0,1.0,0.333,3.0,0.523,111.0,14.0,0.424,33.0,40.0,4.0,NBA,431.0,41.0,48.0,PF,131.0,2001,13.0,DAL,17.0,95.0
25.0,38.0,30.0,193.0,0.5,150.0,150.0,0.503,298.0,0.0,0.0,2.0,0.5,300.0,100.0,0.676,148.0,62.0,11.0,NBA,1357.0,149.0,156.0,PF,400.0,2002,56.0,DAL,40.0,342.0
26.0,47.0,22.0,133.0,0.558,129.0,129.0,0.561,230.0,0.0,0.0,1.0,0.558,231.0,62.0,0.681,91.0,48.0,12.0,NBA,1103.0,90.0,129.0,SF,320.0,2003,40.0,DAL,23.0,223.0
27.0,25.0,19.0,89.0,0.451,72.0,70.0,0.443,158.0,2.0,0.5,4.0,0.444,162.0,30.0,0.652,46.0,58.0,7.0,NBA,720.0,67.0,90.0,SF,176.0,2004,35.0,DAL,29.0,156.0
28.0,65.0,24.0,141.0,0.46,145.0,139.0,0.462,301.0,6.0,0.286,21.0,0.45,322.0,58.0,0.637,91.0,68.0,4.0,NBA,1185.0,102.0,148.0,PF,354.0,2005,41.0,TOT,61.0,243.0
28.0,37.0,10.0,65.0,0.424,70.0,64.0,0.408,157.0,6.0,0.4,15.0,0.407,172.0,29.0,0.644,45.0,42.0,4.0,NBA,610.0,53.0,71.0,PF,175.0,2005,18.0,GSW,32.0,118.0
28.0,28.0,14.0,76.0,0.5,75.0,75.0,0.521,144.0,0.0,0.0,6.0,0.5,150.0,29.0,0.63,46.0,26.0,0.0,NBA,575.0,49.0,77.0,PF,179.0,2005,23.0,DEN,29.0,125.0
29.0,52.0,34.0,197.0,0.429,127.0,123.0,0.426,289.0,4.0,0.333,12.0,0.422,301.0,89.0,0.781,114.0,64.0,3.0,NBA,1449.0,128.0,165.0,PF,347.0,2006,53.0,DEN,54.0,325.0
30.0,64.0,26.0,179.0,0.578,204.0,203.0,0.594,342.0,1.0,0.083,12.0,0.576,354.0,88.0,0.715,123.0,75.0,36.0,NBA,1658.0,131.0,207.0,PF,497.0,2007,73.0,DEN,56.0,310.0
31.0,95.0,40.0,224.0,0.545,174.0,121.0,0.548,221.0,53.0,0.361,147.0,0.473,368.0,63.0,0.708,89.0,78.0,3.0,NBA,1664.0,113.0,199.0,PF,464.0,2008,69.0,DEN,59.0,337.0
32.0,19.0,4.0,50.0,0.48,33.0,28.0,0.571,49.0,5.0,0.2,25.0,0.446,74.0,8.0,0.364,22.0,27.0,0.0,NBA,319.0,17.0,50.0,PF,79.0,2009,10.0,NJN,18.0,67.0
33.0,29.0,14.0,81.0,0.49,62.0,43.0,0.524,82.0,19.0,0.297,64.0,0.425,146.0,14.0,0.583,24.0,46.0,5.0,NBA,685.0,34.0,94.0,PF,157.0,2010,26.0,TOT,25.0,115.0
33.0,15.0,2.0,26.0,0.406,20.0,17.0,0.472,36.0,3.0,0.176,17.0,0.377,53.0,6.0,0.5,12.0,13.0,2.0,NBA,204.0,12.0,33.0,PF,49.0,2010,9.0,NJN,12.0,38.0
33.0,14.0,12.0,55.0,0.538,42.0,26.0,0.565,46.0,16.0,0.34,47.0,0.452,93.0,8.0,0.667,12.0,33.0,3.0,NBA,481.0,22.0,61.0,PF,108.0,2010,17.0,DAL,13.0,77.0
34.0,20.0,6.0,30.0,0.438,26.0,15.0,0.395,38.0,11.0,0.324,34.0,0.361,72.0,6.0,0.545,11.0,31.0,0.0,NBA,372.0,14.0,52.0,PF,69.0,2011,11.0,CHA,13.0,44.0
35.0,12.0,4.0,39.0,0.438,24.0,16.0,0.457,35.0,8.0,0.276,29.0,0.375,64.0,2.0,0.5,4.0,22.0,0.0,NBA,270.0,11.0,40.0,PF,58.0,2012,19.0,CHA,7.0,50.0
