age,ast_per_poss,blk_per_poss,def_rtg,drb_per_poss,fg2_pct,fg2_per_poss,fg2a_per_poss,fg3_pct,fg3_per_poss,fg3a_per_poss,fg_pct,fg_per_poss,fga_per_poss,ft_pct,ft_per_poss,fta_per_poss,g,gs,lg_id,mp,off_rtg,orb_per_poss,pf_per_poss,pos,pts_per_poss,season,stl_per_poss,team_id,tov_per_poss,trb_per_poss
25.0,1.5,1.8,108.0,6.4,0.414,4.7,11.4,0.0,0.0,0.0,0.414,4.7,11.4,0.576,3.1,5.4,28.0,3.0,NBA,357.0,74.0,2.1,8.0,PF,12.6,1996,1.0,CLE,5.6,8.5
29.0,2.8,1.1,104.0,6.0,0.439,8.9,20.3,0.167,0.0,0.2,0.437,9.0,20.5,0.766,6.5,8.5,80.0,53.0,NBA,1684.0,98.0,1.8,4.7,C,24.5,2000,1.0,ORL,4.1,7.8
30.0,2.2,0.9,105.0,5.8,0.405,7.1,17.6,0.0,0.0,0.2,0.4,7.1,17.8,0.631,5.3,8.4,82.0,36.0,NBA,1710.0,89.0,2.3,5.3,C,19.6,2001,0.8,ORL,3.7,8.1
31.0,2.6,0.9,109.0,5.2,0.325,4.9,15.1,0.0,0.0,0.0,0.325,4.9,15.1,0.638,6.1,9.5,54.0,0.0,NBA,586.0,83.0,4.7,5.8,PF,15.9,2002,0.6,UTA,5.0,9.9
32.0,2.4,0.8,105.0,5.8,0.314,4.2,13.4,0.0,0.0,0.0,0.314,4.2,13.4,0.481,2.8,5.9,50.0,1.0,NBA,474.0,73.0,2.9,5.7,C,11.2,2003,1.6,UTA,3.9,8.7
