age,ast,blk,drb,fg,fg2,fg2a,fg3,fg3a,fga,ft,fta,game_score,lg_id,mp,orb,pf,pts,season,stl,team_id,tov,trb
22.0,3.0,4.0,10.0,12.0,12.0,18.0,0.0,0.0,18.0,8.0,10.0,28.7,NBA,36,7.0,5.0,27.0,2012,2.0,DEN,4.0,17.0
23.0,4.0,5.0,12.0,11.0,11.0,16.0,0.0,0.0,16.0,8.0,11.0,24.9,NBA,48,11.0,6.0,26.0,2013,4.0,DEN,5.0,20.0
24.0,5.0,4.0,15.0,14.0,14.0,20.0,0.0,1.0,20.0,9.0,13.0,30.7,NBA,43,8.0,5.0,34.0,2014,4.0,DEN,6.0,21.0
25.0,4.0,4.0,13.0,12.0,12.0,18.0,1.0,2.0,19.0,9.0,12.0,29.9,NBA,43,12.0,6.0,30.0,2015,4.0,DEN,5.0,25.0
26.0,4.0,3.0,11.0,12.0,12.0,20.0,1.0,1.0,20.0,8.0,15.0,27.6,NBA,40,11.0,5.0,28.0,2016,2.0,DEN,4.0,20.0
27.0,3.0,3.0,11.0,10.0,10.0,17.0,0.0,1.0,17.0,9.0,12.0,25.3,NBA,37,9.0,5.0,25.0,2017,4.0,DEN,4.0,17.0
28.0,4.0,2.0,9.0,8.0,8.0,12.0,0.0,1.0,13.0,8.0,12.0,20.2,NBA,33,6.0,5.0,20.0,2018,3.0,DEN,4.0,13.0
29.0,5.0,3.0,10.0,9.0,9.0,17.0,2.0,4.0,17.0,6.0,9.0,21.7,NBA,38,8.0,6.0,23.0,2019,3.0,TOT,3.0,14.0
29.0,1.0,1.0,8.0,8.0,8.0,13.0,1.0,4.0,14.0,5.0,7.0,15.5,NBA,29,5.0,4.0,21.0,2019,1.0,BRK,1.0,12.0
29.0,5.0,3.0,10.0,9.0,9.0,17.0,2.0,4.0,17.0,6.0,9.0,21.7,NBA,38,8.0,6.0,23.0,2019,3.0,HOU,3.0,14.0
