age,and1s,astd_pts,drawn_offensive,drawn_shooting,fouls_offensive,fouls_shooting,g,lg_id,mp,own_shots_blk,pct_1,pct_2,pct_3,pct_4,pct_5,plus_minus_net,plus_minus_on,pos,season,team_id,tov_bad_pass,tov_lost_ball
22.0,11.0,80.0,12.0,70.0,15.0,53.0,46.0,NBA,1037.0,43.0,0.0,0.0,1.0,93.0,7.0,-4.0,0.6,PF,2012,DEN,20.0,16.0
23.0,26.0,176.0,12.0,108.0,30.0,85.0,80.0,NBA,2248.0,75.0,0.0,0.0,0.0,79.0,21.0,0.2,5.3,PF,2013,DEN,33.0,38.0
24.0,31.0,234.0,14.0,127.0,24.0,83.0,80.0,NBA,2178.0,66.0,0.0,0.0,23.0,70.0,7.0,-2.2,-3.1,PF,2014,DEN,55.0,39.0
25.0,32.0,204.0,13.0,127.0,30.0,90.0,75.0,NBA,2086.0,68.0,0.0,0.0,3.0,72.0,25.0,5.2,-1.4,PF,2015,DEN,44.0,33.0
26.0,32.0,188.0,10.0,102.0,22.0,68.0,67.0,NBA,1694.0,59.0,0.0,0.0,1.0,80.0,20.0,-0.9,-3.6,PF,2016,DEN,18.0,40.0
27.0,19.0,128.0,3.0,73.0,13.0,60.0,61.0,NBA,1296.0,42.0,0.0,0.0,6.0,68.0,26.0,-2.8,-1.8,PF,2017,DEN,22.0,16.0
28.0,2.0,42.0,1.0,23.0,8.0,23.0,32.0,NBA,461.0,10.0,0.0,0.0,14.0,74.0,12.0,-7.0,-4.9,PF,2018,DEN,7.0,3.0
29.0,9.0,53.0,12.0,47.0,5.0,28.0,37.0,NBA,728.0,20.0,0.0,0.0,0.0,13.0,87.0,2.1,4.3,C,2019,TOT,15.0,10.0
29.0,2.0,4.0,1.0,9.0,1.0,3.0,12.0,NBA,118.0,2.0,0.0,0.0,0.0,24.0,77.0,-8.1,-8.0,C,2019,BRK,3.0,2.0
29.0,7.0,49.0,11.0,38.0,4.0,25.0,25.0,NBA,610.0,18.0,0.0,0.0,0.0,11.0,89.0,2.1,6.8,C,2019,HOU,12.0,8.0
