age,ast_per_mp,blk_per_mp,drb_per_mp,fg2_pct,fg2_per_mp,fg2a_per_mp,fg3_pct,fg3_per_mp,fg3a_per_mp,fg_pct,fg_per_mp,fga_per_mp,ft_pct,ft_per_mp,fta_per_mp,g,gs,lg_id,mp,orb_per_mp,pf_per_mp,pos,pts_per_mp,season,stl_per_mp,team_id,tov_per_mp,trb_per_mp
23.0,2.3,0.2,7.5,0.511,4.9,9.6,0.25,0.2,0.9,0.49,5.1,10.4,0.765,5.5,7.2,4.0,4.0,NBA,169.0,3.4,2.8,PF,16.0,1985,0.4,DAL,0.6,10.9
24.0,2.5,1.5,5.5,0.44,5.7,13.0,0.25,0.2,0.8,0.429,5.9,13.8,0.767,3.4,4.5,10.0,10.0,NBA,347.0,3.1,3.3,PF,15.5,1986,0.9,DAL,1.7,8.6
25.0,1.4,0.3,6.0,0.542,7.0,13.0,0.0,0.0,1.1,0.5,7.0,14.1,0.696,4.3,6.2,4.0,4.0,NBA,133.0,3.2,4.3,PF,18.4,1987,1.1,DAL,2.4,9.2
26.0,2.0,1.1,4.6,0.463,5.5,11.8,0.143,0.1,0.4,0.451,5.5,12.3,0.803,3.3,4.2,17.0,17.0,NBA,572.0,2.5,3.2,PF,14.5,1988,1.6,DAL,1.9,7.0
28.0,2.4,0.6,3.7,0.457,4.9,10.7,0.0,0.0,0.3,0.444,4.9,11.0,0.765,4.0,5.2,3.0,3.0,NBA,118.0,3.1,5.2,SF,13.7,1990,0.9,DAL,2.1,6.7
29.0,1.6,1.3,5.6,0.576,5.3,9.1,0.367,0.5,1.4,0.548,5.8,10.6,0.761,4.0,5.2,19.0,19.0,NBA,752.0,2.0,3.3,PF,16.1,1991,0.7,LAL,1.8,7.5
31.0,2.1,1.4,5.8,0.466,3.9,8.4,0.38,1.7,4.5,0.436,5.6,12.9,0.873,2.8,3.2,19.0,17.0,NBA,626.0,1.9,3.2,PF,15.8,1993,1.1,SEA,1.2,7.6
32.0,1.0,0.5,7.7,0.286,2.0,7.1,0.429,1.5,3.6,0.333,3.6,10.7,0.882,3.8,4.3,5.0,0.0,NBA,141.0,1.5,3.8,PF,12.5,1994,1.0,SEA,1.5,9.2
33.0,3.3,1.3,6.4,0.423,2.8,6.6,0.455,2.6,5.6,0.438,5.4,12.3,1.0,0.5,0.5,4.0,2.0,NBA,141.0,1.5,3.1,C,13.8,1995,0.8,SEA,2.3,7.9
34.0,1.9,0.3,3.8,0.532,3.2,6.0,0.368,1.8,4.8,0.459,5.0,10.8,0.754,2.5,3.4,21.0,1.0,NBA,654.0,1.2,2.4,PF,14.2,1996,0.8,SEA,1.7,5.0
35.0,1.6,1.3,4.0,0.362,1.8,5.0,0.311,1.5,4.8,0.337,3.3,9.7,0.862,2.6,3.1,12.0,6.0,NBA,340.0,1.6,3.6,C,10.7,1997,1.3,SEA,1.4,5.6
36.0,2.4,0.9,4.5,0.333,1.0,3.1,0.417,1.7,4.1,0.381,2.7,7.2,0.6,2.1,3.4,10.0,1.0,NBA,210.0,1.0,3.8,PF,9.3,1998,0.5,SEA,1.9,5.5
37.0,1.5,0.7,5.7,0.636,1.7,2.7,0.458,2.7,5.9,0.514,4.4,8.6,0.667,1.5,2.2,13.0,0.0,NBA,146.0,0.5,3.2,PF,13.1,1999,0.0,IND,1.7,6.2
38.0,0.9,0.5,4.8,0.282,0.9,3.4,0.348,2.0,5.7,0.324,2.9,9.1,0.905,1.6,1.8,23.0,0.0,NBA,417.0,1.5,3.9,PF,9.5,2000,0.3,IND,0.7,6.3
39.0,0.0,0.0,5.7,0.25,1.9,7.6,0.25,1.9,7.6,0.25,3.8,15.2,0.0,0.0,0.0,3.0,0.0,NBA,19.0,1.9,5.7,PF,9.5,2001,0.0,IND,0.0,7.6
