age,ast,blk,drb,efg_pct,fg,fg2,fg2_pct,fg2a,fg3,fg3_pct,fg3a,fg_pct,fga,ft,ft_pct,fta,g,gs,lg_id,mp,orb,pf,pos,pts,season,stl,team_id,tov,trb
23.0,11.0,1.0,35.0,0.5,24.0,23.0,0.511,45.0,1.0,0.25,4.0,0.49,49.0,26.0,0.765,34.0,4.0,4.0,NBA,169.0,16.0,13.0,PF,75.0,1985,2.0,DAL,3.0,51.0
24.0,24.0,14.0,53.0,0.436,57.0,55.0,0.44,125.0,2.0,0.25,8.0,0.429,133.0,33.0,0.767,43.0,10.0,10.0,NBA,347.0,30.0,32.0,PF,149.0,1986,9.0,DAL,16.0,83.0
25.0,5.0,1.0,22.0,0.5,26.0,26.0,0.542,48.0,0.0,0.0,4.0,0.5,52.0,16.0,0.696,23.0,4.0,4.0,NBA,133.0,12.0,16.0,PF,68.0,1987,4.0,DAL,9.0,34.0
26.0,31.0,17.0,73.0,0.454,88.0,87.0,0.463,188.0,1.0,0.143,7.0,0.451,195.0,53.0,0.803,66.0,17.0,17.0,NBA,572.0,39.0,51.0,PF,230.0,1988,25.0,DAL,30.0,112.0
28.0,8.0,2.0,12.0,0.444,16.0,16.0,0.457,35.0,0.0,0.0,1.0,0.444,36.0,13.0,0.765,17.0,3.0,3.0,NBA,118.0,10.0,17.0,SF,45.0,1990,3.0,DAL,7.0,22.0
29.0,33.0,27.0,116.0,0.572,121.0,110.0,0.576,191.0,11.0,0.367,30.0,0.548,221.0,83.0,0.761,109.0,19.0,19.0,NBA,752.0,41.0,69.0,PF,336.0,1991,15.0,LAL,37.0,157.0
31.0,37.0,25.0,100.0,0.502,98.0,68.0,0.466,146.0,30.0,0.38,79.0,0.436,225.0,48.0,0.873,55.0,19.0,17.0,NBA,626.0,33.0,55.0,PF,274.0,1993,19.0,SEA,21.0,133.0
32.0,4.0,2.0,30.0,0.405,14.0,8.0,0.286,28.0,6.0,0.429,14.0,0.333,42.0,15.0,0.882,17.0,5.0,0.0,NBA,141.0,6.0,15.0,PF,49.0,1994,4.0,SEA,6.0,36.0
33.0,13.0,5.0,25.0,0.542,21.0,11.0,0.423,26.0,10.0,0.455,22.0,0.438,48.0,2.0,1.0,2.0,4.0,2.0,NBA,141.0,6.0,12.0,C,54.0,1995,3.0,SEA,9.0,31.0
34.0,35.0,6.0,69.0,0.541,90.0,58.0,0.532,109.0,32.0,0.368,87.0,0.459,196.0,46.0,0.754,61.0,21.0,1.0,NBA,654.0,21.0,44.0,PF,258.0,1996,15.0,SEA,30.0,90.0
35.0,15.0,12.0,38.0,0.413,31.0,17.0,0.362,47.0,14.0,0.311,45.0,0.337,92.0,25.0,0.862,29.0,12.0,6.0,NBA,340.0,15.0,34.0,C,101.0,1997,12.0,SEA,13.0,53.0
36.0,14.0,5.0,26.0,0.5,16.0,6.0,0.333,18.0,10.0,0.417,24.0,0.381,42.0,12.0,0.6,20.0,10.0,1.0,NBA,210.0,6.0,22.0,PF,54.0,1998,3.0,SEA,11.0,32.0
37.0,6.0,3.0,23.0,0.671,18.0,7.0,0.636,11.0,11.0,0.458,24.0,0.514,35.0,6.0,0.667,9.0,13.0,0.0,NBA,146.0,2.0,13.0,PF,53.0,1999,0.0,IND,7.0,25.0
38.0,10.0,6.0,56.0,0.433,34.0,11.0,0.282,39.0,23.0,0.348,66.0,0.324,105.0,19.0,0.905,21.0,23.0,0.0,NBA,417.0,17.0,45.0,PF,110.0,2000,4.0,IND,8.0,73.0
39.0,0.0,0.0,3.0,0.313,2.0,1.0,0.25,4.0,1.0,0.25,4.0,0.25,8.0,0.0,0.0,0.0,3.0,0.0,NBA,19.0,1.0,3.0,PF,5.0,2001,0.0,IND,0.0,4.0
