age,ast,blk,drb,fg,fg2,fg2a,fg3,fg3a,fga,ft,fta,game_score,lg_id,mp,orb,pf,pts,season,stl,team_id,tov,trb
31.0,5.0,5.0,14.0,11.0,10.0,17.0,3.0,4.0,20.0,8.0,10.0,24.3,NBA,0.0,6.0,6.0,26.0,1996,3.0,POR,5.0,17.0
32.0,7.0,4.0,16.0,11.0,8.0,16.0,3.0,7.0,20.0,12.0,14.0,30.1,NBA,0.0,5.0,6.0,33.0,1997,3.0,POR,7.0,17.0
33.0,8.0,5.0,18.0,11.0,11.0,18.0,2.0,5.0,20.0,12.0,15.0,34.1,NBA,0.0,7.0,6.0,32.0,1998,5.0,POR,7.0,20.0
34.0,9.0,4.0,14.0,11.0,11.0,16.0,1.0,2.0,17.0,11.0,16.0,25.4,NBA,0.0,6.0,6.0,28.0,1999,3.0,POR,6.0,17.0
35.0,6.0,5.0,13.0,9.0,9.0,17.0,2.0,2.0,17.0,11.0,11.0,25.2,NBA,0.0,5.0,6.0,23.0,2000,5.0,POR,4.0,16.0
36.0,6.0,6.0,10.0,11.0,11.0,16.0,1.0,2.0,17.0,10.0,12.0,33.4,NBA,0.0,3.0,6.0,32.0,2001,3.0,POR,5.0,11.0
38.0,6.0,6.0,8.0,6.0,6.0,11.0,1.0,1.0,11.0,7.0,8.0,19.0,NBA,0.0,6.0,5.0,16.0,2003,3.0,POR,4.0,10.0
