age,ast,ast_per_g,blk,college_id,fg,fg3,fg3_pct,fg3a,fg_pct,fga,ft,ft_pct,fta,g,mp,mp_per_g,orb,pf,pts,pts_per_g,season,stl,tov,trb,trb_per_g
19.0,36.0,0.9,20.0,WISCONSIN,98.0,0.0,0.0,0.0,0.51,192.0,96.0,0.585,164.0,38.0,663.0,17.4,34.0,99.0,292.0,7.7,2014,32.0,45.0,106.0,2.8
20.0,79.0,2.0,16.0,WISCONSIN,166.0,40.0,0.396,101.0,0.497,334.0,125.0,0.744,168.0,40.0,1319.0,33.0,85.0,76.0,497.0,12.4,2015,34.0,51.0,247.0,6.2
21.0,104.0,3.0,14.0,WISCONSIN,161.0,39.0,0.293,133.0,0.368,438.0,190.0,0.736,258.0,35.0,1267.0,36.2,69.0,71.0,551.0,15.7,2016,39.0,79.0,204.0,5.8
22.0,100.0,2.7,14.0,WISCONSIN,180.0,22.0,0.314,70.0,0.457,394.0,135.0,0.587,230.0,37.0,1190.0,32.2,82.0,67.0,517.0,14.0,2017,28.0,63.0,245.0,6.6
