age,ast_per_poss,blk_per_poss,def_rtg,drb_per_poss,fg2_pct,fg2_per_poss,fg2a_per_poss,fg3_pct,fg3_per_poss,fg3a_per_poss,fg_pct,fg_per_poss,fga_per_poss,ft_pct,ft_per_poss,fta_per_poss,g,gs,lg_id,mp,off_rtg,orb_per_poss,pf_per_poss,pos,pts_per_poss,season,stl_per_poss,team_id,tov_per_poss,trb_per_poss
23.0,2.5,1.2,112.0,7.4,0.412,2.9,7.0,0.25,1.6,6.6,0.333,4.5,13.6,0.333,0.4,1.2,9.0,0.0,NBA,122.0,82.0,1.6,3.3,SF,11.1,2018,0.8,TOT,0.8,9.1
23.0,8.7,0.0,117.0,0.0,1.0,4.3,4.3,0.0,0.0,8.7,0.333,4.3,13.0,1.0,4.3,4.3,2.0,0.0,NBA,11.0,117.0,0.0,0.0,SF,13.0,2018,0.0,LAL,0.0,0.0
23.0,0.0,0.0,115.0,0.0,0.0,0.0,0.0,1.0,16.4,16.4,1.0,16.4,16.4,0.0,0.0,0.0,2.0,0.0,NBA,6.0,102.0,0.0,0.0,SF,49.3,2018,0.0,TOR,8.2,0.0
23.0,1.9,1.4,111.0,8.7,0.375,2.9,7.7,0.167,1.0,5.8,0.286,3.9,13.5,0.0,0.0,1.0,5.0,0.0,NBA,105.0,77.0,1.9,3.9,SF,8.7,2018,1.0,SAC,0.5,10.6
