age,ast_per_g,blk_per_g,drb_per_g,efg_pct,fg2_pct,fg2_per_g,fg2a_per_g,fg3_pct,fg3_per_g,fg3a_per_g,fg_pct,fg_per_g,fga_per_g,ft_pct,ft_per_g,fta_per_g,g,gs,lg_id,mp_per_g,orb_per_g,pf_per_g,pos,pts_per_g,season,stl_per_g,team_id,tov_per_g,trb_per_g
23.0,4.0,0.2,3.2,0.456,0.438,1.4,3.2,0.31,1.8,5.8,0.356,3.2,9.0,1.0,1.8,1.8,5.0,5.0,NBA,32.6,0.4,3.0,PG,10.0,1999,1.6,SAC,2.6,3.6
24.0,2.4,0.0,1.4,0.458,0.435,2.0,4.6,0.32,1.6,5.0,0.375,3.6,9.6,0.8,1.6,2.0,5.0,5.0,NBA,29.0,0.2,1.6,PG,10.4,2000,0.6,SAC,1.6,1.6
25.0,2.9,0.0,2.3,0.516,0.484,1.9,3.9,0.367,1.4,3.8,0.426,3.3,7.6,1.0,0.9,0.9,8.0,8.0,NBA,23.9,0.0,1.8,PG,8.8,2001,1.0,SAC,2.6,2.3
28.0,4.5,0.0,2.0,0.391,0.36,2.3,6.3,0.286,1.5,5.3,0.326,3.8,11.5,1.0,1.8,1.8,4.0,4.0,NBA,32.5,0.3,2.5,PG,10.8,2004,0.5,MEM,1.8,2.3
29.0,5.3,0.0,2.0,0.623,0.563,4.5,8.0,0.476,2.5,5.3,0.528,7.0,13.3,1.0,0.5,0.5,4.0,4.0,NBA,28.5,0.3,1.8,PG,17.0,2005,1.5,MEM,2.0,2.3
30.0,3.9,0.0,1.9,0.476,0.544,2.1,3.9,0.274,1.1,4.1,0.405,3.3,8.0,0.844,1.7,2.0,23.0,23.0,NBA,29.8,0.1,1.8,PG,9.3,2006,0.7,MIA,1.6,2.0
31.0,3.5,0.3,2.0,0.339,0.182,0.5,2.8,0.294,1.3,4.3,0.25,1.8,7.0,0.8,1.0,1.3,4.0,4.0,NBA,28.0,0.0,1.3,PG,5.8,2007,1.3,MIA,0.8,2.0
34.0,1.6,0.0,0.6,0.421,0.5,0.5,1.0,0.25,0.4,1.7,0.342,0.9,2.7,1.0,0.4,0.4,14.0,0.0,NBA,13.7,0.2,0.6,PG,2.6,2010,0.3,ORL,0.4,0.8
