age,ast,blk,drb,fg,fg2,fg2a,fg3,fg3a,fga,ft,fta,game_score,lg_id,mp,orb,pf,pts,season,stl,team_id,tov,trb
23.0,6.0,1.0,7.0,6.0,3.0,5.0,3.0,8.0,13.0,4.0,4.0,13.1,NBA,0.0,1.0,5.0,18.0,1999,2.0,SAC,5.0,8.0
24.0,5.0,0.0,3.0,8.0,4.0,7.0,4.0,10.0,16.0,2.0,4.0,12.4,NBA,0.0,1.0,3.0,20.0,2000,2.0,SAC,3.0,3.0
25.0,5.0,0.0,4.0,7.0,5.0,7.0,3.0,6.0,11.0,2.0,2.0,15.0,NBA,0.0,0.0,4.0,18.0,2001,2.0,SAC,6.0,4.0
28.0,8.0,0.0,4.0,5.0,4.0,11.0,3.0,7.0,15.0,5.0,5.0,12.3,NBA,0.0,1.0,4.0,16.0,2004,1.0,MEM,4.0,4.0
29.0,8.0,0.0,4.0,9.0,6.0,10.0,4.0,6.0,15.0,1.0,1.0,16.5,NBA,0.0,1.0,3.0,21.0,2005,2.0,MEM,3.0,4.0
30.0,7.0,0.0,4.0,10.0,9.0,10.0,3.0,7.0,13.0,7.0,7.0,20.1,NBA,37.0,2.0,5.0,22.0,2006,2.0,MIA,7.0,4.0
31.0,4.0,1.0,4.0,3.0,1.0,3.0,2.0,5.0,8.0,2.0,2.0,9.6,NBA,31.0,0.0,3.0,9.0,2007,3.0,MIA,1.0,4.0
34.0,5.0,0.0,2.0,2.0,2.0,3.0,2.0,4.0,5.0,2.0,2.0,9.2,NBA,19.0,2.0,2.0,6.0,2010,2.0,ORL,2.0,3.0
