age,and1s,astd_pts,drawn_offensive,drawn_shooting,fouls_offensive,fouls_shooting,g,lg_id,mp,own_shots_blk,pct_1,pct_2,pct_3,pct_4,pct_5,plus_minus_net,plus_minus_on,pos,season,team_id,tov_bad_pass,tov_lost_ball
25.0,5.0,907.0,0.0,22.0,10.0,39.0,77.0,NBA,2290.0,18.0,95.0,5.0,0.0,0.0,0.0,-2.4,5.2,PG,2001,SAC,104.0,36.0
26.0,4.0,1089.0,0.0,23.0,6.0,29.0,65.0,NBA,2236.0,14.0,90.0,10.0,0.0,0.0,0.0,1.4,-7.6,PG,2002,MEM,144.0,51.0
27.0,5.0,1392.0,0.0,29.0,7.0,54.0,76.0,NBA,2407.0,14.0,100.0,0.0,0.0,0.0,0.0,0.2,-3.4,PG,2003,MEM,117.0,34.0
28.0,5.0,1057.0,0.0,24.0,5.0,34.0,72.0,NBA,2115.0,13.0,100.0,0.0,0.0,0.0,0.0,-6.3,-0.1,PG,2004,MEM,100.0,24.0
29.0,8.0,887.0,0.0,29.0,8.0,31.0,71.0,NBA,1952.0,16.0,100.0,0.0,0.0,0.0,0.0,-2.1,1.8,PG,2005,MEM,90.0,21.0
30.0,11.0,630.0,9.0,33.0,8.0,39.0,59.0,NBA,1874.0,21.0,100.0,0.0,0.0,0.0,0.0,3.4,6.0,PG,2006,MIA,68.0,18.0
31.0,4.0,710.0,7.0,29.0,4.0,25.0,61.0,NBA,1865.0,15.0,100.0,0.0,0.0,0.0,0.0,2.5,0.6,PG,2007,MIA,72.0,14.0
32.0,7.0,659.0,5.0,32.0,2.0,41.0,67.0,NBA,1886.0,13.0,100.0,0.0,0.0,0.0,0.0,-4.0,-11.5,PG,2008,MIA,63.0,17.0
34.0,2.0,719.0,4.0,11.0,4.0,27.0,82.0,NBA,1703.0,8.0,100.0,0.0,0.0,0.0,0.0,-1.4,7.5,PG,2010,ORL,60.0,17.0
35.0,0.0,113.0,0.0,0.0,1.0,2.0,27.0,NBA,295.0,0.0,89.0,11.0,0.0,0.0,0.0,1.3,5.6,PG,2011,TOT,13.0,1.0
35.0,0.0,54.0,0.0,0.0,1.0,1.0,16.0,NBA,171.0,0.0,85.0,15.0,0.0,0.0,0.0,4.6,10.5,PG,2011,ORL,6.0,1.0
35.0,0.0,59.0,0.0,0.0,0.0,1.0,11.0,NBA,124.0,0.0,95.0,5.0,0.0,0.0,0.0,-3.9,-1.4,PG,2011,MEM,7.0,0.0
