age,ast,blk,drb,efg_pct,fg,fg2,fg2_pct,fg2a,fg3,fg3_pct,fg3a,fg_pct,fga,ft,ft_pct,fta,g,gs,lg_id,mp,orb,pf,pos,pts,season,stl,team_id,tov,trb
23.0,9.0,2.0,24.0,0.513,20.0,20.0,0.513,39.0,0.0,0.0,0.0,0.513,39.0,19.0,0.905,21.0,39.0,0.0,NBA,227.0,21.0,20.0,C,59.0,1991,6.0,CHH,4.0,45.0
24.0,0.0,1.0,4.0,0.667,6.0,6.0,0.667,9.0,0.0,0.0,0.0,0.667,9.0,9.0,0.75,12.0,11.0,0.0,NBA,61.0,10.0,10.0,C,21.0,1992,3.0,TOT,1.0,14.0
24.0,0.0,1.0,1.0,1.0,2.0,2.0,1.0,2.0,0.0,0.0,0.0,1.0,2.0,5.0,0.833,6.0,4.0,0.0,NBA,15.0,2.0,2.0,C,9.0,1992,0.0,SAC,0.0,3.0
24.0,0.0,0.0,3.0,0.571,4.0,4.0,0.571,7.0,0.0,0.0,0.0,0.571,7.0,4.0,0.667,6.0,7.0,0.0,NBA,46.0,8.0,8.0,C,12.0,1992,3.0,DEN,1.0,11.0
25.0,5.0,1.0,21.0,0.521,25.0,25.0,0.521,48.0,0.0,0.0,0.0,0.521,48.0,16.0,0.667,24.0,29.0,5.0,NBA,166.0,15.0,37.0,C,66.0,1993,6.0,SEA,5.0,36.0
26.0,6.0,0.0,15.0,0.609,28.0,28.0,0.609,46.0,0.0,0.0,0.0,0.609,46.0,19.0,0.95,20.0,35.0,1.0,NBA,152.0,11.0,25.0,C,75.0,1994,7.0,SEA,8.0,26.0
27.0,4.0,2.0,15.0,0.522,12.0,12.0,0.522,23.0,0.0,0.0,0.0,0.522,23.0,15.0,0.833,18.0,18.0,0.0,NBA,102.0,8.0,9.0,C,39.0,1995,2.0,SEA,3.0,23.0
28.0,2.0,2.0,18.0,0.544,24.0,23.0,0.575,40.0,1.0,0.2,5.0,0.533,45.0,9.0,0.474,19.0,35.0,2.0,NBA,181.0,15.0,25.0,C,58.0,1996,6.0,SEA,8.0,33.0
29.0,0.0,0.0,2.0,0.857,6.0,6.0,0.857,7.0,0.0,0.0,0.0,0.857,7.0,1.0,0.5,2.0,7.0,0.0,NBA,29.0,1.0,5.0,C,13.0,1997,0.0,SEA,5.0,3.0
