age,ast_pct,blk_pct,bpm,bpm-dum,dbpm,drb_pct,dws,fg3a_per_fga_pct,fta_per_fga_pct,g,lg_id,mp,obpm,orb_pct,ows,per,pos,season,stl_pct,team_id,tov_pct,trb_pct,ts_pct,usg_pct,vorp,ws,ws-dum,ws_per_48
23.0,5.3,0.5,-1.1,0.0,-0.5,12.5,0.1,0.0,0.538,39.0,NBA,227.0,-0.5,10.3,0.5,12.4,C,1991,1.3,CHH,7.7,11.4,0.612,9.8,0.1,0.6,0.0,0.132
24.0,0.0,1.0,-1.8,0.0,-3.0,7.4,0.0,0.0,1.333,11.0,NBA,61.0,1.3,16.9,0.2,16.6,C,1992,2.4,TOT,6.5,12.4,0.735,10.3,0.0,0.3,0.0,0.22
24.0,0.0,3.9,1.1,0.0,-5.0,7.2,0.0,0.0,3.0,4.0,NBA,15.0,6.1,14.3,0.1,27.1,C,1992,0.0,SAC,0.0,10.8,0.97,12.9,0.0,0.1,0.0,0.407
24.0,0.0,0.0,-2.7,0.0,-2.4,7.5,0.0,0.0,0.857,7.0,NBA,46.0,-0.3,17.7,0.1,13.2,C,1992,3.2,DEN,9.4,12.9,0.622,9.4,0.0,0.2,0.0,0.159
25.0,4.1,0.4,-2.0,0.0,-1.5,15.0,0.2,0.0,0.5,29.0,NBA,166.0,-0.4,10.4,0.4,13.1,C,1993,1.8,SEA,7.9,12.7,0.564,16.1,0.0,0.6,0.0,0.163
26.0,6.0,0.0,0.0,0.0,-1.5,11.7,0.2,0.0,0.435,35.0,NBA,152.0,1.5,8.6,0.5,17.7,C,1994,2.3,SEA,12.7,10.1,0.684,17.7,0.1,0.7,0.0,0.228
27.0,5.5,1.5,-1.5,0.0,-1.2,17.1,0.1,0.0,0.783,18.0,NBA,102.0,-0.3,9.5,0.3,16.1,C,1995,1.0,SEA,8.8,13.4,0.631,14.4,0.0,0.4,0.0,0.193
28.0,1.7,0.9,-4.5,0.0,-1.4,11.2,0.3,0.111,0.422,35.0,NBA,181.0,-3.0,10.3,0.1,10.3,C,1996,1.7,SEA,13.0,10.8,0.543,15.1,-0.1,0.4,0.0,0.096
29.0,0.0,0.0,-11.4,0.0,-5.3,8.3,0.0,0.0,0.286,7.0,NBA,29.0,-6.2,4.2,0.0,7.2,C,1997,0.0,SEA,38.8,6.2,0.825,20.3,-0.1,0.0,0.0,-0.056
