age,ast_per_poss,blk_per_poss,def_rtg,drb_per_poss,fg2_pct,fg2_per_poss,fg2a_per_poss,fg3_pct,fg3_per_poss,fg3a_per_poss,fg_pct,fg_per_poss,fga_per_poss,ft_pct,ft_per_poss,fta_per_poss,g,gs,lg_id,mp,off_rtg,orb_per_poss,pf_per_poss,pos,pts_per_poss,season,stl_per_poss,team_id,tov_per_poss,trb_per_poss
22.0,2.5,0.4,114.0,5.4,0.547,4.3,7.9,0.308,1.9,6.2,0.442,6.2,14.1,0.722,0.9,1.2,68.0,41.0,NBA,1506.0,103.0,0.9,2.7,SF,15.2,2018,0.9,SAC,1.3,6.3
23.0,2.8,0.4,114.0,4.9,0.542,3.8,7.0,0.355,2.5,7.2,0.447,6.3,14.2,0.785,1.8,2.3,81.0,14.0,NBA,1614.0,117.0,1.3,2.9,SF,17.0,2019,0.9,TOT,0.8,6.2
23.0,2.9,0.6,114.0,5.2,0.515,3.0,5.8,0.346,2.4,6.8,0.424,5.4,12.7,0.82,1.8,2.1,52.0,3.0,NBA,1083.0,114.0,1.1,2.9,SF,14.9,2019,1.0,SAC,0.9,6.3
23.0,2.6,0.1,115.0,4.3,0.577,5.5,9.5,0.372,2.9,7.9,0.484,8.4,17.4,0.724,1.9,2.6,29.0,11.0,NBA,531.0,121.0,1.7,2.9,SF,21.6,2019,0.8,DAL,0.6,6.0
24.0,1.1,0.0,114.0,6.8,0.542,4.6,8.6,0.455,3.6,7.9,0.5,8.2,16.5,0.8,2.9,3.6,10.0,0.0,NBA,134.0,123.0,2.1,3.2,SF,22.9,2020,0.4,DAL,1.4,8.9
