age,avg_dist,fg2_dunk,fg2_pct,fg2_pct_ast,fg2a_pct_fga,fg3_heave,fg3_pct,fg3_pct_ast,fg3_pct_corner,fg3a_heave,fg3a_pct_fga,fg_pct,fg_pct_00_03,fg_pct_03_10,fg_pct_10_16,fg_pct_16_xx,g,lg_id,mp,pct_fg2_dunk,pct_fg3a_corner,pct_fga_00_03,pct_fga_03_10,pct_fga_10_16,pct_fga_16_xx,pos,season,team_id
22.0,5.5,28.0,0.544,0.529,1.0,0.0,0.0,0.0,0.0,0.0,0.0,0.544,0.694,0.294,0.429,0.318,56.0,NBA,634.0,0.232,0.0,0.576,0.136,0.112,0.176,C,2007,NOK
23.0,4.1,22.0,0.453,0.463,1.0,0.0,0.0,0.0,0.0,0.0,0.0,0.453,0.564,0.28,0.238,0.25,65.0,NBA,732.0,0.182,0.0,0.635,0.169,0.142,0.054,C,2008,NOH
24.0,5.1,60.0,0.566,0.587,0.992,0.0,0.0,0.0,0.0,2.0,0.008,0.561,0.696,0.444,0.353,0.333,70.0,NBA,1092.0,0.264,0.0,0.561,0.22,0.138,0.073,C,2009,NOH
25.0,6.8,10.0,0.359,0.714,0.987,0.0,0.0,0.0,0.0,0.0,0.013,0.354,0.5,0.316,0.182,0.167,33.0,NBA,335.0,0.177,0.0,0.456,0.241,0.139,0.152,PF-C,2010,TOT
25.0,6.3,7.0,0.38,0.842,1.0,0.0,0.0,0.0,0.0,0.0,0.0,0.38,0.56,0.364,0.0,0.125,18.0,NBA,239.0,0.18,0.0,0.5,0.22,0.12,0.16,PF,2010,NOH
25.0,5.3,2.0,0.333,0.5,1.0,0.0,0.0,0.0,0.0,0.0,0.0,0.333,0.5,0.333,0.0,0.0,6.0,NBA,56.0,0.25,0.0,0.5,0.25,0.167,0.083,C,2010,SAC
25.0,9.2,1.0,0.313,0.4,0.941,0.0,0.0,0.0,0.0,0.0,0.059,0.294,0.2,0.2,0.667,0.333,9.0,NBA,40.0,0.118,0.0,0.294,0.294,0.176,0.176,C,2010,HOU
26.0,8.6,10.0,0.486,0.514,0.947,0.0,0.5,0.0,0.0,0.0,0.053,0.487,0.621,0.421,0.231,0.545,53.0,NBA,488.0,0.145,0.0,0.382,0.25,0.171,0.145,C,2011,TOT
26.0,8.2,9.0,0.492,0.567,0.953,0.0,0.333,0.0,0.0,0.0,0.047,0.484,0.64,0.471,0.25,0.429,41.0,NBA,412.0,0.156,0.0,0.391,0.266,0.188,0.109,C,2011,WAS
26.0,10.7,1.0,0.455,0.2,0.917,0.0,1.0,0.0,0.0,0.0,0.083,0.5,0.5,0.0,0.0,0.75,12.0,NBA,76.0,0.083,0.0,0.333,0.167,0.083,0.333,C,2011,ATL
29.0,6.9,3.0,0.474,0.444,1.0,0.0,0.0,0.0,0.0,0.0,0.0,0.474,0.778,0.0,0.2,0.5,15.0,NBA,97.0,0.158,0.0,0.474,0.158,0.263,0.105,C,2014,GSW
