age,ast,blk,drb,efg_pct,fg,fg2,fg2_pct,fg2a,fg3,fg3_pct,fg3a,fg_pct,fga,ft,ft_pct,fta,g,gs,lg_id,mp,orb,pf,pos,pts,season,stl,team_id,tov,trb
23.0,0.0,6.0,11.0,0.615,8.0,8.0,0.615,13.0,0.0,0.0,0.0,0.615,13.0,5.0,0.5,10.0,8.0,0.0,NBA,72.0,9.0,12.0,C,21.0,2008,0.0,NOH,4.0,20.0
24.0,1.0,1.0,5.0,0.462,6.0,6.0,0.462,13.0,0.0,0.0,0.0,0.462,13.0,3.0,0.3,10.0,4.0,1.0,NBA,53.0,3.0,15.0,C,15.0,2009,4.0,NOH,6.0,8.0
26.0,1.0,0.0,6.0,0.2,1.0,1.0,0.2,5.0,0.0,0.0,0.0,0.2,5.0,3.0,0.5,6.0,8.0,0.0,NBA,35.0,4.0,7.0,C,5.0,2011,3.0,ATL,2.0,10.0
29.0,2.0,2.0,1.0,0.5,4.0,4.0,0.571,7.0,0.0,0.0,1.0,0.5,8.0,0.0,0.0,2.0,7.0,0.0,NBA,17.0,3.0,6.0,C,8.0,2014,0.0,GSW,4.0,4.0
