age,ast_per_g,blk_per_g,drb_per_g,efg_pct,fg2_pct,fg2_per_g,fg2a_per_g,fg3_pct,fg3_per_g,fg3a_per_g,fg_pct,fg_per_g,fga_per_g,ft_pct,ft_per_g,fta_per_g,g,gs,lg_id,mp_per_g,orb_per_g,pf_per_g,pos,pts_per_g,season,stl_per_g,team_id,tov_per_g,trb_per_g
22.0,0.2,0.5,1.6,0.544,0.544,1.2,2.2,0.0,0.0,0.0,0.544,1.2,2.2,0.597,0.7,1.2,56.0,5.0,NBA,11.3,1.0,1.4,C,3.1,2007,0.2,NOK,0.6,2.7
23.0,0.4,0.5,1.5,0.453,0.453,1.0,2.3,0.0,0.0,0.0,0.453,1.0,2.3,0.629,0.7,1.1,65.0,3.0,NBA,11.3,1.0,2.0,C,2.7,2008,0.2,NOH,0.9,2.5
24.0,0.4,0.6,1.6,0.561,0.566,2.0,3.5,0.0,0.0,0.0,0.561,2.0,3.5,0.633,0.9,1.4,70.0,29.0,NBA,15.6,1.2,2.6,C,4.8,2009,0.4,NOH,1.1,2.8
25.0,0.6,0.4,1.6,0.354,0.359,0.8,2.4,0.0,0.0,0.0,0.354,0.8,2.4,0.469,0.5,1.0,33.0,0.0,NBA,10.2,0.8,1.8,PF-C,2.2,2010,0.5,TOT,0.7,2.5
25.0,0.9,0.4,2.4,0.38,0.38,1.1,2.8,0.0,0.0,0.0,0.38,1.1,2.8,0.464,0.7,1.6,18.0,0.0,NBA,13.3,0.9,2.4,PF,2.8,2010,0.4,NOH,0.7,3.4
25.0,0.3,0.7,1.5,0.333,0.333,0.7,2.0,0.0,0.0,0.0,0.333,0.7,2.0,1.0,0.3,0.3,6.0,0.0,NBA,9.3,0.8,0.8,C,1.7,2010,0.3,SAC,0.7,2.3
25.0,0.3,0.0,0.1,0.294,0.313,0.6,1.8,0.0,0.0,0.1,0.294,0.6,1.9,0.0,0.0,0.2,9.0,0.0,NBA,4.4,0.6,1.1,C,1.1,2010,0.6,HOU,0.6,0.7
26.0,0.3,0.4,1.7,0.5,0.486,0.7,1.4,0.5,0.0,0.1,0.487,0.7,1.4,0.485,0.3,0.6,53.0,2.0,NBA,9.2,0.8,1.6,C,1.7,2011,0.3,TOT,0.5,2.5
26.0,0.2,0.4,1.8,0.492,0.492,0.7,1.5,0.333,0.0,0.1,0.484,0.8,1.6,0.609,0.3,0.6,41.0,2.0,NBA,10.0,1.0,1.8,C,1.9,2011,0.4,WAS,0.6,2.8
26.0,0.3,0.4,1.2,0.542,0.455,0.4,0.9,1.0,0.1,0.1,0.5,0.5,1.0,0.2,0.2,0.8,12.0,0.0,NBA,6.3,0.3,0.8,C,1.3,2011,0.3,ATL,0.3,1.4
29.0,0.3,0.3,1.9,0.474,0.474,0.6,1.3,0.0,0.0,0.0,0.474,0.6,1.3,0.438,0.5,1.1,15.0,1.0,NBA,6.5,1.3,0.7,C,1.7,2014,0.3,GSW,0.4,3.1
