lg_id,salary,season,team_name
NBA,1767600.0,2007,New Orleans/Oklahoma City Hornets
NBA,1900200.0,2008,New Orleans Hornets
NBA,2032800.0,2009,New Orleans Hornets
NBA,2801198.0,2010,Houston Rockets
NBA,992680.0,2011,Atlanta Hawks
