age,ast_per_mp,blk_per_mp,drb_per_mp,fg2_pct,fg2_per_mp,fg2a_per_mp,fg3_pct,fg3_per_mp,fg3a_per_mp,fg_pct,fg_per_mp,fga_per_mp,ft_pct,ft_per_mp,fta_per_mp,g,gs,lg_id,mp,orb_per_mp,pf_per_mp,pos,pts_per_mp,season,stl_per_mp,team_id,tov_per_mp,trb_per_mp
20.0,3.1,1.0,4.6,0.5,4.1,8.2,0.214,1.5,7.2,0.367,5.7,15.4,0.75,1.5,2.1,4.0,0.0,NBA,70.0,1.5,5.1,C,14.4,2018,1.5,POR,1.0,6.2
21.0,1.8,2.9,5.4,0.567,4.5,7.9,0.333,0.9,2.7,0.506,5.4,10.6,0.8,2.6,3.3,16.0,0.0,NBA,275.0,2.1,7.1,C,14.3,2019,0.9,POR,2.6,7.5
