age,ast_pct,blk_pct,bpm,bpm-dum,dbpm,drb_pct,dws,fg3a_per_fga_pct,fta_per_fga_pct,g,lg_id,mp,obpm,orb_pct,ows,per,pos,season,stl_pct,team_id,tov_pct,trb_pct,ts_pct,usg_pct,vorp,ws,ws-dum,ws_per_48
20.0,7.1,2.4,-3.2,0.0,0.9,18.2,1.3,0.391,0.145,66.0,NBA,1045.0,-4.1,4.7,-0.7,7.5,C,2018,0.8,POR,15.9,11.5,0.475,15.4,-0.3,0.6,0.0,0.03
21.0,7.1,3.9,0.1,0.0,1.0,16.5,1.5,0.303,0.315,77.0,NBA,1356.0,-0.9,8.8,1.4,13.5,C,2019,0.9,POR,14.5,12.7,0.562,16.6,0.7,2.9,0.0,0.104
22.0,9.2,1.9,-1.6,0.0,-0.7,9.5,0.0,0.368,0.316,3.0,NBA,86.0,-0.9,4.7,0.1,9.6,PF,2020,0.0,POR,21.7,7.1,0.624,13.3,0.0,0.1,0.0,0.06
