article_url,date,headline
https://ripcityproject.com/2019/11/08/portland-trail-blazers-vs-nets-odds-updates-game-predictions/,2019/11/08,"Rip City Project: Trail Blazers vs Nets: Odds, updates, game predictions"
https://hoopshabit.com/2019/11/08/portland-trail-blazers-college-players-watch/,2019/11/08,Hoops Habit: College players to keep an eye on for the Portland Trail Blazers
https://the-barnburner.com/2019/11/07/joshs-week-2-takeaways/,2019/11/07,The BarnBurner: Josh’s Week 2 Takeaways
https://ripcityproject.com/2019/11/07/portland-trail-blazers-little-trent-help/,2019/11/07,Rip City Project: Trail Blazers: Can Nassir Little and Gary Trent Jr. help this team?
