age,ast_per_poss,blk_per_poss,def_rtg,drb_per_poss,fg2_pct,fg2_per_poss,fg2a_per_poss,fg3_pct,fg3_per_poss,fg3a_per_poss,fg_pct,fg_per_poss,fga_per_poss,ft_pct,ft_per_poss,fta_per_poss,g,gs,lg_id,mp,off_rtg,orb_per_poss,pf_per_poss,pos,pts_per_poss,season,stl_per_poss,team_id,tov_per_poss,trb_per_poss
20.0,4.2,1.4,114.0,6.3,0.5,5.6,11.1,0.214,2.1,9.7,0.367,7.6,20.8,0.75,2.1,2.8,4.0,0.0,NBA,70.0,100.0,2.1,6.9,C,19.4,2018,2.1,POR,1.4,8.3
21.0,2.5,4.0,109.0,7.5,0.567,6.2,10.9,0.333,1.3,3.8,0.506,7.5,14.7,0.8,3.6,4.5,16.0,0.0,NBA,275.0,108.0,2.9,9.8,C,19.8,2019,1.3,POR,3.6,10.4
