age,ast,blk,drb,efg_pct,fg,fg2,fg2_pct,fg2a,fg3,fg3_pct,fg3a,fg_pct,fga,ft,ft_pct,fta,g,gs,lg_id,mp,orb,pf,pos,pts,season,stl,team_id,tov,trb
27.0,2.0,2.0,10.0,0.474,26.0,24.0,0.49,49.0,2.0,0.25,8.0,0.456,57.0,11.0,0.733,15.0,5.0,0.0,NBA,109.0,15.0,15.0,SF,65.0,2004,5.0,DAL,5.0,25.0
28.0,12.0,4.0,47.0,0.503,73.0,56.0,0.438,128.0,17.0,0.5,34.0,0.451,162.0,22.0,0.688,32.0,10.0,10.0,NBA,380.0,16.0,24.0,PF,185.0,2005,7.0,WAS,16.0,63.0
29.0,18.0,2.0,34.0,0.475,42.0,32.0,0.478,67.0,10.0,0.313,32.0,0.424,99.0,21.0,0.778,27.0,6.0,6.0,NBA,253.0,9.0,23.0,SF,115.0,2006,6.0,WAS,11.0,43.0
30.0,5.0,4.0,26.0,0.519,49.0,40.0,0.519,77.0,9.0,0.346,26.0,0.476,103.0,21.0,0.75,28.0,4.0,4.0,NBA,173.0,13.0,13.0,PF,128.0,2007,2.0,WAS,7.0,39.0
31.0,6.0,8.0,53.0,0.443,39.0,32.0,0.451,71.0,7.0,0.28,25.0,0.406,96.0,16.0,0.571,28.0,6.0,6.0,NBA,237.0,19.0,17.0,PF,101.0,2008,8.0,WAS,10.0,72.0
33.0,14.0,11.0,65.0,0.504,64.0,54.0,0.551,98.0,10.0,0.256,39.0,0.467,137.0,30.0,0.732,41.0,11.0,11.0,NBA,375.0,16.0,38.0,PF,168.0,2010,7.0,CLE,18.0,81.0
36.0,1.0,2.0,6.0,0.543,10.0,5.0,0.455,11.0,5.0,0.417,12.0,0.435,23.0,4.0,0.667,6.0,4.0,0.0,NBA,79.0,1.0,9.0,PF,29.0,2013,1.0,LAL,3.0,7.0
