age,and1s,astd_pts,drawn_offensive,drawn_shooting,fouls_offensive,fouls_shooting,g,lg_id,mp,own_shots_blk,pct_1,pct_2,pct_3,pct_4,pct_5,plus_minus_net,plus_minus_on,pos,season,team_id,tov_bad_pass,tov_lost_ball
24.0,53.0,352.0,0.0,211.0,33.0,101.0,82.0,NBA,3394.0,98.0,0.0,1.0,42.0,56.0,1.0,8.9,-8.4,SF,2001,GSW,81.0,65.0
25.0,44.0,348.0,0.0,159.0,27.0,85.0,82.0,NBA,3033.0,80.0,0.0,0.0,74.0,25.0,1.0,-1.8,-6.3,SF,2002,GSW,66.0,49.0
26.0,35.0,351.0,0.0,170.0,25.0,101.0,82.0,NBA,3226.0,64.0,0.0,4.0,84.0,12.0,0.0,-5.3,-2.1,SF,2003,GSW,73.0,61.0
27.0,23.0,162.0,0.0,122.0,11.0,92.0,82.0,NBA,2376.0,60.0,0.0,2.0,72.0,26.0,1.0,2.1,5.7,SF,2004,DAL,46.0,19.0
28.0,30.0,349.0,0.0,112.0,16.0,74.0,68.0,NBA,2605.0,42.0,0.0,0.0,18.0,80.0,3.0,6.7,2.0,PF,2005,WAS,55.0,39.0
29.0,30.0,360.0,20.0,109.0,17.0,122.0,82.0,NBA,3288.0,60.0,0.0,1.0,53.0,45.0,1.0,8.3,3.4,SF,2006,WAS,60.0,47.0
30.0,31.0,313.0,14.0,128.0,16.0,118.0,70.0,NBA,2662.0,46.0,0.0,0.0,14.0,80.0,7.0,4.7,0.7,PF,2007,WAS,42.0,35.0
31.0,48.0,283.0,20.0,200.0,12.0,106.0,79.0,NBA,3061.0,56.0,0.0,0.0,30.0,69.0,1.0,14.0,2.7,PF,2008,WAS,50.0,36.0
32.0,52.0,338.0,11.0,209.0,15.0,138.0,81.0,NBA,3096.0,63.0,0.0,0.0,15.0,84.0,2.0,0.3,-8.2,PF,2009,WAS,60.0,35.0
33.0,27.0,193.0,19.0,130.0,17.0,110.0,66.0,NBA,2406.0,46.0,0.0,0.0,7.0,91.0,1.0,-0.5,0.5,PF,2010,TOT,36.0,32.0
33.0,18.0,120.0,14.0,96.0,14.0,67.0,41.0,NBA,1595.0,31.0,0.0,0.0,7.0,93.0,0.0,2.9,-3.8,PF,2010,WAS,24.0,22.0
33.0,9.0,73.0,5.0,34.0,3.0,43.0,25.0,NBA,811.0,15.0,0.0,0.0,8.0,88.0,4.0,2.1,9.1,PF,2010,CLE,12.0,10.0
34.0,26.0,219.0,8.0,93.0,11.0,85.0,56.0,NBA,1842.0,30.0,0.0,0.0,1.0,99.0,0.0,-1.1,-10.1,PF,2011,CLE,42.0,20.0
35.0,26.0,296.0,6.0,114.0,12.0,90.0,65.0,NBA,2151.0,52.0,0.0,0.0,0.0,99.0,1.0,0.5,-7.3,PF,2012,CLE,39.0,29.0
36.0,15.0,115.0,3.0,60.0,5.0,76.0,76.0,NBA,1636.0,28.0,0.0,0.0,33.0,65.0,2.0,0.0,1.6,PF,2013,LAL,32.0,10.0
37.0,2.0,18.0,1.0,11.0,1.0,18.0,22.0,NBA,248.0,3.0,0.0,0.0,0.0,99.0,1.0,4.8,11.6,PF,2014,LAC,2.0,1.0
