article_url,date,headline
https://thunderousintentions.com/2019/11/08/okc-thunder-news-youngsters-offering-promise-week-three-action/,2019/11/08,Thunderous Intentions: OKC Thunder news - youngsters offering promise through week three of action
https://fansided.com/2019/10/30/markelle-fultz-relearning-orlando-magic/,2019/10/30,FanSided: Markelle Fultz is relearning how to be a star
https://hoopshabit.com/2019/07/29/minnesota-timberwolves-5-worst-mistakes-franchise-history/,2019/07/29,Hoops Habit: Minnesota Timberwolves: 5 worst mistakes in franchise history
https://thunderousintentions.com/2019/07/13/okc-thunder-sam-presti-lessons-rebuild/,2019/07/13,Thunderous Intentions: Lessons Sam Presti can learn from counterparts in Thunder rebuild
