lg_id,salary,season,team_name
NBA,1254720.0,2011,Portland Trail Blazers
NBA,1348800.0,2012,Portland Trail Blazers
NBA,1442880.0,2013,Portland Trail Blazers
NBA,107676.0,2015,New Orleans Pelicans
NBA,53838.0,2015,Utah Jazz
NBA,53838.0,2015,Charlotte Hornets
NBA,80000.0,2016,Charlotte Hornets
NBA,55722.0,2016,Memphis Grizzlies
NBA,250000.0,2017,Golden State Warriors
