age,ast,blk,drb,fg,fg2,fg2a,fg3,fg3a,fga,ft,fta,game_score,lg_id,mp,orb,pf,pts,season,stl,team_id,tov,trb
22.0,1.0,1.0,3.0,7.0,7.0,9.0,2.0,4.0,10.0,3.0,6.0,13.9,NBA,18,2.0,2.0,17.0,2012,2.0,POR,2.0,3.0
24.0,6.0,1.0,5.0,6.0,5.0,9.0,3.0,5.0,11.0,8.0,10.0,15.8,NBA,30,3.0,5.0,15.0,2014,4.0,PHI,4.0,6.0
25.0,3.0,0.0,2.0,3.0,2.0,4.0,3.0,4.0,6.0,1.0,2.0,10.0,NBA,22,0.0,3.0,10.0,2015,2.0,TOT,3.0,2.0
25.0,3.0,0.0,1.0,3.0,1.0,3.0,3.0,3.0,6.0,1.0,2.0,10.0,NBA,22,0.0,1.0,10.0,2015,2.0,UTA,3.0,1.0
25.0,3.0,0.0,2.0,3.0,2.0,4.0,2.0,4.0,6.0,0.0,2.0,5.2,NBA,17,0.0,3.0,8.0,2015,1.0,NOP,0.0,2.0
26.0,2.0,0.0,3.0,1.0,1.0,2.0,1.0,1.0,3.0,2.0,2.0,4.5,NBA,20,1.0,1.0,4.0,2016,0.0,MEM,1.0,4.0
