age,ast_per_g,blk_per_g,drb_per_g,efg_pct,fg2_pct,fg2_per_g,fg2a_per_g,fg3_pct,fg3_per_g,fg3a_per_g,fg_pct,fg_per_g,fga_per_g,ft_pct,ft_per_g,fta_per_g,g,gs,lg_id,mp_per_g,orb_per_g,pf_per_g,pos,pts_per_g,season,stl_per_g,team_id,tov_per_g,trb_per_g
22.0,0.3,0.1,0.5,0.554,0.617,1.2,2.0,0.296,0.3,1.1,0.5,1.5,3.1,0.333,0.3,0.8,24.0,0.0,NBA,6.2,0.3,0.8,SG,3.7,2012,0.3,POR,0.2,0.8
24.0,1.1,0.0,1.5,0.47,0.486,1.5,3.2,0.296,0.6,1.9,0.415,2.1,5.0,0.731,1.3,1.8,67.0,2.0,NBA,17.3,0.4,1.9,SG,6.0,2014,0.5,PHI,1.0,1.9
25.0,0.9,0.0,0.6,0.486,0.316,0.5,1.5,0.444,0.6,1.4,0.378,1.1,2.8,0.25,0.1,0.3,13.0,0.0,NBA,9.2,0.0,0.9,SG,2.8,2015,0.3,TOT,0.3,0.6
25.0,0.8,0.0,0.6,0.654,0.167,0.2,1.2,0.714,1.0,1.4,0.462,1.2,2.6,0.5,0.2,0.4,5.0,0.0,NBA,8.4,0.0,0.2,SG,3.6,2015,0.4,UTA,0.8,0.6
25.0,1.0,0.0,0.6,0.396,0.385,0.6,1.6,0.273,0.4,1.4,0.333,1.0,3.0,0.0,0.0,0.3,8.0,0.0,NBA,9.6,0.0,1.4,SG,2.4,2015,0.3,NOP,0.0,0.6
26.0,0.8,0.0,0.6,0.25,0.167,0.2,1.2,0.25,0.2,0.8,0.2,0.4,2.0,0.75,0.6,0.8,5.0,0.0,NBA,9.0,0.2,0.4,PG,1.6,2016,0.0,MEM,0.2,0.8
