age,ast,blk,drb,fg,fg2,fg2a,fg3,fg3a,fga,ft,fta,game_score,lg_id,mp,orb,pf,pts,season,stl,team_id,tov,trb
22.0,2.0,3.0,7.0,5.0,3.0,3.0,2.0,5.0,8.0,2.0,2.0,12.4,NBA,21,1.0,4.0,12.0,2016,2.0,BOS,3.0,7.0
23.0,0.0,0.0,1.0,0.0,0.0,0.0,0.0,1.0,1.0,0.0,0.0,0.3,NBA,4,0.0,0.0,0.0,2017,0.0,CHI,0.0,1.0
24.0,1.0,0.0,4.0,7.0,4.0,5.0,3.0,11.0,16.0,2.0,2.0,10.5,NBA,30,0.0,5.0,19.0,2018,2.0,HOU,2.0,4.0
25.0,3.0,0.0,2.0,6.0,2.0,3.0,4.0,10.0,13.0,1.0,2.0,13.1,NBA,26,1.0,3.0,17.0,2019,1.0,BOS,0.0,3.0
