age,ast,ast_per_g,blk,college_id,fg,fg3,fg3_pct,fg3a,fg_pct,fga,ft,ft_pct,fta,g,mp,mp_per_g,orb,pf,pts,pts_per_g,season,stl,tov,trb,trb_per_g
18.0,97.0,3.5,8.0,TULSA,153.0,75.0,0.408,184.0,0.426,359.0,89.0,0.748,119.0,28.0,0.0,0.0,0.0,52.0,470.0,16.8,1994,51.0,69.0,182.0,6.5
19.0,127.0,4.0,10.0,TULSA,182.0,80.0,0.336,238.0,0.389,468.0,157.0,0.793,198.0,32.0,0.0,0.0,0.0,63.0,601.0,18.8,1995,52.0,93.0,222.0,6.9
20.0,66.0,2.2,12.0,TULSA,161.0,59.0,0.294,201.0,0.379,425.0,131.0,0.652,201.0,30.0,0.0,0.0,0.0,71.0,512.0,17.1,1996,55.0,71.0,172.0,5.7
21.0,98.0,2.9,5.0,TULSA,231.0,85.0,0.301,282.0,0.394,586.0,158.0,0.648,244.0,34.0,1114.0,32.8,0.0,67.0,705.0,20.7,1997,64.0,107.0,201.0,5.9
