age,ast,ast_per_g,blk,college_id,fg,fg3,fg3_pct,fg3a,fg_pct,fga,ft,ft_pct,fta,g,mp,mp_per_g,orb,pf,pts,pts_per_g,season,stl,tov,trb,trb_per_g
19.0,21.0,1.1,0.0,KANSASST,49.0,17.0,0.347,49.0,0.395,124.0,23.0,0.622,37.0,20.0,377.0,18.9,0.0,0.0,138.0,6.9,2004,4.0,0.0,60.0,3.0
20.0,53.0,1.8,3.0,KANSASST,112.0,33.0,0.423,78.0,0.469,239.0,48.0,0.686,70.0,29.0,831.0,28.7,0.0,0.0,305.0,10.5,2005,25.0,0.0,139.0,4.8
21.0,52.0,1.9,6.0,KANSASST,161.0,50.0,0.427,117.0,0.472,341.0,132.0,0.841,157.0,28.0,919.0,32.8,0.0,0.0,504.0,18.0,2006,27.0,0.0,186.0,6.6
22.0,45.0,1.3,8.0,KANSASST,197.0,78.0,0.386,202.0,0.46,428.0,127.0,0.799,159.0,35.0,963.0,27.5,0.0,0.0,599.0,17.1,2007,24.0,0.0,155.0,4.4
