age,ast,blk,drb,fg,fg2,fg2a,fg3,fg3a,fga,ft,fta,game_score,lg_id,mp,orb,pf,pts,season,stl,team_id,tov,trb
29.0,0.0,0.0,2.0,2.0,2.0,2.0,0.0,0.0,2.0,0.0,0.0,4.3,NBA,11,1.0,1.0,4.0,2014,1.0,TOT,1.0,3.0
29.0,0.0,0.0,2.0,2.0,2.0,2.0,0.0,0.0,2.0,0.0,0.0,4.3,NBA,11,1.0,1.0,4.0,2014,1.0,ATL,1.0,3.0
