age,and1s,astd_pts,drawn_offensive,drawn_shooting,fouls_offensive,fouls_shooting,g,lg_id,mp,own_shots_blk,pct_1,pct_2,pct_3,pct_4,pct_5,plus_minus_net,plus_minus_on,pos,season,team_id,tov_bad_pass,tov_lost_ball
24.0,1.0,26.0,8.0,9.0,3.0,13.0,33.0,NBA,266.0,5.0,0.0,34.0,65.0,2.0,0.0,9.2,7.2,SF,2009,CHA,1.0,3.0
25.0,4.0,36.0,8.0,15.0,2.0,30.0,18.0,NBA,390.0,6.0,0.0,26.0,69.0,5.0,0.0,5.1,0.3,SF,2010,TOT,11.0,5.0
25.0,3.0,21.0,6.0,10.0,1.0,24.0,10.0,NBA,276.0,3.0,0.0,30.0,64.0,7.0,0.0,7.0,2.8,SF,2010,GSW,7.0,5.0
25.0,1.0,15.0,2.0,5.0,1.0,6.0,8.0,NBA,114.0,3.0,0.0,19.0,81.0,0.0,0.0,-1.0,-6.5,SF,2010,WAS,4.0,0.0
26.0,1.0,39.0,5.0,16.0,3.0,25.0,52.0,NBA,542.0,8.0,0.0,23.0,75.0,2.0,0.0,11.5,1.8,SF,2011,WAS,7.0,4.0
27.0,2.0,20.0,3.0,8.0,2.0,16.0,17.0,NBA,391.0,2.0,0.0,12.0,87.0,1.0,0.0,11.0,3.6,SF,2012,WAS,4.0,5.0
28.0,2.0,44.0,6.0,13.0,6.0,28.0,41.0,NBA,694.0,7.0,0.0,38.0,62.0,0.0,0.0,-1.7,-4.4,SF,2013,WAS,11.0,8.0
29.0,8.0,79.0,6.0,23.0,5.0,30.0,59.0,NBA,870.0,9.0,0.0,21.0,76.0,4.0,0.0,-8.3,-6.5,SF,2014,TOT,18.0,7.0
29.0,8.0,75.0,6.0,22.0,5.0,30.0,53.0,NBA,822.0,9.0,0.0,19.0,77.0,4.0,0.0,-7.5,-6.3,SF,2014,ATL,17.0,7.0
29.0,0.0,4.0,0.0,1.0,0.0,0.0,6.0,NBA,48.0,0.0,0.0,45.0,51.0,4.0,0.0,-12.3,-10.1,SF,2014,CHI,1.0,0.0
30.0,0.0,28.0,2.0,0.0,2.0,9.0,23.0,NBA,198.0,3.0,0.0,55.0,45.0,0.0,0.0,6.8,5.0,SF,2015,DET,0.0,2.0
