age,ast_per_poss,blk_per_poss,def_rtg,drb_per_poss,fg2_pct,fg2_per_poss,fg2a_per_poss,fg3_pct,fg3_per_poss,fg3a_per_poss,fg_pct,fg_per_poss,fga_per_poss,ft_pct,ft_per_poss,fta_per_poss,g,gs,lg_id,mp,off_rtg,orb_per_poss,pf_per_poss,pos,pts_per_poss,season,stl_per_poss,team_id,tov_per_poss,trb_per_poss
24.0,2.7,0.8,107.0,5.3,0.409,3.7,9.0,0.303,2.0,6.7,0.364,5.7,15.7,0.8,4.1,5.1,33.0,1.0,NBA,266.0,103.0,1.4,6.7,SF,17.6,2009,1.6,CHA,1.8,6.7
25.0,2.0,0.1,113.0,5.4,0.379,4.2,10.9,0.347,2.1,6.2,0.368,6.3,17.1,0.8,3.0,3.8,18.0,2.0,NBA,390.0,97.0,3.1,6.0,SF,17.7,2010,1.4,TOT,2.4,8.6
25.0,1.6,0.0,114.0,5.2,0.386,3.8,9.9,0.323,1.7,5.4,0.364,5.5,15.3,0.762,2.8,3.6,10.0,2.0,NBA,276.0,94.0,2.9,6.2,SF,15.6,2010,1.4,GSW,2.3,8.1
25.0,3.2,0.5,110.0,6.0,0.367,5.1,13.8,0.389,3.2,8.3,0.375,8.3,22.1,0.889,3.7,4.1,8.0,0.0,NBA,114.0,103.0,3.7,5.5,SF,23.4,2010,1.4,WAS,2.8,9.6
26.0,1.7,0.6,112.0,5.1,0.386,3.0,7.8,0.394,3.7,9.3,0.39,6.7,17.2,0.7,2.6,3.8,52.0,1.0,NBA,542.0,109.0,1.9,4.9,SF,19.7,2011,1.7,WAS,1.5,7.0
27.0,1.3,0.3,108.0,6.1,0.508,4.0,7.8,0.387,3.8,10.0,0.44,7.8,17.8,0.579,1.5,2.5,17.0,2.0,NBA,391.0,109.0,1.6,4.6,SF,21.0,2012,1.5,WAS,1.7,7.7
28.0,1.5,0.5,104.0,6.7,0.358,2.9,8.0,0.397,4.4,11.0,0.381,7.2,18.9,0.714,1.5,2.1,41.0,3.0,NBA,694.0,95.0,0.8,4.4,SF,20.3,2013,1.4,WAS,2.4,7.5
29.0,1.9,0.4,108.0,5.7,0.46,3.0,6.6,0.391,3.4,8.8,0.42,6.5,15.4,0.738,2.8,3.8,59.0,6.0,NBA,870.0,104.0,0.8,4.2,SF,19.2,2014,1.6,TOT,2.0,6.4
29.0,1.9,0.4,108.0,5.7,0.455,3.1,6.8,0.384,3.5,9.0,0.414,6.5,15.8,0.754,2.8,3.8,53.0,6.0,NBA,822.0,103.0,0.7,4.2,SF,19.4,2014,1.6,ATL,2.0,6.5
29.0,2.2,0.0,105.0,4.4,0.667,2.2,3.3,0.6,3.3,5.5,0.625,5.5,8.9,0.5,2.2,4.4,6.0,0.0,NBA,48.0,139.0,1.1,3.3,SF,16.6,2014,1.1,CHI,1.1,5.5
30.0,2.9,0.3,110.0,5.2,0.45,2.4,5.2,0.182,1.6,8.6,0.283,3.9,13.8,0.0,0.0,0.0,23.0,0.0,NBA,198.0,76.0,0.0,5.2,SF,9.4,2015,0.8,DET,1.3,5.2
