age,ast,blk,drb,efg_pct,fg,fg2,fg2_pct,fg2a,fg3,fg3_pct,fg3a,fg_pct,fga,ft,ft_pct,fta,g,gs,lg_id,mp,orb,pf,pos,pts,season,stl,team_id,tov,trb
24.0,13.0,4.0,26.0,0.429,28.0,18.0,0.409,44.0,10.0,0.303,33.0,0.364,77.0,20.0,0.8,25.0,33.0,1.0,NBA,266.0,7.0,33.0,SF,86.0,2009,8.0,CHA,9.0,33.0
25.0,16.0,1.0,43.0,0.43,50.0,33.0,0.379,87.0,17.0,0.347,49.0,0.368,136.0,24.0,0.8,30.0,18.0,2.0,NBA,390.0,25.0,48.0,SF,141.0,2010,11.0,TOT,19.0,68.0
25.0,9.0,0.0,30.0,0.42,32.0,22.0,0.386,57.0,10.0,0.323,31.0,0.364,88.0,16.0,0.762,21.0,10.0,2.0,NBA,276.0,17.0,36.0,SF,90.0,2010,8.0,GSW,13.0,47.0
25.0,7.0,1.0,13.0,0.448,18.0,11.0,0.367,30.0,7.0,0.389,18.0,0.375,48.0,8.0,0.889,9.0,8.0,0.0,NBA,114.0,8.0,12.0,SF,51.0,2010,3.0,WAS,6.0,21.0
26.0,18.0,6.0,54.0,0.497,71.0,32.0,0.386,83.0,39.0,0.394,99.0,0.39,182.0,28.0,0.7,40.0,52.0,1.0,NBA,542.0,20.0,52.0,SF,209.0,2011,18.0,WAS,16.0,74.0
27.0,10.0,2.0,46.0,0.549,59.0,30.0,0.508,59.0,29.0,0.387,75.0,0.44,134.0,11.0,0.579,19.0,17.0,2.0,NBA,391.0,12.0,35.0,SF,158.0,2012,11.0,WAS,13.0,58.0
28.0,20.0,6.0,89.0,0.496,96.0,38.0,0.358,106.0,58.0,0.397,146.0,0.381,252.0,20.0,0.714,28.0,41.0,3.0,NBA,694.0,11.0,58.0,SF,270.0,2013,19.0,WAS,32.0,100.0
29.0,33.0,7.0,97.0,0.532,111.0,52.0,0.46,113.0,59.0,0.391,151.0,0.42,264.0,48.0,0.738,65.0,59.0,6.0,NBA,870.0,13.0,71.0,SF,329.0,2014,27.0,TOT,34.0,110.0
29.0,31.0,7.0,93.0,0.523,106.0,50.0,0.455,110.0,56.0,0.384,146.0,0.414,256.0,46.0,0.754,61.0,53.0,6.0,NBA,822.0,12.0,68.0,SF,314.0,2014,26.0,ATL,33.0,105.0
29.0,2.0,0.0,4.0,0.813,5.0,2.0,0.667,3.0,3.0,0.6,5.0,0.625,8.0,2.0,0.5,4.0,6.0,0.0,NBA,48.0,1.0,3.0,SF,15.0,2014,1.0,CHI,1.0,5.0
30.0,11.0,1.0,20.0,0.34,15.0,9.0,0.45,20.0,6.0,0.182,33.0,0.283,53.0,0.0,0.0,0.0,23.0,0.0,NBA,198.0,0.0,20.0,SF,36.0,2015,3.0,DET,5.0,20.0
