age,ast,blk,drb,efg_pct,fg,fg2,fg2_pct,fg2a,fg3,fg3_pct,fg3a,fg_pct,fga,ft,ft_pct,fta,g,gs,lg_id,mp,orb,pf,pos,pts,season,stl,team_id,tov,trb
27.0,63.0,15.0,154.0,0.491,191.0,190.0,0.496,383.0,1.0,0.143,7.0,0.49,390.0,110.0,0.679,162.0,52.0,1.0,NBA,1094.0,80.0,56.0,PF,493.0,1998,19.0,SAC,62.0,234.0
28.0,30.0,23.0,121.0,0.56,167.0,166.0,0.565,294.0,1.0,0.2,5.0,0.559,299.0,85.0,0.708,120.0,47.0,2.0,NBA,936.0,101.0,77.0,PF,420.0,1999,22.0,SAC,52.0,222.0
29.0,33.0,20.0,136.0,0.523,184.0,184.0,0.526,350.0,0.0,0.0,2.0,0.523,352.0,115.0,0.706,163.0,75.0,1.0,NBA,1026.0,98.0,91.0,PF,483.0,2000,32.0,SAC,40.0,234.0
30.0,17.0,13.0,122.0,0.496,120.0,120.0,0.496,242.0,0.0,0.0,0.0,0.496,242.0,48.0,0.623,77.0,59.0,2.0,NBA,698.0,74.0,44.0,PF,288.0,2001,9.0,SAC,32.0,196.0
31.0,32.0,18.0,122.0,0.469,115.0,115.0,0.475,242.0,0.0,0.0,3.0,0.469,245.0,34.0,0.607,56.0,56.0,1.0,NBA,722.0,76.0,65.0,PF,264.0,2002,11.0,SAC,33.0,198.0
32.0,8.0,11.0,38.0,0.444,32.0,32.0,0.444,72.0,0.0,0.0,0.0,0.444,72.0,10.0,0.588,17.0,27.0,0.0,NBA,229.0,17.0,25.0,PF,74.0,2003,1.0,SAC,6.0,55.0
34.0,0.0,0.0,2.0,0.5,3.0,3.0,0.5,6.0,0.0,0.0,0.0,0.5,6.0,3.0,0.6,5.0,2.0,0.0,NBA,21.0,1.0,2.0,PF,9.0,2005,0.0,CHI,0.0,3.0
