age,ast,ast_per_g,blk,college_id,fg,fg3,fg3_pct,fg3a,fg_pct,fga,ft,ft_pct,fta,g,mp,mp_per_g,orb,pf,pts,pts_per_g,season,stl,tov,trb,trb_per_g
19.0,8.0,1.3,6.0,INDIANA,28.0,0.0,0.0,0.0,0.491,57.0,14.0,0.519,27.0,6.0,144.0,24.0,0.0,12.0,70.0,11.7,1990,1.0,12.0,40.0,6.7
21.0,18.0,0.8,55.0,OHIOST,115.0,0.0,0.0,0.0,0.548,210.0,51.0,0.654,78.0,23.0,668.0,29.0,0.0,40.0,281.0,12.2,1992,15.0,33.0,149.0,6.5
22.0,34.0,1.2,54.0,OHIOST,186.0,1.0,0.333,3.0,0.533,349.0,84.0,0.622,135.0,28.0,878.0,31.4,0.0,49.0,457.0,16.3,1993,21.0,56.0,190.0,6.8
23.0,28.0,1.0,22.0,OHIOST,188.0,2.0,0.286,7.0,0.545,345.0,63.0,0.594,106.0,29.0,847.0,29.2,0.0,51.0,441.0,15.2,1994,11.0,50.0,190.0,6.6
