age,avg_dist,fg2_dunk,fg2_pct,fg2_pct_ast,fg2a_pct_fga,fg3_heave,fg3_pct,fg3_pct_ast,fg3_pct_corner,fg3a_heave,fg3a_pct_fga,fg_pct,fg_pct_00_03,fg_pct_03_10,fg_pct_10_16,fg_pct_16_xx,g,lg_id,mp,pct_fg2_dunk,pct_fg3a_corner,pct_fga_00_03,pct_fga_03_10,pct_fga_10_16,pct_fga_16_xx,pos,season,team_id
22.0,5.7,0.0,0.286,0.5,1.0,0.0,0.0,0.0,0.0,0.0,0.0,0.286,0.667,0.0,0.0,0.0,3.0,NBA,9.0,0.0,0.0,0.429,0.429,0.143,0.0,PF,2017,LAC
23.0,9.0,2.0,0.488,0.65,0.976,0.0,0.0,0.0,0.0,0.0,0.024,0.476,0.714,0.364,0.75,0.25,18.0,NBA,98.0,0.048,0.0,0.333,0.262,0.095,0.286,PF,2018,TOT
23.0,11.0,0.0,0.7,0.429,0.909,0.0,0.0,0.0,0.0,0.0,0.091,0.636,1.0,0.5,1.0,0.5,9.0,NBA,38.0,0.0,0.0,0.273,0.182,0.091,0.364,PF,2018,LAC
23.0,8.3,2.0,0.419,0.769,1.0,0.0,0.0,0.0,0.0,0.0,0.0,0.419,0.636,0.333,0.667,0.125,9.0,NBA,60.0,0.065,0.0,0.355,0.29,0.097,0.258,PF,2018,MEM
