age,ast_per_mp,blk_per_mp,drb_per_mp,fg2_pct,fg2_per_mp,fg2a_per_mp,fg3_pct,fg3_per_mp,fg3a_per_mp,fg_pct,fg_per_mp,fga_per_mp,ft_pct,ft_per_mp,fta_per_mp,g,gs,lg_id,mp,orb_per_mp,pf_per_mp,pos,pts_per_mp,season,stl_per_mp,team_id,tov_per_mp,trb_per_mp
23.0,4.6,0.1,2.6,0.375,1.7,4.6,0.277,1.9,6.8,0.316,3.6,11.4,0.815,3.2,3.9,28.0,0.0,NBA,250.0,0.1,3.2,PG,12.2,1996,1.2,POR,4.0,2.7
24.0,3.9,0.0,1.2,0.429,2.1,4.9,0.263,1.2,4.4,0.35,3.3,9.3,0.75,1.4,1.9,23.0,0.0,NBA,155.0,0.2,3.7,PG,9.1,1997,2.1,TOT,4.2,1.4
24.0,4.3,0.0,1.2,0.5,2.0,4.0,0.188,0.9,4.6,0.333,2.9,8.6,0.75,1.7,2.3,19.0,0.0,NBA,125.0,0.3,3.2,PG,8.4,1997,2.0,POR,3.7,1.4
24.0,2.4,0.0,1.2,0.286,2.4,8.4,0.667,2.4,3.6,0.4,4.8,12.0,0.0,0.0,0.0,4.0,0.0,NBA,30.0,0.0,6.0,PG,12.0,1997,2.4,DET,6.0,1.2
