age,ast,blk,drb,fg,fg2,fg2a,fg3,fg3a,fga,ft,fta,game_score,lg_id,mp,orb,pf,pts,season,stl,team_id,tov,trb
22.0,0.0,0.0,0.0,2.0,2.0,3.0,0.0,0.0,3.0,0.0,0.0,2.7,NBA,4,2.0,1.0,4.0,2013,0.0,NOH,1.0,2.0
23.0,7.0,2.0,8.0,10.0,10.0,15.0,0.0,1.0,15.0,14.0,18.0,21.5,NBA,34,9.0,6.0,24.0,2014,3.0,TOT,3.0,15.0
23.0,2.0,2.0,5.0,3.0,3.0,7.0,0.0,0.0,7.0,3.0,4.0,7.4,NBA,23,4.0,6.0,7.0,2014,2.0,CLE,2.0,8.0
23.0,7.0,2.0,8.0,10.0,10.0,15.0,0.0,1.0,15.0,14.0,18.0,21.5,NBA,34,9.0,5.0,24.0,2014,3.0,PHI,3.0,15.0
24.0,5.0,3.0,9.0,9.0,9.0,13.0,2.0,3.0,14.0,6.0,8.0,18.0,NBA,41,5.0,5.0,22.0,2015,3.0,PHI,4.0,12.0
25.0,1.0,3.0,7.0,5.0,5.0,11.0,0.0,0.0,11.0,5.0,6.0,11.6,NBA,31,3.0,5.0,12.0,2016,2.0,BRK,2.0,8.0
