age,ast,ast_per_g,blk,college_id,fg,fg3,fg3_pct,fg3a,fg_pct,fga,ft,ft_pct,fta,g,mp,mp_per_g,orb,pf,pts,pts_per_g,season,stl,tov,trb,trb_per_g
21.0,46.0,1.5,2.0,ILLINOISST,109.0,50.0,0.292,171.0,0.339,322.0,81.0,0.764,106.0,31.0,712.0,23.0,20.0,46.0,349.0,11.3,2014,31.0,46.0,93.0,3.0
24.0,86.0,2.5,10.0,TXSOUTH,185.0,33.0,0.258,128.0,0.42,440.0,184.0,0.786,234.0,35.0,1140.0,32.6,30.0,99.0,587.0,16.8,2017,47.0,81.0,135.0,3.9
25.0,56.0,1.7,4.0,NMSTATE,217.0,87.0,0.38,229.0,0.456,476.0,142.0,0.772,184.0,33.0,1054.0,31.9,37.0,67.0,663.0,20.1,2018,35.0,71.0,166.0,5.0
