age,ast,blk,drb,efg_pct,fg,fg2,fg2_pct,fg2a,fg3,fg3_pct,fg3a,fg_pct,fga,ft,ft_pct,fta,g,gs,lg_id,mp,orb,pf,pos,pts,season,stl,team_id,tov,trb
23.0,92.0,7.0,33.0,0.429,76.0,71.0,0.452,157.0,5.0,0.192,26.0,0.415,183.0,46.0,0.754,61.0,50.0,0.0,NBA,478.0,21.0,52.0,PG,203.0,1992,30.0,UTA,50.0,54.0
24.0,603.0,7.0,189.0,0.485,438.0,407.0,0.498,817.0,31.0,0.261,119.0,0.468,936.0,231.0,0.78,296.0,79.0,78.0,NBA,2437.0,95.0,177.0,PG,1138.0,1993,174.0,MIL,207.0,284.0
25.0,546.0,12.0,170.0,0.502,477.0,408.0,0.479,851.0,69.0,0.411,168.0,0.468,1019.0,234.0,0.813,288.0,82.0,76.0,NBA,2533.0,91.0,189.0,PG,1257.0,1994,197.0,MIL,206.0,261.0
26.0,482.0,12.0,166.0,0.471,338.0,248.0,0.432,574.0,90.0,0.375,240.0,0.415,814.0,211.0,0.79,267.0,75.0,32.0,NBA,2158.0,48.0,139.0,PG,977.0,1995,113.0,MIL,194.0,214.0
27.0,327.0,9.0,143.0,0.454,244.0,199.0,0.45,442.0,45.0,0.31,145.0,0.416,587.0,114.0,0.797,143.0,73.0,14.0,NBA,1673.0,26.0,140.0,PG,647.0,1996,135.0,TOT,132.0,169.0
27.0,35.0,0.0,9.0,0.409,24.0,18.0,0.419,43.0,6.0,0.261,23.0,0.364,66.0,8.0,0.667,12.0,9.0,0.0,NBA,193.0,5.0,16.0,PG,62.0,1996,6.0,MIL,12.0,14.0
27.0,292.0,9.0,134.0,0.46,220.0,181.0,0.454,399.0,39.0,0.32,122.0,0.422,521.0,106.0,0.809,131.0,64.0,14.0,NBA,1480.0,21.0,124.0,PG,585.0,1996,129.0,VAN,120.0,155.0
28.0,24.0,2.0,10.0,0.515,15.0,11.0,0.478,23.0,4.0,0.4,10.0,0.455,33.0,11.0,0.917,12.0,12.0,0.0,NBA,114.0,1.0,9.0,PG,45.0,1997,9.0,DEN,11.0,11.0
29.0,219.0,13.0,117.0,0.456,177.0,149.0,0.454,328.0,28.0,0.308,91.0,0.422,419.0,125.0,0.801,156.0,82.0,1.0,NBA,1395.0,39.0,173.0,PG,507.0,1998,103.0,MIA,104.0,156.0
30.0,66.0,2.0,32.0,0.43,45.0,37.0,0.402,92.0,8.0,0.364,22.0,0.395,114.0,21.0,0.808,26.0,15.0,8.0,NBA,401.0,3.0,35.0,PG,119.0,1999,22.0,NJN,29.0,35.0
31.0,108.0,5.0,62.0,0.424,79.0,63.0,0.387,163.0,16.0,0.381,42.0,0.385,205.0,51.0,0.638,80.0,40.0,15.0,NBA,693.0,15.0,67.0,PG,225.0,2000,47.0,LAC,58.0,77.0
