age,ast_per_poss,blk_per_poss,def_rtg,drb_per_poss,fg2_pct,fg2_per_poss,fg2a_per_poss,fg3_pct,fg3_per_poss,fg3a_per_poss,fg_pct,fg_per_poss,fga_per_poss,ft_pct,ft_per_poss,fta_per_poss,g,gs,lg_id,mp,off_rtg,orb_per_poss,pf_per_poss,pos,pts_per_poss,season,stl_per_poss,team_id,tov_per_poss,trb_per_poss
24.0,8.2,0.9,107.0,4.2,0.418,6.5,15.7,0.515,4.0,7.7,0.45,10.5,23.4,0.69,4.7,6.8,6.0,6.0,NBA,213.0,115.0,0.9,4.2,PG,29.7,2005,2.8,CHI,3.3,5.1
25.0,10.0,0.4,108.0,4.3,0.441,6.5,14.8,0.346,2.0,5.7,0.415,8.5,20.4,0.857,7.8,9.1,6.0,6.0,NBA,234.0,105.0,0.0,4.8,PG,26.7,2006,1.7,CHI,5.2,4.3
26.0,11.1,0.4,104.0,5.6,0.419,4.6,11.0,0.302,1.9,6.4,0.376,6.5,17.4,0.769,3.0,3.9,10.0,10.0,NBA,362.0,102.0,0.6,5.5,PG,17.9,2007,1.3,CHI,3.4,6.2
28.0,4.9,0.7,109.0,4.2,0.5,3.9,7.9,0.433,3.2,7.4,0.468,7.2,15.3,0.68,4.2,6.2,7.0,0.0,NBA,210.0,120.0,0.5,4.4,SG,21.7,2009,3.0,CHI,2.0,4.7
29.0,5.3,0.0,115.0,5.6,0.389,3.7,9.5,0.5,2.1,4.2,0.423,5.8,13.8,0.714,2.7,3.7,5.0,5.0,NBA,196.0,118.0,0.3,3.7,SG,16.4,2010,1.9,CHI,0.5,5.8
30.0,5.2,0.6,106.0,4.2,0.545,5.8,10.7,0.421,2.6,6.1,0.5,8.4,16.8,1.0,0.3,0.3,6.0,6.0,NBA,173.0,116.0,0.3,6.8,PG,19.7,2011,2.3,ATL,1.3,4.5
31.0,2.3,0.0,100.0,3.1,0.5,2.7,5.4,0.375,2.3,6.2,0.433,5.0,11.6,1.0,0.8,0.8,6.0,4.0,NBA,141.0,114.0,1.5,3.5,SG,13.2,2012,1.5,ATL,0.8,4.6
32.0,7.8,0.3,110.0,3.4,0.462,4.1,8.8,0.364,1.4,3.7,0.432,5.4,12.5,0.643,3.1,4.7,4.0,4.0,NBA,162.0,107.0,0.3,4.7,PG,15.3,2013,2.7,CHI,2.7,3.7
33.0,7.4,0.3,110.0,4.7,0.432,5.4,12.4,0.368,2.4,6.4,0.411,7.7,18.8,0.5,0.7,1.3,5.0,5.0,NBA,167.0,93.0,0.3,7.4,PG,18.5,2014,1.3,CHI,3.7,5.0
34.0,4.6,0.4,107.0,2.1,0.333,1.3,3.8,0.6,2.5,4.2,0.474,3.8,8.0,0.667,0.8,1.3,10.0,0.0,NBA,126.0,138.0,0.0,5.9,SG,11.0,2015,1.3,CHI,0.4,2.1
35.0,5.6,0.0,110.0,7.4,0.25,1.9,7.4,0.333,1.9,5.6,0.286,3.7,13.0,0.0,0.0,0.0,6.0,0.0,NBA,27.0,93.0,0.0,3.7,PG,9.3,2016,0.0,ATL,0.0,7.4
