age,ast_per_g,blk_per_g,drb_per_g,efg_pct,fg2_pct,fg2_per_g,fg2a_per_g,fg3_pct,fg3_per_g,fg3a_per_g,fg_pct,fg_per_g,fga_per_g,ft_pct,ft_per_g,fta_per_g,g,gs,lg_id,mp_per_g,orb_per_g,pf_per_g,pos,pts_per_g,season,stl_per_g,team_id,tov_per_g,trb_per_g
24.0,5.8,0.7,3.0,0.535,0.418,4.7,11.2,0.515,2.8,5.5,0.45,7.5,16.7,0.69,3.3,4.8,6.0,6.0,NBA,35.5,0.7,3.0,PG,21.2,2005,2.0,CHI,2.3,3.7
25.0,7.7,0.3,3.3,0.463,0.441,5.0,11.3,0.346,1.5,4.3,0.415,6.5,15.7,0.857,6.0,7.0,6.0,6.0,NBA,39.0,0.0,3.7,PG,20.5,2006,1.3,CHI,4.0,3.3
26.0,7.5,0.3,3.8,0.432,0.419,3.1,7.4,0.302,1.3,4.3,0.376,4.4,11.7,0.769,2.0,2.6,10.0,10.0,NBA,36.2,0.4,3.7,PG,12.1,2007,0.9,CHI,2.3,4.2
28.0,2.9,0.4,2.4,0.573,0.5,2.3,4.6,0.433,1.9,4.3,0.468,4.1,8.9,0.68,2.4,3.6,7.0,0.0,NBA,30.0,0.3,2.6,SG,12.6,2009,1.7,CHI,1.1,2.7
29.0,4.0,0.0,4.2,0.5,0.389,2.8,7.2,0.5,1.6,3.2,0.423,4.4,10.4,0.714,2.0,2.8,5.0,5.0,NBA,39.2,0.2,2.8,SG,12.4,2010,1.4,CHI,0.4,4.4
30.0,2.7,0.3,2.2,0.577,0.545,3.0,5.5,0.421,1.3,3.2,0.5,4.3,8.7,1.0,0.2,0.2,6.0,6.0,NBA,28.8,0.2,3.5,PG,10.2,2011,1.2,ATL,0.7,2.3
31.0,1.0,0.0,1.3,0.533,0.5,1.2,2.3,0.375,1.0,2.7,0.433,2.2,5.0,1.0,0.3,0.3,6.0,4.0,NBA,23.5,0.7,1.5,SG,5.7,2012,0.7,ATL,0.3,2.0
32.0,5.8,0.3,2.5,0.486,0.462,3.0,6.5,0.364,1.0,2.8,0.432,4.0,9.3,0.643,2.3,3.5,4.0,4.0,NBA,40.5,0.3,3.5,PG,11.3,2013,2.0,CHI,2.0,2.8
33.0,4.4,0.2,2.8,0.473,0.432,3.2,7.4,0.368,1.4,3.8,0.411,4.6,11.2,0.5,0.4,0.8,5.0,5.0,NBA,33.4,0.2,4.4,PG,11.0,2014,0.8,CHI,2.2,3.0
34.0,1.1,0.1,0.5,0.632,0.333,0.3,0.9,0.6,0.6,1.0,0.474,0.9,1.9,0.667,0.2,0.3,10.0,0.0,NBA,12.6,0.0,1.4,SG,2.6,2015,0.3,CHI,0.1,0.5
35.0,0.5,0.0,0.7,0.357,0.25,0.2,0.7,0.333,0.2,0.5,0.286,0.3,1.2,0.0,0.0,0.0,6.0,0.0,NBA,4.5,0.0,0.3,PG,0.8,2016,0.0,ATL,0.0,0.7
