age,ast_per_mp,blk_per_mp,drb_per_mp,fg2_pct,fg2_per_mp,fg2a_per_mp,fg3_pct,fg3_per_mp,fg3a_per_mp,fg_pct,fg_per_mp,fga_per_mp,ft_pct,ft_per_mp,fta_per_mp,g,gs,lg_id,mp,orb_per_mp,pf_per_mp,pos,pts_per_mp,season,stl_per_mp,team_id,tov_per_mp,trb_per_mp
21.0,0.8,1.0,3.7,0.484,2.9,6.1,0.367,2.2,5.9,0.426,5.1,11.9,0.7,1.4,2.0,12.0,0.0,NBA,184.0,1.8,7.4,SF,13.7,2017,2.0,WAS,1.4,5.5
22.0,1.0,0.7,5.4,0.483,3.4,7.1,0.211,1.0,4.6,0.375,4.4,11.7,0.889,3.9,4.4,6.0,1.0,NBA,148.0,0.2,3.9,SF,13.6,2018,1.5,WAS,1.2,5.6
