age,and1s,astd_pts,drawn_offensive,drawn_shooting,fouls_offensive,fouls_shooting,g,lg_id,mp,own_shots_blk,pct_1,pct_2,pct_3,pct_4,pct_5,plus_minus_net,plus_minus_on,pos,season,team_id,tov_bad_pass,tov_lost_ball
20.0,9.0,29.0,5.0,27.0,6.0,53.0,63.0,NBA,671.0,20.0,0.0,10.0,84.0,6.0,0.0,-1.3,-1.5,SF,2016,WAS,7.0,15.0
21.0,10.0,114.0,14.0,47.0,5.0,84.0,79.0,NBA,1605.0,35.0,0.0,12.0,80.0,9.0,0.0,-2.2,0.4,SF,2017,WAS,17.0,18.0
22.0,22.0,229.0,16.0,100.0,11.0,91.0,81.0,NBA,2231.0,56.0,0.0,6.0,87.0,7.0,0.0,-6.4,-2.0,SF,2018,WAS,37.0,28.0
23.0,35.0,196.0,28.0,122.0,13.0,65.0,69.0,NBA,1935.0,72.0,0.0,6.0,75.0,19.0,0.0,-0.8,-6.6,SF,2019,TOT,33.0,43.0
23.0,14.0,49.0,15.0,45.0,4.0,32.0,29.0,NBA,755.0,27.0,0.0,2.0,84.0,14.0,0.0,-6.4,-8.1,SF,2019,WAS,8.0,13.0
23.0,21.0,147.0,13.0,77.0,9.0,33.0,40.0,NBA,1180.0,45.0,0.0,9.0,70.0,22.0,0.0,4.9,-5.6,SF,2019,PHO,25.0,30.0
24.0,7.0,44.0,5.0,24.0,2.0,15.0,11.0,NBA,327.0,14.0,0.0,0.0,85.0,15.0,0.0,12.0,12.4,SF,2020,PHO,5.0,6.0
