lg_id,salary,season,team_name
NBA,905640.0,2006,Detroit Pistons
NBA,973440.0,2007,Detroit Pistons
NBA,1041360.0,2008,Detroit Pistons
NBA,1877572.0,2009,Detroit Pistons
NBA,5000000.0,2010,Detroit Pistons
NBA,5000000.0,2011,Detroit Pistons
NBA,5000000.0,2012,Detroit Pistons
NBA,5000000.0,2013,Detroit Pistons
NBA,2500000.0,2014,Orlando Magic
NBA,1316809.0,2015,Charlotte Hornets
