age,ast,ast_per_g,blk,college_id,fg,fg3,fg3_pct,fg3a,fg_pct,fga,ft,ft_pct,fta,g,mp,mp_per_g,orb,pf,pts,pts_per_g,season,stl,tov,trb,trb_per_g
21.0,19.0,0.6,20.0,BOISEST,137.0,47.0,0.409,115.0,0.552,248.0,38.0,0.655,58.0,32.0,886.0,27.7,63.0,81.0,359.0,11.2,2015,36.0,31.0,257.0,8.0
22.0,34.0,1.1,20.0,BOISEST,177.0,27.0,0.248,109.0,0.494,358.0,108.0,0.684,158.0,31.0,944.0,30.5,74.0,94.0,489.0,15.8,2016,44.0,49.0,283.0,9.1
