age,and1s,astd_pts,drawn_offensive,drawn_shooting,fouls_offensive,fouls_shooting,g,lg_id,mp,own_shots_blk,pct_1,pct_2,pct_3,pct_4,pct_5,plus_minus_net,plus_minus_on,pos,season,team_id,tov_bad_pass,tov_lost_ball
29.0,0.0,11.0,0.0,6.0,1.0,4.0,20.0,NBA,118.0,5.0,0.0,2.0,98.0,0.0,0.0,-10.7,-6.1,SF,2002,NJN,1.0,0.0
30.0,0.0,0.0,0.0,0.0,0.0,0.0,3.0,NBA,6.0,0.0,0.0,0.0,83.0,17.0,0.0,-64.3,-58.3,SF,2003,NJN,0.0,1.0
