age,ast_pct,blk_pct,bpm,bpm-dum,dbpm,drb_pct,dws,fg3a_per_fga_pct,fta_per_fga_pct,g,lg_id,mp,obpm,orb_pct,ows,per,pos,season,stl_pct,team_id,tov_pct,trb_pct,ts_pct,usg_pct,vorp,ws,ws-dum,ws_per_48
23.0,5.8,0.9,-5.5,0.0,-2.7,11.1,0.2,0.441,0.515,34.0,NBA,208.0,-2.8,5.7,0.0,10.5,SF,1996,2.2,CLE,7.7,8.3,0.462,22.0,-0.2,0.2,0.0,0.051
24.0,7.5,0.5,-3.5,0.0,-0.7,11.6,0.8,0.544,0.338,56.0,NBA,548.0,-2.8,5.2,-0.2,9.1,SF,1997,2.5,CLE,14.8,8.3,0.476,19.7,-0.2,0.6,0.0,0.053
27.0,0.0,0.0,-10.8,0.0,-2.7,2.9,0.0,0.273,0.545,6.0,NBA,39.0,-8.1,0.0,-0.1,0.2,SF,2000,2.6,CLE,18.0,1.4,0.403,18.6,-0.1,-0.1,0.0,-0.087
29.0,6.1,0.0,-5.3,0.0,-1.4,12.4,0.1,0.138,0.621,20.0,NBA,118.0,-3.9,7.6,0.0,7.7,SF,2002,1.3,NJN,5.1,10.0,0.406,14.8,-0.1,0.2,0.0,0.076
30.0,0.0,0.0,-40.9,0.0,-8.8,57.1,0.0,0.333,0.0,3.0,NBA,6.0,-32.1,0.0,-0.1,-20.7,SF,2003,0.0,NJN,25.0,28.6,0.0,30.1,-0.1,-0.1,0.0,-0.635
