age,ast_per_mp,blk_per_mp,drb_per_mp,fg2_pct,fg2_per_mp,fg2a_per_mp,fg3_pct,fg3_per_mp,fg3a_per_mp,fg_pct,fg_per_mp,fga_per_mp,ft_pct,ft_per_mp,fta_per_mp,g,gs,lg_id,mp,orb_per_mp,pf_per_mp,pos,pts_per_mp,season,stl_per_mp,team_id,tov_per_mp,trb_per_mp
20.0,6.0,0.0,9.0,0.0,0.0,9.0,0.0,0.0,0.0,0.0,0.0,9.0,0.0,0.0,0.0,6.0,0.0,NBA,12.0,3.0,3.0,PF,0.0,2016,6.0,POR,0.0,12.0
21.0,2.9,1.1,7.2,0.444,2.9,6.5,0.0,0.0,0.0,0.444,2.9,6.5,0.4,0.7,1.8,4.0,2.0,NBA,100.0,3.2,4.0,PF,6.5,2017,0.4,POR,2.2,10.4
