age,ast_per_poss,blk_per_poss,def_rtg,drb_per_poss,fg2_pct,fg2_per_poss,fg2a_per_poss,fg3_pct,fg3_per_poss,fg3a_per_poss,fg_pct,fg_per_poss,fga_per_poss,ft_pct,ft_per_poss,fta_per_poss,g,gs,lg_id,mp,off_rtg,orb_per_poss,pf_per_poss,pos,pts_per_poss,season,stl_per_poss,team_id,tov_per_poss,trb_per_poss
19.0,0.8,1.8,102.0,11.6,0.397,5.0,12.6,0.385,1.0,2.6,0.395,6.0,15.2,0.692,3.6,5.2,25.0,0.0,NBA,259.0,99.0,5.6,4.0,PF,16.5,2015,0.8,CHO,2.2,17.1
20.0,1.3,1.1,107.0,9.1,0.457,4.5,9.9,0.239,0.5,2.0,0.421,5.0,11.8,0.745,1.6,2.2,78.0,56.0,NBA,1174.0,98.0,3.9,6.5,PF,12.1,2016,1.2,POR,2.1,13.0
21.0,1.2,1.1,110.0,10.0,0.492,4.8,9.8,0.35,0.3,0.8,0.481,5.1,10.6,0.638,2.4,3.7,74.0,41.0,NBA,1265.0,106.0,5.1,6.0,PF,12.8,2017,1.2,POR,2.5,15.2
22.0,1.9,1.0,106.0,13.6,0.5,4.7,9.5,0.303,1.1,3.7,0.444,5.9,13.2,0.621,2.0,3.3,54.0,16.0,NBA,875.0,106.0,3.9,3.8,PF,14.9,2018,1.1,TOT,1.7,17.5
22.0,1.4,1.1,105.0,13.8,0.5,4.7,9.4,0.333,0.2,0.6,0.49,4.9,10.0,0.742,2.4,3.2,33.0,12.0,NBA,476.0,113.0,3.7,4.4,PF,12.4,2018,0.6,POR,1.6,17.5
22.0,2.6,0.7,108.0,13.3,0.5,4.8,9.5,0.3,2.2,7.3,0.413,7.0,16.9,0.481,1.6,3.3,21.0,4.0,NBA,399.0,101.0,4.3,3.2,PF,17.7,2018,1.6,CHI,2.0,17.6
23.0,3.6,1.4,111.0,11.6,0.531,4.5,8.5,0.336,1.3,3.8,0.47,5.8,12.3,0.712,3.1,4.4,68.0,57.0,NBA,1722.0,111.0,3.2,4.9,PF,16.0,2019,1.3,NYK,2.5,14.8
24.0,3.1,0.9,107.0,9.3,0.63,5.3,8.3,0.125,0.3,2.5,0.514,5.6,10.8,0.846,3.4,4.0,11.0,0.0,NBA,147.0,113.0,3.4,4.9,C,14.8,2020,1.2,MIN,2.8,12.7
