age,ast_per_mp,blk_per_mp,drb_per_mp,fg2_pct,fg2_per_mp,fg2a_per_mp,fg3_pct,fg3_per_mp,fg3a_per_mp,fg_pct,fg_per_mp,fga_per_mp,ft_pct,ft_per_mp,fta_per_mp,g,gs,lg_id,mp,orb_per_mp,pf_per_mp,pos,pts_per_mp,season,stl_per_mp,team_id,tov_per_mp,trb_per_mp
19.0,0.6,1.3,8.1,0.397,3.5,8.8,0.385,0.7,1.8,0.395,4.2,10.6,0.692,2.5,3.6,25.0,0.0,NBA,259.0,3.9,2.8,PF,11.5,2015,0.6,CHO,1.5,12.0
20.0,0.9,0.8,6.6,0.457,3.3,7.1,0.239,0.3,1.4,0.421,3.6,8.5,0.745,1.2,1.6,78.0,56.0,NBA,1174.0,2.8,4.7,PF,8.7,2016,0.8,POR,1.5,9.4
21.0,0.9,0.8,7.3,0.492,3.5,7.1,0.35,0.2,0.6,0.481,3.7,7.7,0.638,1.7,2.7,74.0,41.0,NBA,1265.0,3.7,4.4,PF,9.3,2017,0.9,POR,1.8,11.0
22.0,1.4,0.7,9.9,0.5,3.5,6.9,0.303,0.8,2.7,0.444,4.3,9.6,0.621,1.5,2.4,54.0,16.0,NBA,875.0,2.9,2.8,PF,10.9,2018,0.8,TOT,1.3,12.8
22.0,1.0,0.8,10.0,0.5,3.4,6.8,0.333,0.2,0.5,0.49,3.6,7.3,0.742,1.7,2.3,33.0,12.0,NBA,476.0,2.6,3.2,PF,9.0,2018,0.5,POR,1.1,12.6
22.0,1.9,0.5,9.8,0.5,3.5,7.0,0.3,1.6,5.4,0.413,5.1,12.5,0.481,1.2,2.4,21.0,4.0,NBA,399.0,3.2,2.3,PF,13.1,2018,1.2,CHI,1.4,13.0
23.0,2.7,1.1,8.7,0.531,3.4,6.3,0.336,1.0,2.9,0.47,4.3,9.2,0.712,2.3,3.3,68.0,57.0,NBA,1722.0,2.4,3.6,PF,11.9,2019,1.0,NYK,1.8,11.0
24.0,2.4,0.7,7.3,0.63,4.2,6.6,0.125,0.2,2.0,0.514,4.4,8.6,0.846,2.7,3.2,11.0,0.0,NBA,147.0,2.7,3.9,C,11.8,2020,1.0,MIN,2.2,10.0
