age,ast_per_poss,blk_per_poss,def_rtg,drb_per_poss,fg2_pct,fg2_per_poss,fg2a_per_poss,fg3_pct,fg3_per_poss,fg3a_per_poss,fg_pct,fg_per_poss,fga_per_poss,ft_pct,ft_per_poss,fta_per_poss,g,gs,lg_id,mp,off_rtg,orb_per_poss,pf_per_poss,pos,pts_per_poss,season,stl_per_poss,team_id,tov_per_poss,trb_per_poss
20.0,8.3,0.0,93.0,12.5,0.0,0.0,12.5,0.0,0.0,0.0,0.0,0.0,12.5,0.0,0.0,0.0,6.0,0.0,NBA,12.0,58.0,4.2,4.2,PF,0.0,2016,8.3,POR,0.0,16.6
21.0,3.8,1.4,117.0,9.4,0.444,3.8,8.4,0.0,0.0,0.0,0.444,3.8,8.4,0.4,0.9,2.3,4.0,2.0,NBA,100.0,94.0,4.2,5.2,PF,8.4,2017,0.5,POR,2.8,13.6
