age,ast_per_g,blk_per_g,drb_per_g,efg_pct,fg2_pct,fg2_per_g,fg2a_per_g,fg3_pct,fg3_per_g,fg3a_per_g,fg_pct,fg_per_g,fga_per_g,ft_pct,ft_per_g,fta_per_g,g,gs,lg_id,mp_per_g,orb_per_g,pf_per_g,pos,pts_per_g,season,stl_per_g,team_id,tov_per_g,trb_per_g
25.0,0.2,0.1,0.5,0.44,0.444,1.1,2.4,0.0,0.0,0.0,0.44,1.1,2.5,0.596,0.6,1.0,51.0,15.0,NBA,6.4,0.6,0.8,PF,2.8,1989,0.2,UTA,0.7,1.1
26.0,0.5,0.1,0.5,0.464,0.45,1.4,3.1,0.5,0.1,0.2,0.452,1.5,3.2,0.6,0.2,0.4,13.0,0.0,NBA,4.9,0.6,1.2,PF,3.2,1990,0.2,UTA,0.4,1.2
