age,ast,blk,drb,fg,fg2,fg2a,fg3,fg3a,fga,ft,fta,game_score,lg_id,mp,orb,pf,pts,season,stl,team_id,tov,trb
22.0,0.0,0.0,1.0,3.0,3.0,4.0,0.0,0.0,4.0,0.0,0.0,5.1,NBA,0.0,2.0,1.0,6.0,1991,0.0,PHI,1.0,3.0
25.0,0.0,0.0,0.0,0.0,0.0,3.0,0.0,0.0,3.0,1.0,2.0,-1.1,NBA,0.0,2.0,4.0,1.0,1994,0.0,NJN,2.0,2.0
29.0,3.0,2.0,10.0,4.0,4.0,9.0,0.0,0.0,9.0,2.0,2.0,12.0,NBA,0.0,11.0,4.0,10.0,1998,2.0,NJN,1.0,21.0
