age,ast_per_g,blk_per_g,drb_per_g,efg_pct,fg2_pct,fg2_per_g,fg2a_per_g,fg3_pct,fg3_per_g,fg3a_per_g,fg_pct,fg_per_g,fga_per_g,ft_pct,ft_per_g,fta_per_g,g,gs,lg_id,mp_per_g,orb_per_g,pf_per_g,pos,pts_per_g,season,stl_per_g,team_id,tov_per_g,trb_per_g
22.0,0.0,0.0,0.5,0.8,0.8,1.0,1.3,0.0,0.0,0.0,0.8,1.0,1.3,0.0,0.0,0.0,4.0,0.0,NBA,2.5,0.5,0.3,PF,2.0,1991,0.0,PHI,0.3,1.0
25.0,0.0,0.0,0.0,0.0,0.0,0.0,1.5,0.0,0.0,0.0,0.0,0.0,1.5,0.5,0.5,1.0,2.0,0.0,NBA,8.5,1.5,2.5,PF,0.5,1994,0.0,NJN,1.0,1.5
29.0,1.7,1.0,7.3,0.429,0.429,3.0,7.0,0.0,0.0,0.0,0.429,3.0,7.0,0.5,1.0,2.0,3.0,2.0,NBA,38.7,6.7,2.7,C,7.0,1998,0.7,NJN,0.7,14.0
