age,ast,blk,drb,fg,fg2,fg2a,fg3,fg3a,fga,ft,fta,game_score,lg_id,mp,orb,pf,pts,season,stl,team_id,tov,trb
25.0,5.0,2.0,7.0,12.0,9.0,12.0,6.0,11.0,17.0,6.0,8.0,21.5,NBA,49,4.0,5.0,28.0,2015,3.0,BRK,4.0,8.0
26.0,7.0,2.0,8.0,17.0,13.0,18.0,7.0,10.0,27.0,9.0,9.0,32.3,NBA,40,4.0,5.0,44.0,2016,2.0,BRK,7.0,12.0
27.0,4.0,1.0,8.0,11.0,9.0,13.0,8.0,10.0,18.0,16.0,16.0,28.2,NBA,36,3.0,5.0,29.0,2017,3.0,TOT,5.0,9.0
27.0,4.0,1.0,8.0,11.0,9.0,13.0,5.0,9.0,18.0,10.0,12.0,23.3,NBA,36,2.0,5.0,29.0,2017,3.0,BRK,5.0,8.0
27.0,2.0,1.0,7.0,9.0,7.0,11.0,8.0,10.0,16.0,16.0,16.0,28.2,NBA,34,3.0,4.0,29.0,2017,2.0,WAS,4.0,9.0
28.0,4.0,1.0,7.0,12.0,9.0,12.0,6.0,10.0,18.0,12.0,13.0,28.4,NBA,41,3.0,4.0,29.0,2018,3.0,IND,5.0,8.0
29.0,6.0,1.0,7.0,13.0,10.0,15.0,6.0,10.0,22.0,9.0,11.0,33.9,NBA,40,2.0,6.0,37.0,2019,3.0,IND,5.0,9.0
30.0,5.0,1.0,6.0,10.0,7.0,13.0,5.0,9.0,18.0,9.0,9.0,22.9,NBA,38,1.0,5.0,29.0,2020,2.0,UTA,5.0,6.0
