age,ast,blk,drb,efg_pct,fg,fg2,fg2_pct,fg2a,fg3,fg3_pct,fg3a,fg_pct,fga,ft,ft_pct,fta,g,gs,lg_id,mp,orb,pf,pos,pts,season,stl,team_id,tov,trb
25.0,68.0,9.0,163.0,0.532,261.0,170.0,0.531,320.0,91.0,0.355,256.0,0.453,576.0,87.0,0.821,106.0,78.0,28.0,NBA,1854.0,50.0,104.0,SF,700.0,2015,34.0,BRK,78.0,213.0
26.0,99.0,5.0,219.0,0.519,324.0,195.0,0.474,411.0,129.0,0.382,338.0,0.433,749.0,110.0,0.833,132.0,79.0,39.0,NBA,2115.0,36.0,119.0,SF,887.0,2016,29.0,BRK,115.0,255.0
27.0,111.0,7.0,240.0,0.53,376.0,232.0,0.512,453.0,144.0,0.367,392.0,0.445,845.0,217.0,0.893,243.0,81.0,54.0,NBA,2083.0,37.0,146.0,SF,1113.0,2017,34.0,TOT,131.0,277.0
27.0,90.0,3.0,174.0,0.521,269.0,170.0,0.509,334.0,99.0,0.357,277.0,0.44,611.0,146.0,0.874,167.0,55.0,54.0,NBA,1482.0,23.0,99.0,SF,783.0,2017,24.0,BRK,93.0,197.0
27.0,21.0,4.0,66.0,0.553,107.0,62.0,0.521,119.0,45.0,0.391,115.0,0.457,234.0,71.0,0.934,76.0,26.0,0.0,NBA,601.0,14.0,47.0,SF,330.0,2017,10.0,WAS,38.0,80.0
28.0,119.0,8.0,240.0,0.565,404.0,249.0,0.534,466.0,155.0,0.402,386.0,0.474,852.0,178.0,0.868,205.0,80.0,80.0,NBA,2464.0,30.0,129.0,SF,1141.0,2018,55.0,IND,106.0,270.0
29.0,161.0,1.0,300.0,0.575,522.0,358.0,0.538,665.0,164.0,0.425,386.0,0.497,1051.0,246.0,0.807,305.0,81.0,81.0,NBA,2573.0,33.0,138.0,SF,1454.0,2019,69.0,IND,134.0,333.0
30.0,16.0,4.0,30.0,0.592,51.0,31.0,0.534,58.0,20.0,0.444,45.0,0.495,103.0,19.0,0.905,21.0,7.0,7.0,NBA,222.0,1.0,19.0,SF,141.0,2020,7.0,UTA,20.0,31.0
