age,avg_dist,fg2_dunk,fg2_pct,fg2_pct_ast,fg2a_pct_fga,fg3_heave,fg3_pct,fg3_pct_ast,fg3_pct_corner,fg3a_heave,fg3a_pct_fga,fg_pct,fg_pct_00_03,fg_pct_03_10,fg_pct_10_16,fg_pct_16_xx,g,lg_id,mp,pct_fg2_dunk,pct_fg3a_corner,pct_fga_00_03,pct_fga_03_10,pct_fga_10_16,pct_fga_16_xx,pos,season,team_id
22.0,15.1,1.0,0.273,0.667,0.733,0.0,0.25,1.0,0.0,0.0,0.267,0.267,0.333,0.5,0.0,0.2,9.0,NBA,39.0,0.067,0.5,0.2,0.133,0.067,0.333,SG,2008,UTA
23.0,11.6,1.0,0.438,0.857,0.79,0.0,0.294,1.0,0.3,0.0,0.21,0.407,0.467,0.375,0.667,0.35,25.0,NBA,255.0,0.012,0.588,0.37,0.099,0.074,0.247,SG,2009,UTA
26.0,16.0,0.0,0.357,1.0,0.824,0.0,0.333,1.0,0.0,0.0,0.176,0.353,0.667,0.0,0.0,0.375,4.0,NBA,67.0,0.0,0.333,0.176,0.059,0.118,0.471,SG,2012,WAS
