age,ast,blk,drb,fg,fg2,fg2a,fg3,fg3a,fga,ft,fta,game_score,lg_id,mp,orb,pf,pts,season,stl,team_id,tov,trb
22.0,2.0,2.0,7.0,5.0,5.0,9.0,0.0,0.0,9.0,5.0,8.0,11.7,NBA,38,7.0,5.0,11.0,2010,2.0,SAC,3.0,14.0
23.0,2.0,1.0,10.0,4.0,4.0,6.0,0.0,0.0,6.0,7.0,8.0,11.6,NBA,34,7.0,6.0,11.0,2011,1.0,MIL,2.0,14.0
24.0,2.0,1.0,7.0,3.0,3.0,4.0,0.0,1.0,4.0,2.0,2.0,6.7,NBA,22,6.0,5.0,6.0,2012,1.0,MIL,3.0,9.0
