age,ast_pct,blk_pct,bpm,bpm-dum,dbpm,drb_pct,dws,fg3a_per_fga_pct,fta_per_fga_pct,g,lg_id,mp,obpm,orb_pct,ows,per,pos,season,stl_pct,team_id,tov_pct,trb_pct,ts_pct,usg_pct,vorp,ws,ws-dum,ws_per_48
22.0,4.8,0.6,-0.8,0.0,-0.4,19.2,0.5,0.0,0.602,52.0,NBA,654.0,-0.4,18.2,1.2,12.4,PF,2010,1.2,SAC,15.0,18.7,0.564,10.4,0.2,1.7,0.0,0.125
23.0,4.2,0.3,-2.2,0.0,0.7,19.4,1.0,0.0,0.628,63.0,NBA,677.0,-3.0,12.4,0.8,9.6,C,2011,1.1,MIL,16.7,15.8,0.567,10.0,0.0,1.9,0.0,0.132
24.0,5.2,0.3,-5.3,0.0,-0.8,19.9,0.2,0.022,0.333,35.0,NBA,239.0,-4.5,14.8,-0.1,6.6,PF,2012,0.9,MIL,16.2,17.3,0.359,11.4,-0.2,0.1,0.0,0.023
