age,ast_per_poss,blk_per_poss,def_rtg,drb_per_poss,fg2_pct,fg2_per_poss,fg2a_per_poss,fg3_pct,fg3_per_poss,fg3a_per_poss,fg_pct,fg_per_poss,fga_per_poss,ft_pct,ft_per_poss,fta_per_poss,g,gs,lg_id,mp,off_rtg,orb_per_poss,pf_per_poss,pos,pts_per_poss,season,stl_per_poss,team_id,tov_per_poss,trb_per_poss
22.0,1.7,0.4,110.0,8.4,0.534,4.3,8.0,0.0,0.0,0.0,0.534,4.3,8.0,0.597,2.9,4.8,52.0,4.0,NBA,654.0,124.0,8.2,9.0,PF,11.5,2010,1.2,SAC,1.8,16.6
23.0,1.4,0.2,103.0,8.7,0.511,3.8,7.4,0.0,0.0,0.0,0.511,3.8,7.4,0.678,3.2,4.7,63.0,6.0,NBA,677.0,117.0,5.8,9.4,C,10.7,2011,1.1,MIL,1.9,14.5
24.0,1.9,0.2,106.0,9.0,0.341,3.2,9.4,0.0,0.0,0.2,0.333,3.2,9.6,0.467,1.5,3.2,35.0,0.0,NBA,239.0,92.0,7.1,7.1,PF,7.9,2012,0.9,MIL,2.1,16.1
