age,ast,blk,drb,fg,fg2,fg2a,fg3,fg3a,fga,ft,fta,game_score,lg_id,mp,orb,pf,pts,season,stl,team_id,tov,trb
22.0,5.0,2.0,10.0,12.0,12.0,18.0,0.0,1.0,18.0,10.0,15.0,26.1,NBA,0.0,5.0,6.0,29.0,1985,2.0,SEA,5.0,15.0
23.0,4.0,2.0,10.0,8.0,8.0,13.0,1.0,1.0,13.0,8.0,8.0,19.9,NBA,0.0,6.0,6.0,21.0,1986,2.0,SEA,6.0,13.0
24.0,6.0,5.0,13.0,13.0,13.0,18.0,0.0,1.0,18.0,11.0,15.0,29.1,NBA,0.0,7.0,6.0,27.0,1987,2.0,PHI,5.0,14.0
25.0,8.0,2.0,14.0,12.0,12.0,19.0,0.0,1.0,19.0,9.0,12.0,24.1,NBA,0.0,6.0,6.0,27.0,1988,3.0,TOT,5.0,16.0
25.0,4.0,1.0,10.0,7.0,7.0,11.0,0.0,0.0,11.0,8.0,9.0,18.0,NBA,0.0,6.0,6.0,18.0,1988,3.0,PHI,3.0,13.0
25.0,8.0,2.0,14.0,12.0,12.0,19.0,0.0,1.0,19.0,9.0,12.0,24.1,NBA,0.0,6.0,6.0,27.0,1988,2.0,NJN,5.0,16.0
26.0,4.0,2.0,7.0,9.0,9.0,13.0,0.0,1.0,13.0,6.0,6.0,18.0,NBA,0.0,4.0,5.0,23.0,1989,2.0,HOU,4.0,9.0
27.0,1.0,1.0,3.0,2.0,2.0,5.0,0.0,0.0,5.0,3.0,4.0,6.8,NBA,0.0,2.0,4.0,6.0,1990,1.0,HOU,3.0,5.0
28.0,3.0,1.0,6.0,6.0,6.0,8.0,0.0,1.0,8.0,5.0,8.0,12.3,NBA,0.0,4.0,6.0,12.0,1991,1.0,ATL,3.0,8.0
29.0,2.0,0.0,3.0,2.0,2.0,5.0,0.0,0.0,5.0,3.0,5.0,8.2,NBA,0.0,4.0,3.0,7.0,1992,1.0,NYK,2.0,7.0
