age,ast_per_g,blk_per_g,drb_per_g,efg_pct,fg2_pct,fg2_per_g,fg2a_per_g,fg3_pct,fg3_per_g,fg3a_per_g,fg_pct,fg_per_g,fga_per_g,ft_pct,ft_per_g,fta_per_g,g,gs,lg_id,mp_per_g,orb_per_g,pf_per_g,pos,pts_per_g,season,stl_per_g,team_id,tov_per_g,trb_per_g
22.0,1.0,0.4,3.2,0.557,0.558,3.4,6.2,0.0,0.0,0.0,0.557,3.4,6.2,0.715,2.4,3.4,78.0,27.0,NBA,20.3,1.9,2.7,C,9.3,1985,0.2,SEA,1.5,5.1
23.0,1.1,0.4,3.4,0.571,0.57,3.3,5.7,0.5,0.0,0.0,0.57,3.3,5.8,0.713,2.3,3.2,77.0,42.0,NBA,22.1,1.8,2.8,C,8.8,1986,0.2,SEA,1.4,5.2
24.0,1.4,0.8,5.3,0.545,0.548,4.8,8.8,0.0,0.0,0.0,0.545,4.8,8.9,0.719,3.1,4.3,81.0,79.0,NBA,34.8,2.2,3.3,C,12.8,1987,0.4,PHI,1.9,7.5
25.0,1.7,0.3,4.6,0.537,0.539,5.0,9.2,0.0,0.0,0.0,0.537,5.0,9.3,0.674,2.1,3.1,70.0,55.0,NBA,30.2,2.1,3.3,C,12.0,1988,0.5,TOT,1.6,6.7
25.0,1.1,0.3,4.1,0.514,0.514,3.1,6.0,0.0,0.0,0.0,0.514,3.1,6.0,0.698,1.6,2.3,23.0,17.0,NBA,26.1,2.1,3.3,C,7.8,1988,0.6,PHI,1.5,6.3
25.0,2.0,0.3,4.8,0.543,0.545,5.9,10.8,0.0,0.0,0.0,0.543,5.9,10.9,0.667,2.3,3.4,47.0,38.0,NBA,32.2,2.1,3.4,C,14.1,1988,0.4,NJN,1.6,6.9
26.0,0.7,0.3,2.1,0.481,0.487,2.1,4.3,0.0,0.0,0.0,0.481,2.1,4.3,0.674,1.1,1.6,81.0,0.0,NBA,15.5,1.1,2.4,C,5.2,1989,0.2,HOU,0.8,3.2
27.0,0.2,0.1,1.1,0.345,0.345,0.6,1.6,0.0,0.0,0.0,0.345,0.6,1.6,0.526,0.6,1.1,18.0,0.0,NBA,6.4,0.4,1.3,C,1.7,1990,0.2,HOU,0.6,1.5
28.0,0.6,0.3,1.9,0.497,0.505,1.7,3.3,0.0,0.0,0.1,0.497,1.7,3.3,0.733,1.2,1.6,56.0,7.0,NBA,12.3,1.0,1.6,C,4.5,1991,0.2,ATL,0.8,2.9
29.0,0.4,0.0,0.9,0.424,0.424,0.6,1.5,0.0,0.0,0.0,0.424,0.6,1.5,0.667,0.6,1.0,22.0,0.0,NBA,4.9,0.6,0.8,C,1.9,1992,0.1,NYK,0.4,1.5
