age,ast,blk,drb,fg,fg2,fg2a,fg3,fg3a,fga,ft,fta,game_score,lg_id,mp,orb,pf,pts,season,stl,team_id,tov,trb
24.0,3.0,1.0,8.0,5.0,5.0,7.0,0.0,0.0,7.0,2.0,2.0,13.1,NBA,0.0,2.0,5.0,12.0,1987,1.0,PHI,3.0,9.0
26.0,0.0,1.0,4.0,3.0,3.0,5.0,0.0,1.0,6.0,3.0,4.0,6.8,NBA,0.0,2.0,3.0,8.0,1989,2.0,HOU,0.0,4.0
27.0,0.0,0.0,4.0,1.0,1.0,2.0,0.0,0.0,2.0,1.0,2.0,3.0,NBA,0.0,1.0,3.0,3.0,1990,0.0,HOU,0.0,5.0
28.0,0.0,0.0,1.0,2.0,2.0,6.0,0.0,0.0,6.0,2.0,3.0,2.9,NBA,0.0,1.0,1.0,6.0,1991,0.0,ATL,0.0,1.0
29.0,0.0,0.0,3.0,0.0,0.0,2.0,0.0,0.0,2.0,0.0,0.0,-0.9,NBA,0.0,0.0,1.0,0.0,1992,0.0,NYK,0.0,3.0
