age,ast_per_g,blk_per_g,drb_per_g,efg_pct,fg2_pct,fg2_per_g,fg2a_per_g,fg3_pct,fg3_per_g,fg3a_per_g,fg_pct,fg_per_g,fga_per_g,ft_pct,ft_per_g,fta_per_g,g,gs,lg_id,mp_per_g,orb_per_g,pf_per_g,pos,pts_per_g,season,stl_per_g,team_id,tov_per_g,trb_per_g
23.0,0.9,0.9,2.7,0.599,0.697,1.0,1.5,0.354,0.8,2.2,0.494,1.8,3.7,0.481,0.3,0.6,44.0,10.0,NBA,14.5,1.1,2.3,PF,4.7,2019,0.4,PHI,0.8,3.8
24.0,0.0,0.0,0.0,1.0,1.0,1.0,1.0,0.0,0.0,0.0,1.0,1.0,1.0,0.0,0.0,0.0,1.0,0.0,NBA,2.0,0.0,0.0,PF,2.0,2020,1.0,PHI,0.0,0.0
