age,ast_pct,blk_pct,bpm,bpm-dum,dbpm,drb_pct,dws,fg3a_per_fga_pct,fta_per_fga_pct,g,lg_id,mp,obpm,orb_pct,ows,per,pos,season,stl_pct,team_id,tov_pct,trb_pct,ts_pct,usg_pct,vorp,ws,ws-dum,ws_per_48
30.0,26.2,0.4,-1.4,0.0,-2.2,10.5,0.5,0.644,0.128,45.0,NBA,1134.0,0.8,1.6,0.9,11.6,PG,2018,1.0,LAC,20.3,6.1,0.564,18.2,0.2,1.4,0.0,0.058
31.0,28.8,0.5,-6.1,0.0,-3.2,8.9,0.1,0.675,0.175,15.0,NBA,150.0,-2.9,2.2,-0.1,6.5,PG,2019,0.9,LAC,32.8,5.7,0.557,18.0,-0.2,-0.1,0.0,-0.019
