age,and1s,astd_pts,drawn_offensive,drawn_shooting,fouls_offensive,fouls_shooting,g,lg_id,mp,own_shots_blk,pct_1,pct_2,pct_3,pct_4,pct_5,plus_minus_net,plus_minus_on,pos,season,team_id,tov_bad_pass,tov_lost_ball
24.0,1.0,10.0,1.0,3.0,0.0,4.0,15.0,NBA,161.0,1.0,0.0,5.0,77.0,18.0,0.0,-11.2,-10.8,PF,2019,MIA,3.0,1.0
25.0,1.0,17.0,3.0,2.0,0.0,12.0,11.0,NBA,253.0,2.0,0.0,0.0,74.0,25.0,0.0,-1.0,6.1,PF,2020,MIA,2.0,1.0
