age,ast,blk,drb,fg,fg2,fg2a,fg3,fg3a,fga,ft,fta,game_score,lg_id,mp,orb,pf,pts,season,stl,team_id,tov,trb
23.0,10.0,2.0,5.0,10.0,8.0,16.0,4.0,10.0,24.0,4.0,6.0,19.5,NBA,0.0,1.0,5.0,27.0,1994,1.0,GSW,3.0,5.0
28.0,5.0,2.0,8.0,13.0,12.0,26.0,1.0,3.0,27.0,15.0,19.0,24.3,NBA,0.0,3.0,6.0,35.0,1999,2.0,NYK,6.0,10.0
29.0,6.0,2.0,8.0,13.0,12.0,24.0,3.0,5.0,26.0,11.0,11.0,21.4,NBA,0.0,2.0,4.0,32.0,2000,5.0,NYK,6.0,9.0
30.0,5.0,1.0,4.0,12.0,10.0,19.0,2.0,5.0,23.0,8.0,10.0,17.4,NBA,0.0,2.0,5.0,29.0,2001,2.0,NYK,6.0,5.0
33.0,8.0,3.0,8.0,13.0,10.0,19.0,7.0,8.0,22.0,11.0,11.0,26.2,NBA,0.0,2.0,4.0,34.0,2004,5.0,MIN,6.0,9.0
