age,ast,blk,drb,efg_pct,fg,fg2,fg2_pct,fg2a,fg3,fg3_pct,fg3a,fg_pct,fga,ft,ft_pct,fta,g,gs,lg_id,mp,orb,pf,pos,pts,season,stl,team_id,tov,trb
22.0,295.0,52.0,192.0,0.502,449.0,376.0,0.488,770.0,73.0,0.369,198.0,0.464,968.0,211.0,0.746,283.0,77.0,69.0,NBA,2741.0,79.0,166.0,SG,1182.0,1993,126.0,GSW,203.0,271.0
23.0,385.0,76.0,321.0,0.482,613.0,472.0,0.46,1026.0,141.0,0.361,391.0,0.433,1417.0,353.0,0.774,456.0,82.0,82.0,NBA,3533.0,80.0,158.0,SG,1720.0,1994,180.0,GSW,226.0,401.0
24.0,279.0,46.0,198.0,0.457,490.0,400.0,0.473,845.0,90.0,0.276,326.0,0.418,1171.0,350.0,0.781,448.0,69.0,69.0,NBA,2771.0,58.0,108.0,SG,1420.0,1995,112.0,GSW,230.0,256.0
25.0,328.0,45.0,256.0,0.466,515.0,424.0,0.461,920.0,91.0,0.323,282.0,0.428,1202.0,352.0,0.789,446.0,78.0,78.0,NBA,3064.0,124.0,150.0,SG,1473.0,1996,127.0,GSW,222.0,380.0
26.0,507.0,45.0,308.0,0.5,649.0,502.0,0.488,1029.0,147.0,0.354,415.0,0.449,1444.0,493.0,0.843,585.0,80.0,79.0,NBA,3353.0,58.0,153.0,SG,1938.0,1997,132.0,GSW,322.0,366.0
27.0,68.0,5.0,44.0,0.413,110.0,101.0,0.441,229.0,9.0,0.188,48.0,0.397,277.0,70.0,0.745,94.0,14.0,13.0,NBA,547.0,7.0,26.0,SG,299.0,1998,19.0,GSW,44.0,51.0
28.0,91.0,2.0,115.0,0.435,215.0,194.0,0.44,441.0,21.0,0.273,77.0,0.415,518.0,155.0,0.812,191.0,37.0,4.0,NBA,1233.0,41.0,65.0,SF,606.0,1999,46.0,NYK,79.0,156.0
29.0,332.0,22.0,300.0,0.452,568.0,524.0,0.445,1178.0,44.0,0.346,127.0,0.435,1305.0,344.0,0.866,397.0,82.0,82.0,NBA,3276.0,49.0,184.0,SF,1524.0,2000,109.0,NYK,226.0,349.0
30.0,269.0,28.0,298.0,0.447,524.0,483.0,0.446,1084.0,41.0,0.304,135.0,0.43,1219.0,275.0,0.783,351.0,77.0,77.0,NBA,3017.0,49.0,159.0,SF,1364.0,2001,106.0,NYK,218.0,347.0
31.0,313.0,14.0,239.0,0.455,573.0,428.0,0.421,1016.0,145.0,0.36,403.0,0.404,1419.0,284.0,0.821,346.0,81.0,81.0,NBA,3326.0,59.0,161.0,SF,1575.0,2002,94.0,NYK,223.0,298.0
32.0,332.0,22.0,240.0,0.462,454.0,320.0,0.417,767.0,134.0,0.372,360.0,0.403,1127.0,173.0,0.794,218.0,74.0,73.0,NBA,2859.0,45.0,134.0,SF,1215.0,2003,102.0,NYK,172.0,285.0
33.0,286.0,21.0,254.0,0.448,518.0,419.0,0.433,967.0,99.0,0.331,299.0,0.409,1266.0,240.0,0.814,295.0,82.0,82.0,NBA,3100.0,56.0,101.0,SF,1375.0,2004,88.0,MIN,158.0,310.0
34.0,179.0,21.0,189.0,0.45,398.0,329.0,0.439,750.0,69.0,0.327,211.0,0.414,961.0,156.0,0.83,188.0,80.0,79.0,NBA,2450.0,65.0,124.0,SF,1021.0,2005,53.0,MIN,127.0,254.0
