age,ast_pct,blk_pct,bpm,bpm-dum,dbpm,drb_pct,dws,fg3a_per_fga_pct,fta_per_fga_pct,g,lg_id,mp,obpm,orb_pct,ows,per,pos,season,stl_pct,team_id,tov_pct,trb_pct,ts_pct,usg_pct,vorp,ws,ws-dum,ws_per_48
23.0,11.3,0.5,-3.2,0.0,-0.7,13.9,0.4,0.031,0.636,35.0,NBA,487.0,-2.5,6.0,0.4,12.4,SF,2003,0.8,MIA,13.2,9.8,0.512,18.4,-0.1,0.9,0.0,0.084
24.0,6.1,1.1,-3.2,0.0,-3.3,16.1,0.0,0.0,0.6,10.0,NBA,63.0,0.1,3.6,0.2,21.6,SF,2004,0.0,GSW,10.6,9.8,0.672,20.7,0.0,0.2,0.0,0.189
