age,ast,ast_per_g,blk,college_id,fg,fg3,fg3_pct,fg3a,fg_pct,fga,ft,ft_pct,fta,g,mp,mp_per_g,orb,pf,pts,pts_per_g,season,stl,tov,trb,trb_per_g
18.0,17.0,0.5,3.0,PENNST,28.0,22.0,0.349,63.0,0.337,83.0,13.0,0.619,21.0,32.0,0.0,0.0,0.0,0.0,91.0,2.8,2009,9.0,16.0,35.0,1.1
19.0,69.0,2.2,8.0,PENNST,89.0,69.0,0.373,185.0,0.372,239.0,40.0,0.816,49.0,31.0,920.0,29.7,23.0,43.0,287.0,9.3,2010,22.0,30.0,99.0,3.2
21.0,55.0,1.6,5.0,IOWAST,88.0,64.0,0.328,195.0,0.362,243.0,24.0,0.667,36.0,34.0,1126.0,33.1,35.0,41.0,264.0,7.8,2012,35.0,25.0,141.0,4.1
22.0,74.0,2.2,8.0,IOWAST,97.0,65.0,0.382,170.0,0.409,237.0,41.0,0.745,55.0,33.0,1080.0,32.7,19.0,53.0,300.0,9.1,2013,36.0,31.0,112.0,3.4
