age,ast,blk,drb,fg,fg2,fg2a,fg3,fg3a,fga,ft,fta,game_score,lg_id,mp,orb,pf,pts,season,stl,team_id,tov,trb
26.0,3.0,3.0,7.0,12.0,12.0,19.0,0.0,0.0,19.0,4.0,8.0,27.4,NBA,0.0,6.0,6.0,28.0,1998,4.0,SEA,4.0,12.0
28.0,3.0,1.0,6.0,9.0,9.0,20.0,0.0,1.0,20.0,7.0,12.0,11.3,NBA,0.0,5.0,4.0,18.0,2000,3.0,SEA,6.0,11.0
30.0,2.0,2.0,6.0,10.0,10.0,16.0,1.0,1.0,16.0,4.0,4.0,17.5,NBA,0.0,4.0,6.0,22.0,2002,1.0,SEA,1.0,10.0
32.0,1.0,2.0,3.0,5.0,5.0,8.0,0.0,0.0,8.0,3.0,5.0,12.8,NBA,0.0,4.0,6.0,12.0,2004,3.0,TOT,1.0,6.0
32.0,1.0,2.0,3.0,5.0,5.0,8.0,0.0,0.0,8.0,3.0,5.0,12.8,NBA,0.0,4.0,6.0,12.0,2004,3.0,NYK,1.0,6.0
