age,and1s,astd_pts,drawn_offensive,drawn_shooting,fouls_offensive,fouls_shooting,g,lg_id,mp,own_shots_blk,pct_1,pct_2,pct_3,pct_4,pct_5,plus_minus_net,plus_minus_on,pos,season,team_id,tov_bad_pass,tov_lost_ball
22.0,3.0,70.0,0.0,21.0,2.0,24.0,55.0,NBA,647.0,11.0,2.0,15.0,77.0,7.0,0.0,1.9,1.4,SF,2016,DAL,10.0,7.0
23.0,9.0,156.0,6.0,57.0,10.0,58.0,75.0,NBA,1228.0,17.0,0.0,6.0,84.0,11.0,0.0,-3.7,-7.7,SF,2017,TOT,24.0,22.0
23.0,5.0,73.0,5.0,41.0,6.0,36.0,51.0,NBA,710.0,11.0,0.0,8.0,82.0,10.0,0.0,-7.8,-9.6,SF,2017,DAL,17.0,12.0
23.0,4.0,83.0,1.0,16.0,4.0,22.0,24.0,NBA,518.0,6.0,0.0,3.0,85.0,12.0,0.0,0.7,-5.3,SF,2017,PHI,7.0,10.0
24.0,4.0,58.0,1.0,18.0,2.0,25.0,38.0,NBA,519.0,13.0,0.0,10.0,73.0,17.0,0.0,-12.7,-6.3,SF,2018,PHI,9.0,1.0
25.0,4.0,57.0,4.0,17.0,4.0,23.0,48.0,NBA,463.0,9.0,0.0,5.0,46.0,48.0,1.0,-0.2,-6.1,SF,2019,ATL,9.0,6.0
