age,ast,blk,drb,fg,fg2,fg2a,fg3,fg3a,fga,ft,fta,game_score,lg_id,mp,orb,pf,pts,season,stl,team_id,tov,trb
23.0,3.0,2.0,8.0,8.0,8.0,14.0,0.0,1.0,14.0,11.0,13.0,16.8,NBA,33,6.0,6.0,19.0,2007,3.0,BOS,3.0,12.0
24.0,1.0,2.0,8.0,9.0,9.0,16.0,0.0,1.0,16.0,12.0,13.0,22.8,NBA,39,6.0,6.0,27.0,2008,2.0,BOS,3.0,13.0
25.0,3.0,5.0,10.0,10.0,10.0,14.0,0.0,0.0,14.0,10.0,14.0,33.3,NBA,43,5.0,6.0,30.0,2009,4.0,BOS,4.0,13.0
26.0,0.0,1.0,5.0,5.0,5.0,9.0,0.0,0.0,9.0,6.0,10.0,13.5,NBA,23,4.0,5.0,16.0,2010,1.0,CLE,3.0,8.0
27.0,2.0,1.0,5.0,6.0,6.0,13.0,0.0,1.0,13.0,9.0,10.0,11.1,NBA,34,3.0,5.0,14.0,2011,2.0,TOT,2.0,6.0
27.0,1.0,1.0,5.0,6.0,6.0,13.0,0.0,0.0,13.0,3.0,4.0,10.5,NBA,34,3.0,5.0,14.0,2011,2.0,CLE,2.0,6.0
27.0,2.0,1.0,3.0,5.0,5.0,8.0,0.0,1.0,8.0,9.0,10.0,11.1,NBA,18,2.0,4.0,13.0,2011,1.0,MEM,2.0,5.0
