age,ast,blk,drb,efg_pct,fg,fg2,fg2_pct,fg2a,fg3,fg3_pct,fg3a,fg_pct,fga,ft,ft_pct,fta,g,gs,lg_id,mp,orb,pf,pos,pts,season,stl,team_id,tov,trb
23.0,10.0,22.0,118.0,0.446,79.0,79.0,0.451,175.0,0.0,0.0,2.0,0.446,177.0,106.0,0.736,144.0,63.0,2.0,NBA,720.0,97.0,104.0,C,264.0,2007,14.0,BOS,47.0,215.0
24.0,15.0,16.0,132.0,0.572,154.0,154.0,0.575,268.0,0.0,0.0,1.0,0.572,269.0,137.0,0.71,193.0,56.0,5.0,NBA,809.0,95.0,127.0,C,445.0,2008,15.0,BOS,43.0,227.0
25.0,46.0,38.0,200.0,0.524,177.0,177.0,0.524,338.0,0.0,0.0,0.0,0.524,338.0,184.0,0.689,267.0,70.0,7.0,NBA,1227.0,145.0,192.0,PF,538.0,2009,24.0,BOS,76.0,345.0
26.0,0.0,2.0,42.0,0.429,21.0,21.0,0.429,49.0,0.0,0.0,0.0,0.429,49.0,37.0,0.587,63.0,20.0,2.0,NBA,236.0,19.0,36.0,SF,79.0,2010,6.0,CLE,11.0,61.0
27.0,7.0,4.0,39.0,0.496,59.0,59.0,0.504,117.0,0.0,0.0,2.0,0.496,119.0,40.0,0.556,72.0,30.0,3.0,NBA,328.0,24.0,44.0,C-PF,158.0,2011,10.0,TOT,12.0,63.0
27.0,2.0,3.0,22.0,0.492,29.0,29.0,0.492,59.0,0.0,0.0,0.0,0.492,59.0,12.0,0.462,26.0,14.0,3.0,NBA,187.0,16.0,20.0,PF,70.0,2011,7.0,CLE,5.0,38.0
27.0,5.0,1.0,17.0,0.5,30.0,30.0,0.517,58.0,0.0,0.0,2.0,0.5,60.0,28.0,0.609,46.0,16.0,0.0,NBA,141.0,8.0,24.0,C,88.0,2011,3.0,MEM,7.0,25.0
