age,ast,blk,drb,efg_pct,fg,fg2,fg2_pct,fg2a,fg3,fg3_pct,fg3a,fg_pct,fga,ft,ft_pct,fta,g,gs,lg_id,mp,orb,pf,pos,pts,season,stl,team_id,tov,trb
23.0,32.0,6.0,116.0,0.459,84.0,84.0,0.462,182.0,0.0,0.0,1.0,0.459,183.0,54.0,0.871,62.0,39.0,8.0,NBA,642.0,58.0,87.0,C,222.0,1988,13.0,TOT,37.0,174.0
23.0,2.0,0.0,3.0,0.364,4.0,4.0,0.364,11.0,0.0,0.0,0.0,0.364,11.0,3.0,1.0,3.0,3.0,0.0,NBA,35.0,4.0,3.0,C,11.0,1988,0.0,MIL,2.0,7.0
23.0,30.0,6.0,113.0,0.465,80.0,80.0,0.468,171.0,0.0,0.0,1.0,0.465,172.0,51.0,0.864,59.0,36.0,8.0,NBA,607.0,54.0,84.0,C,211.0,1988,13.0,GSW,35.0,167.0
24.0,57.0,21.0,261.0,0.565,199.0,198.0,0.564,351.0,1.0,0.5,2.0,0.564,353.0,101.0,0.727,139.0,77.0,36.0,NBA,1419.0,123.0,239.0,C,500.0,1989,25.0,CHH,77.0,384.0
25.0,6.0,1.0,17.0,0.39,16.0,16.0,0.39,41.0,0.0,0.0,0.0,0.39,41.0,8.0,0.8,10.0,10.0,2.0,NBA,135.0,19.0,26.0,C,40.0,1990,2.0,CHH,8.0,36.0
26.0,3.0,1.0,21.0,0.545,24.0,24.0,0.571,42.0,0.0,0.0,2.0,0.545,44.0,16.0,0.727,22.0,30.0,0.0,NBA,155.0,18.0,29.0,C,64.0,1991,3.0,TOT,13.0,39.0
26.0,3.0,1.0,16.0,0.563,18.0,18.0,0.581,31.0,0.0,0.0,1.0,0.563,32.0,8.0,0.8,10.0,19.0,0.0,NBA,112.0,14.0,18.0,C,44.0,1991,2.0,CHH,12.0,30.0
26.0,0.0,0.0,5.0,0.5,6.0,6.0,0.545,11.0,0.0,0.0,1.0,0.5,12.0,8.0,0.667,12.0,11.0,0.0,NBA,43.0,4.0,11.0,C,20.0,1991,1.0,PHI,1.0,9.0
27.0,2.0,0.0,9.0,0.286,2.0,2.0,0.286,7.0,0.0,0.0,0.0,0.286,7.0,5.0,0.5,10.0,11.0,0.0,NBA,40.0,1.0,6.0,C,9.0,1992,0.0,PHI,3.0,10.0
28.0,0.0,0.0,3.0,1.0,1.0,1.0,1.0,1.0,0.0,0.0,0.0,1.0,1.0,0.0,0.0,2.0,2.0,0.0,NBA,10.0,1.0,2.0,C,2.0,1993,0.0,NJN,0.0,4.0
