age,and1s,astd_pts,drawn_offensive,drawn_shooting,fouls_offensive,fouls_shooting,g,lg_id,mp,own_shots_blk,pct_1,pct_2,pct_3,pct_4,pct_5,plus_minus_net,plus_minus_on,pos,season,team_id,tov_bad_pass,tov_lost_ball
27.0,13.0,262.0,42.0,95.0,13.0,97.0,82.0,NBA,2024.0,52.0,0.0,0.0,0.0,72.0,28.0,-2.1,4.5,PF,2008,HOU,35.0,37.0
28.0,16.0,315.0,29.0,113.0,24.0,89.0,82.0,NBA,2488.0,60.0,0.0,0.0,1.0,95.0,5.0,1.0,4.8,PF,2009,HOU,43.0,34.0
29.0,25.0,415.0,41.0,113.0,28.0,89.0,82.0,NBA,2671.0,75.0,0.0,0.0,0.0,88.0,12.0,-3.8,-1.8,PF,2010,HOU,54.0,53.0
30.0,17.0,446.0,19.0,107.0,32.0,86.0,74.0,NBA,2412.0,77.0,0.0,0.0,0.0,94.0,6.0,4.7,4.0,PF,2011,HOU,50.0,45.0
31.0,12.0,332.0,10.0,77.0,27.0,68.0,66.0,NBA,2067.0,69.0,0.0,0.0,0.0,72.0,28.0,2.9,1.4,PF,2012,HOU,50.0,53.0
32.0,23.0,410.0,12.0,94.0,20.0,89.0,82.0,NBA,2184.0,53.0,0.0,0.0,0.0,91.0,9.0,3.2,-5.6,PF,2013,PHO,50.0,37.0
33.0,4.0,193.0,5.0,60.0,23.0,43.0,82.0,NBA,1399.0,30.0,0.0,0.0,0.0,97.0,3.0,-6.6,0.4,PF,2014,IND,40.0,30.0
34.0,23.0,248.0,3.0,98.0,13.0,61.0,81.0,NBA,1659.0,45.0,0.0,0.0,0.0,99.0,1.0,1.6,1.0,PF,2015,IND,40.0,33.0
35.0,8.0,163.0,6.0,38.0,11.0,75.0,76.0,NBA,1636.0,35.0,0.0,0.0,30.0,61.0,10.0,-10.9,-1.5,PF,2016,TOR,24.0,24.0
36.0,7.0,85.0,1.0,19.0,9.0,23.0,36.0,NBA,461.0,8.0,0.0,0.0,0.0,47.0,53.0,-2.6,-8.6,PF,2017,BRK,15.0,11.0
