age,ast,blk,drb,fg,fg2,fg2a,fg3,fg3a,fga,ft,fta,game_score,lg_id,mp,orb,pf,pts,season,stl,team_id,tov,trb
27.0,5.0,2.0,13.0,11.0,11.0,19.0,0.0,1.0,19.0,12.0,14.0,22.8,NBA,44,9.0,6.0,24.0,2008,5.0,HOU,5.0,18.0
28.0,4.0,1.0,14.0,10.0,10.0,21.0,0.0,1.0,21.0,8.0,11.0,24.6,NBA,48,6.0,6.0,28.0,2009,3.0,HOU,5.0,18.0
29.0,5.0,2.0,14.0,20.0,20.0,25.0,1.0,1.0,25.0,14.0,14.0,39.7,NBA,51,8.0,6.0,44.0,2010,3.0,HOU,7.0,21.0
30.0,7.0,3.0,13.0,16.0,16.0,25.0,0.0,1.0,25.0,12.0,17.0,31.3,NBA,45,6.0,6.0,36.0,2011,4.0,HOU,6.0,16.0
31.0,7.0,3.0,12.0,15.0,15.0,28.0,0.0,1.0,28.0,8.0,10.0,21.0,NBA,45,6.0,6.0,30.0,2012,2.0,HOU,5.0,14.0
32.0,10.0,3.0,13.0,16.0,16.0,26.0,1.0,2.0,26.0,9.0,10.0,27.6,NBA,44,8.0,6.0,33.0,2013,4.0,PHO,8.0,15.0
33.0,4.0,2.0,9.0,11.0,11.0,17.0,1.0,1.0,17.0,5.0,8.0,20.7,NBA,31,5.0,4.0,24.0,2014,2.0,IND,5.0,10.0
34.0,3.0,2.0,12.0,10.0,10.0,15.0,1.0,3.0,15.0,7.0,10.0,21.4,NBA,34,7.0,5.0,23.0,2015,3.0,IND,5.0,15.0
35.0,4.0,2.0,10.0,10.0,9.0,15.0,4.0,6.0,17.0,6.0,6.0,19.8,NBA,37,5.0,5.0,22.0,2016,3.0,TOR,4.0,12.0
36.0,4.0,1.0,7.0,6.0,5.0,8.0,3.0,5.0,10.0,4.0,5.0,17.5,NBA,26,5.0,4.0,15.0,2017,2.0,BRK,3.0,11.0
