age,ast,blk,drb,efg_pct,fg,fg2,fg2_pct,fg2a,fg3,fg3_pct,fg3a,fg_pct,fga,ft,ft_pct,fta,g,gs,lg_id,mp,orb,pf,pos,pts,season,stl,team_id,tov,trb
19.0,117.0,26.0,322.0,0.457,195.0,163.0,0.471,346.0,32.0,0.276,116.0,0.422,462.0,80.0,0.684,117.0,78.0,8.0,NBA,2232.0,81.0,184.0,SF,502.0,2016,68.0,MIA,95.0,403.0
20.0,66.0,6.0,71.0,0.371,80.0,73.0,0.384,190.0,7.0,0.2,35.0,0.356,225.0,29.0,0.617,47.0,18.0,15.0,NBA,625.0,23.0,52.0,SF,196.0,2017,26.0,MIA,33.0,94.0
21.0,148.0,33.0,306.0,0.474,207.0,158.0,0.44,359.0,49.0,0.38,129.0,0.424,488.0,66.0,0.635,104.0,68.0,25.0,NBA,1680.0,64.0,140.0,PF,529.0,2018,54.0,MIA,77.0,370.0
22.0,282.0,19.0,292.0,0.497,324.0,228.0,0.462,493.0,96.0,0.375,256.0,0.433,749.0,86.0,0.628,137.0,66.0,52.0,NBA,1959.0,63.0,177.0,SF,830.0,2019,72.0,MIA,142.0,355.0
23.0,24.0,3.0,31.0,0.41,28.0,25.0,0.417,60.0,3.0,0.25,12.0,0.389,72.0,10.0,0.588,17.0,5.0,5.0,NBA,181.0,9.0,17.0,SF,69.0,2020,5.0,MIA,16.0,40.0
