age,ast_per_g,blk_per_g,drb_per_g,efg_pct,fg2_pct,fg2_per_g,fg2a_per_g,fg3_pct,fg3_per_g,fg3a_per_g,fg_pct,fg_per_g,fga_per_g,ft_pct,ft_per_g,fta_per_g,g,gs,lg_id,mp_per_g,orb_per_g,pf_per_g,pos,pts_per_g,season,stl_per_g,team_id,tov_per_g,trb_per_g
19.0,1.5,0.3,4.1,0.457,0.471,2.1,4.4,0.276,0.4,1.5,0.422,2.5,5.9,0.684,1.0,1.5,78.0,8.0,NBA,28.6,1.0,2.4,SF,6.4,2016,0.9,MIA,1.2,5.2
20.0,3.7,0.3,3.9,0.371,0.384,4.1,10.6,0.2,0.4,1.9,0.356,4.4,12.5,0.617,1.6,2.6,18.0,15.0,NBA,34.7,1.3,2.9,SF,10.9,2017,1.4,MIA,1.8,5.2
21.0,2.2,0.5,4.5,0.474,0.44,2.3,5.3,0.38,0.7,1.9,0.424,3.0,7.2,0.635,1.0,1.5,68.0,25.0,NBA,24.7,0.9,2.1,PF,7.8,2018,0.8,MIA,1.1,5.4
22.0,4.3,0.3,4.4,0.497,0.462,3.5,7.5,0.375,1.5,3.9,0.433,4.9,11.3,0.628,1.3,2.1,66.0,52.0,NBA,29.7,1.0,2.7,SF,12.6,2019,1.1,MIA,2.2,5.4
23.0,4.8,0.6,6.2,0.41,0.417,5.0,12.0,0.25,0.6,2.4,0.389,5.6,14.4,0.588,2.0,3.4,5.0,5.0,NBA,36.2,1.8,3.4,SF,13.8,2020,1.0,MIA,3.2,8.0
