age,ast,blk,drb,fg,fg2,fg2a,fg3,fg3a,fga,ft,fta,game_score,lg_id,mp,orb,pf,pts,season,stl,team_id,tov,trb
19.0,1.0,2.0,8.0,4.0,4.0,8.0,2.0,5.0,9.0,6.0,8.0,11.8,NBA,37,3.0,5.0,14.0,2016,2.0,MIA,2.0,9.0
21.0,5.0,2.0,8.0,4.0,4.0,6.0,4.0,6.0,11.0,7.0,8.0,16.8,NBA,32,2.0,5.0,19.0,2018,1.0,MIA,2.0,10.0
