age,ast_per_poss,blk_per_poss,def_rtg,drb_per_poss,fg2_pct,fg2_per_poss,fg2a_per_poss,fg3_pct,fg3_per_poss,fg3a_per_poss,fg_pct,fg_per_poss,fga_per_poss,ft_pct,ft_per_poss,fta_per_poss,g,gs,lg_id,mp,off_rtg,orb_per_poss,pf_per_poss,pos,pts_per_poss,season,stl_per_poss,team_id,tov_per_poss,trb_per_poss
20.0,10.0,0.2,110.0,3.3,0.461,7.5,16.3,0.203,0.5,2.3,0.43,8.0,18.6,0.751,3.9,5.2,50.0,50.0,NBA,1758.0,99.0,0.9,3.7,PG,20.3,1999,2.4,VAN,4.5,4.2
21.0,11.1,0.3,110.0,3.9,0.466,6.4,13.7,0.363,1.3,3.5,0.445,7.7,17.2,0.78,3.3,4.2,82.0,82.0,NBA,3155.0,107.0,1.2,2.9,PG,19.9,2000,2.2,VAN,4.1,5.1
22.0,11.2,0.2,108.0,4.2,0.478,6.8,14.3,0.379,1.8,4.7,0.454,8.6,19.0,0.761,2.3,3.1,82.0,82.0,NBA,3190.0,104.0,0.8,2.4,PG,21.4,2001,1.8,VAN,4.1,5.0
23.0,7.6,0.3,105.0,3.5,0.466,7.5,16.0,0.37,1.0,2.6,0.453,8.4,18.6,0.803,2.9,3.6,80.0,80.0,NBA,2659.0,107.0,0.7,2.5,PG,20.7,2002,1.6,SAC,2.5,4.2
24.0,7.8,0.2,103.0,3.1,0.485,7.5,15.4,0.409,1.5,3.8,0.47,9.0,19.2,0.861,4.4,5.1,55.0,55.0,NBA,1835.0,109.0,0.9,2.6,PG,24.0,2003,2.0,SAC,3.5,4.0
25.0,7.7,0.3,108.0,3.6,0.479,6.6,13.7,0.392,2.6,6.6,0.45,9.1,20.3,0.815,5.3,6.5,82.0,82.0,NBA,2980.0,113.0,1.2,2.5,PG,26.1,2004,1.9,SAC,3.0,4.8
26.0,9.0,0.5,110.0,4.3,0.477,7.2,15.1,0.36,2.2,6.1,0.443,9.4,21.1,0.775,5.4,6.9,80.0,80.0,NBA,3084.0,112.0,1.3,3.2,PG,26.3,2005,2.1,SAC,3.4,5.6
27.0,7.3,0.2,109.0,3.5,0.458,6.7,14.6,0.386,3.2,8.2,0.432,9.8,22.8,0.849,5.6,6.6,82.0,82.0,NBA,3167.0,110.0,0.5,2.8,PG,28.5,2006,1.4,SAC,3.3,4.0
28.0,7.1,0.1,110.0,4.1,0.435,5.4,12.5,0.36,3.1,8.7,0.404,8.6,21.2,0.83,5.2,6.3,82.0,82.0,NBA,2784.0,105.0,0.7,2.5,PG,25.5,2007,1.6,SAC,3.6,4.8
29.0,9.6,0.1,111.0,4.8,0.437,5.1,11.8,0.375,3.1,8.2,0.411,8.2,20.0,0.78,2.6,3.3,48.0,44.0,NBA,1573.0,104.0,0.5,3.2,PG,22.1,2008,1.8,TOT,3.9,5.3
29.0,8.0,0.2,111.0,4.8,0.412,5.8,14.0,0.393,2.6,6.5,0.406,8.4,20.6,0.742,2.5,3.3,15.0,12.0,NBA,473.0,100.0,1.2,3.6,PG,21.8,2008,2.0,SAC,4.1,6.0
29.0,10.3,0.1,111.0,4.7,0.451,4.8,10.7,0.369,3.3,9.0,0.414,8.1,19.7,0.797,2.6,3.3,33.0,32.0,NBA,1100.0,106.0,0.2,3.0,PG,22.2,2008,1.7,ATL,3.9,5.0
30.0,7.7,0.2,109.0,4.7,0.468,5.3,11.3,0.39,3.3,8.4,0.435,8.5,19.6,0.789,2.6,3.3,79.0,79.0,NBA,2740.0,113.0,0.7,2.8,PG,23.0,2009,1.9,ATL,2.5,5.4
31.0,7.5,0.1,110.0,4.0,0.444,3.4,7.8,0.389,3.1,7.9,0.416,6.5,15.6,0.861,1.7,1.9,80.0,80.0,NBA,2195.0,113.0,0.5,3.8,PG,17.7,2010,1.6,ATL,2.2,4.5
32.0,6.2,0.2,109.0,4.2,0.417,2.2,5.3,0.44,3.6,8.1,0.431,5.8,13.5,0.629,0.9,1.5,80.0,68.0,NBA,2285.0,110.0,0.4,4.1,PG,16.1,2011,1.2,TOT,2.4,4.6
32.0,6.5,0.2,110.0,4.1,0.427,2.5,5.9,0.441,3.6,8.2,0.435,6.2,14.2,0.63,0.9,1.5,56.0,56.0,NBA,1674.0,111.0,0.5,4.0,PG,16.9,2011,1.2,ATL,2.2,4.6
32.0,14.1,0.0,112.0,5.3,0.2,1.8,8.8,0.0,0.0,7.1,0.111,1.8,15.9,0.0,0.0,0.0,2.0,0.0,NBA,29.0,60.0,0.0,5.3,PG,3.5,2011,1.8,WAS,1.8,5.3
32.0,5.0,0.3,107.0,4.3,0.395,1.4,3.4,0.455,3.6,8.0,0.437,5.0,11.4,0.625,0.9,1.5,22.0,12.0,NBA,582.0,108.0,0.2,4.3,PG,14.5,2011,1.0,MIA,2.9,4.4
33.0,7.4,0.3,103.0,5.0,0.205,0.7,3.6,0.318,2.5,7.9,0.282,3.2,11.5,0.75,0.6,0.7,39.0,4.0,NBA,557.0,97.0,0.5,4.2,PG,9.5,2012,1.9,NYK,1.8,5.5
