article_url,date,headline
https://hoopshabit.com/2019/10/28/nba-buying-selling-early-trends-2019-20-season/,2019/10/28,Hoops Habit: Buying or selling early trends of the 2019-20 NBA season
https://aroyalpain.com/2019/10/21/sacramento-kings-resign-buddy-hield/,2019/10/21,"A Royal Pain: Sacramento Kings: Buddy Hield Signs 4-Year, $86 Million Extension"
https://sircharlesincharge.com/2019/09/10/sacramento-kings-optimistic-2019-20/,2019/09/10,Sir Charles In Charge: Sacramento Kings: There's reason for cautious optimism heading into 2019-20
https://lastwordonprobasketball.com/2019/09/08/the-memphis-grizzlies-all-time-team/,2019/09/08,Last Word on Sports: The Memphis Grizzlies All-Time Team
