age,ast_per_g,blk_per_g,drb_per_g,efg_pct,fg2_pct,fg2_per_g,fg2a_per_g,fg3_pct,fg3_per_g,fg3a_per_g,fg_pct,fg_per_g,fga_per_g,ft_pct,ft_per_g,fta_per_g,g,gs,lg_id,mp_per_g,orb_per_g,pf_per_g,pos,pts_per_g,season,stl_per_g,team_id,tov_per_g,trb_per_g
23.0,5.0,0.2,2.9,0.492,0.449,5.6,12.4,0.424,1.6,3.7,0.444,7.1,16.1,0.826,4.4,5.4,16.0,16.0,NBA,41.3,0.9,1.9,PG,20.3,2002,1.4,SAC,2.3,3.8
24.0,5.0,0.4,1.9,0.463,0.479,3.8,8.0,0.282,0.9,3.3,0.422,4.8,11.3,0.794,2.3,2.8,12.0,12.0,NBA,33.7,0.7,2.6,PG,12.7,2003,1.2,SAC,1.5,2.6
25.0,7.0,0.4,3.4,0.49,0.426,5.0,11.8,0.436,2.0,4.6,0.429,7.0,16.3,0.873,4.0,4.6,12.0,12.0,NBA,41.4,0.8,3.3,PG,20.0,2004,1.9,SAC,2.9,4.2
26.0,6.6,0.4,3.4,0.418,0.449,6.2,13.8,0.217,1.0,4.6,0.391,7.2,18.4,0.778,4.2,5.4,5.0,5.0,NBA,40.0,1.0,2.2,PG,19.6,2005,1.4,SAC,2.6,4.4
27.0,5.2,0.0,2.8,0.397,0.348,3.8,11.0,0.346,1.5,4.3,0.348,5.3,15.3,0.9,4.5,5.0,6.0,6.0,NBA,42.5,1.0,2.8,PG,16.7,2006,1.5,SAC,3.0,3.8
29.0,3.1,0.3,2.7,0.392,0.366,2.1,5.9,0.292,1.0,3.4,0.338,3.1,9.3,0.656,3.0,4.6,7.0,7.0,NBA,36.0,0.4,1.7,PG,10.3,2008,0.6,ATL,1.9,3.1
30.0,4.2,0.2,2.8,0.585,0.397,2.1,5.3,0.542,2.4,4.4,0.462,4.5,9.6,0.955,1.9,2.0,11.0,11.0,NBA,35.5,0.5,3.1,PG,13.2,2009,0.9,ATL,2.2,3.4
31.0,2.5,0.0,2.1,0.538,0.478,2.0,4.2,0.412,1.3,3.1,0.45,3.3,7.3,0.7,0.6,0.9,11.0,11.0,NBA,26.5,0.5,2.4,PG,8.5,2010,0.8,ATL,1.1,2.5
32.0,1.2,0.3,1.6,0.37,0.333,0.5,1.5,0.258,0.9,3.3,0.281,1.4,4.8,0.5,0.1,0.2,20.0,20.0,NBA,20.8,0.3,1.5,PG,3.7,2011,0.6,MIA,0.9,1.8
33.0,2.6,0.0,3.6,0.543,0.333,0.4,1.2,0.412,1.4,3.4,0.391,1.8,4.6,0.667,0.4,0.6,5.0,1.0,NBA,23.6,0.6,1.4,PG,5.4,2012,0.2,NYK,0.8,4.2
