age,ast_per_poss,blk_per_poss,def_rtg,drb_per_poss,fg2_pct,fg2_per_poss,fg2a_per_poss,fg3_pct,fg3_per_poss,fg3a_per_poss,fg_pct,fg_per_poss,fga_per_poss,ft_pct,ft_per_poss,fta_per_poss,g,gs,lg_id,mp,off_rtg,orb_per_poss,pf_per_poss,pos,pts_per_poss,season,stl_per_poss,team_id,tov_per_poss,trb_per_poss
23.0,6.2,0.2,107.0,3.6,0.449,6.9,15.3,0.424,1.9,4.6,0.444,8.8,19.9,0.826,5.5,6.7,16.0,16.0,NBA,661.0,113.0,1.1,2.3,PG,25.1,2002,1.8,SAC,2.9,4.6
24.0,7.5,0.6,112.0,2.9,0.479,5.8,12.0,0.282,1.4,4.9,0.422,7.2,16.9,0.794,3.4,4.3,12.0,12.0,NBA,404.0,110.0,1.0,3.9,PG,19.1,2003,1.8,SAC,2.3,3.9
25.0,8.7,0.5,103.0,4.2,0.426,6.2,14.6,0.436,2.5,5.7,0.429,8.7,20.3,0.873,5.0,5.7,12.0,12.0,NBA,497.0,108.0,0.9,4.1,PG,24.8,2004,2.4,SAC,3.6,5.2
26.0,8.8,0.5,119.0,4.5,0.449,8.2,18.3,0.217,1.3,6.1,0.391,9.6,24.4,0.778,5.6,7.2,5.0,5.0,NBA,200.0,103.0,1.3,2.9,PG,26.0,2005,1.9,SAC,3.4,5.8
27.0,6.6,0.0,121.0,3.6,0.348,4.9,14.1,0.346,1.9,5.6,0.348,6.9,19.7,0.9,5.8,6.4,6.0,6.0,NBA,255.0,100.0,1.3,3.6,PG,21.4,2006,1.9,SAC,3.9,4.9
29.0,4.9,0.4,119.0,4.2,0.366,3.3,9.1,0.292,1.6,5.3,0.338,4.9,14.4,0.656,4.7,7.1,7.0,7.0,NBA,252.0,94.0,0.7,2.7,PG,16.0,2008,0.9,ATL,2.9,4.9
30.0,6.9,0.3,113.0,4.6,0.397,3.4,8.7,0.542,3.9,7.2,0.462,7.3,15.8,0.955,3.1,3.3,11.0,11.0,NBA,390.0,115.0,0.9,5.1,PG,21.7,2009,1.5,ATL,3.6,5.5
31.0,5.4,0.0,114.0,4.4,0.478,4.2,8.8,0.412,2.7,6.5,0.45,6.9,15.3,0.7,1.3,1.9,11.0,11.0,NBA,292.0,111.0,1.0,5.0,PG,17.8,2010,1.7,ATL,2.3,5.4
32.0,3.1,0.8,107.0,4.2,0.333,1.3,4.0,0.258,2.3,8.8,0.281,3.6,12.9,0.5,0.3,0.5,20.0,20.0,NBA,415.0,78.0,0.7,4.0,PG,9.8,2011,1.5,MIA,2.3,4.8
33.0,6.1,0.0,113.0,8.4,0.333,0.9,2.8,0.412,3.3,8.0,0.391,4.2,10.8,0.667,0.9,1.4,5.0,1.0,NBA,118.0,118.0,1.4,3.3,PG,12.6,2012,0.5,NYK,1.9,9.8
