article_url,date,headline
https://orlandomagicdaily.com/2019/10/26/orlando-magic-aim-2021-timofey-mozgov-exemption-request/,2019/10/26,Orlando Magic Daily: Orlando Magic aim for 2021 with Timofey Mozgov exemption request
https://orlandomagicdaily.com/2019/10/19/2019-2020-preseason-orlando-magic-leave-few-clues-last-roster-spot/,2019/10/19,Orlando Magic Daily: Orlando Magic leave few clues on last roster spot
https://orlandomagicdaily.com/2019/10/12/orlando-magic-grades-boston-celtics-100-orlando-magic-75/,2019/10/12,"Orlando Magic Daily: Orlando Magic Grades: Boston Celtics 100, Orlando Magic 75"
https://orlandomagicdaily.com/2019/10/11/orlando-magic-preseason-5-things-we-have-learned-so-far/,2019/10/11,Orlando Magic Daily: Orlando Magic Preseason: 5 things we have learned so far
