age,ast,blk,drb,efg_pct,fg,fg2,fg2_pct,fg2a,fg3,fg3_pct,fg3a,fg_pct,fga,ft,ft_pct,fta,g,gs,lg_id,mp,orb,pf,pos,pts,season,stl,team_id,tov,trb
22.0,6.0,2.0,4.0,0.516,16.0,16.0,0.516,31.0,0.0,0.0,0.0,0.516,31.0,6.0,0.75,8.0,8.0,0.0,NBA,60.0,5.0,11.0,SF,38.0,1985,7.0,POR,2.0,9.0
23.0,4.0,4.0,8.0,0.409,9.0,9.0,0.429,21.0,0.0,0.0,1.0,0.409,22.0,4.0,1.0,4.0,4.0,0.0,NBA,56.0,7.0,13.0,SF,22.0,1986,1.0,POR,6.0,15.0
24.0,3.0,1.0,13.0,0.4,10.0,10.0,0.4,25.0,0.0,0.0,0.0,0.4,25.0,4.0,1.0,4.0,4.0,0.0,NBA,60.0,6.0,13.0,SF,24.0,1987,5.0,POR,6.0,19.0
25.0,9.0,4.0,13.0,0.492,32.0,32.0,0.5,64.0,0.0,0.0,1.0,0.492,65.0,15.0,0.714,21.0,4.0,4.0,NBA,127.0,17.0,17.0,SF,79.0,1988,7.0,POR,5.0,30.0
26.0,7.0,1.0,13.0,0.489,23.0,23.0,0.511,45.0,0.0,0.0,2.0,0.489,47.0,15.0,0.789,19.0,3.0,3.0,NBA,117.0,11.0,12.0,SF,61.0,1989,10.0,POR,4.0,24.0
27.0,45.0,20.0,108.0,0.46,166.0,166.0,0.464,358.0,0.0,0.0,3.0,0.46,361.0,103.0,0.715,144.0,21.0,21.0,NBA,831.0,66.0,87.0,SF,435.0,1990,34.0,POR,45.0,174.0
28.0,49.0,7.0,59.0,0.465,105.0,105.0,0.465,226.0,0.0,0.0,0.0,0.465,226.0,76.0,0.752,101.0,16.0,16.0,NBA,588.0,52.0,68.0,SF,286.0,1991,28.0,POR,17.0,111.0
29.0,75.0,19.0,103.0,0.51,131.0,131.0,0.516,254.0,0.0,0.0,3.0,0.51,257.0,79.0,0.693,114.0,21.0,21.0,NBA,756.0,59.0,85.0,SF,341.0,1992,41.0,POR,53.0,162.0
30.0,4.0,2.0,24.0,0.536,22.0,21.0,0.512,41.0,1.0,1.0,1.0,0.524,42.0,12.0,0.706,17.0,4.0,1.0,NBA,98.0,10.0,15.0,SF,57.0,1993,4.0,POR,2.0,34.0
31.0,0.0,1.0,4.0,0.313,5.0,5.0,0.313,16.0,0.0,0.0,0.0,0.313,16.0,1.0,0.2,5.0,3.0,0.0,NBA,38.0,5.0,5.0,SF,11.0,1994,1.0,POR,0.0,9.0
32.0,3.0,1.0,6.0,0.571,16.0,16.0,0.615,26.0,0.0,0.0,2.0,0.571,28.0,6.0,0.667,9.0,3.0,0.0,NBA,63.0,2.0,11.0,SF,38.0,1995,3.0,POR,0.0,8.0
34.0,14.0,6.0,34.0,0.486,17.0,17.0,0.5,34.0,0.0,0.0,1.0,0.486,35.0,15.0,0.789,19.0,9.0,0.0,NBA,210.0,14.0,34.0,SF,49.0,1997,9.0,LAL,3.0,48.0
35.0,9.0,10.0,23.0,0.431,31.0,31.0,0.449,69.0,0.0,0.0,3.0,0.431,72.0,16.0,0.842,19.0,10.0,5.0,NBA,213.0,17.0,32.0,SF,78.0,1998,10.0,SEA,13.0,40.0
36.0,4.0,1.0,20.0,0.36,15.0,14.0,0.359,39.0,1.0,0.25,4.0,0.349,43.0,5.0,0.714,7.0,14.0,0.0,NBA,152.0,10.0,19.0,SF,36.0,1999,6.0,SAS,6.0,30.0
37.0,1.0,1.0,2.0,0.143,1.0,1.0,0.143,7.0,0.0,0.0,0.0,0.143,7.0,0.0,0.0,0.0,2.0,0.0,NBA,25.0,2.0,5.0,SF,2.0,2000,2.0,SAS,1.0,4.0
