lg_id,salary,season,team_name
NBA,100000.0,1986,Portland Trail Blazers
NBA,190000.0,1988,Portland Trail Blazers
NBA,451000.0,1989,Portland Trail Blazers
NBA,550000.0,1991,Portland Trail Blazers
NBA,561000.0,1992,Portland Trail Blazers
NBA,2655000.0,1993,Portland Trail Blazers
NBA,2940000.0,1994,Portland Trail Blazers
NBA,3608000.0,1995,Portland Trail Blazers
NBA,255000.0,1996,Golden State Warriors
NBA,247500.0,1997,Los Angeles Lakers
NBA,500000.0,1998,Seattle SuperSonics
NBA,1000000.0,1999,San Antonio Spurs
NBA,1000000.0,2000,San Antonio Spurs
NBA,1000000.0,2001,Milwaukee Bucks
