age,avg_dist,fg2_dunk,fg2_pct,fg2_pct_ast,fg2a_pct_fga,fg3_heave,fg3_pct,fg3_pct_ast,fg3_pct_corner,fg3a_heave,fg3a_pct_fga,fg_pct,fg_pct_00_03,fg_pct_03_10,fg_pct_10_16,fg_pct_16_xx,g,lg_id,mp,pct_fg2_dunk,pct_fg3a_corner,pct_fga_00_03,pct_fga_03_10,pct_fga_10_16,pct_fga_16_xx,pos,season,team_id
21.0,9.3,5.0,0.424,0.786,0.815,0.0,0.067,1.0,0.111,0.0,0.185,0.358,0.537,0.2,0.167,0.286,39.0,NBA,370.0,0.062,0.6,0.506,0.062,0.074,0.173,SG,2006,NJN
22.0,10.9,5.0,0.474,0.736,0.765,0.0,0.322,1.0,0.35,2.0,0.235,0.438,0.576,0.4,0.333,0.291,63.0,NBA,1137.0,0.028,0.678,0.47,0.04,0.036,0.219,SG,2007,NJN
23.0,13.0,12.0,0.475,0.663,0.666,0.0,0.291,1.0,0.387,3.0,0.334,0.413,0.556,0.267,0.4,0.383,56.0,NBA,1232.0,0.04,0.564,0.377,0.046,0.061,0.182,SG,2008,TOT
23.0,13.4,12.0,0.473,0.705,0.648,0.0,0.267,1.0,0.364,3.0,0.352,0.401,0.562,0.25,0.412,0.365,41.0,NBA,1056.0,0.045,0.545,0.366,0.042,0.059,0.181,SG,2008,NJN
23.0,10.3,0.0,0.485,0.438,0.786,0.0,0.556,1.0,0.571,0.0,0.214,0.5,0.526,0.333,0.333,0.5,15.0,NBA,176.0,0.0,0.778,0.452,0.071,0.071,0.19,SG,2008,DAL
24.0,12.8,5.0,0.475,0.478,0.654,0.0,0.302,0.933,0.288,1.0,0.346,0.415,0.54,0.275,0.263,0.507,65.0,NBA,1552.0,0.016,0.537,0.348,0.093,0.044,0.169,SF,2009,DAL
25.0,16.1,5.0,0.46,0.365,0.566,1.0,0.335,0.897,0.424,5.0,0.434,0.406,0.566,0.242,0.348,0.451,67.0,NBA,1392.0,0.02,0.491,0.248,0.083,0.058,0.178,SF,2010,TOR
26.0,17.9,0.0,0.25,0.0,0.5,0.0,0.0,0.0,0.0,0.0,0.5,0.125,1.0,0.0,0.0,0.0,7.0,NBA,31.0,0.0,0.5,0.125,0.125,0.0,0.25,SG,2011,SAC
