age,ast_per_g,blk_per_g,drb_per_g,efg_pct,fg2_pct,fg2_per_g,fg2a_per_g,fg3_pct,fg3_per_g,fg3a_per_g,fg_pct,fg_per_g,fga_per_g,ft_pct,ft_per_g,fta_per_g,g,gs,lg_id,mp_per_g,orb_per_g,pf_per_g,pos,pts_per_g,season,stl_per_g,team_id,tov_per_g,trb_per_g
22.0,0.8,0.0,0.3,0.36,0.36,0.8,2.3,0.0,0.0,0.0,0.36,0.8,2.3,0.8,0.4,0.5,11.0,0.0,NBA,6.2,0.1,1.3,PG,2.0,1977,0.3,PHI,0.0,0.4
24.0,0.0,0.0,1.0,0.0,0.0,0.0,2.0,0.0,0.0,0.0,0.0,0.0,2.0,0.0,0.0,0.0,1.0,0.0,NBA,10.0,0.0,1.0,SG,0.0,1979,0.0,HOU,0.0,1.0
25.0,2.2,0.0,0.5,0.5,0.6,1.0,1.7,0.0,0.0,0.3,0.5,1.0,2.0,0.833,0.8,1.0,6.0,0.0,NBA,7.5,0.3,1.8,PG,2.8,1980,0.8,HOU,1.0,0.8
26.0,3.4,0.1,1.7,0.474,0.46,3.2,6.9,0.4,0.3,0.8,0.454,3.5,7.6,0.868,1.7,1.9,20.0,0.0,NBA,23.6,0.5,3.0,SG,8.9,1981,0.8,HOU,1.5,2.1
27.0,3.0,0.0,1.0,0.409,0.5,3.0,6.0,0.0,0.0,1.3,0.409,3.0,7.3,0.833,1.7,2.0,3.0,0.0,NBA,22.0,0.0,2.3,SG,7.7,1982,0.7,HOU,0.3,1.0
28.0,4.5,0.1,0.9,0.4,0.4,1.3,3.2,0.267,0.7,2.7,0.338,2.0,5.9,0.692,0.8,1.2,11.0,0.0,NBA,15.8,0.3,2.0,PG,5.5,1983,0.8,SAS,1.3,1.2
29.0,3.1,0.0,1.7,0.527,0.519,2.7,5.3,0.36,1.2,3.3,0.457,3.9,8.6,0.917,2.2,2.4,15.0,0.0,NBA,26.2,0.7,3.9,PG,11.3,1984,1.1,MIL,2.3,2.3
