age,ast,blk,drb,efg_pct,fg,fg2,fg2_pct,fg2a,fg3,fg3_pct,fg3a,fg_pct,fga,ft,ft_pct,fta,g,gs,lg_id,mp,orb,pf,pos,pts,season,stl,team_id,tov,trb
25.0,0.0,0.0,0.0,1.0,3.0,3.0,1.0,3.0,0.0,0.0,0.0,1.0,3.0,1.0,0.5,2.0,3.0,0.0,NBA,12.0,2.0,3.0,PF,7.0,2004,0.0,POR,1.0,2.0
26.0,1.0,1.0,6.0,0.393,4.0,1.0,0.2,5.0,3.0,0.333,9.0,0.286,14.0,2.0,1.0,2.0,11.0,0.0,NBA,61.0,3.0,5.0,SF,13.0,2005,2.0,NJN,2.0,9.0
29.0,1.0,1.0,1.0,0.333,1.0,1.0,0.333,3.0,0.0,0.0,0.0,0.333,3.0,0.0,0.0,0.0,5.0,0.0,NBA,12.0,0.0,1.0,PF,2.0,2008,0.0,CLE,0.0,1.0
