age,ast,ast_per_g,blk,college_id,fg,fg3,fg3_pct,fg3a,fg_pct,fga,ft,ft_pct,fta,g,mp,mp_per_g,orb,pf,pts,pts_per_g,season,stl,tov,trb,trb_per_g
19.0,2.0,0.1,0.0,TYLERJC,44.0,4.0,0.286,14.0,0.407,108.0,22.0,0.55,40.0,17.0,0.0,0.0,0.0,0.0,114.0,6.7,1998,0.0,0.0,73.0,4.3
20.0,7.0,0.3,14.0,IDAHO,66.0,0.0,0.0,3.0,0.478,138.0,31.0,0.608,51.0,26.0,427.0,16.4,0.0,54.0,163.0,6.3,1999,21.0,47.0,124.0,4.8
21.0,27.0,0.9,25.0,IDAHO,118.0,13.0,0.382,34.0,0.486,243.0,102.0,0.638,160.0,29.0,796.0,27.4,0.0,96.0,351.0,12.1,2000,26.0,65.0,192.0,6.6
