age,and1s,astd_pts,drawn_offensive,drawn_shooting,fouls_offensive,fouls_shooting,g,lg_id,mp,own_shots_blk,pct_1,pct_2,pct_3,pct_4,pct_5,plus_minus_net,plus_minus_on,pos,season,team_id,tov_bad_pass,tov_lost_ball
20.0,11.0,180.0,8.0,56.0,10.0,100.0,82.0,NBA,2187.0,43.0,0.0,91.0,9.0,0.0,0.0,-5.6,-5.7,SG,2014,SAC,36.0,36.0
21.0,13.0,302.0,7.0,65.0,14.0,128.0,82.0,NBA,2670.0,37.0,0.0,96.0,4.0,0.0,0.0,8.4,-1.0,SG,2015,SAC,56.0,47.0
22.0,8.0,182.0,11.0,37.0,13.0,68.0,68.0,NBA,1443.0,24.0,2.0,88.0,11.0,0.0,0.0,5.0,0.4,SG,2016,SAC,22.0,45.0
23.0,16.0,115.0,5.0,47.0,5.0,60.0,61.0,NBA,1176.0,22.0,11.0,82.0,7.0,0.0,0.0,-2.8,-5.9,SG,2017,SAC,28.0,19.0
24.0,5.0,118.0,7.0,26.0,8.0,57.0,56.0,NBA,1091.0,17.0,3.0,78.0,19.0,0.0,0.0,-9.9,-13.7,SG,2018,MEM,32.0,15.0
25.0,0.0,11.0,2.0,5.0,0.0,10.0,19.0,NBA,158.0,3.0,1.0,59.0,41.0,0.0,0.0,-1.5,-2.4,SG,2019,SAC,2.0,1.0
26.0,0.0,26.0,2.0,5.0,1.0,8.0,11.0,NBA,177.0,0.0,47.0,52.0,2.0,0.0,0.0,16.3,13.4,SG,2020,HOU,2.0,0.0
