age,ast_per_poss,blk_per_poss,def_rtg,drb_per_poss,fg2_pct,fg2_per_poss,fg2a_per_poss,fg3_pct,fg3_per_poss,fg3a_per_poss,fg_pct,fg_per_poss,fga_per_poss,ft_pct,ft_per_poss,fta_per_poss,g,gs,lg_id,mp,off_rtg,orb_per_poss,pf_per_poss,pos,pts_per_poss,season,stl_per_poss,team_id,tov_per_poss,trb_per_poss
30.0,1.9,1.3,102.0,10.6,0.532,8.1,15.1,0.0,0.0,0.0,0.532,8.1,15.1,0.667,5.8,8.7,17.0,0.0,NBA,172.0,114.0,7.1,10.3,C,21.9,2004,1.0,UTA,3.2,17.7
31.0,2.4,0.9,109.0,7.7,0.524,7.9,15.0,0.0,0.0,0.2,0.518,7.9,15.2,0.529,1.6,3.1,21.0,5.0,NBA,297.0,99.0,4.2,10.1,C,17.4,2005,1.3,UTA,3.3,11.9
