age,ast_per_poss,blk_per_poss,def_rtg,drb_per_poss,fg2_pct,fg2_per_poss,fg2a_per_poss,fg3_pct,fg3_per_poss,fg3a_per_poss,fg_pct,fg_per_poss,fga_per_poss,ft_pct,ft_per_poss,fta_per_poss,g,gs,lg_id,mp,off_rtg,orb_per_poss,pf_per_poss,pos,pts_per_poss,season,stl_per_poss,team_id,tov_per_poss,trb_per_poss
22.0,1.0,4.4,99.0,7.3,0.433,7.1,16.4,0.0,0.0,0.0,0.433,7.1,16.4,0.56,1.7,3.1,60.0,12.0,NBA,872.0,91.0,3.6,7.2,C,15.9,2011,1.3,MIL,2.3,10.9
23.0,2.6,6.1,97.0,7.8,0.462,6.7,14.5,0.0,0.0,0.2,0.457,6.7,14.7,0.474,1.4,3.0,52.0,0.0,NBA,643.0,92.0,4.9,10.6,PF,14.8,2012,2.5,MIL,3.4,12.7
24.0,2.2,5.3,99.0,11.7,0.507,8.0,15.8,0.0,0.0,0.1,0.506,8.0,15.8,0.618,2.2,3.6,71.0,55.0,NBA,1937.0,109.0,5.9,6.1,C,18.2,2013,1.4,MIL,2.3,17.6
25.0,1.7,3.6,107.0,9.4,0.472,6.8,14.4,0.0,0.0,0.1,0.469,6.8,14.5,0.473,2.3,4.9,23.0,20.0,NBA,584.0,100.0,5.4,6.6,C,15.9,2014,1.6,MIL,2.3,14.8
26.0,2.0,3.4,98.0,8.6,0.5,7.5,15.0,0.0,0.0,0.0,0.5,7.5,15.0,0.5,2.1,4.2,27.0,26.0,NBA,586.0,104.0,5.8,9.1,C,17.1,2015,2.3,MIL,2.4,14.5
28.0,0.0,3.8,103.0,3.8,0.25,3.8,15.4,0.0,0.0,0.0,0.25,3.8,15.4,1.0,7.7,7.7,5.0,0.0,NBA,13.0,85.0,11.5,19.2,C,15.4,2017,3.8,CLE,7.7,15.4
