age,ast,blk,drb,fg,fg2,fg2a,fg3,fg3a,fga,ft,fta,game_score,lg_id,mp,orb,pf,pts,season,stl,team_id,tov,trb
27.0,1.0,0.0,3.0,4.0,4.0,6.0,0.0,0.0,6.0,1.0,1.0,6.9,NBA,0.0,2.0,4.0,9.0,1989,1.0,TOT,4.0,3.0
27.0,1.0,0.0,3.0,4.0,4.0,6.0,0.0,0.0,6.0,1.0,1.0,6.9,NBA,0.0,2.0,4.0,9.0,1989,1.0,PHI,4.0,3.0
28.0,1.0,0.0,0.0,5.0,5.0,7.0,0.0,1.0,8.0,1.0,2.0,6.5,NBA,0.0,0.0,3.0,11.0,1990,1.0,PHI,1.0,0.0
29.0,2.0,1.0,3.0,5.0,5.0,8.0,0.0,1.0,9.0,4.0,4.0,8.8,NBA,0.0,2.0,5.0,12.0,1991,1.0,BOS,2.0,3.0
