age,ast_per_mp,blk_per_mp,drb_per_mp,fg2_pct,fg2_per_mp,fg2a_per_mp,fg3_pct,fg3_per_mp,fg3a_per_mp,fg_pct,fg_per_mp,fga_per_mp,ft_pct,ft_per_mp,fta_per_mp,g,gs,lg_id,mp,orb_per_mp,pf_per_mp,pos,pts_per_mp,season,stl_per_mp,team_id,tov_per_mp,trb_per_mp
21.0,0.5,0.9,6.5,0.429,4.9,11.5,0.0,0.0,0.5,0.412,4.9,11.9,0.68,4.0,5.8,27.0,0.0,NBA,154.0,2.3,9.4,SF,13.8,1983,0.0,GSW,2.6,8.9
22.0,2.3,0.6,3.2,0.551,6.6,11.9,0.167,0.0,0.2,0.546,6.6,12.1,0.755,3.4,4.5,61.0,20.0,NBA,1297.0,1.5,4.6,SG,16.7,1984,0.9,SDC,2.2,4.7
23.0,2.8,0.7,3.3,0.542,8.9,16.3,0.158,0.0,0.2,0.537,8.9,16.6,0.794,5.2,6.6,80.0,80.0,NBA,2762.0,2.3,4.1,SG,23.0,1985,1.0,LAC,3.0,5.6
24.0,3.3,1.4,2.2,0.553,10.5,19.0,0.5,0.1,0.2,0.552,10.6,19.2,0.69,6.2,8.9,11.0,9.0,NBA,339.0,2.1,3.7,SG,27.5,1986,1.0,LAC,3.5,4.4
25.0,4.4,0.5,2.6,0.454,7.1,15.7,0.273,0.2,0.7,0.446,7.3,16.4,0.781,3.9,5.0,52.0,42.0,NBA,1658.0,1.3,4.0,SG,18.7,1987,1.0,SAC,2.7,4.0
26.0,3.6,0.7,2.7,0.487,6.6,13.7,0.348,0.3,0.9,0.478,7.0,14.6,0.77,3.5,4.5,35.0,18.0,NBA,899.0,1.4,4.3,SG,17.7,1988,0.8,SAC,1.9,4.1
27.0,3.6,0.6,2.9,0.449,5.8,12.9,0.226,0.2,0.9,0.435,6.0,13.8,0.686,3.6,5.2,65.0,38.0,NBA,1295.0,1.7,4.6,SG,15.8,1989,1.2,TOT,2.4,4.6
27.0,3.6,0.5,3.1,0.414,6.5,15.7,0.2,0.2,0.9,0.402,6.7,16.6,0.674,3.8,5.7,29.0,20.0,NBA,600.0,1.8,3.8,SG,17.3,1989,1.1,SAC,2.6,4.9
27.0,3.5,0.8,2.8,0.495,5.2,10.6,0.25,0.2,0.8,0.477,5.4,11.4,0.699,3.4,4.8,36.0,18.0,NBA,695.0,1.6,5.2,SG,14.5,1989,1.2,PHI,2.3,4.5
28.0,2.8,0.5,2.8,0.513,6.3,12.2,0.444,0.4,0.9,0.508,6.7,13.2,0.699,3.3,4.8,75.0,7.0,NBA,1405.0,1.6,5.1,SF,17.1,1990,0.9,PHI,2.2,4.4
29.0,11.3,2.3,0.0,0.333,2.3,6.8,0.0,0.0,2.3,0.25,2.3,9.0,0.75,6.8,9.0,2.0,0.0,NBA,16.0,0.0,6.8,SF,11.3,1991,2.3,BOS,2.3,0.0
