age,ast,blk,drb,fg,fg2,fg2a,fg3,fg3a,fga,ft,fta,game_score,lg_id,mp,orb,pf,pts,season,stl,team_id,tov,trb
23.0,13.0,2.0,5.0,11.0,10.0,18.0,2.0,4.0,21.0,11.0,13.0,22.4,NBA,0.0,5.0,6.0,28.0,1987,7.0,PHI,6.0,6.0
24.0,7.0,3.0,5.0,10.0,9.0,23.0,1.0,3.0,24.0,7.0,10.0,19.9,NBA,0.0,3.0,5.0,28.0,1988,5.0,PHI,5.0,5.0
25.0,15.0,1.0,6.0,6.0,6.0,10.0,1.0,1.0,10.0,7.0,7.0,21.7,NBA,0.0,2.0,5.0,19.0,1989,2.0,PHI,5.0,6.0
26.0,8.0,2.0,9.0,7.0,7.0,13.0,0.0,1.0,13.0,5.0,5.0,14.1,NBA,0.0,3.0,6.0,19.0,1990,4.0,SAS,6.0,11.0
27.0,6.0,1.0,6.0,6.0,6.0,9.0,1.0,1.0,10.0,4.0,6.0,13.7,NBA,0.0,4.0,5.0,15.0,1991,3.0,SAS,4.0,7.0
28.0,9.0,3.0,9.0,8.0,8.0,16.0,1.0,2.0,17.0,8.0,10.0,19.2,NBA,0.0,5.0,6.0,18.0,1992,5.0,WSB,5.0,10.0
29.0,9.0,1.0,5.0,10.0,10.0,11.0,1.0,1.0,12.0,5.0,8.0,24.4,NBA,0.0,3.0,6.0,23.0,1993,6.0,CHH,4.0,7.0
30.0,9.0,1.0,11.0,7.0,7.0,17.0,1.0,2.0,17.0,5.0,7.0,17.9,NBA,0.0,3.0,5.0,16.0,1994,5.0,CHH,5.0,13.0
31.0,5.0,1.0,4.0,5.0,5.0,8.0,1.0,3.0,8.0,3.0,4.0,12.9,NBA,0.0,2.0,4.0,11.0,1995,4.0,CHH,3.0,6.0
32.0,4.0,2.0,4.0,8.0,6.0,10.0,2.0,3.0,11.0,5.0,6.0,18.1,NBA,0.0,2.0,4.0,18.0,1996,3.0,SEA,3.0,5.0
33.0,3.0,1.0,3.0,4.0,4.0,8.0,2.0,4.0,9.0,4.0,4.0,15.2,NBA,0.0,2.0,5.0,14.0,1997,5.0,SEA,3.0,4.0
34.0,3.0,2.0,5.0,4.0,4.0,6.0,1.0,2.0,7.0,2.0,2.0,7.8,NBA,0.0,3.0,4.0,9.0,1998,2.0,SEA,3.0,5.0
35.0,3.0,0.0,1.0,2.0,2.0,4.0,0.0,0.0,4.0,0.0,0.0,4.7,NBA,0.0,1.0,5.0,4.0,1999,3.0,NYK,2.0,1.0
36.0,1.0,2.0,1.0,1.0,1.0,3.0,0.0,0.0,3.0,0.0,0.0,0.0,NBA,0.0,1.0,3.0,2.0,2000,1.0,NYK,1.0,1.0
37.0,2.0,0.0,0.0,3.0,3.0,3.0,0.0,0.0,3.0,0.0,0.0,6.1,NBA,0.0,0.0,1.0,6.0,2001,0.0,SEA,0.0,0.0
