age,ast_pct,blk_pct,bpm,bpm-dum,dbpm,drb_pct,dws,fg3a_per_fga_pct,fta_per_fga_pct,g,lg_id,mp,obpm,orb_pct,ows,per,pos,season,stl_pct,team_id,tov_pct,trb_pct,ts_pct,usg_pct,vorp,ws,ws-dum,ws_per_48
23.0,26.9,0.0,-5.4,0.0,-1.5,12.5,0.5,0.272,0.148,41.0,NBA,384.0,-3.9,1.7,-0.5,9.9,PG,2016,1.9,IND,15.5,7.1,0.428,24.4,-0.3,-0.1,0.0,-0.009
24.0,18.0,0.0,-7.3,0.0,-3.8,13.1,0.1,0.319,0.208,33.0,NBA,135.0,-3.5,0.8,-0.2,11.4,PG,2017,1.5,IND,6.0,7.1,0.433,27.8,-0.2,-0.1,0.0,-0.022
25.0,9.9,0.2,-4.7,0.0,-2.3,10.3,0.4,0.355,0.156,53.0,NBA,558.0,-2.4,2.4,0.1,10.1,PG,2018,1.3,IND,11.6,6.4,0.521,18.0,-0.4,0.5,0.0,0.043
