age,avg_dist,fg2_dunk,fg2_pct,fg2_pct_ast,fg2a_pct_fga,fg3_heave,fg3_pct,fg3_pct_ast,fg3_pct_corner,fg3a_heave,fg3a_pct_fga,fg_pct,fg_pct_00_03,fg_pct_03_10,fg_pct_10_16,fg_pct_16_xx,g,lg_id,mp,pct_fg2_dunk,pct_fg3a_corner,pct_fga_00_03,pct_fga_03_10,pct_fga_10_16,pct_fga_16_xx,pos,season,team_id
21.0,10.1,64.0,0.48,0.63,0.905,0.0,0.232,0.923,0.261,0.0,0.095,0.457,0.58,0.479,0.311,0.398,79.0,NBA,1917.0,0.129,0.411,0.423,0.081,0.103,0.298,SF,2002,NJN
22.0,8.9,111.0,0.507,0.673,0.974,0.0,0.25,0.833,0.143,0.0,0.026,0.501,0.657,0.388,0.341,0.399,80.0,NBA,2879.0,0.138,0.292,0.436,0.127,0.097,0.314,SF,2003,NJN
23.0,9.9,112.0,0.516,0.682,0.882,0.0,0.364,0.875,0.444,0.0,0.118,0.498,0.659,0.281,0.383,0.435,82.0,NBA,3133.0,0.11,0.341,0.416,0.109,0.103,0.254,SF,2004,NJN
24.0,12.7,38.0,0.438,0.49,0.842,0.0,0.337,0.9,0.419,0.0,0.158,0.422,0.531,0.41,0.441,0.368,33.0,NBA,1355.0,0.073,0.348,0.287,0.108,0.105,0.342,SF,2005,NJN
25.0,10.6,121.0,0.532,0.743,0.813,0.0,0.319,0.917,0.361,1.0,0.187,0.493,0.629,0.222,0.406,0.483,78.0,NBA,3059.0,0.142,0.383,0.437,0.072,0.064,0.241,SF,2006,NJN
26.0,12.0,49.0,0.483,0.681,0.782,0.0,0.359,0.962,0.302,0.0,0.218,0.456,0.567,0.491,0.426,0.383,55.0,NBA,1956.0,0.087,0.434,0.361,0.08,0.071,0.271,SF,2007,NJN
27.0,11.7,90.0,0.486,0.738,0.84,0.0,0.362,0.961,0.426,0.0,0.16,0.466,0.599,0.378,0.356,0.409,82.0,NBA,3200.0,0.074,0.286,0.373,0.068,0.078,0.32,SF,2008,NJN
28.0,13.8,51.0,0.453,0.587,0.761,0.0,0.397,0.931,0.443,0.0,0.239,0.439,0.571,0.416,0.342,0.399,82.0,NBA,2939.0,0.046,0.394,0.261,0.092,0.096,0.312,SF,2009,MIL
29.0,12.4,65.0,0.515,0.647,0.759,0.0,0.316,1.0,0.37,3.0,0.241,0.467,0.695,0.333,0.29,0.434,81.0,NBA,2520.0,0.092,0.39,0.33,0.116,0.089,0.223,SF,2010,SAS
30.0,16.2,43.0,0.504,0.751,0.522,0.0,0.44,0.985,0.462,0.0,0.478,0.474,0.683,0.38,0.444,0.345,81.0,NBA,2459.0,0.081,0.599,0.226,0.078,0.042,0.176,SF,2011,SAS
31.0,19.6,9.0,0.411,0.633,0.449,0.0,0.42,0.965,0.416,1.0,0.551,0.416,0.737,0.188,0.31,0.392,63.0,NBA,1748.0,0.02,0.42,0.078,0.066,0.059,0.246,SF,2012,TOT
31.0,19.8,3.0,0.403,0.712,0.404,0.0,0.421,0.963,0.4,0.0,0.596,0.414,0.64,0.222,0.2,0.408,41.0,NBA,1168.0,0.013,0.5,0.078,0.056,0.047,0.223,SF,2012,SAS
31.0,19.1,6.0,0.422,0.526,0.533,0.0,0.418,0.97,0.5,1.0,0.467,0.42,0.923,0.143,0.429,0.367,22.0,NBA,580.0,0.036,0.228,0.077,0.083,0.083,0.29,SF,2012,GSW
32.0,13.5,10.0,0.527,0.563,0.669,0.0,0.311,0.929,0.474,1.0,0.331,0.456,0.737,0.32,0.455,0.412,56.0,NBA,568.0,0.096,0.422,0.279,0.184,0.081,0.125,SF,2013,GSW
33.0,16.2,39.0,0.484,0.485,0.54,0.0,0.409,0.959,0.491,0.0,0.46,0.45,0.719,0.36,0.385,0.308,82.0,NBA,2213.0,0.067,0.359,0.206,0.115,0.06,0.159,SF,2014,UTA
34.0,15.0,21.0,0.462,0.577,0.522,0.0,0.426,0.924,0.438,0.0,0.478,0.444,0.634,0.295,0.077,0.4,74.0,NBA,1244.0,0.08,0.413,0.253,0.136,0.04,0.093,SF,2015,DAL
35.0,16.1,15.0,0.554,0.714,0.446,0.0,0.382,0.955,0.44,0.0,0.554,0.458,0.75,0.32,0.353,0.36,74.0,NBA,1326.0,0.054,0.486,0.231,0.08,0.054,0.08,SF,2016,CLE
36.0,15.6,39.0,0.58,0.747,0.458,0.0,0.333,0.984,0.375,1.0,0.542,0.446,0.77,0.2,0.5,0.211,79.0,NBA,1614.0,0.122,0.473,0.292,0.087,0.023,0.055,SF,2017,CLE
37.0,11.0,1.0,0.5,0.5,0.741,0.0,0.286,0.5,0.0,0.0,0.259,0.444,0.667,0.444,0.5,0.0,20.0,NBA,163.0,0.037,0.0,0.222,0.333,0.148,0.037,SF,2018,DEN
