age,ast_per_poss,blk_per_poss,def_rtg,drb_per_poss,fg2_pct,fg2_per_poss,fg2a_per_poss,fg3_pct,fg3_per_poss,fg3a_per_poss,fg_pct,fg_per_poss,fga_per_poss,ft_pct,ft_per_poss,fta_per_poss,g,gs,lg_id,mp,off_rtg,orb_per_poss,pf_per_poss,pos,pts_per_poss,season,stl_per_poss,team_id,tov_per_poss,trb_per_poss
24.0,10.2,0.1,115.0,3.9,0.465,4.4,9.5,0.163,0.2,1.5,0.423,4.7,11.1,0.848,2.8,3.3,64.0,11.0,NBA,1487.0,104.0,1.1,3.3,SG,12.4,2006,1.5,TOR,3.6,5.0
25.0,12.4,0.2,108.0,3.6,0.553,7.6,13.8,0.333,0.8,2.4,0.521,8.4,16.2,0.818,3.8,4.6,77.0,11.0,NBA,1614.0,117.0,0.7,4.4,PG,21.5,2007,2.0,TOR,3.5,4.3
26.0,14.5,0.1,109.0,4.3,0.551,6.2,11.2,0.429,1.7,3.9,0.519,7.9,15.1,0.908,2.3,2.6,82.0,56.0,NBA,2484.0,127.0,0.7,2.9,PG,19.7,2008,1.9,TOR,2.7,5.1
27.0,13.6,0.2,112.0,4.0,0.538,5.3,9.9,0.406,1.8,4.5,0.497,7.2,14.4,0.981,3.4,3.4,68.0,68.0,NBA,2333.0,123.0,0.4,2.5,PG,19.5,2009,1.7,TOR,3.2,4.3
28.0,11.5,0.2,116.0,3.4,0.519,5.8,11.3,0.398,1.9,4.9,0.482,7.8,16.1,0.798,2.4,3.0,68.0,39.0,NBA,1817.0,119.0,0.7,3.8,PG,19.8,2010,1.3,TOR,2.8,4.0
29.0,14.9,0.2,114.0,4.2,0.466,5.0,10.8,0.365,1.4,3.8,0.44,6.4,14.7,0.854,2.2,2.5,68.0,55.0,NBA,2102.0,112.0,0.7,3.5,PG,16.5,2011,2.0,TOR,3.6,5.0
30.0,14.0,0.1,108.0,4.2,0.5,4.8,9.5,0.371,1.8,4.8,0.457,6.5,14.3,0.882,1.8,2.0,53.0,53.0,NBA,1799.0,116.0,0.6,2.8,PG,16.6,2012,1.4,TOR,3.1,4.8
31.0,12.7,0.2,111.0,3.8,0.516,4.5,8.7,0.461,3.2,6.9,0.491,7.7,15.6,0.9,1.8,2.0,73.0,58.0,NBA,2160.0,124.0,0.5,2.4,PG,20.3,2013,1.4,TOT,3.1,4.3
31.0,13.9,0.3,111.0,3.8,0.505,4.5,8.9,0.429,3.3,7.7,0.47,7.8,16.6,0.904,2.0,2.2,45.0,30.0,NBA,1273.0,123.0,0.6,2.4,PG,20.9,2013,1.2,TOR,3.1,4.4
31.0,11.0,0.1,111.0,3.8,0.532,4.4,8.3,0.52,3.0,5.8,0.527,7.4,14.1,0.893,1.5,1.7,28.0,28.0,NBA,887.0,126.0,0.4,2.4,PG,19.4,2013,1.8,DET,3.0,4.2
32.0,7.8,0.2,112.0,3.4,0.464,3.1,6.7,0.449,4.0,8.8,0.456,7.1,15.6,0.825,1.1,1.3,81.0,81.0,NBA,2468.0,120.0,0.6,2.8,PG,19.2,2014,1.4,DAL,2.1,4.0
33.0,8.2,0.0,113.0,4.4,0.415,3.6,8.8,0.415,2.4,5.9,0.415,6.1,14.7,0.906,1.2,1.3,42.0,42.0,NBA,1270.0,103.0,0.8,3.2,PG,15.8,2015,1.3,NYK,3.1,5.1
34.0,7.6,0.2,109.0,5.3,0.496,3.2,6.4,0.414,2.1,5.2,0.459,5.3,11.6,0.875,1.1,1.2,72.0,72.0,NBA,2024.0,114.0,0.6,3.4,PG,13.8,2016,1.6,NYK,2.2,5.8
35.0,8.0,0.1,113.0,5.4,0.5,3.2,6.4,0.313,1.8,5.8,0.41,5.0,12.2,0.917,1.0,1.1,41.0,13.0,NBA,539.0,100.0,1.4,3.3,PG,12.8,2017,1.0,TOT,3.7,6.7
35.0,8.5,0.2,115.0,5.7,0.465,3.3,7.2,0.353,2.0,5.7,0.416,5.3,12.8,1.0,0.7,0.7,24.0,11.0,NBA,292.0,98.0,1.3,3.7,PG,13.3,2017,1.2,LAL,4.3,7.0
35.0,7.4,0.0,110.0,5.0,0.556,3.0,5.4,0.267,1.6,6.0,0.404,4.6,11.4,0.875,1.4,1.6,17.0,2.0,NBA,247.0,103.0,1.4,2.8,PG,12.2,2017,0.8,ATL,3.0,6.4
36.0,6.3,0.1,115.0,3.8,0.545,2.6,4.7,0.464,2.4,5.2,0.503,5.0,9.9,0.8,1.3,1.6,57.0,32.0,NBA,914.0,122.0,0.8,4.3,PG,13.7,2018,1.4,CLE,2.2,4.5
37.0,9.0,0.2,112.0,3.8,0.492,2.4,4.9,0.246,1.1,4.4,0.375,3.5,9.4,0.818,0.7,0.9,49.0,0.0,NBA,632.0,102.0,0.9,5.0,PG,8.8,2019,1.2,DET,2.7,4.7
