age,ast_per_mp,blk_per_mp,drb_per_mp,fg2_pct,fg2_per_mp,fg2a_per_mp,fg3_pct,fg3_per_mp,fg3a_per_mp,fg_pct,fg_per_mp,fga_per_mp,ft_pct,ft_per_mp,fta_per_mp,g,gs,lg_id,mp,orb_per_mp,pf_per_mp,pos,pts_per_mp,season,stl_per_mp,team_id,tov_per_mp,trb_per_mp
24.0,7.0,0.1,2.7,0.465,3.0,6.5,0.163,0.2,1.0,0.423,3.2,7.6,0.848,1.9,2.2,64.0,11.0,NBA,1487.0,0.7,2.3,SG,8.4,2006,1.0,TOR,2.4,3.4
25.0,8.6,0.1,2.5,0.553,5.3,9.6,0.333,0.6,1.7,0.521,5.9,11.3,0.818,2.6,3.2,77.0,11.0,NBA,1614.0,0.5,3.0,PG,14.9,2007,1.4,TOR,2.5,3.0
26.0,9.8,0.1,2.9,0.551,4.2,7.6,0.429,1.1,2.7,0.519,5.3,10.2,0.908,1.6,1.7,82.0,56.0,NBA,2484.0,0.5,1.9,PG,13.4,2008,1.3,TOR,1.8,3.4
27.0,9.4,0.1,2.7,0.538,3.7,6.8,0.406,1.3,3.1,0.497,4.9,9.9,0.981,2.3,2.4,68.0,68.0,NBA,2333.0,0.2,1.8,PG,13.5,2009,1.1,TOR,2.2,3.0
28.0,8.0,0.1,2.4,0.519,4.1,7.9,0.398,1.3,3.4,0.482,5.4,11.3,0.798,1.6,2.1,68.0,39.0,NBA,1817.0,0.5,2.7,PG,13.8,2010,0.9,TOR,2.0,2.8
29.0,10.4,0.1,2.9,0.466,3.5,7.5,0.365,1.0,2.7,0.44,4.5,10.2,0.854,1.5,1.8,68.0,55.0,NBA,2102.0,0.5,2.4,PG,11.5,2011,1.4,TOR,2.5,3.5
30.0,9.4,0.1,2.8,0.5,3.2,6.4,0.371,1.2,3.2,0.457,4.4,9.5,0.882,1.2,1.4,53.0,53.0,NBA,1799.0,0.4,1.9,PG,11.1,2012,0.9,TOR,2.1,3.2
31.0,8.6,0.1,2.6,0.516,3.0,5.9,0.461,2.2,4.7,0.491,5.2,10.6,0.9,1.2,1.3,73.0,58.0,NBA,2160.0,0.3,1.6,PG,13.8,2013,1.0,TOT,2.1,2.9
31.0,9.4,0.2,2.6,0.505,3.1,6.1,0.429,2.2,5.2,0.47,5.3,11.3,0.904,1.3,1.5,45.0,30.0,NBA,1273.0,0.4,1.6,PG,14.1,2013,0.8,TOR,2.1,3.0
31.0,7.5,0.1,2.6,0.532,3.0,5.6,0.52,2.1,4.0,0.527,5.1,9.6,0.893,1.0,1.1,28.0,28.0,NBA,887.0,0.2,1.7,PG,13.2,2013,1.2,DET,2.1,2.8
32.0,5.5,0.2,2.4,0.464,2.2,4.7,0.449,2.8,6.2,0.456,5.0,10.9,0.825,0.8,0.9,81.0,81.0,NBA,2468.0,0.4,2.0,PG,13.5,2014,1.0,DAL,1.5,2.8
33.0,5.6,0.0,3.0,0.415,2.5,6.0,0.415,1.7,4.0,0.415,4.2,10.0,0.906,0.8,0.9,42.0,42.0,NBA,1270.0,0.5,2.2,PG,10.8,2015,0.9,NYK,2.1,3.5
34.0,5.3,0.1,3.7,0.496,2.2,4.5,0.414,1.5,3.6,0.459,3.7,8.1,0.875,0.7,0.9,72.0,72.0,NBA,2024.0,0.4,2.4,PG,9.7,2016,1.1,NYK,1.5,4.1
35.0,5.9,0.1,3.9,0.5,2.3,4.7,0.313,1.3,4.3,0.41,3.7,8.9,0.917,0.7,0.8,41.0,13.0,NBA,539.0,1.0,2.4,PG,9.4,2017,0.7,TOT,2.7,4.9
35.0,6.3,0.1,4.2,0.465,2.5,5.3,0.353,1.5,4.2,0.416,3.9,9.5,1.0,0.5,0.5,24.0,11.0,NBA,292.0,1.0,2.7,PG,9.9,2017,0.9,LAL,3.2,5.2
35.0,5.4,0.0,3.6,0.556,2.2,3.9,0.267,1.2,4.4,0.404,3.4,8.3,0.875,1.0,1.2,17.0,2.0,NBA,247.0,1.0,2.0,PG,8.9,2017,0.6,ATL,2.2,4.7
36.0,4.6,0.1,2.8,0.545,1.9,3.5,0.464,1.8,3.8,0.503,3.7,7.3,0.8,0.9,1.2,57.0,32.0,NBA,914.0,0.6,3.2,PG,10.0,2018,1.1,CLE,1.6,3.3
37.0,6.6,0.2,2.8,0.492,1.8,3.6,0.246,0.8,3.2,0.375,2.6,6.8,0.818,0.5,0.6,49.0,0.0,NBA,632.0,0.6,3.6,PG,6.4,2019,0.9,DET,2.0,3.4
