age,ast_pct,blk_pct,bpm,bpm-dum,dbpm,drb_pct,dws,fg3a_per_fga_pct,fta_per_fga_pct,g,lg_id,mp,obpm,orb_pct,ows,per,pos,season,stl_pct,team_id,tov_pct,trb_pct,ts_pct,usg_pct,vorp,ws,ws-dum,ws_per_48
21.0,6.5,0.0,-6.1,0.0,-3.9,13.0,0.1,0.333,0.314,7.0,NBA,135.0,-2.2,2.7,0.1,12.1,SG,2006,0.4,MIN,12.1,8.0,0.534,23.2,-0.1,0.2,0.0,0.054
22.0,12.7,0.4,-2.0,0.0,-1.3,8.6,0.2,0.333,0.3,19.0,NBA,190.0,-0.7,4.5,0.2,13.8,SG,2007,2.5,MIN,8.1,6.6,0.493,18.1,0.0,0.3,0.0,0.077
