age,ast,blk,drb,efg_pct,fg,fg2,fg2_pct,fg2a,fg3,fg3_pct,fg3a,fg_pct,fga,ft,ft_pct,fta,g,gs,lg_id,mp,orb,pf,pos,pts,season,stl,team_id,tov,trb
21.0,5.0,0.0,15.0,0.471,21.0,15.0,0.441,34.0,6.0,0.353,17.0,0.412,51.0,14.0,0.875,16.0,7.0,0.0,NBA,135.0,3.0,8.0,SG,62.0,2006,1.0,MIN,8.0,18.0
22.0,15.0,1.0,14.0,0.45,24.0,18.0,0.45,40.0,6.0,0.3,20.0,0.4,60.0,13.0,0.722,18.0,19.0,0.0,NBA,190.0,7.0,6.0,SG,67.0,2007,9.0,MIN,6.0,21.0
