age,ast,blk,drb,fg,fg2,fg2a,fg3,fg3a,fga,ft,fta,game_score,lg_id,mp,orb,pf,pts,season,stl,team_id,tov,trb
21.0,3.0,0.0,4.0,8.0,5.0,8.0,3.0,6.0,14.0,6.0,6.0,10.6,NBA,35,2.0,4.0,19.0,2006,1.0,MIN,3.0,6.0
22.0,4.0,1.0,3.0,5.0,4.0,6.0,1.0,5.0,11.0,3.0,4.0,10.8,NBA,27,2.0,2.0,13.0,2007,2.0,MIN,2.0,5.0
