age,ast_per_g,blk_per_g,drb_per_g,efg_pct,fg2_pct,fg2_per_g,fg2a_per_g,fg3_pct,fg3_per_g,fg3a_per_g,fg_pct,fg_per_g,fga_per_g,ft_pct,ft_per_g,fta_per_g,g,gs,lg_id,mp_per_g,orb_per_g,pf_per_g,pos,pts_per_g,season,stl_per_g,team_id,tov_per_g,trb_per_g
23.0,0.5,0.0,0.3,0.438,0.438,0.7,1.6,0.0,0.0,0.0,0.438,0.7,1.6,1.0,0.2,0.2,10.0,0.0,NBA,5.0,0.4,0.4,PG,1.6,1990,0.4,DET,0.4,0.7
26.0,0.3,0.0,0.0,0.417,0.25,0.3,1.3,0.5,0.3,0.7,0.333,0.7,2.0,0.0,0.0,0.0,3.0,0.0,NBA,5.0,0.0,0.3,PG,1.7,1993,0.3,SAC,0.0,0.0
