age,ast_per_mp,blk_per_mp,drb_per_mp,fg2_pct,fg2_per_mp,fg2a_per_mp,fg3_pct,fg3_per_mp,fg3a_per_mp,fg_pct,fg_per_mp,fga_per_mp,ft_pct,ft_per_mp,fta_per_mp,g,gs,lg_id,mp,orb_per_mp,pf_per_mp,pos,pts_per_mp,season,stl_per_mp,team_id,tov_per_mp,trb_per_mp
23.0,2.0,2.7,6.7,0.461,4.5,9.9,0.0,0.0,0.0,0.461,4.5,9.9,0.583,2.1,3.6,63.0,27.0,NBA,1085.0,3.1,6.3,C,11.2,1982,0.6,DAL,1.9,9.8
24.0,2.7,2.6,5.9,0.489,4.1,8.4,1.0,0.0,0.0,0.49,4.1,8.4,0.55,1.8,3.3,81.0,12.0,NBA,1515.0,3.7,6.8,C,10.1,1983,0.6,DAL,1.6,9.6
25.0,2.8,2.3,5.2,0.522,4.3,8.2,0.25,0.0,0.1,0.52,4.3,8.2,0.623,1.6,2.6,82.0,46.0,NBA,2284.0,2.9,4.5,C,10.2,1984,0.6,DAL,1.5,8.1
26.0,3.3,2.3,4.9,0.458,3.5,7.7,0.0,0.0,0.1,0.452,3.5,7.8,0.771,1.9,2.5,82.0,40.0,NBA,2010.0,2.4,4.7,C,9.0,1985,0.5,DAL,1.7,7.3
27.0,1.0,1.7,4.9,0.508,5.7,11.2,0.0,0.0,0.0,0.506,5.7,11.2,0.74,3.1,4.2,80.0,66.0,NBA,2226.0,2.5,4.3,PF,14.5,1986,0.5,TOT,1.9,7.3
27.0,1.8,1.5,4.8,0.521,4.8,9.1,0.0,0.0,0.1,0.514,4.8,9.3,0.586,2.2,3.7,13.0,4.0,NBA,280.0,3.0,4.9,PF,11.7,1986,0.4,DAL,1.7,7.7
27.0,0.9,1.7,4.9,0.506,5.8,11.5,0.0,0.0,0.0,0.505,5.8,11.5,0.76,3.3,4.3,67.0,62.0,NBA,1946.0,2.4,4.2,PF,14.9,1986,0.6,LAC,2.0,7.3
28.0,0.8,1.8,3.5,0.475,5.1,10.8,0.0,0.0,0.1,0.47,5.1,10.9,0.675,2.7,4.0,66.0,11.0,NBA,1088.0,2.6,5.2,PF,12.9,1987,0.7,TOT,2.1,6.2
28.0,0.8,1.8,3.3,0.478,5.3,11.1,0.0,0.0,0.1,0.472,5.3,11.2,0.648,2.5,3.9,38.0,6.0,NBA,811.0,2.6,5.2,PF,13.1,1987,0.7,LAC,2.1,5.9
28.0,0.9,1.7,4.2,0.468,4.7,10.0,0.0,0.0,0.1,0.462,4.7,10.1,0.75,3.1,4.2,28.0,5.0,NBA,277.0,2.9,4.9,PF,12.5,1987,0.5,DET,2.1,7.0
29.0,2.1,2.2,3.6,0.5,5.0,10.0,0.0,0.0,0.0,0.498,5.0,10.1,0.723,2.4,3.3,72.0,7.0,NBA,919.0,2.4,5.5,C,12.4,1988,0.9,SAS,1.9,6.0
31.0,0.7,2.1,4.5,0.422,4.4,10.3,0.0,0.0,0.1,0.418,4.4,10.4,0.467,1.6,3.4,38.0,1.0,NBA,314.0,2.5,5.2,C,10.3,1990,0.5,PHI,1.4,7.0
