age,ast,blk,drb,efg_pct,fg,fg2,fg2_pct,fg2a,fg3,fg3_pct,fg3a,fg_pct,fga,ft,ft_pct,fta,g,gs,lg_id,mp,orb,pf,pos,pts,season,stl,team_id,tov,trb
24.0,5.0,0.0,7.0,0.398,24.0,21.0,0.404,52.0,3.0,0.25,12.0,0.375,64.0,6.0,0.857,7.0,3.0,3.0,NBA,119.0,3.0,7.0,SF,57.0,1992,2.0,MIA,6.0,10.0
26.0,10.0,2.0,30.0,0.434,26.0,19.0,0.422,45.0,7.0,0.304,23.0,0.382,68.0,6.0,0.75,8.0,5.0,5.0,NBA,195.0,6.0,14.0,SF,65.0,1994,11.0,MIA,14.0,36.0
29.0,11.0,1.0,10.0,0.544,28.0,22.0,0.537,41.0,6.0,0.375,16.0,0.491,57.0,21.0,0.913,23.0,3.0,3.0,NBA,137.0,1.0,11.0,SF,83.0,1997,4.0,CHH,4.0,11.0
30.0,13.0,3.0,40.0,0.506,82.0,71.0,0.518,137.0,11.0,0.306,36.0,0.474,173.0,30.0,0.833,36.0,9.0,9.0,NBA,369.0,11.0,26.0,SF,205.0,1998,5.0,CHH,13.0,51.0
31.0,11.0,1.0,23.0,0.495,45.0,35.0,0.479,73.0,10.0,0.357,28.0,0.446,101.0,28.0,0.966,29.0,7.0,7.0,NBA,307.0,4.0,15.0,SF,128.0,1999,5.0,LAL,9.0,27.0
32.0,48.0,4.0,82.0,0.469,93.0,65.0,0.404,161.0,28.0,0.418,67.0,0.408,228.0,71.0,0.798,89.0,23.0,23.0,NBA,766.0,10.0,50.0,SF,285.0,2000,15.0,LAL,36.0,92.0
33.0,3.0,1.0,19.0,0.519,24.0,18.0,0.474,38.0,6.0,0.429,14.0,0.462,52.0,7.0,0.875,8.0,5.0,0.0,NBA,144.0,3.0,10.0,SF,61.0,2001,3.0,NYK,7.0,22.0
