age,avg_dist,fg2_dunk,fg2_pct,fg2_pct_ast,fg2a_pct_fga,fg3_heave,fg3_pct,fg3_pct_ast,fg3_pct_corner,fg3a_heave,fg3a_pct_fga,fg_pct,fg_pct_00_03,fg_pct_03_10,fg_pct_10_16,fg_pct_16_xx,g,lg_id,mp,pct_fg2_dunk,pct_fg3a_corner,pct_fga_00_03,pct_fga_03_10,pct_fga_10_16,pct_fga_16_xx,pos,season,team_id
28.0,20.6,0.0,0.292,0.286,0.522,0.0,0.364,0.75,1.0,2.0,0.478,0.326,0.0,0.333,0.167,0.364,18.0,NBA,216.0,0.0,0.045,0.022,0.13,0.13,0.239,PG,2018,ATL
30.0,9.3,0.0,0.5,0.0,1.0,0.0,0.0,0.0,0.0,0.0,0.0,0.5,1.0,1.0,0.0,0.0,1.0,NBA,6.0,0.0,0.0,0.25,0.25,0.25,0.25,PG,2020,ORL
