age,ast_per_poss,blk_per_poss,def_rtg,drb_per_poss,fg2_pct,fg2_per_poss,fg2a_per_poss,fg3_pct,fg3_per_poss,fg3a_per_poss,fg_pct,fg_per_poss,fga_per_poss,ft_pct,ft_per_poss,fta_per_poss,g,gs,lg_id,mp,off_rtg,orb_per_poss,pf_per_poss,pos,pts_per_poss,season,stl_per_poss,team_id,tov_per_poss,trb_per_poss
28.0,12.9,0.2,113.0,3.8,0.292,1.6,5.4,0.364,1.8,5.0,0.326,3.4,10.4,1.0,1.8,1.8,18.0,0.0,NBA,216.0,116.0,0.5,3.6,PG,10.4,2018,1.8,ATL,2.0,4.3
30.0,8.2,0.0,93.0,0.0,0.5,16.4,32.8,0.0,0.0,0.0,0.5,16.4,32.8,0.0,0.0,0.0,1.0,0.0,NBA,6.0,118.0,8.2,0.0,PG,32.8,2020,8.2,ORL,0.0,8.2
