age,ast,blk,drb,fg,fg2,fg2a,fg3,fg3a,fga,ft,fta,game_score,lg_id,mp,orb,pf,pts,season,stl,team_id,tov,trb
21.0,5.0,2.0,11.0,10.0,8.0,13.0,4.0,8.0,19.0,8.0,9.0,20.0,NBA,45,4.0,5.0,24.0,2010,3.0,SAC,4.0,11.0
22.0,4.0,2.0,9.0,8.0,6.0,11.0,6.0,9.0,15.0,4.0,8.0,20.2,NBA,44,5.0,5.0,21.0,2011,6.0,SAC,4.0,11.0
23.0,4.0,2.0,9.0,5.0,4.0,8.0,3.0,7.0,12.0,6.0,7.0,13.3,NBA,37,3.0,4.0,14.0,2012,4.0,CLE,4.0,12.0
24.0,4.0,2.0,9.0,4.0,4.0,6.0,4.0,6.0,11.0,4.0,7.0,12.8,NBA,29,2.0,6.0,15.0,2013,4.0,CLE,2.0,9.0
25.0,7.0,2.0,9.0,9.0,7.0,10.0,3.0,7.0,15.0,6.0,6.0,17.0,NBA,34,3.0,4.0,20.0,2014,3.0,HOU,5.0,12.0
26.0,7.0,1.0,14.0,12.0,8.0,15.0,4.0,6.0,20.0,10.0,13.0,23.8,NBA,42,5.0,5.0,31.0,2015,3.0,SAC,5.0,17.0
27.0,6.0,2.0,11.0,13.0,6.0,11.0,9.0,12.0,18.0,6.0,8.0,24.7,NBA,42,3.0,6.0,36.0,2016,5.0,SAC,5.0,11.0
28.0,5.0,1.0,8.0,6.0,5.0,9.0,2.0,4.0,13.0,3.0,4.0,12.0,NBA,38,3.0,5.0,13.0,2017,5.0,TOT,5.0,10.0
28.0,5.0,1.0,8.0,6.0,5.0,9.0,2.0,4.0,13.0,3.0,4.0,12.0,NBA,31,3.0,3.0,13.0,2017,2.0,SAC,3.0,10.0
28.0,0.0,0.0,1.0,5.0,3.0,5.0,2.0,4.0,9.0,0.0,0.0,5.5,NBA,24,1.0,3.0,12.0,2017,0.0,NOP,2.0,2.0
28.0,2.0,1.0,3.0,3.0,3.0,4.0,1.0,2.0,4.0,2.0,2.0,8.2,NBA,38,2.0,5.0,7.0,2017,5.0,MIN,5.0,3.0
29.0,4.0,3.0,10.0,7.0,7.0,10.0,1.0,3.0,10.0,4.0,5.0,18.8,NBA,31,3.0,5.0,19.0,2018,2.0,GSW,3.0,11.0
30.0,3.0,2.0,8.0,8.0,8.0,11.0,2.0,4.0,13.0,4.0,6.0,19.1,NBA,36,2.0,3.0,20.0,2019,4.0,MEM,4.0,8.0
