age,ast_per_poss,blk_per_poss,def_rtg,drb_per_poss,fg2_pct,fg2_per_poss,fg2a_per_poss,fg3_pct,fg3_per_poss,fg3a_per_poss,fg_pct,fg_per_poss,fga_per_poss,ft_pct,ft_per_poss,fta_per_poss,g,gs,lg_id,mp,off_rtg,orb_per_poss,pf_per_poss,pos,pts_per_poss,season,stl_per_poss,team_id,tov_per_poss,trb_per_poss
25.0,12.0,0.0,107.0,4.8,0.263,6.0,22.8,0.2,1.2,6.0,0.25,7.2,28.8,0.5,2.4,4.8,13.0,0.0,NBA,44.0,80.0,2.4,7.2,PG,18.0,2001,1.2,TOT,2.4,7.2
25.0,11.2,0.0,106.0,11.2,0.0,0.0,14.9,0.0,0.0,3.7,0.0,0.0,18.6,0.0,0.0,0.0,3.0,0.0,NBA,14.0,22.0,0.0,0.0,PG,0.0,2001,0.0,ATL,7.5,11.2
25.0,12.4,0.0,108.0,1.8,0.333,8.8,26.5,0.25,1.8,7.1,0.316,10.6,33.6,0.5,3.5,7.1,10.0,0.0,NBA,30.0,99.0,3.5,10.6,PG,26.5,2001,1.8,HOU,0.0,5.3
