age,avg_dist,fg2_dunk,fg2_pct,fg2_pct_ast,fg2a_pct_fga,fg3_heave,fg3_pct,fg3_pct_ast,fg3_pct_corner,fg3a_heave,fg3a_pct_fga,fg_pct,fg_pct_00_03,fg_pct_03_10,fg_pct_10_16,fg_pct_16_xx,g,lg_id,mp,pct_fg2_dunk,pct_fg3a_corner,pct_fga_00_03,pct_fga_03_10,pct_fga_10_16,pct_fga_16_xx,pos,season,team_id
21.0,10.9,0.0,0.313,0.6,0.842,0.0,0.0,0.0,0.0,0.0,0.158,0.263,0.429,0.0,0.0,0.5,6.0,NBA,35.0,0.0,0.333,0.368,0.053,0.211,0.211,SG,2001,MIL
22.0,14.2,8.0,0.501,0.612,0.675,0.0,0.444,0.932,0.488,1.0,0.325,0.483,0.647,0.424,0.444,0.387,67.0,NBA,1417.0,0.013,0.414,0.251,0.108,0.133,0.182,SG,2002,MIL
23.0,15.8,9.0,0.492,0.689,0.572,0.0,0.438,0.918,0.366,0.0,0.428,0.469,0.667,0.427,0.39,0.367,82.0,NBA,2316.0,0.009,0.315,0.213,0.084,0.103,0.171,SG,2003,MIL
24.0,13.1,32.0,0.47,0.563,0.748,0.0,0.35,0.913,0.361,2.0,0.252,0.44,0.602,0.421,0.414,0.377,82.0,NBA,3021.0,0.024,0.298,0.252,0.127,0.203,0.166,SG,2004,MIL
25.0,13.8,20.0,0.463,0.516,0.793,0.0,0.355,0.865,0.37,0.0,0.207,0.441,0.59,0.321,0.427,0.458,75.0,NBA,2848.0,0.016,0.314,0.2,0.11,0.238,0.246,SG,2005,MIL
26.0,13.8,17.0,0.471,0.503,0.728,0.0,0.395,0.853,0.447,0.0,0.272,0.45,0.576,0.413,0.399,0.412,80.0,NBA,3130.0,0.012,0.298,0.269,0.08,0.15,0.229,SG,2006,MIL
27.0,13.2,10.0,0.501,0.486,0.701,0.0,0.382,0.829,0.457,0.0,0.299,0.465,0.636,0.415,0.438,0.362,53.0,NBA,2036.0,0.012,0.301,0.305,0.103,0.109,0.183,SF,2007,MIL
28.0,13.5,3.0,0.475,0.39,0.711,0.0,0.362,0.792,0.493,0.0,0.289,0.442,0.555,0.467,0.432,0.395,72.0,NBA,2702.0,0.003,0.203,0.28,0.097,0.147,0.187,SG,2008,MIL
29.0,14.2,4.0,0.503,0.453,0.651,0.0,0.366,0.957,0.305,0.0,0.349,0.455,0.655,0.52,0.35,0.366,33.0,NBA,1203.0,0.007,0.309,0.265,0.091,0.11,0.185,SG,2009,MIL
30.0,13.5,2.0,0.373,0.439,0.718,0.0,0.3,1.0,0.333,0.0,0.282,0.352,0.473,0.355,0.286,0.304,18.0,NBA,492.0,0.009,0.3,0.258,0.146,0.099,0.216,SG,2010,MIL
31.0,16.5,0.0,0.5,0.5,0.622,0.0,0.235,1.0,0.222,0.0,0.378,0.4,1.0,0.571,0.0,0.385,10.0,NBA,134.0,0.0,0.529,0.111,0.156,0.067,0.289,SG,2011,MIL
32.0,15.9,1.0,0.447,0.49,0.633,0.0,0.318,0.976,0.345,0.0,0.367,0.4,0.654,0.315,0.526,0.369,51.0,NBA,770.0,0.003,0.417,0.144,0.15,0.106,0.233,SG,2012,PHO
