age,ast_per_mp,blk_per_mp,drb_per_mp,fg2_pct,fg2_per_mp,fg2a_per_mp,fg3_pct,fg3_per_mp,fg3a_per_mp,fg_pct,fg_per_mp,fga_per_mp,ft_pct,ft_per_mp,fta_per_mp,g,gs,lg_id,mp,orb_per_mp,pf_per_mp,pos,pts_per_mp,season,stl_per_mp,team_id,tov_per_mp,trb_per_mp
23.0,3.1,0.3,3.4,0.45,5.1,11.3,0.25,0.8,3.4,0.404,5.9,14.6,0.929,3.7,3.9,6.0,0.0,NBA,128.0,2.5,4.2,SG,16.3,2003,0.6,MIL,2.0,5.9
24.0,2.4,0.0,3.6,0.444,5.2,11.8,0.3,1.1,3.7,0.41,6.4,15.6,0.762,3.0,3.9,5.0,5.0,NBA,192.0,1.1,3.0,SG,16.9,2004,0.0,MIL,3.6,4.7
26.0,1.6,0.0,2.1,0.536,7.2,13.4,0.467,1.4,2.9,0.524,8.6,16.3,0.891,8.0,9.0,5.0,5.0,NBA,185.0,3.1,2.1,SG,26.5,2006,0.8,MIL,1.9,5.3
