article_url,date,headline
https://behindthebuckpass.com/2019/10/21/milwaukee-bucks-roundtable-ready-2019-20-season-begin/,2019/10/21,Behind the Buck Pass: Milwaukee Bucks Roundtable: Ready for the 2019-20 season to begin
https://behindthebuckpass.com/2019/08/25/milwaukee-bucks-can-kyle-korver-chase-franchise-3-point-shooting-record/,2019/08/25,Behind the Buck Pass: Milwaukee Bucks: Can Kyle Korver chase franchise 3-point shooting record?
https://lastwordonprobasketball.com/2019/08/23/milwaukee-bucks-all-time-team/,2019/08/23,Last Word on Sports: Milwaukee Bucks All-Time Team
