age,ast,blk,drb,fg,fg2,fg2a,fg3,fg3a,fga,ft,fta,game_score,lg_id,mp,orb,pf,pts,season,stl,team_id,tov,trb
27.0,1.0,0.0,2.0,1.0,1.0,4.0,0.0,0.0,4.0,2.0,2.0,2.9,NBA,0.0,2.0,2.0,4.0,1985,0.0,CHI,1.0,3.0
28.0,2.0,1.0,2.0,3.0,3.0,9.0,0.0,0.0,9.0,4.0,8.0,1.7,NBA,0.0,2.0,6.0,8.0,1986,0.0,SAS,3.0,4.0
29.0,1.0,1.0,9.0,9.0,9.0,18.0,0.0,0.0,18.0,11.0,16.0,19.6,NBA,0.0,5.0,5.0,29.0,1987,1.0,POR,3.0,12.0
31.0,0.0,0.0,3.0,1.0,1.0,4.0,0.0,0.0,4.0,3.0,3.0,4.0,NBA,0.0,1.0,3.0,5.0,1989,2.0,POR,2.0,4.0
