age,ast_per_poss,blk_per_poss,def_rtg,drb_per_poss,fg2_pct,fg2_per_poss,fg2a_per_poss,fg3_pct,fg3_per_poss,fg3a_per_poss,fg_pct,fg_per_poss,fga_per_poss,ft_pct,ft_per_poss,fta_per_poss,g,gs,lg_id,mp,off_rtg,orb_per_poss,pf_per_poss,pos,pts_per_poss,season,stl_per_poss,team_id,tov_per_poss,trb_per_poss
24.0,2.5,2.4,105.0,8.3,0.613,10.7,17.4,0.0,0.0,0.0,0.613,10.7,17.4,0.642,5.7,8.9,78.0,50.0,NBA,1741.0,108.0,4.1,10.1,C,27.1,1982,1.1,KCK,5.3,12.4
25.0,2.8,2.4,103.0,7.5,0.624,10.8,17.4,0.0,0.0,0.0,0.624,10.8,17.4,0.574,5.4,9.5,79.0,21.0,NBA,1544.0,108.0,4.1,9.4,C,27.1,1983,1.2,KCK,5.3,11.6
26.0,2.6,2.2,106.0,8.1,0.559,9.6,17.2,0.0,0.0,0.0,0.559,9.6,17.2,0.575,5.2,9.1,81.0,21.0,NBA,1487.0,102.0,5.1,9.8,C,24.4,1984,1.2,TOT,5.2,13.3
26.0,3.3,2.5,106.0,8.3,0.553,9.9,17.9,0.0,0.0,0.0,0.553,9.9,17.9,0.571,5.3,9.2,50.0,12.0,NBA,893.0,101.0,4.9,9.8,C,25.0,1984,1.1,KCK,5.5,13.2
26.0,1.5,1.7,106.0,7.9,0.571,9.2,16.0,0.0,0.0,0.0,0.571,9.2,16.0,0.582,5.2,8.9,31.0,9.0,NBA,594.0,103.0,5.5,9.6,C,23.5,1984,1.2,CHI,4.8,13.4
27.0,1.9,1.8,108.0,8.5,0.548,8.2,14.9,0.0,0.0,0.1,0.545,8.2,15.0,0.718,5.3,7.3,74.0,54.0,NBA,1659.0,106.0,4.3,7.7,C,21.6,1985,1.1,CHI,4.4,12.7
28.0,2.4,1.7,107.0,8.1,0.632,9.2,14.5,0.0,0.0,0.0,0.632,9.2,14.5,0.694,6.6,9.4,71.0,55.0,NBA,1828.0,112.0,3.6,7.4,C,24.9,1986,1.1,SAS,4.8,11.7
29.0,3.0,1.5,109.0,7.3,0.556,9.6,17.3,0.0,0.0,0.0,0.556,9.6,17.3,0.698,6.7,9.6,79.0,74.0,NBA,2345.0,106.0,3.8,6.6,C,25.9,1987,1.0,POR,5.4,11.0
30.0,2.5,1.4,108.0,7.0,0.53,11.4,21.5,0.0,0.0,0.0,0.529,11.4,21.5,0.586,6.4,11.0,43.0,33.0,NBA,1050.0,100.0,3.7,6.7,C,29.2,1988,0.8,POR,5.4,10.7
31.0,3.3,1.4,109.0,7.0,0.524,9.3,17.7,0.0,0.0,0.0,0.524,9.3,17.7,0.527,4.0,7.7,72.0,11.0,NBA,1477.0,102.0,4.2,7.9,C,22.5,1989,0.6,POR,4.4,11.2
32.0,3.3,1.0,111.0,6.6,0.522,9.4,17.9,0.0,0.0,0.0,0.522,9.4,17.9,0.6,4.1,6.8,25.0,0.0,NBA,259.0,96.0,3.7,10.9,C,22.8,1990,0.6,TOT,6.0,10.3
32.0,3.1,0.0,110.0,9.3,0.0,0.0,6.2,0.0,0.0,0.0,0.0,0.0,6.2,0.0,0.0,0.0,4.0,0.0,NBA,17.0,6.0,0.0,12.4,C,0.0,1990,0.0,MIN,18.6,9.3
32.0,3.3,1.0,111.0,6.5,0.533,10.0,18.7,0.0,0.0,0.0,0.533,10.0,18.7,0.6,4.4,7.3,21.0,0.0,NBA,242.0,102.0,4.0,10.8,C,24.3,1990,0.6,SEA,5.2,10.4
33.0,3.5,0.8,110.0,7.9,0.54,6.9,12.8,0.0,0.0,0.0,0.54,6.9,12.8,0.595,4.5,7.5,24.0,8.0,NBA,228.0,99.0,3.7,10.2,C,18.3,1991,0.8,GSW,5.1,11.6
