age,ast_pct,blk_pct,bpm,bpm-dum,dbpm,drb_pct,dws,fg3a_per_fga_pct,fta_per_fga_pct,g,lg_id,mp,obpm,orb_pct,ows,per,pos,season,stl_pct,team_id,tov_pct,trb_pct,ts_pct,usg_pct,vorp,ws,ws-dum,ws_per_48
20.0,4.5,2.7,-7.0,0.0,-1.6,17.1,0.4,0.005,0.249,42.0,NBA,568.0,-5.3,10.8,-0.5,10.4,C,2012,1.5,GSW,13.4,14.0,0.442,21.8,-0.7,-0.2,0.0,-0.014
21.0,2.3,2.3,-11.9,0.0,-2.4,22.3,0.1,0.0,0.25,21.0,NBA,68.0,-9.5,10.0,-0.2,6.2,C,2013,0.7,TOT,18.4,16.3,0.413,21.5,-0.2,-0.1,0.0,-0.049
21.0,2.5,2.5,-11.5,0.0,-2.4,18.7,0.1,0.0,0.25,20.0,NBA,63.0,-9.1,10.8,-0.2,6.1,C,2013,0.8,GSW,18.4,14.9,0.413,23.2,-0.2,-0.1,0.0,-0.063
21.0,0.0,0.0,-16.4,0.0,-2.6,67.7,0.0,0.0,0.0,1.0,NBA,5.0,-13.8,0.0,0.0,8.5,C,2013,0.0,ATL,0.0,34.3,0.0,0.0,0.0,0.0,0.0,0.122
22.0,3.3,4.5,-5.1,0.0,-0.8,21.6,0.4,0.0,0.414,41.0,NBA,398.0,-4.3,10.9,0.1,13.0,C,2014,0.8,NYK,15.9,16.1,0.532,19.1,-0.3,0.5,0.0,0.064
