age,and1s,astd_pts,drawn_offensive,drawn_shooting,fouls_offensive,fouls_shooting,g,lg_id,mp,own_shots_blk,pct_1,pct_2,pct_3,pct_4,pct_5,plus_minus_net,plus_minus_on,pos,season,team_id,tov_bad_pass,tov_lost_ball
20.0,12.0,38.0,2.0,30.0,5.0,49.0,42.0,NBA,568.0,24.0,0.0,0.0,0.0,2.0,98.0,-8.1,-10.3,C,2012,GSW,5.0,16.0
21.0,0.0,2.0,0.0,2.0,0.0,6.0,21.0,NBA,68.0,5.0,0.0,0.0,0.0,34.0,66.0,3.9,4.6,C,2013,TOT,2.0,3.0
21.0,0.0,2.0,0.0,2.0,0.0,6.0,20.0,NBA,63.0,5.0,0.0,0.0,0.0,37.0,63.0,8.2,9.1,C,2013,GSW,2.0,3.0
21.0,0.0,0.0,0.0,0.0,0.0,0.0,1.0,NBA,5.0,0.0,0.0,0.0,0.0,0.0,100.0,-57.5,-56.9,C,2013,ATL,0.0,0.0
22.0,3.0,21.0,6.0,21.0,6.0,36.0,41.0,NBA,398.0,5.0,0.0,0.0,0.0,43.0,57.0,-5.7,-6.1,C,2014,NYK,5.0,10.0
