age,ast,blk,drb,efg_pct,fg,fg2,fg2_pct,fg2a,fg3,fg3_pct,fg3a,fg_pct,fga,ft,ft_pct,fta,g,gs,lg_id,mp,orb,pf,pos,pts,season,stl,team_id,tov,trb
20.0,16.0,20.0,86.0,0.421,88.0,88.0,0.423,208.0,0.0,0.0,1.0,0.421,209.0,29.0,0.558,52.0,42.0,23.0,NBA,568.0,54.0,84.0,C,205.0,2012,16.0,GSW,36.0,140.0
21.0,1.0,2.0,14.0,0.375,9.0,9.0,0.375,24.0,0.0,0.0,0.0,0.375,24.0,4.0,0.667,6.0,21.0,0.0,NBA,68.0,6.0,10.0,C,22.0,2013,1.0,TOT,6.0,20.0
21.0,1.0,2.0,11.0,0.375,9.0,9.0,0.375,24.0,0.0,0.0,0.0,0.375,24.0,4.0,0.667,6.0,20.0,0.0,NBA,63.0,6.0,10.0,C,22.0,2013,1.0,GSW,6.0,17.0
21.0,0.0,0.0,3.0,0.0,0.0,0.0,0.0,0.0,0.0,0.0,0.0,0.0,0.0,0.0,0.0,0.0,1.0,0.0,NBA,5.0,0.0,0.0,C,0.0,2013,0.0,ATL,0.0,3.0
22.0,8.0,20.0,71.0,0.517,60.0,60.0,0.517,116.0,0.0,0.0,0.0,0.517,116.0,26.0,0.542,48.0,41.0,0.0,NBA,398.0,38.0,70.0,C,146.0,2014,6.0,NYK,26.0,109.0
