age,ast_per_poss,blk_per_poss,def_rtg,drb_per_poss,fg2_pct,fg2_per_poss,fg2a_per_poss,fg3_pct,fg3_per_poss,fg3a_per_poss,fg_pct,fg_per_poss,fga_per_poss,ft_pct,ft_per_poss,fta_per_poss,g,gs,lg_id,mp,off_rtg,orb_per_poss,pf_per_poss,pos,pts_per_poss,season,stl_per_poss,team_id,tov_per_poss,trb_per_poss
22.0,5.9,0.0,108.0,5.9,0.5,7.8,15.7,0.0,0.0,0.0,0.5,7.8,15.7,0.0,0.0,0.0,3.0,0.0,NBA,29.0,113.0,7.8,7.8,C,15.7,1999,0.0,MIN,2.0,13.7
23.0,2.8,3.2,106.0,3.7,0.44,5.1,11.5,0.0,0.0,0.0,0.44,5.1,11.5,0.5,1.4,2.8,4.0,4.0,NBA,126.0,94.0,2.3,9.2,C,11.5,2000,1.4,MIN,1.8,6.0
24.0,3.4,3.4,99.0,7.8,0.385,5.6,14.5,0.0,0.0,0.0,0.385,5.6,14.5,0.0,0.0,0.0,4.0,2.0,NBA,49.0,81.0,5.6,10.1,C,11.2,2001,1.1,MIN,3.4,13.4
25.0,1.6,0.0,119.0,7.6,0.484,8.1,16.7,0.0,0.0,0.0,0.484,8.1,16.7,0.444,2.2,4.9,3.0,3.0,NBA,92.0,101.0,3.2,5.4,C,18.4,2002,0.5,MIN,2.2,10.8
26.0,1.2,1.2,113.0,6.3,0.5,5.7,11.4,0.0,0.0,0.0,0.5,5.7,11.4,0.667,1.2,1.8,6.0,6.0,NBA,169.0,103.0,2.7,8.4,C,12.6,2003,0.3,MIN,1.5,9.0
27.0,2.1,2.3,99.0,7.2,0.439,6.1,13.9,0.0,0.0,0.2,0.433,6.1,14.1,0.167,0.2,1.3,10.0,10.0,NBA,261.0,95.0,4.4,8.0,C,12.4,2004,0.6,SAS,1.7,11.6
28.0,1.0,2.4,105.0,7.2,0.417,2.4,5.8,0.0,0.0,0.0,0.417,2.4,5.8,0.0,0.0,1.0,15.0,0.0,NBA,114.0,93.0,5.3,7.7,C,4.8,2005,0.5,SAS,1.9,12.5
29.0,0.5,2.4,108.0,11.0,0.556,4.8,8.6,1.0,0.5,0.5,0.579,5.2,9.1,1.0,1.0,1.0,9.0,1.0,NBA,114.0,128.0,3.3,8.1,C,11.9,2006,1.0,SAS,1.0,14.3
30.0,2.3,1.5,108.0,9.8,0.467,5.3,11.3,0.0,0.0,0.0,0.467,5.3,11.3,1.0,2.3,2.3,5.0,4.0,NBA,71.0,108.0,7.5,3.0,C,12.8,2007,0.0,TOR,3.0,17.3
31.0,2.1,1.4,116.0,6.9,0.5,7.6,15.2,0.0,0.0,0.0,0.5,7.6,15.2,0.5,0.7,1.4,5.0,2.0,NBA,77.0,89.0,2.1,9.7,C,15.9,2008,0.7,TOR,3.5,9.0
