age,ast_per_g,blk_per_g,drb_per_g,efg_pct,fg2_pct,fg2_per_g,fg2a_per_g,fg3_pct,fg3_per_g,fg3a_per_g,fg_pct,fg_per_g,fga_per_g,ft_pct,ft_per_g,fta_per_g,g,gs,lg_id,mp_per_g,orb_per_g,pf_per_g,pos,pts_per_g,season,stl_per_g,team_id,tov_per_g,trb_per_g
22.0,1.0,0.0,1.0,0.5,0.5,1.3,2.7,0.0,0.0,0.0,0.5,1.3,2.7,0.0,0.0,0.0,3.0,0.0,NBA,9.7,1.3,1.3,C,2.7,1999,0.0,MIN,0.3,2.3
23.0,1.5,1.8,2.0,0.44,0.44,2.8,6.3,0.0,0.0,0.0,0.44,2.8,6.3,0.5,0.8,1.5,4.0,4.0,NBA,31.5,1.3,5.0,C,6.3,2000,0.8,MIN,1.0,3.3
24.0,0.8,0.8,1.8,0.385,0.385,1.3,3.3,0.0,0.0,0.0,0.385,1.3,3.3,0.0,0.0,0.0,4.0,2.0,NBA,12.3,1.3,2.3,C,2.5,2001,0.3,MIN,0.8,3.0
25.0,1.0,0.0,4.7,0.484,0.484,5.0,10.3,0.0,0.0,0.0,0.484,5.0,10.3,0.444,1.3,3.0,3.0,3.0,NBA,30.7,2.0,3.3,C,11.3,2002,0.3,MIN,1.3,6.7
26.0,0.7,0.7,3.5,0.5,0.5,3.2,6.3,0.0,0.0,0.0,0.5,3.2,6.3,0.667,0.7,1.0,6.0,6.0,NBA,28.2,1.5,4.7,C,7.0,2003,0.2,MIN,0.8,5.0
27.0,1.0,1.1,3.4,0.433,0.439,2.9,6.6,0.0,0.0,0.1,0.433,2.9,6.7,0.167,0.1,0.6,10.0,10.0,NBA,26.1,2.1,3.8,C,5.9,2004,0.3,SAS,0.8,5.5
28.0,0.1,0.3,1.0,0.417,0.417,0.3,0.8,0.0,0.0,0.0,0.417,0.3,0.8,0.0,0.0,0.1,15.0,0.0,NBA,7.6,0.7,1.1,C,0.7,2005,0.1,SAS,0.3,1.7
29.0,0.1,0.6,2.6,0.605,0.556,1.1,2.0,1.0,0.1,0.1,0.579,1.2,2.1,1.0,0.2,0.2,9.0,1.0,NBA,12.7,0.8,1.9,C,2.8,2006,0.2,SAS,0.2,3.3
30.0,0.6,0.4,2.6,0.467,0.467,1.4,3.0,0.0,0.0,0.0,0.467,1.4,3.0,1.0,0.6,0.6,5.0,4.0,NBA,14.2,2.0,0.8,C,3.4,2007,0.0,TOR,0.8,4.6
31.0,0.6,0.4,2.0,0.5,0.5,2.2,4.4,0.0,0.0,0.0,0.5,2.2,4.4,0.5,0.2,0.4,5.0,2.0,NBA,15.4,0.6,2.8,C,4.6,2008,0.2,TOR,1.0,2.6
