age,ast_per_mp,blk_per_mp,drb_per_mp,fg2_pct,fg2_per_mp,fg2a_per_mp,fg3_pct,fg3_per_mp,fg3a_per_mp,fg_pct,fg_per_mp,fga_per_mp,ft_pct,ft_per_mp,fta_per_mp,g,gs,lg_id,mp,orb_per_mp,pf_per_mp,pos,pts_per_mp,season,stl_per_mp,team_id,tov_per_mp,trb_per_mp
22.0,1.2,0.0,6.0,0.25,3.6,14.4,0.0,0.0,0.0,0.25,3.6,14.4,1.0,2.4,2.4,2.0,0.0,NBA,30.0,3.6,6.0,C,9.6,1999,0.0,MIN,1.2,9.6
23.0,1.9,1.8,5.1,0.478,4.3,9.0,0.0,0.0,0.0,0.476,4.3,9.0,0.573,1.2,2.2,82.0,55.0,NBA,1723.0,2.8,5.5,C,9.8,2000,0.4,MIN,1.5,7.9
24.0,1.3,1.8,5.5,0.462,4.3,9.3,0.0,0.0,0.0,0.461,4.3,9.3,0.523,1.0,1.9,73.0,39.0,NBA,1233.0,2.9,5.5,C,9.6,2001,0.7,MIN,1.6,8.4
25.0,1.2,1.8,5.4,0.494,5.3,10.6,0.0,0.0,0.0,0.493,5.3,10.7,0.549,0.6,1.2,82.0,82.0,NBA,2218.0,3.2,4.3,C,11.2,2002,0.7,MIN,1.5,8.7
26.0,1.8,1.8,5.5,0.526,6.2,11.7,0.0,0.0,0.0,0.525,6.2,11.7,0.642,0.9,1.5,77.0,77.0,NBA,2337.0,2.2,3.9,C,13.3,2003,0.6,MIN,1.5,7.8
27.0,1.7,2.5,5.8,0.469,5.0,10.7,0.0,0.0,0.0,0.469,5.0,10.7,0.474,0.8,1.7,82.0,82.0,NBA,2353.0,3.9,3.8,C,10.9,2004,0.8,SAS,1.6,9.7
28.0,1.4,2.4,5.5,0.46,4.0,8.7,0.0,0.0,0.0,0.46,4.0,8.7,0.467,0.3,0.6,70.0,70.0,NBA,1785.0,3.7,4.2,C,8.3,2005,0.6,SAS,1.5,9.3
29.0,0.8,2.1,4.6,0.518,4.1,7.9,0.0,0.0,0.0,0.515,4.1,7.9,0.6,0.4,0.7,80.0,51.0,NBA,1515.0,2.7,5.0,C,8.6,2006,0.5,SAS,1.3,7.3
30.0,1.6,1.8,5.3,0.548,4.9,9.0,0.0,0.0,0.0,0.546,4.9,9.0,0.68,0.7,1.1,80.0,73.0,NBA,1676.0,2.5,4.1,C,10.6,2007,0.8,TOR,1.2,7.7
31.0,2.0,1.3,5.1,0.552,6.2,11.2,0.333,0.0,0.1,0.55,6.2,11.3,0.755,0.9,1.2,71.0,39.0,NBA,1486.0,3.1,3.2,C,13.4,2008,0.5,TOR,1.5,8.3
32.0,3.2,1.1,4.4,0.514,6.6,12.9,0.0,0.0,0.0,0.513,6.6,13.0,0.781,0.7,0.9,70.0,19.0,NBA,1214.0,2.8,5.1,C,14.0,2009,0.9,IND,1.9,7.1
33.0,2.2,1.5,4.5,0.544,7.1,13.0,0.0,0.0,0.0,0.544,7.1,13.0,0.2,0.1,0.4,42.0,8.0,NBA,413.0,3.2,4.7,C,14.2,2010,0.9,TOR,1.4,7.8
