article_url,date,headline
https://sircharlesincharge.com/2019/09/28/memphis-grizzlies-roster-predict-trade-deadline/,2019/09/28,Sir Charles In Charge: Memphis Grizzlies: Which players will be on the roster post-trade deadline?
https://hoopshabit.com/2019/09/09/fiba-world-cup-czech-republic-wins-loss-greece/,2019/09/09,Hoops Habit: FIBA World Cup: Czech Republic wins in loss to Greece
https://bealestreetbears.com/2019/09/05/checking-in-on-the-memphis-grizzlies-at-the-fiba-world-cup/,2019/09/05,Beale Street Bears: Checking In On The Memphis Grizzlies At The FIBA World Cup
https://wizofawes.com/2019/09/05/rui-hachimura-japan-no-match-team-usa/,2019/09/05,Wiz of Awes: Rui Hachimura and Japan no match for Team USA
