age,ast,blk,drb,efg_pct,fg,fg2,fg2_pct,fg2a,fg3,fg3_pct,fg3a,fg_pct,fga,ft,ft_pct,fta,g,gs,lg_id,mp,orb,pf,pos,pts,season,stl,team_id,tov,trb
20.0,5.0,1.0,6.0,0.534,14.0,11.0,0.688,16.0,3.0,0.231,13.0,0.483,29.0,8.0,0.533,15.0,4.0,3.0,NBA,90.0,5.0,12.0,PG,39.0,2015,1.0,BOS,4.0,11.0
21.0,18.0,5.0,19.0,0.458,22.0,11.0,0.393,28.0,11.0,0.344,32.0,0.367,60.0,17.0,0.81,21.0,6.0,1.0,NBA,193.0,8.0,17.0,PG,72.0,2016,10.0,BOS,15.0,27.0
22.0,85.0,16.0,62.0,0.459,47.0,18.0,0.295,61.0,29.0,0.397,73.0,0.351,134.0,32.0,0.64,50.0,18.0,3.0,NBA,538.0,23.0,51.0,SG,155.0,2017,27.0,BOS,38.0,85.0
23.0,80.0,10.0,42.0,0.388,48.0,33.0,0.44,75.0,15.0,0.221,68.0,0.336,143.0,36.0,0.735,49.0,15.0,4.0,NBA,449.0,14.0,44.0,SG,147.0,2018,26.0,BOS,36.0,56.0
24.0,4.0,0.0,0.0,0.136,1.0,0.0,0.0,0.0,1.0,0.091,11.0,0.091,11.0,4.0,0.667,6.0,2.0,0.0,NBA,32.0,4.0,3.0,SG,7.0,2019,3.0,BOS,3.0,4.0
