age,ast_per_mp,blk_per_mp,drb_per_mp,fg2_pct,fg2_per_mp,fg2a_per_mp,fg3_pct,fg3_per_mp,fg3a_per_mp,fg_pct,fg_per_mp,fga_per_mp,ft_pct,ft_per_mp,fta_per_mp,g,gs,lg_id,mp,orb_per_mp,pf_per_mp,pos,pts_per_mp,season,stl_per_mp,team_id,tov_per_mp,trb_per_mp
20.0,2.0,0.4,2.4,0.688,4.4,6.4,0.231,1.2,5.2,0.483,5.6,11.6,0.533,3.2,6.0,4.0,3.0,NBA,90.0,2.0,4.8,PG,15.6,2015,0.4,BOS,1.6,4.4
21.0,3.4,0.9,3.5,0.393,2.1,5.2,0.344,2.1,6.0,0.367,4.1,11.2,0.81,3.2,3.9,6.0,1.0,NBA,193.0,1.5,3.2,PG,13.4,2016,1.9,BOS,2.8,5.0
22.0,5.7,1.1,4.1,0.295,1.2,4.1,0.397,1.9,4.9,0.351,3.1,9.0,0.64,2.1,3.3,18.0,3.0,NBA,538.0,1.5,3.4,SG,10.4,2017,1.8,BOS,2.5,5.7
23.0,6.4,0.8,3.4,0.44,2.6,6.0,0.221,1.2,5.5,0.336,3.8,11.5,0.735,2.9,3.9,15.0,4.0,NBA,449.0,1.1,3.5,SG,11.8,2018,2.1,BOS,2.9,4.5
24.0,4.5,0.0,0.0,0.0,0.0,0.0,0.091,1.1,12.4,0.091,1.1,12.4,0.667,4.5,6.8,2.0,0.0,NBA,32.0,4.5,3.4,SG,7.9,2019,3.4,BOS,3.4,4.5
