age,ast_per_g,blk_per_g,drb_per_g,efg_pct,fg2_pct,fg2_per_g,fg2a_per_g,fg3_pct,fg3_per_g,fg3a_per_g,fg_pct,fg_per_g,fga_per_g,ft_pct,ft_per_g,fta_per_g,g,gs,lg_id,mp_per_g,orb_per_g,pf_per_g,pos,pts_per_g,season,stl_per_g,team_id,tov_per_g,trb_per_g
20.0,3.1,0.3,2.4,0.462,0.41,1.3,3.1,0.335,1.4,4.1,0.367,2.6,7.1,0.646,1.2,1.9,67.0,38.0,NBA,27.0,0.9,2.6,PG,7.8,2015,1.5,BOS,1.3,3.3
21.0,3.0,0.3,2.9,0.405,0.427,2.0,4.7,0.253,1.0,4.0,0.348,3.0,8.7,0.777,2.1,2.7,61.0,10.0,NBA,27.3,1.2,3.0,PG,9.1,2016,1.5,BOS,1.3,4.2
22.0,4.6,0.4,2.9,0.422,0.42,2.2,5.3,0.283,1.2,4.2,0.359,3.4,9.5,0.812,2.6,3.2,79.0,24.0,NBA,30.4,1.0,2.4,SG,10.6,2017,1.6,BOS,2.0,3.9
23.0,4.8,0.4,2.7,0.44,0.429,2.1,4.9,0.301,1.4,4.6,0.367,3.5,9.5,0.729,1.8,2.5,54.0,11.0,NBA,29.9,0.8,2.5,SG,10.2,2018,1.3,BOS,2.4,3.5
24.0,4.0,0.4,2.2,0.533,0.511,1.4,2.8,0.364,1.6,4.3,0.422,3.0,7.1,0.806,1.3,1.6,80.0,60.0,NBA,27.5,0.7,2.5,SG,8.9,2019,1.8,BOS,1.5,2.9
25.0,4.7,0.5,2.8,0.546,0.467,1.4,3.0,0.388,2.6,6.7,0.412,4.0,9.7,0.786,1.1,1.4,10.0,5.0,NBA,31.3,0.5,2.5,SG,11.7,2020,1.1,BOS,0.8,3.3
