age,ast,blk,drb,fg,fg2,fg2a,fg3,fg3a,fga,ft,fta,game_score,lg_id,mp,orb,pf,pts,season,stl,team_id,tov,trb
20.0,2.0,1.0,3.0,4.0,4.0,6.0,1.0,5.0,9.0,3.0,5.0,8.0,NBA,26,3.0,4.0,11.0,2015,1.0,BOS,2.0,6.0
21.0,5.0,2.0,6.0,7.0,4.0,8.0,3.0,8.0,15.0,5.0,6.0,16.2,NBA,42,3.0,4.0,20.0,2016,4.0,BOS,4.0,8.0
22.0,8.0,3.0,11.0,8.0,5.0,7.0,7.0,10.0,14.0,5.0,6.0,27.1,NBA,42,5.0,6.0,27.0,2017,3.0,BOS,8.0,11.0
23.0,9.0,3.0,5.0,6.0,4.0,10.0,4.0,10.0,13.0,8.0,13.0,17.7,NBA,40,3.0,6.0,19.0,2018,4.0,BOS,5.0,6.0
24.0,2.0,0.0,0.0,1.0,0.0,0.0,1.0,7.0,7.0,4.0,6.0,4.1,NBA,18,3.0,2.0,4.0,2019,2.0,BOS,2.0,3.0
