age,ast,blk,drb,efg_pct,fg,fg2,fg2_pct,fg2a,fg3,fg3_pct,fg3a,fg_pct,fga,ft,ft_pct,fta,g,gs,lg_id,mp,orb,pf,pos,pts,season,stl,team_id,tov,trb
23.0,390.0,10.0,142.0,0.414,335.0,266.0,0.388,686.0,69.0,0.333,207.0,0.375,893.0,104.0,0.732,142.0,82.0,26.0,NBA,2172.0,47.0,174.0,PG,843.0,1994,121.0,DET,184.0,189.0
24.0,159.0,7.0,51.0,0.431,119.0,83.0,0.395,210.0,36.0,0.333,108.0,0.374,318.0,40.0,0.727,55.0,42.0,26.0,NBA,944.0,24.0,94.0,PG,314.0,1995,51.0,DET,79.0,75.0
25.0,188.0,18.0,150.0,0.474,239.0,122.0,0.36,339.0,117.0,0.405,289.0,0.381,628.0,84.0,0.7,120.0,80.0,48.0,NBA,2138.0,44.0,185.0,PG,679.0,1996,84.0,DET,80.0,194.0
26.0,154.0,24.0,174.0,0.484,421.0,255.0,0.444,574.0,166.0,0.355,468.0,0.404,1042.0,158.0,0.778,203.0,82.0,76.0,NBA,3023.0,59.0,206.0,PG,1166.0,1997,129.0,DET,96.0,233.0
27.0,224.0,10.0,186.0,0.434,316.0,231.0,0.412,561.0,85.0,0.321,265.0,0.383,826.0,145.0,0.74,196.0,71.0,67.0,NBA,2505.0,61.0,174.0,PG,862.0,1998,123.0,DET,110.0,247.0
28.0,193.0,8.0,142.0,0.491,228.0,169.0,0.456,371.0,59.0,0.386,153.0,0.435,524.0,67.0,0.753,89.0,49.0,49.0,NBA,1755.0,26.0,126.0,PG,582.0,1999,86.0,DET,92.0,168.0
29.0,327.0,22.0,215.0,0.519,379.0,211.0,0.419,503.0,168.0,0.432,389.0,0.425,892.0,117.0,0.76,154.0,82.0,82.0,NBA,2919.0,35.0,216.0,PG,1043.0,2000,129.0,DET,145.0,250.0
30.0,222.0,12.0,137.0,0.478,298.0,146.0,0.388,376.0,152.0,0.373,407.0,0.381,783.0,77.0,0.802,96.0,82.0,5.0,NBA,2002.0,32.0,172.0,PG,825.0,2001,102.0,MIL,68.0,169.0
31.0,129.0,19.0,103.0,0.462,187.0,108.0,0.383,282.0,79.0,0.38,208.0,0.382,490.0,20.0,0.5,40.0,82.0,47.0,NBA,1616.0,18.0,120.0,PG,473.0,2002,66.0,LAL,55.0,121.0
32.0,71.0,5.0,44.0,0.407,106.0,72.0,0.369,195.0,34.0,0.318,107.0,0.351,302.0,34.0,0.723,47.0,29.0,0.0,NBA,673.0,15.0,50.0,PG,280.0,2003,35.0,TOR,57.0,59.0
33.0,85.0,6.0,54.0,0.392,49.0,35.0,0.376,93.0,14.0,0.28,50.0,0.343,143.0,5.0,0.625,8.0,33.0,8.0,NBA,661.0,13.0,45.0,SG,117.0,2004,39.0,DET,34.0,67.0
34.0,130.0,13.0,85.0,0.396,108.0,85.0,0.39,218.0,23.0,0.274,84.0,0.358,302.0,46.0,0.793,58.0,76.0,3.0,NBA,1144.0,38.0,125.0,SG,285.0,2005,68.0,DET,68.0,123.0
35.0,62.0,1.0,30.0,0.425,37.0,26.0,0.456,57.0,11.0,0.256,43.0,0.37,100.0,2.0,0.5,4.0,30.0,1.0,NBA,353.0,10.0,44.0,PG,87.0,2006,19.0,DET,20.0,40.0
36.0,93.0,7.0,38.0,0.463,94.0,56.0,0.448,125.0,38.0,0.319,119.0,0.385,244.0,30.0,0.909,33.0,52.0,0.0,NBA,745.0,9.0,56.0,PG,256.0,2007,34.0,DET,35.0,47.0
37.0,33.0,2.0,9.0,0.398,22.0,15.0,0.395,38.0,7.0,0.269,26.0,0.344,64.0,7.0,0.778,9.0,24.0,0.0,NBA,215.0,4.0,30.0,PG,58.0,2008,13.0,DET,13.0,13.0
38.0,37.0,1.0,10.0,0.427,27.0,11.0,0.324,34.0,16.0,0.333,48.0,0.329,82.0,3.0,0.6,5.0,28.0,0.0,NBA,266.0,2.0,28.0,PG,73.0,2009,20.0,CHI,19.0,12.0
39.0,9.0,0.0,13.0,0.183,5.0,4.0,0.235,17.0,1.0,0.077,13.0,0.167,30.0,2.0,1.0,2.0,13.0,0.0,NBA,122.0,1.0,12.0,PG,13.0,2010,1.0,CHI,4.0,14.0
