age,ast_per_mp,blk_per_mp,drb_per_mp,fg2_pct,fg2_per_mp,fg2a_per_mp,fg3_pct,fg3_per_mp,fg3a_per_mp,fg_pct,fg_per_mp,fga_per_mp,ft_pct,ft_per_mp,fta_per_mp,g,gs,lg_id,mp,orb_per_mp,pf_per_mp,pos,pts_per_mp,season,stl_per_mp,team_id,tov_per_mp,trb_per_mp
25.0,1.0,0.0,1.0,0.25,1.0,4.0,0.25,1.0,4.0,0.25,2.0,8.0,0.5,1.0,2.0,2.0,0.0,NBA,36.0,1.0,2.0,PG,6.0,1996,1.0,DET,0.0,2.0
26.0,1.1,0.2,2.5,0.459,3.0,6.6,0.414,2.1,5.2,0.439,5.2,11.8,0.714,0.9,1.3,5.0,5.0,NBA,201.0,0.7,1.6,PG,13.4,1997,1.1,DET,0.2,3.2
28.0,2.4,0.0,2.0,0.262,2.2,8.4,0.273,0.6,2.2,0.264,2.8,10.6,1.0,1.0,1.0,5.0,5.0,NBA,180.0,1.0,2.2,PG,7.2,1999,1.4,DET,1.4,3.0
29.0,1.9,0.4,2.7,0.391,3.5,8.9,0.111,0.4,3.5,0.313,3.9,12.4,0.667,1.5,2.3,3.0,3.0,NBA,93.0,0.0,1.5,PG,9.7,2000,1.9,DET,1.9,2.7
30.0,4.2,0.4,3.6,0.348,2.0,5.7,0.151,1.0,6.6,0.242,3.0,12.3,0.727,1.0,1.4,18.0,0.0,NBA,289.0,0.2,3.0,PG,8.0,2001,1.7,MIL,1.6,3.9
31.0,2.7,0.0,1.4,0.375,1.6,4.4,0.276,2.2,7.9,0.311,3.8,12.3,0.0,0.0,0.0,18.0,0.0,NBA,132.0,0.5,5.2,PG,9.8,2002,0.5,LAL,1.4,1.9
33.0,2.8,0.5,3.7,0.343,1.6,4.6,0.233,0.9,4.0,0.292,2.5,8.6,0.917,1.5,1.6,23.0,0.0,NBA,273.0,0.7,5.5,SG,7.4,2004,2.4,DET,1.7,4.4
34.0,3.8,0.7,2.9,0.364,2.7,7.4,0.222,0.8,3.5,0.319,3.5,10.9,0.727,1.5,2.1,25.0,0.0,NBA,374.0,1.0,4.3,SG,9.2,2005,2.1,DET,1.4,3.9
35.0,4.8,0.2,1.8,0.353,2.0,5.6,0.318,2.3,7.3,0.333,4.3,12.9,1.0,1.7,1.7,18.0,0.0,NBA,217.0,1.3,6.8,PG,12.6,2006,2.5,DET,2.3,3.2
36.0,4.3,0.3,2.2,0.231,0.8,3.5,0.222,1.1,4.9,0.226,1.9,8.4,1.0,1.4,1.4,13.0,0.0,NBA,133.0,0.5,6.0,PG,6.2,2007,1.6,DET,2.7,2.7
37.0,4.4,0.0,2.5,0.3,0.9,3.1,0.455,1.6,3.4,0.381,2.5,6.6,0.0,0.0,0.0,11.0,0.0,NBA,115.0,0.6,6.6,PG,6.6,2008,2.5,DET,1.6,3.1
38.0,7.5,0.0,7.5,0.0,0.0,0.0,0.333,1.5,4.5,0.333,1.5,4.5,0.75,4.5,6.0,6.0,0.0,NBA,24.0,0.0,4.5,PG,9.0,2009,3.0,CHI,0.0,7.5
