age,avg_dist,fg2_dunk,fg2_pct,fg2_pct_ast,fg2a_pct_fga,fg3_heave,fg3_pct,fg3_pct_ast,fg3_pct_corner,fg3a_heave,fg3a_pct_fga,fg_pct,fg_pct_00_03,fg_pct_03_10,fg_pct_10_16,fg_pct_16_xx,g,lg_id,mp,pct_fg2_dunk,pct_fg3a_corner,pct_fga_00_03,pct_fga_03_10,pct_fga_10_16,pct_fga_16_xx,pos,season,team_id
21.0,13.0,4.0,0.475,0.653,0.554,0.0,0.311,0.98,0.392,0.0,0.446,0.402,0.606,0.179,0.1,0.125,69.0,NBA,1190.0,0.019,0.317,0.393,0.108,0.028,0.022,SF,2017,PHI
22.0,16.2,1.0,0.431,0.851,0.408,0.0,0.335,0.962,0.348,0.0,0.592,0.375,0.545,0.1,1.0,0.182,52.0,NBA,807.0,0.011,0.291,0.288,0.075,0.004,0.041,SF,2018,PHI
23.0,15.8,5.0,0.451,0.674,0.468,0.0,0.31,1.0,0.37,1.0,0.532,0.376,0.574,0.0,0.2,0.385,50.0,NBA,669.0,0.037,0.397,0.312,0.05,0.046,0.06,SF,2019,TOT
23.0,14.6,0.0,0.381,0.75,0.488,0.0,0.227,1.0,0.364,0.0,0.512,0.302,0.471,0.0,0.0,0.0,21.0,NBA,123.0,0.023,0.5,0.395,0.023,0.047,0.023,SF,2019,OKC
23.0,16.1,5.0,0.469,0.658,0.463,0.0,0.33,1.0,0.371,1.0,0.537,0.394,0.608,0.0,0.25,0.417,29.0,NBA,546.0,0.04,0.372,0.291,0.057,0.046,0.069,SF,2019,CHI
