age,avg_dist,fg2_dunk,fg2_pct,fg2_pct_ast,fg2a_pct_fga,fg3_heave,fg3_pct,fg3_pct_ast,fg3_pct_corner,fg3a_heave,fg3a_pct_fga,fg_pct,fg_pct_00_03,fg_pct_03_10,fg_pct_10_16,fg_pct_16_xx,g,lg_id,mp,pct_fg2_dunk,pct_fg3a_corner,pct_fga_00_03,pct_fga_03_10,pct_fga_10_16,pct_fga_16_xx,pos,season,team_id
34.0,12.6,31.0,0.439,0.757,0.79,0.0,0.361,1.0,0.362,0.0,0.21,0.422,0.631,0.358,0.407,0.366,82.0,NBA,2751.0,0.03,0.277,0.196,0.226,0.172,0.196,PF,2001,PHO
35.0,14.6,9.0,0.443,0.64,0.716,0.0,0.378,0.974,0.328,0.0,0.284,0.425,0.577,0.44,0.373,0.416,80.0,NBA,2855.0,0.009,0.211,0.146,0.179,0.196,0.196,PF,2002,DET
36.0,14.4,10.0,0.422,0.593,0.723,1.0,0.336,0.954,0.317,2.0,0.277,0.398,0.534,0.474,0.311,0.369,81.0,NBA,2825.0,0.011,0.158,0.156,0.205,0.161,0.2,PF,2003,DET
37.0,16.1,3.0,0.403,0.563,0.668,0.0,0.357,0.991,0.289,1.0,0.332,0.387,0.63,0.39,0.336,0.349,82.0,NBA,2846.0,0.003,0.121,0.106,0.187,0.12,0.255,PF,2004,GSW
38.0,16.5,6.0,0.409,0.785,0.631,0.0,0.347,0.97,0.347,1.0,0.369,0.386,0.534,0.415,0.321,0.387,71.0,NBA,1689.0,0.013,0.254,0.111,0.157,0.101,0.262,C-PF,2005,TOT
38.0,16.8,3.0,0.436,0.798,0.641,0.0,0.331,0.952,0.333,1.0,0.359,0.398,0.6,0.484,0.389,0.374,42.0,NBA,1090.0,0.008,0.213,0.085,0.175,0.102,0.28,C,2005,GSW
38.0,16.0,3.0,0.35,0.75,0.609,0.0,0.379,1.0,0.364,0.0,0.391,0.361,0.464,0.2,0.176,0.421,29.0,NBA,599.0,0.024,0.333,0.166,0.118,0.101,0.225,PF,2005,NJN
39.0,16.4,8.0,0.47,0.855,0.659,0.0,0.343,0.983,0.373,1.0,0.341,0.427,0.594,0.519,0.333,0.462,80.0,NBA,1863.0,0.016,0.291,0.135,0.101,0.14,0.283,PF,2006,NJN
40.0,16.1,0.0,0.368,0.911,0.697,0.0,0.379,1.0,0.483,0.0,0.303,0.372,0.478,0.371,0.353,0.338,50.0,NBA,955.0,0.0,0.439,0.106,0.161,0.078,0.353,C,2007,NJN
