age,ast,ast_per_g,blk,college_id,fg,fg3,fg3_pct,fg3a,fg_pct,fga,ft,ft_pct,fta,g,mp,mp_per_g,orb,pf,pts,pts_per_g,season,stl,tov,trb,trb_per_g
19.0,0.0,0.0,0.0,ALBANYST,185.0,0.0,0.0,0.0,0.504,367.0,80.0,0.741,108.0,25.0,0.0,0.0,0.0,0.0,450.0,18.0,1970,0.0,0.0,440.0,17.6
20.0,0.0,0.0,0.0,ALBANYST,206.0,0.0,0.0,0.0,0.471,437.0,76.0,0.555,137.0,27.0,0.0,0.0,0.0,0.0,488.0,18.1,1971,0.0,0.0,576.0,21.3
21.0,0.0,0.0,0.0,ALBANYST,288.0,0.0,0.0,0.0,0.534,539.0,156.0,0.712,219.0,28.0,0.0,0.0,0.0,0.0,732.0,26.1,1972,0.0,0.0,567.0,20.3
22.0,0.0,0.0,0.0,ALBANYST,238.0,0.0,0.0,0.0,0.506,470.0,91.0,0.679,134.0,29.0,0.0,0.0,0.0,0.0,567.0,19.6,1973,0.0,0.0,633.0,21.8
