age,ast_per_poss,blk_per_poss,def_rtg,drb_per_poss,fg2_pct,fg2_per_poss,fg2a_per_poss,fg3_pct,fg3_per_poss,fg3a_per_poss,fg_pct,fg_per_poss,fga_per_poss,ft_pct,ft_per_poss,fta_per_poss,g,gs,lg_id,mp,off_rtg,orb_per_poss,pf_per_poss,pos,pts_per_poss,season,stl_per_poss,team_id,tov_per_poss,trb_per_poss
23.0,2.2,4.7,99.0,11.6,0.466,7.6,16.2,0.25,0.0,0.1,0.465,7.6,16.4,0.743,2.6,3.4,79.0,0.0,ABA,2929.0,105.0,4.8,4.8,C,17.8,1974,1.0,SDA,2.3,16.4
24.0,2.5,3.7,103.0,11.6,0.491,9.1,18.6,0.273,0.0,0.2,0.489,9.2,18.8,0.788,4.0,5.1,76.0,0.0,ABA,3004.0,108.0,4.7,4.1,C,22.4,1975,0.9,SDA,2.9,16.3
25.0,2.5,3.7,100.0,10.4,0.474,7.2,15.3,0.0,0.0,0.1,0.47,7.2,15.4,0.753,2.4,3.2,76.0,0.0,ABA,2674.0,103.0,4.2,5.5,C,16.9,1976,1.4,TOT,2.8,14.6
25.0,2.6,4.3,96.0,11.1,0.431,8.1,18.8,0.0,0.0,0.0,0.431,8.1,18.8,0.636,2.5,3.9,10.0,0.0,ABA,407.0,99.0,4.9,4.9,C,18.7,1976,1.5,SDS,2.7,16.0
25.0,1.3,1.6,99.0,9.8,0.468,7.9,17.0,0.0,0.0,0.0,0.468,7.9,17.0,0.703,2.6,3.7,15.0,0.0,ABA,457.0,99.0,5.9,7.2,C,18.5,1976,1.7,KEN,3.6,15.7
25.0,2.8,4.1,100.0,10.4,0.488,6.9,14.1,0.0,0.0,0.2,0.482,6.9,14.3,0.802,2.3,2.9,51.0,0.0,ABA,1810.0,105.0,3.6,5.2,C,16.1,1976,1.3,SSL,2.7,14.0
26.0,2.0,4.4,93.0,10.4,0.507,4.7,9.3,0.0,0.0,0.0,0.507,4.7,9.3,0.552,1.4,2.5,82.0,0.0,NBA,2023.0,0.0,4.2,6.6,C,10.8,1977,0.9,PHI,0.0,14.6
27.0,2.5,3.4,97.0,11.0,0.471,4.6,9.7,0.0,0.0,0.0,0.471,4.6,9.7,0.627,2.6,4.1,80.0,0.0,NBA,1636.0,97.0,4.5,7.6,C,11.7,1978,0.7,PHI,3.5,15.4
28.0,3.1,3.3,97.0,11.8,0.474,6.3,13.2,0.0,0.0,0.0,0.474,6.3,13.2,0.747,2.5,3.4,78.0,0.0,NBA,2171.0,99.0,3.7,6.3,C,15.0,1979,0.8,PHI,3.2,15.5
29.0,2.8,2.7,98.0,12.3,0.438,3.9,8.9,0.0,0.0,0.0,0.436,3.9,8.9,0.697,2.1,3.0,80.0,0.0,NBA,2771.0,90.0,3.7,5.0,C,9.9,1980,0.7,PHI,3.7,16.0
30.0,2.1,2.4,97.0,10.8,0.449,3.8,8.5,0.0,0.0,0.0,0.449,3.8,8.5,0.767,2.6,3.4,81.0,0.0,NBA,2639.0,98.0,3.5,4.8,C,10.3,1981,0.9,PHI,3.0,14.3
31.0,2.0,2.8,102.0,10.6,0.5,4.5,9.0,0.0,0.0,0.1,0.497,4.5,9.1,0.817,3.5,4.3,81.0,47.0,NBA,2446.0,104.0,3.2,5.9,C,12.5,1982,0.7,PHI,3.0,13.8
32.0,2.7,2.5,106.0,8.6,0.455,5.9,13.0,0.0,0.0,0.0,0.453,5.9,13.0,0.786,3.1,4.0,82.0,82.0,NBA,2440.0,98.0,4.3,5.4,C,14.9,1983,0.9,HOU,3.3,12.9
33.0,2.9,1.5,108.0,7.6,0.503,5.8,11.5,0.333,0.0,0.1,0.502,5.8,11.6,0.837,3.0,3.6,81.0,73.0,NBA,2506.0,106.0,3.1,6.1,C,14.7,1984,0.8,HOU,2.9,10.6
34.0,1.9,1.7,109.0,8.8,0.469,2.9,6.2,0.0,0.0,0.1,0.461,2.9,6.3,0.766,2.0,2.6,42.0,32.0,NBA,885.0,101.0,2.7,6.8,C,7.8,1985,0.7,CHI,2.2,11.5
35.0,2.4,2.0,107.0,8.0,0.51,4.0,7.9,0.0,0.0,0.2,0.496,4.0,8.1,0.827,4.0,4.8,80.0,19.0,NBA,1437.0,106.0,3.4,7.8,C,12.0,1986,1.2,POR,3.3,11.3
36.0,1.9,2.2,107.0,9.9,0.5,3.2,6.4,0.0,0.0,0.1,0.496,3.2,6.5,0.782,2.8,3.6,78.0,37.0,NBA,1578.0,106.0,3.3,6.6,PF,9.2,1987,0.7,POR,2.5,13.2
37.0,2.1,2.6,106.0,7.9,0.494,3.3,6.7,0.0,0.0,0.1,0.487,3.3,6.9,0.736,2.0,2.8,79.0,77.0,NBA,1778.0,104.0,2.7,6.5,C,8.7,1988,0.8,POR,2.1,10.6
38.0,2.1,3.1,107.0,7.7,0.423,2.8,6.6,0.0,0.0,0.0,0.421,2.8,6.6,0.787,1.7,2.2,72.0,40.0,NBA,1279.0,90.0,3.2,6.0,PF,7.3,1989,0.9,POR,3.0,10.8
39.0,1.1,1.5,104.0,8.5,0.475,3.6,7.7,0.2,0.1,0.3,0.465,3.7,7.9,0.704,2.1,3.0,72.0,2.0,NBA,885.0,99.0,4.2,8.0,PF,9.5,1990,1.1,SAS,2.6,12.7
