age,ast,blk,drb,fg,fg2,fg2a,fg3,fg3a,fga,ft,fta,game_score,lg_id,mp,orb,pf,pts,season,stl,team_id,tov,trb
30.0,1.0,0.0,0.0,1.0,1.0,2.0,0.0,3.0,4.0,3.0,4.0,2.5,NBA,9,1.0,2.0,5.0,2016,0.0,TOT,1.0,1.0
30.0,1.0,0.0,0.0,1.0,1.0,2.0,0.0,3.0,4.0,3.0,4.0,2.5,NBA,9,1.0,2.0,5.0,2016,0.0,POR,1.0,1.0
