age,ast_per_poss,blk_per_poss,def_rtg,drb_per_poss,fg2_pct,fg2_per_poss,fg2a_per_poss,fg3_pct,fg3_per_poss,fg3a_per_poss,fg_pct,fg_per_poss,fga_per_poss,ft_pct,ft_per_poss,fta_per_poss,g,gs,lg_id,mp,off_rtg,orb_per_poss,pf_per_poss,pos,pts_per_poss,season,stl_per_poss,team_id,tov_per_poss,trb_per_poss
27.0,9.0,0.1,113.0,3.3,0.43,6.3,14.7,0.386,2.4,6.3,0.417,8.7,20.9,0.909,2.9,3.2,78.0,5.0,NBA,1324.0,109.0,0.7,4.4,PG,22.7,2013,1.5,NOH,2.9,4.0
28.0,7.3,0.2,114.0,3.7,0.447,5.6,12.6,0.36,2.0,5.6,0.42,7.6,18.1,0.94,3.9,4.2,72.0,42.0,NBA,1667.0,108.0,0.5,4.1,PG,21.1,2014,1.3,NOP,3.0,4.2
29.0,6.3,0.2,107.0,3.7,0.44,4.4,10.1,0.321,2.4,7.5,0.389,6.8,17.5,0.892,2.6,2.9,72.0,10.0,NBA,1330.0,101.0,0.5,2.9,PG,18.6,2015,1.3,CHO,2.2,4.2
30.0,5.8,0.2,109.0,3.7,0.48,6.3,13.1,0.357,1.6,4.5,0.448,7.9,17.6,0.894,4.5,5.0,51.0,0.0,NBA,470.0,111.0,0.6,3.7,PG,21.9,2016,1.1,TOT,2.5,4.4
30.0,5.7,0.2,109.0,3.8,0.477,6.3,13.3,0.333,1.4,4.1,0.443,7.7,17.3,0.919,5.1,5.6,30.0,0.0,NBA,333.0,110.0,0.6,3.5,PG,21.8,2016,1.1,CHO,2.4,4.4
30.0,5.8,0.4,111.0,3.7,0.486,6.2,12.8,0.4,2.2,5.5,0.46,8.4,18.3,0.8,2.9,3.7,21.0,0.0,NBA,137.0,111.0,0.7,4.4,PG,21.9,2016,1.1,POR,2.6,4.4
31.0,6.3,0.1,112.0,4.1,0.372,3.5,9.4,0.386,2.0,5.3,0.377,5.5,14.7,0.846,4.0,4.7,41.0,2.0,NBA,416.0,100.0,0.6,2.2,PG,17.1,2017,1.1,CHO,3.1,4.7
