article_url,date,headline
https://behindthebuckpass.com/2019/11/15/milwaukee-bucks-player-grades-124-115-win-chicago-bulls/,2019/11/15,Behind the Buck Pass: Milwaukee Bucks: Player grades from 124-115 win over Chicago Bulls
https://behindthebuckpass.com/2019/11/14/milwaukee-bucks-building-ideal-rotation-without-khris-middleton/,2019/11/14,Behind the Buck Pass: Milwaukee Bucks: Building an ideal rotation without Khris Middleton
https://behindthebuckpass.com/2019/11/12/milwaukee-bucks-3-players-need-step-khris-middletons-absence/,2019/11/12,Behind the Buck Pass: Milwaukee Bucks: 3 players who need to step up in Khris Middleton's absence
https://pippenainteasy.com/2019/11/11/5-defensive-stoppers-the-chicago-bulls-wish-they-still-had/,2019/11/11,Pippen Ain't Easy: 5 defensive stoppers the Chicago Bulls wish they still had
