age,and1s,astd_pts,drawn_offensive,drawn_shooting,fouls_offensive,fouls_shooting,g,lg_id,mp,own_shots_blk,pct_1,pct_2,pct_3,pct_4,pct_5,plus_minus_net,plus_minus_on,pos,season,team_id,tov_bad_pass,tov_lost_ball
23.0,0.0,0.0,0.0,3.0,0.0,5.0,5.0,NBA,38.0,3.0,0.0,0.0,0.0,5.0,95.0,-45.7,-40.6,C,2001,DAL,0.0,1.0
24.0,2.0,50.0,0.0,24.0,2.0,43.0,55.0,NBA,600.0,12.0,0.0,0.0,0.0,13.0,87.0,1.7,6.0,C,2002,DAL,13.0,7.0
25.0,6.0,22.0,0.0,28.0,6.0,21.0,41.0,NBA,412.0,12.0,0.0,0.0,0.0,13.0,88.0,2.0,-2.8,C,2003,LAC,9.0,14.0
26.0,0.0,5.0,0.0,4.0,0.0,7.0,16.0,NBA,114.0,6.0,0.0,0.0,0.0,0.0,100.0,9.6,7.2,C,2004,TOT,1.0,5.0
26.0,0.0,0.0,0.0,2.0,0.0,0.0,2.0,NBA,9.0,0.0,0.0,0.0,0.0,0.0,100.0,15.1,10.0,C,2004,LAC,0.0,0.0
26.0,0.0,5.0,0.0,2.0,0.0,7.0,14.0,NBA,105.0,6.0,0.0,0.0,0.0,0.0,100.0,6.4,6.8,C,2004,MIA,1.0,5.0
27.0,0.0,10.0,0.0,3.0,0.0,4.0,20.0,NBA,92.0,5.0,0.0,0.0,0.0,4.0,96.0,-11.6,-4.0,C,2005,MIA,0.0,5.0
