age,ast_per_poss,blk_per_poss,def_rtg,drb_per_poss,fg2_pct,fg2_per_poss,fg2a_per_poss,fg3_pct,fg3_per_poss,fg3a_per_poss,fg_pct,fg_per_poss,fga_per_poss,ft_pct,ft_per_poss,fta_per_poss,g,gs,lg_id,mp,off_rtg,orb_per_poss,pf_per_poss,pos,pts_per_poss,season,stl_per_poss,team_id,tov_per_poss,trb_per_poss
23.0,0.0,0.0,106.0,8.1,0.471,10.8,23.0,0.0,0.0,2.7,0.421,10.8,25.7,0.8,10.8,13.6,5.0,0.0,NBA,38.0,106.0,1.4,10.8,C,32.5,2001,0.0,DAL,1.4,9.5
24.0,1.9,1.6,107.0,7.9,0.462,5.3,11.4,0.414,4.1,10.0,0.44,9.4,21.4,0.737,3.6,4.9,55.0,0.0,NBA,600.0,110.0,1.6,7.2,C,26.5,2002,0.9,DAL,2.2,9.6
25.0,1.3,1.3,108.0,6.5,0.4,5.9,14.7,0.34,2.0,6.0,0.383,7.9,20.7,0.724,5.4,7.4,41.0,1.0,NBA,412.0,94.0,3.3,5.2,C,23.2,2003,1.0,LAC,4.0,9.8
26.0,1.0,2.4,101.0,6.7,0.406,6.2,15.3,0.286,1.9,6.7,0.37,8.1,22.0,0.9,4.3,4.8,16.0,0.0,NBA,114.0,92.0,1.9,6.2,C,22.4,2004,1.4,TOT,2.9,8.6
26.0,0.0,5.9,96.0,23.5,0.0,0.0,5.9,0.0,0.0,0.0,0.0,0.0,5.9,1.0,23.5,23.5,2.0,0.0,NBA,9.0,174.0,0.0,0.0,C,23.5,2004,0.0,LAC,0.0,23.5
26.0,1.0,2.1,102.0,5.2,0.419,6.8,16.1,0.286,2.1,7.3,0.378,8.8,23.4,0.833,2.6,3.1,14.0,0.0,NBA,105.0,88.0,2.1,6.8,C,22.3,2004,1.6,MIA,3.1,7.3
27.0,2.9,1.1,103.0,6.9,0.455,8.6,19.0,0.667,1.1,1.7,0.472,9.8,20.7,0.583,4.0,6.9,20.0,0.0,NBA,92.0,104.0,3.4,5.2,C,24.7,2005,1.7,MIA,2.9,10.3
