age,ast_per_poss,blk_per_poss,def_rtg,drb_per_poss,fg2_pct,fg2_per_poss,fg2a_per_poss,fg3_pct,fg3_per_poss,fg3a_per_poss,fg_pct,fg_per_poss,fga_per_poss,ft_pct,ft_per_poss,fta_per_poss,g,gs,lg_id,mp,off_rtg,orb_per_poss,pf_per_poss,pos,pts_per_poss,season,stl_per_poss,team_id,tov_per_poss,trb_per_poss
23.0,3.7,1.9,107.0,6.3,0.546,8.8,16.1,0.0,0.0,0.1,0.544,8.8,16.2,0.649,3.0,4.6,59.0,0.0,NBA,762.0,108.0,4.3,9.2,SF,20.6,1987,0.9,LAL,3.8,10.6
24.0,1.3,0.0,107.0,8.9,0.231,3.8,16.6,0.0,0.0,0.0,0.231,3.8,16.6,0.8,10.2,12.7,9.0,0.0,NBA,38.0,73.0,2.5,14.0,SF,17.8,1988,1.3,LAL,7.6,11.5
25.0,3.8,2.2,108.0,7.1,0.49,7.4,15.2,0.0,0.0,0.1,0.487,7.4,15.3,0.696,3.3,4.8,79.0,58.0,NBA,2273.0,101.0,5.1,5.5,SF,18.2,1989,1.2,MIA,4.0,12.2
26.0,3.7,2.0,108.0,6.9,0.516,8.3,16.0,0.5,0.0,0.1,0.516,8.3,16.1,0.622,2.6,4.1,79.0,45.0,NBA,2142.0,105.0,5.3,5.3,SF,19.2,1990,1.2,MIA,3.5,12.2
27.0,3.6,1.6,109.0,6.3,0.504,6.7,13.3,0.0,0.0,0.1,0.499,6.7,13.4,0.718,2.9,4.0,73.0,46.0,NBA,1481.0,101.0,3.9,5.3,SF,16.3,1991,1.0,MIA,3.8,10.2
28.0,0.0,0.0,119.0,0.0,0.0,0.0,0.0,0.0,0.0,0.0,0.0,0.0,0.0,0.0,0.0,0.0,1.0,0.0,NBA,1.0,0.0,0.0,0.0,SF,0.0,1992,0.0,GSW,0.0,0.0
