age,ast,ast_per_g,blk,college_id,fg,fg3,fg3_pct,fg3a,fg_pct,fga,ft,ft_pct,fta,g,mp,mp_per_g,orb,pf,pts,pts_per_g,season,stl,tov,trb,trb_per_g
19.0,42.0,1.2,40.0,LOUISVILLE,104.0,0.0,0.0,0.0,0.488,213.0,53.0,0.654,81.0,36.0,710.0,19.7,0.0,96.0,261.0,7.3,1983,15.0,70.0,140.0,3.9
20.0,112.0,3.6,31.0,LOUISVILLE,106.0,0.0,0.0,0.0,0.507,209.0,72.0,0.735,98.0,31.0,877.0,28.3,0.0,91.0,284.0,9.2,1984,35.0,102.0,173.0,5.6
21.0,154.0,4.2,51.0,LOUISVILLE,220.0,0.0,0.0,0.0,0.515,427.0,118.0,0.747,158.0,37.0,1262.0,34.1,0.0,117.0,558.0,15.1,1985,25.0,161.0,311.0,8.4
22.0,151.0,3.9,63.0,LOUISVILLE,221.0,0.0,0.0,0.0,0.576,384.0,140.0,0.714,196.0,39.0,1216.0,31.2,0.0,126.0,582.0,14.9,1986,33.0,142.0,304.0,7.8
