age,ast_per_g,blk_per_g,drb_per_g,efg_pct,fg2_pct,fg2_per_g,fg2a_per_g,fg3_pct,fg3_per_g,fg3a_per_g,fg_pct,fg_per_g,fga_per_g,ft_pct,ft_per_g,fta_per_g,g,gs,lg_id,mp_per_g,orb_per_g,pf_per_g,pos,pts_per_g,season,stl_per_g,team_id,tov_per_g,trb_per_g
23.0,1.7,0.7,1.6,0.375,0.375,1.3,3.6,0.25,0.4,1.8,0.333,1.8,5.3,0.75,0.7,0.9,9.0,0.0,NBA,15.8,0.0,0.8,SG,4.7,2013,0.3,PHI,1.0,1.6
25.0,0.8,0.2,1.0,0.462,0.444,0.9,2.1,0.321,0.6,1.8,0.387,1.5,4.0,0.822,0.6,0.8,59.0,4.0,NBA,11.1,0.2,0.9,SG,4.3,2015,0.7,GSW,0.5,1.2
26.0,1.1,0.4,1.5,0.465,0.423,1.0,2.3,0.343,0.7,2.0,0.386,1.7,4.3,0.73,0.5,0.7,53.0,5.0,NBA,14.6,0.2,1.2,SG,4.5,2016,0.6,TOT,0.7,1.7
26.0,0.4,0.2,0.9,0.397,0.5,0.5,1.1,0.222,0.4,1.7,0.329,0.9,2.8,0.5,0.2,0.4,26.0,1.0,NBA,10.1,0.2,0.8,SG,2.4,2016,0.5,ATL,0.5,1.0
26.0,1.7,0.6,2.0,0.497,0.4,1.4,3.5,0.433,1.0,2.2,0.413,2.4,5.7,0.815,0.8,1.0,27.0,4.0,NBA,18.9,0.3,1.5,SG,6.5,2016,0.7,CHI,1.0,2.3
27.0,1.2,0.4,2.4,0.523,0.513,1.7,3.2,0.355,1.2,3.3,0.433,2.8,6.6,0.825,0.8,1.0,82.0,4.0,NBA,20.0,0.3,1.3,SG,7.7,2017,0.8,NYK,0.8,2.7
28.0,2.1,0.4,3.6,0.474,0.387,1.8,4.6,0.359,2.2,6.2,0.371,4.0,10.9,0.823,1.9,2.3,72.0,72.0,NBA,31.5,0.4,1.9,SG,12.2,2018,1.1,CHI,1.3,4.0
29.0,1.8,0.4,3.4,0.49,0.442,1.7,3.8,0.348,2.0,5.7,0.386,3.7,9.5,0.896,1.2,1.3,82.0,77.0,NBA,31.8,0.6,2.0,SG,10.5,2019,1.5,TOT,1.3,3.9
29.0,2.2,0.6,3.9,0.506,0.435,1.4,3.3,0.359,2.6,7.1,0.383,4.0,10.4,0.891,1.1,1.2,38.0,38.0,NBA,34.9,0.5,2.1,SG,11.6,2019,1.8,CHI,1.2,4.4
29.0,1.4,0.3,2.9,0.474,0.447,1.9,4.3,0.333,1.5,4.4,0.389,3.4,8.7,0.9,1.2,1.4,44.0,39.0,NBA,29.1,0.6,1.9,SG,9.5,2019,1.2,MEM,1.3,3.5
30.0,1.3,0.8,3.5,0.445,0.409,0.8,2.0,0.31,1.2,3.8,0.344,2.0,5.8,0.75,0.8,1.1,11.0,0.0,NBA,23.5,0.5,2.0,SG,6.0,2020,0.6,IND,0.6,3.9
