age,ast_per_poss,blk_per_poss,def_rtg,drb_per_poss,fg2_pct,fg2_per_poss,fg2a_per_poss,fg3_pct,fg3_per_poss,fg3a_per_poss,fg_pct,fg_per_poss,fga_per_poss,ft_pct,ft_per_poss,fta_per_poss,g,gs,lg_id,mp,off_rtg,orb_per_poss,pf_per_poss,pos,pts_per_poss,season,stl_per_poss,team_id,tov_per_poss,trb_per_poss
25.0,1.6,0.0,117.0,3.2,0.357,7.9,22.2,0.0,0.0,0.0,0.357,7.9,22.2,0.667,3.2,4.8,4.0,0.0,NBA,36.0,91.0,1.6,7.9,PF,19.1,2009,0.0,POR,0.0,4.8
26.0,1.8,1.1,110.0,9.7,0.406,1.6,3.9,0.349,3.6,10.4,0.364,5.2,14.3,0.938,1.8,1.9,16.0,0.0,NBA,435.0,112.0,1.2,6.1,C,15.9,2010,1.5,PHO,1.0,10.9
32.0,1.1,2.0,105.0,8.0,0.652,3.4,5.1,0.565,5.8,10.3,0.594,9.2,15.4,0.857,1.3,1.6,17.0,0.0,NBA,237.0,147.0,1.1,8.3,C,25.5,2016,1.3,CLE,1.1,9.2
33.0,4.2,1.3,113.0,7.1,0.524,3.5,6.8,0.513,6.5,12.6,0.517,10.0,19.4,0.857,1.9,2.3,12.0,0.0,NBA,154.0,142.0,0.0,3.5,C,28.4,2017,1.0,CLE,0.6,7.1
