lg_id,salary,season,team_name
NBA,2162880.0,2006,New York Knicks
NBA,2325000.0,2007,New York Knicks
NBA,2487240.0,2008,Portland Trail Blazers
NBA,3163769.0,2009,Portland Trail Blazers
NBA,2000000.0,2010,Phoenix Suns
NBA,5200000.0,2011,Phoenix Suns
NBA,5600000.0,2012,Phoenix Suns
NBA,6000000.0,2013,Phoenix Suns
NBA,6400000.0,2014,Phoenix Suns
NBA,8175476.0,2015,Orlando Magic
NBA,7807579.0,2016,Cleveland Cavaliers
NBA,7806971.0,2017,Cleveland Cavaliers
NBA,7420912.0,2018,Los Angeles Lakers
NBA,2393887.0,2019,Cleveland Cavaliers
