age,avg_dist,fg2_dunk,fg2_pct,fg2_pct_ast,fg2a_pct_fga,fg3_heave,fg3_pct,fg3_pct_ast,fg3_pct_corner,fg3a_heave,fg3a_pct_fga,fg_pct,fg_pct_00_03,fg_pct_03_10,fg_pct_10_16,fg_pct_16_xx,g,lg_id,mp,pct_fg2_dunk,pct_fg3a_corner,pct_fga_00_03,pct_fga_03_10,pct_fga_10_16,pct_fga_16_xx,pos,season,team_id
23.0,8.2,1.0,0.463,0.161,0.838,0.0,0.385,0.2,0.0,0.0,0.163,0.45,0.561,0.333,0.2,0.286,27.0,NBA,229.0,0.013,0.154,0.513,0.188,0.063,0.088,PG,2016,TOR
24.0,10.3,5.0,0.453,0.128,0.741,0.0,0.333,0.6,0.286,0.0,0.259,0.422,0.568,0.407,0.375,0.0,27.0,NBA,446.0,0.043,0.233,0.379,0.233,0.069,0.052,PG,2017,TOR
25.0,11.1,13.0,0.52,0.248,0.646,1.0,0.366,0.786,0.424,4.0,0.354,0.465,0.629,0.352,0.364,0.333,69.0,NBA,1433.0,0.032,0.216,0.394,0.211,0.025,0.014,PG,2018,TOR
26.0,10.8,13.0,0.492,0.323,0.699,0.0,0.298,0.76,0.405,5.0,0.301,0.434,0.616,0.357,0.25,0.267,75.0,NBA,1699.0,0.023,0.22,0.401,0.206,0.065,0.027,PG,2019,TOT
26.0,10.9,8.0,0.478,0.32,0.693,0.0,0.333,0.733,0.5,1.0,0.307,0.433,0.587,0.394,0.2,0.25,49.0,NBA,897.0,0.027,0.222,0.372,0.242,0.051,0.027,PG,2019,TOR
26.0,10.8,5.0,0.508,0.326,0.706,0.0,0.256,0.8,0.294,4.0,0.294,0.434,0.643,0.295,0.286,0.286,26.0,NBA,802.0,0.019,0.218,0.434,0.166,0.079,0.026,PG,2019,MEM
27.0,9.4,0.0,0.587,0.296,0.73,0.0,0.353,0.833,1.0,1.0,0.27,0.524,0.71,0.333,0.0,0.0,11.0,NBA,259.0,0.0,0.118,0.492,0.238,0.0,0.0,SG,2020,DAL
