article_url,date,headline
https://raptorsrapture.com/2019/11/15/toronto-raptors-panic-meter-gasol/,2019/11/15,Raptors Rapture: Toronto Raptors Panic Meter: Gasol's struggles through 11 games
https://lastwordonprobasketball.com/2019/11/14/dallas-mavericks-rotation-issues/,2019/11/14,Last Word on Sports: Dallas Mavericks Rotation Issues
https://thesmokingcuban.com/2019/11/13/dallas-mavericks-ryan-broekhoff-needs-getting-opportunity/,2019/11/13,The Smoking Cuban: Dallas Mavericks: Ryan Broekhoff should get a chance to prove himself
