age,ast_per_g,blk_per_g,drb_per_g,efg_pct,fg2_pct,fg2_per_g,fg2a_per_g,fg3_pct,fg3_per_g,fg3a_per_g,fg_pct,fg_per_g,fga_per_g,ft_pct,ft_per_g,fta_per_g,g,gs,lg_id,mp_per_g,orb_per_g,pf_per_g,pos,pts_per_g,season,stl_per_g,team_id,tov_per_g,trb_per_g
23.0,1.1,0.1,1.1,0.481,0.463,1.1,2.5,0.385,0.2,0.5,0.45,1.3,3.0,0.743,1.0,1.3,27.0,1.0,NBA,8.5,0.3,0.3,PG,3.8,2016,0.3,TOR,0.6,1.4
24.0,2.1,0.4,1.2,0.466,0.453,1.4,3.2,0.333,0.4,1.1,0.422,1.8,4.3,0.764,1.6,2.0,27.0,0.0,NBA,16.5,0.6,1.1,PG,5.6,2017,1.0,TOR,0.9,1.8
25.0,2.9,0.5,2.2,0.53,0.52,2.1,4.0,0.366,0.8,2.2,0.465,2.9,6.3,0.829,1.4,1.7,69.0,4.0,NBA,20.8,0.7,1.2,PG,8.0,2018,1.0,TOR,1.1,2.9
26.0,3.3,0.4,2.6,0.478,0.492,2.6,5.2,0.298,0.7,2.2,0.434,3.2,7.4,0.793,1.6,2.0,75.0,13.0,NBA,22.7,0.9,1.4,PG,8.7,2019,1.2,TOT,1.0,3.5
26.0,2.2,0.3,1.8,0.485,0.478,2.0,4.1,0.333,0.6,1.8,0.433,2.6,6.0,0.869,1.1,1.2,49.0,2.0,NBA,18.3,0.8,1.1,PG,6.9,2019,0.9,TOR,0.8,2.6
26.0,5.3,0.6,4.3,0.472,0.508,3.7,7.2,0.256,0.8,3.0,0.434,4.4,10.2,0.742,2.5,3.4,26.0,11.0,NBA,30.8,1.1,1.9,PG,12.2,2019,1.6,MEM,1.5,5.4
27.0,3.5,0.3,3.0,0.571,0.587,2.5,4.2,0.353,0.5,1.5,0.524,3.0,5.7,0.875,1.3,1.5,11.0,2.0,NBA,23.5,0.5,1.2,SG,7.8,2020,1.2,DAL,0.7,3.5
