age,and1s,astd_pts,drawn_offensive,drawn_shooting,fouls_offensive,fouls_shooting,g,lg_id,mp,own_shots_blk,pct_1,pct_2,pct_3,pct_4,pct_5,plus_minus_net,plus_minus_on,pos,season,team_id,tov_bad_pass,tov_lost_ball
22.0,26.0,480.0,0.0,107.0,36.0,65.0,78.0,NBA,2519.0,91.0,2.0,38.0,60.0,0.0,0.0,0.4,-7.1,SF,2001,WAS,82.0,61.0
23.0,25.0,360.0,0.0,121.0,20.0,42.0,63.0,NBA,2203.0,100.0,9.0,81.0,10.0,0.0,0.0,1.4,-0.8,SG,2002,WAS,61.0,43.0
24.0,34.0,470.0,0.0,181.0,46.0,82.0,82.0,NBA,2640.0,93.0,1.0,89.0,11.0,0.0,0.0,-4.3,2.7,SG,2003,DET,66.0,63.0
25.0,25.0,687.0,0.0,121.0,42.0,65.0,78.0,NBA,2772.0,85.0,0.0,89.0,11.0,0.0,0.0,0.8,6.7,SG,2004,DET,80.0,68.0
26.0,21.0,804.0,0.0,151.0,39.0,63.0,76.0,NBA,2926.0,78.0,1.0,93.0,7.0,0.0,0.0,10.9,7.5,SG,2005,DET,122.0,46.0
27.0,29.0,602.0,26.0,114.0,29.0,60.0,80.0,NBA,2825.0,71.0,0.0,99.0,1.0,0.0,0.0,6.1,9.8,SG,2006,DET,73.0,52.0
28.0,30.0,624.0,15.0,132.0,44.0,72.0,75.0,NBA,2763.0,67.0,1.0,94.0,5.0,0.0,0.0,6.0,6.6,SG,2007,DET,52.0,45.0
29.0,19.0,671.0,8.0,69.0,14.0,59.0,72.0,NBA,2424.0,61.0,0.0,100.0,0.0,0.0,0.0,-1.0,8.2,SG,2008,DET,74.0,29.0
30.0,9.0,642.0,12.0,69.0,26.0,49.0,67.0,NBA,2279.0,53.0,0.0,80.0,20.0,0.0,0.0,1.5,0.1,SG,2009,DET,67.0,25.0
31.0,10.0,436.0,5.0,76.0,13.0,40.0,46.0,NBA,1552.0,26.0,1.0,78.0,22.0,0.0,0.0,0.6,-5.5,SG,2010,DET,62.0,33.0
32.0,8.0,368.0,7.0,53.0,14.0,34.0,55.0,NBA,1498.0,21.0,13.0,75.0,11.0,0.0,0.0,-2.5,-5.4,SG,2011,DET,53.0,17.0
33.0,8.0,187.0,1.0,16.0,3.0,19.0,28.0,NBA,697.0,13.0,0.0,100.0,0.0,0.0,0.0,-0.8,8.9,SG,2012,CHI,25.0,14.0
34.0,3.0,261.0,1.0,25.0,16.0,23.0,50.0,NBA,1088.0,25.0,0.0,99.0,2.0,0.0,0.0,-4.3,-2.5,SG,2013,CHI,48.0,14.0
