age,ast_per_mp,blk_per_mp,drb_per_mp,fg2_pct,fg2_per_mp,fg2a_per_mp,fg3_pct,fg3_per_mp,fg3a_per_mp,fg_pct,fg_per_mp,fga_per_mp,ft_pct,ft_per_mp,fta_per_mp,g,gs,lg_id,mp,orb_per_mp,pf_per_mp,pos,pts_per_mp,season,stl_per_mp,team_id,tov_per_mp,trb_per_mp
21.0,2.8,0.2,2.4,0.428,5.9,13.8,0.364,0.7,2.0,0.42,6.7,15.9,0.774,2.7,3.5,71.0,12.0,NBA,1373.0,1.0,3.7,SG,16.8,2000,0.7,WAS,2.2,3.4
22.0,3.2,0.1,2.3,0.46,7.2,15.8,0.274,0.6,2.1,0.438,7.8,17.8,0.868,4.0,4.6,78.0,42.0,NBA,2519.0,1.1,2.9,SF,20.2,2001,1.1,WAS,2.9,3.4
23.0,2.8,0.2,2.3,0.438,7.5,17.0,0.381,0.3,0.7,0.435,7.7,17.7,0.89,4.9,5.5,63.0,57.0,NBA,2203.0,1.2,2.2,SG,20.6,2002,0.6,WAS,2.2,3.5
24.0,2.8,0.2,3.1,0.461,7.3,15.9,0.269,0.4,1.6,0.443,7.8,17.5,0.833,6.0,7.2,82.0,82.0,NBA,2640.0,1.2,3.4,SG,22.0,2003,0.9,DET,2.7,4.3
25.0,4.0,0.2,2.6,0.466,6.6,14.3,0.265,0.2,0.9,0.455,6.9,15.1,0.868,3.9,4.4,78.0,78.0,NBA,2772.0,1.0,2.9,SG,17.9,2004,1.3,DET,2.7,3.6
26.0,4.6,0.2,2.7,0.455,5.8,12.8,0.305,0.4,1.5,0.44,6.3,14.3,0.858,4.5,5.3,76.0,76.0,NBA,2926.0,0.9,2.9,SG,17.5,2005,0.9,DET,2.7,3.6
27.0,3.5,0.2,2.2,0.494,7.6,15.3,0.458,0.7,1.5,0.491,8.3,16.8,0.845,3.3,3.9,80.0,80.0,NBA,2825.0,1.1,2.6,SG,20.5,2006,0.7,DET,2.2,3.3
28.0,3.7,0.2,2.7,0.483,6.6,13.6,0.341,0.6,1.7,0.468,7.1,15.2,0.861,4.5,5.3,75.0,75.0,NBA,2763.0,1.0,3.0,SG,19.3,2007,0.8,DET,2.1,3.7
29.0,4.4,0.1,2.4,0.492,6.5,13.2,0.44,0.9,2.1,0.484,7.4,15.3,0.833,2.7,3.3,72.0,72.0,NBA,2424.0,1.1,2.5,SG,18.5,2008,1.1,DET,2.0,3.5
30.0,4.7,0.1,2.6,0.464,6.3,13.5,0.368,1.1,3.0,0.447,7.4,16.5,0.848,3.5,4.2,67.0,51.0,NBA,2279.0,0.7,2.8,SG,19.4,2009,0.6,DET,2.1,3.3
31.0,4.7,0.1,2.1,0.435,5.8,13.4,0.297,1.0,3.2,0.409,6.8,16.6,0.846,4.7,5.6,46.0,46.0,NBA,1552.0,0.7,2.7,SG,19.3,2010,0.7,DET,2.7,2.8
32.0,4.1,0.1,2.5,0.442,5.6,12.7,0.382,1.3,3.5,0.429,6.9,16.1,0.849,3.5,4.1,55.0,39.0,NBA,1498.0,0.6,2.3,SG,18.7,2011,0.9,DET,2.1,3.0
33.0,4.3,0.1,2.4,0.466,6.4,13.6,0.37,0.9,2.4,0.452,7.2,16.0,0.784,1.5,1.9,28.0,28.0,NBA,697.0,1.0,2.9,SG,16.8,2012,0.6,CHI,2.5,3.4
34.0,3.9,0.2,2.2,0.444,6.2,14.0,0.308,0.5,1.7,0.429,6.8,15.7,0.857,2.2,2.5,50.0,45.0,NBA,1088.0,0.5,3.1,SG,16.2,2013,0.8,CHI,2.8,2.7
