age,ast,blk,drb,fg,fg2,fg2a,fg3,fg3a,fga,ft,fta,game_score,lg_id,mp,orb,pf,pts,season,stl,team_id,tov,trb
21.0,7.0,2.0,6.0,11.0,10.0,18.0,3.0,5.0,20.0,7.0,8.0,21.9,NBA,0.0,3.0,6.0,26.0,2000,2.0,WAS,5.0,8.0
22.0,8.0,1.0,7.0,17.0,17.0,26.0,4.0,5.0,27.0,14.0,14.0,36.4,NBA,0.0,5.0,6.0,41.0,2001,3.0,WAS,8.0,9.0
23.0,7.0,2.0,7.0,15.0,15.0,27.0,2.0,4.0,27.0,12.0,13.0,28.4,NBA,0.0,4.0,5.0,34.0,2002,3.0,WAS,8.0,9.0
24.0,9.0,1.0,7.0,14.0,14.0,25.0,2.0,5.0,26.0,14.0,20.0,26.8,NBA,0.0,5.0,6.0,34.0,2003,4.0,DET,7.0,8.0
25.0,12.0,2.0,9.0,15.0,14.0,22.0,3.0,7.0,23.0,13.0,15.0,36.9,NBA,0.0,5.0,6.0,44.0,2004,5.0,DET,8.0,10.0
26.0,11.0,3.0,11.0,12.0,12.0,26.0,3.0,5.0,26.0,20.0,20.0,29.6,NBA,0.0,4.0,6.0,37.0,2005,3.0,DET,7.0,11.0
27.0,9.0,2.0,6.0,16.0,16.0,25.0,3.0,6.0,27.0,13.0,14.0,29.4,NBA,49.0,4.0,6.0,40.0,2006,4.0,DET,8.0,9.0
28.0,11.0,3.0,8.0,19.0,18.0,36.0,2.0,5.0,37.0,12.0,14.0,32.1,NBA,55.0,4.0,6.0,51.0,2007,4.0,DET,6.0,10.0
29.0,10.0,2.0,7.0,16.0,12.0,19.0,5.0,9.0,25.0,8.0,9.0,34.6,NBA,46.0,5.0,6.0,39.0,2008,4.0,DET,6.0,8.0
30.0,16.0,2.0,6.0,15.0,13.0,23.0,5.0,9.0,29.0,11.0,12.0,27.7,NBA,48.0,3.0,6.0,38.0,2009,4.0,DET,8.0,9.0
31.0,10.0,1.0,5.0,12.0,11.0,21.0,4.0,7.0,23.0,12.0,14.0,29.4,NBA,47.0,3.0,5.0,36.0,2010,3.0,DET,7.0,6.0
32.0,9.0,2.0,4.0,13.0,11.0,18.0,6.0,10.0,21.0,11.0,12.0,27.3,NBA,43.0,3.0,4.0,35.0,2011,5.0,DET,6.0,5.0
33.0,10.0,1.0,4.0,10.0,9.0,17.0,4.0,5.0,20.0,5.0,7.0,19.8,NBA,43.0,3.0,5.0,22.0,2012,3.0,CHI,5.0,5.0
34.0,9.0,1.0,7.0,12.0,10.0,22.0,2.0,3.0,24.0,10.0,10.0,18.4,NBA,37.0,2.0,5.0,30.0,2013,2.0,CHI,7.0,8.0
