age,and1s,astd_pts,drawn_offensive,drawn_shooting,fouls_offensive,fouls_shooting,g,lg_id,mp,own_shots_blk,pct_1,pct_2,pct_3,pct_4,pct_5,plus_minus_net,plus_minus_on,pos,season,team_id,tov_bad_pass,tov_lost_ball
21.0,9.0,51.0,7.0,41.0,1.0,26.0,56.0,NBA,675.0,16.0,0.0,57.0,43.0,0.0,0.0,-5.2,-1.0,SG,2007,UTA,10.0,6.0
22.0,21.0,286.0,9.0,113.0,8.0,40.0,76.0,NBA,2088.0,50.0,0.0,85.0,15.0,0.0,0.0,-1.6,6.7,SG,2008,UTA,26.0,24.0
23.0,48.0,398.0,23.0,181.0,7.0,61.0,81.0,NBA,2605.0,61.0,0.0,12.0,84.0,5.0,0.0,-3.3,1.7,SF,2009,UTA,50.0,35.0
24.0,13.0,334.0,8.0,66.0,5.0,46.0,58.0,NBA,1742.0,34.0,0.0,60.0,40.0,0.0,0.0,0.5,2.3,SG,2010,TOT,22.0,16.0
24.0,12.0,327.0,8.0,64.0,5.0,46.0,53.0,NBA,1662.0,32.0,0.0,61.0,39.0,0.0,0.0,-4.3,3.1,SG,2010,UTA,21.0,15.0
24.0,1.0,7.0,0.0,2.0,0.0,0.0,5.0,NBA,80.0,2.0,0.0,56.0,44.0,0.0,0.0,-10.8,-12.2,SG,2010,MEM,1.0,1.0
25.0,16.0,308.0,9.0,63.0,9.0,39.0,81.0,NBA,1781.0,25.0,0.0,45.0,55.0,1.0,0.0,1.2,8.8,SG,2011,CHI,27.0,9.0
26.0,6.0,313.0,6.0,45.0,7.0,21.0,66.0,NBA,1635.0,26.0,0.0,59.0,41.0,0.0,0.0,-1.9,8.7,SG,2012,CHI,26.0,16.0
27.0,2.0,119.0,3.0,16.0,0.0,22.0,60.0,NBA,853.0,14.0,0.0,16.0,78.0,7.0,0.0,-6.1,1.7,SF,2013,TOT,10.0,6.0
27.0,2.0,97.0,3.0,16.0,0.0,17.0,46.0,NBA,711.0,13.0,0.0,18.0,80.0,2.0,0.0,-3.3,1.8,SF,2013,NYK,6.0,6.0
27.0,0.0,22.0,0.0,0.0,0.0,5.0,14.0,NBA,142.0,1.0,0.0,6.0,66.0,28.0,0.0,-8.6,1.5,SF,2013,OKC,4.0,0.0
28.0,0.0,26.0,1.0,1.0,0.0,2.0,24.0,NBA,160.0,0.0,0.0,19.0,79.0,2.0,0.0,-15.4,-11.6,SF,2014,TOT,2.0,0.0
28.0,0.0,26.0,1.0,1.0,0.0,2.0,23.0,NBA,158.0,0.0,0.0,19.0,79.0,2.0,0.0,-16.0,-10.6,SF,2014,HOU,2.0,0.0
28.0,0.0,0.0,0.0,0.0,0.0,0.0,1.0,NBA,2.0,0.0,0.0,0.0,100.0,0.0,0.0,-72.1,-70.0,SF,2014,CHI,0.0,0.0
