lg_id,salary,season,team_name
NBA,1595400.0,2007,Utah Jazz
NBA,1715040.0,2008,Utah Jazz
NBA,1834680.0,2009,Utah Jazz
NBA,2717161.0,2010,Memphis Grizzlies
NBA,4790000.0,2011,Chicago Bulls
NBA,4710000.0,2012,Chicago Bulls
NBA,1069509.0,2013,Oklahoma City Thunder
NBA,1186459.0,2014,Houston Rockets
