lg_id,salary,season,team_name
NBA,2126520.0,2011,Oklahoma City Thunder
NBA,2286000.0,2012,Oklahoma City Thunder
NBA,2445480.0,2013,Sacramento Kings
NBA,981084.0,2015,New York Knicks
NBA,1100600.0,2016,Los Angeles Clippers
NBA,7643979.0,2017,Minnesota Timberwolves
NBA,7300000.0,2018,Minnesota Timberwolves
NBA,685341.0,2019,Minnesota Timberwolves
