age,ast,blk,drb,efg_pct,fg,fg2,fg2_pct,fg2a,fg3,fg3_pct,fg3a,fg_pct,fga,ft,ft_pct,fta,g,gs,lg_id,mp,orb,pf,pos,pts,season,stl,team_id,tov,trb
23.0,0.0,0.0,8.0,0.444,4.0,4.0,0.444,9.0,0.0,0.0,0.0,0.444,9.0,2.0,0.5,4.0,5.0,0.0,NBA,25.0,5.0,3.0,C,10.0,2012,0.0,OKC,0.0,13.0
27.0,3.0,3.0,22.0,0.667,10.0,10.0,0.667,15.0,0.0,0.0,0.0,0.667,15.0,3.0,0.5,6.0,6.0,0.0,NBA,77.0,8.0,11.0,C,23.0,2016,6.0,LAC,2.0,30.0
