age,and1s,astd_pts,drawn_offensive,drawn_shooting,fouls_offensive,fouls_shooting,g,lg_id,mp,own_shots_blk,pct_1,pct_2,pct_3,pct_4,pct_5,plus_minus_net,plus_minus_on,pos,season,team_id,tov_bad_pass,tov_lost_ball
22.0,0.0,10.0,0.0,2.0,2.0,21.0,18.0,NBA,142.0,2.0,0.0,0.0,0.0,7.0,93.0,-1.3,2.9,C,2011,OKC,2.0,1.0
23.0,0.0,6.0,1.0,4.0,0.0,13.0,26.0,NBA,173.0,2.0,0.0,0.0,0.0,0.0,100.0,-14.4,-6.9,C,2012,OKC,3.0,5.0
24.0,2.0,22.0,0.0,7.0,6.0,28.0,45.0,NBA,388.0,8.0,0.0,0.0,0.0,0.0,100.0,2.5,1.5,C,2013,TOT,8.0,6.0
24.0,1.0,16.0,0.0,4.0,5.0,15.0,30.0,NBA,213.0,3.0,0.0,0.0,0.0,0.0,100.0,-9.6,-5.4,C,2013,HOU,5.0,3.0
24.0,1.0,6.0,0.0,3.0,1.0,13.0,15.0,NBA,175.0,5.0,0.0,0.0,0.0,0.0,100.0,16.1,10.0,C,2013,SAC,3.0,3.0
25.0,2.0,33.0,1.0,12.0,6.0,24.0,46.0,NBA,330.0,4.0,0.0,0.0,0.0,0.0,100.0,-0.9,-1.9,C,2014,NYK,3.0,6.0
26.0,7.0,164.0,4.0,29.0,10.0,74.0,61.0,NBA,976.0,15.0,0.0,0.0,0.0,52.0,48.0,-7.3,-15.7,C,2015,NYK,33.0,9.0
27.0,5.0,125.0,2.0,39.0,19.0,79.0,60.0,NBA,800.0,18.0,0.0,0.0,0.0,3.0,97.0,-5.0,0.3,C,2016,LAC,10.0,26.0
28.0,3.0,59.0,2.0,10.0,7.0,35.0,62.0,NBA,531.0,7.0,0.0,0.0,0.0,26.0,74.0,-0.6,-1.6,C,2017,MIN,0.0,6.0
29.0,0.0,7.0,0.0,2.0,1.0,2.0,21.0,NBA,49.0,1.0,0.0,0.0,0.0,0.0,100.0,-4.6,-2.0,C,2018,MIN,0.0,0.0
