age,ast_per_poss,blk_per_poss,def_rtg,drb_per_poss,fg2_pct,fg2_per_poss,fg2a_per_poss,fg3_pct,fg3_per_poss,fg3a_per_poss,fg_pct,fg_per_poss,fga_per_poss,ft_pct,ft_per_poss,fta_per_poss,g,gs,lg_id,mp,off_rtg,orb_per_poss,pf_per_poss,pos,pts_per_poss,season,stl_per_poss,team_id,tov_per_poss,trb_per_poss
23.0,2.1,0.7,118.0,4.2,0.333,2.8,8.5,0.222,1.4,6.3,0.286,4.2,14.8,1.0,4.2,4.2,6.0,0.0,NBA,73.0,93.0,0.0,3.5,SG,14.1,2017,0.0,SAS,1.4,4.2
24.0,1.9,0.0,121.0,1.9,0.375,2.9,7.6,0.222,1.9,8.6,0.294,4.8,16.2,0.714,4.8,6.7,4.0,0.0,NBA,54.0,96.0,1.0,2.9,SG,16.2,2018,0.0,SAS,0.0,2.9
25.0,1.7,0.2,118.0,5.9,0.48,3.0,6.2,0.484,3.7,7.6,0.482,6.7,13.8,0.667,1.5,2.2,7.0,7.0,NBA,212.0,123.0,0.2,3.5,SG,18.5,2019,0.2,SAS,0.7,6.2
