age,and1s,astd_pts,drawn_offensive,drawn_shooting,fouls_offensive,fouls_shooting,g,lg_id,mp,own_shots_blk,pct_1,pct_2,pct_3,pct_4,pct_5,plus_minus_net,plus_minus_on,pos,season,team_id,tov_bad_pass,tov_lost_ball
23.0,0.0,55.0,1.0,2.0,1.0,12.0,36.0,NBA,285.0,3.0,52.0,41.0,8.0,0.0,0.0,-18.1,-8.8,SG,2017,SAS,5.0,3.0
24.0,9.0,191.0,11.0,31.0,7.0,47.0,80.0,NBA,1517.0,19.0,3.0,84.0,14.0,0.0,0.0,1.3,3.7,SG,2018,SAS,8.0,13.0
25.0,19.0,400.0,10.0,40.0,9.0,78.0,82.0,NBA,2293.0,36.0,24.0,75.0,2.0,0.0,0.0,-3.8,0.5,SG,2019,SAS,37.0,26.0
26.0,2.0,24.0,2.0,8.0,1.0,9.0,8.0,NBA,226.0,5.0,0.0,97.0,3.0,0.0,0.0,-25.8,-8.6,SG,2020,SAS,1.0,1.0
