age,and1s,astd_pts,drawn_offensive,drawn_shooting,fouls_offensive,fouls_shooting,g,lg_id,mp,own_shots_blk,pct_1,pct_2,pct_3,pct_4,pct_5,plus_minus_net,plus_minus_on,pos,season,team_id,tov_bad_pass,tov_lost_ball
23.0,2.0,2.0,0.0,5.0,1.0,8.0,15.0,NBA,86.0,5.0,0.0,0.0,0.0,0.0,100.0,-7.9,-11.2,C,2003,MEM,1.0,2.0
24.0,0.0,0.0,0.0,0.0,1.0,1.0,7.0,NBA,15.0,0.0,0.0,0.0,0.0,0.0,100.0,-53.7,-56.5,C,2004,TOT,0.0,0.0
24.0,0.0,0.0,0.0,0.0,1.0,0.0,4.0,NBA,10.0,0.0,0.0,0.0,0.0,0.0,100.0,-10.2,-14.3,C,2004,PHO,0.0,0.0
24.0,0.0,0.0,0.0,0.0,0.0,1.0,3.0,NBA,5.0,0.0,0.0,0.0,0.0,0.0,100.0,-120.8,-122.2,C,2004,NYK,0.0,0.0
