age,ast_per_mp,blk_per_mp,drb_per_mp,fg2_pct,fg2_per_mp,fg2a_per_mp,fg3_pct,fg3_per_mp,fg3a_per_mp,fg_pct,fg_per_mp,fga_per_mp,ft_pct,ft_per_mp,fta_per_mp,g,gs,lg_id,mp,orb_per_mp,pf_per_mp,pos,pts_per_mp,season,stl_per_mp,team_id,tov_per_mp,trb_per_mp
24.0,0.9,0.5,9.3,0.405,2.6,6.4,0.0,0.0,0.0,0.405,2.6,6.4,0.524,1.9,3.6,11.0,11.0,NBA,208.0,4.7,5.5,PF,7.1,2005,0.9,SEA,1.9,14.0
25.0,0.0,0.5,7.8,0.6,1.6,2.6,0.0,0.0,1.0,0.429,1.6,3.7,0.722,6.8,9.4,5.0,0.0,NBA,69.0,4.2,5.7,PF,9.9,2006,1.0,DEN,3.1,12.0
27.0,0.7,0.0,7.5,0.5,3.2,6.3,0.0,0.0,0.0,0.5,3.2,6.3,0.625,3.6,5.8,6.0,0.0,NBA,148.0,3.9,4.9,PF,10.0,2008,1.2,PHI,3.2,11.4
28.0,0.0,0.0,8.0,0.222,2.0,9.0,0.0,0.0,0.0,0.222,2.0,9.0,0.75,3.0,4.0,5.0,0.0,NBA,36.0,2.0,4.0,PF,7.0,2009,3.0,PHI,2.0,10.0
31.0,0.2,1.1,10.9,0.533,1.5,2.7,0.0,0.0,0.0,0.533,1.5,2.7,0.425,3.1,7.3,11.0,0.0,NBA,198.0,3.6,5.6,PF,6.0,2012,1.6,LAC,1.6,14.5
32.0,1.0,0.3,12.1,0.478,1.9,4.0,0.0,0.0,0.0,0.478,1.9,4.0,0.556,1.7,3.1,7.0,7.0,NBA,209.0,2.8,3.6,PF,5.5,2013,1.2,BRK,1.0,14.8
