article_url,date,headline
https://thejnotes.com/2019/08/25/utah-jazz-alumni-joe-johnson-al-jefferson-triplets-advance-big3-championship/,2019/08/25,"Purple and Blues: Utah Jazz alumni: Joe Johnson, Al Jefferson, Triplets advance to BIG3 Championship"
https://raptorsrapture.com/2019/08/06/toronto-raptors-fan-favourite-bracket/,2019/08/06,Raptors Rapture: The ultimate Toronto Raptors fan favourite bracket: Round of 8
https://behindthebuckpass.com/2019/08/04/milwaukee-bucks-big3-debut-brings-familiar-faces-fiserv-forum/,2019/08/04,Behind the Buck Pass: Milwaukee Bucks: Big3 debut brings familiar faces to Fiserv Forum
https://pelicandebrief.com/2019/06/23/smoothie-king-center-host-ice-cubes-big3-playoffs/,2019/06/23,Pelican Debrief: Smoothie King Center to host Ice Cube's Big3 Playoffs
