age,ast,blk,drb,fg,fg2,fg2a,fg3,fg3a,fga,ft,fta,game_score,lg_id,mp,orb,pf,pts,season,stl,team_id,tov,trb
22.0,4.0,2.0,11.0,5.0,5.0,7.0,0.0,0.0,7.0,4.0,9.0,14.0,NBA,0.0,7.0,6.0,13.0,2003,4.0,SEA,3.0,17.0
23.0,3.0,2.0,10.0,6.0,6.0,8.0,0.0,1.0,8.0,4.0,8.0,15.8,NBA,0.0,7.0,5.0,16.0,2004,4.0,SEA,3.0,14.0
24.0,4.0,1.0,16.0,6.0,6.0,9.0,0.0,1.0,9.0,8.0,14.0,15.3,NBA,0.0,9.0,5.0,14.0,2005,3.0,SEA,4.0,21.0
25.0,3.0,2.0,19.0,8.0,8.0,13.0,0.0,1.0,13.0,7.0,10.0,19.6,NBA,40.0,8.0,5.0,22.0,2006,3.0,TOT,7.0,20.0
25.0,3.0,1.0,11.0,7.0,7.0,12.0,0.0,1.0,12.0,7.0,10.0,19.6,NBA,39.0,8.0,5.0,21.0,2006,3.0,SEA,3.0,18.0
25.0,2.0,2.0,19.0,8.0,8.0,13.0,0.0,0.0,13.0,6.0,10.0,19.3,NBA,40.0,6.0,5.0,22.0,2006,2.0,DEN,7.0,20.0
26.0,3.0,3.0,15.0,7.0,7.0,10.0,0.0,0.0,10.0,6.0,13.0,20.7,NBA,34.0,8.0,5.0,19.0,2007,3.0,DEN,5.0,20.0
27.0,3.0,2.0,11.0,6.0,6.0,10.0,1.0,1.0,10.0,7.0,13.0,17.1,NBA,39.0,7.0,5.0,13.0,2008,4.0,PHI,4.0,16.0
28.0,2.0,1.0,10.0,5.0,5.0,9.0,0.0,1.0,9.0,6.0,8.0,11.3,NBA,32.0,5.0,5.0,13.0,2009,3.0,PHI,3.0,12.0
29.0,2.0,1.0,7.0,4.0,4.0,8.0,0.0,0.0,8.0,5.0,9.0,11.1,NBA,25.0,4.0,5.0,13.0,2010,3.0,TOR,2.0,9.0
30.0,4.0,1.0,17.0,6.0,6.0,8.0,0.0,1.0,8.0,5.0,8.0,17.7,NBA,36.0,10.0,5.0,15.0,2011,3.0,TOR,3.0,22.0
31.0,3.0,1.0,11.0,4.0,4.0,5.0,0.0,0.0,5.0,3.0,6.0,16.4,NBA,28.0,7.0,6.0,11.0,2012,3.0,LAC,2.0,13.0
32.0,3.0,2.0,19.0,9.0,9.0,13.0,0.0,0.0,13.0,6.0,16.0,27.4,NBA,43.0,12.0,6.0,22.0,2013,4.0,BRK,5.0,26.0
33.0,3.0,1.0,14.0,5.0,5.0,10.0,0.0,0.0,10.0,7.0,10.0,17.0,NBA,35.0,6.0,6.0,14.0,2014,3.0,TOT,5.0,18.0
33.0,1.0,1.0,9.0,3.0,3.0,10.0,0.0,0.0,10.0,5.0,7.0,9.6,NBA,28.0,6.0,5.0,11.0,2014,2.0,BRK,4.0,13.0
33.0,3.0,1.0,14.0,5.0,5.0,7.0,0.0,0.0,7.0,7.0,10.0,17.0,NBA,35.0,6.0,6.0,14.0,2014,3.0,SAC,5.0,18.0
34.0,3.0,1.0,13.0,7.0,7.0,12.0,0.0,1.0,13.0,5.0,6.0,20.0,NBA,35.0,9.0,4.0,17.0,2015,2.0,SAC,4.0,20.0
