age,ast_pct,blk_pct,bpm,bpm-dum,dbpm,drb_pct,dws,fg3a_per_fga_pct,fta_per_fga_pct,g,lg_id,mp,obpm,orb_pct,ows,per,pos,season,stl_pct,team_id,tov_pct,trb_pct,ts_pct,usg_pct,vorp,ws,ws-dum,ws_per_48
22.0,3.7,0.6,-1.8,0.0,0.9,24.3,1.7,0.0,1.1,67.0,NBA,1365.0,-2.7,14.2,1.3,10.4,PF,2003,1.5,SEA,20.0,19.2,0.51,8.9,0.1,3.0,0.0,0.105
23.0,3.7,0.6,-2.1,0.0,0.4,23.0,1.1,0.018,0.897,75.0,NBA,1280.0,-2.5,14.5,0.7,9.9,PF,2004,2.3,SEA,22.0,18.8,0.471,10.7,0.0,1.7,0.0,0.065
24.0,4.7,0.6,-0.2,0.0,1.1,31.2,2.3,0.007,0.851,79.0,NBA,1881.0,-1.3,16.6,1.5,13.0,PF,2005,1.7,SEA,21.6,23.9,0.512,11.8,0.9,3.8,0.0,0.096
25.0,4.0,0.5,-3.5,0.0,-0.9,28.3,1.3,0.004,0.81,67.0,NBA,1393.0,-2.6,14.6,0.8,12.5,PF,2006,1.5,TOT,19.0,21.4,0.519,14.4,-0.5,2.1,0.0,0.072
25.0,4.4,0.5,-2.3,0.0,-1.9,25.2,0.3,0.006,0.694,41.0,NBA,788.0,-0.4,17.2,1.2,15.0,PF,2006,1.6,SEA,15.4,21.2,0.536,15.2,-0.1,1.5,0.0,0.09
25.0,3.5,0.6,-4.9,0.0,0.4,32.3,1.0,0.0,1.021,26.0,NBA,605.0,-5.4,11.1,-0.4,9.2,PF,2006,1.4,DEN,24.2,21.8,0.49,13.4,-0.4,0.6,0.0,0.048
26.0,5.7,1.0,-1.6,0.0,1.1,29.9,1.9,0.0,0.851,66.0,NBA,1127.0,-2.7,15.8,0.4,13.5,PF,2007,1.8,DEN,24.3,23.0,0.55,14.8,0.1,2.3,0.0,0.096
27.0,5.0,0.3,-1.5,0.0,1.4,24.7,3.0,0.003,0.743,81.0,NBA,1879.0,-2.9,14.0,-0.3,11.0,PF,2008,2.4,PHI,19.0,19.3,0.463,13.6,0.2,2.7,0.0,0.068
28.0,3.3,0.6,-3.1,0.0,0.1,24.0,1.6,0.006,0.983,79.0,NBA,1137.0,-3.3,14.1,0.3,10.4,PF,2009,1.9,PHI,21.3,19.0,0.514,13.0,-0.3,1.9,0.0,0.079
29.0,3.7,1.0,-4.9,0.0,-0.8,27.7,0.3,0.0,0.87,28.0,NBA,311.0,-4.1,11.7,-0.1,11.4,PF,2010,2.3,TOR,18.7,19.9,0.498,17.2,-0.2,0.2,0.0,0.033
30.0,6.4,0.6,-0.4,0.0,1.4,34.4,0.8,0.01,0.854,30.0,NBA,798.0,-1.8,17.2,0.5,12.4,PF,2011,1.9,TOR,21.6,25.6,0.466,10.1,0.3,1.3,0.0,0.077
31.0,3.1,0.6,-2.2,0.0,1.1,26.7,1.0,0.0,0.986,56.0,NBA,771.0,-3.3,15.3,0.2,9.2,PF,2012,2.2,LAC,29.9,20.9,0.504,8.8,0.0,1.3,0.0,0.079
32.0,3.2,0.5,-1.8,0.0,1.3,38.0,3.5,0.0,0.851,80.0,NBA,1967.0,-3.2,15.5,0.8,12.8,PF,2013,2.0,BRK,23.6,26.7,0.506,11.0,0.1,4.3,0.0,0.105
33.0,3.5,0.3,-3.6,0.0,-0.1,28.4,1.2,0.0,0.867,54.0,NBA,899.0,-3.5,14.8,0.3,11.7,PF,2014,2.1,TOT,21.9,21.5,0.516,13.4,-0.4,1.5,0.0,0.08
33.0,1.8,0.4,-6.9,0.0,-1.3,28.7,0.5,0.0,1.102,30.0,NBA,399.0,-5.6,15.9,-0.1,9.0,PF,2014,1.7,BRK,24.2,22.4,0.462,13.6,-0.5,0.4,0.0,0.046
33.0,4.8,0.2,-0.9,0.0,0.9,28.1,0.7,0.0,0.714,24.0,NBA,500.0,-1.9,13.8,0.5,13.8,PF,2014,2.4,SAC,20.1,20.9,0.556,13.2,0.1,1.1,0.0,0.107
34.0,6.1,0.5,-2.7,0.0,0.0,29.0,0.8,0.015,0.708,47.0,NBA,764.0,-2.7,14.9,0.4,11.7,PF,2015,1.4,SAC,20.0,22.2,0.49,13.0,-0.1,1.2,0.0,0.074
