age,ast_per_poss,blk_per_poss,def_rtg,drb_per_poss,fg2_pct,fg2_per_poss,fg2a_per_poss,fg3_pct,fg3_per_poss,fg3a_per_poss,fg_pct,fg_per_poss,fga_per_poss,ft_pct,ft_per_poss,fta_per_poss,g,gs,lg_id,mp,off_rtg,orb_per_poss,pf_per_poss,pos,pts_per_poss,season,stl_per_poss,team_id,tov_per_poss,trb_per_poss
26.0,3.5,0.0,94.0,10.4,0.5,13.9,27.8,0.0,0.0,0.0,0.5,13.9,27.8,0.0,0.0,7.0,4.0,0.0,NBA,16.0,73.0,0.0,0.0,PF,27.8,1997,3.5,MIA,7.0,10.4
27.0,0.0,2.0,104.0,10.0,0.8,8.0,10.0,0.0,0.0,0.0,0.8,8.0,10.0,0.5,2.0,4.0,3.0,0.0,NBA,28.0,158.0,4.0,8.0,PF,18.0,1998,0.0,MIA,0.0,14.0
28.0,0.0,0.0,87.0,14.9,0.5,7.5,14.9,0.0,0.0,0.0,0.5,7.5,14.9,1.0,14.9,14.9,2.0,0.0,NBA,8.0,112.0,7.5,0.0,PF,29.9,1999,7.5,MIA,7.5,22.4
29.0,0.0,0.0,80.0,0.0,0.333,5.7,17.0,0.0,0.0,0.0,0.333,5.7,17.0,0.0,0.0,11.4,1.0,0.0,NBA,10.0,40.0,0.0,0.0,SF,11.4,2000,11.4,MIA,5.7,0.0
