article_url,date,headline
https://thejnotes.com/2019/10/14/utah-jazz-derrick-favors-retired-jersey-numbers/,2019/10/14,Purple and Blues: Utah Jazz: 10 Jazzmen whose numbers should at least be considered for retirement
https://thejnotes.com/2019/10/05/utah-jazz-three-reasons-optimism-meet-team-event/,2019/10/05,Purple and Blues: Utah Jazz: Three reasons for optimism after 'Meet the Team' event
https://hoopshabit.com/2019/08/14/indiana-pacers-3-players-most-pressure-2019-20/,2019/08/14,Hoops Habit: Indiana Pacers: 3 players facing most pressure in 2019-20
https://hoopshabit.com/2019/08/02/indiana-pacers-3-big-questions-heading-2019-20/,2019/08/02,Hoops Habit: Indiana Pacers: 3 big questions heading into 2019-20
https://thejnotes.com/2019/06/24/utah-jazz-rudy-gobert-dpoy-right-world-19/,2019/06/24,Purple and Blues: Utah Jazz: Rudy Gobert is DPOY again and all is right with the world
