age,ast_per_mp,blk_per_mp,drb_per_mp,fg2_pct,fg2_per_mp,fg2a_per_mp,fg3_pct,fg3_per_mp,fg3a_per_mp,fg_pct,fg_per_mp,fga_per_mp,ft_pct,ft_per_mp,fta_per_mp,g,gs,lg_id,mp,orb_per_mp,pf_per_mp,pos,pts_per_mp,season,stl_per_mp,team_id,tov_per_mp,trb_per_mp
22.0,0.5,1.1,6.0,0.579,5.3,9.2,0.0,0.0,0.0,0.579,5.3,9.2,0.544,3.0,5.5,61.0,0.0,NBA,669.0,3.4,5.1,PF,13.7,2007,0.6,NJN,1.8,9.5
23.0,1.1,1.2,6.4,0.548,4.8,8.8,0.0,0.0,0.0,0.548,4.8,8.8,0.456,2.0,4.4,70.0,53.0,NBA,1773.0,3.9,3.1,PF,11.7,2008,0.7,NJN,1.4,10.3
24.0,1.1,1.7,5.6,0.528,4.1,7.7,0.0,0.0,0.0,0.528,4.1,7.7,0.376,1.2,3.1,62.0,7.0,NBA,995.0,3.8,3.8,C,9.3,2009,0.8,NJN,1.1,9.3
25.0,1.0,1.7,6.6,0.525,4.0,7.7,0.0,0.0,0.0,0.525,4.0,7.7,0.328,0.7,2.0,63.0,28.0,NBA,1045.0,4.3,3.8,PF,8.7,2010,1.0,NJN,1.3,10.9
