age,ast_per_poss,blk_per_poss,def_rtg,drb_per_poss,fg2_pct,fg2_per_poss,fg2a_per_poss,fg3_pct,fg3_per_poss,fg3a_per_poss,fg_pct,fg_per_poss,fga_per_poss,ft_pct,ft_per_poss,fta_per_poss,g,gs,lg_id,mp,off_rtg,orb_per_poss,pf_per_poss,pos,pts_per_poss,season,stl_per_poss,team_id,tov_per_poss,trb_per_poss
23.0,5.5,0.2,110.0,5.1,0.475,10.1,21.3,0.367,0.5,1.5,0.468,10.7,22.8,0.81,6.8,8.3,79.0,79.0,NBA,2717.0,108.0,2.6,3.7,SG,28.7,1989,1.4,GSW,4.4,7.7
24.0,3.6,0.4,115.0,4.2,0.508,9.8,19.3,0.358,0.6,1.5,0.497,10.4,20.8,0.866,6.6,7.6,78.0,78.0,NBA,2799.0,111.0,1.6,3.4,SG,27.9,1990,1.6,GSW,3.3,5.8
25.0,3.6,0.5,111.0,4.7,0.506,10.1,20.0,0.348,0.6,1.8,0.494,10.8,21.8,0.847,6.0,7.1,77.0,77.0,NBA,3027.0,111.0,2.3,3.2,SG,28.2,1991,1.9,GSW,3.5,6.9
26.0,6.4,0.5,113.0,4.0,0.486,9.1,18.6,0.384,1.6,4.2,0.468,10.7,22.8,0.813,5.1,6.3,80.0,80.0,NBA,3095.0,107.0,1.0,3.6,SG,28.1,1992,1.4,SAC,3.8,5.0
27.0,6.1,0.2,112.0,3.7,0.495,8.9,18.0,0.369,1.3,3.6,0.474,10.2,21.6,0.845,5.4,6.4,45.0,45.0,NBA,1728.0,109.0,0.5,3.8,SG,27.2,1993,1.5,SAC,3.6,4.2
28.0,5.3,0.3,111.0,3.7,0.455,8.6,19.0,0.407,2.2,5.3,0.445,10.8,24.3,0.834,7.2,8.7,78.0,78.0,NBA,2897.0,109.0,1.2,3.6,SG,31.0,1994,1.8,SAC,3.7,4.9
29.0,5.1,0.5,109.0,4.7,0.477,8.4,17.6,0.368,2.6,6.9,0.446,10.9,24.5,0.843,6.1,7.3,82.0,82.0,NBA,3172.0,110.0,1.1,3.7,SG,30.6,1995,1.5,SAC,3.8,5.9
30.0,4.4,0.3,110.0,3.8,0.453,6.7,14.9,0.437,3.9,9.0,0.447,10.7,23.9,0.866,7.4,8.6,81.0,81.0,NBA,2946.0,115.0,0.9,4.1,SG,32.7,1996,2.2,SAC,3.8,4.7
31.0,5.7,0.4,110.0,4.4,0.466,8.7,18.6,0.428,3.4,8.0,0.454,12.1,26.6,0.861,7.7,9.0,81.0,81.0,NBA,3125.0,115.0,1.0,3.6,SG,35.3,1997,2.0,SAC,4.0,5.4
32.0,5.7,0.3,109.0,3.6,0.466,8.4,18.0,0.389,2.6,6.8,0.445,11.0,24.7,0.864,8.3,9.6,70.0,70.0,NBA,2569.0,112.0,1.0,3.1,SG,32.9,1998,1.8,SAC,3.7,4.6
33.0,3.4,0.3,106.0,4.0,0.448,7.3,16.3,0.317,2.0,6.2,0.412,9.3,22.5,0.857,7.0,8.2,50.0,50.0,NBA,1912.0,102.0,0.8,3.4,SG,27.5,1999,1.8,WAS,3.8,4.8
34.0,4.0,0.3,108.0,3.8,0.438,7.6,17.4,0.386,2.0,5.2,0.426,9.7,22.7,0.876,6.4,7.3,74.0,69.0,NBA,2397.0,107.0,0.8,4.1,SG,27.7,2000,2.4,WAS,3.3,4.6
35.0,4.7,0.3,110.0,4.0,0.431,6.8,15.8,0.338,1.9,5.7,0.407,8.7,21.5,0.894,6.1,6.8,37.0,30.0,NBA,1216.0,103.0,0.6,3.7,SG,25.5,2001,1.8,WAS,3.6,4.6
36.0,4.2,0.4,104.0,5.9,0.443,6.0,13.6,0.29,1.3,4.6,0.405,7.4,18.2,0.955,3.1,3.2,64.0,2.0,NBA,709.0,98.0,1.0,4.5,SG,19.1,2002,1.3,LAL,2.9,6.9
