age,ast,blk,drb,fg,fg2,fg2a,fg3,fg3a,fga,ft,fta,game_score,lg_id,mp,orb,pf,pts,season,stl,team_id,tov,trb
23.0,8.0,1.0,11.0,13.0,12.0,19.0,1.0,5.0,21.0,8.0,9.0,30.7,NBA,0.0,3.0,5.0,30.0,1989,4.0,GSW,6.0,13.0
25.0,4.0,2.0,10.0,13.0,13.0,25.0,3.0,4.0,29.0,7.0,8.0,23.3,NBA,0.0,3.0,6.0,29.0,1991,1.0,GSW,5.0,11.0
30.0,4.0,0.0,6.0,13.0,10.0,12.0,4.0,10.0,22.0,9.0,12.0,24.6,NBA,0.0,2.0,5.0,37.0,1996,2.0,SAC,7.0,8.0
36.0,0.0,0.0,1.0,1.0,1.0,1.0,0.0,0.0,1.0,1.0,2.0,1.7,NBA,0.0,0.0,0.0,2.0,2002,0.0,LAL,1.0,1.0
