age,ast,blk,drb,efg_pct,fg,fg2,fg2_pct,fg2a,fg3,fg3_pct,fg3a,fg_pct,fga,ft,ft_pct,fta,g,gs,lg_id,mp,orb,pf,pos,pts,season,stl,team_id,tov,trb
19.0,58.0,8.0,192.0,0.545,264.0,258.0,0.548,471.0,6.0,0.316,19.0,0.539,490.0,76.0,0.738,103.0,74.0,22.0,NBA,1554.0,120.0,126.0,PF,610.0,2008,73.0,PHI,64.0,312.0
20.0,86.0,23.0,238.0,0.524,475.0,419.0,0.526,796.0,56.0,0.341,164.0,0.495,960.0,139.0,0.735,189.0,75.0,71.0,NBA,2580.0,139.0,165.0,PF,1145.0,2009,100.0,PHI,118.0,377.0
21.0,97.0,15.0,220.0,0.499,382.0,334.0,0.495,675.0,48.0,0.348,138.0,0.47,813.0,114.0,0.691,165.0,67.0,45.0,NBA,2145.0,130.0,133.0,PF,926.0,2010,81.0,PHI,126.0,350.0
22.0,82.0,26.0,281.0,0.544,458.0,452.0,0.548,825.0,6.0,0.273,22.0,0.541,847.0,123.0,0.707,174.0,82.0,1.0,NBA,2135.0,153.0,170.0,PF,1045.0,2011,90.0,PHI,99.0,434.0
23.0,74.0,41.0,188.0,0.507,348.0,347.0,0.508,683.0,1.0,0.25,4.0,0.507,687.0,111.0,0.771,144.0,63.0,1.0,NBA,1755.0,137.0,127.0,PF,808.0,2012,64.0,PHI,55.0,325.0
24.0,125.0,55.0,389.0,0.532,509.0,508.0,0.535,950.0,1.0,0.125,8.0,0.531,958.0,108.0,0.574,188.0,76.0,76.0,NBA,2629.0,182.0,191.0,PF,1127.0,2013,133.0,PHI,90.0,571.0
25.0,182.0,36.0,310.0,0.489,582.0,492.0,0.496,991.0,90.0,0.308,292.0,0.454,1283.0,163.0,0.712,229.0,79.0,78.0,NBA,2718.0,166.0,213.0,PF,1417.0,2014,167.0,PHI,165.0,476.0
26.0,173.0,25.0,284.0,0.486,451.0,413.0,0.484,853.0,38.0,0.33,115.0,0.466,968.0,131.0,0.655,200.0,76.0,68.0,NBA,2434.0,127.0,171.0,PF,1071.0,2015,124.0,TOT,117.0,411.0
26.0,135.0,17.0,170.0,0.466,289.0,270.0,0.469,576.0,19.0,0.292,65.0,0.451,641.0,88.0,0.682,129.0,48.0,48.0,NBA,1605.0,75.0,115.0,PF,685.0,2015,86.0,MIN,75.0,245.0
26.0,38.0,8.0,114.0,0.524,162.0,143.0,0.516,277.0,19.0,0.38,50.0,0.495,327.0,43.0,0.606,71.0,28.0,20.0,NBA,829.0,52.0,56.0,PF,386.0,2015,38.0,BRK,42.0,166.0
27.0,135.0,37.0,484.0,0.518,495.0,488.0,0.523,933.0,7.0,0.233,30.0,0.514,963.0,105.0,0.644,163.0,73.0,73.0,NBA,2407.0,176.0,182.0,PF,1102.0,2016,112.0,BRK,136.0,660.0
28.0,122.0,29.0,317.0,0.56,362.0,317.0,0.557,569.0,45.0,0.381,118.0,0.527,687.0,45.0,0.523,86.0,74.0,74.0,NBA,2237.0,131.0,135.0,PF,814.0,2017,113.0,IND,95.0,448.0
29.0,152.0,36.0,328.0,0.521,421.0,363.0,0.531,683.0,58.0,0.32,181.0,0.487,864.0,55.0,0.598,92.0,81.0,81.0,NBA,2607.0,184.0,175.0,PF,955.0,2018,135.0,IND,105.0,512.0
30.0,204.0,36.0,331.0,0.557,443.0,392.0,0.564,695.0,51.0,0.349,146.0,0.527,841.0,87.0,0.644,135.0,81.0,81.0,NBA,2489.0,192.0,194.0,PF,1024.0,2019,123.0,IND,123.0,523.0
31.0,18.0,3.0,32.0,0.528,49.0,34.0,0.548,62.0,15.0,0.333,45.0,0.458,107.0,8.0,0.5,16.0,12.0,0.0,NBA,276.0,19.0,21.0,PF,121.0,2020,13.0,CHI,18.0,51.0
