age,ast,blk,drb,fg,fg2,fg2a,fg3,fg3a,fga,ft,fta,game_score,lg_id,mp,orb,pf,pts,season,stl,team_id,tov,trb
23.0,6.0,0.0,0.0,8.0,8.0,14.0,1.0,2.0,14.0,12.0,12.0,0.0,NBA,0.0,0.0,6.0,21.0,1984,0.0,IND,0.0,8.0
24.0,8.0,1.0,8.0,10.0,10.0,19.0,1.0,3.0,20.0,10.0,11.0,24.6,NBA,0.0,5.0,6.0,26.0,1985,5.0,IND,7.0,9.0
25.0,5.0,1.0,4.0,2.0,2.0,4.0,0.0,0.0,4.0,1.0,2.0,3.8,NBA,0.0,1.0,5.0,5.0,1986,3.0,LAC,3.0,5.0
30.0,1.0,0.0,0.0,1.0,1.0,4.0,0.0,0.0,4.0,0.0,0.0,0.3,NBA,0.0,0.0,0.0,2.0,1991,1.0,MIN,1.0,0.0
