age,ast,blk,drb,fg,fg2,fg2a,fg3,fg3a,fga,ft,fta,game_score,lg_id,mp,orb,pf,pts,season,stl,team_id,tov,trb
21.0,1.0,1.0,5.0,1.0,1.0,2.0,0.0,0.0,2.0,1.0,4.0,4.3,NBA,21,1.0,3.0,2.0,2007,2.0,NYK,1.0,6.0
22.0,1.0,1.0,5.0,4.0,4.0,8.0,0.0,0.0,8.0,4.0,6.0,7.3,NBA,27,3.0,6.0,8.0,2008,1.0,NYK,2.0,8.0
23.0,1.0,1.0,6.0,3.0,3.0,4.0,0.0,0.0,4.0,2.0,2.0,3.9,NBA,14,2.0,4.0,6.0,2009,1.0,ATL,1.0,6.0
24.0,1.0,1.0,4.0,3.0,3.0,6.0,0.0,0.0,6.0,3.0,5.0,5.5,NBA,15,2.0,6.0,7.0,2010,2.0,ATL,4.0,6.0
