age,ast,blk,drb,fg,fg2,fg2a,fg3,fg3a,fga,ft,fta,game_score,lg_id,mp,orb,pf,pts,season,stl,team_id,tov,trb
23.0,5.0,1.0,6.0,7.0,7.0,12.0,0.0,1.0,13.0,8.0,9.0,14.7,NBA,0.0,5.0,4.0,18.0,1989,3.0,MIL,4.0,11.0
24.0,5.0,1.0,6.0,8.0,8.0,17.0,1.0,2.0,17.0,5.0,8.0,19.4,NBA,0.0,8.0,5.0,18.0,1990,3.0,MIL,5.0,11.0
25.0,6.0,3.0,6.0,10.0,10.0,21.0,0.0,1.0,21.0,5.0,8.0,21.4,NBA,0.0,8.0,4.0,23.0,1991,3.0,MIL,4.0,13.0
26.0,6.0,2.0,4.0,12.0,12.0,17.0,3.0,6.0,18.0,5.0,7.0,22.5,NBA,0.0,7.0,5.0,27.0,1992,4.0,MIL,5.0,9.0
27.0,6.0,2.0,6.0,9.0,9.0,16.0,1.0,2.0,17.0,9.0,10.0,20.6,NBA,0.0,6.0,6.0,24.0,1993,5.0,GSW,4.0,8.0
28.0,3.0,3.0,6.0,9.0,9.0,14.0,1.0,2.0,14.0,5.0,8.0,18.6,NBA,0.0,6.0,5.0,20.0,1994,4.0,GSW,5.0,10.0
29.0,6.0,2.0,6.0,10.0,10.0,22.0,1.0,3.0,23.0,5.0,8.0,17.1,NBA,0.0,5.0,6.0,22.0,1995,4.0,PHI,4.0,8.0
31.0,4.0,1.0,3.0,6.0,5.0,7.0,3.0,3.0,9.0,3.0,4.0,14.4,NBA,0.0,3.0,4.0,16.0,1997,2.0,SAC,3.0,5.0
32.0,1.0,0.0,2.0,3.0,1.0,2.0,2.0,3.0,5.0,0.0,0.0,5.4,NBA,0.0,0.0,4.0,8.0,1998,1.0,TOT,2.0,2.0
32.0,1.0,0.0,0.0,0.0,0.0,1.0,0.0,3.0,4.0,0.0,0.0,-4.1,NBA,0.0,0.0,0.0,0.0,1998,0.0,CHH,2.0,0.0
32.0,1.0,0.0,2.0,3.0,1.0,2.0,2.0,3.0,5.0,0.0,0.0,5.4,NBA,0.0,0.0,4.0,8.0,1998,1.0,GSW,1.0,2.0
