age,ast,blk,drb,efg_pct,fg,fg2,fg2_pct,fg2a,fg3,fg3_pct,fg3a,fg_pct,fga,ft,ft_pct,fta,g,gs,lg_id,mp,orb,pf,pos,pts,season,stl,team_id,tov,trb
23.0,5.0,3.0,6.0,0.333,8.0,8.0,0.333,24.0,0.0,0.0,0.0,0.333,24.0,2.0,1.0,2.0,4.0,2.0,NBA,80.0,3.0,11.0,SF,18.0,1988,2.0,NYK,1.0,9.0
24.0,2.0,3.0,11.0,0.231,3.0,3.0,0.231,13.0,0.0,0.0,0.0,0.231,13.0,14.0,0.737,19.0,9.0,0.0,NBA,90.0,5.0,22.0,SF,20.0,1989,1.0,NYK,4.0,16.0
25.0,6.0,4.0,18.0,0.552,16.0,16.0,0.571,28.0,0.0,0.0,1.0,0.552,29.0,9.0,0.643,14.0,10.0,2.0,NBA,154.0,7.0,22.0,PF,41.0,1990,0.0,NYK,1.0,25.0
26.0,2.0,1.0,5.0,0.5,4.0,4.0,0.5,8.0,0.0,0.0,0.0,0.5,8.0,2.0,1.0,2.0,3.0,0.0,NBA,31.0,2.0,8.0,SF,10.0,1991,1.0,NYK,3.0,7.0
