age,ast,ast_per_g,blk,college_id,fg,fg3,fg3_pct,fg3a,fg_pct,fga,ft,ft_pct,fta,g,mp,mp_per_g,orb,pf,pts,pts_per_g,season,stl,tov,trb,trb_per_g
18.0,166.0,5.2,3.0,NEVADA,106.0,6.0,0.222,27.0,0.412,257.0,70.0,0.693,101.0,32.0,994.0,31.1,0.0,0.0,288.0,9.0,2005,47.0,0.0,120.0,3.8
19.0,153.0,4.9,4.0,NEVADA,60.0,0.0,0.0,3.0,0.359,167.0,25.0,0.568,44.0,31.0,813.0,26.2,0.0,0.0,145.0,4.7,2006,37.0,0.0,129.0,4.2
20.0,159.0,4.7,7.0,NEVADA,140.0,19.0,0.38,50.0,0.452,310.0,118.0,0.825,143.0,34.0,1028.0,30.2,0.0,0.0,417.0,12.3,2007,29.0,0.0,161.0,4.7
