age,and1s,astd_pts,drawn_offensive,drawn_shooting,fouls_offensive,fouls_shooting,g,lg_id,mp,own_shots_blk,pct_1,pct_2,pct_3,pct_4,pct_5,plus_minus_net,plus_minus_on,pos,season,team_id,tov_bad_pass,tov_lost_ball
21.0,5.0,281.0,5.0,19.0,3.0,9.0,17.0,NBA,450.0,4.0,97.0,3.0,0.0,0.0,0.0,0.9,-6.8,PG,2008,MIL,21.0,10.0
22.0,26.0,1007.0,14.0,144.0,8.0,56.0,79.0,NBA,2173.0,64.0,67.0,33.0,0.0,0.0,0.0,0.7,-1.0,PG,2009,MIL,91.0,46.0
23.0,25.0,582.0,18.0,103.0,14.0,44.0,82.0,NBA,1732.0,40.0,93.0,7.0,0.0,0.0,0.0,6.3,-6.5,PG,2010,MIN,79.0,37.0
24.0,31.0,945.0,11.0,167.0,14.0,29.0,81.0,NBA,2133.0,62.0,94.0,6.0,0.0,0.0,0.0,-4.0,-11.3,PG,2011,CLE,99.0,57.0
25.0,22.0,802.0,12.0,102.0,12.0,29.0,64.0,NBA,1707.0,40.0,93.0,7.0,0.0,0.0,0.0,3.3,-0.6,PG,2012,TOT,90.0,31.0
25.0,16.0,488.0,8.0,64.0,8.0,14.0,41.0,NBA,1006.0,24.0,100.0,0.0,0.0,0.0,0.0,7.8,-2.1,PG,2012,CLE,52.0,16.0
25.0,6.0,314.0,4.0,38.0,4.0,15.0,23.0,NBA,701.0,16.0,83.0,17.0,0.0,0.0,0.0,0.0,1.5,PG,2012,LAL,38.0,15.0
26.0,22.0,532.0,8.0,141.0,10.0,24.0,61.0,NBA,1652.0,66.0,46.0,54.0,0.0,0.0,0.0,-3.3,-12.0,SG,2013,CHA,47.0,37.0
27.0,24.0,766.0,13.0,149.0,10.0,28.0,83.0,NBA,2214.0,61.0,52.0,48.0,0.0,0.0,0.0,1.0,-3.8,PG,2014,TOT,86.0,40.0
27.0,15.0,469.0,9.0,92.0,6.0,17.0,55.0,NBA,1305.0,43.0,59.0,41.0,0.0,0.0,0.0,-2.0,-1.5,PG,2014,CHA,54.0,24.0
27.0,9.0,297.0,4.0,57.0,4.0,11.0,28.0,NBA,909.0,18.0,42.0,58.0,0.0,0.0,0.0,2.3,-7.2,PG,2014,MIL,32.0,16.0
28.0,17.0,408.0,11.0,77.0,8.0,32.0,64.0,NBA,1188.0,22.0,93.0,7.0,0.0,0.0,0.0,-5.7,-6.3,PG,2015,TOT,50.0,22.0
28.0,6.0,214.0,4.0,37.0,4.0,21.0,36.0,NBA,642.0,14.0,87.0,13.0,0.0,0.0,0.0,-10.7,-12.8,PG,2015,SAC,29.0,15.0
28.0,11.0,194.0,7.0,40.0,4.0,11.0,28.0,NBA,546.0,8.0,100.0,0.0,0.0,0.0,0.0,0.4,1.3,PG,2015,WAS,21.0,7.0
29.0,33.0,540.0,10.0,136.0,10.0,22.0,82.0,NBA,1667.0,40.0,100.0,0.0,0.0,0.0,0.0,-1.5,-1.3,PG,2016,WAS,53.0,44.0
30.0,9.0,291.0,7.0,57.0,1.0,9.0,50.0,NBA,811.0,25.0,84.0,16.0,0.0,0.0,0.0,-6.6,-4.9,PG,2017,CHO,28.0,13.0
31.0,5.0,181.0,5.0,27.0,1.0,12.0,28.0,NBA,392.0,7.0,88.0,12.0,0.0,0.0,0.0,-9.4,-10.5,PG,2018,TOT,21.0,6.0
31.0,1.0,59.0,3.0,7.0,1.0,6.0,13.0,NBA,167.0,1.0,100.0,0.0,0.0,0.0,0.0,-3.5,-7.3,PG,2018,NYK,13.0,1.0
31.0,4.0,122.0,2.0,20.0,0.0,6.0,15.0,NBA,225.0,6.0,79.0,21.0,0.0,0.0,0.0,-14.5,-12.9,PG,2018,WAS,8.0,5.0
