age,ast_per_g,blk_per_g,drb_per_g,efg_pct,fg2_pct,fg2_per_g,fg2a_per_g,fg3_pct,fg3_per_g,fg3a_per_g,fg_pct,fg_per_g,fga_per_g,ft_pct,ft_per_g,fta_per_g,g,gs,lg_id,mp_per_g,orb_per_g,pf_per_g,pos,pts_per_g,season,stl_per_g,team_id,tov_per_g,trb_per_g
22.0,1.3,0.3,2.1,0.473,0.437,1.6,3.7,0.375,0.6,1.5,0.419,2.2,5.2,0.681,1.0,1.5,32.0,2.0,NBA,18.8,0.4,1.3,SG,5.9,2015,1.0,MIA,0.9,2.5
23.0,2.2,0.4,2.3,0.541,0.529,2.5,4.8,0.38,0.8,2.0,0.486,3.3,6.8,0.797,1.4,1.8,36.0,5.0,NBA,24.0,0.8,1.8,SG,8.7,2016,0.7,MIA,1.3,3.0
24.0,3.2,0.6,3.3,0.49,0.46,3.6,7.9,0.372,1.3,3.4,0.433,4.9,11.3,0.768,2.7,3.5,73.0,0.0,NBA,29.8,0.7,2.4,PG,13.7,2017,1.2,MIA,1.2,4.0
25.0,2.3,0.5,3.0,0.518,0.491,2.6,5.4,0.367,1.7,4.5,0.435,4.3,9.9,0.822,1.5,1.8,72.0,39.0,NBA,28.5,0.5,2.1,PG,11.7,2018,0.8,MIA,1.1,3.4
26.0,2.9,0.5,2.4,0.498,0.477,2.2,4.7,0.346,1.6,4.6,0.413,3.8,9.2,0.748,1.7,2.2,57.0,22.0,NBA,26.8,0.6,1.7,PG,10.9,2019,0.9,TOT,1.4,3.0
26.0,2.5,0.5,2.3,0.516,0.503,2.3,4.5,0.353,1.6,4.6,0.426,3.9,9.1,0.693,1.4,2.0,44.0,10.0,NBA,25.5,0.4,1.6,PG,10.8,2019,0.9,MIA,1.4,2.8
26.0,4.2,0.5,2.8,0.44,0.406,2.2,5.3,0.321,1.4,4.3,0.368,3.5,9.6,0.872,2.6,3.0,13.0,12.0,NBA,31.2,1.2,1.9,PG,11.1,2019,1.1,PHO,1.1,4.0
27.0,2.0,0.2,1.2,0.514,0.457,1.5,3.2,0.382,1.2,3.1,0.42,2.6,6.3,0.8,0.7,0.9,11.0,0.0,NBA,18.8,0.1,1.5,PG,7.2,2020,0.2,PHO,1.0,1.3
