age,ast_per_g,blk_per_g,drb_per_g,efg_pct,fg2_pct,fg2_per_g,fg2a_per_g,fg3_pct,fg3_per_g,fg3a_per_g,fg_pct,fg_per_g,fga_per_g,ft_pct,ft_per_g,fta_per_g,g,gs,lg_id,mp_per_g,orb_per_g,pf_per_g,pos,pts_per_g,season,stl_per_g,team_id,tov_per_g,trb_per_g
23.0,3.4,0.2,2.0,0.422,0.442,3.4,7.6,0.202,0.3,1.3,0.408,3.6,8.9,0.873,4.2,4.8,66.0,13.0,NBA,27.9,0.8,2.1,SF,11.7,1998,1.3,CLE,1.9,2.8
24.0,3.8,0.1,2.3,0.432,0.424,2.7,6.4,0.304,0.6,1.8,0.398,3.3,8.3,0.836,3.6,4.3,38.0,13.0,NBA,25.7,0.5,1.9,SG,10.8,1999,1.3,CLE,2.2,2.9
25.0,3.4,0.2,2.8,0.47,0.472,5.0,10.7,0.309,0.9,2.8,0.438,5.9,13.4,0.877,4.2,4.8,64.0,58.0,NBA,34.4,1.3,2.3,SG,16.9,2000,1.4,LAC,2.6,4.0
26.0,3.7,0.2,3.5,0.467,0.422,3.8,9.0,0.399,1.2,3.1,0.416,5.0,12.1,0.851,4.2,4.9,82.0,82.0,NBA,34.9,0.9,2.3,SG,15.5,2001,1.5,SAS,2.0,4.4
27.0,3.1,0.1,2.0,0.473,0.422,2.3,5.5,0.373,1.2,3.3,0.404,3.5,8.7,0.856,2.5,3.0,70.0,27.0,NBA,26.6,0.7,1.6,SG,10.8,2002,1.0,POR,1.2,2.7
28.0,4.3,0.2,2.8,0.496,0.477,3.1,6.6,0.35,1.5,4.4,0.427,4.7,10.9,0.859,3.0,3.5,76.0,76.0,NBA,33.6,0.7,1.9,PG,13.9,2003,1.2,POR,1.7,3.5
29.0,4.5,0.1,3.1,0.44,0.428,3.0,6.9,0.305,1.5,5.1,0.376,4.5,12.0,0.824,3.0,3.7,51.0,46.0,NBA,35.5,0.5,1.5,SG,13.6,2004,1.3,POR,1.8,3.6
30.0,3.0,0.1,2.2,0.463,0.392,2.0,5.1,0.384,1.2,3.2,0.389,3.2,8.3,0.805,1.5,1.9,47.0,32.0,NBA,26.4,0.5,1.9,SG,9.2,2005,0.8,POR,1.5,2.7
31.0,2.3,0.1,2.8,0.422,0.402,1.6,3.9,0.299,0.9,3.1,0.356,2.5,7.0,0.838,2.2,2.6,43.0,11.0,NBA,24.3,0.5,2.3,SG,8.1,2006,0.5,TOT,1.3,3.3
31.0,2.7,0.2,3.6,0.448,0.462,2.5,5.3,0.284,1.0,3.4,0.393,3.4,8.7,0.836,3.1,3.7,20.0,8.0,NBA,29.1,0.6,2.5,SG,10.8,2006,0.8,HOU,1.9,4.2
31.0,2.1,0.1,2.2,0.388,0.302,0.8,2.7,0.313,0.9,2.9,0.308,1.7,5.7,0.842,1.4,1.7,23.0,3.0,NBA,20.2,0.4,2.1,SG,5.8,2006,0.3,MIA,0.7,2.6
32.0,2.7,0.1,1.7,0.52,0.507,1.4,2.8,0.355,1.1,3.0,0.429,2.5,5.9,0.877,1.9,2.1,50.0,32.0,NBA,23.8,0.6,2.3,SF,8.0,2007,1.0,CHA,1.1,2.3
33.0,1.6,0.0,1.5,0.452,0.384,1.0,2.6,0.365,0.7,1.9,0.376,1.7,4.5,0.737,1.0,1.4,28.0,0.0,NBA,14.1,0.3,1.8,SG,5.0,2008,0.4,CHA,0.9,1.9
