age,ast_per_mp,blk_per_mp,drb_per_mp,fg2_pct,fg2_per_mp,fg2a_per_mp,fg3_pct,fg3_per_mp,fg3a_per_mp,fg_pct,fg_per_mp,fga_per_mp,ft_pct,ft_per_mp,fta_per_mp,g,gs,lg_id,mp,orb_per_mp,pf_per_mp,pos,pts_per_mp,season,stl_per_mp,team_id,tov_per_mp,trb_per_mp
19.0,3.9,0.3,2.1,0.408,1.2,3.0,0.314,1.6,5.2,0.349,2.9,8.2,0.625,0.4,0.6,82.0,41.0,NBA,1817.0,0.5,2.9,PG,7.8,2015,0.8,UTA,2.3,2.6
21.0,3.3,0.4,3.0,0.519,3.3,6.3,0.295,1.3,4.4,0.427,4.5,10.6,0.795,1.7,2.1,66.0,26.0,NBA,1228.0,0.9,4.3,PG,12.1,2017,0.6,UTA,2.3,3.9
22.0,6.6,0.5,3.4,0.536,5.7,10.6,0.278,0.8,2.8,0.483,6.4,13.3,0.806,3.8,4.7,14.0,0.0,NBA,235.0,0.6,3.1,PG,17.5,2018,1.2,UTA,3.1,4.0
23.0,6.0,0.3,2.8,0.464,4.5,9.7,0.29,1.0,3.4,0.419,5.5,13.1,0.791,3.7,4.7,42.0,1.0,NBA,664.0,0.9,3.7,PG,15.6,2019,0.8,UTA,2.8,3.7
