age,ast_per_mp,blk_per_mp,drb_per_mp,fg2_pct,fg2_per_mp,fg2a_per_mp,fg3_pct,fg3_per_mp,fg3a_per_mp,fg_pct,fg_per_mp,fga_per_mp,ft_pct,ft_per_mp,fta_per_mp,g,gs,lg_id,mp,orb_per_mp,pf_per_mp,pos,pts_per_mp,season,stl_per_mp,team_id,tov_per_mp,trb_per_mp
19.0,2.3,2.1,5.1,0.499,5.5,11.1,0.286,0.1,0.4,0.491,5.7,11.5,0.705,1.6,2.3,80.0,43.0,NBA,2293.0,2.7,3.0,SF,13.1,1996,1.4,MIN,1.7,7.9
20.0,2.8,2.0,5.1,0.503,6.5,13.0,0.286,0.1,0.3,0.499,6.6,13.2,0.754,2.5,3.3,77.0,77.0,NBA,2995.0,2.3,2.4,SF,15.7,1997,1.3,MIN,2.1,7.4
21.0,3.9,1.7,6.3,0.495,7.1,14.3,0.188,0.0,0.2,0.491,7.1,14.4,0.738,2.7,3.7,82.0,82.0,NBA,3222.0,2.5,2.5,PF,17.0,1998,1.6,MIN,2.1,8.8
22.0,4.1,1.7,6.5,0.463,8.3,17.9,0.286,0.1,0.3,0.46,8.4,18.2,0.704,2.9,4.2,47.0,47.0,NBA,1780.0,3.4,3.1,PF,19.8,1999,1.6,MIN,2.7,9.9
23.0,4.5,1.4,8.1,0.504,8.1,16.0,0.37,0.3,0.9,0.497,8.4,16.9,0.765,3.4,4.5,81.0,81.0,NBA,3243.0,2.5,2.3,PF,20.6,2000,1.3,MIN,3.0,10.6
24.0,4.5,1.6,7.9,0.486,7.7,15.8,0.288,0.2,0.7,0.477,7.9,16.6,0.764,4.0,5.3,81.0,81.0,NBA,3202.0,2.5,2.3,PF,20.1,2001,1.2,MIN,2.6,10.4
25.0,4.8,1.4,8.4,0.484,7.1,14.6,0.319,0.4,1.3,0.47,7.5,15.9,0.801,4.1,5.1,81.0,81.0,NBA,3175.0,2.8,2.1,PF,19.4,2002,1.1,MIN,2.6,11.1
26.0,5.4,1.4,9.3,0.513,7.8,15.3,0.282,0.2,0.8,0.502,8.1,16.1,0.751,4.1,5.4,82.0,82.0,NBA,3321.0,2.6,2.2,PF,20.4,2003,1.2,MIN,2.5,11.9
27.0,4.6,2.0,10.0,0.506,8.8,17.5,0.256,0.1,0.5,0.499,9.0,17.9,0.791,4.1,5.2,82.0,82.0,NBA,3231.0,2.7,2.3,PF,22.1,2004,1.3,MIN,2.4,12.7
28.0,5.4,1.3,9.9,0.507,7.8,15.4,0.24,0.1,0.3,0.502,7.9,15.7,0.811,5.1,6.3,82.0,82.0,NBA,3121.0,2.8,2.4,PF,21.0,2005,1.4,MIN,2.6,12.8
29.0,3.7,1.3,9.2,0.532,7.5,14.1,0.267,0.1,0.4,0.526,7.6,14.5,0.81,4.8,6.0,76.0,76.0,NBA,2957.0,2.6,2.5,PF,20.2,2006,1.3,MIN,2.2,11.8
30.0,3.8,1.5,9.5,0.487,7.5,15.4,0.214,0.1,0.7,0.476,7.7,16.1,0.835,5.0,6.0,76.0,76.0,NBA,2995.0,2.2,2.2,PF,20.5,2007,1.1,MIN,2.5,11.7
31.0,3.8,1.4,8.0,0.545,8.3,15.1,0.0,0.0,0.2,0.539,8.3,15.3,0.801,4.2,5.2,71.0,71.0,NBA,2328.0,2.1,2.5,PF,20.7,2008,1.5,BOS,2.1,10.1
32.0,2.9,1.4,8.3,0.534,7.9,14.9,0.25,0.0,0.2,0.531,8.0,15.0,0.841,2.3,2.7,57.0,57.0,NBA,1772.0,1.6,2.6,PF,18.3,2009,1.3,BOS,1.8,9.9
33.0,3.2,1.0,7.5,0.523,7.0,13.4,0.2,0.0,0.1,0.521,7.0,13.5,0.837,3.2,3.9,69.0,69.0,NBA,2060.0,1.4,3.0,PF,17.3,2010,1.2,BOS,1.8,8.8
34.0,2.8,0.9,8.9,0.53,7.0,13.2,0.2,0.0,0.1,0.528,7.0,13.3,0.862,3.0,3.5,71.0,71.0,NBA,2220.0,1.3,2.4,PF,17.1,2011,1.5,BOS,1.9,10.2
35.0,3.4,1.2,8.3,0.505,7.5,14.8,0.333,0.1,0.2,0.503,7.6,15.0,0.857,3.1,3.7,60.0,60.0,NBA,1864.0,1.3,2.7,C,18.3,2012,1.1,BOS,2.1,9.5
36.0,2.8,1.1,8.1,0.504,7.5,14.8,0.125,0.0,0.3,0.496,7.5,15.1,0.786,2.8,3.6,68.0,68.0,NBA,2022.0,1.3,2.7,C,17.9,2013,1.4,BOS,2.0,9.4
37.0,2.7,1.3,9.7,0.445,5.1,11.5,0.0,0.0,0.1,0.441,5.1,11.6,0.809,1.2,1.5,54.0,54.0,NBA,1109.0,1.9,4.0,C,11.4,2014,1.4,BRK,2.2,11.6
38.0,2.9,0.6,9.9,0.475,5.4,11.3,0.143,0.0,0.3,0.467,5.4,11.6,0.8,1.4,1.7,47.0,47.0,NBA,952.0,1.8,4.1,PF,12.2,2015,1.7,TOT,1.7,11.8
38.0,2.9,0.5,10.1,0.461,5.2,11.3,0.167,0.0,0.3,0.455,5.3,11.6,0.829,1.4,1.7,42.0,42.0,NBA,854.0,1.9,4.0,PF,12.0,2015,1.7,BRK,1.9,12.0
38.0,2.9,1.5,8.8,0.6,6.6,11.0,0.0,0.0,0.4,0.581,6.6,11.4,0.5,0.7,1.5,5.0,5.0,NBA,98.0,0.7,4.8,PF,14.0,2015,1.8,MIN,0.4,9.6
39.0,4.0,0.6,8.7,0.474,3.5,7.4,0.0,0.0,0.1,0.47,3.5,7.4,0.667,0.9,1.4,38.0,38.0,NBA,556.0,1.0,4.5,PF,7.9,2016,1.8,MIN,1.0,9.7
