age,ast,blk,drb,efg_pct,fg,fg2,fg2_pct,fg2a,fg3,fg3_pct,fg3a,fg_pct,fga,ft,ft_pct,fta,g,gs,lg_id,mp,orb,pf,pos,pts,season,stl,team_id,tov,trb
27.0,13.0,1.0,15.0,0.509,28.0,27.0,0.491,55.0,1.0,1.0,1.0,0.5,56.0,27.0,0.844,32.0,9.0,7.0,NBA,197.0,17.0,32.0,SF,84.0,1991,5.0,GSW,10.0,32.0
28.0,10.0,0.0,11.0,0.667,23.0,21.0,0.618,34.0,2.0,1.0,2.0,0.639,36.0,2.0,0.667,3.0,4.0,2.0,NBA,80.0,11.0,11.0,SG,50.0,1992,5.0,GSW,6.0,22.0
29.0,4.0,1.0,4.0,0.6,5.0,3.0,0.375,8.0,2.0,1.0,2.0,0.5,10.0,8.0,0.889,9.0,4.0,0.0,NBA,52.0,2.0,1.0,SF,20.0,1993,2.0,POR,5.0,6.0
30.0,38.0,3.0,31.0,0.443,42.0,32.0,0.432,74.0,10.0,0.313,32.0,0.396,106.0,40.0,0.851,47.0,23.0,0.0,NBA,382.0,9.0,30.0,SF,134.0,1994,8.0,HOU,21.0,40.0
31.0,54.0,1.0,43.0,0.606,69.0,41.0,0.569,72.0,28.0,0.431,65.0,0.504,137.0,35.0,0.795,44.0,22.0,6.0,NBA,635.0,19.0,55.0,SF,201.0,1995,21.0,HOU,21.0,62.0
32.0,14.0,3.0,16.0,0.508,29.0,20.0,0.476,42.0,9.0,0.375,24.0,0.439,66.0,11.0,0.917,12.0,8.0,0.0,NBA,233.0,6.0,17.0,SF,78.0,1996,7.0,HOU,5.0,22.0
33.0,61.0,4.0,37.0,0.569,54.0,30.0,0.536,56.0,24.0,0.4,60.0,0.466,116.0,52.0,0.839,62.0,16.0,16.0,NBA,598.0,19.0,52.0,SF,184.0,1997,14.0,HOU,30.0,56.0
34.0,6.0,0.0,10.0,0.5,12.0,9.0,0.5,18.0,3.0,0.333,9.0,0.444,27.0,6.0,0.667,9.0,5.0,1.0,NBA,133.0,3.0,10.0,SF,33.0,1998,2.0,HOU,5.0,13.0
35.0,50.0,2.0,50.0,0.42,43.0,35.0,0.427,82.0,8.0,0.267,30.0,0.384,112.0,41.0,0.837,49.0,17.0,17.0,NBA,526.0,9.0,42.0,SG,135.0,1999,22.0,SAS,25.0,59.0
36.0,7.0,0.0,12.0,0.295,6.0,5.0,0.333,15.0,1.0,0.143,7.0,0.273,22.0,17.0,0.944,18.0,4.0,4.0,NBA,115.0,5.0,4.0,SF,30.0,2000,5.0,SAS,12.0,17.0
37.0,7.0,1.0,11.0,0.484,14.0,12.0,0.667,18.0,2.0,0.154,13.0,0.452,31.0,6.0,0.75,8.0,4.0,4.0,NBA,103.0,2.0,6.0,SG,36.0,2001,3.0,PHO,2.0,13.0
