age,ast_per_poss,blk_per_poss,def_rtg,drb_per_poss,fg2_pct,fg2_per_poss,fg2a_per_poss,fg3_pct,fg3_per_poss,fg3a_per_poss,fg_pct,fg_per_poss,fga_per_poss,ft_pct,ft_per_poss,fta_per_poss,g,gs,lg_id,mp,off_rtg,orb_per_poss,pf_per_poss,pos,pts_per_poss,season,stl_per_poss,team_id,tov_per_poss,trb_per_poss
27.0,3.2,0.7,112.0,4.6,0.503,5.4,10.7,0.4,0.3,0.7,0.497,5.7,11.5,0.843,5.4,6.4,33.0,0.0,NBA,644.0,122.0,3.3,6.1,SF-SG,17.1,1991,1.4,TOT,2.2,7.9
27.0,2.5,0.0,115.0,2.5,0.2,2.5,12.5,0.5,2.5,5.0,0.286,5.0,17.6,0.5,2.5,5.0,3.0,0.0,NBA,20.0,61.0,0.0,5.0,SG,15.0,1991,0.0,PHI,7.5,2.5
27.0,3.3,0.7,112.0,4.7,0.514,5.5,10.7,0.375,0.2,0.6,0.507,5.7,11.3,0.851,5.5,6.5,30.0,0.0,NBA,624.0,125.0,3.4,6.2,SF,17.2,1991,1.4,GSW,2.0,8.1
28.0,4.8,0.4,111.0,4.4,0.559,5.5,9.8,0.329,0.6,1.9,0.521,6.1,11.7,0.852,4.3,5.0,79.0,32.0,NBA,1677.0,123.0,1.9,4.4,SG,17.2,1992,1.9,GSW,2.3,6.3
29.0,4.9,0.6,107.0,4.3,0.494,5.4,10.9,0.349,1.2,3.6,0.458,6.6,14.5,0.855,5.0,5.9,82.0,7.0,NBA,1757.0,117.0,1.6,4.0,SF,19.5,1993,2.0,POR,2.5,6.0
30.0,6.5,0.3,104.0,4.8,0.508,4.8,9.4,0.335,1.8,5.3,0.446,6.5,14.7,0.86,4.8,5.6,67.0,8.0,NBA,1606.0,110.0,0.9,3.9,SF,19.7,1994,1.6,HOU,3.4,5.7
31.0,5.1,0.3,111.0,3.9,0.57,4.4,7.7,0.398,2.2,5.4,0.499,6.5,13.1,0.842,3.9,4.6,81.0,13.0,NBA,1896.0,119.0,1.3,4.2,SF,19.1,1995,1.7,HOU,2.8,5.3
32.0,5.1,0.4,110.0,4.0,0.604,5.2,8.6,0.323,1.5,4.7,0.504,6.7,13.3,0.852,3.6,4.3,45.0,16.0,NBA,1385.0,121.0,1.7,3.5,SF,18.6,1996,1.7,HOU,2.2,5.8
33.0,6.0,0.2,107.0,3.4,0.572,3.3,5.8,0.42,2.3,5.6,0.497,5.7,11.4,0.896,4.0,4.5,78.0,77.0,NBA,2687.0,125.0,1.2,3.9,SF,17.7,1997,1.8,HOU,2.6,4.6
34.0,5.9,0.2,111.0,3.1,0.566,4.0,7.1,0.291,1.5,5.0,0.452,5.5,12.1,0.833,3.8,4.6,73.0,59.0,NBA,1988.0,114.0,1.0,3.1,SF,16.2,1998,2.1,HOU,2.7,4.1
35.0,3.7,0.5,98.0,4.2,0.518,4.9,9.4,0.374,1.7,4.5,0.471,6.5,13.9,0.866,4.3,5.0,47.0,37.0,NBA,1291.0,114.0,1.5,3.8,SG,19.1,1999,1.9,SAS,2.6,5.7
36.0,4.6,0.2,101.0,4.8,0.446,2.9,6.5,0.398,1.8,4.4,0.427,4.7,10.9,0.846,3.0,3.6,79.0,79.0,NBA,2217.0,104.0,1.1,3.7,SF,14.1,2000,1.7,SAS,3.1,5.9
37.0,4.5,0.4,101.0,4.0,0.466,2.3,5.0,0.36,1.2,3.4,0.423,3.6,8.4,0.797,1.9,2.4,68.0,67.0,NBA,1506.0,105.0,1.3,3.8,SG,10.2,2001,2.0,PHO,2.1,5.3
