age,ast,blk,drb,efg_pct,fg,fg2,fg2_pct,fg2a,fg3,fg3_pct,fg3a,fg_pct,fga,ft,ft_pct,fta,g,gs,lg_id,mp,orb,pf,pos,pts,season,stl,team_id,tov,trb
23.0,66.0,4.0,65.0,0.403,122.0,120.0,0.429,280.0,2.0,0.08,25.0,0.4,305.0,92.0,0.836,110.0,70.0,6.0,NBA,889.0,21.0,54.0,SG,338.0,1994,61.0,PHI,65.0,86.0
24.0,66.0,6.0,43.0,0.439,95.0,89.0,0.456,195.0,6.0,0.214,28.0,0.426,223.0,55.0,0.753,73.0,50.0,7.0,NBA,775.0,19.0,76.0,SG,251.0,1995,29.0,PHI,48.0,62.0
25.0,52.0,1.0,40.0,0.487,78.0,46.0,0.414,111.0,32.0,0.39,82.0,0.404,193.0,52.0,0.765,68.0,53.0,5.0,NBA,613.0,17.0,64.0,SG,240.0,1996,25.0,TOT,46.0,57.0
25.0,11.0,0.0,10.0,0.641,17.0,10.0,0.556,18.0,7.0,0.5,14.0,0.531,32.0,15.0,0.882,17.0,8.0,3.0,NBA,128.0,5.0,16.0,SG,56.0,1996,5.0,PHI,17.0,15.0
25.0,41.0,1.0,30.0,0.457,61.0,36.0,0.387,93.0,25.0,0.368,68.0,0.379,161.0,37.0,0.725,51.0,45.0,2.0,NBA,485.0,12.0,48.0,SG,184.0,1996,20.0,NJN,29.0,42.0
26.0,11.0,1.0,11.0,0.419,29.0,20.0,0.408,49.0,9.0,0.29,31.0,0.363,80.0,26.0,0.65,40.0,28.0,0.0,NBA,197.0,2.0,12.0,SG,93.0,1997,12.0,SEA,10.0,13.0
27.0,6.0,0.0,1.0,0.583,7.0,7.0,0.778,9.0,0.0,0.0,3.0,0.583,12.0,2.0,1.0,2.0,6.0,0.0,NBA,56.0,0.0,7.0,SG,16.0,1998,1.0,CLE,10.0,1.0
