age,ast_per_g,blk_per_g,drb_per_g,efg_pct,fg2_pct,fg2_per_g,fg2a_per_g,fg3_pct,fg3_per_g,fg3a_per_g,fg_pct,fg_per_g,fga_per_g,ft_pct,ft_per_g,fta_per_g,g,gs,lg_id,mp_per_g,orb_per_g,pf_per_g,pos,pts_per_g,season,stl_per_g,team_id,tov_per_g,trb_per_g
22.0,6.4,0.2,1.6,0.407,0.423,2.2,5.2,0.0,0.0,0.2,0.407,2.2,5.4,1.0,0.4,0.4,5.0,5.0,NBA,27.0,1.0,3.2,PG,4.8,1991,1.6,SEA,1.8,2.6
23.0,4.8,0.3,1.9,0.466,0.482,3.4,7.0,0.0,0.0,0.3,0.466,3.4,7.3,0.583,0.9,1.5,8.0,8.0,NBA,27.6,0.8,3.3,PG,7.6,1992,1.0,SEA,1.3,2.6
24.0,3.7,0.2,2.2,0.445,0.45,5.4,12.1,0.167,0.1,0.3,0.443,5.5,12.4,0.676,1.3,1.9,19.0,19.0,NBA,31.8,1.2,3.4,PG,12.3,1993,1.8,SEA,1.8,3.3
25.0,5.6,0.4,2.2,0.514,0.517,6.2,12.0,0.333,0.6,1.8,0.493,6.8,13.8,0.421,1.6,3.8,5.0,5.0,NBA,36.2,1.2,3.0,PG,15.8,1994,1.6,SEA,1.6,3.4
26.0,5.3,0.0,1.0,0.493,0.526,7.5,14.3,0.2,0.5,2.5,0.478,8.0,16.8,0.417,1.3,3.0,4.0,4.0,NBA,43.0,1.5,3.3,PG,17.8,1995,1.3,SEA,2.0,2.5
27.0,6.8,0.3,4.2,0.546,0.517,5.8,11.1,0.41,2.0,4.8,0.485,7.7,15.9,0.633,3.3,5.2,21.0,21.0,NBA,43.4,0.9,3.3,PG,20.7,1996,1.8,SEA,3.0,5.1
28.0,8.7,0.3,3.8,0.461,0.444,6.7,15.0,0.333,2.1,6.3,0.412,8.8,21.3,0.82,4.2,5.1,12.0,12.0,NBA,45.5,1.7,2.2,PG,23.8,1997,2.2,SEA,2.9,5.4
29.0,7.0,0.1,2.5,0.527,0.511,6.8,13.3,0.38,1.9,5.0,0.475,8.7,18.3,0.94,4.7,5.0,10.0,10.0,NBA,42.8,0.9,3.1,PG,24.0,1998,1.8,SEA,2.6,3.4
31.0,7.4,0.2,6.0,0.482,0.456,8.2,18.0,0.391,1.8,4.6,0.442,10.0,22.6,0.769,4.0,5.2,5.0,5.0,NBA,44.2,1.6,3.2,PG,25.8,2000,1.8,SEA,3.6,7.6
33.0,5.8,0.4,6.6,0.443,0.451,8.2,18.2,0.267,0.8,3.0,0.425,9.0,21.2,0.586,3.4,5.8,5.0,5.0,NBA,41.4,2.0,2.4,PG,22.2,2002,0.6,SEA,2.6,8.6
34.0,8.7,0.2,2.3,0.433,0.485,7.8,16.2,0.067,0.2,2.5,0.429,8.0,18.7,0.7,2.3,3.3,6.0,6.0,NBA,41.8,0.7,3.0,PG,18.5,2003,1.3,MIL,2.2,3.0
35.0,5.3,0.2,2.4,0.403,0.415,2.5,5.9,0.25,0.6,2.5,0.366,3.1,8.5,0.75,1.0,1.3,22.0,22.0,NBA,35.1,0.9,2.7,PG,7.8,2004,1.0,LAL,1.3,3.3
36.0,4.6,0.1,3.0,0.453,0.533,4.6,8.6,0.071,0.1,2.0,0.446,4.7,10.6,0.833,0.7,0.9,7.0,7.0,NBA,34.1,1.1,1.4,PG,10.3,2005,0.9,BOS,1.6,4.1
37.0,1.6,0.1,1.5,0.496,0.552,1.4,2.5,0.293,0.7,2.5,0.422,2.1,5.0,0.72,0.8,1.1,23.0,0.0,NBA,24.3,0.3,2.4,PG,5.8,2006,1.0,MIA,0.8,1.7
38.0,1.5,0.0,2.0,0.0,0.0,0.0,1.0,0.0,0.0,0.5,0.0,0.0,1.5,0.0,0.0,0.0,2.0,0.0,NBA,16.0,0.0,1.5,PG,0.0,2007,0.0,MIA,2.0,2.0
