age,ast_per_g,blk_per_g,drb_per_g,efg_pct,fg2_pct,fg2_per_g,fg2a_per_g,fg3_pct,fg3_per_g,fg3a_per_g,fg_pct,fg_per_g,fga_per_g,ft_pct,ft_per_g,fta_per_g,g,gs,lg_id,mp_per_g,orb_per_g,pf_per_g,pos,pts_per_g,season,stl_per_g,team_id,tov_per_g,trb_per_g
22.0,6.4,0.2,1.6,0.451,0.459,3.1,6.9,0.077,0.0,0.2,0.45,3.2,7.0,0.711,0.8,1.2,82.0,82.0,NBA,27.4,1.3,3.0,PG,7.2,1991,2.0,SEA,2.2,3.0
23.0,6.2,0.3,2.1,0.453,0.461,4.0,8.8,0.13,0.0,0.3,0.451,4.1,9.1,0.669,1.2,1.8,81.0,79.0,NBA,31.5,1.5,3.1,PG,9.4,1992,1.8,SEA,2.1,3.6
24.0,4.9,0.3,2.3,0.498,0.505,5.7,11.3,0.206,0.1,0.4,0.494,5.8,11.7,0.77,1.8,2.4,82.0,78.0,NBA,31.1,1.2,3.0,PG,13.5,1993,2.2,SEA,1.8,3.4
25.0,6.0,0.2,2.0,0.51,0.515,6.9,13.5,0.278,0.2,0.7,0.504,7.1,14.1,0.595,2.0,3.4,82.0,82.0,NBA,35.1,1.3,2.8,PG,16.5,1994,2.3,SEA,2.1,3.3
26.0,7.1,0.2,2.1,0.535,0.553,7.5,13.6,0.302,0.9,2.8,0.509,8.4,16.4,0.716,3.0,4.2,82.0,82.0,NBA,36.8,1.3,2.5,PG,20.6,1995,2.5,SEA,2.5,3.4
27.0,7.5,0.2,2.9,0.523,0.532,6.4,12.1,0.328,1.2,3.7,0.484,7.6,15.8,0.748,2.8,3.8,81.0,81.0,NBA,39.0,1.3,2.7,PG,19.3,1996,2.9,SEA,3.2,4.2
28.0,7.1,0.2,3.3,0.517,0.533,7.2,13.4,0.313,1.5,4.6,0.476,8.6,18.1,0.715,3.1,4.3,82.0,82.0,NBA,39.2,1.3,2.5,PG,21.8,1997,2.4,SEA,2.6,4.6
29.0,8.3,0.2,3.6,0.505,0.505,5.4,10.7,0.338,1.6,4.8,0.453,7.1,15.6,0.744,3.4,4.6,82.0,82.0,NBA,38.4,0.9,2.4,PG,19.2,1998,2.3,SEA,2.8,4.6
30.0,8.7,0.2,3.6,0.479,0.495,6.4,12.8,0.295,1.7,5.6,0.434,8.0,18.5,0.721,4.0,5.5,50.0,50.0,NBA,40.2,1.2,2.3,PG,21.7,1999,2.2,SEA,3.1,4.9
31.0,8.9,0.2,5.2,0.502,0.497,7.0,14.0,0.34,2.2,6.3,0.448,9.1,20.3,0.735,3.8,5.2,82.0,82.0,NBA,41.8,1.2,2.2,PG,24.2,2000,1.9,SEA,2.7,6.5
32.0,8.1,0.3,3.6,0.488,0.472,7.9,16.7,0.375,1.3,3.4,0.456,9.2,20.1,0.766,3.4,4.5,79.0,79.0,NBA,41.1,0.9,2.3,PG,23.1,2001,1.6,SEA,2.6,4.6
33.0,9.0,0.3,3.9,0.49,0.494,8.1,16.4,0.314,0.9,2.9,0.467,9.0,19.2,0.797,3.3,4.1,82.0,82.0,NBA,40.3,1.0,2.2,PG,22.1,2002,1.6,SEA,2.5,4.8
34.0,8.3,0.3,3.2,0.472,0.476,7.6,16.1,0.297,0.7,2.3,0.454,8.3,18.3,0.71,3.1,4.4,80.0,80.0,NBA,40.1,1.0,2.3,PG,20.4,2003,1.7,TOT,2.3,4.2
34.0,8.8,0.2,3.7,0.465,0.467,7.9,16.9,0.298,0.7,2.2,0.448,8.5,19.1,0.692,3.1,4.5,52.0,52.0,NBA,40.8,1.1,2.3,PG,20.8,2003,1.8,SEA,2.5,4.8
34.0,7.4,0.3,2.3,0.487,0.495,7.2,14.5,0.294,0.7,2.4,0.466,7.9,16.9,0.746,3.1,4.2,28.0,28.0,NBA,38.8,0.8,2.3,PG,19.6,2003,1.4,MIL,2.0,3.1
35.0,5.5,0.2,3.3,0.498,0.497,5.2,10.5,0.333,0.7,2.0,0.471,5.9,12.5,0.714,2.2,3.1,82.0,82.0,NBA,34.5,0.9,2.1,PG,14.6,2004,1.2,LAL,1.8,4.2
36.0,6.1,0.2,2.4,0.497,0.498,3.9,7.7,0.326,0.5,1.7,0.468,4.4,9.4,0.761,2.0,2.6,77.0,77.0,NBA,33.0,0.6,1.6,PG,11.3,2005,1.1,BOS,1.9,3.1
37.0,3.2,0.1,2.5,0.481,0.517,2.0,3.9,0.287,0.8,2.8,0.42,2.8,6.8,0.794,1.2,1.6,81.0,25.0,NBA,28.5,0.4,2.1,PG,7.7,2006,0.9,MIA,1.3,2.9
38.0,3.0,0.0,1.7,0.437,0.461,1.6,3.6,0.26,0.5,1.8,0.393,2.1,5.4,0.667,0.6,0.8,68.0,28.0,NBA,22.1,0.3,1.7,PG,5.3,2007,0.6,MIA,1.0,1.9
