age,and1s,astd_pts,drawn_offensive,drawn_shooting,fouls_offensive,fouls_shooting,g,lg_id,mp,own_shots_blk,pct_1,pct_2,pct_3,pct_4,pct_5,plus_minus_net,plus_minus_on,pos,season,team_id,tov_bad_pass,tov_lost_ball
25.0,2.0,11.0,0.0,7.0,0.0,25.0,26.0,NBA,252.0,7.0,0.0,0.0,8.0,57.0,35.0,-15.1,-13.0,PF,2012,TOT,1.0,4.0
25.0,0.0,5.0,0.0,0.0,0.0,4.0,8.0,NBA,28.0,0.0,0.0,0.0,0.0,63.0,37.0,-31.3,-24.3,PF,2012,MIA,0.0,3.0
25.0,2.0,6.0,0.0,7.0,0.0,21.0,18.0,NBA,224.0,7.0,0.0,0.0,9.0,57.0,35.0,-8.5,-11.5,PF,2012,GSW,1.0,1.0
