age,ast,blk,drb,efg_pct,fg,fg2,fg2_pct,fg2a,fg3,fg3_pct,fg3a,fg_pct,fga,ft,ft_pct,fta,g,gs,lg_id,mp,orb,pf,pos,pts,season,stl,team_id,tov,trb
23.0,30.0,4.0,39.0,0.566,68.0,67.0,0.568,118.0,1.0,0.333,3.0,0.562,121.0,16.0,0.41,39.0,46.0,7.0,NBA,424.0,14.0,48.0,SF,153.0,1995,19.0,CHH,30.0,53.0
24.0,47.0,5.0,58.0,0.526,112.0,111.0,0.526,211.0,1.0,0.333,3.0,0.523,214.0,47.0,0.644,73.0,63.0,7.0,NBA,838.0,40.0,94.0,SF,272.0,1996,28.0,CHH,56.0,98.0
25.0,12.0,1.0,14.0,0.457,16.0,16.0,0.457,35.0,0.0,0.0,0.0,0.457,35.0,10.0,0.714,14.0,24.0,0.0,NBA,133.0,4.0,15.0,SF,42.0,1997,9.0,TOT,11.0,18.0
25.0,4.0,0.0,4.0,0.333,2.0,2.0,0.333,6.0,0.0,0.0,0.0,0.333,6.0,0.0,0.0,0.0,9.0,0.0,NBA,39.0,1.0,7.0,SF,4.0,1997,2.0,MIL,4.0,5.0
25.0,7.0,1.0,10.0,0.481,13.0,13.0,0.481,27.0,0.0,0.0,0.0,0.481,27.0,8.0,0.667,12.0,14.0,0.0,NBA,86.0,3.0,6.0,SF,34.0,1997,7.0,ATL,7.0,13.0
25.0,1.0,0.0,0.0,0.5,1.0,1.0,0.5,2.0,0.0,0.0,0.0,0.5,2.0,2.0,1.0,2.0,1.0,0.0,NBA,8.0,0.0,2.0,SF,4.0,1997,0.0,SAS,0.0,0.0
