age,ast_per_poss,blk_per_poss,def_rtg,drb_per_poss,fg2_pct,fg2_per_poss,fg2a_per_poss,fg3_pct,fg3_per_poss,fg3a_per_poss,fg_pct,fg_per_poss,fga_per_poss,ft_pct,ft_per_poss,fta_per_poss,g,gs,lg_id,mp,off_rtg,orb_per_poss,pf_per_poss,pos,pts_per_poss,season,stl_per_poss,team_id,tov_per_poss,trb_per_poss
23.0,3.7,0.5,106.0,4.8,0.568,8.3,14.7,0.333,0.1,0.4,0.562,8.4,15.0,0.41,2.0,4.8,46.0,7.0,NBA,424.0,97.0,1.7,6.0,SF,19.0,1995,2.4,CHH,3.7,6.6
24.0,2.9,0.3,113.0,3.6,0.526,6.9,13.2,0.333,0.1,0.2,0.523,7.0,13.4,0.644,2.9,4.6,63.0,7.0,NBA,838.0,101.0,2.5,5.9,SF,17.0,1996,1.8,CHH,3.5,6.1
25.0,4.9,0.4,102.0,5.8,0.457,6.6,14.4,0.0,0.0,0.0,0.457,6.6,14.4,0.714,4.1,5.8,24.0,0.0,NBA,133.0,95.0,1.6,6.2,SF,17.3,1997,3.7,TOT,4.5,7.4
25.0,5.5,0.0,107.0,5.5,0.333,2.7,8.2,0.0,0.0,0.0,0.333,2.7,8.2,0.0,0.0,0.0,9.0,0.0,NBA,39.0,62.0,1.4,9.6,SF,5.5,1997,2.7,MIL,5.5,6.9
25.0,4.5,0.6,98.0,6.4,0.481,8.4,17.4,0.0,0.0,0.0,0.481,8.4,17.4,0.667,5.1,7.7,14.0,0.0,NBA,86.0,100.0,1.9,3.9,SF,21.9,1997,4.5,ATL,4.5,8.4
25.0,6.9,0.0,121.0,0.0,0.5,6.9,13.7,0.0,0.0,0.0,0.5,6.9,13.7,1.0,13.7,13.7,1.0,0.0,NBA,8.0,162.0,0.0,13.7,SF,27.5,1997,0.0,SAS,0.0,0.0
