age,ast,blk,drb,fg,fg2,fg2a,fg3,fg3a,fga,ft,fta,game_score,lg_id,mp,orb,pf,pts,season,stl,team_id,tov,trb
23.0,3.0,1.0,5.0,7.0,7.0,11.0,1.0,1.0,11.0,3.0,5.0,11.6,NBA,0.0,3.0,4.0,15.0,1995,2.0,CHH,3.0,6.0
24.0,4.0,1.0,5.0,7.0,7.0,11.0,1.0,1.0,12.0,6.0,8.0,13.1,NBA,0.0,4.0,6.0,16.0,1996,3.0,CHH,5.0,5.0
25.0,4.0,1.0,4.0,5.0,5.0,9.0,0.0,0.0,9.0,4.0,4.0,9.2,NBA,0.0,1.0,2.0,12.0,1997,2.0,TOT,2.0,5.0
25.0,2.0,0.0,1.0,1.0,1.0,2.0,0.0,0.0,2.0,0.0,0.0,2.6,NBA,0.0,1.0,2.0,2.0,1997,1.0,MIL,2.0,2.0
25.0,4.0,1.0,4.0,5.0,5.0,9.0,0.0,0.0,9.0,4.0,4.0,9.2,NBA,0.0,1.0,2.0,12.0,1997,2.0,ATL,2.0,5.0
25.0,1.0,0.0,0.0,1.0,1.0,2.0,0.0,0.0,2.0,2.0,2.0,2.9,NBA,0.0,0.0,2.0,4.0,1997,0.0,SAS,0.0,0.0
