lg_id,salary,season,team_name
NBA,1190760.0,2001,Houston Rockets
NBA,1280040.0,2002,Houston Rockets
NBA,1369440.0,2003,Houston Rockets
NBA,1500000.0,2005,Atlanta Hawks
NBA,1650000.0,2006,Atlanta Hawks
