age,ast_per_mp,blk_per_mp,drb_per_mp,fg2_pct,fg2_per_mp,fg2a_per_mp,fg3_pct,fg3_per_mp,fg3a_per_mp,fg_pct,fg_per_mp,fga_per_mp,ft_pct,ft_per_mp,fta_per_mp,g,gs,lg_id,mp,orb_per_mp,pf_per_mp,pos,pts_per_mp,season,stl_per_mp,team_id,tov_per_mp,trb_per_mp
24.0,4.1,0.4,4.5,0.353,2.4,6.7,0.476,2.0,4.1,0.4,4.3,10.8,0.0,0.0,0.0,6.0,6.0,NBA,183.0,0.6,2.4,SG,10.6,2017,0.6,MIL,2.4,5.1
25.0,3.3,0.0,4.1,0.528,3.7,7.0,0.263,1.0,3.7,0.436,4.6,10.6,0.8,1.5,1.9,7.0,5.0,NBA,186.0,0.6,2.7,PG,11.8,2018,0.2,MIL,2.3,4.6
26.0,4.4,0.2,5.1,0.512,3.8,7.5,0.378,2.5,6.7,0.449,6.4,14.2,0.636,1.3,2.0,7.0,2.0,NBA,198.0,1.1,2.9,SG,16.5,2019,0.9,MIL,1.8,6.2
