age,and1s,astd_pts,drawn_offensive,drawn_shooting,fouls_offensive,fouls_shooting,g,lg_id,mp,own_shots_blk,pct_1,pct_2,pct_3,pct_4,pct_5,plus_minus_net,plus_minus_on,pos,season,team_id,tov_bad_pass,tov_lost_ball
27.0,1.0,0.0,0.0,6.0,1.0,9.0,16.0,NBA,106.0,1.0,0.0,0.0,0.0,92.0,9.0,-6.8,-13.3,PF,2003,TOR,1.0,3.0
31.0,8.0,34.0,20.0,21.0,9.0,30.0,47.0,NBA,405.0,9.0,0.0,0.0,7.0,83.0,11.0,-0.7,-3.6,PF,2007,IND,10.0,7.0
32.0,0.0,6.0,4.0,4.0,1.0,10.0,15.0,NBA,103.0,2.0,0.0,0.0,1.0,82.0,17.0,-6.0,-2.5,PF,2008,TOR,1.0,1.0
33.0,1.0,17.0,10.0,8.0,2.0,22.0,27.0,NBA,217.0,6.0,0.0,0.0,1.0,88.0,11.0,-1.8,-2.9,PF,2009,IND,5.0,3.0
