age,ast,blk,drb,fg,fg2,fg2a,fg3,fg3a,fga,ft,fta,game_score,lg_id,mp,orb,pf,pts,season,stl,team_id,tov,trb
27.0,0.0,3.0,9.0,3.0,3.0,5.0,0.0,0.0,5.0,6.0,6.0,11.4,NBA,0.0,2.0,2.0,8.0,2003,2.0,TOR,2.0,9.0
31.0,2.0,4.0,4.0,5.0,4.0,6.0,1.0,2.0,7.0,4.0,6.0,14.3,NBA,23.0,4.0,5.0,14.0,2007,3.0,IND,4.0,8.0
32.0,2.0,2.0,5.0,3.0,3.0,6.0,0.0,0.0,6.0,3.0,4.0,7.6,NBA,19.0,3.0,4.0,7.0,2008,1.0,TOR,1.0,6.0
33.0,3.0,3.0,5.0,4.0,4.0,6.0,0.0,1.0,6.0,4.0,6.0,12.4,NBA,20.0,3.0,5.0,12.0,2009,2.0,IND,2.0,8.0
