age,ast,blk,drb,fg,fg2,fg2a,fg3,fg3a,fga,ft,fta,game_score,lg_id,mp,orb,pf,pts,season,stl,team_id,tov,trb
23.0,2.0,1.0,6.0,7.0,7.0,14.0,1.0,2.0,16.0,4.0,4.0,10.2,NBA,0.0,2.0,2.0,16.0,1999,1.0,ATL,4.0,7.0
24.0,5.0,1.0,7.0,8.0,8.0,15.0,1.0,3.0,16.0,5.0,6.0,16.9,NBA,0.0,4.0,5.0,22.0,2000,2.0,ATL,6.0,8.0
25.0,6.0,3.0,7.0,11.0,9.0,19.0,2.0,5.0,22.0,6.0,6.0,17.7,NBA,0.0,4.0,5.0,24.0,2001,3.0,TOT,5.0,10.0
25.0,6.0,3.0,7.0,11.0,9.0,19.0,2.0,5.0,22.0,6.0,6.0,17.7,NBA,0.0,4.0,5.0,24.0,2001,3.0,ATL,5.0,10.0
25.0,0.0,0.0,1.0,1.0,1.0,1.0,0.0,1.0,2.0,0.0,0.0,0.2,NBA,0.0,1.0,2.0,2.0,2001,0.0,PHI,1.0,2.0
