age,ast_per_poss,blk_per_poss,def_rtg,drb_per_poss,fg2_pct,fg2_per_poss,fg2a_per_poss,fg3_pct,fg3_per_poss,fg3a_per_poss,fg_pct,fg_per_poss,fga_per_poss,ft_pct,ft_per_poss,fta_per_poss,g,gs,lg_id,mp,off_rtg,orb_per_poss,pf_per_poss,pos,pts_per_poss,season,stl_per_poss,team_id,tov_per_poss,trb_per_poss
25.0,4.9,1.6,106.0,6.6,0.333,5.7,17.2,0.0,0.0,0.0,0.333,5.7,17.2,0.857,9.8,11.5,10.0,0.0,NBA,62.0,97.0,3.3,5.7,SF,21.3,1990,1.6,DAL,4.9,9.8
27.0,2.4,1.6,102.0,7.3,0.406,5.3,13.0,0.0,0.0,0.4,0.394,5.3,13.4,0.308,1.6,5.3,26.0,0.0,NBA,129.0,86.0,4.9,9.3,SF,12.2,1992,2.4,DET,2.8,12.2
28.0,2.3,1.9,111.0,6.3,0.49,6.7,13.6,0.0,0.0,0.1,0.488,6.7,13.7,0.625,3.2,5.1,79.0,7.0,NBA,1536.0,101.0,3.1,6.7,SF,16.5,1993,1.7,MIN,2.6,9.4
31.0,1.9,1.2,106.0,7.6,0.497,5.9,11.8,0.5,0.1,0.2,0.497,6.0,12.0,0.473,2.7,5.8,62.0,0.0,NBA,653.0,96.0,3.6,9.1,PF,14.7,1996,1.6,WSB,3.3,11.2
33.0,0.0,0.0,112.0,10.4,0.0,0.0,10.4,0.0,0.0,0.0,0.0,0.0,10.4,0.0,0.0,0.0,1.0,0.0,NBA,5.0,0.0,0.0,10.4,SF,0.0,1998,0.0,TOR,0.0,10.4
