age,ast,blk,drb,fg,fg2,fg2a,fg3,fg3a,fga,ft,fta,game_score,lg_id,mp,orb,pf,pts,season,stl,team_id,tov,trb
25.0,2.0,1.0,2.0,2.0,2.0,6.0,0.0,0.0,6.0,4.0,4.0,7.3,NBA,0.0,1.0,2.0,8.0,1990,1.0,DAL,2.0,3.0
27.0,3.0,2.0,4.0,5.0,5.0,7.0,0.0,1.0,7.0,1.0,4.0,10.4,NBA,0.0,3.0,4.0,10.0,1992,1.0,DET,1.0,6.0
28.0,4.0,4.0,7.0,8.0,8.0,16.0,0.0,1.0,16.0,5.0,9.0,16.2,NBA,0.0,5.0,6.0,18.0,1993,3.0,MIN,4.0,10.0
31.0,2.0,3.0,7.0,5.0,5.0,9.0,1.0,1.0,9.0,3.0,9.0,11.5,NBA,0.0,5.0,5.0,13.0,1996,3.0,WSB,4.0,10.0
33.0,0.0,0.0,1.0,0.0,0.0,1.0,0.0,0.0,1.0,0.0,0.0,-0.8,NBA,0.0,0.0,1.0,0.0,1998,0.0,TOR,0.0,1.0
