age,ast,blk,drb,efg_pct,fg,fg2,fg2_pct,fg2a,fg3,fg3_pct,fg3a,fg_pct,fga,ft,ft_pct,fta,g,gs,lg_id,mp,orb,pf,pos,pts,season,stl,team_id,tov,trb
25.0,6.0,2.0,8.0,0.333,7.0,7.0,0.333,21.0,0.0,0.0,0.0,0.333,21.0,12.0,0.857,14.0,10.0,0.0,NBA,62.0,4.0,7.0,SF,26.0,1990,2.0,DAL,6.0,12.0
27.0,6.0,4.0,18.0,0.394,13.0,13.0,0.406,32.0,0.0,0.0,1.0,0.394,33.0,4.0,0.308,13.0,26.0,0.0,NBA,129.0,12.0,23.0,SF,30.0,1992,6.0,DET,7.0,30.0
28.0,68.0,58.0,190.0,0.488,200.0,200.0,0.49,408.0,0.0,0.0,2.0,0.488,410.0,95.0,0.625,152.0,79.0,7.0,NBA,1536.0,92.0,202.0,SF,495.0,1993,51.0,MIN,79.0,282.0
31.0,24.0,15.0,97.0,0.5,76.0,75.0,0.497,151.0,1.0,0.5,2.0,0.497,153.0,35.0,0.473,74.0,62.0,0.0,NBA,653.0,46.0,116.0,PF,188.0,1996,21.0,WSB,42.0,143.0
33.0,0.0,0.0,1.0,0.0,0.0,0.0,0.0,1.0,0.0,0.0,0.0,0.0,1.0,0.0,0.0,0.0,1.0,0.0,NBA,5.0,0.0,1.0,SF,0.0,1998,0.0,TOR,0.0,1.0
