age,ast_per_mp,blk_per_mp,drb_per_mp,fg2_pct,fg2_per_mp,fg2a_per_mp,fg3_pct,fg3_per_mp,fg3a_per_mp,fg_pct,fg_per_mp,fga_per_mp,ft_pct,ft_per_mp,fta_per_mp,g,gs,lg_id,mp,orb_per_mp,pf_per_mp,pos,pts_per_mp,season,stl_per_mp,team_id,tov_per_mp,trb_per_mp
25.0,3.5,1.2,4.6,0.333,4.1,12.2,0.0,0.0,0.0,0.333,4.1,12.2,0.857,7.0,8.1,10.0,0.0,NBA,62.0,2.3,4.1,SF,15.1,1990,1.2,DAL,3.5,7.0
27.0,1.7,1.1,5.0,0.406,3.6,8.9,0.0,0.0,0.3,0.394,3.6,9.2,0.308,1.1,3.6,26.0,0.0,NBA,129.0,3.3,6.4,SF,8.4,1992,1.7,DET,2.0,8.4
28.0,1.6,1.4,4.5,0.49,4.7,9.6,0.0,0.0,0.0,0.488,4.7,9.6,0.625,2.2,3.6,79.0,7.0,NBA,1536.0,2.2,4.7,SF,11.6,1993,1.2,MIN,1.9,6.6
31.0,1.3,0.8,5.3,0.497,4.1,8.3,0.5,0.1,0.1,0.497,4.2,8.4,0.473,1.9,4.1,62.0,0.0,NBA,653.0,2.5,6.4,PF,10.4,1996,1.2,WSB,2.3,7.9
33.0,0.0,0.0,7.2,0.0,0.0,7.2,0.0,0.0,0.0,0.0,0.0,7.2,0.0,0.0,0.0,1.0,0.0,NBA,5.0,0.0,7.2,SF,0.0,1998,0.0,TOR,0.0,7.2
