age,ast,blk,drb,efg_pct,fg,fg2,fg2_pct,fg2a,fg3,fg3_pct,fg3a,fg_pct,fga,ft,ft_pct,fta,g,gs,lg_id,mp,orb,pf,pos,pts,season,stl,team_id,tov,trb
22.0,1.0,0.0,1.0,0.167,1.0,1.0,0.333,3.0,0.0,0.0,3.0,0.167,6.0,0.0,0.0,0.0,3.0,0.0,NBA,9.0,0.0,1.0,SF,2.0,2011,0.0,NOH,0.0,1.0
23.0,2.0,0.0,13.0,0.722,12.0,10.0,0.714,14.0,2.0,0.5,4.0,0.667,18.0,7.0,0.778,9.0,7.0,0.0,NBA,114.0,3.0,13.0,SF,33.0,2012,4.0,MEM,5.0,16.0
24.0,11.0,2.0,29.0,0.617,46.0,22.0,0.537,41.0,24.0,0.453,53.0,0.489,94.0,17.0,0.607,28.0,15.0,0.0,NBA,357.0,9.0,31.0,SF,133.0,2013,11.0,MEM,9.0,38.0
26.0,12.0,0.0,17.0,0.411,10.0,7.0,0.389,18.0,3.0,0.3,10.0,0.357,28.0,6.0,0.857,7.0,4.0,4.0,NBA,124.0,3.0,13.0,SF,29.0,2015,7.0,NOP,1.0,20.0
30.0,2.0,0.0,1.0,0.0,0.0,0.0,0.0,1.0,0.0,0.0,1.0,0.0,2.0,0.0,0.0,0.0,5.0,0.0,NBA,12.0,0.0,2.0,SF,0.0,2019,1.0,SAS,0.0,1.0
