age,ast_per_poss,blk_per_poss,def_rtg,drb_per_poss,fg2_pct,fg2_per_poss,fg2a_per_poss,fg3_pct,fg3_per_poss,fg3a_per_poss,fg_pct,fg_per_poss,fga_per_poss,ft_pct,ft_per_poss,fta_per_poss,g,gs,lg_id,mp,off_rtg,orb_per_poss,pf_per_poss,pos,pts_per_poss,season,stl_per_poss,team_id,tov_per_poss,trb_per_poss
20.0,8.0,0.5,113.0,4.3,0.436,7.0,16.1,0.307,1.2,3.8,0.412,8.2,19.9,0.723,3.5,4.9,73.0,60.0,NBA,2026.0,94.0,0.8,4.1,PG,21.1,2018,1.7,SAC,4.3,5.1
21.0,10.8,0.8,111.0,4.8,0.482,7.7,15.9,0.371,1.6,4.2,0.458,9.2,20.1,0.727,5.5,7.6,81.0,81.0,NBA,2546.0,110.0,0.8,3.7,PG,25.6,2019,2.4,SAC,4.1,5.6
22.0,10.0,0.7,114.0,5.2,0.443,7.2,16.3,0.333,1.9,5.6,0.415,9.1,21.9,0.696,7.2,10.4,8.0,8.0,NBA,259.0,101.0,0.7,4.4,PG,27.3,2020,1.1,SAC,5.9,5.9
