age,ast,ast_per_g,blk,college_id,fg,fg3,fg3_pct,fg3a,fg_pct,fga,ft,ft_pct,fta,g,mp,mp_per_g,orb,pf,pts,pts_per_g,season,stl,tov,trb,trb_per_g
18.0,82.0,2.7,17.0,BRADLEY,179.0,0.0,0.0,0.0,0.581,308.0,81.0,0.771,105.0,30.0,1121.0,37.4,0.0,71.0,439.0,14.6,1985,52.0,63.0,182.0,6.1
19.0,104.0,3.0,23.0,BRADLEY,250.0,0.0,0.0,0.0,0.542,461.0,156.0,0.768,203.0,35.0,1291.0,36.9,0.0,83.0,656.0,18.7,1986,66.0,70.0,200.0,5.7
20.0,103.0,3.6,12.0,BRADLEY,294.0,31.0,0.287,108.0,0.533,552.0,169.0,0.793,213.0,29.0,1102.0,38.0,0.0,77.0,788.0,27.2,1987,59.0,99.0,195.0,6.7
21.0,111.0,3.6,24.0,BRADLEY,377.0,87.0,0.394,221.0,0.524,720.0,284.0,0.848,335.0,31.0,1202.0,38.8,0.0,79.0,1125.0,36.3,1988,82.0,66.0,241.0,7.8
