age,ast_pct,blk_pct,bpm,bpm-dum,dbpm,drb_pct,dws,fg3a_per_fga_pct,fta_per_fga_pct,g,lg_id,mp,obpm,orb_pct,ows,per,pos,season,stl_pct,team_id,tov_pct,trb_pct,ts_pct,usg_pct,vorp,ws,ws-dum,ws_per_48
22.0,13.0,0.8,0.3,0.0,-0.6,7.6,1.3,0.171,0.299,79.0,NBA,2577.0,1.0,2.2,2.7,14.2,SG,1989,2.3,PHI,12.6,4.9,0.544,20.3,1.5,4.0,0.0,0.075
23.0,13.3,0.6,2.0,0.0,-0.4,8.6,2.5,0.176,0.384,82.0,NBA,2856.0,2.5,3.4,5.5,17.0,SG,1990,2.3,PHI,12.2,6.0,0.57,22.5,2.9,8.0,0.0,0.135
24.0,15.3,0.7,3.5,0.0,0.0,9.3,3.3,0.216,0.44,80.0,NBA,3110.0,3.4,1.8,6.5,19.4,SG,1991,2.9,PHI,12.5,5.6,0.592,24.0,4.3,9.8,0.0,0.151
25.0,13.0,0.9,1.9,0.0,-0.3,8.2,2.4,0.203,0.409,81.0,NBA,3013.0,2.2,2.0,5.4,17.0,SG,1992,2.7,PHI,12.4,5.1,0.578,22.1,3.0,7.8,0.0,0.124
26.0,17.1,0.6,2.8,0.0,-0.8,9.3,1.9,0.262,0.416,81.0,NBA,2977.0,3.6,3.3,6.7,18.3,SG,1993,2.2,PHI,11.5,6.3,0.593,22.2,3.6,8.5,0.0,0.138
27.0,11.6,0.5,2.1,0.0,0.2,11.7,2.1,0.274,0.421,82.0,NBA,2648.0,1.9,3.8,4.4,15.6,SG,1994,2.5,CHH,13.4,7.9,0.579,18.9,2.7,6.5,0.0,0.118
28.0,15.3,0.5,3.4,0.0,0.8,10.5,3.4,0.368,0.372,82.0,NBA,2731.0,2.6,2.7,5.3,16.3,SG,1995,2.4,CHH,13.7,6.8,0.622,18.5,3.7,8.7,0.0,0.153
29.0,12.5,0.4,3.1,0.0,0.6,8.4,4.2,0.406,0.304,82.0,NBA,2823.0,2.5,3.8,5.3,16.1,SG,1996,2.7,SEA,13.4,6.2,0.603,19.4,3.6,9.5,0.0,0.161
30.0,14.6,0.4,4.5,0.0,0.8,10.0,3.9,0.447,0.371,82.0,NBA,2755.0,3.6,4.0,7.0,17.6,SG,1997,3.1,SEA,12.3,7.0,0.616,17.5,4.5,10.9,0.0,0.19
31.0,12.8,0.5,3.6,0.0,1.2,11.9,3.3,0.473,0.321,82.0,NBA,2597.0,2.4,3.3,5.3,15.4,SG,1998,3.0,SEA,12.3,7.7,0.594,14.8,3.7,8.6,0.0,0.158
32.0,12.0,0.8,1.4,0.0,0.3,10.6,0.9,0.441,0.324,50.0,NBA,1644.0,1.1,3.5,2.6,14.0,SG,1999,2.6,SEA,14.6,7.1,0.554,15.1,1.4,3.5,0.0,0.102
33.0,15.0,0.7,-1.1,0.0,0.1,10.6,1.5,0.376,0.317,61.0,NBA,1622.0,-1.2,2.2,1.1,11.4,SG,2000,2.4,CHI,19.0,6.3,0.562,14.9,0.4,2.6,0.0,0.077
34.0,17.0,1.0,0.1,0.0,0.5,10.5,1.0,0.336,0.46,59.0,NBA,681.0,-0.4,2.9,1.4,14.3,SG,2001,2.6,CHH,10.3,6.7,0.555,12.4,0.4,2.3,0.0,0.165
