age,ast,blk,drb,fg,fg2,fg2a,fg3,fg3a,fga,ft,fta,game_score,lg_id,mp,orb,pf,pts,season,stl,team_id,tov,trb
27.0,0.0,0.0,2.0,1.0,1.0,1.0,0.0,0.0,1.0,0.0,1.0,0.1,NBA,0.0,0.0,2.0,2.0,1991,0.0,BOS,1.0,2.0
28.0,1.0,0.0,0.0,1.0,1.0,1.0,0.0,0.0,1.0,0.0,0.0,2.4,NBA,0.0,0.0,0.0,2.0,1992,0.0,BOS,0.0,0.0
33.0,0.0,0.0,0.0,0.0,0.0,2.0,0.0,0.0,2.0,0.0,0.0,-0.7,NBA,0.0,1.0,0.0,0.0,1997,0.0,MIN,0.0,1.0
