age,ast_pct,blk_pct,bpm,bpm-dum,dbpm,drb_pct,dws,fg3a_per_fga_pct,fta_per_fga_pct,g,lg_id,mp,obpm,orb_pct,ows,per,pos,season,stl_pct,team_id,tov_pct,trb_pct,ts_pct,usg_pct,vorp,ws,ws-dum,ws_per_48
27.0,3.1,10.0,-5.9,0.0,2.4,22.1,0.3,0.0,0.346,31.0,NBA,166.0,-8.4,10.9,-0.4,8.8,C,1991,0.3,BOS,28.6,16.9,0.484,21.3,-0.2,-0.1,0.0,-0.026
28.0,6.0,9.2,-2.5,0.0,3.2,19.1,0.2,0.0,0.375,19.0,NBA,110.0,-5.8,8.4,-0.1,11.2,C,1992,0.0,BOS,21.2,14.0,0.496,18.5,0.0,0.1,0.0,0.037
33.0,2.9,6.6,-2.6,0.0,2.0,17.0,0.9,0.0,0.266,53.0,NBA,766.0,-4.6,8.9,-0.1,10.1,C,1997,0.7,MIN,25.1,13.0,0.583,12.4,-0.1,0.9,0.0,0.055
34.0,5.5,4.4,-4.1,0.0,0.9,22.1,0.6,0.0,0.349,65.0,NBA,996.0,-5.0,8.0,-0.2,9.4,C,1998,0.6,LAC,17.7,15.0,0.454,11.6,-0.5,0.4,0.0,0.02
35.0,0.0,0.0,-13.7,0.0,-10.3,20.9,0.0,0.0,0.0,2.0,NBA,12.0,-3.5,37.2,0.0,10.7,C,1999,0.0,LAC,0.0,29.5,0.25,15.1,0.0,0.0,0.0,0.011
