lg_id,salary,season,team_name
NBA,222000.0,1991,Boston Celtics
NBA,665000.0,1992,Boston Celtics
NBA,831000.0,1993,Boston Celtics
NBA,831000.0,1994,Boston Celtics
NBA,831000.0,1995,Boston Celtics
NBA,2900000.0,1997,Minnesota Timberwolves
NBA,3580000.0,1998,Los Angeles Clippers
NBA,4060000.0,1999,Los Angeles Clippers
