age,ast,ast_per_g,blk,college_id,fg,fg3,fg3_pct,fg3a,fg_pct,fga,ft,ft_pct,fta,g,mp,mp_per_g,orb,pf,pts,pts_per_g,season,stl,tov,trb,trb_per_g
21.0,23.0,0.6,10.0,PITT,58.0,8.0,0.296,27.0,0.46,126.0,51.0,0.708,72.0,36.0,556.0,15.4,38.0,54.0,175.0,4.9,2014,6.0,29.0,106.0,2.9
22.0,77.0,2.3,15.0,PITT,160.0,39.0,0.394,99.0,0.469,341.0,105.0,0.795,132.0,34.0,1082.0,31.8,67.0,63.0,464.0,13.6,2015,25.0,60.0,205.0,6.0
23.0,98.0,3.0,8.0,PITT,165.0,49.0,0.363,135.0,0.47,351.0,96.0,0.78,123.0,33.0,991.0,30.0,41.0,59.0,475.0,14.4,2016,19.0,80.0,160.0,4.8
24.0,106.0,3.3,9.0,PITT,196.0,74.0,0.392,189.0,0.475,413.0,116.0,0.734,158.0,32.0,1097.0,34.3,40.0,61.0,582.0,18.2,2017,13.0,83.0,156.0,4.9
