age,ast_per_mp,blk_per_mp,drb_per_mp,fg2_pct,fg2_per_mp,fg2a_per_mp,fg3_pct,fg3_per_mp,fg3a_per_mp,fg_pct,fg_per_mp,fga_per_mp,ft_pct,ft_per_mp,fta_per_mp,g,gs,lg_id,mp,orb_per_mp,pf_per_mp,pos,pts_per_mp,season,stl_per_mp,team_id,tov_per_mp,trb_per_mp
26.0,1.8,1.0,3.6,0.571,4.1,7.2,0.0,0.0,0.0,0.571,4.1,7.2,0.619,3.3,5.4,10.0,0.0,NBA,140.0,3.3,9.0,C,11.6,1996,1.0,ATL,2.3,6.9
27.0,0.7,2.0,4.7,0.444,2.7,6.0,0.0,0.0,0.0,0.444,2.7,6.0,0.75,4.0,5.3,8.0,0.0,NBA,54.0,3.3,6.7,C,9.3,1997,2.0,LAL,2.0,8.0
28.0,0.0,9.8,0.0,0.333,6.5,19.6,0.0,0.0,0.0,0.333,6.5,19.6,0.0,0.0,0.0,4.0,0.0,NBA,11.0,3.3,6.5,C,13.1,1998,0.0,LAL,0.0,3.3
29.0,2.3,0.7,0.7,0.333,1.5,4.5,0.0,0.0,0.0,0.333,1.5,4.5,0.833,3.7,4.5,7.0,0.0,NBA,48.0,0.7,9.7,C,6.8,1999,0.0,LAL,0.7,1.5
