age,ast,ast_per_g,blk,college_id,fg,fg3,fg3_pct,fg3a,fg_pct,fga,ft,ft_pct,fta,g,mp,mp_per_g,orb,pf,pts,pts_per_g,season,stl,tov,trb,trb_per_g
19.0,11.0,0.4,39.0,ALABAMA,132.0,0.0,0.0,0.0,0.564,234.0,32.0,0.533,60.0,26.0,618.0,23.8,0.0,72.0,296.0,11.4,1994,29.0,53.0,210.0,8.1
20.0,21.0,0.6,66.0,ALABAMA,185.0,0.0,0.0,1.0,0.512,361.0,88.0,0.667,132.0,33.0,861.0,26.1,0.0,109.0,458.0,13.9,1995,28.0,78.0,337.0,10.2
