age,ast,blk,drb,efg_pct,fg,fg2,fg2_pct,fg2a,fg3,fg3_pct,fg3a,fg_pct,fga,ft,ft_pct,fta,g,gs,lg_id,mp,orb,pf,pos,pts,season,stl,team_id,tov,trb
23.0,51.0,13.0,72.0,0.409,144.0,140.0,0.414,338.0,4.0,0.211,19.0,0.403,357.0,84.0,0.672,125.0,59.0,16.0,NBA,959.0,44.0,81.0,SG,376.0,1998,35.0,SAC,65.0,116.0
24.0,50.0,16.0,114.0,0.442,177.0,171.0,0.443,386.0,6.0,0.286,21.0,0.435,407.0,94.0,0.691,136.0,49.0,49.0,NBA,1205.0,72.0,121.0,SG,454.0,1999,50.0,SAC,70.0,186.0
25.0,98.0,28.0,190.0,0.426,274.0,271.0,0.435,623.0,3.0,0.13,23.0,0.424,646.0,146.0,0.756,193.0,61.0,56.0,NBA,1578.0,101.0,147.0,SG,697.0,2000,59.0,TOT,106.0,291.0
25.0,72.0,16.0,162.0,0.435,223.0,221.0,0.447,494.0,2.0,0.095,21.0,0.433,515.0,115.0,0.762,151.0,46.0,46.0,NBA,1205.0,77.0,116.0,SG,563.0,2000,53.0,ORL,87.0,239.0
25.0,26.0,12.0,28.0,0.393,51.0,50.0,0.388,129.0,1.0,0.5,2.0,0.389,131.0,31.0,0.738,42.0,15.0,10.0,NBA,373.0,24.0,31.0,SG,134.0,2000,6.0,DEN,19.0,52.0
26.0,22.0,13.0,45.0,0.405,43.0,39.0,0.386,101.0,4.0,0.4,10.0,0.387,111.0,21.0,0.583,36.0,29.0,12.0,NBA,420.0,14.0,54.0,SG,111.0,2001,14.0,DEN,34.0,59.0
27.0,24.0,10.0,43.0,0.378,55.0,54.0,0.372,145.0,1.0,0.5,2.0,0.374,147.0,24.0,0.727,33.0,24.0,12.0,NBA,441.0,41.0,56.0,SG,135.0,2002,20.0,TOT,27.0,84.0
27.0,22.0,9.0,39.0,0.383,55.0,54.0,0.378,143.0,1.0,0.5,2.0,0.379,145.0,24.0,0.75,32.0,20.0,12.0,NBA,417.0,39.0,51.0,SG,135.0,2002,18.0,DEN,24.0,78.0
27.0,2.0,1.0,4.0,0.0,0.0,0.0,0.0,2.0,0.0,0.0,0.0,0.0,2.0,0.0,0.0,1.0,4.0,0.0,NBA,24.0,2.0,5.0,SG,0.0,2002,2.0,DAL,3.0,6.0
28.0,21.0,3.0,26.0,0.466,27.0,27.0,0.474,57.0,0.0,0.0,1.0,0.466,58.0,3.0,0.5,6.0,14.0,0.0,NBA,204.0,14.0,26.0,SG,57.0,2003,6.0,DAL,7.0,40.0
