lg_id,salary,season,team_name
NBA,1226880.0,1998,Sacramento Kings
NBA,1411000.0,1999,Sacramento Kings
NBA,1594920.0,2000,Denver Nuggets
NBA,4500000.0,2001,Denver Nuggets
NBA,5062500.0,2002,Denver Nuggets
NBA,5625000.0,2003,Dallas Mavericks
NBA,6187500.0,2004,Dallas Mavericks
NBA,6750000.0,2005,Dallas Mavericks
NBA,3656250.0,2006,Dallas Mavericks
NBA,1968750.0,2007,Dallas Mavericks
