age,ast,ast_per_g,blk,college_id,fg,fg3,fg3_pct,fg3a,fg_pct,fga,ft,ft_pct,fta,g,mp,mp_per_g,orb,pf,pts,pts_per_g,season,stl,tov,trb,trb_per_g
19.0,13.0,0.4,22.0,NOTREDAME,66.0,1.0,0.143,7.0,0.595,111.0,46.0,0.754,61.0,32.0,386.0,12.1,27.0,42.0,179.0,5.6,2015,19.0,14.0,86.0,2.7
20.0,34.0,0.9,36.0,NOTREDAME,150.0,4.0,0.333,12.0,0.532,282.0,96.0,0.774,124.0,36.0,910.0,25.3,87.0,86.0,400.0,11.1,2016,31.0,36.0,240.0,6.7
21.0,56.0,1.6,50.0,NOTREDAME,236.0,26.0,0.433,60.0,0.526,449.0,141.0,0.783,180.0,36.0,1156.0,32.1,104.0,81.0,639.0,17.8,2017,40.0,44.0,362.0,10.1
22.0,19.0,0.9,47.0,NOTREDAME,157.0,17.0,0.293,58.0,0.503,312.0,83.0,0.761,109.0,21.0,680.0,32.4,48.0,36.0,414.0,19.7,2018,35.0,32.0,212.0,10.1
