age,ast_per_mp,blk_per_mp,drb_per_mp,fg2_pct,fg2_per_mp,fg2a_per_mp,fg3_pct,fg3_per_mp,fg3a_per_mp,fg_pct,fg_per_mp,fga_per_mp,ft_pct,ft_per_mp,fta_per_mp,g,gs,lg_id,mp,orb_per_mp,pf_per_mp,pos,pts_per_mp,season,stl_per_mp,team_id,tov_per_mp,trb_per_mp
23.0,1.4,1.0,5.6,0.477,7.3,15.4,0.0,0.0,0.0,0.477,7.3,15.4,0.767,2.6,3.3,60.0,0.0,NBA,648.0,3.8,4.3,SF,17.2,1977,0.9,MIL,0.0,9.3
24.0,3.0,1.3,5.8,0.542,8.0,14.7,0.0,0.0,0.0,0.542,8.0,14.7,0.727,2.4,3.3,82.0,0.0,NBA,1552.0,3.3,4.1,SF,18.3,1978,1.0,MIL,3.2,9.2
25.0,3.6,1.0,5.4,0.511,7.5,14.7,0.0,0.0,0.0,0.511,7.5,14.7,0.752,2.3,3.1,81.0,0.0,NBA,2696.0,3.4,2.9,SF,17.3,1979,0.9,IND,2.6,8.7
26.0,3.4,0.9,5.0,0.498,8.3,16.6,0.333,0.0,0.1,0.497,8.3,16.7,0.789,3.1,4.0,78.0,0.0,NBA,2401.0,4.0,3.1,SF,19.8,1980,1.1,TOT,3.2,9.1
26.0,3.3,0.8,5.0,0.507,8.2,16.1,0.0,0.0,0.1,0.504,8.2,16.2,0.814,2.7,3.3,54.0,0.0,NBA,1526.0,3.9,3.0,SF,19.0,1980,1.1,IND,2.9,9.0
26.0,3.4,1.2,5.1,0.483,8.4,17.4,0.667,0.1,0.1,0.485,8.5,17.6,0.762,3.9,5.2,24.0,0.0,NBA,875.0,4.2,3.2,SF,21.1,1980,1.2,DEN,3.7,9.3
27.0,3.4,1.2,4.3,0.494,8.9,18.0,0.6,0.0,0.1,0.494,8.9,18.1,0.85,4.5,5.3,81.0,0.0,NBA,3093.0,3.2,3.0,SF,22.5,1981,1.2,DEN,2.8,7.5
28.0,5.2,1.4,4.2,0.553,10.2,18.4,0.0,0.0,0.1,0.551,10.2,18.5,0.84,4.4,5.3,82.0,82.0,NBA,3015.0,2.5,3.1,SF,24.9,1982,1.0,DEN,3.1,6.7
29.0,4.8,1.5,4.1,0.519,11.5,22.2,0.167,0.0,0.1,0.516,11.6,22.4,0.829,4.9,5.9,82.0,82.0,NBA,2988.0,3.2,2.8,SF,28.0,1983,1.4,DEN,3.2,7.2
30.0,5.1,1.2,3.1,0.531,11.4,21.4,0.143,0.0,0.1,0.529,11.4,21.5,0.824,4.4,5.4,82.0,77.0,NBA,2870.0,2.7,3.2,SF,27.2,1984,1.0,DEN,2.8,5.8
31.0,4.2,0.6,3.1,0.519,11.5,22.2,0.2,0.0,0.1,0.518,11.6,22.3,0.829,4.7,5.7,81.0,81.0,NBA,2924.0,2.5,3.2,SF,27.8,1985,1.2,DEN,3.1,5.6
32.0,3.8,0.3,2.5,0.505,11.3,22.4,0.2,0.0,0.1,0.504,11.3,22.5,0.862,6.1,7.1,81.0,81.0,NBA,3024.0,2.3,2.8,SF,28.7,1986,0.9,DEN,3.0,4.8
33.0,4.9,0.2,2.3,0.504,11.2,22.2,0.267,0.0,0.2,0.503,11.3,22.4,0.844,4.8,5.7,82.0,82.0,NBA,3085.0,1.7,2.5,SF,27.4,1987,0.9,DEN,2.5,4.0
34.0,4.8,0.3,2.6,0.496,10.8,21.7,0.0,0.0,0.1,0.495,10.8,21.8,0.828,4.0,4.8,80.0,80.0,NBA,2818.0,2.1,2.5,SF,25.6,1988,0.9,DEN,2.3,4.8
35.0,4.6,0.1,2.1,0.492,11.1,22.6,0.25,0.0,0.1,0.491,11.1,22.6,0.858,3.9,4.6,82.0,82.0,NBA,2990.0,1.8,2.1,SF,26.2,1989,0.8,DEN,2.4,3.9
36.0,3.7,0.4,2.7,0.491,10.3,21.0,0.4,0.0,0.1,0.491,10.3,21.1,0.88,2.6,3.0,80.0,80.0,NBA,2211.0,1.9,2.1,SF,23.3,1990,0.8,DEN,1.5,4.7
37.0,2.2,0.5,3.0,0.439,6.6,15.1,0.0,0.0,0.0,0.439,6.6,15.1,0.85,2.5,2.9,79.0,26.0,NBA,1748.0,2.2,2.9,SF,15.7,1991,0.8,DAL,2.1,5.2
