age,ast_per_g,blk_per_g,drb_per_g,efg_pct,fg2_pct,fg2_per_g,fg2a_per_g,fg3_pct,fg3_per_g,fg3a_per_g,fg_pct,fg_per_g,fga_per_g,ft_pct,ft_per_g,fta_per_g,g,gs,lg_id,mp_per_g,orb_per_g,pf_per_g,pos,pts_per_g,season,stl_per_g,team_id,tov_per_g,trb_per_g
23.0,0.4,0.3,1.7,0.477,0.477,2.2,4.6,0.0,0.0,0.0,0.477,2.2,4.6,0.767,0.8,1.0,60.0,0.0,NBA,10.8,1.1,1.3,SF,5.2,1977,0.3,MIL,0.0,2.8
24.0,1.6,0.7,3.1,0.542,0.542,4.2,7.7,0.0,0.0,0.0,0.542,4.2,7.7,0.727,1.3,1.7,82.0,0.0,NBA,18.9,1.8,2.2,SF,9.6,1978,0.5,MIL,1.7,4.8
25.0,3.3,1.0,5.0,0.511,0.511,7.0,13.6,0.0,0.0,0.0,0.511,7.0,13.6,0.752,2.1,2.8,81.0,0.0,NBA,33.3,3.1,2.6,SF,16.0,1979,0.9,IND,2.4,8.1
26.0,2.9,0.8,4.3,0.498,0.498,7.1,14.2,0.333,0.0,0.1,0.497,7.1,14.3,0.789,2.7,3.4,78.0,0.0,NBA,30.8,3.4,2.6,SF,16.9,1980,0.9,TOT,2.7,7.8
26.0,2.6,0.6,3.9,0.504,0.507,6.4,12.6,0.0,0.0,0.1,0.504,6.4,12.7,0.814,2.1,2.6,54.0,0.0,NBA,28.3,3.1,2.4,SF,14.9,1980,0.8,IND,2.3,7.0
26.0,3.4,1.2,5.1,0.487,0.483,8.5,17.7,0.667,0.1,0.1,0.485,8.6,17.8,0.762,4.0,5.3,24.0,0.0,NBA,36.5,4.3,3.3,SF,21.3,1980,1.2,DEN,3.8,9.4
27.0,3.6,1.2,4.6,0.495,0.494,9.4,19.1,0.6,0.0,0.1,0.494,9.5,19.2,0.85,4.8,5.7,81.0,0.0,NBA,38.2,3.4,3.1,SF,23.8,1981,1.3,DEN,3.0,8.0
28.0,5.3,1.5,4.2,0.551,0.553,10.4,18.8,0.0,0.0,0.1,0.551,10.4,18.9,0.84,4.5,5.4,82.0,82.0,NBA,36.8,2.6,3.2,SF,25.4,1982,1.1,DEN,3.2,6.8
29.0,4.8,1.5,4.1,0.517,0.519,11.7,22.5,0.167,0.0,0.1,0.516,11.7,22.6,0.829,5.0,6.0,82.0,82.0,NBA,36.4,3.2,2.9,SF,28.4,1983,1.4,DEN,3.2,7.3
30.0,5.0,1.2,3.0,0.529,0.531,11.0,20.8,0.143,0.0,0.1,0.529,11.1,20.9,0.824,4.3,5.2,82.0,77.0,NBA,35.0,2.6,3.1,SF,26.4,1984,1.0,DEN,2.7,5.7
31.0,4.2,0.6,3.1,0.518,0.519,11.6,22.3,0.2,0.0,0.1,0.518,11.6,22.4,0.829,4.7,5.7,81.0,81.0,NBA,36.1,2.5,3.2,SF,27.9,1985,1.2,DEN,3.1,5.7
32.0,4.0,0.4,2.6,0.504,0.505,11.7,23.2,0.2,0.0,0.1,0.504,11.7,23.3,0.862,6.3,7.3,81.0,81.0,NBA,37.3,2.4,2.9,SF,29.8,1986,0.9,DEN,3.1,5.0
33.0,5.1,0.3,2.4,0.504,0.504,11.7,23.2,0.267,0.0,0.2,0.503,11.8,23.4,0.844,5.0,5.9,82.0,82.0,NBA,37.6,1.8,2.6,SF,28.6,1987,0.9,DEN,2.6,4.2
34.0,4.7,0.3,2.6,0.495,0.496,10.5,21.2,0.0,0.0,0.1,0.495,10.5,21.3,0.828,3.9,4.7,80.0,80.0,NBA,35.2,2.1,2.4,SF,25.0,1988,0.9,DEN,2.3,4.7
35.0,4.7,0.1,2.2,0.492,0.492,11.2,22.8,0.25,0.0,0.1,0.491,11.3,22.9,0.858,4.0,4.6,82.0,82.0,NBA,36.5,1.8,2.1,SF,26.5,1989,0.8,DEN,2.4,4.0
36.0,2.8,0.3,2.1,0.492,0.491,7.9,16.1,0.4,0.0,0.1,0.491,7.9,16.2,0.88,2.0,2.3,80.0,80.0,NBA,27.6,1.5,1.6,SF,17.9,1990,0.6,DEN,1.2,3.6
37.0,1.3,0.3,1.8,0.439,0.439,4.1,9.3,0.0,0.0,0.0,0.439,4.1,9.3,0.85,1.5,1.8,79.0,26.0,NBA,22.1,1.4,1.8,SF,9.7,1991,0.5,DAL,1.3,3.2
