article_url,date,headline
https://aroyalpain.com/2019/11/15/sacramento-kings-lakers-defense/,2019/11/15,A Royal Pain: Defense Will Be Key In Game Against Lakers
https://lakeshowlife.com/2019/11/15/lebron-james-kawhi-leonards-load-management-double-standard/,2019/11/15,"Lake Show Life: LeBron James: Kawhi Leonard's ""Load Management"" a double standard?"
https://bluemanhoop.com/2019/11/15/golden-state-warriors-people-need-stop-acting-like-dynasty/,2019/11/15,Blue Man Hoop: Golden State Warriors: People need to stop acting like the dynasty is over
https://sircharlesincharge.com/2019/11/15/nba-players-flying-under-radar-wiggins/,2019/11/15,Sir Charles In Charge: NBA: 5 players that are quietly having great starts to 2019-20
