age,ast_per_g,blk_per_g,drb_per_g,efg_pct,fg2_pct,fg2_per_g,fg2a_per_g,fg3_pct,fg3_per_g,fg3a_per_g,fg_pct,fg_per_g,fga_per_g,ft_pct,ft_per_g,fta_per_g,g,gs,lg_id,mp_per_g,orb_per_g,pf_per_g,pos,pts_per_g,season,stl_per_g,team_id,tov_per_g,trb_per_g
21.0,5.8,0.7,6.4,0.51,0.512,9.6,18.8,0.333,1.6,4.8,0.476,11.2,23.6,0.737,6.7,9.1,13.0,13.0,NBA,46.5,1.7,3.4,SF,30.8,2006,1.4,CLE,5.0,8.1
22.0,8.0,0.5,6.8,0.442,0.448,7.3,16.2,0.28,1.1,3.8,0.416,8.3,20.0,0.755,7.4,9.8,20.0,20.0,NBA,44.7,1.3,2.0,SF,25.1,2007,1.7,CLE,3.3,8.1
23.0,7.6,1.3,6.6,0.444,0.463,7.3,15.8,0.257,1.4,5.4,0.411,8.7,21.2,0.731,9.4,12.8,13.0,13.0,NBA,42.5,1.2,2.5,SF,28.2,2008,1.8,CLE,4.2,7.8
24.0,7.3,0.9,7.8,0.553,0.571,9.4,16.5,0.333,1.9,5.8,0.51,11.4,22.3,0.749,10.6,14.2,14.0,14.0,NBA,41.4,1.4,2.1,SF,35.3,2009,1.6,CLE,2.7,9.1
25.0,7.6,1.8,7.9,0.55,0.534,7.8,14.6,0.4,1.8,4.5,0.502,9.6,19.2,0.733,8.0,10.9,11.0,11.0,NBA,41.8,1.4,2.1,SF,29.1,2010,1.7,CLE,3.8,9.3
26.0,5.9,1.2,6.8,0.507,0.5,6.9,13.7,0.353,1.4,4.0,0.466,8.3,17.8,0.763,5.7,7.4,21.0,21.0,NBA,43.9,1.6,2.7,SF,23.7,2011,1.7,MIA,3.1,8.4
27.0,5.6,0.7,7.4,0.522,0.549,10.0,18.1,0.259,1.0,3.7,0.5,10.9,21.8,0.739,7.5,10.2,23.0,23.0,NBA,42.7,2.3,2.0,SF,30.3,2012,1.9,MIA,3.5,9.7
28.0,6.6,0.8,6.8,0.532,0.524,7.7,14.6,0.375,1.6,4.2,0.491,9.2,18.8,0.777,5.9,7.6,23.0,23.0,NBA,41.7,1.6,1.9,PF,25.9,2013,1.8,MIA,3.0,8.4
29.0,4.8,0.6,6.4,0.616,0.618,7.9,12.7,0.407,1.8,4.3,0.565,9.6,17.0,0.806,6.5,8.0,20.0,20.0,NBA,38.2,0.7,2.3,PF,27.4,2014,1.8,MIA,3.1,7.1
30.0,8.5,1.1,9.5,0.44,0.465,10.1,21.7,0.227,1.3,5.5,0.417,11.4,27.2,0.731,6.1,8.4,20.0,20.0,NBA,42.2,1.9,2.9,SF,30.1,2015,1.7,CLE,4.1,11.3
31.0,7.6,1.3,7.5,0.564,0.579,8.9,15.4,0.34,1.5,4.5,0.525,10.4,19.9,0.661,3.9,5.9,21.0,21.0,NBA,39.1,2.0,2.6,SF,26.3,2016,2.3,CLE,3.6,9.5
32.0,7.8,1.3,8.1,0.622,0.625,9.6,15.4,0.411,2.4,5.9,0.565,12.1,21.3,0.698,6.3,9.0,18.0,18.0,NBA,41.3,1.1,2.4,SF,32.8,2017,1.9,CLE,4.0,9.1
33.0,9.0,1.0,7.7,0.577,0.596,10.7,18.0,0.342,1.8,5.2,0.539,12.5,23.2,0.746,7.2,9.7,22.0,22.0,NBA,41.9,1.4,2.4,PF,34.0,2018,1.4,CLE,4.3,9.1
