age,ast,blk,drb,fg,fg2,fg2a,fg3,fg3a,fga,ft,fta,game_score,lg_id,mp,orb,pf,pts,season,stl,team_id,tov,trb
28.0,3.0,1.0,5.0,6.0,4.0,6.0,4.0,8.0,9.0,3.0,4.0,16.3,NBA,30,2.0,4.0,17.0,2019,1.0,DAL,4.0,6.0
29.0,1.0,0.0,0.0,1.0,0.0,0.0,1.0,1.0,1.0,0.0,0.0,3.4,NBA,2,0.0,0.0,3.0,2020,0.0,DAL,0.0,0.0
