age,ast_per_poss,blk_per_poss,def_rtg,drb_per_poss,fg2_pct,fg2_per_poss,fg2a_per_poss,fg3_pct,fg3_per_poss,fg3a_per_poss,fg_pct,fg_per_poss,fga_per_poss,ft_pct,ft_per_poss,fta_per_poss,g,gs,lg_id,mp,off_rtg,orb_per_poss,pf_per_poss,pos,pts_per_poss,season,stl_per_poss,team_id,tov_per_poss,trb_per_poss
22.0,8.4,0.5,109.0,3.1,0.313,5.2,16.5,0.233,0.9,3.8,0.298,6.0,20.2,0.694,5.4,7.8,37.0,3.0,NBA,402.0,79.0,0.9,3.8,SG,18.4,1990,2.3,CLE,6.4,4.0
23.0,10.2,0.8,110.0,2.6,0.443,4.8,11.0,0.333,0.2,0.5,0.438,5.0,11.5,0.813,4.7,5.8,66.0,2.0,NBA,1207.0,103.0,1.7,4.7,SF,14.9,1991,2.5,CLE,4.5,4.3
24.0,5.9,0.2,111.0,3.7,0.442,6.2,14.1,0.125,0.4,2.9,0.387,6.6,17.0,0.842,5.9,7.0,25.0,0.0,NBA,270.0,93.0,1.1,4.2,SF-SG,19.4,1992,2.4,TOT,5.1,4.8
24.0,4.7,0.0,113.0,3.7,0.273,2.8,10.3,0.0,0.0,0.9,0.25,2.8,11.2,0.889,7.5,8.4,4.0,0.0,NBA,54.0,94.0,2.8,2.8,SG,13.1,1992,0.9,CLE,3.7,6.6
24.0,6.1,0.2,111.0,3.6,0.47,7.1,15.0,0.133,0.5,3.4,0.407,7.5,18.4,0.828,5.5,6.6,21.0,0.0,NBA,216.0,93.0,0.7,4.6,SF,20.9,1992,2.7,MIA,5.5,4.3
