lg_id,salary,season,team_name
NBA,273000.0,1985,New York Knicks
NBA,300000.0,1986,New York Knicks
NBA,325000.0,1987,New York Knicks
NBA,325000.0,1988,New York Knicks
NBA,375000.0,1989,New York Knicks
NBA,835000.0,1991,New York Knicks
NBA,813000.0,1992,Phoenix Suns
NBA,350000.0,1993,Chicago Bulls
