age,ast,ast_per_g,blk,college_id,fg,fg3,fg3_pct,fg3a,fg_pct,fga,ft,ft_pct,fta,g,mp,mp_per_g,orb,pf,pts,pts_per_g,season,stl,tov,trb,trb_per_g
18.0,27.0,0.8,4.0,OKSTATE,50.0,15.0,0.441,34.0,0.467,107.0,28.0,0.757,37.0,32.0,0.0,0.0,0.0,0.0,143.0,4.5,2006,17.0,0.0,64.0,2.0
19.0,66.0,1.9,11.0,OKSTATE,104.0,48.0,0.421,114.0,0.402,259.0,84.0,0.857,98.0,34.0,0.0,0.0,0.0,0.0,340.0,10.0,2007,47.0,0.0,141.0,4.1
20.0,47.0,1.4,6.0,OKSTATE,118.0,33.0,0.277,119.0,0.408,289.0,79.0,0.832,95.0,33.0,0.0,0.0,0.0,0.0,348.0,10.5,2008,48.0,88.0,140.0,4.2
21.0,67.0,1.9,12.0,OKSTATE,168.0,57.0,0.377,151.0,0.488,344.0,95.0,0.785,121.0,35.0,0.0,0.0,0.0,0.0,488.0,13.9,2009,61.0,65.0,167.0,4.8
