age,ast,blk,drb,efg_pct,fg,fg2,fg2_pct,fg2a,fg3,fg3_pct,fg3a,fg_pct,fga,ft,ft_pct,fta,g,gs,lg_id,mp,orb,pf,pos,pts,season,stl,team_id,tov,trb
21.0,20.0,50.0,153.0,0.461,141.0,137.0,0.463,296.0,4.0,0.286,14.0,0.455,310.0,54.0,0.659,82.0,76.0,1.0,NBA,1107.0,77.0,142.0,PF,340.0,2008,22.0,PHI,48.0,230.0
23.0,33.0,28.0,81.0,0.46,75.0,65.0,0.448,145.0,10.0,0.345,29.0,0.431,174.0,29.0,0.69,42.0,56.0,2.0,NBA,658.0,54.0,110.0,PF,189.0,2010,21.0,PHI,35.0,135.0
24.0,36.0,32.0,152.0,0.443,136.0,136.0,0.446,305.0,0.0,0.0,2.0,0.443,307.0,59.0,0.843,70.0,77.0,6.0,NBA,1102.0,89.0,150.0,C,331.0,2011,26.0,NOH,53.0,241.0
25.0,34.0,41.0,124.0,0.522,181.0,180.0,0.531,339.0,1.0,0.111,9.0,0.52,348.0,33.0,0.702,47.0,40.0,29.0,NBA,947.0,72.0,102.0,PF,396.0,2012,21.0,NOH,40.0,196.0
26.0,34.0,45.0,122.0,0.49,167.0,167.0,0.496,337.0,0.0,0.0,4.0,0.49,341.0,86.0,0.843,102.0,51.0,0.0,NBA,876.0,64.0,123.0,C,420.0,2013,15.0,NOH,55.0,186.0
27.0,29.0,29.0,130.0,0.465,131.0,131.0,0.465,282.0,0.0,0.0,0.0,0.465,282.0,39.0,0.78,50.0,31.0,27.0,NBA,830.0,51.0,100.0,PF,301.0,2014,11.0,NOP,28.0,181.0
28.0,140.0,44.0,226.0,0.447,257.0,242.0,0.44,550.0,15.0,0.357,42.0,0.434,592.0,127.0,0.83,153.0,82.0,31.0,NBA,1785.0,98.0,205.0,C,656.0,2015,32.0,NYK,104.0,324.0
29.0,62.0,65.0,166.0,0.489,244.0,240.0,0.493,487.0,4.0,0.25,16.0,0.485,503.0,54.0,0.806,67.0,76.0,2.0,NBA,1181.0,53.0,163.0,C,546.0,2016,33.0,ORL,57.0,219.0
30.0,37.0,54.0,194.0,0.585,174.0,137.0,0.546,251.0,37.0,0.474,78.0,0.529,329.0,35.0,0.686,51.0,74.0,3.0,NBA,1068.0,64.0,168.0,C,420.0,2017,21.0,WAS,58.0,258.0
31.0,14.0,13.0,35.0,0.409,45.0,41.0,0.494,83.0,4.0,0.125,32.0,0.391,115.0,19.0,0.905,21.0,33.0,2.0,NBA,285.0,18.0,44.0,C,113.0,2018,3.0,WAS,16.0,53.0
32.0,14.0,7.0,36.0,0.432,21.0,12.0,0.364,33.0,9.0,0.346,26.0,0.356,59.0,14.0,0.875,16.0,20.0,1.0,NBA,190.0,16.0,30.0,C-PF,65.0,2019,3.0,TOT,13.0,52.0
32.0,12.0,5.0,26.0,0.459,15.0,11.0,0.407,27.0,4.0,0.4,10.0,0.405,37.0,10.0,0.833,12.0,12.0,1.0,NBA,130.0,11.0,21.0,C,44.0,2019,1.0,WAS,7.0,37.0
32.0,1.0,2.0,8.0,0.423,4.0,1.0,0.25,4.0,3.0,0.333,9.0,0.308,13.0,2.0,1.0,2.0,6.0,0.0,NBA,40.0,3.0,6.0,PF,13.0,2019,2.0,MIL,5.0,11.0
32.0,1.0,0.0,2.0,0.333,2.0,0.0,0.0,2.0,2.0,0.286,7.0,0.222,9.0,2.0,1.0,2.0,2.0,0.0,NBA,20.0,2.0,3.0,C,8.0,2019,0.0,NOP,1.0,4.0
