article_url,date,headline
https://lakeshowlife.com/2019/09/30/5-reasons-lakers-need-play-uptempo-game-season/,2019/09/30,Lake Show Life: 5 reasons why Lakers need to play an uptempo game this season
https://spacecityscoop.com/2019/09/21/houston-rockets-nene-nba-voided-deals/,2019/09/21,Space City Scoop: Houston Rockets Nene ordeal: 4 times the NBA voided deals
https://hoopshabit.com/2019/09/05/los-angeles-lakers-best-power-forwards-team-history/,2019/09/05,Hoops Habit: Los Angeles Lakers: 10 best power forwards in team history
https://thesmokingcuban.com/2019/08/03/dallas-mavericks-luka-doncic-jason-kidd-rookie-highlights/,2019/08/03,The Smoking Cuban: Dallas Mavericks: Luka Doncic and Jason Kidd rookie highlights
https://thejnotes.com/2019/06/11/utah-jazz-historical-finds-at-pick-no-23-in-the-nba-draft/,2019/06/11,Purple and Blues: Utah Jazz: Historical finds at pick No. 23 in the NBA Draft
