age,ast_per_g,blk_per_g,drb_per_g,efg_pct,fg2_pct,fg2_per_g,fg2a_per_g,fg3_pct,fg3_per_g,fg3a_per_g,fg_pct,fg_per_g,fga_per_g,ft_pct,ft_per_g,fta_per_g,g,gs,lg_id,mp_per_g,orb_per_g,pf_per_g,pos,pts_per_g,season,stl_per_g,team_id,tov_per_g,trb_per_g
22.0,0.7,0.0,0.5,0.397,0.386,0.7,1.7,0.286,0.2,0.6,0.359,0.8,2.4,0.667,0.5,0.7,33.0,1.0,NBA,5.8,0.2,0.6,PG,2.4,2007,0.0,DAL,0.4,0.8
23.0,1.3,0.0,1.0,0.479,0.431,1.1,2.6,0.389,0.5,1.2,0.418,1.6,3.9,0.8,0.6,0.8,44.0,9.0,NBA,10.5,0.1,1.1,PG,4.3,2008,0.3,DAL,0.8,1.1
24.0,3.4,0.1,1.8,0.491,0.474,2.4,5.1,0.357,0.7,1.9,0.442,3.1,7.1,0.753,0.9,1.2,79.0,15.0,NBA,20.3,0.5,1.5,SG,7.8,2009,0.5,DAL,1.3,2.2
25.0,3.3,0.1,1.7,0.493,0.476,2.3,4.7,0.357,0.7,2.0,0.44,3.0,6.8,0.844,1.0,1.2,78.0,18.0,NBA,19.8,0.2,1.5,PG,7.6,2010,0.4,DAL,1.3,1.9
26.0,3.9,0.0,1.6,0.49,0.476,2.7,5.7,0.349,0.8,2.3,0.439,3.5,8.0,0.847,1.6,1.9,81.0,2.0,NBA,20.6,0.4,1.7,PG,9.5,2011,0.4,DAL,1.7,2.0
27.0,5.7,0.0,2.4,0.463,0.415,2.8,6.7,0.371,1.3,3.5,0.4,4.1,10.2,0.776,1.9,2.4,41.0,11.0,NBA,25.2,0.3,1.5,PG,11.3,2012,0.5,MIN,2.5,2.8
28.0,4.0,0.0,2.3,0.481,0.458,3.0,6.5,0.346,1.3,3.8,0.417,4.3,10.2,0.784,1.4,1.8,74.0,2.0,NBA,23.1,0.5,1.8,PG,11.3,2013,0.4,MIN,2.0,2.8
29.0,3.8,0.0,1.7,0.443,0.426,2.3,5.4,0.316,0.9,2.9,0.387,3.2,8.3,0.79,1.0,1.3,79.0,1.0,NBA,18.6,0.2,1.6,PG,8.4,2014,0.3,MIN,1.6,1.9
30.0,3.4,0.0,1.4,0.47,0.463,2.2,4.8,0.323,0.7,2.2,0.42,2.9,7.0,0.809,1.0,1.2,77.0,10.0,NBA,17.7,0.3,1.4,PG,7.5,2015,0.4,DAL,0.9,1.7
31.0,4.1,0.0,1.7,0.516,0.481,2.9,6.1,0.385,1.4,3.5,0.446,4.3,9.6,0.771,1.0,1.3,74.0,16.0,NBA,22.5,0.4,1.5,PG,10.9,2016,0.4,DAL,1.5,2.1
32.0,5.5,0.0,2.1,0.491,0.456,2.5,5.6,0.358,1.5,4.2,0.414,4.1,9.8,0.863,1.3,1.5,35.0,6.0,NBA,22.0,0.3,0.9,PG,10.9,2017,0.4,DAL,1.8,2.4
33.0,6.3,0.0,2.7,0.522,0.499,2.7,5.5,0.367,1.7,4.5,0.439,4.4,10.0,0.784,1.2,1.5,69.0,10.0,NBA,23.2,0.2,1.2,PG,11.6,2018,0.5,DAL,2.1,2.9
34.0,5.6,0.0,2.2,0.468,0.479,3.2,6.8,0.297,1.0,3.4,0.418,4.2,10.1,0.705,1.4,2.1,38.0,0.0,NBA,19.8,0.3,1.3,PG,10.9,2019,0.6,DAL,1.9,2.5
35.0,3.0,0.0,0.0,0.75,0.0,0.0,2.0,0.75,3.0,4.0,0.5,3.0,6.0,1.0,2.0,2.0,1.0,0.0,NBA,16.0,1.0,0.0,PG,11.0,2020,0.0,DAL,2.0,1.0
