age,ast_per_poss,blk_per_poss,def_rtg,drb_per_poss,fg2_pct,fg2_per_poss,fg2a_per_poss,fg3_pct,fg3_per_poss,fg3a_per_poss,fg_pct,fg_per_poss,fga_per_poss,ft_pct,ft_per_poss,fta_per_poss,g,gs,lg_id,mp,off_rtg,orb_per_poss,pf_per_poss,pos,pts_per_poss,season,stl_per_poss,team_id,tov_per_poss,trb_per_poss
24.0,3.5,1.3,112.0,6.6,0.4,7.1,17.7,0.0,0.0,0.0,0.4,7.1,17.7,0.5,0.9,1.8,17.0,0.0,NBA,106.0,83.0,5.3,7.5,PF,15.0,1989,0.4,TOT,4.4,11.9
24.0,4.1,1.4,111.0,7.4,0.44,7.4,16.9,0.0,0.0,0.0,0.44,7.4,16.9,0.5,0.7,1.4,10.0,0.0,NBA,68.0,87.0,3.4,6.1,PF,15.5,1989,0.7,LAC,4.1,10.8
24.0,2.6,1.3,113.0,5.1,0.333,6.4,19.1,0.0,0.0,0.0,0.333,6.4,19.1,0.5,1.3,2.6,7.0,0.0,NBA,38.0,78.0,8.9,10.2,PF,14.0,1989,0.0,MIA,5.1,14.0
26.0,1.5,1.5,109.0,5.3,0.406,9.9,24.4,0.0,0.0,0.0,0.406,9.9,24.4,0.9,6.9,7.6,19.0,0.0,NBA,64.0,98.0,5.3,9.1,PF,26.7,1991,0.8,BOS,4.6,10.7
27.0,5.8,1.9,106.0,5.8,0.5,5.8,11.6,0.0,0.0,1.9,0.429,5.8,13.5,0.5,1.9,3.9,5.0,0.0,NBA,26.0,76.0,3.9,9.7,PF,13.5,1992,3.9,MIL,7.7,9.7
