age,ast,ast_per_g,blk,college_id,fg,fg3,fg3_pct,fg3a,fg_pct,fga,ft,ft_pct,fta,g,mp,mp_per_g,orb,pf,pts,pts_per_g,season,stl,tov,trb,trb_per_g
18.0,0.0,0.0,0.0,MICHIGAN,217.0,0.0,0.0,0.0,0.494,439.0,97.0,0.795,122.0,27.0,0.0,0.0,0.0,0.0,531.0,19.7,1978,0.0,0.0,132.0,4.9
19.0,0.0,0.0,0.0,MICHIGAN,207.0,0.0,0.0,0.0,0.456,454.0,97.0,0.664,146.0,27.0,0.0,0.0,0.0,0.0,511.0,18.9,1979,0.0,0.0,150.0,5.6
20.0,0.0,0.0,0.0,MICHIGAN,277.0,0.0,0.0,0.0,0.474,584.0,111.0,0.698,159.0,30.0,0.0,0.0,0.0,0.0,665.0,22.2,1980,0.0,0.0,130.0,4.3
21.0,0.0,0.0,0.0,MICHIGAN,309.0,0.0,0.0,0.0,0.515,600.0,114.0,0.675,169.0,30.0,1070.0,35.7,0.0,0.0,732.0,24.4,1981,0.0,0.0,118.0,3.9
