age,ast,blk,drb,fg,fg2,fg2a,fg3,fg3a,fga,ft,fta,game_score,lg_id,mp,orb,pf,pts,season,stl,team_id,tov,trb
22.0,2.0,0.0,0.0,9.0,9.0,0.0,0.0,0.0,12.0,9.0,12.0,0.0,NBA,0.0,0.0,5.0,27.0,1982,0.0,LAL,0.0,6.0
23.0,4.0,0.0,0.0,9.0,9.0,0.0,1.0,0.0,15.0,3.0,4.0,0.0,NBA,0.0,0.0,6.0,19.0,1983,0.0,LAL,0.0,7.0
24.0,5.0,1.0,4.0,16.0,16.0,22.0,2.0,3.0,25.0,4.0,6.0,27.5,NBA,0.0,6.0,5.0,33.0,1984,4.0,LAL,5.0,8.0
25.0,5.0,3.0,5.0,18.0,18.0,24.0,4.0,5.0,25.0,7.0,10.0,32.8,NBA,0.0,6.0,6.0,41.0,1985,3.0,LAL,5.0,9.0
26.0,5.0,1.0,6.0,15.0,13.0,20.0,3.0,8.0,24.0,3.0,4.0,24.7,NBA,0.0,4.0,5.0,34.0,1986,4.0,LAL,4.0,9.0
27.0,12.0,1.0,7.0,14.0,13.0,23.0,4.0,8.0,30.0,7.0,8.0,23.2,NBA,0.0,6.0,6.0,31.0,1987,4.0,ATL,6.0,10.0
28.0,6.0,1.0,6.0,12.0,10.0,20.0,5.0,9.0,25.0,7.0,10.0,23.6,NBA,0.0,4.0,4.0,30.0,1988,4.0,TOT,4.0,8.0
28.0,4.0,0.0,2.0,8.0,6.0,8.0,2.0,4.0,12.0,2.0,4.0,14.5,NBA,0.0,2.0,4.0,18.0,1988,3.0,ATL,2.0,4.0
28.0,6.0,1.0,6.0,12.0,10.0,20.0,5.0,9.0,25.0,7.0,10.0,23.6,NBA,0.0,4.0,4.0,30.0,1988,4.0,SAC,4.0,8.0
29.0,6.0,2.0,5.0,15.0,14.0,21.0,5.0,8.0,24.0,4.0,7.0,24.3,NBA,0.0,4.0,6.0,33.0,1989,5.0,NJN,5.0,6.0
30.0,4.0,1.0,6.0,10.0,9.0,16.0,4.0,7.0,19.0,3.0,6.0,21.7,NBA,0.0,4.0,5.0,25.0,1990,2.0,PHO,3.0,6.0
