article_url,date,headline
https://raptorsrapture.com/2019/10/04/toronto-raptors-hollis-jefferson-scenarios/,2019/10/04,Raptors Rapture: Toronto Raptors: Best and worst-case scenario for Rondae Hollis-Jefferson
https://thesixersense.com/2019/09/22/philadelphia-76ers-could-trademark-trust-the-process/,2019/09/22,The Sixer Sense: Could the Philadelphia 76ers trademark 'Trust the Process'?
https://section215.com/2019/08/28/philadelphia-76ers-old-players/,2019/08/28,Section 215: Why are the Philadelphia 76ers trying out so many old players?
