age,avg_dist,fg2_dunk,fg2_pct,fg2_pct_ast,fg2a_pct_fga,fg3_heave,fg3_pct,fg3_pct_ast,fg3_pct_corner,fg3a_heave,fg3a_pct_fga,fg_pct,fg_pct_00_03,fg_pct_03_10,fg_pct_10_16,fg_pct_16_xx,g,lg_id,mp,pct_fg2_dunk,pct_fg3a_corner,pct_fga_00_03,pct_fga_03_10,pct_fga_10_16,pct_fga_16_xx,pos,season,team_id
19.0,7.7,3.0,0.414,0.276,0.814,0.0,0.25,0.75,0.5,0.0,0.186,0.384,0.453,0.222,0.5,0.333,35.0,NBA,272.0,0.035,0.125,0.616,0.105,0.023,0.07,SG,2013,MEM
20.0,8.6,29.0,0.492,0.38,0.767,2.0,0.213,0.65,0.133,8.0,0.233,0.427,0.565,0.284,0.455,0.25,72.0,NBA,1765.0,0.038,0.08,0.561,0.183,0.014,0.01,PG,2014,PHI
21.0,10.6,14.0,0.473,0.37,0.673,0.0,0.261,0.703,0.222,6.0,0.327,0.403,0.555,0.254,0.0,0.0,30.0,NBA,895.0,0.037,0.063,0.507,0.145,0.014,0.007,PG,2015,PHI
22.0,8.4,0.0,0.396,0.158,0.738,0.0,0.176,1.0,0.0,0.0,0.262,0.338,0.486,0.0,0.0,1.0,8.0,NBA,144.0,0.0,0.059,0.569,0.123,0.031,0.015,PG,2016,PHI
