age,ast_per_poss,blk_per_poss,def_rtg,drb_per_poss,fg2_pct,fg2_per_poss,fg2a_per_poss,fg3_pct,fg3_per_poss,fg3a_per_poss,fg_pct,fg_per_poss,fga_per_poss,ft_pct,ft_per_poss,fta_per_poss,g,gs,lg_id,mp,off_rtg,orb_per_poss,pf_per_poss,pos,pts_per_poss,season,stl_per_poss,team_id,tov_per_poss,trb_per_poss
26.0,4.8,0.0,112.0,2.4,0.143,2.4,16.7,0.0,0.0,7.1,0.1,2.4,23.8,0.5,4.8,9.5,8.0,0.0,NBA,22.0,52.0,2.4,4.8,SF,9.5,1992,2.4,CLE,2.4,4.8
31.0,2.5,0.0,114.0,0.0,0.143,1.3,8.8,0.333,2.5,7.6,0.231,3.8,16.4,0.0,0.0,0.0,8.0,0.0,NBA,45.0,60.0,1.3,15.2,PF,10.1,1997,1.3,ATL,5.1,1.3
