lg_id,salary,season,team_name
NBA,75000.0,1991,Cleveland Cavaliers
NBA,477000.0,1992,Cleveland Cavaliers
NBA,477000.0,1993,Cleveland Cavaliers
NBA,150000.0,1994,Los Angeles Clippers
NBA,181100.0,1997,Atlanta Hawks
NBA,1000000.0,1998,Cleveland Cavaliers
