age,ast_pct,blk_pct,bpm,bpm-dum,dbpm,drb_pct,dws,fg3a_per_fga_pct,fta_per_fga_pct,g,lg_id,mp,obpm,orb_pct,ows,per,pos,season,stl_pct,team_id,tov_pct,trb_pct,ts_pct,usg_pct,vorp,ws,ws-dum,ws_per_48
25.0,10.6,0.6,-3.5,0.0,-3.2,12.1,0.4,0.236,0.283,37.0,NBA,505.0,-0.3,6.0,0.2,14.7,PF,1991,1.5,CLE,11.5,9.1,0.525,27.9,-0.2,0.6,0.0,0.053
26.0,4.3,0.7,-7.1,0.0,-4.0,9.6,0.5,0.223,0.189,65.0,NBA,866.0,-3.1,4.7,-0.3,10.0,SF,1992,0.9,CLE,9.0,7.2,0.479,24.1,-1.1,0.3,0.0,0.015
27.0,1.9,0.0,-7.5,0.0,-7.2,5.3,0.0,0.255,0.51,10.0,NBA,88.0,-0.3,8.6,0.1,17.1,PF,1993,1.6,TOT,10.1,7.0,0.537,32.4,-0.1,0.2,0.0,0.084
27.0,2.1,0.0,-6.7,0.0,-6.4,5.9,0.0,0.222,0.444,8.0,NBA,79.0,-0.2,8.1,0.1,17.4,PF,1993,1.8,SAC,11.5,7.0,0.558,31.4,-0.1,0.1,0.0,0.088
27.0,0.0,0.0,-14.9,0.0,-14.0,0.0,0.0,0.5,1.0,2.0,NBA,9.0,-1.0,13.1,0.0,14.6,PF,1993,0.0,UTA,0.0,6.3,0.405,41.3,0.0,0.0,0.0,0.046
28.0,2.1,0.0,-7.6,0.0,-6.5,11.2,0.0,0.429,0.119,12.0,NBA,75.0,-1.1,8.6,0.0,12.5,PF,1994,1.3,LAC,4.3,9.9,0.464,25.5,-0.1,0.1,0.0,0.041
30.0,5.7,0.0,-5.9,0.0,-6.0,5.7,0.0,0.625,0.208,7.0,NBA,58.0,0.1,6.0,0.1,9.9,PF,1996,0.0,HOU,13.2,5.9,0.573,23.4,-0.1,0.1,0.0,0.058
31.0,3.8,0.1,-3.1,0.0,-3.1,6.7,0.7,0.592,0.118,53.0,NBA,945.0,-0.1,3.5,1.3,10.2,PF,1997,0.6,ATL,8.3,5.1,0.553,17.5,-0.3,2.0,0.0,0.103
32.0,5.3,0.5,-5.4,0.0,-3.6,9.5,0.2,0.424,0.373,28.0,NBA,166.0,-1.9,1.5,0.2,10.6,PF,1998,0.3,CLE,14.9,5.5,0.582,22.4,-0.1,0.3,0.0,0.101
