age,ast_per_poss,blk_per_poss,def_rtg,drb_per_poss,fg2_pct,fg2_per_poss,fg2a_per_poss,fg3_pct,fg3_per_poss,fg3a_per_poss,fg_pct,fg_per_poss,fga_per_poss,ft_pct,ft_per_poss,fta_per_poss,g,gs,lg_id,mp,off_rtg,orb_per_poss,pf_per_poss,pos,pts_per_poss,season,stl_per_poss,team_id,tov_per_poss,trb_per_poss
24.0,10.7,0.0,108.0,3.4,0.382,4.5,11.7,0.2,1.0,5.2,0.327,5.5,16.9,0.5,1.7,3.4,19.0,0.0,NBA,149.0,80.0,1.7,1.7,PG,13.8,2013,3.4,PHO,5.5,5.2
25.0,6.0,0.3,113.0,4.3,0.385,3.3,8.5,0.375,1.8,4.8,0.381,5.1,13.3,0.833,0.5,0.6,71.0,0.0,NBA,1048.0,87.0,0.6,3.8,PG,12.4,2014,2.1,UTA,3.8,4.9
