age,ast,ast_per_g,blk,college_id,fg,fg3,fg3_pct,fg3a,fg_pct,fga,ft,ft_pct,fta,g,mp,mp_per_g,orb,pf,pts,pts_per_g,season,stl,tov,trb,trb_per_g
19.0,31.0,1.0,41.0,LSU,138.0,3.0,0.25,12.0,0.513,269.0,127.0,0.698,182.0,30.0,876.0,29.2,0.0,0.0,406.0,13.5,2005,29.0,0.0,263.0,8.8
20.0,50.0,1.4,41.0,LSU,250.0,6.0,0.261,23.0,0.495,505.0,163.0,0.676,241.0,36.0,1144.0,31.8,0.0,0.0,669.0,18.6,2006,47.0,0.0,350.0,9.7
21.0,66.0,2.3,28.0,LSU,178.0,17.0,0.347,49.0,0.484,368.0,139.0,0.713,195.0,29.0,1016.0,35.0,0.0,0.0,512.0,17.7,2007,32.0,0.0,303.0,10.4
