age,ast,ast_per_g,blk,college_id,fg,fg3,fg3_pct,fg3a,fg_pct,fga,ft,ft_pct,fta,g,mp,mp_per_g,orb,pf,pts,pts_per_g,season,stl,tov,trb,trb_per_g
18.0,48.0,1.7,16.0,INDIANA,199.0,25.0,0.49,51.0,0.572,348.0,72.0,0.75,96.0,29.0,928.0,32.0,0.0,78.0,495.0,17.1,1990,24.0,51.0,133.0,4.6
19.0,47.0,1.4,13.0,INDIANA,289.0,43.0,0.473,91.0,0.596,485.0,113.0,0.801,141.0,34.0,1029.0,30.3,0.0,97.0,734.0,21.6,1991,24.0,77.0,188.0,5.5
20.0,48.0,1.4,6.0,INDIANA,227.0,33.0,0.384,86.0,0.522,435.0,112.0,0.8,140.0,34.0,991.0,29.1,0.0,84.0,599.0,17.6,1992,36.0,64.0,166.0,4.9
21.0,84.0,2.4,10.0,INDIANA,303.0,47.0,0.427,110.0,0.549,552.0,132.0,0.795,166.0,35.0,1181.0,33.7,0.0,76.0,785.0,22.4,1993,33.0,85.0,223.0,6.4
