age,ast_per_poss,blk_per_poss,def_rtg,drb_per_poss,fg2_pct,fg2_per_poss,fg2a_per_poss,fg3_pct,fg3_per_poss,fg3a_per_poss,fg_pct,fg_per_poss,fga_per_poss,ft_pct,ft_per_poss,fta_per_poss,g,gs,lg_id,mp,off_rtg,orb_per_poss,pf_per_poss,pos,pts_per_poss,season,stl_per_poss,team_id,tov_per_poss,trb_per_poss
22.0,3.9,0.3,114.0,3.2,0.484,10.2,21.0,0.043,0.0,0.7,0.47,10.2,21.7,0.77,3.9,5.0,65.0,21.0,NBA,1604.0,102.0,2.7,4.6,SG,24.3,1994,2.0,WSB,3.4,5.9
23.0,3.4,0.4,113.0,4.1,0.492,8.0,16.2,0.339,1.8,5.4,0.453,9.8,21.6,0.812,3.3,4.1,78.0,71.0,NBA,2651.0,106.0,2.0,4.1,SG,24.8,1995,1.5,WSB,2.9,6.1
24.0,3.4,0.4,110.0,3.8,0.498,8.2,16.5,0.338,1.1,3.4,0.471,9.4,19.9,0.706,3.3,4.7,70.0,70.0,NBA,2324.0,104.0,1.5,4.5,SF,23.2,1996,1.5,WSB,2.8,5.3
25.0,2.5,0.4,108.0,4.3,0.521,7.9,15.1,0.133,0.1,0.6,0.505,8.0,15.7,0.693,2.0,3.0,79.0,79.0,NBA,2411.0,105.0,1.5,4.9,SG,18.0,1997,1.7,WSB,2.0,5.8
26.0,3.2,0.7,106.0,4.5,0.467,8.0,17.1,0.283,0.3,1.0,0.457,8.2,18.1,0.647,2.6,4.0,82.0,82.0,NBA,2841.0,102.0,1.5,4.9,SG,19.3,1998,1.8,WAS,1.9,6.0
27.0,3.1,0.7,105.0,4.6,0.434,6.9,16.0,0.216,0.3,1.6,0.414,7.3,17.5,0.493,1.4,2.8,50.0,18.0,NBA,1266.0,91.0,1.4,6.2,SG,16.3,1999,1.6,WAS,1.8,6.0
28.0,3.1,0.5,107.0,4.5,0.466,4.0,8.5,0.333,0.7,2.1,0.44,4.7,10.6,0.429,0.3,0.8,67.0,19.0,NBA,1309.0,96.0,0.9,6.1,SG,10.4,2000,1.7,BOS,1.8,5.3
29.0,3.0,0.7,109.0,5.1,0.333,3.4,10.2,0.0,0.0,0.0,0.333,3.4,10.2,0.5,0.3,0.7,9.0,5.0,NBA,153.0,79.0,1.7,4.7,SG,7.1,2001,1.4,DEN,1.7,6.8
30.0,3.6,0.7,110.0,6.0,0.485,7.3,15.0,0.0,0.0,0.1,0.481,7.3,15.2,0.687,1.5,2.2,68.0,47.0,NBA,1631.0,100.0,1.9,5.1,SG,16.1,2002,1.1,DEN,2.3,7.8
31.0,3.7,0.3,106.0,4.8,0.503,7.2,14.3,0.4,0.2,0.6,0.499,7.4,14.9,0.58,0.9,1.6,81.0,74.0,NBA,2351.0,100.0,1.7,5.1,SG,16.0,2003,1.5,UTA,2.5,6.5
32.0,3.5,0.3,106.0,4.7,0.489,7.2,14.7,0.0,0.0,0.3,0.481,7.2,14.9,0.61,1.2,2.0,79.0,7.0,NBA,2067.0,100.0,2.0,4.8,SF,15.6,2004,1.6,GSW,2.2,6.7
33.0,3.5,0.8,110.0,5.0,0.431,6.1,14.2,0.0,0.0,0.2,0.426,6.1,14.3,0.649,1.3,2.0,55.0,5.0,NBA,951.0,94.0,1.7,5.1,SG,13.5,2005,0.9,GSW,1.9,6.7
34.0,2.2,0.2,108.0,4.7,0.42,4.8,11.5,0.0,0.0,0.9,0.389,4.8,12.4,1.0,0.9,0.9,42.0,0.0,NBA,448.0,88.0,2.3,4.4,SF,10.6,2006,1.5,GSW,2.0,7.0
