age,ast_per_g,blk_per_g,drb_per_g,efg_pct,fg2_pct,fg2_per_g,fg2a_per_g,fg3_pct,fg3_per_g,fg3a_per_g,fg_pct,fg_per_g,fga_per_g,ft_pct,ft_per_g,fta_per_g,g,gs,lg_id,mp_per_g,orb_per_g,pf_per_g,pos,pts_per_g,season,stl_per_g,team_id,tov_per_g,trb_per_g
22.0,0.2,0.0,0.1,0.448,0.389,0.8,2.0,0.364,0.4,1.2,0.379,1.2,3.2,1.0,0.4,0.4,9.0,0.0,NBA,7.1,0.2,0.2,PG,3.3,2003,0.1,LAL,0.3,0.3
23.0,0.8,0.1,0.7,0.513,0.357,0.5,1.3,0.4,0.9,2.3,0.385,1.4,3.5,0.667,0.1,0.1,22.0,0.0,NBA,14.3,0.0,1.5,SG,3.7,2004,0.5,LAL,0.6,0.7
