age,ast_pct,blk_pct,bpm,bpm-dum,dbpm,drb_pct,dws,fg3a_per_fga_pct,fta_per_fga_pct,g,lg_id,mp,obpm,orb_pct,ows,per,pos,season,stl_pct,team_id,tov_pct,trb_pct,ts_pct,usg_pct,vorp,ws,ws-dum,ws_per_48
22.0,11.7,0.9,-7.2,0.0,-2.6,8.9,0.3,0.279,0.094,76.0,NBA,872.0,-4.6,3.3,-0.9,5.8,PG,2003,0.6,LAL,19.9,6.1,0.447,16.1,-1.1,-0.6,0.0,-0.033
23.0,7.8,1.2,-3.0,0.0,-1.5,7.1,1.0,0.319,0.12,72.0,NBA,1244.0,-1.4,1.8,0.5,10.4,SG,2004,1.4,LAL,9.5,4.4,0.505,18.2,-0.3,1.5,0.0,0.056
24.0,12.2,0.5,-3.8,0.0,-2.5,8.5,0.3,0.337,0.118,48.0,NBA,968.0,-1.2,2.3,-0.2,10.1,SG,2005,1.1,TOT,9.9,5.2,0.471,21.7,-0.4,0.1,0.0,0.003
24.0,4.8,0.8,-8.1,0.0,-1.8,8.6,0.0,0.5,0.1,14.0,NBA,91.0,-6.3,3.7,-0.2,1.3,SG,2005,1.2,LAL,12.6,6.2,0.287,11.9,-0.1,-0.2,0.0,-0.09
24.0,13.0,0.5,-3.3,0.0,-2.6,8.5,0.3,0.329,0.119,34.0,NBA,877.0,-0.7,2.1,-0.1,11.0,SG,2005,1.1,CHA,9.8,5.1,0.48,22.7,-0.3,0.2,0.0,0.013
25.0,7.7,0.9,-4.3,0.0,-1.7,9.5,0.7,0.35,0.164,47.0,NBA,1111.0,-2.6,1.8,-1.0,9.8,SG,2006,1.8,CHA,11.4,5.4,0.471,22.7,-0.6,-0.2,0.0,-0.01
27.0,9.3,1.0,-3.1,0.0,-1.3,11.0,1.2,0.46,0.074,71.0,NBA,1504.0,-1.9,1.3,-0.2,10.0,SG,2008,1.4,IND,9.5,6.1,0.5,18.7,-0.4,1.0,0.0,0.033
28.0,11.5,0.4,-5.7,0.0,-2.2,9.1,0.1,0.569,0.069,25.0,NBA,199.0,-3.6,0.0,-0.1,6.3,SG,2009,1.3,PHI,14.3,4.5,0.452,16.0,-0.2,0.0,0.0,-0.003
29.0,10.0,3.8,-4.5,0.0,1.7,10.0,0.1,0.273,0.0,7.0,NBA,58.0,-6.1,2.0,-0.1,4.8,SG,2010,1.8,LAC,21.4,6.0,0.409,10.9,0.0,0.0,0.0,-0.019
