age,ast_per_mp,blk_per_mp,drb_per_mp,fg2_pct,fg2_per_mp,fg2a_per_mp,fg3_pct,fg3_per_mp,fg3a_per_mp,fg_pct,fg_per_mp,fga_per_mp,ft_pct,ft_per_mp,fta_per_mp,g,gs,lg_id,mp,orb_per_mp,pf_per_mp,pos,pts_per_mp,season,stl_per_mp,team_id,tov_per_mp,trb_per_mp
24.0,1.5,0.6,5.5,0.483,5.3,10.9,0.0,0.0,0.2,0.475,5.3,11.1,0.667,2.3,3.4,5.0,0.0,NBA,191.0,0.8,4.3,PF,12.8,1984,0.9,SEA,1.7,6.2
27.0,2.3,0.9,4.2,0.457,8.1,17.7,0.333,0.4,1.3,0.449,8.5,19.0,0.808,5.8,7.2,14.0,14.0,NBA,498.0,2.3,3.7,PF,23.3,1987,0.9,SEA,2.5,6.5
28.0,2.4,0.2,4.9,0.562,10.7,19.1,0.0,0.0,0.4,0.549,10.7,19.5,0.829,6.2,7.5,5.0,5.0,NBA,168.0,1.7,5.1,PF,27.6,1988,0.6,SEA,2.8,6.6
29.0,3.3,1.1,7.9,0.464,7.9,17.1,0.409,0.7,1.6,0.459,8.6,18.7,0.859,4.9,5.7,12.0,12.0,NBA,495.0,1.6,3.2,PF,22.7,1989,0.9,PHO,2.8,9.5
30.0,1.8,0.4,5.1,0.438,6.6,15.1,0.263,0.3,1.1,0.425,6.9,16.2,0.879,6.8,7.8,16.0,16.0,NBA,612.0,1.2,3.2,PF,20.9,1990,0.4,PHO,2.9,6.3
31.0,2.5,1.3,5.3,0.443,6.8,15.5,0.0,0.0,1.3,0.409,6.8,16.7,0.737,3.5,4.8,4.0,4.0,NBA,142.0,0.5,3.0,PF,17.2,1991,1.8,PHO,3.0,5.8
32.0,3.5,0.9,4.3,0.449,6.5,14.5,0.571,0.7,1.3,0.459,7.2,15.8,0.844,5.0,5.9,7.0,0.0,NBA,194.0,1.5,4.6,PF,20.2,1992,0.4,PHO,2.8,5.8
33.0,1.1,1.0,4.0,0.388,5.9,15.3,0.4,0.2,0.5,0.388,6.1,15.8,0.815,4.2,5.2,24.0,1.0,NBA,376.0,2.2,5.6,PF,16.7,1993,0.6,PHO,2.5,6.2
34.0,1.3,1.0,3.2,0.389,3.9,10.0,0.0,0.0,0.8,0.361,3.9,10.7,0.793,2.5,3.2,16.0,0.0,NBA,325.0,1.8,5.5,PF,10.3,1994,0.6,UTA,0.9,5.0
35.0,1.2,0.0,6.0,0.526,6.0,11.4,0.333,0.6,1.8,0.5,6.6,13.2,0.692,5.4,7.8,5.0,0.0,NBA,60.0,1.8,10.8,PF,19.2,1995,1.2,UTA,1.8,7.8
