age,avg_dist,fg2_dunk,fg2_pct,fg2_pct_ast,fg2a_pct_fga,fg3_heave,fg3_pct,fg3_pct_ast,fg3_pct_corner,fg3a_heave,fg3a_pct_fga,fg_pct,fg_pct_00_03,fg_pct_03_10,fg_pct_10_16,fg_pct_16_xx,g,lg_id,mp,pct_fg2_dunk,pct_fg3a_corner,pct_fga_00_03,pct_fga_03_10,pct_fga_10_16,pct_fga_16_xx,pos,season,team_id
20.0,17.2,0.0,0.111,1.0,0.75,0.0,0.0,0.0,0.0,0.0,0.25,0.083,0.0,0.0,0.0,0.2,8.0,NBA,39.0,0.0,0.0,0.0,0.167,0.167,0.417,SG,2002,BOS
21.0,11.9,0.0,0.313,0.5,0.914,0.0,0.0,0.0,0.0,0.0,0.086,0.286,0.333,0.357,0.333,0.222,17.0,NBA,86.0,0.0,0.0,0.086,0.4,0.171,0.257,SG,2003,SEA
