age,avg_dist,fg2_dunk,fg2_pct,fg2_pct_ast,fg2a_pct_fga,fg3_heave,fg3_pct,fg3_pct_ast,fg3_pct_corner,fg3a_heave,fg3a_pct_fga,fg_pct,fg_pct_00_03,fg_pct_03_10,fg_pct_10_16,fg_pct_16_xx,g,lg_id,mp,pct_fg2_dunk,pct_fg3a_corner,pct_fga_00_03,pct_fga_03_10,pct_fga_10_16,pct_fga_16_xx,pos,season,team_id
33.0,22.3,1.0,0.467,0.721,0.302,0.0,0.404,0.953,0.475,0.0,0.698,0.423,0.636,0.5,0.455,0.435,61.0,NBA,1000.0,0.003,0.188,0.036,0.026,0.036,0.203,PF,2001,HOU
34.0,19.8,0.0,0.397,0.696,0.504,0.0,0.281,1.0,0.2,0.0,0.496,0.339,0.455,1.0,0.2,0.342,31.0,NBA,350.0,0.0,0.088,0.096,0.035,0.043,0.33,PF,2002,CHH
