age,and1s,astd_pts,drawn_offensive,drawn_shooting,fouls_offensive,fouls_shooting,g,lg_id,mp,own_shots_blk,pct_1,pct_2,pct_3,pct_4,pct_5,plus_minus_net,plus_minus_on,pos,season,team_id,tov_bad_pass,tov_lost_ball
33.0,1.0,96.0,0.0,2.0,2.0,43.0,61.0,NBA,1000.0,5.0,0.0,0.0,1.0,59.0,41.0,8.3,8.7,PF,2001,HOU,6.0,4.0
34.0,1.0,36.0,0.0,3.0,1.0,13.0,31.0,NBA,350.0,6.0,0.0,1.0,32.0,67.0,0.0,-8.1,-6.3,PF,2002,CHH,7.0,3.0
