age,ast_per_mp,blk_per_mp,drb_per_mp,fg2_pct,fg2_per_mp,fg2a_per_mp,fg3_pct,fg3_per_mp,fg3a_per_mp,fg_pct,fg_per_mp,fga_per_mp,ft_pct,ft_per_mp,fta_per_mp,g,gs,lg_id,mp,orb_per_mp,pf_per_mp,pos,pts_per_mp,season,stl_per_mp,team_id,tov_per_mp,trb_per_mp
23.0,1.4,0.4,4.5,0.432,3.9,9.1,0.2,0.4,2.1,0.389,4.3,11.1,0.933,2.9,3.1,22.0,0.0,NBA,175.0,1.0,6.4,SG,11.9,2006,1.0,TOT,2.7,5.6
23.0,2.8,0.0,5.7,0.455,4.7,10.4,0.2,0.9,4.7,0.375,5.7,15.2,1.0,3.8,3.8,6.0,0.0,NBA,38.0,0.9,4.7,SG,16.1,2006,1.9,HOU,4.7,6.6
23.0,1.8,0.0,5.4,0.0,0.0,1.8,0.25,1.8,7.2,0.2,1.8,9.0,1.0,3.6,3.6,3.0,0.0,NBA,20.0,0.0,5.4,SG,9.0,2006,0.0,CHI,1.8,5.4
23.0,0.9,0.6,4.0,0.438,4.3,9.8,0.0,0.0,0.3,0.424,4.3,10.2,0.889,2.5,2.8,13.0,0.0,NBA,117.0,1.2,7.1,SG,11.1,2006,0.9,CLE,2.2,5.2
24.0,1.1,0.2,3.3,0.483,3.1,6.3,0.273,0.7,2.4,0.425,3.7,8.7,0.889,1.7,2.0,14.0,1.0,NBA,165.0,1.3,5.5,SG,9.8,2007,0.9,POR,2.8,4.6
25.0,2.5,0.3,5.1,0.614,7.6,12.4,0.5,2.0,3.9,0.586,9.6,16.3,0.75,3.4,4.5,22.0,0.0,NBA,128.0,1.1,3.9,SF,24.5,2008,1.1,IND,2.8,6.2
26.0,1.7,0.2,3.9,0.453,4.5,10.0,0.303,1.1,3.5,0.414,5.6,13.5,0.806,2.6,3.3,52.0,6.0,NBA,684.0,1.1,4.3,SG,14.8,2009,0.5,IND,2.4,5.1
27.0,1.0,0.4,5.0,0.542,4.6,8.5,0.32,0.7,2.2,0.496,5.3,10.7,0.646,1.9,2.9,70.0,8.0,NBA,804.0,1.1,4.2,SG,13.3,2010,0.9,CHA,1.6,6.0
28.0,1.5,0.0,4.0,0.425,2.9,6.7,0.238,0.2,0.8,0.405,3.0,7.5,0.816,1.2,1.4,59.0,28.0,NBA,959.0,0.6,4.0,SG,7.4,2011,0.5,NJN,1.4,4.6
