age,ast_per_g,blk_per_g,drb_per_g,efg_pct,fg2_pct,fg2_per_g,fg2a_per_g,fg3_pct,fg3_per_g,fg3a_per_g,fg_pct,fg_per_g,fga_per_g,ft_pct,ft_per_g,fta_per_g,g,gs,lg_id,mp_per_g,orb_per_g,pf_per_g,pos,pts_per_g,season,stl_per_g,team_id,tov_per_g,trb_per_g
23.0,0.3,0.1,1.0,0.407,0.432,0.9,2.0,0.2,0.1,0.5,0.389,1.0,2.5,0.933,0.6,0.7,22.0,0.0,NBA,8.0,0.2,1.4,SG,2.6,2006,0.2,TOT,0.6,1.2
23.0,0.5,0.0,1.0,0.406,0.455,0.8,1.8,0.2,0.2,0.8,0.375,1.0,2.7,1.0,0.7,0.7,6.0,0.0,NBA,6.3,0.2,0.8,SG,2.8,2006,0.3,HOU,0.8,1.2
23.0,0.3,0.0,1.0,0.3,0.0,0.0,0.3,0.25,0.3,1.3,0.2,0.3,1.7,1.0,0.7,0.7,3.0,0.0,NBA,6.7,0.0,1.0,SG,1.7,2006,0.0,CHI,0.3,1.0
23.0,0.2,0.2,1.0,0.424,0.438,1.1,2.5,0.0,0.0,0.1,0.424,1.1,2.5,0.889,0.6,0.7,13.0,0.0,NBA,9.0,0.3,1.8,SG,2.8,2006,0.2,CLE,0.5,1.3
24.0,0.4,0.1,1.1,0.463,0.483,1.0,2.1,0.273,0.2,0.8,0.425,1.2,2.9,0.889,0.6,0.6,14.0,1.0,NBA,11.8,0.4,1.8,SG,3.2,2007,0.3,POR,0.9,1.5
25.0,0.4,0.0,0.8,0.647,0.614,1.2,2.0,0.5,0.3,0.6,0.586,1.5,2.6,0.75,0.5,0.7,22.0,0.0,NBA,5.8,0.2,0.6,SF,4.0,2008,0.2,IND,0.5,1.0
26.0,0.6,0.1,1.4,0.453,0.453,1.7,3.7,0.303,0.4,1.3,0.414,2.0,4.9,0.806,1.0,1.2,52.0,6.0,NBA,13.2,0.4,1.6,SG,5.4,2009,0.2,IND,0.9,1.8
27.0,0.3,0.1,1.6,0.529,0.542,1.5,2.7,0.32,0.2,0.7,0.496,1.7,3.4,0.646,0.6,0.9,70.0,8.0,NBA,11.5,0.3,1.3,SG,4.2,2010,0.3,CHA,0.5,1.9
28.0,0.7,0.0,1.8,0.418,0.425,1.3,3.0,0.238,0.1,0.4,0.405,1.4,3.4,0.816,0.5,0.6,59.0,28.0,NBA,16.3,0.3,1.8,SG,3.4,2011,0.2,NJN,0.6,2.1
