age,ast_pct,blk_pct,bpm,bpm-dum,dbpm,drb_pct,dws,fg3a_per_fga_pct,fta_per_fga_pct,g,lg_id,mp,obpm,orb_pct,ows,per,pos,season,stl_pct,team_id,tov_pct,trb_pct,ts_pct,usg_pct,vorp,ws,ws-dum,ws_per_48
23.0,9.5,3.7,0.3,0.0,1.6,13.8,1.5,0.016,0.341,62.0,NBA,1195.0,-1.4,7.3,0.6,13.0,PF,1985,1.2,ATL,20.0,10.6,0.578,18.6,0.7,2.1,0.0,0.084
24.0,8.0,3.4,0.7,0.0,1.3,15.3,0.4,0.0,0.29,17.0,NBA,258.0,-0.7,6.9,0.3,14.4,PF,1986,1.3,ATL,11.8,11.1,0.553,18.8,0.2,0.7,0.0,0.127
25.0,7.2,4.1,1.0,0.0,1.2,14.8,1.1,0.011,0.389,65.0,NBA,695.0,-0.2,9.4,1.1,15.5,PF,1987,1.0,ATL,11.4,12.1,0.551,20.7,0.5,2.2,0.0,0.149
26.0,10.2,3.4,1.7,0.0,1.4,14.7,1.8,0.008,0.352,80.0,NBA,1483.0,0.3,7.0,2.0,15.5,PF,1988,1.3,ATL,16.3,10.8,0.59,20.2,1.4,3.8,0.0,0.122
27.0,8.6,2.5,-0.3,0.0,0.4,12.5,1.4,0.002,0.323,78.0,NBA,1488.0,-0.7,7.6,1.9,12.7,PF,1989,1.0,ATL,13.2,10.0,0.541,17.0,0.6,3.3,0.0,0.106
28.0,10.8,2.4,-1.0,0.0,-1.1,13.8,1.1,0.01,0.413,77.0,NBA,1727.0,0.1,7.5,2.4,16.4,PF,1990,0.9,TOT,12.8,10.6,0.557,24.2,0.5,3.5,0.0,0.097
28.0,9.3,2.6,-0.7,0.0,-0.4,14.6,0.4,0.016,0.411,44.0,NBA,803.0,-0.3,7.0,1.1,13.7,PF,1990,0.9,ATL,15.6,10.7,0.572,18.1,0.3,1.5,0.0,0.092
28.0,12.1,2.2,-1.2,0.0,-1.7,13.2,0.7,0.006,0.414,33.0,NBA,924.0,0.5,8.0,1.3,18.8,PF,1990,0.8,SAC,11.3,10.6,0.549,29.4,0.2,1.9,0.0,0.101
29.0,14.1,2.5,0.7,0.0,-0.8,11.9,1.8,0.002,0.317,77.0,NBA,2527.0,1.5,7.1,3.6,18.3,PF,1991,0.9,SAC,10.9,9.4,0.554,27.2,1.7,5.4,0.0,0.103
30.0,5.1,3.2,-1.9,0.0,-0.1,12.6,2.5,0.007,0.29,81.0,NBA,1867.0,-1.8,7.6,1.5,13.5,PF,1992,0.9,SAS,12.1,10.1,0.534,21.2,0.1,4.0,0.0,0.102
31.0,7.8,2.8,0.8,0.0,0.6,15.8,2.3,0.007,0.318,71.0,NBA,1947.0,0.2,6.6,3.2,16.1,PF,1993,0.9,SAS,10.7,11.4,0.58,20.3,1.4,5.5,0.0,0.136
32.0,5.1,3.1,-3.0,0.0,-0.9,9.0,0.5,0.006,0.363,34.0,NBA,465.0,-2.1,3.1,0.7,12.8,PF,1994,1.0,SAS,7.5,6.2,0.534,19.3,-0.1,1.2,0.0,0.124
33.0,6.2,3.3,-0.1,0.0,0.5,13.0,1.9,0.007,0.368,78.0,NBA,1677.0,-0.6,6.4,2.4,13.9,C,1995,0.7,UTA,12.1,9.9,0.588,19.5,0.8,4.3,0.0,0.123
34.0,7.6,3.5,-1.9,0.0,0.6,10.1,1.5,0.006,0.282,80.0,NBA,1532.0,-2.6,5.8,0.6,10.6,SF,1996,1.0,UTA,12.0,8.0,0.506,19.5,0.0,2.1,0.0,0.065
35.0,8.2,3.6,-2.3,0.0,0.1,10.9,1.6,0.006,0.243,82.0,NBA,1460.0,-2.5,5.5,0.8,12.1,PF,1997,0.9,UTA,11.5,8.3,0.522,20.8,-0.1,2.4,0.0,0.079
36.0,7.2,3.7,-2.8,0.0,-0.4,9.6,0.7,0.0,0.302,66.0,NBA,1086.0,-2.4,5.1,0.8,9.8,PF,1998,0.5,UTA,11.5,7.5,0.513,17.8,-0.2,1.5,0.0,0.068
37.0,10.1,4.6,-5.3,0.0,0.1,15.9,0.1,0.019,0.135,18.0,NBA,152.0,-5.4,7.4,-0.1,8.9,PF,1999,0.4,HOU,14.0,11.9,0.427,19.8,-0.1,0.0,0.0,0.015
38.0,5.3,1.9,-6.8,0.0,-2.2,13.1,0.1,0.0,0.219,21.0,NBA,221.0,-4.6,4.3,0.0,7.5,SF,2000,0.7,VAN,11.4,8.7,0.477,16.3,-0.3,0.1,0.0,0.019
