age,ast,blk,drb,efg_pct,fg,fg2,fg2_pct,fg2a,fg3,fg3_pct,fg3a,fg_pct,fga,ft,ft_pct,fta,g,gs,lg_id,mp,orb,pf,pos,pts,season,stl,team_id,tov,trb
23.0,119.0,14.0,166.0,0.498,232.0,180.0,0.466,386.0,52.0,0.394,132.0,0.448,518.0,179.0,0.803,223.0,64.0,3.0,NBA,1459.0,31.0,117.0,SG,695.0,2019,28.0,NYK,116.0,197.0
24.0,12.0,3.0,11.0,0.603,16.0,7.0,0.5,14.0,9.0,0.45,20.0,0.471,34.0,16.0,0.762,21.0,8.0,1.0,NBA,117.0,1.0,19.0,SG,57.0,2020,2.0,NYK,14.0,12.0
