age,ast,ast_per_g,blk,college_id,fg,fg3,fg3_pct,fg3a,fg_pct,fga,ft,ft_pct,fta,g,mp,mp_per_g,orb,pf,pts,pts_per_g,season,stl,tov,trb,trb_per_g
18.0,16.0,0.5,5.0,WAKE,50.0,14.0,0.237,59.0,0.318,157.0,41.0,0.759,54.0,31.0,519.0,16.7,31.0,74.0,155.0,5.0,2013,6.0,37.0,77.0,2.5
19.0,22.0,0.7,11.0,WAKE,86.0,21.0,0.313,67.0,0.422,204.0,98.0,0.79,124.0,33.0,700.0,21.2,32.0,90.0,291.0,8.8,2014,7.0,48.0,127.0,3.8
21.0,46.0,1.2,10.0,GEORGEWASH,209.0,53.0,0.417,127.0,0.505,414.0,167.0,0.827,202.0,38.0,1157.0,30.4,76.0,95.0,638.0,16.8,2016,21.0,79.0,289.0,7.6
22.0,71.0,2.0,14.0,GEORGEWASH,200.0,67.0,0.409,164.0,0.448,446.0,173.0,0.848,204.0,35.0,1126.0,32.2,87.0,98.0,640.0,18.3,2017,19.0,93.0,294.0,8.4
