article_url,date,headline
https://lakeshowlife.com/2019/11/06/los-angeles-lakers-lebron-bench-bully-bulls-5-lessons/,2019/11/06,"Lake Show Life: Los Angeles Lakers: LeBron and the bench bully the Bulls, 5 lessons"
https://hoopshabit.com/2019/11/06/2020-nba-mock-draft-cole-anthony-top/,2019/11/06,Hoops Habit: Cole Anthony atop lottery prospects for 2020 NBA Draft
https://hoopshabit.com/2019/11/05/nba-draft-race-starts-cole-anthony-anthony-edwards/,2019/11/05,"Hoops Habit: Race between Cole Anthony, Anthony Edwards at top of 2020 NBA Draft starts now"
https://airalamo.com/2019/10/11/san-antonio-spurs-miss-playoffs/,2019/10/11,Air Alamo: Missing the playoffs wouldn't be the worst thing for the San Antonio Spurs
https://hoopshabit.com/2019/09/25/nba-draft-cole-anthony-deserves-top-pick-honors/,2019/09/25,Hoops Habit: NBA Draft: Cole Anthony deserves early top pick honors
