age,ast,blk,drb,fg,fg2,fg2a,fg3,fg3a,fga,ft,fta,game_score,lg_id,mp,orb,pf,pts,season,stl,team_id,tov,trb
24.0,8.0,1.0,4.0,4.0,3.0,7.0,2.0,3.0,9.0,4.0,7.0,15.2,NBA,0.0,2.0,5.0,14.0,1992,4.0,NYK,4.0,5.0
25.0,6.0,1.0,5.0,5.0,4.0,6.0,2.0,3.0,8.0,3.0,4.0,16.3,NBA,0.0,1.0,4.0,14.0,1993,2.0,NYK,2.0,6.0
26.0,8.0,1.0,3.0,5.0,3.0,8.0,3.0,7.0,13.0,3.0,4.0,13.4,NBA,0.0,2.0,5.0,16.0,1994,4.0,NYK,4.0,3.0
27.0,6.0,1.0,2.0,4.0,2.0,2.0,3.0,4.0,6.0,4.0,4.0,13.6,NBA,0.0,1.0,4.0,15.0,1995,1.0,NYK,4.0,2.0
30.0,3.0,1.0,3.0,5.0,2.0,4.0,3.0,7.0,10.0,1.0,2.0,4.6,NBA,0.0,2.0,6.0,13.0,1998,2.0,SEA,4.0,3.0
31.0,6.0,1.0,3.0,3.0,2.0,5.0,2.0,6.0,8.0,5.0,7.0,12.1,NBA,0.0,1.0,4.0,10.0,1999,4.0,POR,3.0,3.0
32.0,5.0,1.0,5.0,4.0,3.0,4.0,2.0,5.0,7.0,4.0,5.0,15.1,NBA,0.0,1.0,3.0,13.0,2000,2.0,POR,2.0,5.0
33.0,0.0,0.0,0.0,1.0,1.0,2.0,1.0,3.0,4.0,0.0,0.0,1.0,NBA,0.0,0.0,2.0,3.0,2001,1.0,POR,1.0,0.0
