age,ast_per_mp,blk_per_mp,drb_per_mp,fg2_pct,fg2_per_mp,fg2a_per_mp,fg3_pct,fg3_per_mp,fg3a_per_mp,fg_pct,fg_per_mp,fga_per_mp,ft_pct,ft_per_mp,fta_per_mp,g,gs,lg_id,mp,orb_per_mp,pf_per_mp,pos,pts_per_mp,season,stl_per_mp,team_id,tov_per_mp,trb_per_mp
24.0,6.9,0.2,2.2,0.412,2.4,5.7,0.417,0.8,2.0,0.413,3.2,7.8,0.606,3.4,5.6,12.0,0.0,NBA,213.0,0.7,4.7,PG,10.6,1992,2.7,NYK,2.2,2.9
25.0,7.8,0.1,3.9,0.457,3.2,6.9,0.214,0.5,2.1,0.4,3.6,9.0,0.571,1.2,2.1,15.0,0.0,NBA,240.0,0.6,3.9,PG,8.8,1993,1.9,NYK,1.6,4.5
26.0,4.9,0.7,1.5,0.403,2.2,5.5,0.295,1.5,5.0,0.352,3.7,10.6,0.583,1.2,2.0,25.0,3.0,NBA,436.0,0.7,4.5,PG,10.1,1994,1.6,NYK,2.6,2.2
27.0,4.0,0.5,2.1,0.533,2.1,4.0,0.304,1.9,6.1,0.395,4.0,10.1,0.909,2.7,2.9,11.0,0.0,NBA,135.0,0.5,7.2,PG,12.5,1995,0.5,NYK,1.6,2.7
30.0,3.1,0.3,2.1,0.333,2.1,6.4,0.263,1.5,5.8,0.3,3.7,12.2,0.375,0.9,2.4,9.0,0.0,NBA,118.0,0.9,5.2,PG,9.8,1998,1.5,SEA,3.4,3.1
31.0,5.1,0.2,1.6,0.417,1.6,3.8,0.258,1.3,5.0,0.327,2.9,8.8,0.676,3.7,5.4,13.0,0.0,NBA,225.0,0.6,4.0,PG,10.7,1999,2.1,POR,1.4,2.2
32.0,4.2,0.7,2.4,0.429,1.5,3.5,0.323,1.7,5.2,0.365,3.2,8.8,0.75,2.0,2.7,15.0,0.0,NBA,213.0,0.3,4.6,PG,10.1,2000,2.2,POR,2.0,2.7
33.0,0.0,0.0,0.0,0.333,2.1,6.4,0.333,2.1,6.4,0.333,4.2,12.7,0.0,0.0,0.0,2.0,0.0,NBA,17.0,0.0,4.2,PG,10.6,2001,2.1,POR,2.1,0.0
