lg_id,salary,season,team_name
NBA,865000.0,1992,New York Knicks
NBA,1067000.0,1993,New York Knicks
NBA,1269000.0,1994,New York Knicks
NBA,1471000.0,1995,New York Knicks
NBA,1673000.0,1996,Vancouver Grizzlies
NBA,1875000.0,1997,Vancouver Grizzlies
NBA,272250.0,1998,Seattle SuperSonics
NBA,1000000.0,1999,Portland Trail Blazers
NBA,1100000.0,2000,Portland Trail Blazers
NBA,3500000.0,2001,Portland Trail Blazers
NBA,3000000.0,2002,Chicago Bulls
NBA,1500000.0,2003,Chicago Bulls
