age,ast,ast_per_g,blk,college_id,fg,fg3,fg3_pct,fg3a,fg_pct,fga,ft,ft_pct,fta,g,mp,mp_per_g,orb,pf,pts,pts_per_g,season,stl,tov,trb,trb_per_g
19.0,112.0,4.0,8.0,PORTLAND,147.0,35.0,0.368,95.0,0.398,369.0,100.0,0.694,144.0,28.0,923.0,33.0,0.0,67.0,429.0,15.3,1987,54.0,71.0,121.0,4.3
21.0,239.0,6.6,8.0,UNLV,155.0,47.0,0.376,125.0,0.443,350.0,107.0,0.699,153.0,36.0,1025.0,28.5,0.0,111.0,464.0,12.9,1989,85.0,107.0,102.0,2.8
22.0,289.0,7.4,16.0,UNLV,145.0,45.0,0.375,120.0,0.457,317.0,101.0,0.682,148.0,39.0,1160.0,29.7,0.0,100.0,436.0,11.2,1990,106.0,121.0,116.0,3.0
23.0,310.0,8.9,14.0,UNLV,141.0,45.0,0.395,114.0,0.456,309.0,79.0,0.775,102.0,35.0,1100.0,31.4,0.0,68.0,406.0,11.6,1991,84.0,68.0,89.0,2.5
