age,ast_pct,blk_pct,bpm,bpm-dum,dbpm,drb_pct,dws,fg3a_per_fga_pct,fta_per_fga_pct,g,lg_id,mp,obpm,orb_pct,ows,per,pos,season,stl_pct,team_id,tov_pct,trb_pct,ts_pct,usg_pct,vorp,ws,ws-dum,ws_per_48
24.0,28.6,0.4,-2.8,0.0,-0.3,7.7,2.0,0.126,0.363,82.0,NBA,1510.0,-2.6,2.5,0.2,10.6,PG,1992,2.0,NYK,16.3,5.2,0.443,17.4,-0.3,2.2,0.0,0.07
25.0,33.3,0.5,1.1,0.0,2.3,8.1,3.6,0.072,0.379,70.0,NBA,1699.0,-1.3,2.8,1.0,13.7,PG,1993,3.4,NYK,17.5,5.6,0.469,15.1,1.3,4.6,0.0,0.131
26.0,27.3,0.5,1.0,0.0,1.6,8.1,3.9,0.28,0.294,80.0,NBA,1994.0,-0.6,2.5,1.6,13.0,PG,1994,3.0,NYK,16.5,5.4,0.487,17.0,1.5,5.5,0.0,0.132
27.0,27.4,0.6,0.1,0.0,-0.9,6.8,1.4,0.529,0.259,61.0,NBA,943.0,1.1,0.9,1.5,15.0,PG,1995,2.8,NYK,14.9,4.0,0.57,18.6,0.5,2.9,0.0,0.147
28.0,41.9,0.4,1.3,0.0,-1.6,8.4,1.9,0.347,0.38,69.0,NBA,2096.0,2.9,1.6,2.9,18.6,PG,1996,2.9,VAN,14.9,4.9,0.53,23.3,1.7,4.8,0.0,0.111
29.0,36.1,0.2,-0.3,0.0,-1.5,10.0,1.2,0.469,0.351,65.0,NBA,1863.0,1.3,1.5,2.3,16.6,PG,1997,3.8,VAN,18.1,5.7,0.526,17.8,0.8,3.5,0.0,0.09
30.0,32.1,0.2,0.2,0.0,-1.2,10.7,1.3,0.456,0.229,80.0,NBA,1021.0,1.4,2.1,1.4,16.8,PG,1998,3.4,SEA,19.1,6.5,0.545,21.6,0.6,2.7,0.0,0.127
31.0,21.1,0.3,3.0,0.0,0.7,6.8,1.5,0.498,0.355,50.0,NBA,806.0,2.4,2.1,1.3,16.6,PG,1999,4.4,POR,15.9,4.5,0.55,19.6,1.0,2.8,0.0,0.165
32.0,20.5,0.4,0.4,0.0,-0.9,8.4,1.8,0.56,0.274,82.0,NBA,1548.0,1.3,1.4,2.3,13.0,PG,2000,2.0,POR,15.4,5.1,0.551,16.4,0.9,4.1,0.0,0.128
33.0,14.8,0.3,-0.6,0.0,-1.7,5.4,0.7,0.628,0.138,58.0,NBA,856.0,1.0,3.0,0.9,12.0,PG,2001,2.5,POR,13.8,4.3,0.525,16.9,0.3,1.6,0.0,0.09
34.0,30.8,0.2,-2.7,0.0,-2.0,8.5,0.9,0.343,0.192,60.0,NBA,1514.0,-0.7,1.7,0.2,12.6,PG,2002,2.7,TOT,15.4,5.1,0.46,18.6,-0.3,1.1,0.0,0.036
34.0,35.7,0.3,-1.8,0.0,-2.0,9.0,0.6,0.314,0.244,36.0,NBA,961.0,0.2,1.9,0.6,14.2,PG,2002,2.7,CHI,15.4,5.3,0.475,18.0,0.0,1.2,0.0,0.059
34.0,22.4,0.1,-4.3,0.0,-2.1,7.6,0.3,0.388,0.112,24.0,NBA,553.0,-2.1,1.3,-0.4,10.0,PG,2002,2.7,MIL,15.4,4.6,0.436,19.7,-0.3,0.0,0.0,-0.004
