age,ast,blk,fg,fg3,fg3_pct,fg3a,fg_pct,fga,ft,ft_pct,fta,g,gs,lg_id,mp,orb,pf,pos,pts,season,stl,team_id,tov,trb
22.0,1.0,0.0,10.0,0.0,0.0,0.0,0.667,15.0,0.0,0.0,0.0,1.0,0.0,NBA,26,3.0,2.0,SF,20.0,2007,1.0,DEN,0.0,9.0
23.0,1.0,0.0,8.0,0.0,0.0,0.0,0.471,17.0,2.0,0.667,3.0,1.0,1.0,NBA,22,5.0,0.0,SF,18.0,2008,0.0,DEN,2.0,7.0
25.0,2.0,0.0,13.0,1.0,0.25,4.0,0.591,22.0,0.0,0.0,1.0,1.0,1.0,NBA,29,4.0,0.0,SF,27.0,2010,0.0,DEN,2.0,10.0
26.0,2.0,1.0,4.0,0.0,0.0,1.0,0.4,10.0,0.0,0.0,0.0,1.0,1.0,NBA,23,3.0,3.0,SF,8.0,2011,1.0,DEN,2.0,7.0
27.0,0.0,0.0,7.0,0.0,0.0,3.0,0.467,15.0,5.0,0.714,7.0,1.0,1.0,NBA,31,4.0,0.0,SF,19.0,2012,2.0,NYK,0.0,9.0
28.0,3.0,0.0,8.0,3.0,0.429,7.0,0.571,14.0,7.0,0.778,9.0,1.0,1.0,NBA,31,5.0,0.0,PF,26.0,2013,0.0,NYK,1.0,12.0
29.0,2.0,0.0,10.0,8.0,0.615,13.0,0.556,18.0,2.0,1.0,2.0,1.0,1.0,NBA,31,3.0,3.0,PF,30.0,2014,0.0,NYK,0.0,5.0
30.0,0.0,1.0,6.0,2.0,0.154,13.0,0.3,20.0,0.0,0.0,0.0,1.0,1.0,NBA,31,3.0,2.0,SF,14.0,2015,1.0,NYK,1.0,7.0
31.0,0.0,1.0,6.0,1.0,0.2,5.0,0.545,11.0,0.0,0.0,0.0,1.0,1.0,NBA,23,3.0,2.0,SF,13.0,2016,0.0,NYK,2.0,6.0
32.0,0.0,0.0,4.0,2.0,0.333,6.0,0.5,8.0,0.0,0.0,0.0,1.0,0.0,NBA,20,0.0,0.0,SF,10.0,2017,0.0,NYK,0.0,3.0
