age,ast_per_poss,blk_per_poss,def_rtg,drb_per_poss,fg2_pct,fg2_per_poss,fg2a_per_poss,fg3_pct,fg3_per_poss,fg3a_per_poss,fg_pct,fg_per_poss,fga_per_poss,ft_pct,ft_per_poss,fta_per_poss,g,gs,lg_id,mp,off_rtg,orb_per_poss,pf_per_poss,pos,pts_per_poss,season,stl_per_poss,team_id,tov_per_poss,trb_per_poss
19.0,3.9,0.7,105.0,5.4,0.444,9.5,21.5,0.322,1.2,3.7,0.426,10.7,25.2,0.777,7.0,9.0,82.0,82.0,NBA,2995.0,102.0,3.1,3.9,SF,29.6,2004,1.7,DEN,4.2,8.6
20.0,3.8,0.6,107.0,5.6,0.455,9.6,21.1,0.266,0.8,3.1,0.431,10.4,24.2,0.796,9.0,11.3,75.0,75.0,NBA,2608.0,103.0,2.8,4.5,SF,30.7,2005,1.3,DEN,4.4,8.4
21.0,3.8,0.7,108.0,4.7,0.506,12.5,24.7,0.243,0.6,2.6,0.481,13.1,27.3,0.808,10.0,12.3,80.0,80.0,NBA,2941.0,110.0,2.1,4.0,SF,36.9,2006,1.5,DEN,3.8,6.8
22.0,4.9,0.5,108.0,4.9,0.499,12.9,25.8,0.268,0.8,3.0,0.476,13.7,28.8,0.808,9.1,11.3,65.0,65.0,NBA,2486.0,109.0,2.8,4.0,SF,37.3,2007,1.5,DEN,4.6,7.7
23.0,4.4,0.7,107.0,6.7,0.509,11.5,22.6,0.354,1.0,2.8,0.492,12.5,25.4,0.786,8.0,10.1,77.0,77.0,NBA,2806.0,109.0,3.1,4.3,SF,33.9,2008,1.7,DEN,4.3,9.8
24.0,5.0,0.5,107.0,7.7,0.455,10.6,23.2,0.371,1.4,3.8,0.443,12.0,27.0,0.793,8.3,10.5,66.0,66.0,NBA,2277.0,105.0,2.4,4.4,SF,33.6,2009,1.7,DEN,4.5,10.1
25.0,4.3,0.6,109.0,5.8,0.478,12.1,25.3,0.316,1.1,3.6,0.458,13.2,28.9,0.83,9.8,11.8,69.0,69.0,NBA,2634.0,110.0,2.9,4.3,SF,37.4,2010,1.7,DEN,4.0,8.7
26.0,4.0,0.8,108.0,8.1,0.47,10.8,22.9,0.378,1.7,4.6,0.455,12.5,27.4,0.838,9.3,11.0,77.0,77.0,NBA,2751.0,109.0,2.2,4.1,SF,36.0,2011,1.2,TOT,3.8,10.3
26.0,4.0,0.9,107.0,8.6,0.47,11.2,23.8,0.333,1.2,3.6,0.452,12.4,27.4,0.823,9.7,11.8,50.0,50.0,NBA,1774.0,107.0,2.2,3.8,SF,35.6,2011,1.2,DEN,4.0,10.8
26.0,4.2,0.8,111.0,7.2,0.472,10.0,21.1,0.424,2.7,6.4,0.461,12.7,27.6,0.872,8.4,9.7,27.0,27.0,NBA,977.0,114.0,2.1,4.6,SF,36.5,2011,1.3,NYK,3.3,9.3
27.0,5.5,0.7,102.0,7.0,0.454,10.2,22.6,0.335,1.9,5.6,0.43,12.1,28.2,0.804,8.1,10.1,55.0,55.0,NBA,1876.0,106.0,2.4,4.3,SF,34.2,2012,1.7,NYK,4.0,9.4
28.0,3.7,0.7,108.0,7.0,0.476,11.0,23.2,0.379,3.4,8.9,0.449,14.4,32.1,0.83,9.2,11.0,67.0,67.0,NBA,2482.0,112.0,2.9,4.4,PF,41.4,2013,1.1,NYK,3.8,9.9
29.0,4.3,0.9,108.0,8.5,0.469,10.3,21.9,0.402,3.0,7.4,0.452,13.2,29.3,0.848,8.2,9.6,77.0,77.0,NBA,2982.0,113.0,2.6,4.0,PF,37.7,2014,1.7,NYK,3.5,11.1
30.0,4.5,0.6,110.0,7.1,0.474,10.9,23.1,0.341,2.2,6.6,0.444,13.2,29.7,0.797,7.0,8.7,40.0,40.0,NBA,1428.0,106.0,2.7,3.2,SF,35.6,2015,1.5,NYK,3.3,9.7
31.0,6.1,0.8,107.0,9.3,0.463,9.4,20.3,0.339,2.1,6.3,0.434,11.5,26.6,0.829,6.8,8.2,72.0,72.0,NBA,2530.0,107.0,2.0,3.7,SF,32.0,2016,1.3,NYK,3.6,11.3
32.0,4.2,0.7,113.0,7.4,0.466,8.9,19.1,0.359,3.0,8.3,0.433,11.9,27.4,0.833,6.0,7.2,74.0,74.0,NBA,2538.0,108.0,1.2,3.9,SF,32.7,2017,1.2,NYK,3.0,8.6
33.0,2.0,1.0,109.0,7.7,0.437,6.0,13.8,0.357,3.4,9.4,0.404,9.4,23.2,0.767,2.9,3.8,78.0,78.0,NBA,2501.0,104.0,1.3,3.9,PF,25.0,2018,0.9,OKC,2.0,9.0
34.0,0.8,1.2,112.0,7.5,0.491,4.7,9.5,0.328,3.5,10.7,0.405,8.2,20.2,0.682,2.5,3.7,10.0,2.0,NBA,294.0,103.0,1.5,5.3,PF,22.4,2019,0.7,HOU,1.3,9.0
