age,and1s,astd_pts,drawn_offensive,drawn_shooting,fouls_offensive,fouls_shooting,g,lg_id,mp,own_shots_blk,pct_1,pct_2,pct_3,pct_4,pct_5,plus_minus_net,plus_minus_on,pos,season,team_id,tov_bad_pass,tov_lost_ball
19.0,40.0,490.0,0.0,213.0,51.0,67.0,82.0,NBA,2995.0,138.0,0.0,4.0,88.0,8.0,0.0,-0.8,0.8,SF,2004,DEN,66.0,68.0
20.0,40.0,402.0,0.0,203.0,58.0,85.0,75.0,NBA,2608.0,120.0,0.0,3.0,86.0,12.0,0.0,1.8,2.7,SF,2005,DEN,65.0,60.0
21.0,66.0,475.0,13.0,285.0,47.0,95.0,80.0,NBA,2941.0,120.0,0.0,0.0,86.0,14.0,0.0,0.6,0.4,SF,2006,DEN,61.0,59.0
22.0,52.0,544.0,12.0,209.0,53.0,58.0,65.0,NBA,2486.0,104.0,0.0,15.0,81.0,5.0,0.0,0.3,2.0,SF,2007,DEN,71.0,63.0
23.0,43.0,567.0,12.0,224.0,55.0,77.0,77.0,NBA,2806.0,94.0,0.0,16.0,82.0,2.0,0.0,-3.3,2.6,SF,2008,DEN,68.0,63.0
24.0,38.0,480.0,10.0,196.0,39.0,67.0,66.0,NBA,2277.0,82.0,0.0,3.0,95.0,2.0,0.0,7.5,6.8,SF,2009,DEN,70.0,59.0
25.0,59.0,504.0,16.0,256.0,49.0,83.0,69.0,NBA,2634.0,109.0,0.0,0.0,83.0,17.0,0.0,3.4,5.3,SF,2010,DEN,60.0,61.0
26.0,65.0,517.0,12.0,270.0,50.0,85.0,77.0,NBA,2751.0,108.0,0.0,1.0,81.0,19.0,0.0,0.6,3.5,SF,2011,TOT,68.0,52.0
26.0,39.0,334.0,9.0,185.0,32.0,52.0,50.0,NBA,1774.0,87.0,0.0,0.0,77.0,23.0,0.0,-1.2,4.4,SF,2011,DEN,46.0,37.0
26.0,26.0,183.0,3.0,85.0,18.0,33.0,27.0,NBA,977.0,21.0,0.0,2.0,87.0,11.0,0.0,0.8,1.7,SF,2011,NYK,22.0,15.0
27.0,28.0,463.0,7.0,149.0,29.0,65.0,55.0,NBA,1876.0,72.0,0.0,1.0,73.0,26.0,0.0,-2.0,2.5,SF,2012,NYK,58.0,37.0
28.0,39.0,442.0,15.0,208.0,35.0,79.0,67.0,NBA,2482.0,88.0,0.0,0.0,18.0,78.0,3.0,3.4,5.7,PF,2013,NYK,55.0,59.0
29.0,41.0,588.0,11.0,203.0,40.0,90.0,77.0,NBA,2982.0,71.0,0.0,0.0,38.0,62.0,1.0,9.0,1.2,PF,2014,NYK,72.0,52.0
30.0,23.0,284.0,3.0,95.0,19.0,26.0,40.0,NBA,1428.0,36.0,0.0,0.0,79.0,21.0,0.0,9.4,-4.1,SF,2015,NYK,36.0,20.0
31.0,25.0,704.0,6.0,154.0,30.0,73.0,72.0,NBA,2530.0,76.0,0.0,2.0,91.0,8.0,0.0,5.7,-0.8,SF,2016,NYK,68.0,53.0
32.0,30.0,496.0,5.0,155.0,26.0,87.0,74.0,NBA,2538.0,37.0,0.0,0.0,69.0,31.0,0.0,-2.3,-4.7,SF,2017,NYK,69.0,42.0
33.0,13.0,262.0,8.0,80.0,20.0,89.0,78.0,NBA,2501.0,55.0,0.0,0.0,0.0,90.0,10.0,4.8,5.0,PF,2018,OKC,32.0,21.0
34.0,1.0,13.0,5.0,5.0,4.0,11.0,10.0,NBA,294.0,4.0,0.0,0.0,0.0,81.0,19.0,-18.1,-11.7,PF,2019,HOU,2.0,1.0
