age,ast_per_mp,blk_per_mp,drb_per_mp,fg2_pct,fg2_per_mp,fg2a_per_mp,fg3_pct,fg3_per_mp,fg3a_per_mp,fg_pct,fg_per_mp,fga_per_mp,ft_pct,ft_per_mp,fta_per_mp,g,gs,lg_id,mp,orb_per_mp,pf_per_mp,pos,pts_per_mp,season,stl_per_mp,team_id,tov_per_mp,trb_per_mp
22.0,2.9,0.0,7.4,0.267,2.3,8.6,0.0,0.0,0.0,0.267,2.3,8.6,0.0,0.0,0.0,12.0,0.0,NBA,63.0,6.9,5.1,C,4.6,1979,1.1,WSB,2.3,14.3
23.0,0.0,0.0,4.0,0.8,16.0,20.0,0.0,0.0,0.0,0.8,16.0,20.0,1.0,8.0,8.0,2.0,0.0,NBA,9.0,8.0,8.0,C,40.0,1980,0.0,WSB,12.0,12.0
24.0,3.6,1.8,8.0,0.491,6.0,12.3,0.0,0.0,0.0,0.491,6.0,12.3,0.692,2.0,2.9,7.0,0.0,NBA,161.0,2.7,3.4,C,14.1,1981,0.9,SAS,2.5,10.7
25.0,2.4,1.3,6.6,0.462,6.8,14.8,0.0,0.0,0.0,0.462,6.8,14.8,0.706,3.3,4.7,9.0,0.0,NBA,258.0,5.3,4.2,C,17.0,1982,0.8,SAS,2.8,11.9
28.0,1.4,0.5,6.1,0.667,6.5,9.8,0.0,0.0,0.0,0.667,6.5,9.8,0.833,2.3,2.8,4.0,4.0,NBA,77.0,4.2,6.5,C,15.4,1985,0.9,CHI,2.3,10.3
29.0,2.1,0.7,7.3,0.552,5.6,10.1,0.0,0.0,0.0,0.552,5.6,10.1,1.0,1.4,1.4,3.0,3.0,NBA,103.0,2.1,4.2,C,12.6,1986,0.3,CHI,2.1,9.4
30.0,2.1,0.9,4.1,0.455,3.0,6.5,0.0,0.0,0.0,0.455,3.0,6.5,0.778,2.1,2.7,3.0,3.0,NBA,122.0,2.1,1.8,C,8.0,1987,0.3,CHI,2.1,6.2
31.0,0.9,0.9,4.9,0.355,3.2,8.9,0.0,0.0,0.0,0.355,3.2,8.9,0.538,0.8,1.5,10.0,10.0,NBA,308.0,1.8,2.5,C,7.1,1988,0.4,CHI,1.4,6.7
32.0,1.5,1.0,4.4,0.422,4.4,10.5,0.0,0.0,0.0,0.422,4.4,10.5,0.647,1.8,2.8,16.0,0.0,NBA,219.0,2.3,4.4,C,10.7,1989,0.7,CHI,1.8,6.7
34.0,0.0,0.0,3.0,0.667,6.0,9.0,0.0,0.0,0.0,0.667,6.0,9.0,1.0,3.0,3.0,2.0,0.0,NBA,12.0,0.0,3.0,C,15.0,1991,0.0,SEA,0.0,3.0
