age,ast_per_g,blk_per_g,drb_per_g,efg_pct,fg2_pct,fg2_per_g,fg2a_per_g,fg3_pct,fg3_per_g,fg3a_per_g,fg_pct,fg_per_g,fga_per_g,ft_pct,ft_per_g,fta_per_g,g,gs,lg_id,mp_per_g,orb_per_g,pf_per_g,pos,pts_per_g,season,stl_per_g,team_id,tov_per_g,trb_per_g
22.0,0.8,0.2,1.6,0.534,0.534,1.1,2.0,0.0,0.0,0.0,0.534,1.1,2.0,0.778,0.8,1.1,59.0,0.0,NBA,9.0,0.9,1.1,C,3.0,1979,0.2,WSB,0.9,2.5
23.0,0.8,0.4,2.1,0.417,0.417,1.2,2.8,0.0,0.0,0.0,0.417,1.2,2.8,0.662,0.6,0.9,78.0,0.0,NBA,10.6,1.3,1.5,C,2.9,1980,0.1,WSB,0.8,3.5
24.0,1.4,1.2,5.0,0.49,0.492,4.5,9.1,0.0,0.0,0.0,0.49,4.5,9.1,0.714,1.5,2.1,82.0,0.0,NBA,23.9,2.8,2.6,C,10.5,1981,0.5,SAS,1.6,7.8
25.0,1.6,1.5,5.1,0.519,0.52,4.1,7.9,0.25,0.0,0.0,0.519,4.1,7.9,0.746,1.9,2.6,82.0,21.0,NBA,26.7,2.6,2.9,C,10.1,1982,0.4,SAS,1.7,7.7
26.0,1.9,1.3,5.8,0.497,0.498,5.6,11.2,0.0,0.0,0.0,0.497,5.6,11.2,0.72,2.8,3.9,82.0,71.0,NBA,30.4,3.0,3.0,C,14.0,1983,0.6,CHI,2.8,8.7
27.0,2.5,1.5,5.0,0.469,0.469,4.7,9.9,0.333,0.0,0.1,0.467,4.7,10.0,0.84,2.8,3.4,82.0,82.0,NBA,32.6,2.1,2.8,C,12.2,1984,0.7,CHI,2.1,7.0
28.0,1.7,0.8,3.6,0.486,0.487,3.4,6.9,0.0,0.0,0.0,0.486,3.4,6.9,0.745,1.8,2.4,82.0,50.0,NBA,25.1,1.6,2.3,C,8.5,1985,0.4,CHI,1.5,5.1
29.0,2.2,0.8,4.5,0.494,0.497,3.8,7.6,0.25,0.0,0.2,0.491,3.8,7.7,0.743,1.9,2.6,67.0,4.0,NBA,25.5,2.0,2.0,C,9.6,1986,0.4,CHI,1.6,6.5
30.0,2.5,1.1,4.2,0.475,0.479,3.6,7.5,0.0,0.0,0.1,0.475,3.6,7.5,0.736,1.2,1.6,82.0,39.0,NBA,27.9,2.4,2.5,C,8.3,1987,0.5,CHI,1.4,6.6
31.0,1.9,1.2,4.5,0.482,0.486,4.3,8.8,0.111,0.0,0.1,0.481,4.3,8.9,0.752,1.4,1.9,80.0,32.0,NBA,29.1,2.1,1.9,C,10.1,1988,0.5,CHI,1.4,6.6
32.0,1.3,0.6,2.8,0.464,0.465,2.5,5.3,0.25,0.0,0.1,0.461,2.5,5.4,0.74,0.9,1.2,81.0,7.0,NBA,18.3,1.1,1.7,C,5.9,1989,0.4,CHI,1.1,3.9
33.0,0.3,0.0,1.8,0.379,0.379,1.8,4.8,0.0,0.0,0.0,0.379,1.8,4.8,0.0,0.0,0.3,6.0,3.0,NBA,13.2,1.2,1.2,C,3.7,1990,0.3,ORL,1.3,3.0
34.0,0.1,0.2,0.8,0.447,0.447,0.6,1.4,0.0,0.0,0.0,0.447,0.6,1.4,0.591,0.5,0.8,28.0,0.0,NBA,5.3,0.4,0.6,C,1.7,1991,0.2,SEA,0.1,1.2
