age,ast,blk,drb,fg,fg2,fg2a,fg3,fg3a,fga,ft,fta,game_score,lg_id,mp,orb,pf,pts,season,stl,team_id,tov,trb
23.0,2.0,0.0,0.0,4.0,4.0,10.0,0.0,1.0,11.0,0.0,2.0,3.8,NBA,0.0,1.0,1.0,8.0,1989,1.0,BOS,0.0,1.0
24.0,2.0,0.0,0.0,2.0,2.0,4.0,0.0,0.0,4.0,0.0,0.0,2.4,NBA,0.0,1.0,1.0,4.0,1990,0.0,BOS,1.0,1.0
25.0,5.0,1.0,4.0,8.0,8.0,13.0,0.0,0.0,13.0,3.0,4.0,14.1,NBA,0.0,2.0,5.0,18.0,1991,2.0,BOS,2.0,4.0
26.0,6.0,2.0,6.0,10.0,10.0,21.0,0.0,1.0,21.0,4.0,4.0,17.0,NBA,0.0,2.0,4.0,22.0,1992,3.0,BOS,3.0,8.0
27.0,4.0,1.0,2.0,8.0,6.0,11.0,3.0,6.0,16.0,4.0,4.0,15.1,NBA,0.0,2.0,5.0,19.0,1993,2.0,BOS,3.0,3.0
30.0,0.0,0.0,0.0,0.0,0.0,0.0,0.0,0.0,0.0,0.0,0.0,0.0,NBA,0.0,0.0,0.0,0.0,1996,0.0,TOT,0.0,0.0
30.0,0.0,0.0,0.0,0.0,0.0,0.0,0.0,0.0,0.0,0.0,0.0,0.0,NBA,0.0,0.0,0.0,0.0,1996,0.0,SAC,0.0,0.0
