age,ast_per_mp,blk_per_mp,drb_per_mp,fg2_pct,fg2_per_mp,fg2a_per_mp,fg3_pct,fg3_per_mp,fg3a_per_mp,fg_pct,fg_per_mp,fga_per_mp,ft_pct,ft_per_mp,fta_per_mp,g,gs,lg_id,mp,orb_per_mp,pf_per_mp,pos,pts_per_mp,season,stl_per_mp,team_id,tov_per_mp,trb_per_mp
22.0,1.9,0.0,1.9,0.0,0.0,3.8,0.0,0.0,1.9,0.0,0.0,5.7,0.0,0.0,0.0,9.0,0.0,NBA,19.0,3.8,3.8,SF,0.0,1988,3.8,POR,3.8,5.7
23.0,3.3,0.3,3.0,0.584,7.0,12.0,0.182,0.2,1.1,0.551,7.2,13.1,0.636,3.4,5.3,44.0,6.0,NBA,375.0,1.1,3.8,SF,18.0,1989,1.3,BOS,1.8,4.0
24.0,4.3,0.3,2.5,0.473,4.9,10.3,0.167,0.1,0.7,0.455,5.0,10.9,0.794,3.1,3.9,71.0,10.0,NBA,990.0,1.5,2.8,SF,13.2,1990,1.0,BOS,1.6,4.1
25.0,3.4,0.5,2.4,0.592,7.3,12.3,0.0,0.0,0.1,0.587,7.3,12.4,0.815,2.5,3.0,82.0,76.0,NBA,2706.0,1.1,3.2,SF,17.0,1991,1.3,BOS,2.0,3.6
26.0,3.2,0.5,3.0,0.537,6.8,12.6,0.29,0.1,0.4,0.529,6.9,13.1,0.885,2.0,2.3,82.0,77.0,NBA,2496.0,1.2,2.9,SF,16.0,1992,1.1,BOS,1.4,4.1
27.0,3.2,0.5,2.8,0.531,5.8,10.9,0.374,0.7,2.0,0.507,6.5,12.8,0.826,1.7,2.1,82.0,58.0,NBA,2541.0,0.7,2.6,SF,15.5,1993,1.2,BOS,1.1,3.5
28.0,2.9,0.4,2.3,0.489,6.6,13.4,0.243,0.5,2.0,0.458,7.0,15.4,0.817,2.0,2.4,75.0,28.0,NBA,1880.0,0.8,2.6,SF,16.5,1994,1.1,BOS,1.5,3.0
29.0,3.5,0.3,2.7,0.514,5.3,10.4,0.398,1.1,2.9,0.489,6.5,13.2,0.784,2.6,3.3,77.0,0.0,NBA,1223.0,0.9,3.8,SF,16.7,1995,1.5,MIA,1.4,3.6
30.0,2.7,0.2,2.5,0.408,2.9,7.2,0.386,1.2,3.1,0.401,4.1,10.3,0.792,1.0,1.3,65.0,13.0,NBA,1325.0,0.6,4.0,SF,10.5,1996,1.0,TOT,1.2,3.1
30.0,2.9,0.2,2.5,0.383,2.8,7.2,0.418,1.3,3.2,0.394,4.1,10.4,0.868,1.2,1.3,44.0,13.0,NBA,1033.0,0.5,4.1,SF,10.6,1996,1.1,MIA,1.1,3.0
30.0,2.2,0.4,2.5,0.492,3.6,7.3,0.261,0.7,2.8,0.427,4.3,10.1,0.5,0.6,1.2,21.0,0.0,NBA,292.0,0.9,3.5,SF,10.0,1996,0.5,SAC,1.4,3.3
31.0,2.9,0.6,3.6,0.397,2.6,6.6,0.482,2.0,4.2,0.43,4.6,10.8,0.7,0.3,0.4,62.0,2.0,NBA,953.0,0.5,2.9,SF,11.6,1997,0.8,SAC,1.0,4.0
