age,avg_dist,fg2_dunk,fg2_pct,fg2_pct_ast,fg2a_pct_fga,fg3_heave,fg3_pct,fg3_pct_ast,fg3_pct_corner,fg3a_heave,fg3a_pct_fga,fg_pct,fg_pct_00_03,fg_pct_03_10,fg_pct_10_16,fg_pct_16_xx,g,lg_id,mp,pct_fg2_dunk,pct_fg3a_corner,pct_fga_00_03,pct_fga_03_10,pct_fga_10_16,pct_fga_16_xx,pos,season,team_id
22.0,14.9,11.0,0.427,0.176,0.744,0.0,0.258,0.788,0.289,1.0,0.256,0.384,0.581,0.351,0.397,0.388,42.0,NBA,1027.0,0.022,0.352,0.172,0.148,0.156,0.268,SG,2011,TOT
22.0,15.6,2.0,0.36,0.278,0.649,0.0,0.333,0.778,0.4,0.0,0.351,0.351,0.353,0.0,0.167,0.55,16.0,NBA,160.0,0.026,0.185,0.221,0.091,0.078,0.26,SG,2011,ATL
22.0,14.7,9.0,0.438,0.163,0.761,0.0,0.238,0.792,0.275,1.0,0.239,0.39,0.638,0.388,0.417,0.36,26.0,NBA,867.0,0.021,0.396,0.163,0.158,0.17,0.27,SG,2011,WAS
23.0,15.5,14.0,0.451,0.3,0.687,1.0,0.289,0.684,0.357,2.0,0.313,0.4,0.602,0.304,0.408,0.422,64.0,NBA,1753.0,0.017,0.205,0.196,0.117,0.118,0.256,SG,2012,WAS
24.0,15.8,0.0,0.455,0.239,0.661,0.0,0.337,0.807,0.417,3.0,0.339,0.415,0.532,0.419,0.448,0.424,70.0,NBA,1709.0,0.0,0.195,0.171,0.161,0.12,0.208,SG,2013,TOT
24.0,16.5,0.0,0.451,0.217,0.663,0.0,0.345,0.746,0.435,1.0,0.337,0.415,0.569,0.423,0.437,0.415,43.0,NBA,1127.0,0.0,0.135,0.128,0.154,0.14,0.242,SG,2013,WAS
24.0,14.2,0.0,0.465,0.288,0.654,0.0,0.32,0.958,0.4,2.0,0.346,0.415,0.492,0.41,0.5,0.464,27.0,NBA,582.0,0.0,0.333,0.272,0.18,0.074,0.129,SG,2013,BOS
25.0,16.0,10.0,0.471,0.165,0.638,0.0,0.316,0.589,0.417,2.0,0.362,0.415,0.566,0.451,0.533,0.363,81.0,NBA,1859.0,0.014,0.126,0.135,0.18,0.152,0.171,SG-PG,2014,TOT
25.0,15.5,5.0,0.463,0.087,0.655,0.0,0.318,0.48,0.467,0.0,0.345,0.413,0.493,0.434,0.549,0.39,39.0,NBA,1198.0,0.013,0.096,0.147,0.182,0.156,0.169,PG,2014,BOS
25.0,16.7,5.0,0.483,0.273,0.616,0.0,0.313,0.725,0.381,2.0,0.384,0.417,0.692,0.475,0.51,0.328,42.0,NBA,661.0,0.015,0.164,0.117,0.177,0.147,0.174,SG,2014,GSW
28.0,17.5,2.0,0.553,0.221,0.564,0.0,0.389,0.838,0.273,0.0,0.436,0.482,0.826,0.595,0.611,0.356,19.0,NBA,442.0,0.009,0.116,0.106,0.17,0.083,0.206,SG,2017,NOP
29.0,19.5,1.0,0.308,0.25,0.481,0.0,0.571,0.75,1.0,0.0,0.519,0.444,0.0,0.6,0.25,0.0,5.0,NBA,53.0,0.037,0.071,0.0,0.185,0.148,0.148,SG,2018,NOP
