age,and1s,astd_pts,drawn_offensive,drawn_shooting,fouls_offensive,fouls_shooting,g,lg_id,mp,own_shots_blk,pct_1,pct_2,pct_3,pct_4,pct_5,plus_minus_net,plus_minus_on,pos,season,team_id,tov_bad_pass,tov_lost_ball
32.0,5.0,301.0,0.0,27.0,14.0,70.0,68.0,NBA,1485.0,12.0,0.0,95.0,5.0,0.0,0.0,-4.1,-4.4,SG,2001,DET,31.0,9.0
33.0,5.0,308.0,0.0,34.0,16.0,94.0,82.0,NBA,1912.0,10.0,0.0,79.0,21.0,0.0,0.0,-5.8,-0.3,SG,2002,DET,26.0,11.0
34.0,2.0,240.0,0.0,18.0,13.0,64.0,78.0,NBA,1555.0,9.0,0.0,1.0,99.0,0.0,0.0,-10.0,-2.0,SF,2003,DET,18.0,8.0
35.0,2.0,122.0,0.0,21.0,11.0,73.0,70.0,NBA,1229.0,13.0,0.0,22.0,69.0,8.0,0.0,-4.4,-6.4,SF,2004,TOR,19.0,12.0
36.0,0.0,31.0,0.0,4.0,2.0,13.0,18.0,NBA,249.0,2.0,0.0,4.0,81.0,15.0,0.0,-13.6,-11.9,SF,2005,IND,3.0,0.0
