age,avg_dist,fg2_dunk,fg2_pct,fg2_pct_ast,fg2a_pct_fga,fg3_heave,fg3_pct,fg3_pct_ast,fg3_pct_corner,fg3a_heave,fg3a_pct_fga,fg_pct,fg_pct_00_03,fg_pct_03_10,fg_pct_10_16,fg_pct_16_xx,g,lg_id,mp,pct_fg2_dunk,pct_fg3a_corner,pct_fga_00_03,pct_fga_03_10,pct_fga_10_16,pct_fga_16_xx,pos,season,team_id
32.0,12.5,7.0,0.455,0.73,0.972,0.0,0.444,1.0,0.5,0.0,0.028,0.455,0.633,0.316,0.333,0.422,68.0,NBA,1485.0,0.028,0.667,0.248,0.06,0.16,0.505,SG,2001,DET
33.0,13.3,22.0,0.472,0.839,0.906,0.0,0.269,1.0,0.444,0.0,0.094,0.453,0.68,0.3,0.36,0.393,82.0,NBA,1912.0,0.087,0.346,0.272,0.036,0.091,0.507,SG,2002,DET
34.0,15.6,14.0,0.434,0.868,0.764,0.0,0.296,1.0,0.2,0.0,0.236,0.402,0.547,0.0,0.429,0.402,78.0,NBA,1555.0,0.074,0.37,0.231,0.026,0.061,0.445,SF,2003,DET
35.0,14.1,9.0,0.403,0.808,0.923,0.0,0.2,1.0,0.3,0.0,0.077,0.388,0.59,0.467,0.154,0.386,70.0,NBA,1229.0,0.046,0.667,0.199,0.077,0.133,0.515,SF,2004,TOR
36.0,13.2,0.0,0.448,0.846,1.0,0.0,0.0,0.0,0.0,0.0,0.0,0.448,0.5,0.0,0.667,0.389,18.0,NBA,249.0,0.0,0.0,0.276,0.0,0.103,0.621,SF,2005,IND
