age,ast_pct,blk_pct,bpm,bpm-dum,dbpm,drb_pct,dws,fg3a_per_fga_pct,fta_per_fga_pct,g,lg_id,mp,obpm,orb_pct,ows,per,pos,season,stl_pct,team_id,tov_pct,trb_pct,ts_pct,usg_pct,vorp,ws,ws-dum,ws_per_48
25.0,11.2,0.2,-2.1,0.0,-0.4,16.6,0.4,0.395,0.191,15.0,NBA,404.0,-1.7,3.0,0.0,12.0,SG,2018,2.3,ATL,7.8,9.8,0.489,19.3,0.0,0.4,0.0,0.046
26.0,4.5,0.0,-3.6,0.0,-2.5,15.3,0.4,0.535,0.173,32.0,NBA,375.0,-1.1,2.4,0.3,11.9,SG,2019,1.6,GSW,7.4,9.1,0.578,16.8,-0.2,0.7,0.0,0.09
27.0,12.3,0.0,-4.3,0.0,-3.5,15.3,-0.1,0.385,0.363,11.0,NBA,241.0,-0.8,3.9,0.2,13.0,SG,2020,1.6,GSW,11.0,9.5,0.521,20.5,-0.1,0.1,0.0,0.025
