age,ast,blk,drb,efg_pct,fg,fg2,fg2_pct,fg2a,fg3,fg3_pct,fg3a,fg_pct,fga,ft,ft_pct,fta,g,gs,lg_id,mp,orb,pf,pos,pts,season,stl,team_id,tov,trb
22.0,7.0,0.0,2.0,0.667,4.0,4.0,0.8,5.0,0.0,0.0,1.0,0.667,6.0,2.0,1.0,2.0,3.0,0.0,NBA,25.0,0.0,1.0,PG,10.0,2018,3.0,DEN,1.0,2.0
23.0,297.0,4.0,159.0,0.56,346.0,252.0,0.531,475.0,94.0,0.414,227.0,0.493,702.0,65.0,0.802,81.0,82.0,6.0,NBA,1970.0,35.0,102.0,PG,851.0,2019,73.0,DEN,52.0,194.0
24.0,41.0,2.0,16.0,0.431,32.0,27.0,0.397,68.0,5.0,0.417,12.0,0.4,80.0,9.0,0.818,11.0,11.0,0.0,NBA,197.0,2.0,5.0,PG,78.0,2020,4.0,DEN,5.0,18.0
