age,ast,ast_per_g,blk,college_id,fg,fg3,fg3_pct,fg3a,fg_pct,fga,ft,ft_pct,fta,g,mp,mp_per_g,orb,pf,pts,pts_per_g,season,stl,tov,trb,trb_per_g
18.0,21.0,0.7,70.0,BRADLEY,111.0,3.0,0.176,17.0,0.446,249.0,98.0,0.79,124.0,29.0,712.0,24.6,0.0,0.0,323.0,11.1,2002,37.0,0.0,207.0,7.1
19.0,16.0,1.1,19.0,BRADLEY,99.0,6.0,0.3,20.0,0.518,191.0,65.0,0.684,95.0,14.0,380.0,27.1,0.0,0.0,269.0,19.2,2003,19.0,0.0,111.0,7.9
20.0,46.0,2.1,31.0,NMEXICO,136.0,24.0,0.333,72.0,0.491,277.0,133.0,0.76,175.0,22.0,703.0,32.0,0.0,0.0,429.0,19.5,2004,29.0,0.0,197.0,9.0
21.0,71.0,2.4,60.0,NMEXICO,183.0,45.0,0.433,104.0,0.524,349.0,154.0,0.755,204.0,30.0,900.0,30.0,0.0,0.0,565.0,18.8,2005,63.0,0.0,266.0,8.9
