age,ast_per_g,blk_per_g,drb_per_g,efg_pct,fg2_pct,fg2_per_g,fg2a_per_g,fg3_pct,fg3_per_g,fg3a_per_g,fg_pct,fg_per_g,fga_per_g,ft_pct,ft_per_g,fta_per_g,g,gs,lg_id,mp_per_g,orb_per_g,pf_per_g,pos,pts_per_g,season,stl_per_g,team_id,tov_per_g,trb_per_g
22.0,1.7,1.2,4.0,0.662,0.5,1.5,3.0,0.563,1.5,2.7,0.529,3.0,5.7,1.0,0.7,0.7,6.0,3.0,NBA,27.0,1.2,3.3,SF,8.2,2006,0.7,IND,1.2,5.2
27.0,3.2,0.2,4.4,0.522,0.522,7.0,13.4,0.348,1.6,4.6,0.478,8.6,18.0,0.875,2.8,3.2,5.0,5.0,NBA,36.6,1.2,2.4,SF,21.6,2011,1.2,IND,1.4,5.6
28.0,2.5,0.4,4.3,0.471,0.426,3.9,9.2,0.356,2.4,6.6,0.397,6.3,15.8,0.821,2.1,2.5,11.0,11.0,NBA,38.2,1.4,2.8,SF,17.0,2012,0.5,IND,2.6,5.6
30.0,0.2,0.1,1.4,0.338,0.333,0.5,1.4,0.227,0.4,1.7,0.275,0.8,3.1,0.778,0.5,0.7,13.0,0.0,NBA,10.3,0.2,1.8,SF,2.6,2014,0.5,LAC,0.2,1.5
