age,ast,blk,drb,fg,fg2,fg2a,fg3,fg3a,fga,ft,fta,game_score,lg_id,mp,orb,pf,pts,season,stl,team_id,tov,trb
25.0,10.0,0.0,5.0,6.0,6.0,11.0,2.0,7.0,17.0,12.0,12.0,18.7,NBA,37,1.0,6.0,22.0,2015,1.0,TOT,5.0,5.0
25.0,10.0,0.0,5.0,6.0,6.0,11.0,2.0,7.0,17.0,12.0,12.0,18.7,NBA,37,1.0,6.0,22.0,2015,1.0,BOS,5.0,5.0
26.0,10.0,2.0,4.0,12.0,9.0,17.0,5.0,12.0,24.0,13.0,15.0,30.7,NBA,44,1.0,4.0,42.0,2016,1.0,BOS,3.0,4.0
27.0,12.0,1.0,6.0,18.0,13.0,21.0,5.0,13.0,33.0,12.0,13.0,41.3,NBA,45,2.0,5.0,53.0,2017,3.0,BOS,6.0,6.0
