age,ast_per_g,blk_per_g,drb_per_g,efg_pct,fg2_pct,fg2_per_g,fg2a_per_g,fg3_pct,fg3_per_g,fg3a_per_g,fg_pct,fg_per_g,fga_per_g,ft_pct,ft_per_g,fta_per_g,g,gs,lg_id,mp_per_g,orb_per_g,pf_per_g,pos,pts_per_g,season,stl_per_g,team_id,tov_per_g,trb_per_g
22.0,4.1,0.1,1.8,0.521,0.491,2.7,5.4,0.379,1.3,3.4,0.448,3.9,8.8,0.832,2.4,2.8,65.0,37.0,NBA,25.5,0.7,1.9,PG,11.5,2012,0.8,SAC,1.6,2.6
23.0,4.0,0.0,1.7,0.509,0.491,3.2,6.5,0.358,1.5,4.1,0.44,4.6,10.5,0.882,3.2,3.6,79.0,62.0,NBA,26.9,0.4,2.1,PG,13.9,2013,0.8,SAC,1.8,2.0
24.0,6.3,0.1,2.3,0.51,0.504,5.1,10.2,0.349,1.8,5.1,0.453,6.9,15.2,0.85,4.8,5.7,72.0,54.0,NBA,34.7,0.7,2.6,PG,20.3,2014,1.3,SAC,3.0,2.9
25.0,4.2,0.1,1.8,0.501,0.457,3.1,6.7,0.373,1.9,5.2,0.42,5.0,11.9,0.868,4.5,5.2,67.0,1.0,NBA,25.8,0.5,2.2,PG,16.4,2015,0.9,TOT,2.1,2.3
25.0,3.7,0.1,1.8,0.505,0.449,3.0,6.6,0.391,1.8,4.5,0.426,4.7,11.1,0.872,4.0,4.6,46.0,1.0,NBA,25.7,0.6,2.3,PG,15.2,2015,1.0,PHO,1.9,2.4
25.0,5.4,0.0,1.8,0.495,0.473,3.3,7.0,0.345,2.3,6.6,0.411,5.6,13.6,0.861,5.6,6.5,21.0,0.0,NBA,26.0,0.3,2.1,PG,19.0,2015,0.6,BOS,2.6,2.1
26.0,6.2,0.1,2.4,0.488,0.462,5.2,11.2,0.359,2.0,5.7,0.428,7.2,16.9,0.871,5.8,6.6,82.0,79.0,NBA,32.2,0.6,2.0,PG,22.2,2016,1.1,BOS,2.7,3.0
27.0,5.9,0.2,2.1,0.546,0.528,5.8,10.9,0.379,3.2,8.5,0.463,9.0,19.4,0.909,7.8,8.5,76.0,76.0,NBA,33.8,0.6,2.2,PG,28.9,2017,0.9,BOS,2.8,2.7
28.0,4.8,0.1,1.6,0.438,0.438,3.2,7.3,0.293,1.7,5.9,0.373,4.9,13.2,0.893,3.7,4.1,32.0,15.0,NBA,26.9,0.5,1.8,PG,15.2,2018,0.5,TOT,3.0,2.1
28.0,4.5,0.1,1.6,0.418,0.449,3.2,7.1,0.253,1.5,5.8,0.361,4.7,12.9,0.868,3.9,4.5,15.0,14.0,NBA,27.1,0.5,1.7,PG,14.7,2018,0.6,CLE,2.7,2.1
28.0,5.0,0.1,1.5,0.456,0.429,3.2,7.4,0.327,1.9,5.9,0.383,5.1,13.4,0.921,3.4,3.7,17.0,1.0,NBA,26.8,0.6,1.9,PG,15.6,2018,0.4,LAL,3.2,2.1
29.0,1.9,0.1,0.7,0.404,0.393,1.8,4.7,0.279,1.0,3.6,0.343,2.8,8.3,0.63,1.4,2.3,12.0,0.0,NBA,15.1,0.4,1.4,SG,8.1,2019,0.4,DEN,1.5,1.1
30.0,6.3,0.3,1.9,0.53,0.489,3.1,6.4,0.385,2.1,5.6,0.44,5.3,12.0,1.0,1.1,1.1,7.0,4.0,NBA,24.1,0.1,1.9,PG,13.9,2020,0.3,WAS,2.6,2.0
