age,ast,blk,drb,efg_pct,fg,fg2,fg2_pct,fg2a,fg3,fg3_pct,fg3a,fg_pct,fga,ft,ft_pct,fta,g,gs,lg_id,mp,orb,pf,pos,pts,season,stl,team_id,tov,trb
24.0,317.0,11.0,224.0,0.405,310.0,289.0,0.407,710.0,21.0,0.259,81.0,0.392,791.0,149.0,0.814,183.0,68.0,53.0,NBA,2042.0,78.0,160.0,PG,790.0,1998,105.0,DEN,184.0,302.0
25.0,167.0,3.0,92.0,0.42,141.0,131.0,0.408,321.0,10.0,0.37,27.0,0.405,348.0,61.0,0.772,79.0,50.0,12.0,NBA,941.0,43.0,75.0,PG,353.0,1999,39.0,MIN,75.0,135.0
26.0,172.0,7.0,103.0,0.423,140.0,127.0,0.423,300.0,13.0,0.283,46.0,0.405,346.0,76.0,0.776,98.0,73.0,10.0,NBA,1034.0,50.0,114.0,PG,369.0,2000,48.0,MIN,58.0,153.0
27.0,161.0,7.0,172.0,0.476,231.0,192.0,0.455,422.0,39.0,0.375,104.0,0.439,526.0,65.0,0.739,88.0,79.0,7.0,NBA,1648.0,74.0,139.0,PG,566.0,2001,87.0,SAC,103.0,246.0
28.0,164.0,11.0,169.0,0.495,334.0,255.0,0.477,535.0,79.0,0.361,219.0,0.443,754.0,149.0,0.81,184.0,81.0,3.0,NBA,1750.0,82.0,145.0,PG,896.0,2002,73.0,SAC,93.0,251.0
29.0,182.0,3.0,162.0,0.525,340.0,251.0,0.505,497.0,89.0,0.379,235.0,0.464,732.0,126.0,0.846,149.0,59.0,26.0,NBA,1676.0,57.0,126.0,PG,895.0,2003,71.0,SAC,106.0,219.0
30.0,105.0,8.0,119.0,0.513,263.0,182.0,0.488,373.0,81.0,0.37,219.0,0.444,592.0,82.0,0.752,109.0,50.0,0.0,NBA,1185.0,55.0,106.0,SG,689.0,2004,49.0,SAC,63.0,174.0
31.0,59.0,2.0,62.0,0.492,109.0,76.0,0.478,159.0,33.0,0.344,96.0,0.427,255.0,50.0,0.862,58.0,25.0,0.0,NBA,536.0,23.0,58.0,SG,301.0,2005,14.0,SAC,28.0,85.0
32.0,195.0,1.0,179.0,0.469,286.0,157.0,0.377,416.0,129.0,0.389,332.0,0.382,748.0,107.0,0.733,146.0,71.0,15.0,NBA,1775.0,44.0,155.0,PG,808.0,2006,61.0,MEM,101.0,223.0
33.0,141.0,6.0,136.0,0.446,204.0,150.0,0.425,353.0,54.0,0.327,165.0,0.394,518.0,130.0,0.774,168.0,56.0,2.0,NBA,1330.0,42.0,98.0,SG,592.0,2007,50.0,NOK,78.0,178.0
34.0,139.0,5.0,148.0,0.483,204.0,123.0,0.439,280.0,81.0,0.358,226.0,0.403,506.0,64.0,0.79,81.0,72.0,5.0,NBA,1389.0,33.0,96.0,SG-PG,553.0,2008,45.0,TOT,59.0,181.0
34.0,76.0,3.0,87.0,0.481,116.0,63.0,0.414,152.0,53.0,0.368,144.0,0.392,296.0,40.0,0.816,49.0,46.0,0.0,NBA,891.0,23.0,59.0,SG,325.0,2008,32.0,NOH,31.0,110.0
34.0,63.0,2.0,61.0,0.486,88.0,60.0,0.469,128.0,28.0,0.341,82.0,0.419,210.0,24.0,0.75,32.0,26.0,5.0,NBA,498.0,10.0,37.0,PG,228.0,2008,13.0,HOU,28.0,71.0
35.0,143.0,4.0,158.0,0.46,193.0,133.0,0.462,288.0,60.0,0.305,197.0,0.398,485.0,86.0,0.851,101.0,71.0,10.0,NBA,1484.0,42.0,100.0,PG,532.0,2009,62.0,SAC,66.0,200.0
