age,ast_per_g,blk_per_g,drb_per_g,efg_pct,fg2_pct,fg2_per_g,fg2a_per_g,fg3_pct,fg3_per_g,fg3a_per_g,fg_pct,fg_per_g,fga_per_g,ft_pct,ft_per_g,fta_per_g,g,gs,lg_id,mp_per_g,orb_per_g,pf_per_g,pos,pts_per_g,season,stl_per_g,team_id,tov_per_g,trb_per_g
25.0,0.5,0.0,0.8,0.2,0.286,0.5,1.8,0.0,0.0,0.8,0.2,0.5,2.5,0.0,0.0,0.0,4.0,0.0,NBA,6.8,0.3,0.8,PG,1.0,1999,0.0,MIN,0.3,1.0
26.0,1.3,0.3,1.7,0.563,0.6,1.0,1.7,0.333,0.3,1.0,0.5,1.3,2.7,1.0,2.0,2.0,3.0,0.0,NBA,10.0,0.0,1.3,PG,5.0,2000,0.7,MIN,0.7,1.7
27.0,2.3,0.0,2.5,0.479,0.5,2.1,4.3,0.286,0.5,1.8,0.438,2.6,6.0,0.714,1.3,1.8,8.0,0.0,NBA,22.8,0.8,2.3,PG,7.0,2001,1.0,SAC,0.9,3.3
28.0,2.0,0.2,2.3,0.483,0.524,3.4,6.4,0.256,0.7,2.7,0.445,4.1,9.1,0.791,2.1,2.7,16.0,1.0,NBA,23.4,0.9,1.9,PG,10.9,2002,0.9,SAC,1.1,3.3
29.0,3.3,0.1,3.6,0.511,0.505,4.0,7.9,0.349,1.3,3.6,0.457,5.3,11.5,0.886,2.6,2.9,12.0,0.0,NBA,27.6,0.9,1.8,PG,14.3,2003,1.0,SAC,1.4,4.5
31.0,1.8,0.2,0.8,0.311,0.368,1.4,3.8,0.167,0.6,3.6,0.27,2.0,7.4,1.0,0.6,0.6,5.0,0.0,NBA,15.8,0.4,1.0,SG,5.2,2005,0.2,SAC,0.6,1.2
32.0,1.3,0.0,2.0,0.483,0.444,2.0,4.5,0.364,1.0,2.8,0.414,3.0,7.3,0.714,1.3,1.8,4.0,0.0,NBA,25.0,0.0,1.8,PG,8.3,2006,0.3,MEM,3.5,2.0
34.0,1.5,0.0,1.3,0.321,0.326,2.5,7.7,0.208,0.8,4.0,0.286,3.3,11.7,0.636,1.2,1.8,6.0,2.0,NBA,23.0,0.3,1.8,PG,8.7,2008,0.8,HOU,0.7,1.7
