lg_id,salary,season,team_name
NBA,694920.0,1998,Denver Nuggets
NBA,799200.0,1999,Minnesota Timberwolves
NBA,903360.0,2000,Minnesota Timberwolves
NBA,2250000.0,2001,Sacramento Kings
NBA,2475000.0,2002,Sacramento Kings
NBA,2700000.0,2003,Sacramento Kings
NBA,2925000.0,2004,Sacramento Kings
NBA,3150000.0,2005,Sacramento Kings
NBA,3375000.0,2006,Memphis Grizzlies
NBA,5259000.0,2007,New Orleans/Oklahoma City Hornets
NBA,5670000.0,2008,Houston Rockets
NBA,6487888.0,2009,Sacramento Kings
