age,avg_dist,fg2_dunk,fg2_pct,fg2_pct_ast,fg2a_pct_fga,fg3_heave,fg3_pct,fg3_pct_ast,fg3_pct_corner,fg3a_heave,fg3a_pct_fga,fg_pct,fg_pct_00_03,fg_pct_03_10,fg_pct_10_16,fg_pct_16_xx,g,lg_id,mp,pct_fg2_dunk,pct_fg3a_corner,pct_fga_00_03,pct_fga_03_10,pct_fga_10_16,pct_fga_16_xx,pos,season,team_id
24.0,2.0,0.0,0.0,0.0,1.0,0.0,0.0,0.0,0.0,0.0,0.0,0.0,0.0,0.0,0.0,0.0,3.0,NBA,11.0,0.0,0.0,1.0,0.0,0.0,0.0,C,2008,IND
25.0,3.7,0.0,0.5,0.667,1.0,0.0,0.0,0.0,0.0,0.0,0.0,0.5,0.75,0.0,0.0,0.0,2.0,NBA,13.0,0.0,0.0,0.667,0.167,0.0,0.167,C,2009,TOT
25.0,0.0,0.0,0.0,0.0,0.0,0.0,0.0,0.0,0.0,0.0,0.0,0.0,0.0,0.0,0.0,0.0,1.0,NBA,2.0,0.0,0.0,0.0,0.0,0.0,0.0,C,2009,PHO
25.0,3.7,0.0,0.5,0.667,1.0,0.0,0.0,0.0,0.0,0.0,0.0,0.5,0.75,0.0,0.0,0.0,1.0,NBA,11.0,0.0,0.0,0.667,0.167,0.0,0.167,C,2009,NYK
