age,ast,ast_per_g,blk,college_id,fg,fg3,fg3_pct,fg3a,fg_pct,fga,ft,ft_pct,fta,g,mp,mp_per_g,orb,pf,pts,pts_per_g,season,stl,tov,trb,trb_per_g
20.0,18.0,0.5,68.0,MICHIGAN,105.0,1.0,0.125,8.0,0.547,192.0,52.0,0.578,90.0,34.0,751.0,22.1,0.0,0.0,263.0,7.7,2004,12.0,0.0,161.0,4.7
21.0,16.0,0.5,52.0,MICHIGAN,118.0,1.0,0.2,5.0,0.59,200.0,68.0,0.701,97.0,31.0,720.0,23.2,0.0,0.0,305.0,9.8,2005,10.0,0.0,160.0,5.2
22.0,25.0,0.8,47.0,MICHIGAN,143.0,0.0,0.0,0.0,0.633,226.0,74.0,0.712,104.0,33.0,756.0,22.9,0.0,0.0,360.0,10.9,2006,9.0,0.0,189.0,5.7
23.0,19.0,0.5,46.0,MICHIGAN,143.0,0.0,0.0,0.0,0.57,251.0,115.0,0.723,159.0,35.0,860.0,24.6,0.0,0.0,401.0,11.5,2007,17.0,0.0,218.0,6.2
