age,ast_pct,blk_pct,bpm,bpm-dum,dbpm,drb_pct,dws,fg3a_per_fga_pct,fta_per_fga_pct,g,lg_id,mp,obpm,orb_pct,ows,per,pos,season,stl_pct,team_id,tov_pct,trb_pct,ts_pct,usg_pct,vorp,ws,ws-dum,ws_per_48
21.0,8.6,1.7,1.5,0.0,0.2,13.0,2.1,0.005,0.286,77.0,NBA,1970.0,1.3,9.2,3.0,17.4,SF,1983,2.1,LAL,17.0,11.2,0.594,21.0,1.7,5.1,0.0,0.125
22.0,11.1,1.6,1.9,0.0,0.7,15.6,2.7,0.007,0.289,82.0,NBA,2415.0,1.2,7.9,3.8,16.5,PF,1984,1.5,LAL,15.3,12.1,0.591,19.7,2.4,6.5,0.0,0.129
23.0,9.6,1.3,2.3,0.0,0.3,13.2,2.9,0.007,0.23,80.0,NBA,2696.0,2.0,7.9,4.6,17.0,SF,1985,1.5,LAL,14.4,10.8,0.601,20.6,2.9,7.5,0.0,0.134
24.0,11.5,1.7,4.1,0.0,0.5,11.1,2.7,0.012,0.289,75.0,NBA,2454.0,3.5,6.6,6.7,20.4,SF,1986,1.6,LAL,10.9,9.0,0.613,22.6,3.7,9.5,0.0,0.185
25.0,11.2,1.6,2.3,0.0,0.4,11.4,3.4,0.011,0.322,82.0,NBA,2819.0,1.9,6.7,5.9,18.4,SF,1987,1.8,LAL,10.9,9.2,0.578,22.3,3.1,9.3,0.0,0.158
26.0,16.2,1.2,2.0,0.0,-0.2,10.0,2.4,0.014,0.262,75.0,NBA,2655.0,2.2,5.8,5.5,18.2,SF,1988,1.3,LAL,10.7,8.0,0.571,22.8,2.7,7.9,0.0,0.143
27.0,14.6,1.1,3.1,0.0,0.3,11.3,3.1,0.018,0.25,81.0,NBA,2960.0,2.8,6.8,6.6,19.0,SF,1989,1.7,LAL,11.3,9.2,0.582,22.4,3.8,9.7,0.0,0.158
28.0,15.6,1.0,4.0,0.0,0.4,11.9,3.1,0.038,0.244,80.0,NBA,2960.0,3.6,6.4,7.5,19.8,SF,1990,1.7,LAL,10.0,9.3,0.586,23.0,4.5,10.6,0.0,0.172
29.0,15.1,0.7,2.3,0.0,0.3,9.2,3.5,0.062,0.183,78.0,NBA,3008.0,2.0,4.3,5.5,18.1,SF,1991,1.8,LAL,7.5,6.9,0.531,24.6,3.2,9.0,0.0,0.143
30.0,20.3,0.7,0.7,0.0,-0.3,11.4,1.6,0.043,0.203,54.0,NBA,2108.0,1.0,5.2,1.4,16.7,SF,1992,1.9,LAL,10.4,8.2,0.49,25.4,1.5,3.1,0.0,0.07
31.0,19.1,0.7,-1.6,0.0,-1.5,8.5,1.6,0.097,0.185,82.0,NBA,2359.0,-0.1,3.5,1.4,15.6,SF,1993,1.9,LAL,10.0,6.0,0.494,24.9,0.2,3.0,0.0,0.06
32.0,15.6,0.7,-5.2,0.0,-3.1,9.4,0.5,0.132,0.161,80.0,NBA,1597.0,-2.1,3.1,-0.5,12.8,SF,1994,1.4,LAL,9.8,6.2,0.452,26.2,-1.3,0.1,0.0,0.002
