age,ast_per_mp,blk_per_mp,drb_per_mp,fg2_pct,fg2_per_mp,fg2a_per_mp,fg3_pct,fg3_per_mp,fg3a_per_mp,fg_pct,fg_per_mp,fga_per_mp,ft_pct,ft_per_mp,fta_per_mp,g,gs,lg_id,mp,orb_per_mp,pf_per_mp,pos,pts_per_mp,season,stl_per_mp,team_id,tov_per_mp,trb_per_mp
21.0,2.9,1.2,4.5,0.333,2.9,8.6,0.333,0.4,1.2,0.333,3.3,9.8,0.6,1.2,2.0,15.0,0.0,NBA,88.0,1.2,1.2,SF,8.2,2012,1.6,SAC,0.8,5.7
22.0,2.3,1.1,7.9,0.333,3.4,10.1,0.0,0.0,2.3,0.273,3.4,12.4,1.0,2.3,2.3,9.0,0.0,NBA,32.0,3.4,2.3,SF,9.0,2013,0.0,SAC,5.6,11.3
