age,ast,ast_per_g,blk,college_id,fg,fg3,fg3_pct,fg3a,fg_pct,fga,ft,ft_pct,fta,g,mp,mp_per_g,orb,pf,pts,pts_per_g,season,stl,tov,trb,trb_per_g
18.0,137.0,3.8,1.0,MICHIGANST,138.0,20.0,0.364,55.0,0.431,320.0,73.0,0.768,95.0,36.0,0.0,0.0,0.0,0.0,369.0,10.3,2008,30.0,73.0,56.0,1.6
19.0,176.0,4.6,6.0,MICHIGANST,173.0,41.0,0.39,105.0,0.395,438.0,172.0,0.808,213.0,38.0,0.0,0.0,0.0,0.0,559.0,14.7,2009,39.0,84.0,80.0,2.1
20.0,131.0,4.0,2.0,MICHIGANST,165.0,35.0,0.354,99.0,0.453,364.0,125.0,0.772,162.0,33.0,1027.0,31.1,22.0,49.0,490.0,14.8,2010,40.0,80.0,62.0,1.9
21.0,114.0,3.4,2.0,MICHIGANST,194.0,53.0,0.39,136.0,0.428,453.0,137.0,0.82,167.0,34.0,1136.0,33.4,16.0,72.0,578.0,17.0,2011,35.0,87.0,73.0,2.1
