age,ast,blk,drb,fg,fg2,fg2a,fg3,fg3a,fga,ft,fta,game_score,lg_id,mp,orb,pf,pts,season,stl,team_id,tov,trb
23.0,4.0,2.0,10.0,7.0,7.0,14.0,1.0,2.0,15.0,4.0,6.0,16.0,NBA,37,5.0,5.0,16.0,2015,2.0,TOT,5.0,15.0
23.0,0.0,0.0,2.0,1.0,1.0,3.0,0.0,1.0,4.0,1.0,2.0,2.1,NBA,13,1.0,2.0,3.0,2015,1.0,ATL,0.0,3.0
23.0,4.0,2.0,10.0,7.0,7.0,14.0,1.0,2.0,15.0,4.0,6.0,16.0,NBA,37,5.0,5.0,16.0,2015,2.0,MIN,5.0,15.0
24.0,4.0,2.0,7.0,4.0,4.0,6.0,2.0,3.0,7.0,3.0,6.0,9.6,NBA,21,3.0,6.0,10.0,2016,3.0,MIN,4.0,8.0
25.0,1.0,3.0,4.0,4.0,3.0,5.0,2.0,3.0,8.0,4.0,6.0,8.7,NBA,15,3.0,4.0,10.0,2017,2.0,MIN,2.0,5.0
26.0,0.0,0.0,3.0,3.0,2.0,3.0,1.0,1.0,4.0,3.0,4.0,9.3,NBA,20,2.0,4.0,10.0,2018,1.0,ORL,1.0,5.0
