article_url,date,headline
https://fansided.com/2019/10/25/draftkings-euroleague-basketball-picks-october-25/,2019/10/25,Fansided Fantasy: DraftKings EuroLeague Basketball Picks October 25
https://fansided.com/2019/10/16/draftkings-euroleague-basketball-picks-october-17/,2019/10/16,Fansided Fantasy: DraftKings EuroLeague Basketball Picks October 17
https://dunkingwithwolves.com/2019/08/10/minnesota-timberwolves-draft-picks-of-the-last-10-years-where-are-they-now/,2019/08/10,Dunking with Wolves: Minnesota Timberwolves draft picks of the last 10 years: Where are they now?
