age,ast_per_mp,blk_per_mp,drb_per_mp,fg2_pct,fg2_per_mp,fg2a_per_mp,fg3_pct,fg3_per_mp,fg3a_per_mp,fg_pct,fg_per_mp,fga_per_mp,ft_pct,ft_per_mp,fta_per_mp,g,gs,lg_id,mp,orb_per_mp,pf_per_mp,pos,pts_per_mp,season,stl_per_mp,team_id,tov_per_mp,trb_per_mp
28.0,0.6,0.3,5.5,0.346,2.9,8.4,0.0,0.0,0.0,0.346,2.9,8.4,0.647,3.5,5.5,5.0,0.0,NBA,112.0,1.3,2.6,SF,9.3,1999,2.3,MIA,1.0,6.8
29.0,0.2,0.6,4.9,0.417,5.3,12.7,0.0,0.0,0.0,0.417,5.3,12.7,0.583,3.0,5.1,10.0,0.0,NBA,170.0,3.8,4.9,PF,13.6,2000,0.8,MIA,1.7,8.7
33.0,0.0,0.0,3.3,0.4,3.3,8.2,0.0,0.0,0.0,0.4,3.3,8.2,0.5,4.9,9.8,2.0,0.0,NBA,22.0,3.3,4.9,PF,11.5,2004,0.0,HOU,0.0,6.5
34.0,0.0,0.0,0.0,0.0,0.0,0.0,0.0,0.0,0.0,0.0,0.0,0.0,0.0,0.0,0.0,1.0,0.0,NBA,1.0,0.0,36.0,PF,0.0,2005,0.0,HOU,0.0,0.0
