age,ast_per_mp,blk_per_mp,drb_per_mp,fg2_pct,fg2_per_mp,fg2a_per_mp,fg3_pct,fg3_per_mp,fg3a_per_mp,fg_pct,fg_per_mp,fga_per_mp,ft_pct,ft_per_mp,fta_per_mp,g,gs,lg_id,mp,orb_per_mp,pf_per_mp,pos,pts_per_mp,season,stl_per_mp,team_id,tov_per_mp,trb_per_mp
22.0,2.0,0.9,5.6,0.47,6.7,14.2,0.25,0.0,0.1,0.469,6.7,14.3,0.713,3.9,5.5,82.0,82.0,NBA,2654.0,2.4,2.6,SF,17.4,1993,1.2,PHI,2.4,8.0
23.0,2.2,1.3,6.6,0.487,6.8,14.1,0.235,0.0,0.2,0.483,6.9,14.3,0.693,3.4,4.9,82.0,82.0,NBA,3147.0,2.9,1.7,SF,17.2,1994,1.1,PHI,2.2,9.5
24.0,2.6,0.8,4.6,0.443,6.5,14.6,0.19,0.0,0.3,0.439,6.5,14.9,0.751,3.4,4.5,76.0,76.0,NBA,2991.0,1.7,2.3,SF,16.5,1995,1.4,PHI,2.3,6.3
25.0,1.8,1.3,6.0,0.485,5.7,11.8,0.0,0.0,0.0,0.484,5.7,11.8,0.746,3.7,5.0,78.0,75.0,NBA,3096.0,2.8,2.5,SF,15.1,1996,1.3,PHI,2.1,8.8
26.0,1.7,1.0,5.6,0.493,4.8,9.8,0.167,0.0,0.1,0.491,4.9,9.9,0.738,2.5,3.4,82.0,82.0,NBA,2949.0,2.7,2.3,SF,12.2,1997,0.9,PHI,1.7,8.3
27.0,1.4,1.1,6.1,0.441,4.1,9.4,0.0,0.0,0.0,0.441,4.1,9.4,0.722,3.1,4.3,79.0,49.0,NBA,2325.0,3.1,3.0,PF,11.4,1998,1.3,TOT,1.8,9.2
27.0,1.1,1.5,6.3,0.426,3.9,9.2,0.0,0.0,0.0,0.426,3.9,9.2,0.707,3.4,4.9,48.0,18.0,NBA,1290.0,3.0,3.0,PF,11.3,1998,1.2,PHI,1.9,9.4
27.0,1.7,0.8,5.9,0.458,4.4,9.6,0.0,0.0,0.0,0.458,4.4,9.6,0.748,2.7,3.6,31.0,31.0,NBA,1035.0,3.1,3.0,PF,11.5,1998,1.5,GSW,1.7,9.0
28.0,1.2,0.6,5.9,0.534,4.9,9.1,0.0,0.0,0.0,0.534,4.9,9.1,0.804,4.0,5.0,49.0,3.0,NBA,1040.0,2.5,3.7,SF,13.7,1999,1.0,MIA,2.1,8.4
29.0,2.1,1.1,7.2,0.513,4.8,9.3,0.0,0.0,0.0,0.513,4.8,9.3,0.738,3.0,4.1,78.0,2.0,NBA,1615.0,2.9,3.7,PF,12.6,2000,1.1,MIA,2.2,10.0
30.0,1.3,1.4,7.4,0.501,4.5,9.0,0.0,0.0,0.0,0.501,4.5,9.0,0.79,3.0,3.8,82.0,82.0,NBA,2774.0,2.9,2.2,PF,12.0,2001,1.1,CLE,1.5,10.3
31.0,1.2,1.0,6.5,0.418,3.9,9.4,0.0,0.0,0.0,0.418,3.9,9.4,0.795,2.4,3.0,56.0,41.0,NBA,1728.0,3.1,2.7,PF,10.3,2002,0.8,NYK,1.0,9.6
32.0,1.2,0.6,6.8,0.449,3.3,7.4,0.0,0.0,0.0,0.449,3.3,7.4,0.768,2.7,3.5,79.0,19.0,NBA,2024.0,3.8,3.1,PF,9.3,2003,1.2,NYK,1.1,10.7
33.0,1.2,0.6,5.4,0.495,4.3,8.7,0.0,0.0,0.0,0.493,4.3,8.8,0.736,2.2,3.0,52.0,1.0,NBA,868.0,3.1,3.1,PF,10.8,2004,1.2,TOT,1.5,8.5
33.0,2.2,0.3,6.0,0.45,3.0,6.7,0.0,0.0,0.0,0.45,3.0,6.7,0.947,3.0,3.2,15.0,1.0,NBA,216.0,2.3,3.2,PF,9.0,2004,1.3,NYK,1.5,8.3
33.0,0.9,0.7,5.2,0.506,4.7,9.4,0.0,0.0,0.1,0.503,4.7,9.4,0.66,1.9,2.9,37.0,0.0,NBA,652.0,3.3,3.1,PF,11.4,2004,1.2,HOU,1.4,8.5
34.0,1.2,0.4,6.0,0.412,3.2,7.8,0.0,0.0,0.0,0.412,3.2,7.8,0.829,2.0,2.4,40.0,18.0,NBA,525.0,2.4,5.1,PF,8.4,2005,0.6,HOU,1.0,8.4
