lg_id,salary,season,team_name
NBA,1074720.0,2001,Seattle SuperSonics
NBA,1155240.0,2002,Seattle SuperSonics
NBA,1235880.0,2003,Seattle SuperSonics
NBA,1898312.0,2004,Milwaukee Bucks
NBA,6529630.0,2005,Milwaukee Bucks
NBA,7333333.0,2006,New Orleans/Oklahoma City Hornets
NBA,8037037.0,2007,New Orleans/Oklahoma City Hornets
NBA,5000000.0,2008,Milwaukee Bucks
NBA,5300000.0,2009,Oklahoma City Thunder
NBA,76850.0,2010,Sacramento Kings
