age,ast,ast_per_g,blk,college_id,fg,fg3,fg3_pct,fg3a,fg_pct,fga,ft,ft_pct,fta,g,mp,mp_per_g,orb,pf,pts,pts_per_g,season,stl,tov,trb,trb_per_g
19.0,15.0,0.5,5.0,TEMPLE,32.0,20.0,0.25,80.0,0.281,114.0,27.0,0.587,46.0,32.0,0.0,0.0,0.0,0.0,111.0,3.5,2006,16.0,0.0,51.0,1.6
20.0,62.0,2.1,11.0,TEMPLE,192.0,88.0,0.4,220.0,0.466,412.0,128.0,0.871,147.0,30.0,0.0,0.0,0.0,0.0,600.0,20.0,2007,41.0,0.0,126.0,4.2
21.0,86.0,2.5,7.0,TEMPLE,210.0,104.0,0.369,282.0,0.439,478.0,146.0,0.772,189.0,34.0,0.0,0.0,0.0,0.0,670.0,19.7,2008,46.0,96.0,202.0,5.9
22.0,98.0,2.9,5.0,TEMPLE,218.0,107.0,0.352,304.0,0.414,527.0,119.0,0.753,158.0,34.0,0.0,0.0,0.0,0.0,662.0,19.5,2009,51.0,98.0,197.0,5.8
