age,ast,blk,drb,fg,fg2,fg2a,fg3,fg3a,fga,ft,fta,game_score,lg_id,mp,orb,pf,pts,season,stl,team_id,tov,trb
26.0,2.0,0.0,1.0,0.0,0.0,1.0,0.0,0.0,1.0,0.0,0.0,0.2,NBA,6,0.0,2.0,0.0,2007,1.0,TOT,1.0,1.0
26.0,2.0,0.0,1.0,0.0,0.0,1.0,0.0,0.0,1.0,0.0,0.0,0.2,NBA,6,0.0,2.0,0.0,2007,1.0,NJN,1.0,1.0
