age,ast,ast_per_g,blk,college_id,fg,fg3,fg3_pct,fg3a,fg_pct,fga,ft,ft_pct,fta,g,mp,mp_per_g,orb,pf,pts,pts_per_g,season,stl,tov,trb,trb_per_g
18.0,27.0,1.0,0.0,HAMPTON,65.0,0.0,0.0,0.0,0.409,159.0,29.0,0.659,44.0,28.0,0.0,0.0,0.0,0.0,159.0,5.7,1977,0.0,0.0,168.0,6.0
19.0,26.0,0.9,0.0,HAMPTON,291.0,0.0,0.0,0.0,0.511,570.0,137.0,0.678,202.0,30.0,0.0,0.0,0.0,0.0,719.0,24.0,1978,0.0,0.0,377.0,12.6
20.0,21.0,0.7,0.0,HAMPTON,274.0,0.0,0.0,0.0,0.56,489.0,137.0,0.685,200.0,30.0,0.0,0.0,0.0,0.0,685.0,22.8,1979,0.0,0.0,430.0,14.3
21.0,38.0,1.2,0.0,HAMPTON,352.0,0.0,0.0,0.0,0.567,621.0,151.0,0.686,220.0,31.0,1123.0,36.2,0.0,0.0,855.0,27.6,1980,0.0,0.0,490.0,15.8
