lg_id,salary,season,team_name
NBA,361000.0,1985,Washington Bullets
NBA,411000.0,1986,Detroit Pistons
NBA,500000.0,1987,Detroit Pistons
NBA,575000.0,1988,Detroit Pistons
NBA,600000.0,1989,Detroit Pistons
NBA,1330000.0,1991,Philadelphia 76ers
NBA,500000.0,1993,New Jersey Nets
NBA,650000.0,1994,New Jersey Nets
NBA,800000.0,1995,New Jersey Nets
NBA,400000.0,1996,New Jersey Nets
NBA,400000.0,1997,Detroit Pistons
NBA,480000.0,1998,Detroit Pistons
NBA,1000000.0,1999,Philadelphia 76ers
NBA,510000.0,2000,Philadelphia 76ers
