age,avg_dist,fg2_dunk,fg2_pct,fg2_pct_ast,fg2a_pct_fga,fg3_heave,fg3_pct,fg3_pct_ast,fg3_pct_corner,fg3a_heave,fg3a_pct_fga,fg_pct,fg_pct_00_03,fg_pct_03_10,fg_pct_10_16,fg_pct_16_xx,g,lg_id,mp,pct_fg2_dunk,pct_fg3a_corner,pct_fga_00_03,pct_fga_03_10,pct_fga_10_16,pct_fga_16_xx,pos,season,team_id
21.0,14.6,0.0,0.333,0.316,0.648,0.0,0.226,1.0,0.5,1.0,0.352,0.295,0.538,0.182,0.0,0.176,27.0,NBA,202.0,0.0,0.129,0.295,0.125,0.034,0.193,PG,2013,TOT
21.0,15.1,0.0,0.298,0.357,0.653,0.0,0.2,1.0,0.5,1.0,0.347,0.264,0.55,0.0,0.0,0.188,21.0,NBA,165.0,0.0,0.08,0.278,0.111,0.042,0.222,PG,2013,PHI
21.0,12.3,0.0,0.5,0.2,0.625,0.0,0.333,1.0,0.5,0.0,0.375,0.438,0.5,0.667,0.0,0.0,6.0,NBA,37.0,0.0,0.333,0.375,0.188,0.0,0.063,PG,2013,LAC
22.0,11.5,0.0,0.5,1.0,1.0,0.0,0.0,0.0,0.0,0.0,0.0,0.5,0.0,0.0,1.0,0.0,2.0,NBA,9.0,0.0,0.0,0.0,0.5,0.5,0.0,PG,2014,LAC
