age,ast_per_mp,blk_per_mp,drb_per_mp,fg2_pct,fg2_per_mp,fg2a_per_mp,fg3_pct,fg3_per_mp,fg3a_per_mp,fg_pct,fg_per_mp,fga_per_mp,ft_pct,ft_per_mp,fta_per_mp,g,gs,lg_id,mp,orb_per_mp,pf_per_mp,pos,pts_per_mp,season,stl_per_mp,team_id,tov_per_mp,trb_per_mp
21.0,4.0,0.4,3.3,0.502,5.6,11.1,0.34,2.6,7.5,0.437,8.1,18.6,0.805,3.3,4.1,79.0,71.0,NBA,2638.0,0.7,2.9,SG,22.1,2018,1.6,UTA,2.9,4.0
22.0,4.5,0.4,3.6,0.468,6.6,14.0,0.362,2.6,7.2,0.432,9.2,21.2,0.806,4.4,5.5,77.0,77.0,NBA,2598.0,0.8,2.9,SG,25.3,2019,1.5,UTA,3.0,4.4
23.0,4.2,0.1,4.1,0.506,7.9,15.6,0.408,1.9,4.6,0.484,9.8,20.3,0.787,4.5,5.7,11.0,11.0,NBA,382.0,1.3,2.6,SG,26.0,2020,1.6,UTA,2.5,5.4
