article_url,date,headline
https://fansided.com/2019/11/15/draftkings-nba-picks-november-15-3/,2019/11/15,FanSided: DraftKings NBA picks November 15: The flames of James
https://thejnotes.com/2019/11/14/nba-2k-depicts-an-almost-accurate-picture-of-the-utah-jazz/,2019/11/14,Purple and Blues: NBA 2K depicts an (almost) accurate picture of the Utah Jazz
https://thejnotes.com/2019/11/13/projecting-utah-jazz-championship-window-part-ii/,2019/11/13,Purple and Blues: Projecting the Utah Jazz Championship Window: Part II
