age,avg_dist,fg2_dunk,fg2_pct,fg2_pct_ast,fg2a_pct_fga,fg3_heave,fg3_pct,fg3_pct_ast,fg3_pct_corner,fg3a_heave,fg3a_pct_fga,fg_pct,fg_pct_00_03,fg_pct_03_10,fg_pct_10_16,fg_pct_16_xx,g,lg_id,mp,pct_fg2_dunk,pct_fg3a_corner,pct_fga_00_03,pct_fga_03_10,pct_fga_10_16,pct_fga_16_xx,pos,season,team_id
19.0,4.9,82.0,0.517,0.619,1.0,0.0,0.0,0.0,0.0,0.0,0.0,0.517,0.646,0.371,0.342,0.242,78.0,NBA,1535.0,0.219,0.0,0.577,0.252,0.091,0.079,PF,2011,TOT
19.0,4.6,59.0,0.511,0.631,1.0,0.0,0.0,0.0,0.0,0.0,0.0,0.511,0.627,0.386,0.348,0.118,56.0,NBA,1091.0,0.243,0.0,0.601,0.254,0.083,0.062,PF,2011,NJN
19.0,5.5,23.0,0.529,0.595,1.0,0.0,0.0,0.0,0.0,0.0,0.0,0.529,0.689,0.343,0.333,0.375,22.0,NBA,444.0,0.171,0.0,0.529,0.25,0.107,0.114,PF,2011,UTA
20.0,4.9,68.0,0.499,0.572,1.0,0.0,0.0,0.0,0.0,0.0,0.0,0.499,0.658,0.352,0.235,0.269,65.0,NBA,1376.0,0.164,0.0,0.539,0.288,0.115,0.058,PF,2012,UTA
21.0,6.0,80.0,0.487,0.606,0.991,0.0,0.0,0.0,0.0,2.0,0.009,0.482,0.67,0.282,0.365,0.258,77.0,NBA,1787.0,0.157,0.2,0.507,0.262,0.111,0.109,PF,2013,UTA
22.0,6.1,77.0,0.523,0.628,0.999,0.0,0.0,0.0,0.0,0.0,0.001,0.522,0.696,0.388,0.37,0.263,73.0,NBA,2201.0,0.114,0.0,0.479,0.262,0.181,0.076,PF,2014,UTA
23.0,7.2,105.0,0.527,0.68,0.993,0.0,0.167,1.0,0.5,0.0,0.007,0.525,0.745,0.327,0.401,0.341,74.0,NBA,2280.0,0.117,0.333,0.436,0.22,0.204,0.134,PF,2015,UTA
24.0,7.7,85.0,0.518,0.646,0.995,0.0,0.0,0.0,0.0,2.0,0.005,0.515,0.714,0.453,0.391,0.331,62.0,NBA,1983.0,0.107,0.0,0.38,0.21,0.249,0.157,PF,2016,UTA
25.0,8.4,52.0,0.491,0.795,0.976,0.0,0.3,1.0,0.333,0.0,0.024,0.487,0.607,0.476,0.432,0.337,50.0,NBA,1186.0,0.144,0.3,0.391,0.201,0.177,0.206,PF,2017,UTA
26.0,7.4,150.0,0.596,0.785,0.91,0.0,0.222,1.0,0.236,1.0,0.09,0.563,0.769,0.413,0.405,0.391,77.0,NBA,2153.0,0.226,0.873,0.48,0.179,0.12,0.131,C,2018,UTA
27.0,6.6,146.0,0.64,0.754,0.874,0.0,0.218,1.0,0.213,0.0,0.126,0.586,0.744,0.444,0.426,0.375,76.0,NBA,1766.0,0.258,0.782,0.586,0.16,0.076,0.052,C,2019,UTA
28.0,6.6,1.0,0.619,0.846,0.955,0.0,0.0,0.0,0.0,0.0,0.045,0.591,0.875,0.75,0.0,0.0,4.0,NBA,69.0,0.091,1.0,0.364,0.364,0.227,0.0,C,2020,NOP
