lg_id,salary,season,team_name
NBA,4133280.0,2011,Utah Jazz
NBA,4443360.0,2012,Utah Jazz
NBA,4753320.0,2013,Utah Jazz
NBA,6008196.0,2014,Utah Jazz
NBA,12833333.0,2015,Utah Jazz
NBA,11933333.0,2016,Utah Jazz
NBA,11050000.0,2017,Utah Jazz
NBA,12000000.0,2018,Utah Jazz
NBA,16000000.0,2019,Utah Jazz
