age,ast_per_mp,blk_per_mp,drb_per_mp,fg2_pct,fg2_per_mp,fg2a_per_mp,fg3_pct,fg3_per_mp,fg3a_per_mp,fg_pct,fg_per_mp,fga_per_mp,ft_pct,ft_per_mp,fta_per_mp,g,gs,lg_id,mp,orb_per_mp,pf_per_mp,pos,pts_per_mp,season,stl_per_mp,team_id,tov_per_mp,trb_per_mp
22.0,3.7,1.5,4.6,0.535,3.7,6.8,0.3,0.9,2.9,0.465,4.5,9.7,0.741,1.9,2.6,12.0,12.0,NBA,374.0,1.3,2.9,SF,11.8,1993,1.7,HOU,2.7,6.0
23.0,3.8,0.9,4.6,0.467,3.0,6.3,0.382,1.6,4.1,0.434,4.5,10.5,0.765,1.8,2.4,23.0,23.0,NBA,778.0,1.9,3.1,SF,12.4,1994,1.6,HOU,1.2,6.5
24.0,3.3,1.1,4.9,0.495,2.1,4.2,0.4,1.9,4.7,0.445,4.0,8.9,0.744,2.5,3.3,22.0,22.0,NBA,841.0,1.7,3.0,PF,12.3,1995,1.4,HOU,1.1,6.6
25.0,2.8,1.5,4.9,0.421,1.9,4.4,0.396,2.5,6.2,0.407,4.3,10.6,0.435,1.2,2.7,8.0,8.0,NBA,308.0,1.8,3.4,SF,12.3,1996,2.5,HOU,1.8,6.7
26.0,1.7,0.9,4.6,0.5,0.6,1.3,0.429,1.5,3.6,0.447,2.2,4.9,0.778,1.8,2.3,9.0,9.0,NBA,279.0,1.5,3.5,SF,7.7,1997,1.3,LAL,1.4,6.2
27.0,3.4,1.2,4.3,0.623,2.8,4.5,0.353,0.5,1.5,0.557,3.3,6.0,0.683,2.4,3.5,13.0,13.0,NBA,422.0,2.9,3.8,PF,9.6,1998,1.2,LAL,1.5,7.2
28.0,2.2,1.2,5.3,0.5,1.4,2.8,0.417,1.0,2.4,0.462,2.4,5.3,0.786,2.2,2.8,8.0,0.0,NBA,177.0,2.0,5.9,PF,8.1,1999,1.2,LAL,1.4,7.3
29.0,3.4,1.1,5.0,0.488,2.4,5.0,0.288,1.0,3.4,0.407,3.4,8.4,0.702,2.3,3.3,23.0,0.0,NBA,618.0,2.2,5.1,PF,10.2,2000,1.2,LAL,1.7,7.2
30.0,2.9,1.5,5.0,0.375,1.4,3.8,0.362,1.6,4.4,0.368,3.0,8.2,0.591,1.2,2.1,16.0,0.0,NBA,382.0,2.8,4.7,PF,8.9,2001,2.1,LAL,1.7,7.8
31.0,3.1,0.8,6.0,0.5,1.9,3.8,0.387,1.2,3.2,0.449,3.1,7.0,0.789,1.5,1.9,19.0,14.0,NBA,703.0,1.8,3.4,PF,9.0,2002,1.7,LAL,1.5,7.9
32.0,3.6,1.2,5.5,0.5,2.7,5.4,0.053,0.2,3.7,0.319,2.9,9.1,0.556,0.5,0.9,12.0,10.0,NBA,373.0,2.2,3.6,PF,6.5,2003,1.4,LAL,1.6,7.7
33.0,1.5,0.3,6.5,0.571,2.0,3.6,0.364,1.4,3.8,0.465,3.4,7.3,0.929,2.2,2.4,10.0,0.0,NBA,211.0,4.3,5.3,PF,10.4,2004,1.4,SAS,1.7,10.7
34.0,2.7,1.2,4.6,0.449,2.0,4.5,0.447,2.2,5.0,0.448,4.3,9.5,0.732,1.7,2.4,23.0,0.0,NBA,618.0,2.7,3.1,PF,12.5,2005,1.2,SAS,1.2,7.3
35.0,1.8,1.4,4.7,0.45,1.4,3.2,0.353,1.0,2.7,0.405,2.4,5.9,0.731,3.1,4.2,13.0,5.0,NBA,224.0,3.1,5.0,PF,8.8,2006,0.8,SAS,1.6,7.7
36.0,2.9,2.4,5.4,0.522,1.2,2.3,0.351,1.3,3.7,0.417,2.5,6.0,0.824,1.4,1.7,18.0,0.0,NBA,361.0,1.6,3.0,PF,7.7,2007,1.1,SAS,1.4,7.0
37.0,1.9,1.2,4.9,0.143,0.5,3.3,0.227,1.2,5.1,0.194,1.6,8.4,0.667,0.9,1.4,15.0,0.0,NBA,154.0,2.6,7.9,PF,5.4,2008,1.2,SAS,0.5,7.5
