age,ast,ast_per_g,blk,college_id,fg,fg3,fg3_pct,fg3a,fg_pct,fga,ft,ft_pct,fta,g,mp,mp_per_g,orb,pf,pts,pts_per_g,season,stl,tov,trb,trb_per_g
18.0,35.0,1.1,37.0,ALABAMA,79.0,4.0,0.308,13.0,0.427,185.0,38.0,0.644,59.0,31.0,590.0,19.0,0.0,72.0,200.0,6.5,1989,22.0,36.0,156.0,5.0
19.0,9.0,0.3,51.0,ALABAMA,164.0,50.0,0.427,117.0,0.467,351.0,79.0,0.76,104.0,35.0,1022.0,29.2,0.0,92.0,457.0,13.1,1990,54.0,77.0,217.0,6.2
20.0,56.0,1.8,77.0,ALABAMA,133.0,33.0,0.337,98.0,0.449,296.0,82.0,0.804,102.0,32.0,959.0,30.0,0.0,104.0,381.0,11.9,1991,38.0,74.0,260.0,8.1
21.0,88.0,2.5,121.0,ALABAMA,196.0,42.0,0.35,120.0,0.47,417.0,120.0,0.727,165.0,35.0,1185.0,33.9,0.0,100.0,554.0,15.8,1992,54.0,102.0,296.0,8.5
