age,and1s,astd_pts,drawn_offensive,drawn_shooting,fouls_offensive,fouls_shooting,g,lg_id,mp,own_shots_blk,pct_1,pct_2,pct_3,pct_4,pct_5,plus_minus_net,plus_minus_on,pos,season,team_id,tov_bad_pass,tov_lost_ball
22.0,4.0,73.0,3.0,1.0,1.0,10.0,38.0,NBA,371.0,17.0,4.0,61.0,31.0,4.0,0.0,-3.6,-4.4,SF,2017,ATL,9.0,5.0
23.0,3.0,115.0,6.0,11.0,1.0,19.0,26.0,NBA,455.0,11.0,0.0,19.0,70.0,12.0,0.0,1.1,-5.0,SF,2018,ATL,22.0,16.0
24.0,17.0,496.0,21.0,62.0,9.0,86.0,82.0,NBA,1931.0,45.0,0.0,30.0,68.0,2.0,0.0,1.8,-5.0,SG,2019,ATL,72.0,45.0
25.0,0.0,56.0,1.0,8.0,2.0,5.0,7.0,NBA,169.0,3.0,28.0,68.0,4.0,0.0,0.0,-14.1,-9.4,SG,2020,ATL,9.0,3.0
