article_url,date,headline
https://www.fantasycruncher.com/articles/2019/10/31/fanduel-nba-dfs-core-plays-cheat-sheet-october-31-2019/,2019/10/31,"Fantasy Cruncher: FanDuel NBA DFS Core Plays & Cheat Sheet – October 31, 2019"
https://fansided.com/2019/10/31/fanduel-nba-breakdown-thursday-oct-31st/,2019/10/31,FanSided: FanDuel NBA breakdown Thursday Oct 31st - Joker against the world
https://atlallday.com/2019/10/30/atlanta-hawks-injury-shows-point-guard-needed/,2019/10/30,ATL All Day: Atlanta Hawks: Young's Injury Shows Point Guard Help Needed
