age,ast,blk,drb,efg_pct,fg,fg2,fg2_pct,fg2a,fg3,fg3_pct,fg3a,fg_pct,fga,ft,ft_pct,fta,g,gs,lg_id,mp,orb,pf,pos,pts,season,stl,team_id,tov,trb
22.0,1.0,0.0,1.0,0.0,0.0,0.0,0.0,2.0,0.0,0.0,0.0,0.0,2.0,0.0,0.0,0.0,2.0,0.0,NBA,10.0,2.0,1.0,PF,0.0,2017,1.0,TOR,0.0,3.0
23.0,8.0,6.0,27.0,0.646,25.0,22.0,0.595,37.0,3.0,0.75,4.0,0.61,41.0,13.0,0.65,20.0,10.0,0.0,NBA,179.0,9.0,27.0,PF,66.0,2018,1.0,TOR,7.0,36.0
24.0,66.0,17.0,131.0,0.508,180.0,151.0,0.541,279.0,29.0,0.279,104.0,0.47,383.0,66.0,0.759,87.0,24.0,24.0,NBA,891.0,40.0,67.0,PF,455.0,2019,25.0,TOR,33.0,171.0
