age,ast,blk,drb,efg_pct,fg,fg2,fg2_pct,fg2a,fg3,fg3_pct,fg3a,fg_pct,fga,ft,ft_pct,fta,g,gs,lg_id,mp,orb,pf,pos,pts,season,stl,team_id,tov,trb
22.0,17.0,45.0,121.0,0.505,103.0,102.0,0.515,198.0,1.0,0.143,7.0,0.502,205.0,22.0,0.688,32.0,55.0,38.0,NBA,859.0,64.0,109.0,PF,229.0,2017,26.0,TOR,33.0,185.0
23.0,159.0,42.0,285.0,0.537,253.0,224.0,0.612,366.0,29.0,0.22,132.0,0.508,498.0,54.0,0.621,87.0,81.0,5.0,NBA,1679.0,79.0,166.0,PF,589.0,2018,62.0,TOR,67.0,364.0
24.0,248.0,52.0,425.0,0.591,519.0,440.0,0.602,731.0,79.0,0.369,214.0,0.549,945.0,237.0,0.785,302.0,80.0,79.0,NBA,2548.0,124.0,241.0,PF,1354.0,2019,73.0,TOR,154.0,549.0
25.0,42.0,6.0,82.0,0.546,113.0,88.0,0.54,163.0,25.0,0.373,67.0,0.491,230.0,48.0,0.842,57.0,11.0,11.0,NBA,404.0,19.0,39.0,PF,299.0,2020,8.0,TOR,34.0,101.0
