age,ast,blk,drb,fg,fg2,fg2a,fg3,fg3a,fga,ft,fta,game_score,lg_id,mp,orb,pf,pts,season,stl,team_id,tov,trb
22.0,2.0,4.0,9.0,7.0,7.0,11.0,1.0,1.0,12.0,4.0,4.0,10.3,NBA,31,4.0,5.0,14.0,2017,2.0,TOR,3.0,10.0
23.0,6.0,3.0,7.0,9.0,7.0,9.0,2.0,6.0,12.0,6.0,6.0,17.4,NBA,35,4.0,5.0,20.0,2018,3.0,TOR,3.0,9.0
24.0,7.0,3.0,14.0,15.0,13.0,20.0,4.0,7.0,25.0,10.0,12.0,33.4,NBA,45,6.0,6.0,44.0,2019,4.0,TOR,7.0,19.0
25.0,6.0,3.0,12.0,17.0,12.0,21.0,5.0,10.0,28.0,10.0,11.0,32.6,NBA,44,6.0,6.0,44.0,2020,2.0,TOR,5.0,18.0
