age,ast,blk,drb,efg_pct,fg,fg2,fg2_pct,fg2a,fg3,fg3_pct,fg3a,fg_pct,fga,ft,ft_pct,fta,g,gs,lg_id,mp,orb,pf,pos,pts,season,stl,team_id,tov,trb
21.0,39.0,83.0,223.0,0.529,236.0,236.0,0.53,445.0,0.0,0.0,1.0,0.529,446.0,101.0,0.515,196.0,55.0,34.0,NBA,1118.0,113.0,221.0,C,573.0,1992,22.0,ORL,78.0,336.0
22.0,59.0,141.0,297.0,0.527,375.0,375.0,0.527,711.0,0.0,0.0,0.0,0.527,711.0,120.0,0.488,246.0,77.0,76.0,NBA,1816.0,181.0,332.0,C,870.0,1993,34.0,LAC,121.0,478.0
23.0,11.0,25.0,66.0,0.43,43.0,43.0,0.43,100.0,0.0,0.0,0.0,0.43,100.0,18.0,0.409,44.0,14.0,14.0,NBA,350.0,27.0,54.0,C,104.0,1994,6.0,LAC,24.0,93.0
25.0,41.0,39.0,120.0,0.464,141.0,141.0,0.464,304.0,0.0,0.0,0.0,0.464,304.0,74.0,0.556,133.0,51.0,7.0,NBA,795.0,42.0,153.0,C,356.0,1996,15.0,LAC,48.0,162.0
26.0,9.0,23.0,67.0,0.426,63.0,63.0,0.426,148.0,0.0,0.0,0.0,0.426,148.0,45.0,0.703,64.0,18.0,2.0,NBA,378.0,24.0,57.0,C,171.0,1997,8.0,LAC,23.0,91.0
27.0,27.0,72.0,254.0,0.495,191.0,191.0,0.495,386.0,0.0,0.0,0.0,0.495,386.0,75.0,0.481,156.0,74.0,44.0,NBA,1328.0,109.0,226.0,C,457.0,1998,24.0,MIN,70.0,363.0
28.0,0.0,1.0,7.0,0.385,5.0,5.0,0.385,13.0,0.0,0.0,0.0,0.385,13.0,4.0,0.5,8.0,6.0,0.0,NBA,33.0,4.0,2.0,C,14.0,1999,0.0,HOU,4.0,11.0
29.0,3.0,1.0,9.0,0.313,5.0,5.0,0.333,15.0,0.0,0.0,1.0,0.313,16.0,0.0,0.0,3.0,5.0,1.0,NBA,51.0,6.0,15.0,C,10.0,2000,1.0,PHI,2.0,15.0
