age,ast,blk,drb,efg_pct,fg,fg2,fg2_pct,fg2a,fg3,fg3_pct,fg3a,fg_pct,fga,ft,ft_pct,fta,g,gs,lg_id,mp,orb,pf,pos,pts,season,stl,team_id,tov,trb
24.0,3.0,0.0,1.0,0.545,6.0,6.0,0.667,9.0,0.0,0.0,2.0,0.545,11.0,3.0,0.75,4.0,4.0,0.0,NBA,18.0,0.0,3.0,PG,15.0,1995,4.0,CLE,3.0,1.0
25.0,8.0,1.0,4.0,0.235,4.0,4.0,0.235,17.0,0.0,0.0,0.0,0.235,17.0,3.0,0.75,4.0,8.0,0.0,NBA,66.0,1.0,6.0,PG,11.0,1996,1.0,PHI,7.0,5.0
26.0,11.0,0.0,4.0,0.395,6.0,3.0,0.3,10.0,3.0,0.333,9.0,0.316,19.0,7.0,0.7,10.0,9.0,0.0,NBA,75.0,0.0,7.0,PG,22.0,1997,4.0,TOT,10.0,4.0
26.0,4.0,0.0,1.0,0.417,2.0,1.0,0.333,3.0,1.0,0.333,3.0,0.333,6.0,5.0,0.833,6.0,4.0,0.0,NBA,16.0,0.0,1.0,PG,10.0,1997,2.0,HOU,0.0,1.0
26.0,7.0,0.0,3.0,0.385,4.0,2.0,0.286,7.0,2.0,0.333,6.0,0.308,13.0,2.0,0.5,4.0,5.0,0.0,NBA,59.0,0.0,6.0,PG,12.0,1997,2.0,DEN,10.0,3.0
