age,ast_per_poss,blk_per_poss,def_rtg,drb_per_poss,fg2_pct,fg2_per_poss,fg2a_per_poss,fg3_pct,fg3_per_poss,fg3a_per_poss,fg_pct,fg_per_poss,fga_per_poss,ft_pct,ft_per_poss,fta_per_poss,g,gs,lg_id,mp,off_rtg,orb_per_poss,pf_per_poss,pos,pts_per_poss,season,stl_per_poss,team_id,tov_per_poss,trb_per_poss
19.0,1.8,0.5,116.0,6.1,0.387,4.8,12.3,0.343,2.8,8.1,0.37,7.5,20.4,0.717,3.6,5.0,75.0,57.0,NBA,2158.0,93.0,1.4,3.9,PF,21.5,2019,1.0,NYK,2.5,7.5
20.0,3.0,0.5,113.0,5.3,0.405,3.0,7.4,0.447,3.7,8.3,0.427,6.7,15.7,0.647,3.9,6.0,12.0,0.0,NBA,274.0,116.0,1.4,4.2,SF,21.0,2020,1.4,NYK,1.6,6.7
