age,ast_pct,blk_pct,bpm,bpm-dum,dbpm,drb_pct,dws,fg3a_per_fga_pct,fta_per_fga_pct,g,lg_id,mp,obpm,orb_pct,ows,per,pos,season,stl_pct,team_id,tov_pct,trb_pct,ts_pct,usg_pct,vorp,ws,ws-dum,ws_per_48
21.0,2.7,2.8,-0.7,0.0,0.5,15.7,0.7,0.0,0.496,54.0,NBA,626.0,-1.2,14.1,0.9,12.2,C,2017,1.4,TOR,17.2,14.9,0.589,12.1,0.2,1.6,0.0,0.125
22.0,5.4,5.2,3.3,0.0,2.9,16.4,2.4,0.005,0.263,82.0,NBA,1524.0,0.4,12.4,3.1,17.5,C,2018,1.3,TOR,16.6,14.4,0.662,14.8,2.0,5.6,0.0,0.175
23.0,10.0,4.5,4.2,0.0,2.7,19.7,1.6,0.0,0.317,77.0,NBA,1273.0,1.5,15.4,3.5,19.4,C,2019,1.1,SAS,12.7,17.6,0.64,13.1,2.0,5.1,0.0,0.193
24.0,13.3,3.5,1.3,0.0,1.8,19.0,0.1,0.0,0.457,11.0,NBA,159.0,-0.5,14.0,0.2,15.2,C,2020,1.2,SAS,19.2,16.4,0.535,13.5,0.1,0.3,0.0,0.105
