age,and1s,astd_pts,drawn_offensive,drawn_shooting,fouls_offensive,fouls_shooting,g,lg_id,mp,own_shots_blk,pct_1,pct_2,pct_3,pct_4,pct_5,plus_minus_net,plus_minus_on,pos,season,team_id,tov_bad_pass,tov_lost_ball
21.0,5.0,30.0,1.0,25.0,12.0,58.0,54.0,NBA,626.0,11.0,0.0,0.0,0.0,4.0,96.0,-4.6,0.6,C,2017,TOR,7.0,6.0
22.0,22.0,147.0,5.0,51.0,34.0,112.0,82.0,NBA,1524.0,35.0,0.0,0.0,0.0,0.0,100.0,0.8,8.5,C,2018,TOR,20.0,20.0
23.0,12.0,219.0,8.0,39.0,9.0,80.0,77.0,NBA,1273.0,19.0,0.0,0.0,0.0,26.0,74.0,3.7,4.6,C,2019,SAS,23.0,9.0
24.0,2.0,38.0,1.0,7.0,1.0,16.0,11.0,NBA,159.0,6.0,0.0,0.0,0.0,0.0,100.0,11.0,6.2,C,2020,SAS,6.0,2.0
