age,ast_per_g,blk_per_g,drb_per_g,efg_pct,fg2_pct,fg2_per_g,fg2a_per_g,fg3_pct,fg3_per_g,fg3a_per_g,fg_pct,fg_per_g,fga_per_g,ft_pct,ft_per_g,fta_per_g,g,gs,lg_id,mp_per_g,orb_per_g,pf_per_g,pos,pts_per_g,season,stl_per_g,team_id,tov_per_g,trb_per_g
23.0,0.0,0.5,1.0,0.75,0.75,0.8,1.0,0.0,0.0,0.0,0.75,0.8,1.0,0.5,0.3,0.5,4.0,0.0,NBA,7.8,0.8,2.0,C,1.8,2008,0.3,DET,0.3,1.8
24.0,0.1,0.6,0.8,0.188,0.207,0.3,1.6,0.0,0.0,0.2,0.188,0.3,1.8,0.429,0.2,0.4,18.0,0.0,NBA,4.6,0.6,0.4,C,0.8,2009,0.2,TOT,0.2,1.3
24.0,0.2,0.8,1.2,0.154,0.167,0.3,2.0,0.0,0.0,0.2,0.154,0.3,2.2,0.0,0.0,0.0,6.0,0.0,NBA,4.0,0.3,0.7,C,0.7,2009,0.3,DEN,0.3,1.5
24.0,0.0,0.5,0.6,0.25,0.286,0.4,1.4,0.0,0.0,0.2,0.25,0.4,1.6,0.6,0.3,0.5,10.0,0.0,NBA,5.1,0.7,0.3,C,1.1,2009,0.1,LAC,0.1,1.3
24.0,0.0,0.0,0.5,0.0,0.0,0.0,1.5,0.0,0.0,0.0,0.0,0.0,1.5,0.0,0.0,1.0,2.0,0.0,NBA,4.0,0.5,0.0,C,0.0,2009,0.0,NYK,0.0,1.0
