age,ast,ast_per_g,blk,college_id,fg,fg3,fg3_pct,fg3a,fg_pct,fga,ft,ft_pct,fta,g,mp,mp_per_g,orb,pf,pts,pts_per_g,season,stl,tov,trb,trb_per_g
19.0,183.0,6.3,0.0,ETENNST,116.0,34.0,0.382,89.0,0.489,237.0,109.0,0.826,132.0,29.0,1060.0,36.6,0.0,77.0,375.0,12.9,1988,75.0,113.0,119.0,4.1
20.0,202.0,6.5,0.0,ETENNST,134.0,42.0,0.447,94.0,0.51,263.0,138.0,0.847,163.0,31.0,1007.0,32.5,0.0,88.0,448.0,14.5,1989,66.0,75.0,114.0,3.7
21.0,297.0,8.7,2.0,ETENNST,167.0,63.0,0.496,127.0,0.574,291.0,107.0,0.877,122.0,34.0,1123.0,33.0,0.0,63.0,504.0,14.8,1990,84.0,101.0,132.0,3.9
22.0,301.0,9.1,2.0,ETENNST,221.0,84.0,0.592,142.0,0.596,371.0,136.0,0.895,152.0,33.0,1114.0,33.8,0.0,61.0,662.0,20.1,1991,109.0,116.0,129.0,3.9
