age,ast_per_mp,blk_per_mp,drb_per_mp,fg2_pct,fg2_per_mp,fg2a_per_mp,fg3_pct,fg3_per_mp,fg3a_per_mp,fg_pct,fg_per_mp,fga_per_mp,ft_pct,ft_per_mp,fta_per_mp,g,gs,lg_id,mp,orb_per_mp,pf_per_mp,pos,pts_per_mp,season,stl_per_mp,team_id,tov_per_mp,trb_per_mp
22.0,8.0,0.2,3.5,0.484,5.6,11.7,0.333,1.0,3.1,0.452,6.7,14.8,0.79,3.5,4.4,17.0,17.0,NBA,657.0,0.5,2.7,PG,17.9,2007,1.4,UTA,3.7,4.0
23.0,8.4,0.3,1.9,0.488,4.4,8.9,0.5,2.0,3.9,0.492,6.3,12.8,0.773,3.6,4.6,12.0,12.0,NBA,513.0,1.1,2.5,PG,18.2,2008,0.5,UTA,2.6,3.0
24.0,9.2,0.3,2.6,0.444,3.4,7.7,0.36,1.5,4.3,0.414,4.9,11.9,0.829,5.8,7.0,5.0,5.0,NBA,211.0,0.7,2.9,PG,17.2,2009,1.5,UTA,3.6,3.2
25.0,9.2,0.4,2.1,0.48,4.3,8.9,0.392,1.8,4.6,0.45,6.1,13.5,0.802,8.1,10.0,10.0,10.0,NBA,398.0,0.4,3.3,PG,22.0,2010,0.9,UTA,2.7,2.4
28.0,7.3,0.5,2.6,0.444,3.5,7.8,0.395,2.1,5.3,0.425,5.5,13.1,0.822,4.6,5.5,7.0,7.0,NBA,292.0,0.1,2.1,PG,17.8,2013,0.9,BRK,2.6,2.7
29.0,5.9,0.2,2.6,0.424,3.5,8.3,0.34,1.5,4.5,0.395,5.0,12.8,0.8,3.0,3.8,12.0,12.0,NBA,428.0,0.6,2.6,PG,14.6,2014,1.1,BRK,2.3,3.2
30.0,6.2,0.0,6.4,0.372,3.0,8.1,0.423,2.1,4.9,0.391,5.1,12.9,0.857,1.1,1.3,6.0,6.0,NBA,192.0,0.6,3.4,PG,13.3,2015,1.5,BRK,3.0,6.9
31.0,5.9,0.0,1.5,0.273,2.2,8.1,0.429,2.2,5.1,0.333,4.4,13.2,0.0,0.0,0.0,3.0,3.0,NBA,49.0,0.0,4.4,PG,11.0,2016,0.7,DAL,5.1,1.5
32.0,5.2,0.1,2.7,0.485,2.2,4.5,0.387,1.6,4.3,0.438,3.8,8.8,0.909,1.4,1.5,18.0,0.0,NBA,262.0,0.4,4.0,PG,10.7,2017,1.4,CLE,2.3,3.2
