article_url,date,headline
https://thejnotes.com/2019/11/13/projecting-utah-jazz-championship-window-part-ii/,2019/11/13,Purple and Blues: Projecting the Utah Jazz Championship Window: Part II
https://www.hoopsrumors.com/2019/10/2019-offseason-in-review-utah-jazz.html,2019/10/20,HoopsRumors: 2019 Offseason In Review: Utah Jazz
https://thejnotes.com/2019/10/24/utah-jazz-donovan-mitchell-looks-star-okc-opener/,2019/10/24,Purple and Blues: Utah Jazz: Donovan Mitchell gives All-Star effort in season opener
