age,avg_dist,fg2_dunk,fg2_pct,fg2_pct_ast,fg2a_pct_fga,fg3_heave,fg3_pct,fg3_pct_ast,fg3_pct_corner,fg3a_heave,fg3a_pct_fga,fg_pct,fg_pct_00_03,fg_pct_03_10,fg_pct_10_16,fg_pct_16_xx,g,lg_id,mp,pct_fg2_dunk,pct_fg3a_corner,pct_fga_00_03,pct_fga_03_10,pct_fga_10_16,pct_fga_16_xx,pos,season,team_id
21.0,15.0,6.0,0.423,0.472,0.728,1.0,0.416,0.725,0.588,2.0,0.272,0.421,0.505,0.321,0.391,0.393,80.0,NBA,2307.0,0.01,0.078,0.239,0.066,0.086,0.338,PG,2006,UTA
22.0,13.5,7.0,0.498,0.354,0.765,0.0,0.322,0.659,0.4,8.0,0.235,0.456,0.553,0.38,0.45,0.48,80.0,NBA,2950.0,0.008,0.059,0.314,0.073,0.074,0.304,PG,2007,UTA
23.0,11.9,15.0,0.533,0.34,0.812,0.0,0.395,0.639,0.417,5.0,0.188,0.507,0.616,0.486,0.469,0.45,82.0,NBA,3059.0,0.016,0.057,0.38,0.066,0.073,0.293,PG,2008,UTA
24.0,12.5,7.0,0.518,0.221,0.77,0.0,0.31,0.486,0.125,1.0,0.23,0.471,0.6,0.379,0.514,0.465,68.0,NBA,2505.0,0.008,0.035,0.34,0.097,0.073,0.26,PG,2009,UTA
25.0,13.0,15.0,0.501,0.455,0.754,0.0,0.371,0.521,0.471,0.0,0.246,0.469,0.599,0.487,0.36,0.438,76.0,NBA,2802.0,0.017,0.066,0.303,0.111,0.082,0.258,PG,2010,UTA
26.0,14.4,9.0,0.491,0.331,0.675,2.0,0.331,0.581,0.276,6.0,0.325,0.439,0.603,0.414,0.386,0.453,65.0,NBA,2465.0,0.009,0.091,0.248,0.156,0.085,0.186,PG,2011,TOT
26.0,14.2,7.0,0.511,0.357,0.68,1.0,0.345,0.607,0.304,4.0,0.32,0.458,0.621,0.432,0.415,0.471,53.0,NBA,2009.0,0.009,0.089,0.252,0.155,0.081,0.192,PG,2011,UTA
26.0,14.9,2.0,0.391,0.163,0.651,1.0,0.271,0.438,0.167,2.0,0.349,0.349,0.513,0.333,0.278,0.346,12.0,NBA,456.0,0.012,0.102,0.231,0.16,0.107,0.154,PG,2011,NJN
27.0,15.7,13.0,0.446,0.301,0.644,0.0,0.336,0.557,0.326,1.0,0.356,0.407,0.568,0.359,0.423,0.395,55.0,NBA,1999.0,0.015,0.135,0.198,0.122,0.101,0.224,PG,2012,NJN
28.0,16.1,2.0,0.482,0.316,0.602,0.0,0.378,0.734,0.479,3.0,0.398,0.44,0.665,0.42,0.416,0.397,78.0,NBA,2842.0,0.004,0.163,0.17,0.157,0.09,0.186,PG,2013,BRK
29.0,15.9,4.0,0.5,0.29,0.626,0.0,0.366,0.765,0.391,2.0,0.374,0.45,0.646,0.374,0.365,0.523,64.0,NBA,2059.0,0.006,0.172,0.177,0.149,0.088,0.211,PG,2014,BRK
30.0,14.4,0.0,0.395,0.199,0.693,0.0,0.367,0.782,0.459,3.0,0.307,0.387,0.457,0.377,0.39,0.351,68.0,NBA,2114.0,0.001,0.156,0.213,0.179,0.106,0.196,PG,2015,BRK
31.0,14.8,1.0,0.454,0.241,0.636,0.0,0.344,0.804,0.481,2.0,0.364,0.414,0.591,0.401,0.407,0.413,65.0,NBA,2106.0,0.001,0.184,0.164,0.183,0.111,0.178,PG,2016,DAL
32.0,16.5,0.0,0.486,0.202,0.61,0.0,0.363,0.706,0.382,1.0,0.39,0.438,0.543,0.494,0.433,0.473,64.0,NBA,1657.0,0.0,0.145,0.135,0.145,0.112,0.218,PG,2017,TOT
32.0,16.8,0.0,0.485,0.205,0.6,0.0,0.348,0.714,0.444,1.0,0.4,0.43,0.542,0.484,0.451,0.47,40.0,NBA,1171.0,0.0,0.149,0.13,0.137,0.113,0.221,PG,2017,DAL
32.0,15.7,0.0,0.489,0.196,0.639,0.0,0.415,0.682,0.143,0.0,0.361,0.463,0.545,0.52,0.375,0.484,24.0,NBA,486.0,0.0,0.132,0.15,0.17,0.109,0.211,PG,2017,CLE
