age,ast,blk,drb,efg_pct,fg,fg2,fg2_pct,fg2a,fg3,fg3_pct,fg3a,fg_pct,fga,ft,ft_pct,fta,g,gs,lg_id,mp,orb,pf,pos,pts,season,stl,team_id,tov,trb
22.0,146.0,4.0,64.0,0.487,122.0,103.0,0.484,213.0,19.0,0.333,57.0,0.452,270.0,64.0,0.79,81.0,17.0,17.0,NBA,657.0,9.0,49.0,PG,327.0,2007,26.0,UTA,68.0,73.0
23.0,120.0,4.0,27.0,0.568,90.0,62.0,0.488,127.0,28.0,0.5,56.0,0.492,183.0,51.0,0.773,66.0,12.0,12.0,NBA,513.0,16.0,35.0,PG,259.0,2008,7.0,UTA,37.0,43.0
24.0,54.0,2.0,15.0,0.479,29.0,20.0,0.444,45.0,9.0,0.36,25.0,0.414,70.0,34.0,0.829,41.0,5.0,5.0,NBA,211.0,4.0,17.0,PG,101.0,2009,9.0,UTA,21.0,19.0
25.0,102.0,4.0,23.0,0.517,67.0,47.0,0.48,98.0,20.0,0.392,51.0,0.45,149.0,89.0,0.802,111.0,10.0,10.0,NBA,398.0,4.0,37.0,PG,243.0,2010,10.0,UTA,30.0,27.0
28.0,59.0,4.0,21.0,0.505,45.0,28.0,0.444,63.0,17.0,0.395,43.0,0.425,106.0,37.0,0.822,45.0,7.0,7.0,NBA,292.0,1.0,17.0,PG,144.0,2013,7.0,BRK,21.0,22.0
29.0,70.0,2.0,31.0,0.454,60.0,42.0,0.424,99.0,18.0,0.34,53.0,0.395,152.0,36.0,0.8,45.0,12.0,12.0,NBA,428.0,7.0,31.0,PG,174.0,2014,13.0,BRK,27.0,38.0
30.0,33.0,0.0,34.0,0.471,27.0,16.0,0.372,43.0,11.0,0.423,26.0,0.391,69.0,6.0,0.857,7.0,6.0,6.0,NBA,192.0,3.0,18.0,PG,71.0,2015,8.0,BRK,16.0,37.0
31.0,8.0,0.0,2.0,0.417,6.0,3.0,0.273,11.0,3.0,0.429,7.0,0.333,18.0,0.0,0.0,0.0,3.0,3.0,NBA,49.0,0.0,6.0,PG,15.0,2016,1.0,DAL,7.0,2.0
32.0,38.0,1.0,20.0,0.531,28.0,16.0,0.485,33.0,12.0,0.387,31.0,0.438,64.0,10.0,0.909,11.0,18.0,0.0,NBA,262.0,3.0,29.0,PG,78.0,2017,10.0,CLE,17.0,23.0
