age,ast_per_mp,blk_per_mp,drb_per_mp,fg2_pct,fg2_per_mp,fg2a_per_mp,fg3_pct,fg3_per_mp,fg3a_per_mp,fg_pct,fg_per_mp,fga_per_mp,ft_pct,ft_per_mp,fta_per_mp,g,gs,lg_id,mp,orb_per_mp,pf_per_mp,pos,pts_per_mp,season,stl_per_mp,team_id,tov_per_mp,trb_per_mp
22.0,0.4,3.6,6.4,0.588,3.1,5.3,0.0,0.0,0.0,0.588,3.1,5.3,0.581,2.2,3.8,68.0,13.0,NBA,883.0,3.5,6.6,C,8.5,2010,0.6,MEM,1.8,9.9
23.0,0.4,1.5,4.9,0.425,1.6,3.9,0.0,0.0,0.0,0.425,1.6,3.9,0.543,1.8,3.4,47.0,0.0,NBA,373.0,2.3,7.3,C,5.1,2011,0.9,TOT,1.6,7.2
23.0,0.4,1.5,5.0,0.436,1.7,3.8,0.0,0.0,0.0,0.436,1.7,3.8,0.543,1.9,3.4,45.0,0.0,NBA,369.0,2.3,7.1,C,5.2,2011,0.9,MEM,1.7,7.3
23.0,0.0,9.0,0.0,0.0,0.0,9.0,0.0,0.0,0.0,0.0,0.0,9.0,0.0,0.0,0.0,2.0,0.0,NBA,4.0,0.0,27.0,C,0.0,2011,0.0,HOU,0.0,0.0
24.0,0.0,2.6,6.7,0.524,2.8,5.4,0.0,0.0,0.0,0.524,2.8,5.4,0.65,3.4,5.2,20.0,3.0,NBA,139.0,4.1,5.2,C,9.1,2012,0.3,TOT,2.1,10.9
24.0,0.0,3.1,9.4,1.0,4.7,4.7,0.0,0.0,0.0,1.0,4.7,4.7,0.0,0.0,0.0,5.0,0.0,NBA,23.0,1.6,7.8,C,9.4,2012,0.0,HOU,0.0,11.0
24.0,0.0,2.5,6.2,0.444,2.5,5.6,0.0,0.0,0.0,0.444,2.5,5.6,0.65,4.0,6.2,15.0,3.0,NBA,116.0,4.7,4.7,C,9.0,2012,0.3,POR,2.5,10.9
25.0,0.5,2.8,5.9,0.604,3.0,5.0,0.0,0.0,0.0,0.604,3.0,5.0,0.604,1.5,2.5,66.0,4.0,NBA,770.0,3.2,6.9,C,7.5,2013,1.4,OKC,1.9,9.1
26.0,0.2,1.7,5.8,0.565,2.4,4.3,0.0,0.0,0.0,0.565,2.4,4.3,0.2,0.2,0.9,23.0,0.0,NBA,192.0,1.7,8.8,C,5.1,2014,0.7,OKC,2.6,7.5
