age,ast_per_mp,blk_per_mp,drb_per_mp,fg2_pct,fg2_per_mp,fg2a_per_mp,fg3_pct,fg3_per_mp,fg3a_per_mp,fg_pct,fg_per_mp,fga_per_mp,ft_pct,ft_per_mp,fta_per_mp,g,gs,lg_id,mp,orb_per_mp,pf_per_mp,pos,pts_per_mp,season,stl_per_mp,team_id,tov_per_mp,trb_per_mp
25.0,0.0,0.0,6.9,0.5,1.4,2.8,0.0,0.0,0.0,0.5,1.4,2.8,0.0,0.0,0.0,4.0,0.0,NBA,26.0,1.4,9.7,C,2.8,2013,1.4,OKC,2.8,8.3
26.0,0.0,0.0,0.0,0.0,0.0,0.0,0.0,0.0,0.0,0.0,0.0,0.0,0.0,0.0,0.0,2.0,0.0,NBA,7.0,0.0,20.6,C,0.0,2014,0.0,OKC,0.0,0.0
