article_url,date,headline
https://dailyknicks.com/2019/11/14/new-york-knicks-g-league-guide-ignas-brazdeikis-finds-role/,2019/11/14,Daily Knicks: New York Knicks' G-League Guide: Ignas Brazdeikis finds his role
https://dailyknicks.com/2019/10/28/new-york-knicks-g-league-team-announces-training-camp-roster/,2019/10/28,Daily Knicks: New York Knicks' G League team announces training camp roster
https://dailyknicks.com/2019/07/11/new-york-knicks-assessing-unheralded-summer-league-players/,2019/07/11,Daily Knicks: New York Knicks: Assessing the unheralded summer league players
https://dailyknicks.com/2019/07/06/new-york-knicks-summer-league-debut-cut-short-earthquake/,2019/07/06,Daily Knicks: New York Knicks summer league debut cut short by earthquake
