age,ast_per_mp,blk_per_mp,drb_per_mp,fg2_pct,fg2_per_mp,fg2a_per_mp,fg3_pct,fg3_per_mp,fg3a_per_mp,fg_pct,fg_per_mp,fga_per_mp,ft_pct,ft_per_mp,fta_per_mp,g,gs,lg_id,mp,orb_per_mp,pf_per_mp,pos,pts_per_mp,season,stl_per_mp,team_id,tov_per_mp,trb_per_mp
20.0,2.3,1.0,2.8,0.41,3.6,8.9,0.4,1.5,3.6,0.407,5.1,12.5,0.609,2.0,3.3,30.0,0.0,NBA,248.0,1.3,3.5,SG,13.6,2015,2.3,MEM,2.0,4.1
21.0,7.2,0.0,4.8,0.4,4.8,12.0,0.0,0.0,2.4,0.333,4.8,14.4,0.6,7.2,12.0,2.0,0.0,NBA,15.0,0.0,4.8,SG,16.8,2016,7.2,MEM,4.8,4.8
