age,ast,ast_per_g,blk,college_id,fg,fg3,fg3_pct,fg3a,fg_pct,fga,ft,ft_pct,fta,g,mp,mp_per_g,orb,pf,pts,pts_per_g,season,stl,tov,trb,trb_per_g
19.0,22.0,0.7,46.0,TULSA,78.0,0.0,0.0,1.0,0.534,146.0,57.0,0.463,123.0,30.0,689.0,23.0,0.0,77.0,213.0,7.1,1996,25.0,49.0,232.0,7.7
20.0,37.0,1.1,56.0,TULSA,98.0,0.0,0.0,1.0,0.563,174.0,95.0,0.633,150.0,34.0,965.0,28.4,0.0,92.0,291.0,8.6,1997,31.0,74.0,341.0,10.0
21.0,46.0,1.5,78.0,TULSA,109.0,0.0,0.0,2.0,0.502,217.0,104.0,0.675,154.0,31.0,0.0,0.0,0.0,0.0,322.0,10.4,1998,36.0,0.0,296.0,9.5
22.0,45.0,1.4,86.0,TULSA,117.0,0.0,0.0,4.0,0.527,222.0,149.0,0.603,247.0,33.0,1063.0,32.2,0.0,98.0,383.0,11.6,1999,61.0,88.0,342.0,10.4
