age,ast,blk,drb,efg_pct,fg,fg2,fg2_pct,fg2a,fg3,fg3_pct,fg3a,fg_pct,fga,ft,ft_pct,fta,g,gs,lg_id,mp,orb,pf,pos,pts,season,stl,team_id,tov,trb
23.0,44.0,26.0,133.0,0.42,58.0,58.0,0.42,138.0,0.0,0.0,0.0,0.42,138.0,43.0,0.489,88.0,71.0,6.0,NBA,975.0,117.0,170.0,PF,159.0,2000,26.0,CHI,59.0,250.0
24.0,39.0,38.0,161.0,0.444,40.0,40.0,0.444,90.0,0.0,0.0,0.0,0.444,90.0,39.0,0.506,77.0,45.0,16.0,NBA,879.0,101.0,131.0,PF,119.0,2001,30.0,CHI,46.0,262.0
25.0,5.0,8.0,28.0,0.269,7.0,7.0,0.269,26.0,0.0,0.0,0.0,0.269,26.0,2.0,0.25,8.0,15.0,0.0,NBA,169.0,23.0,23.0,PF,16.0,2002,5.0,PHI,11.0,51.0
27.0,41.0,21.0,129.0,0.325,38.0,38.0,0.325,117.0,0.0,0.0,0.0,0.325,117.0,16.0,0.421,38.0,41.0,23.0,NBA,733.0,78.0,103.0,PF,92.0,2004,22.0,UTA,42.0,207.0
28.0,64.0,41.0,175.0,0.414,41.0,41.0,0.418,98.0,0.0,0.0,1.0,0.414,99.0,29.0,0.433,67.0,79.0,7.0,NBA,1262.0,157.0,193.0,C,111.0,2005,43.0,WAS,44.0,332.0
29.0,27.0,31.0,149.0,0.442,34.0,34.0,0.453,75.0,0.0,0.0,2.0,0.442,77.0,37.0,0.5,74.0,76.0,4.0,NBA,1010.0,122.0,179.0,C,105.0,2006,33.0,WAS,38.0,271.0
30.0,6.0,8.0,27.0,0.278,5.0,5.0,0.278,18.0,0.0,0.0,0.0,0.278,18.0,7.0,0.368,19.0,30.0,0.0,NBA,271.0,35.0,43.0,PF,17.0,2007,6.0,WAS,12.0,62.0
31.0,24.0,19.0,96.0,0.532,33.0,33.0,0.532,62.0,0.0,0.0,0.0,0.532,62.0,25.0,0.397,63.0,46.0,2.0,NBA,632.0,90.0,93.0,C,91.0,2008,31.0,MIL,19.0,186.0
32.0,0.0,1.0,5.0,0.286,2.0,2.0,0.286,7.0,0.0,0.0,0.0,0.286,7.0,2.0,1.0,2.0,11.0,0.0,NBA,35.0,6.0,7.0,PF,6.0,2009,3.0,POR,2.0,11.0
