age,ast_per_poss,blk_per_poss,def_rtg,drb_per_poss,fg2_pct,fg2_per_poss,fg2a_per_poss,fg3_pct,fg3_per_poss,fg3a_per_poss,fg_pct,fg_per_poss,fga_per_poss,ft_pct,ft_per_poss,fta_per_poss,g,gs,lg_id,mp,off_rtg,orb_per_poss,pf_per_poss,pos,pts_per_poss,season,stl_per_poss,team_id,tov_per_poss,trb_per_poss
23.0,2.4,1.4,104.0,7.3,0.42,3.2,7.6,0.0,0.0,0.0,0.42,3.2,7.6,0.489,2.4,4.8,71.0,6.0,NBA,975.0,91.0,6.4,9.4,PF,8.8,2000,1.4,CHI,3.2,13.8
24.0,2.4,2.3,103.0,9.8,0.444,2.4,5.5,0.0,0.0,0.0,0.444,2.4,5.5,0.506,2.4,4.7,45.0,16.0,NBA,879.0,97.0,6.2,8.0,PF,7.3,2001,1.8,CHI,2.8,16.0
25.0,1.6,2.6,98.0,8.9,0.269,2.2,8.3,0.0,0.0,0.0,0.269,2.2,8.3,0.25,0.6,2.6,15.0,0.0,NBA,169.0,71.0,7.3,7.3,PF,5.1,2002,1.6,PHI,3.5,16.3
27.0,3.1,1.6,101.0,9.8,0.325,2.9,8.8,0.0,0.0,0.0,0.325,2.9,8.8,0.421,1.2,2.9,41.0,23.0,NBA,733.0,82.0,5.9,7.8,PF,7.0,2004,1.7,UTA,3.2,15.7
28.0,2.6,1.7,106.0,7.1,0.418,1.7,4.0,0.0,0.0,0.0,0.414,1.7,4.0,0.433,1.2,2.7,79.0,7.0,NBA,1262.0,109.0,6.4,7.9,C,4.5,2005,1.8,WAS,1.8,13.5
29.0,1.4,1.6,105.0,7.7,0.453,1.8,3.9,0.0,0.0,0.1,0.442,1.8,4.0,0.5,1.9,3.8,76.0,4.0,NBA,1010.0,108.0,6.3,9.2,C,5.4,2006,1.7,WAS,2.0,14.0
30.0,1.1,1.5,112.0,5.1,0.278,0.9,3.4,0.0,0.0,0.0,0.278,0.9,3.4,0.368,1.3,3.6,30.0,0.0,NBA,271.0,91.0,6.6,8.1,PF,3.2,2007,1.1,WAS,2.3,11.7
31.0,2.0,1.6,108.0,8.0,0.532,2.7,5.2,0.0,0.0,0.0,0.532,2.7,5.2,0.397,2.1,5.2,46.0,2.0,NBA,632.0,117.0,7.5,7.7,C,7.6,2008,2.6,MIL,1.6,15.5
32.0,0.0,1.6,99.0,7.9,0.286,3.2,11.1,0.0,0.0,0.0,0.286,3.2,11.1,1.0,3.2,3.2,11.0,0.0,NBA,35.0,95.0,9.5,11.1,PF,9.5,2009,4.7,POR,3.2,17.4
