age,ast,blk,drb,fg,fg2,fg2a,fg3,fg3a,fga,ft,fta,game_score,lg_id,mp,orb,pf,pts,season,stl,team_id,tov,trb
28.0,3.0,1.0,6.0,3.0,3.0,3.0,0.0,0.0,3.0,5.0,7.0,8.7,NBA,0.0,4.0,6.0,9.0,2005,1.0,WAS,2.0,8.0
29.0,3.0,2.0,4.0,1.0,1.0,2.0,0.0,0.0,2.0,0.0,2.0,3.2,NBA,17.0,2.0,3.0,2.0,2006,1.0,WAS,1.0,6.0
30.0,0.0,0.0,2.0,1.0,1.0,1.0,0.0,1.0,1.0,0.0,0.0,4.0,NBA,16.0,3.0,1.0,2.0,2007,2.0,WAS,0.0,4.0
32.0,0.0,0.0,2.0,0.0,0.0,1.0,0.0,0.0,1.0,1.0,2.0,1.2,NBA,6.0,3.0,1.0,1.0,2009,0.0,POR,1.0,5.0
