age,ast,blk,drb,fg,fg2,fg2a,fg3,fg3a,fga,ft,fta,game_score,lg_id,mp,orb,pf,pts,season,stl,team_id,tov,trb
22.0,2.0,1.0,5.0,4.0,3.0,6.0,1.0,3.0,9.0,0.0,0.0,8.6,NBA,25,1.0,1.0,9.0,2018,2.0,ATL,2.0,5.0
23.0,2.0,0.0,2.0,3.0,2.0,3.0,1.0,2.0,3.0,1.0,2.0,7.7,NBA,10,0.0,1.0,7.0,2019,1.0,MIL,1.0,2.0
