age,ast_per_mp,blk_per_mp,drb_per_mp,fg2_pct,fg2_per_mp,fg2a_per_mp,fg3_pct,fg3_per_mp,fg3a_per_mp,fg_pct,fg_per_mp,fga_per_mp,ft_pct,ft_per_mp,fta_per_mp,g,gs,lg_id,mp,orb_per_mp,pf_per_mp,pos,pts_per_mp,season,stl_per_mp,team_id,tov_per_mp,trb_per_mp
22.0,2.6,0.4,5.1,0.5,4.0,8.1,0.2,0.7,3.7,0.406,4.8,11.8,0.0,0.0,0.0,6.0,0.0,NBA,98.0,0.7,0.7,SG,10.3,2018,0.7,ATL,2.2,5.9
23.0,5.0,0.0,6.2,0.429,3.7,8.7,0.333,1.2,3.7,0.4,5.0,12.4,0.5,1.2,2.5,4.0,0.0,NBA,29.0,0.0,1.2,SG,12.4,2019,2.5,MIL,1.2,6.2
