age,ast_per_mp,blk_per_mp,drb_per_mp,fg2_pct,fg2_per_mp,fg2a_per_mp,fg3_pct,fg3_per_mp,fg3a_per_mp,fg_pct,fg_per_mp,fga_per_mp,ft_pct,ft_per_mp,fta_per_mp,g,gs,lg_id,mp,orb_per_mp,pf_per_mp,pos,pts_per_mp,season,stl_per_mp,team_id,tov_per_mp,trb_per_mp
29.0,0.0,0.0,0.0,0.0,0.0,18.0,0.0,0.0,0.0,0.0,0.0,18.0,0.0,0.0,0.0,2.0,0.0,NBA,2.0,0.0,0.0,SF,0.0,2005,0.0,NJN,0.0,0.0
30.0,0.0,0.0,2.6,0.0,0.0,7.7,0.0,0.0,10.3,0.0,0.0,18.0,0.5,5.1,10.3,3.0,0.0,NBA,14.0,0.0,7.7,SG,5.1,2006,0.0,WAS,0.0,2.6
32.0,4.5,0.0,4.5,0.0,0.0,0.0,0.5,4.5,9.0,0.5,4.5,9.0,0.0,0.0,0.0,3.0,0.0,NBA,8.0,0.0,0.0,SF,13.5,2008,4.5,CLE,0.0,4.5
