age,ast,blk,drb,efg_pct,fg,fg2,fg2_pct,fg2a,fg3,fg3_pct,fg3a,fg_pct,fga,ft,ft_pct,fta,g,gs,lg_id,mp,orb,pf,pos,pts,season,stl,team_id,tov,trb
23.0,42.0,74.0,202.0,0.542,129.0,129.0,0.542,238.0,0.0,0.0,0.0,0.542,238.0,101.0,0.594,170.0,68.0,0.0,NBA,980.0,107.0,79.0,C,359.0,1981,8.0,SEA,68.0,309.0
24.0,51.0,139.0,352.0,0.609,255.0,255.0,0.609,419.0,0.0,0.0,0.0,0.609,419.0,151.0,0.629,240.0,82.0,1.0,NBA,1710.0,138.0,186.0,C,661.0,1982,27.0,SEA,115.0,490.0
25.0,97.0,101.0,370.0,0.583,289.0,289.0,0.583,496.0,0.0,0.0,0.0,0.583,496.0,150.0,0.688,218.0,82.0,11.0,NBA,1789.0,131.0,171.0,C,728.0,1983,19.0,SEA,132.0,501.0
26.0,90.0,139.0,484.0,0.596,360.0,360.0,0.596,604.0,0.0,0.0,0.0,0.596,604.0,249.0,0.761,327.0,82.0,67.0,NBA,2525.0,165.0,214.0,C,969.0,1984,40.0,SDC,171.0,649.0
27.0,48.0,130.0,500.0,0.637,351.0,351.0,0.637,551.0,0.0,0.0,0.0,0.637,551.0,227.0,0.749,303.0,82.0,58.0,NBA,2392.0,168.0,217.0,C,929.0,1985,28.0,LAC,206.0,668.0
28.0,96.0,139.0,624.0,0.558,256.0,256.0,0.558,459.0,0.0,0.0,0.0,0.558,459.0,204.0,0.803,254.0,83.0,78.0,NBA,2682.0,171.0,189.0,C,716.0,1986,28.0,TOT,123.0,795.0
28.0,12.0,29.0,103.0,0.512,43.0,43.0,0.512,84.0,0.0,0.0,0.0,0.512,84.0,57.0,0.814,70.0,14.0,14.0,NBA,441.0,28.0,33.0,C,143.0,1986,5.0,LAC,38.0,131.0
28.0,84.0,110.0,521.0,0.568,213.0,213.0,0.568,375.0,0.0,0.0,0.0,0.568,375.0,147.0,0.799,184.0,69.0,64.0,NBA,2241.0,143.0,156.0,C,573.0,1986,23.0,DAL,85.0,664.0
29.0,63.0,136.0,678.0,0.586,311.0,311.0,0.586,531.0,0.0,0.0,0.0,0.586,531.0,267.0,0.812,329.0,82.0,82.0,NBA,3028.0,295.0,191.0,C,889.0,1987,51.0,DAL,104.0,973.0
30.0,66.0,104.0,508.0,0.558,212.0,212.0,0.558,380.0,0.0,0.0,0.0,0.558,380.0,147.0,0.778,189.0,81.0,81.0,NBA,2523.0,247.0,175.0,C,571.0,1988,40.0,DAL,113.0,755.0
31.0,38.0,81.0,412.0,0.573,193.0,193.0,0.573,337.0,0.0,0.0,0.0,0.573,337.0,95.0,0.766,124.0,53.0,53.0,NBA,1746.0,158.0,111.0,C,481.0,1989,24.0,DAL,83.0,570.0
32.0,57.0,47.0,475.0,0.539,258.0,258.0,0.539,479.0,0.0,0.0,0.0,0.539,479.0,149.0,0.7,213.0,73.0,73.0,NBA,2265.0,155.0,129.0,C,665.0,1990,22.0,DAL,119.0,630.0
33.0,69.0,93.0,526.0,0.532,327.0,327.0,0.532,615.0,0.0,0.0,0.0,0.532,615.0,165.0,0.721,229.0,82.0,82.0,NBA,2800.0,201.0,181.0,C,819.0,1991,34.0,DAL,146.0,727.0
34.0,33.0,49.0,190.0,0.457,112.0,112.0,0.457,245.0,0.0,0.0,0.0,0.457,245.0,61.0,0.709,86.0,58.0,32.0,NBA,1075.0,99.0,103.0,C,285.0,1992,8.0,TOT,48.0,289.0
34.0,31.0,44.0,173.0,0.471,107.0,107.0,0.471,227.0,0.0,0.0,0.0,0.471,227.0,59.0,0.702,84.0,44.0,32.0,NBA,994.0,97.0,86.0,C,273.0,1992,8.0,DAL,41.0,270.0
34.0,2.0,5.0,17.0,0.278,5.0,5.0,0.278,18.0,0.0,0.0,0.0,0.278,18.0,2.0,1.0,2.0,14.0,0.0,NBA,81.0,2.0,17.0,C,12.0,1992,0.0,NYK,7.0,19.0
35.0,1.0,7.0,23.0,0.571,8.0,8.0,0.571,14.0,0.0,0.0,0.0,0.571,14.0,5.0,0.556,9.0,6.0,1.0,NBA,94.0,6.0,13.0,C,21.0,1993,1.0,UTA,4.0,29.0
37.0,14.0,28.0,88.0,0.595,44.0,44.0,0.595,74.0,0.0,0.0,0.0,0.595,74.0,22.0,0.71,31.0,43.0,40.0,NBA,613.0,19.0,66.0,C,110.0,1995,6.0,UTA,22.0,107.0
