age,ast_per_poss,blk_per_poss,def_rtg,drb_per_poss,fg2_pct,fg2_per_poss,fg2a_per_poss,fg3_pct,fg3_per_poss,fg3a_per_poss,fg_pct,fg_per_poss,fga_per_poss,ft_pct,ft_per_poss,fta_per_poss,g,gs,lg_id,mp,off_rtg,orb_per_poss,pf_per_poss,pos,pts_per_poss,season,stl_per_poss,team_id,tov_per_poss,trb_per_poss
23.0,5.7,0.6,108.0,4.0,0.512,9.5,18.6,0.306,0.5,1.8,0.494,10.1,20.4,0.769,3.0,3.9,56.0,15.0,NBA,1039.0,115.0,3.3,2.5,SG,23.6,2004,2.6,DAL,2.2,7.2
24.0,4.7,0.5,104.0,4.7,0.454,7.8,17.2,0.2,0.3,1.3,0.437,8.1,18.5,0.737,3.6,4.9,60.0,17.0,NBA,1412.0,101.0,3.2,4.5,SG,20.0,2005,3.0,DAL,3.2,7.9
25.0,5.3,0.4,107.0,4.4,0.491,7.5,15.3,0.211,0.1,0.6,0.48,7.6,15.9,0.754,4.3,5.7,62.0,29.0,NBA,1766.0,110.0,2.5,4.4,SG,19.6,2006,2.1,DAL,3.1,6.9
26.0,3.7,0.5,108.0,3.6,0.482,8.0,16.5,0.231,0.4,1.7,0.459,8.4,18.2,0.7,3.6,5.2,45.0,4.0,NBA,800.0,97.0,1.7,3.6,SG,20.8,2007,1.8,IND,3.6,5.3
27.0,4.4,0.6,107.0,4.6,0.466,6.8,14.6,0.265,0.9,3.2,0.43,7.7,17.8,0.698,3.1,4.4,74.0,1.0,NBA,1546.0,95.0,2.1,3.8,SG,19.3,2008,2.5,IND,3.6,6.7
28.0,3.3,0.8,110.0,4.9,0.489,8.6,17.5,0.2,0.5,2.6,0.451,9.1,20.2,0.721,2.7,3.8,54.0,43.0,NBA,1700.0,99.0,2.3,3.5,SF,21.4,2009,1.8,IND,2.8,7.3
29.0,3.7,0.3,107.0,3.8,0.534,6.6,12.4,0.214,0.3,1.6,0.498,6.9,13.9,0.607,1.9,3.1,51.0,4.0,NBA,937.0,102.0,1.5,5.1,SF,16.1,2010,1.5,BOS,2.3,5.3
30.0,3.6,1.2,101.0,5.0,0.521,6.2,11.9,0.19,0.2,1.2,0.491,6.5,13.1,0.684,2.2,3.2,49.0,0.0,NBA,938.0,102.0,1.4,3.6,SF,15.3,2011,2.2,BOS,2.2,6.4
31.0,5.2,1.0,98.0,5.5,0.391,5.7,14.6,0.0,0.0,1.1,0.364,5.7,15.7,0.739,1.9,2.5,38.0,0.0,NBA,484.0,82.0,1.8,4.0,SG,13.3,2012,2.3,BOS,3.1,7.2
32.0,3.0,0.5,106.0,4.8,0.401,5.2,13.0,0.278,0.9,3.4,0.376,6.2,16.4,0.741,1.9,2.5,59.0,33.0,NBA,1085.0,92.0,2.2,3.6,SF,15.1,2013,2.4,MIL,2.1,7.0
