age,ast_per_poss,blk_per_poss,def_rtg,drb_per_poss,fg2_pct,fg2_per_poss,fg2a_per_poss,fg3_pct,fg3_per_poss,fg3a_per_poss,fg_pct,fg_per_poss,fga_per_poss,ft_pct,ft_per_poss,fta_per_poss,g,gs,lg_id,mp,off_rtg,orb_per_poss,pf_per_poss,pos,pts_per_poss,season,stl_per_poss,team_id,tov_per_poss,trb_per_poss
18.0,4.3,1.1,105.0,4.1,0.437,6.0,13.7,0.375,2.4,6.5,0.417,8.4,20.2,0.819,6.5,7.9,71.0,6.0,NBA,1103.0,101.0,2.2,4.9,SG,25.7,1997,2.3,LAL,5.3,6.3
19.0,5.0,1.0,106.0,4.1,0.456,7.9,17.3,0.341,1.9,5.5,0.428,9.8,22.8,0.794,9.1,11.4,79.0,1.0,NBA,2056.0,110.0,2.0,4.5,SG,30.4,1998,1.8,LAL,3.9,6.0
20.0,5.2,1.4,104.0,5.8,0.494,9.3,18.7,0.267,0.7,2.8,0.465,10.0,21.5,0.839,6.8,8.1,50.0,50.0,NBA,1896.0,106.0,1.5,4.2,SG,27.5,1999,2.0,LAL,4.3,7.3
21.0,6.6,1.3,98.0,6.3,0.489,10.3,21.2,0.319,0.9,2.9,0.468,11.3,24.1,0.821,6.7,8.2,66.0,62.0,NBA,2524.0,110.0,2.2,4.5,SG,30.3,2000,2.2,LAL,3.7,8.5
22.0,6.4,0.8,105.0,5.5,0.489,12.0,24.6,0.305,1.1,3.8,0.464,13.2,28.4,0.853,8.9,10.5,68.0,68.0,NBA,2783.0,112.0,2.0,4.2,SG,36.4,2001,2.1,LAL,4.1,7.5
23.0,7.5,0.6,103.0,5.6,0.489,12.2,24.9,0.25,0.6,2.2,0.469,12.7,27.2,0.829,8.3,10.0,80.0,80.0,NBA,3063.0,112.0,1.9,3.9,SG,34.4,2002,2.0,LAL,3.8,7.5
24.0,7.3,1.0,103.0,7.0,0.465,11.4,24.4,0.383,1.9,4.9,0.451,13.2,29.4,0.843,9.2,10.9,82.0,82.0,NBA,3401.0,111.0,1.6,3.3,SG,37.6,2003,2.8,LAL,4.4,8.6
25.0,7.0,0.6,102.0,5.4,0.463,9.5,20.4,0.327,1.5,4.6,0.438,11.0,25.0,0.852,9.7,11.3,65.0,64.0,NBA,2447.0,112.0,2.2,3.7,SG,33.1,2004,2.4,LAL,3.6,7.6
26.0,7.8,1.0,111.0,5.8,0.472,8.7,18.4,0.339,2.6,7.6,0.433,11.3,26.0,0.816,10.7,13.0,66.0,66.0,NBA,2689.0,111.0,1.9,3.4,SG,35.7,2005,1.7,LAL,5.3,7.7
27.0,5.8,0.5,105.0,5.7,0.482,12.9,26.7,0.347,2.9,8.3,0.45,15.8,35.0,0.85,11.2,13.2,80.0,80.0,NBA,3277.0,114.0,1.1,3.8,SG,45.6,2006,2.4,LAL,4.0,6.8
28.0,6.7,0.6,109.0,5.9,0.497,11.0,22.2,0.344,2.2,6.5,0.463,13.3,28.7,0.868,10.9,12.6,77.0,77.0,NBA,3140.0,115.0,1.2,3.4,SG,39.7,2007,1.8,LAL,4.2,7.2
29.0,6.9,0.6,105.0,6.7,0.49,9.8,20.1,0.361,2.4,6.5,0.459,12.2,26.6,0.84,9.8,11.7,82.0,82.0,NBA,3192.0,115.0,1.5,3.6,SG,36.5,2008,2.4,LAL,4.0,8.1
30.0,6.9,0.6,106.0,5.8,0.496,11.7,23.7,0.351,2.0,5.8,0.467,13.8,29.4,0.856,8.3,9.7,82.0,82.0,NBA,2960.0,115.0,1.5,3.3,SG,37.8,2009,2.1,LAL,3.6,7.4
31.0,6.7,0.4,104.0,5.7,0.487,11.3,23.1,0.329,1.8,5.5,0.456,13.1,28.6,0.811,8.0,9.9,73.0,73.0,NBA,2835.0,109.0,1.4,3.4,SG,35.9,2010,2.1,LAL,4.3,7.1
32.0,7.4,0.2,105.0,6.4,0.487,11.9,24.4,0.323,2.2,6.8,0.451,14.1,31.2,0.828,9.2,11.1,82.0,82.0,NBA,2779.0,111.0,1.6,3.3,SG,39.6,2011,1.9,LAL,4.6,8.0
33.0,6.3,0.4,106.0,5.9,0.464,11.6,24.9,0.303,2.1,6.8,0.43,13.6,31.7,0.845,9.1,10.7,58.0,58.0,NBA,2232.0,105.0,1.6,2.5,SG,38.4,2012,1.6,LAL,4.8,7.4
34.0,7.9,0.4,107.0,6.2,0.51,10.2,20.0,0.324,2.2,6.9,0.463,12.5,26.9,0.839,8.9,10.6,78.0,78.0,NBA,3013.0,112.0,1.1,2.9,SG,36.0,2013,1.8,LAL,4.8,7.3
35.0,10.4,0.3,111.0,6.6,0.491,7.7,15.7,0.188,0.8,4.4,0.425,8.5,20.1,0.857,4.9,5.8,6.0,6.0,NBA,177.0,84.0,0.5,2.5,SG,22.8,2014,1.9,LAL,9.3,7.1
36.0,8.3,0.3,110.0,7.3,0.401,9.0,22.4,0.293,2.3,7.8,0.373,11.3,30.2,0.813,8.3,10.2,35.0,35.0,NBA,1207.0,96.0,1.1,2.8,SG,33.1,2015,2.0,LAL,5.4,8.4
37.0,5.0,0.4,113.0,5.6,0.41,7.1,17.4,0.285,3.6,12.6,0.358,10.7,30.0,0.826,6.3,7.6,66.0,66.0,NBA,1863.0,95.0,1.1,3.1,SF,31.3,2016,1.7,LAL,3.5,6.7
