age,ast_per_g,blk_per_g,drb_per_g,efg_pct,fg2_pct,fg2_per_g,fg2a_per_g,fg3_pct,fg3_per_g,fg3a_per_g,fg_pct,fg_per_g,fga_per_g,ft_pct,ft_per_g,fta_per_g,g,gs,lg_id,mp_per_g,orb_per_g,pf_per_g,pos,pts_per_g,season,stl_per_g,team_id,tov_per_g,trb_per_g
18.0,1.2,0.2,1.1,0.436,0.469,1.7,3.6,0.261,0.7,2.6,0.382,2.3,6.1,0.867,2.9,3.3,9.0,0.0,NBA,14.8,0.1,2.6,SG,8.2,1997,0.3,LAL,1.6,1.2
19.0,1.5,0.7,1.3,0.428,0.452,2.5,5.6,0.214,0.3,1.3,0.408,2.8,6.9,0.689,2.8,4.1,11.0,0.0,NBA,20.0,0.6,2.5,SG,8.7,1998,0.3,LAL,1.0,1.9
20.0,4.6,1.3,5.3,0.458,0.445,6.6,14.9,0.348,1.0,2.9,0.43,7.6,17.8,0.8,3.5,4.4,8.0,8.0,NBA,39.4,1.6,3.0,SG,19.8,1999,1.9,LAL,3.9,6.9
21.0,4.4,1.5,3.3,0.47,0.461,6.9,15.0,0.344,1.0,2.9,0.442,7.9,17.9,0.754,4.3,5.7,22.0,22.0,NBA,39.0,1.2,4.0,SG,21.1,2000,1.5,LAL,2.5,4.5
22.0,6.1,0.8,5.4,0.485,0.485,9.8,20.3,0.324,0.7,2.1,0.469,10.5,22.4,0.821,7.8,9.4,16.0,16.0,NBA,43.4,1.8,3.3,SG,29.4,2001,1.6,LAL,3.2,7.3
23.0,4.6,0.9,4.4,0.459,0.442,8.7,19.6,0.379,1.2,3.1,0.434,9.8,22.7,0.759,5.8,7.6,19.0,19.0,NBA,43.8,1.5,3.4,SG,26.6,2002,1.4,LAL,2.8,5.8
24.0,5.2,0.1,3.8,0.472,0.439,9.3,21.3,0.403,2.1,5.2,0.432,11.4,26.4,0.827,7.2,8.7,12.0,12.0,NBA,44.3,1.3,2.9,SG,32.1,2003,1.2,LAL,3.5,5.1
25.0,5.5,0.3,3.9,0.439,0.457,7.5,16.5,0.247,1.1,4.4,0.413,8.6,20.9,0.813,6.1,7.5,22.0,22.0,NBA,44.2,0.8,2.7,SG,24.5,2004,1.9,LAL,2.8,4.7
27.0,5.1,0.4,5.7,0.545,0.527,8.3,15.7,0.4,2.0,5.0,0.497,10.3,20.7,0.771,5.3,6.9,7.0,7.0,NBA,44.9,0.6,3.6,SG,27.9,2006,1.1,LAL,4.7,6.3
28.0,4.4,0.4,5.0,0.5,0.49,10.0,20.4,0.357,2.0,5.6,0.462,12.0,26.0,0.919,6.8,7.4,5.0,5.0,NBA,43.0,0.2,2.0,SG,32.8,2007,1.0,LAL,4.4,5.2
29.0,5.6,0.4,4.8,0.514,0.532,9.0,17.0,0.302,1.5,5.0,0.479,10.6,22.0,0.809,7.5,9.2,21.0,21.0,NBA,41.1,0.9,2.8,SG,30.1,2008,1.7,LAL,3.3,5.7
30.0,5.5,0.9,4.5,0.492,0.483,8.9,18.4,0.349,1.6,4.6,0.457,10.5,23.0,0.883,7.6,8.6,23.0,23.0,NBA,40.9,0.8,2.6,SG,30.2,2009,1.7,LAL,2.6,5.3
31.0,5.5,0.7,4.9,0.506,0.487,8.0,16.5,0.374,2.1,5.7,0.458,10.2,22.2,0.842,6.7,8.0,23.0,23.0,NBA,40.1,1.1,3.3,SG,29.2,2010,1.3,LAL,3.4,6.0
32.0,3.3,0.3,2.6,0.478,0.49,7.1,14.5,0.293,1.2,4.1,0.446,8.3,18.6,0.82,5.0,6.1,10.0,10.0,NBA,35.4,0.8,2.3,SG,22.8,2011,1.6,LAL,3.1,3.4
33.0,4.3,0.2,3.5,0.467,0.477,9.6,20.1,0.283,1.4,5.0,0.439,11.0,25.1,0.832,6.6,7.9,12.0,12.0,NBA,39.7,1.3,2.8,SG,30.0,2012,1.3,LAL,2.8,4.8
