age,ast_per_g,blk_per_g,drb_per_g,efg_pct,fg2_pct,fg2_per_g,fg2a_per_g,fg3_pct,fg3_per_g,fg3a_per_g,fg_pct,fg_per_g,fga_per_g,ft_pct,ft_per_g,fta_per_g,g,gs,lg_id,mp_per_g,orb_per_g,pf_per_g,pos,pts_per_g,season,stl_per_g,team_id,tov_per_g,trb_per_g
21.0,1.3,0.0,0.9,0.396,0.398,1.8,4.6,0.256,0.2,0.7,0.38,2.0,5.3,0.786,0.8,1.0,57.0,0.0,NBA,13.5,0.4,1.5,SG,5.0,2004,0.5,UTA,0.9,1.3
22.0,6.1,0.1,2.4,0.46,0.456,3.6,8.0,0.323,0.4,1.2,0.438,4.0,9.2,0.85,1.7,2.0,80.0,80.0,NBA,28.2,0.6,2.8,PG,10.2,2005,0.9,MIL,2.5,3.1
23.0,4.0,0.1,1.9,0.483,0.443,3.3,7.6,0.382,1.3,3.3,0.424,4.6,10.8,0.85,1.7,1.9,58.0,12.0,NBA,26.4,0.5,2.5,PG,12.1,2006,0.9,MIL,1.8,2.5
24.0,6.1,0.1,4.0,0.484,0.474,5.7,12.1,0.346,1.2,3.4,0.446,6.9,15.4,0.855,2.3,2.7,68.0,68.0,NBA,36.4,0.8,3.0,PG,17.3,2007,1.3,MIL,3.0,4.8
25.0,6.3,0.2,2.9,0.528,0.512,5.3,10.4,0.385,1.3,3.5,0.48,6.7,13.9,0.856,2.5,2.9,66.0,66.0,NBA,36.5,0.6,2.8,PG,17.2,2008,1.2,MIL,2.8,3.5
26.0,4.1,0.1,2.9,0.548,0.486,4.2,8.7,0.436,2.3,5.2,0.467,6.5,13.9,0.912,2.6,2.8,81.0,81.0,NBA,35.0,0.6,2.7,PG,17.8,2009,0.9,CLE,2.2,3.4
27.0,5.3,0.3,2.6,0.535,0.452,3.2,7.0,0.429,2.3,5.4,0.442,5.5,12.4,0.894,2.6,2.9,69.0,68.0,NBA,34.2,0.4,2.5,PG,15.8,2010,1.0,CLE,2.5,3.0
28.0,6.6,0.2,2.3,0.453,0.436,3.7,8.4,0.324,1.4,4.2,0.399,5.0,12.6,0.853,2.6,3.1,58.0,56.0,NBA,30.8,0.4,2.6,PG,14.0,2011,0.9,TOT,2.9,2.6
28.0,7.1,0.3,2.3,0.424,0.436,3.9,9.1,0.265,1.0,3.8,0.385,4.9,12.8,0.833,2.4,2.8,36.0,34.0,NBA,29.6,0.4,2.5,PG,13.3,2011,0.9,CLE,2.9,2.7
28.0,5.6,0.0,2.3,0.502,0.438,3.2,7.3,0.398,2.0,4.9,0.422,5.1,12.2,0.88,3.0,3.4,22.0,22.0,NBA,32.9,0.3,2.7,PG,15.2,2011,0.9,LAC,3.0,2.5
29.0,3.1,0.1,1.5,0.502,0.449,3.2,7.2,0.389,1.8,4.6,0.426,5.0,11.8,0.9,1.4,1.5,52.0,1.0,NBA,28.3,0.4,2.0,SG,13.2,2012,1.0,LAC,1.7,1.9
30.0,6.2,0.2,1.9,0.485,0.449,3.7,8.2,0.383,1.3,3.3,0.43,5.0,11.6,0.882,1.6,1.8,46.0,46.0,NBA,30.8,0.5,2.3,PG,12.9,2013,1.0,UTA,2.7,2.4
31.0,4.3,0.1,1.5,0.478,0.441,2.7,6.0,0.369,1.1,3.0,0.417,3.8,9.1,0.876,1.1,1.2,74.0,0.0,NBA,24.8,0.6,2.7,PG,9.7,2014,0.7,POR,2.0,2.1
32.0,6.2,0.2,2.2,0.466,0.434,3.3,7.5,0.342,1.8,5.1,0.397,5.0,12.6,0.872,2.4,2.8,68.0,33.0,NBA,29.1,0.3,2.4,PG,14.2,2015,0.7,TOT,2.5,2.6
32.0,6.4,0.2,2.1,0.469,0.437,3.0,6.8,0.347,1.4,4.1,0.403,4.4,10.9,0.851,2.0,2.3,41.0,19.0,NBA,28.0,0.3,2.5,PG,12.2,2015,0.7,MIN,2.5,2.4
32.0,6.0,0.2,2.5,0.462,0.43,3.7,8.7,0.337,2.2,6.6,0.39,6.0,15.3,0.892,3.1,3.4,27.0,14.0,NBA,30.8,0.3,2.2,PG,17.2,2015,0.6,CHO,2.6,2.8
33.0,2.4,0.1,1.6,0.497,0.48,2.3,4.9,0.353,0.9,2.5,0.437,3.2,7.4,0.905,0.9,1.0,41.0,14.0,NBA,18.2,0.1,1.5,PG,8.2,2016,0.3,CLE,1.4,1.8
