age,ast,ast_per_g,blk,college_id,fg,fg3,fg3_pct,fg3a,fg_pct,fga,ft,ft_pct,fta,g,mp,mp_per_g,orb,pf,pts,pts_per_g,season,stl,tov,trb,trb_per_g
19.0,159.0,4.5,4.0,ALABAMA,123.0,33.0,0.262,126.0,0.376,327.0,84.0,0.857,98.0,35.0,1121.0,32.0,0.0,91.0,363.0,10.4,2002,59.0,103.0,137.0,3.9
20.0,112.0,3.9,5.0,ALABAMA,160.0,57.0,0.317,180.0,0.431,371.0,98.0,0.838,117.0,29.0,1038.0,35.8,0.0,61.0,475.0,16.4,2003,36.0,86.0,113.0,3.9
