age,ast_pct,blk_pct,bpm,bpm-dum,dbpm,drb_pct,dws,fg3a_per_fga_pct,fta_per_fga_pct,g,lg_id,mp,obpm,orb_pct,ows,per,pos,season,stl_pct,team_id,tov_pct,trb_pct,ts_pct,usg_pct,vorp,ws,ws-dum,ws_per_48
27.0,10.0,0.2,-3.7,0.0,-2.7,6.4,0.2,0.319,0.164,46.0,NBA,307.0,-1.0,5.7,0.3,10.4,SG,1992,1.8,NJN,8.8,6.0,0.482,17.8,-0.1,0.4,0.0,0.067
28.0,19.8,1.9,-9.7,0.0,-2.0,6.6,0.0,0.429,0.0,5.0,NBA,33.0,-7.7,0.0,-0.1,-0.2,SG,1993,0.0,NJN,30.0,3.3,0.357,12.7,-0.1,0.0,0.0,-0.067
30.0,10.4,3.0,3.4,0.0,0.2,7.6,0.1,0.72,0.84,22.0,NBA,75.0,3.2,0.0,0.2,18.1,SG,1995,4.2,SAC,12.7,3.9,0.628,23.3,0.1,0.4,0.0,0.229
