age,ast,ast_per_g,blk,college_id,fg,fg3,fg3_pct,fg3a,fg_pct,fga,ft,ft_pct,fta,g,mp,mp_per_g,orb,pf,pts,pts_per_g,season,stl,tov,trb,trb_per_g
19.0,32.0,0.9,42.0,TEXAS,99.0,1.0,0.091,11.0,0.493,201.0,66.0,0.595,111.0,35.0,0.0,0.0,0.0,0.0,265.0,7.6,2007,20.0,0.0,253.0,7.2
20.0,51.0,1.3,51.0,TEXAS,193.0,38.0,0.413,92.0,0.461,419.0,77.0,0.57,135.0,38.0,0.0,0.0,0.0,0.0,501.0,13.2,2008,26.0,59.0,393.0,10.3
21.0,47.0,1.3,30.0,TEXAS,203.0,28.0,0.326,86.0,0.468,434.0,106.0,0.684,155.0,35.0,0.0,0.0,0.0,0.0,540.0,15.4,2009,34.0,79.0,322.0,9.2
22.0,33.0,1.0,40.0,TEXAS,210.0,36.0,0.383,94.0,0.501,419.0,155.0,0.674,230.0,34.0,1029.0,30.3,107.0,100.0,611.0,18.0,2010,57.0,69.0,350.0,10.3
