age,ast_pct,blk_pct,bpm,bpm-dum,dbpm,drb_pct,dws,fg3a_per_fga_pct,fta_per_fga_pct,g,lg_id,mp,obpm,orb_pct,ows,per,pos,season,stl_pct,team_id,tov_pct,trb_pct,ts_pct,usg_pct,vorp,ws,ws-dum,ws_per_48
23.0,8.1,2.3,-3.4,0.0,1.7,20.5,0.5,0.029,0.272,25.0,NBA,403.0,-5.1,4.8,-0.4,10.1,SF,2011,2.1,NJN,17.8,12.5,0.477,16.2,-0.1,0.1,0.0,0.015
24.0,2.8,3.2,-6.3,0.0,1.1,18.3,0.1,0.029,0.343,7.0,NBA,170.0,-7.3,4.6,-0.3,6.1,SF,2012,2.2,NJN,23.0,11.3,0.422,14.1,-0.2,-0.2,0.0,-0.043
25.0,0.0,0.0,-5.2,0.0,0.3,0.0,0.0,0.0,0.0,2.0,NBA,0.0,-5.5,0.0,0.0,0.0,SF,2013,0.0,BRK,0.0,0.0,0.0,0.0,0.0,0.0,0.0,0.0
26.0,7.5,1.4,-5.5,0.0,1.2,23.8,0.1,0.222,0.222,5.0,NBA,50.0,-6.7,2.4,-0.1,4.1,SF,2014,0.0,SAS,9.2,13.5,0.304,9.8,0.0,0.0,0.0,0.01
