age,avg_dist,fg2_dunk,fg2_pct,fg2_pct_ast,fg2a_pct_fga,fg3_heave,fg3_pct,fg3_pct_ast,fg3_pct_corner,fg3a_heave,fg3a_pct_fga,fg_pct,fg_pct_00_03,fg_pct_03_10,fg_pct_10_16,fg_pct_16_xx,g,lg_id,mp,pct_fg2_dunk,pct_fg3a_corner,pct_fga_00_03,pct_fga_03_10,pct_fga_10_16,pct_fga_16_xx,pos,season,team_id
23.0,10.0,4.0,0.46,0.739,0.971,0.0,0.0,0.0,0.0,0.0,0.029,0.447,0.586,0.36,0.467,0.419,25.0,NBA,403.0,0.049,0.667,0.282,0.243,0.146,0.301,SF,2011,NJN
24.0,10.7,1.0,0.382,0.769,0.971,0.0,0.0,0.0,0.0,0.0,0.029,0.371,0.833,0.167,0.2,0.455,7.0,NBA,170.0,0.029,0.0,0.171,0.343,0.143,0.314,SF,2012,NJN
25.0,0.0,0.0,0.0,0.0,0.0,0.0,0.0,0.0,0.0,0.0,0.0,0.0,0.0,0.0,0.0,0.0,2.0,NBA,0.0,0.0,0.0,0.0,0.0,0.0,0.0,SF,2013,BRK
26.0,14.2,1.0,0.286,0.5,0.778,0.0,0.0,0.0,0.0,0.0,0.222,0.222,1.0,0.0,0.0,0.333,5.0,NBA,50.0,0.111,1.0,0.111,0.222,0.111,0.333,SF,2014,SAS
