age,ast_per_poss,blk_per_poss,def_rtg,drb_per_poss,fg2_pct,fg2_per_poss,fg2a_per_poss,fg3_pct,fg3_per_poss,fg3a_per_poss,fg_pct,fg_per_poss,fga_per_poss,ft_pct,ft_per_poss,fta_per_poss,g,gs,lg_id,mp,off_rtg,orb_per_poss,pf_per_poss,pos,pts_per_poss,season,stl_per_poss,team_id,tov_per_poss,trb_per_poss
23.0,1.8,1.0,111.0,5.5,0.451,4.6,10.1,0.373,2.2,5.8,0.423,6.7,15.9,0.697,1.3,1.8,75.0,19.0,NBA,1803.0,97.0,0.9,3.5,SG,16.8,2009,1.0,IND,2.1,6.4
24.0,2.2,1.3,108.0,6.1,0.433,3.4,7.9,0.411,2.5,6.0,0.423,5.9,13.9,0.629,1.1,1.8,82.0,64.0,NBA,2491.0,99.0,0.8,3.2,SG,15.4,2010,1.1,IND,1.8,6.9
25.0,1.8,1.0,108.0,5.3,0.425,3.6,8.4,0.417,2.7,6.4,0.421,6.3,14.9,0.755,2.3,3.1,67.0,21.0,NBA,1754.0,104.0,1.0,3.1,SG,17.5,2011,1.2,IND,2.0,6.3
26.0,2.7,1.8,110.0,6.6,0.544,4.1,7.6,0.452,3.0,6.6,0.501,7.1,14.2,0.793,2.0,2.5,65.0,1.0,NBA,1717.0,115.0,1.0,1.9,SF,19.2,2012,1.1,GSW,2.1,7.6
27.0,4.1,0.0,113.0,2.0,0.857,12.2,14.2,0.0,0.0,4.1,0.667,12.2,18.3,0.667,4.1,6.1,2.0,0.0,NBA,25.0,104.0,0.0,10.2,SF,28.5,2013,0.0,GSW,6.1,2.0
28.0,3.0,1.1,114.0,4.9,0.326,1.8,5.4,0.34,2.0,5.9,0.333,3.8,11.3,0.6,0.4,0.6,38.0,0.0,NBA,418.0,83.0,0.6,3.9,SG,9.9,2014,0.6,UTA,2.5,5.5
29.0,2.2,2.2,103.0,6.7,0.296,1.4,4.9,0.111,0.5,4.9,0.204,2.0,9.7,0.455,0.9,2.0,33.0,0.0,NBA,271.0,59.0,0.7,4.9,SG,5.4,2015,0.9,GSW,2.0,7.4
30.0,2.6,1.1,106.0,7.3,0.447,2.1,4.7,0.414,3.0,7.2,0.427,5.1,11.9,0.643,0.8,1.3,72.0,25.0,NBA,1055.0,108.0,1.0,2.6,SG,14.0,2016,0.9,GSW,1.5,8.3
31.0,2.2,1.1,115.0,4.1,0.356,1.3,3.6,0.386,2.2,5.6,0.374,3.4,9.2,0.722,0.6,0.9,47.0,33.0,NBA,1030.0,101.0,0.8,2.1,SG,9.7,2017,1.1,MIN,1.4,4.9
