age,ast_per_mp,blk_per_mp,drb_per_mp,fg2_pct,fg2_per_mp,fg2a_per_mp,fg3_pct,fg3_per_mp,fg3a_per_mp,fg_pct,fg_per_mp,fga_per_mp,ft_pct,ft_per_mp,fta_per_mp,g,gs,lg_id,mp,orb_per_mp,pf_per_mp,pos,pts_per_mp,season,stl_per_mp,team_id,tov_per_mp,trb_per_mp
23.0,1.3,0.7,4.0,0.451,3.3,7.3,0.373,1.6,4.2,0.423,4.9,11.5,0.697,0.9,1.3,75.0,19.0,NBA,1803.0,0.7,2.6,SG,12.2,2009,0.8,IND,1.5,4.7
24.0,1.6,0.9,4.4,0.433,2.5,5.8,0.411,1.8,4.4,0.423,4.3,10.1,0.629,0.8,1.3,82.0,64.0,NBA,2491.0,0.6,2.3,SG,11.2,2010,0.8,IND,1.3,5.0
25.0,1.3,0.7,3.8,0.425,2.5,6.0,0.417,1.9,4.6,0.421,4.5,10.6,0.755,1.6,2.2,67.0,21.0,NBA,1754.0,0.7,2.2,SG,12.5,2011,0.8,IND,1.4,4.5
26.0,1.8,1.2,4.6,0.544,2.9,5.2,0.452,2.1,4.6,0.501,4.9,9.8,0.793,1.4,1.7,65.0,1.0,NBA,1717.0,0.7,1.3,SF,13.3,2012,0.7,GSW,1.4,5.3
27.0,2.9,0.0,1.4,0.857,8.6,10.1,0.0,0.0,2.9,0.667,8.6,13.0,0.667,2.9,4.3,2.0,0.0,NBA,25.0,0.0,7.2,SF,20.2,2013,0.0,GSW,4.3,1.4
28.0,2.1,0.8,3.4,0.326,1.2,3.7,0.34,1.4,4.0,0.333,2.6,7.8,0.6,0.3,0.4,38.0,0.0,NBA,418.0,0.4,2.7,SG,6.8,2014,0.4,UTA,1.7,3.8
29.0,1.6,1.6,4.9,0.296,1.1,3.6,0.111,0.4,3.6,0.204,1.5,7.2,0.455,0.7,1.5,33.0,0.0,NBA,271.0,0.5,3.6,SG,4.0,2015,0.7,GSW,1.5,5.4
30.0,1.9,0.8,5.5,0.447,1.6,3.5,0.414,2.2,5.4,0.427,3.8,8.9,0.643,0.6,1.0,72.0,25.0,NBA,1055.0,0.7,1.9,SG,10.4,2016,0.7,GSW,1.1,6.2
31.0,1.6,0.8,2.9,0.356,0.9,2.6,0.386,1.5,4.0,0.374,2.4,6.5,0.722,0.5,0.6,47.0,33.0,NBA,1030.0,0.6,1.5,SG,6.9,2017,0.8,MIN,1.0,3.5
