age,avg_dist,fg2_dunk,fg2_pct,fg2_pct_ast,fg2a_pct_fga,fg3_heave,fg3_pct,fg3_pct_ast,fg3_pct_corner,fg3a_heave,fg3a_pct_fga,fg_pct,fg_pct_00_03,fg_pct_03_10,fg_pct_10_16,fg_pct_16_xx,g,lg_id,mp,pct_fg2_dunk,pct_fg3a_corner,pct_fga_00_03,pct_fga_03_10,pct_fga_10_16,pct_fga_16_xx,pos,season,team_id
23.0,15.9,15.0,0.451,0.479,0.637,0.0,0.373,0.949,0.382,1.0,0.363,0.423,0.529,0.362,0.393,0.438,75.0,NBA,1803.0,0.03,0.325,0.21,0.082,0.106,0.238,SG,2009,IND
24.0,16.4,24.0,0.433,0.526,0.57,0.0,0.411,0.992,0.522,0.0,0.43,0.423,0.5,0.44,0.346,0.389,82.0,NBA,2491.0,0.036,0.374,0.219,0.071,0.074,0.205,SG,2010,IND
25.0,17.2,17.0,0.425,0.492,0.567,0.0,0.417,0.946,0.429,1.0,0.433,0.421,0.651,0.209,0.462,0.331,67.0,NBA,1754.0,0.033,0.345,0.167,0.083,0.076,0.241,SG,2011,IND
26.0,16.1,26.0,0.544,0.581,0.533,0.0,0.452,0.949,0.433,2.0,0.467,0.501,0.686,0.31,0.385,0.481,65.0,NBA,1717.0,0.064,0.443,0.252,0.09,0.028,0.164,SF,2012,GSW
27.0,11.2,1.0,0.857,0.167,0.778,0.0,0.0,0.0,0.0,0.0,0.222,0.667,1.0,0.0,1.0,1.0,2.0,NBA,25.0,0.111,0.0,0.444,0.111,0.111,0.111,SF,2013,GSW
28.0,19.0,0.0,0.326,0.357,0.478,0.0,0.34,0.813,0.462,0.0,0.522,0.333,0.333,0.429,0.333,0.286,38.0,NBA,418.0,0.011,0.277,0.1,0.078,0.067,0.233,SG,2014,UTA
29.0,17.9,0.0,0.296,0.25,0.5,0.0,0.111,1.0,0.167,0.0,0.5,0.204,0.333,0.4,0.0,0.3,33.0,NBA,271.0,0.019,0.222,0.167,0.093,0.056,0.185,SG,2015,GSW
30.0,17.6,8.0,0.447,0.891,0.396,0.0,0.414,0.908,0.364,0.0,0.604,0.427,0.549,0.25,0.273,0.44,72.0,NBA,1055.0,0.038,0.42,0.196,0.062,0.042,0.096,SG,2016,GSW
31.0,18.2,7.0,0.356,0.808,0.39,0.0,0.386,0.977,0.427,0.0,0.61,0.374,0.424,0.222,0.25,0.333,47.0,NBA,1030.0,0.037,0.658,0.176,0.048,0.043,0.128,SG,2017,MIN
