age,ast_per_poss,blk_per_poss,def_rtg,drb_per_poss,fg2_pct,fg2_per_poss,fg2a_per_poss,fg3_pct,fg3_per_poss,fg3a_per_poss,fg_pct,fg_per_poss,fga_per_poss,ft_pct,ft_per_poss,fta_per_poss,g,gs,lg_id,mp,off_rtg,orb_per_poss,pf_per_poss,pos,pts_per_poss,season,stl_per_poss,team_id,tov_per_poss,trb_per_poss
27.0,3.3,3.3,111.0,0.0,0.2,3.3,16.3,0.0,0.0,0.0,0.2,3.3,16.3,0.0,0.0,6.5,4.0,0.0,NBA,16.0,45.0,6.5,3.3,C,6.5,2001,0.0,TOT,6.5,6.5
27.0,6.6,0.0,113.0,0.0,0.5,6.6,13.2,0.0,0.0,0.0,0.5,6.6,13.2,0.0,0.0,0.0,2.0,0.0,NBA,8.0,99.0,13.2,6.6,C,13.2,2001,0.0,TOR,6.6,13.2
27.0,0.0,6.5,109.0,0.0,0.0,0.0,19.4,0.0,0.0,0.0,0.0,0.0,19.4,0.0,0.0,13.0,2.0,0.0,NBA,8.0,0.0,0.0,0.0,C,0.0,2001,0.0,DEN,6.5,0.0
