age,and1s,astd_pts,drawn_offensive,drawn_shooting,fouls_offensive,fouls_shooting,g,lg_id,mp,own_shots_blk,pct_1,pct_2,pct_3,pct_4,pct_5,plus_minus_net,plus_minus_on,pos,season,team_id,tov_bad_pass,tov_lost_ball
27.0,0.0,2.0,0.0,1.0,1.0,0.0,4.0,NBA,16.0,2.0,0.0,0.0,0.0,0.0,100.0,-34.7,-34.5,C,2001,TOT,0.0,1.0
27.0,0.0,2.0,0.0,0.0,1.0,0.0,2.0,NBA,8.0,1.0,0.0,0.0,0.0,0.0,100.0,-64.2,-61.5,C,2001,TOR,0.0,0.0
27.0,0.0,0.0,0.0,1.0,0.0,0.0,2.0,NBA,8.0,1.0,0.0,0.0,0.0,0.0,100.0,-10.2,-12.5,C,2001,DEN,0.0,1.0
