age,ast_pct,blk_pct,bpm,bpm-dum,dbpm,drb_pct,dws,fg3a_per_fga_pct,fta_per_fga_pct,g,lg_id,mp,obpm,orb_pct,ows,per,pos,season,stl_pct,team_id,tov_pct,trb_pct,ts_pct,usg_pct,vorp,ws,ws-dum,ws_per_48
22.0,9.5,0.4,-10.2,0.0,-2.2,16.7,0.1,0.029,0.371,25.0,NBA,162.0,-8.1,10.5,-0.6,4.9,PF,1991,1.5,ATL,17.3,13.5,0.338,25.1,-0.3,-0.5,0.0,-0.144
25.0,9.0,0.6,-2.9,0.0,-0.7,14.0,0.8,0.005,0.428,57.0,NBA,1221.0,-2.2,10.5,0.0,11.8,PF,1994,1.5,TOT,16.8,12.2,0.505,19.1,-0.3,0.8,0.0,0.031
25.0,14.0,0.5,-0.8,0.0,-0.7,14.4,0.1,0.0,0.641,5.0,NBA,126.0,-0.1,9.9,0.2,15.1,PF,1994,2.0,LAL,10.7,12.1,0.51,18.7,0.0,0.3,0.0,0.101
25.0,8.4,0.6,-3.2,0.0,-0.7,14.0,0.7,0.006,0.404,52.0,NBA,1095.0,-2.4,10.5,-0.1,11.5,PF,1994,1.5,SAC,17.5,12.2,0.505,19.2,-0.3,0.5,0.0,0.023
26.0,12.8,1.0,-1.7,0.0,0.2,12.5,0.2,0.0,0.35,15.0,NBA,147.0,-1.9,8.1,0.2,12.8,PF,1995,1.4,SAC,11.5,10.3,0.509,15.8,0.0,0.3,0.0,0.103
27.0,8.7,0.0,-2.4,0.0,-1.5,10.5,0.0,0.0,0.2,6.0,NBA,79.0,-0.8,10.0,0.1,13.2,PF,1996,2.0,PHI,4.4,10.2,0.528,12.9,0.0,0.2,0.0,0.098
