age,ast_per_g,blk_per_g,drb_per_g,efg_pct,fg2_pct,fg2_per_g,fg2a_per_g,fg3_pct,fg3_per_g,fg3a_per_g,fg_pct,fg_per_g,fga_per_g,ft_pct,ft_per_g,fta_per_g,g,gs,lg_id,mp_per_g,orb_per_g,pf_per_g,pos,pts_per_g,season,stl_per_g,team_id,tov_per_g,trb_per_g
23.0,1.3,2.0,4.0,0.297,0.297,2.8,9.3,0.0,0.0,0.0,0.297,2.8,9.3,0.727,2.0,2.8,4.0,4.0,NBA,30.0,2.5,3.8,C,7.5,1999,0.5,MIN,1.3,6.5
24.0,0.3,0.3,1.3,0.471,0.5,2.0,4.0,0.0,0.0,0.3,0.471,2.0,4.3,1.0,0.5,0.5,4.0,0.0,NBA,19.8,1.8,3.8,C,4.5,2000,0.8,MIN,1.0,3.0
26.0,0.0,0.3,2.3,0.429,0.429,1.0,2.3,0.0,0.0,0.0,0.429,1.0,2.3,0.875,2.3,2.7,3.0,1.0,NBA,14.3,1.3,2.7,C,4.3,2002,0.0,MIN,0.3,3.7
27.0,0.0,0.2,1.2,0.667,0.667,0.8,1.2,0.0,0.0,0.0,0.667,0.8,1.2,1.0,1.2,1.2,5.0,1.0,NBA,8.0,0.0,2.8,SF,2.8,2003,0.2,MIN,0.6,1.2
28.0,0.4,2.0,5.4,0.491,0.5,5.4,10.8,0.0,0.0,0.2,0.491,5.4,11.0,0.923,2.4,2.6,5.0,5.0,NBA,35.0,4.6,3.0,PF,13.2,2004,0.8,MIL,1.2,10.0
30.0,0.6,0.4,4.2,0.485,0.485,3.2,6.6,0.0,0.0,0.0,0.485,3.2,6.6,0.667,1.2,1.8,5.0,0.0,NBA,21.2,1.2,3.2,PF,7.6,2006,0.4,MIL,0.2,5.4
32.0,0.5,0.5,3.1,0.486,0.493,2.8,5.6,0.0,0.0,0.1,0.486,2.8,5.7,0.636,1.1,1.7,13.0,0.0,NBA,20.2,1.5,3.2,PF,6.6,2008,0.4,CLE,0.5,4.6
33.0,0.2,0.5,2.9,0.49,0.444,1.5,3.5,0.6,0.2,0.4,0.46,1.8,3.8,0.793,1.8,2.2,13.0,0.0,NBA,16.8,0.8,1.9,C,5.5,2009,0.5,CLE,0.5,3.7
34.0,0.0,0.2,0.2,0.0,0.0,0.0,0.6,0.0,0.0,0.0,0.0,0.0,0.6,0.0,0.0,0.0,5.0,0.0,NBA,4.8,0.2,0.2,PF,0.0,2010,0.0,ATL,0.2,0.4
35.0,0.0,0.0,0.0,0.0,0.0,0.0,0.4,0.0,0.0,0.0,0.0,0.0,0.4,0.0,0.0,0.0,5.0,0.0,NBA,2.2,0.2,0.2,PF,0.0,2011,0.0,LAL,0.0,0.2
