lg_id,salary,season,team_name
NBA,230000.0,1985,New York Knicks
NBA,265000.0,1986,New York Knicks
NBA,400000.0,1988,Washington Bullets
NBA,450000.0,1989,Washington Bullets
NBA,610000.0,1991,Washington Bullets
NBA,665000.0,1992,Detroit Pistons
NBA,735000.0,1993,Detroit Pistons
