age,ast_per_g,blk_per_g,drb_per_g,efg_pct,fg2_pct,fg2_per_g,fg2a_per_g,fg3_pct,fg3_per_g,fg3a_per_g,fg_pct,fg_per_g,fga_per_g,ft_pct,ft_per_g,fta_per_g,g,gs,lg_id,mp_per_g,orb_per_g,pf_per_g,pos,pts_per_g,season,stl_per_g,team_id,tov_per_g,trb_per_g
18.0,0.7,0.1,0.9,0.401,0.411,1.0,2.4,0.25,0.2,0.9,0.368,1.2,3.3,0.75,0.8,1.0,23.0,0.0,NBA,8.8,0.8,0.9,PG,3.4,2006,0.3,UTA,0.4,1.7
19.0,0.7,0.1,0.6,0.375,0.393,0.9,2.3,0.219,0.2,0.9,0.345,1.1,3.1,0.609,0.4,0.6,37.0,13.0,NBA,10.1,0.3,1.6,SG,2.7,2007,0.3,UTA,0.8,0.9
20.0,0.9,0.1,1.0,0.542,0.522,1.4,2.7,0.39,0.5,1.3,0.479,1.9,3.9,0.788,0.7,0.9,60.0,13.0,NBA,11.5,0.3,1.6,SG,5.0,2008,0.5,UTA,0.5,1.3
21.0,1.5,0.2,1.7,0.515,0.509,2.7,5.3,0.352,0.9,2.5,0.459,3.6,7.8,0.876,1.1,1.2,72.0,72.0,NBA,22.5,0.6,2.6,SG,9.1,2009,0.6,UTA,0.9,2.3
22.0,1.7,0.3,2.0,0.495,0.484,2.7,5.5,0.341,1.2,3.4,0.429,3.8,8.9,0.695,1.0,1.5,63.0,28.0,NBA,23.8,0.7,3.0,SF,9.9,2010,0.9,UTA,1.3,2.7
23.0,1.7,0.5,2.6,0.468,0.459,3.3,7.2,0.322,1.4,4.3,0.407,4.7,11.5,0.811,2.0,2.5,78.0,19.0,NBA,25.2,0.7,2.8,SF,12.8,2011,0.9,UTA,1.2,3.3
24.0,1.2,0.3,1.6,0.43,0.416,2.3,5.6,0.307,0.8,2.7,0.381,3.2,8.3,0.794,1.9,2.4,56.0,14.0,NBA,20.4,0.5,2.2,SG,9.1,2012,0.8,UTA,0.9,2.1
25.0,1.0,0.3,2.3,0.518,0.451,2.0,4.4,0.384,1.9,5.0,0.415,3.9,9.4,0.869,1.4,1.6,65.0,13.0,NBA,21.0,0.4,2.1,SF,11.2,2013,0.8,CLE,1.1,2.7
26.0,1.0,0.3,1.7,0.537,0.48,1.9,3.9,0.393,1.6,4.1,0.435,3.5,8.0,0.853,1.3,1.5,51.0,34.0,NBA,19.3,0.4,2.0,SG,9.9,2014,0.9,CLE,0.9,2.0
27.0,1.1,0.4,2.8,0.491,0.459,2.5,5.4,0.345,2.2,6.4,0.398,4.7,11.8,0.807,1.9,2.3,70.0,40.0,NBA,26.3,0.3,1.9,SG,13.5,2015,0.9,IND,1.0,3.1
28.0,1.0,0.5,2.3,0.521,0.474,1.8,3.9,0.367,2.2,6.0,0.409,4.0,9.9,0.75,1.5,1.9,64.0,24.0,NBA,22.9,0.4,2.2,SF,11.8,2016,0.8,IND,1.1,2.7
29.0,0.6,0.3,2.6,0.565,0.471,1.5,3.1,0.413,2.2,5.4,0.434,3.7,8.5,0.903,1.1,1.2,76.0,29.0,NBA,23.4,0.4,2.0,SF,10.7,2017,0.6,IND,0.5,3.0
30.0,0.8,0.3,1.9,0.516,0.434,0.9,2.1,0.361,2.3,6.5,0.379,3.2,8.6,0.835,1.2,1.4,70.0,3.0,NBA,19.1,0.3,1.9,SF,10.0,2018,0.5,TOR,0.6,2.2
31.0,0.7,0.3,1.5,0.468,0.417,0.8,2.0,0.33,1.3,3.8,0.36,2.1,5.9,0.828,0.9,1.1,53.0,1.0,NBA,16.2,0.2,1.5,SF,6.4,2019,0.5,TOT,0.6,1.8
31.0,0.6,0.3,1.4,0.444,0.391,0.7,1.7,0.314,1.1,3.4,0.34,1.8,5.2,0.795,0.9,1.1,40.0,1.0,NBA,14.1,0.3,1.6,SF,5.5,2019,0.5,TOR,0.5,1.7
31.0,1.1,0.4,2.0,0.514,0.462,1.4,3.0,0.364,1.8,5.1,0.4,3.2,8.1,0.929,1.0,1.1,13.0,0.0,NBA,22.6,0.1,1.3,SF,9.3,2019,0.6,MEM,0.7,2.1
32.0,1.3,0.8,1.8,0.367,0.385,1.3,3.3,0.235,1.0,4.3,0.3,2.3,7.5,1.0,1.3,1.3,4.0,0.0,NBA,17.8,0.8,2.0,SG,6.8,2020,0.5,WAS,0.0,2.5
