age,ast,ast_per_g,blk,college_id,fg,fg3,fg3_pct,fg3a,fg_pct,fga,ft,ft_pct,fta,g,mp,mp_per_g,orb,pf,pts,pts_per_g,season,stl,tov,trb,trb_per_g
18.0,110.0,3.9,5.0,BOWLGREEN,132.0,6.0,0.316,19.0,0.512,258.0,84.0,0.816,103.0,28.0,864.0,30.9,0.0,38.0,354.0,12.6,1994,28.0,67.0,81.0,2.9
19.0,100.0,3.8,4.0,BOWLGREEN,97.0,16.0,0.421,38.0,0.495,196.0,58.0,0.699,83.0,26.0,753.0,29.0,0.0,32.0,268.0,10.3,1995,18.0,74.0,73.0,2.8
20.0,147.0,5.9,11.0,BOWLGREEN,142.0,17.0,0.333,51.0,0.478,297.0,99.0,0.723,137.0,25.0,922.0,36.9,0.0,46.0,400.0,16.0,1996,46.0,70.0,77.0,3.1
21.0,216.0,6.8,10.0,BOWLGREEN,279.0,45.0,0.433,104.0,0.547,510.0,164.0,0.777,211.0,32.0,1161.0,36.3,0.0,51.0,767.0,24.0,1997,73.0,103.0,90.0,2.8
