age,ast_per_g,blk_per_g,drb_per_g,efg_pct,fg2_pct,fg2_per_g,fg2a_per_g,fg3_pct,fg3_per_g,fg3a_per_g,fg_pct,fg_per_g,fga_per_g,ft_pct,ft_per_g,fta_per_g,g,gs,lg_id,mp_per_g,orb_per_g,pf_per_g,pos,pts_per_g,season,stl_per_g,team_id,tov_per_g,trb_per_g
22.0,4.5,0.1,1.6,0.426,0.438,2.9,6.7,0.212,0.1,0.7,0.416,3.1,7.4,0.659,1.5,2.3,74.0,50.0,NBA,26.4,0.3,1.2,SG,7.8,1998,0.7,VAN,2.2,1.9
23.0,2.3,0.1,0.9,0.467,0.47,1.7,3.5,0.294,0.1,0.4,0.454,1.8,3.9,0.754,1.0,1.4,47.0,0.0,NBA,13.1,0.3,0.8,PG,4.7,1999,0.6,SAS,0.9,1.1
24.0,2.6,0.1,1.0,0.506,0.507,2.1,4.1,0.333,0.3,1.0,0.474,2.4,5.1,0.713,1.1,1.5,68.0,1.0,NBA,17.6,0.2,1.1,SG,6.2,2000,0.8,SAS,0.9,1.3
25.0,3.8,0.2,1.7,0.531,0.496,2.5,5.1,0.404,0.9,2.3,0.468,3.5,7.4,0.776,1.5,2.0,79.0,23.0,NBA,26.1,0.3,1.5,PG,9.4,2001,0.8,SAS,1.4,2.1
26.0,2.8,0.1,1.9,0.486,0.51,2.6,5.1,0.291,0.7,2.4,0.44,3.3,7.5,0.752,1.9,2.6,82.0,13.0,NBA,26.5,0.3,1.3,SG,9.2,2002,0.6,SAS,0.9,2.1
27.0,1.3,0.1,0.9,0.5,0.52,1.0,1.9,0.305,0.3,0.9,0.452,1.3,2.8,0.855,1.0,1.1,67.0,2.0,NBA,13.0,0.2,0.6,SG,3.7,2003,0.5,POR,0.5,1.1
28.0,4.2,0.1,1.7,0.523,0.514,2.0,4.0,0.362,0.6,1.6,0.47,2.6,5.6,0.842,2.2,2.6,71.0,32.0,NBA,21.3,0.3,0.9,PG,8.0,2004,0.6,SEA,0.9,2.0
29.0,4.1,0.0,2.0,0.478,0.489,3.0,6.1,0.297,0.7,2.2,0.438,3.6,8.3,0.816,3.3,4.1,75.0,2.0,NBA,27.0,0.3,1.0,PG,11.2,2005,0.7,SEA,1.0,2.3
30.0,3.6,0.1,1.9,0.439,0.461,2.6,5.6,0.228,0.3,1.3,0.418,2.9,6.9,0.845,3.6,4.2,80.0,17.0,NBA,28.5,0.2,1.2,SG,9.6,2006,0.7,WAS,1.1,2.2
31.0,3.6,0.1,1.7,0.467,0.469,1.9,4.1,0.302,0.2,0.8,0.442,2.2,4.9,0.832,2.6,3.1,80.0,8.0,NBA,22.0,0.2,1.0,SG,7.1,2007,0.5,WAS,0.9,1.9
32.0,4.8,0.0,2.5,0.478,0.504,2.6,5.3,0.23,0.2,1.0,0.459,2.9,6.3,0.776,2.4,3.1,71.0,63.0,NBA,30.4,0.3,1.1,PG,8.4,2008,1.0,WAS,1.3,2.9
33.0,2.4,0.0,1.0,0.466,0.438,1.0,2.4,0.367,0.3,0.8,0.419,1.3,3.2,0.8,1.1,1.4,74.0,9.0,NBA,13.8,0.1,0.7,PG,4.1,2009,0.4,TOT,0.8,1.0
33.0,3.6,0.0,1.7,0.456,0.382,1.0,2.6,0.455,0.4,0.8,0.4,1.4,3.5,0.758,1.9,2.5,13.0,5.0,NBA,22.2,0.0,1.1,PG,5.1,2009,0.5,WAS,1.0,1.7
33.0,2.1,0.0,0.8,0.469,0.451,1.0,2.3,0.347,0.3,0.8,0.424,1.3,3.1,0.821,0.9,1.1,61.0,4.0,NBA,12.0,0.1,0.7,PG,3.8,2009,0.3,NOH,0.8,0.9
35.0,0.5,0.0,1.3,0.4,0.667,0.5,0.8,0.0,0.0,0.5,0.4,0.5,1.3,1.0,0.5,0.5,4.0,0.0,NBA,8.8,0.0,0.0,PG,1.5,2011,0.0,PHI,0.3,1.3
