age,ast,blk,drb,fg,fg2,fg2a,fg3,fg3a,fga,ft,fta,game_score,lg_id,mp,orb,pf,pts,season,stl,team_id,tov,trb
28.0,4.0,6.0,10.0,10.0,10.0,19.0,0.0,1.0,19.0,8.0,10.0,20.4,NBA,0.0,3.0,6.0,24.0,1987,4.0,GSW,6.0,11.0
29.0,2.0,1.0,3.0,8.0,8.0,17.0,0.0,0.0,17.0,5.0,6.0,13.0,NBA,0.0,6.0,5.0,16.0,1988,1.0,TOT,3.0,9.0
29.0,2.0,1.0,3.0,8.0,8.0,17.0,0.0,0.0,17.0,5.0,6.0,13.0,NBA,0.0,6.0,5.0,16.0,1988,1.0,HOU,3.0,9.0
31.0,2.0,3.0,4.0,6.0,6.0,8.0,0.0,0.0,8.0,2.0,2.0,12.3,NBA,0.0,1.0,3.0,12.0,1990,1.0,TOT,1.0,5.0
31.0,2.0,3.0,4.0,6.0,6.0,8.0,0.0,0.0,8.0,2.0,2.0,12.3,NBA,0.0,1.0,3.0,12.0,1990,1.0,DEN,1.0,5.0
32.0,2.0,1.0,1.0,3.0,3.0,5.0,0.0,0.0,5.0,0.0,1.0,4.7,NBA,0.0,0.0,0.0,6.0,1991,0.0,PHO,1.0,1.0
