article_url,date,headline
https://hoopshabit.com/2019/11/04/nba-power-rankings-philadelphia-76ers-last-unbeaten-week-2/,2019/11/04,Hoops Habit: NBA Power Rankings: Philadelphia 76ers the last unbeaten after Week 2
https://behindthebuckpass.com/2019/09/06/milwaukee-bucks-jack-sikma-big-moment-reminder-what-could-have-been/,2019/09/06,Behind the Buck Pass: Milwaukee Bucks: Jack Sikma's big moment is a reminder of what could have been
