age,ast_per_g,blk_per_g,drb_per_g,efg_pct,fg2_pct,fg2_per_g,fg2a_per_g,fg3_pct,fg3_per_g,fg3a_per_g,fg_pct,fg_per_g,fga_per_g,ft_pct,ft_per_g,fta_per_g,g,gs,lg_id,mp_per_g,orb_per_g,pf_per_g,pos,pts_per_g,season,stl_per_g,team_id,tov_per_g,trb_per_g
28.0,1.5,0.3,1.6,0.486,0.357,1.4,3.8,0.438,1.3,2.9,0.392,2.6,6.7,0.846,1.0,1.2,11.0,11.0,NBA,26.5,0.4,1.7,SG,7.5,2012,0.5,LAC,1.1,2.0
32.0,0.8,0.2,1.1,0.439,0.4,0.4,0.9,0.308,0.5,1.6,0.341,0.9,2.6,1.0,0.3,0.3,16.0,0.0,NBA,11.9,0.1,1.1,SG,2.5,2016,0.1,OKC,0.7,1.3
