age,ast_per_mp,blk_per_mp,drb_per_mp,fg2_pct,fg2_per_mp,fg2a_per_mp,fg3_pct,fg3_per_mp,fg3a_per_mp,fg_pct,fg_per_mp,fga_per_mp,ft_pct,ft_per_mp,fta_per_mp,g,gs,lg_id,mp,orb_per_mp,pf_per_mp,pos,pts_per_mp,season,stl_per_mp,team_id,tov_per_mp,trb_per_mp
21.0,1.9,0.8,3.1,0.427,5.3,12.3,0.298,0.9,3.1,0.402,6.2,15.4,0.754,2.8,3.7,81.0,61.0,NBA,2556.0,1.9,2.5,SF,16.1,1995,1.0,LAC,2.3,5.0
22.0,1.7,0.5,3.1,0.479,4.4,9.1,0.319,0.7,2.3,0.447,5.1,11.4,0.75,2.0,2.6,77.0,32.0,NBA,1816.0,1.8,3.0,SF,12.9,1996,1.2,LAC,2.1,4.9
23.0,1.6,0.8,4.1,0.436,4.2,9.6,0.341,0.9,2.5,0.416,5.0,12.1,0.739,4.3,5.9,74.0,1.0,NBA,1295.0,2.4,3.1,SF,15.3,1997,1.5,LAC,2.4,6.5
24.0,2.0,0.8,4.4,0.504,5.8,11.6,0.353,0.8,2.1,0.481,6.6,13.7,0.748,3.1,4.1,79.0,65.0,NBA,2579.0,2.4,2.7,SF,17.0,1998,1.6,LAC,2.4,6.8
25.0,1.7,0.5,3.7,0.404,5.2,13.0,0.33,0.9,2.8,0.391,6.2,15.8,0.803,3.4,4.3,50.0,13.0,NBA,1317.0,1.6,2.9,SF,16.7,1999,1.6,LAC,2.7,5.3
26.0,2.0,0.5,4.5,0.465,6.2,13.4,0.367,0.8,2.1,0.451,7.0,15.5,0.761,3.1,4.1,74.0,72.0,NBA,2365.0,1.9,3.2,SF,17.9,2000,1.6,CLE,2.8,6.4
27.0,2.0,0.4,3.8,0.434,5.3,12.3,0.37,1.0,2.7,0.423,6.3,15.0,0.735,2.5,3.4,78.0,46.0,NBA,2225.0,1.7,2.8,SF,16.1,2001,1.3,CLE,2.3,5.5
28.0,2.4,0.7,4.5,0.44,5.1,11.6,0.424,1.6,3.7,0.436,6.7,15.4,0.817,3.3,4.1,71.0,68.0,NBA,2312.0,1.3,2.3,SF,18.3,2002,1.1,CLE,2.2,5.8
30.0,1.9,0.5,5.3,0.355,3.8,10.8,0.35,1.5,4.2,0.353,5.3,14.9,0.686,1.7,2.4,33.0,4.0,NBA,518.0,1.0,3.3,SF,13.7,2004,1.0,TOR,2.6,6.3
31.0,1.8,0.6,4.7,0.42,3.4,8.0,0.438,1.8,4.1,0.426,5.2,12.2,0.763,2.4,3.1,62.0,1.0,NBA,918.0,1.7,3.3,SF,14.5,2005,1.3,TOR,2.1,6.4
32.0,0.8,0.4,6.4,0.437,2.8,6.4,0.346,1.7,4.9,0.398,4.5,11.3,0.625,1.6,2.5,57.0,1.0,NBA,576.0,1.8,4.1,SF,12.2,2006,1.1,NJN,1.4,8.2
