age,ast,blk,drb,efg_pct,fg,fg2,fg2_pct,fg2a,fg3,fg3_pct,fg3a,fg_pct,fga,ft,ft_pct,fta,g,gs,lg_id,mp,orb,pf,pos,pts,season,stl,team_id,tov,trb
23.0,3.0,3.0,9.0,0.35,6.0,4.0,0.333,12.0,2.0,0.25,8.0,0.3,20.0,7.0,1.0,7.0,3.0,0.0,NBA,65.0,2.0,7.0,SF,21.0,1997,2.0,LAC,4.0,11.0
32.0,2.0,0.0,29.0,0.5,21.0,9.0,0.45,20.0,12.0,0.353,34.0,0.389,54.0,9.0,0.818,11.0,11.0,0.0,NBA,197.0,9.0,25.0,SF,63.0,2006,3.0,NJN,3.0,38.0
