age,ast_pct,blk_pct,bpm,bpm-dum,dbpm,drb_pct,dws,fg3a_per_fga_pct,fta_per_fga_pct,g,lg_id,mp,obpm,orb_pct,ows,per,pos,season,stl_pct,team_id,tov_pct,trb_pct,ts_pct,usg_pct,vorp,ws,ws-dum,ws_per_48
21.0,8.7,1.6,-3.8,0.0,-1.3,10.9,1.1,0.199,0.242,81.0,NBA,2556.0,-2.4,5.7,-1.4,11.6,SF,1995,1.4,LAC,11.9,8.1,0.472,23.4,-1.1,-0.3,0.0,-0.006
22.0,7.1,1.0,-2.8,0.0,-1.0,10.6,0.9,0.202,0.23,77.0,NBA,1816.0,-1.9,5.8,0.3,11.1,SF,1996,1.7,LAC,14.6,8.1,0.513,18.2,-0.4,1.2,0.0,0.032
23.0,7.2,1.8,-1.9,0.0,-0.5,13.8,1.2,0.209,0.485,74.0,NBA,1295.0,-1.4,7.4,0.9,14.4,SF,1997,2.2,LAC,14.0,10.5,0.52,21.2,0.0,2.1,0.0,0.078
24.0,9.9,1.4,0.9,0.0,-0.4,13.9,1.2,0.155,0.299,79.0,NBA,2579.0,1.3,7.5,3.7,17.8,SF,1998,2.4,LAC,13.3,10.7,0.548,22.1,1.9,4.9,0.0,0.092
25.0,8.7,1.1,-3.3,0.0,-2.1,13.0,0.2,0.178,0.272,50.0,NBA,1317.0,-1.2,5.0,0.1,14.3,SF,1999,2.4,LAC,13.3,8.7,0.473,25.7,-0.4,0.3,0.0,0.01
26.0,10.1,1.1,-0.5,0.0,0.1,14.2,2.6,0.136,0.263,74.0,NBA,2365.0,-0.6,5.9,0.7,14.9,SF,2000,2.2,CLE,13.9,10.0,0.517,24.3,0.9,3.3,0.0,0.067
27.0,10.1,0.9,-1.3,0.0,-1.0,12.3,1.5,0.178,0.228,78.0,NBA,2225.0,-0.3,5.4,0.8,13.9,SF,2001,2.0,CLE,12.2,8.9,0.49,23.5,0.4,2.3,0.0,0.05
28.0,12.2,1.3,-0.1,0.0,-1.4,14.7,1.3,0.241,0.267,71.0,NBA,2312.0,1.3,4.2,2.9,16.7,SF,2002,1.6,CLE,11.3,9.5,0.534,24.7,1.1,4.1,0.0,0.086
30.0,10.4,1.0,-6.4,0.0,-1.1,17.0,0.7,0.279,0.163,33.0,NBA,518.0,-5.3,3.1,-1.1,8.9,SF,2004,1.6,TOR,14.2,10.0,0.428,25.1,-0.6,-0.3,0.0,-0.031
31.0,8.5,1.3,-1.8,0.0,-0.8,15.1,0.7,0.339,0.258,62.0,NBA,918.0,-1.0,5.3,0.5,13.7,SF,2005,1.8,TOR,13.5,10.1,0.537,19.9,0.0,1.3,0.0,0.067
32.0,3.9,1.0,-4.7,0.0,-0.9,21.3,1.0,0.431,0.221,57.0,NBA,576.0,-3.8,5.8,-0.1,10.8,SF,2006,1.6,NJN,10.0,13.4,0.493,18.0,-0.4,0.9,0.0,0.076
