age,ast,blk,drb,fg,fg2,fg2a,fg3,fg3a,fga,ft,fta,game_score,lg_id,mp,orb,pf,pts,season,stl,team_id,tov,trb
23.0,1.0,2.0,4.0,4.0,2.0,6.0,2.0,4.0,10.0,5.0,5.0,11.4,NBA,0.0,2.0,3.0,15.0,1997,2.0,LAC,2.0,5.0
32.0,1.0,0.0,7.0,6.0,5.0,7.0,2.0,8.0,11.0,5.0,5.0,10.4,NBA,34.0,3.0,5.0,14.0,2006,1.0,NJN,1.0,9.0
