age,avg_dist,fg2_dunk,fg2_pct,fg2_pct_ast,fg2a_pct_fga,fg3_heave,fg3_pct,fg3_pct_ast,fg3_pct_corner,fg3a_heave,fg3a_pct_fga,fg_pct,fg_pct_00_03,fg_pct_03_10,fg_pct_10_16,fg_pct_16_xx,g,lg_id,mp,pct_fg2_dunk,pct_fg3a_corner,pct_fga_00_03,pct_fga_03_10,pct_fga_10_16,pct_fga_16_xx,pos,season,team_id
27.0,13.3,34.0,0.434,0.594,0.822,0.0,0.37,0.934,0.373,1.0,0.178,0.423,0.617,0.269,0.434,0.382,78.0,NBA,2225.0,0.039,0.455,0.217,0.145,0.157,0.303,SF,2001,CLE
28.0,14.5,35.0,0.44,0.587,0.759,0.0,0.424,0.881,0.519,2.0,0.241,0.436,0.55,0.431,0.456,0.358,71.0,NBA,2312.0,0.044,0.34,0.192,0.118,0.171,0.278,SF,2002,CLE
30.0,16.0,4.0,0.355,0.527,0.721,0.0,0.35,0.905,0.367,0.0,0.279,0.353,0.543,0.4,0.238,0.298,33.0,NBA,518.0,0.028,0.5,0.163,0.07,0.098,0.391,SF,2004,TOR
31.0,15.6,15.0,0.42,0.605,0.661,0.0,0.438,0.935,0.438,1.0,0.339,0.426,0.5,0.3,0.444,0.376,62.0,NBA,918.0,0.048,0.457,0.206,0.065,0.116,0.274,SF,2005,TOR
32.0,17.0,7.0,0.437,0.689,0.569,0.0,0.346,1.0,0.367,0.0,0.431,0.398,0.583,0.429,0.364,0.347,57.0,NBA,576.0,0.039,0.385,0.199,0.039,0.061,0.271,SF,2006,NJN
