article_url,date,headline
https://kingjamesgospel.com/2019/08/20/cleveland-cavaliers-zydrunas-ilgauskas-would-seem-to-be-obvious-gund-arena-era-choice/,2019/08/20,Right Down Euclid: Cavs: Zydrunas Ilgauskas would seem to be obvious 'Gund Arena Era' choice
https://clipperholics.com/2019/08/07/head-athletic-trainer-jasen-powell-keeps-the-clippers-in-great-shape/,2019/08/07,Fully Clips: Head Athletic Trainer Jasen Powell Keeps the Clippers in Great Shape
