age,ast_pct,blk_pct,bpm,bpm-dum,dbpm,drb_pct,dws,fg3a_per_fga_pct,fta_per_fga_pct,g,lg_id,mp,obpm,orb_pct,ows,per,pos,season,stl_pct,team_id,tov_pct,trb_pct,ts_pct,usg_pct,vorp,ws,ws-dum,ws_per_48
22.0,13.2,1.2,-3.4,0.0,-2.1,7.1,0.2,0.632,0.333,22.0,NBA,252.0,-1.4,3.3,0.0,9.5,PG,2014,1.6,HOU,17.4,5.3,0.506,21.0,-0.1,0.2,0.0,0.031
23.0,18.7,0.3,-2.2,0.0,-2.9,8.3,0.7,0.651,0.159,47.0,NBA,938.0,0.7,2.1,0.8,12.4,PG,2015,1.5,TOT,13.3,5.1,0.534,21.6,-0.1,1.4,0.0,0.072
23.0,12.6,0.0,-2.3,0.0,-2.3,6.6,0.3,0.641,0.16,25.0,NBA,369.0,0.0,3.3,0.3,11.8,PG,2015,1.9,HOU,14.1,4.9,0.549,19.2,0.0,0.6,0.0,0.084
23.0,22.7,0.4,-2.2,0.0,-3.3,9.4,0.3,0.656,0.158,22.0,NBA,569.0,1.1,1.3,0.4,12.8,PG,2015,1.3,PHI,12.9,5.1,0.526,23.2,0.0,0.8,0.0,0.065
24.0,11.3,0.5,-2.7,0.0,-2.9,8.8,0.5,0.672,0.249,77.0,NBA,1966.0,0.2,1.1,0.9,11.1,SG,2016,1.4,PHI,10.2,4.8,0.528,19.9,-0.4,1.4,0.0,0.035
25.0,9.0,0.1,-3.4,0.0,-1.1,8.1,0.6,0.543,0.191,39.0,NBA,592.0,-2.3,1.1,0.0,8.1,SG,2017,1.9,CHI,10.1,4.6,0.483,15.4,-0.2,0.5,0.0,0.042
26.0,26.7,0.2,-2.4,0.0,-2.5,10.0,0.1,0.482,0.372,20.0,NBA,422.0,0.1,1.5,0.5,13.5,PG-SG,2018,1.8,TOT,15.4,5.7,0.539,18.9,0.0,0.6,0.0,0.072
26.0,0.0,0.0,-21.2,0.0,-3.9,27.9,0.0,0.0,0.0,1.0,NBA,4.0,-17.3,0.0,0.0,-7.3,SG,2018,0.0,HOU,0.0,14.1,0.0,11.0,0.0,0.0,0.0,-0.224
26.0,26.9,0.2,-2.2,0.0,-2.5,9.9,0.1,0.485,0.375,19.0,NBA,418.0,0.3,1.5,0.5,13.7,PG,2018,1.8,PHO,15.5,5.6,0.543,19.0,0.0,0.7,0.0,0.075
27.0,18.2,0.3,-5.1,0.0,-2.7,9.2,0.1,0.585,0.146,30.0,NBA,629.0,-2.4,1.0,0.0,8.0,PG,2019,1.1,TOT,16.7,5.1,0.518,14.2,-0.5,0.1,0.0,0.008
27.0,17.0,0.0,-5.2,0.0,-2.5,9.8,0.0,0.558,0.155,19.0,NBA,503.0,-2.7,1.1,-0.1,7.3,PG,2019,1.1,PHO,17.4,5.4,0.515,14.2,-0.4,-0.1,0.0,-0.007
27.0,26.9,0.9,-5.0,0.0,-4.6,5.7,0.0,0.655,0.138,7.0,NBA,95.0,-0.4,0.0,0.1,12.3,PG,2019,1.0,MIN,11.5,2.8,0.536,15.4,-0.1,0.2,0.0,0.079
27.0,11.6,2.7,-4.3,0.0,-0.1,9.3,0.0,0.833,0.0,4.0,NBA,31.0,-4.2,3.5,0.0,5.2,PG,2019,0.0,MIL,25.0,6.6,0.5,10.8,0.0,0.0,0.0,0.03
