age,ast_per_g,blk_per_g,drb_per_g,efg_pct,fg2_pct,fg2_per_g,fg2a_per_g,fg3_pct,fg3_per_g,fg3a_per_g,fg_pct,fg_per_g,fga_per_g,ft_pct,ft_per_g,fta_per_g,g,gs,lg_id,mp_per_g,orb_per_g,pf_per_g,pos,pts_per_g,season,stl_per_g,team_id,tov_per_g,trb_per_g
21.0,3.0,0.4,2.7,0.463,0.453,4.8,10.6,0.333,1.0,3.1,0.426,5.8,13.6,0.671,1.8,2.6,80.0,75.0,NBA,32.9,1.6,2.4,SG,14.4,2002,1.3,GSW,2.0,4.3
22.0,3.0,0.3,3.3,0.463,0.427,4.3,10.1,0.368,1.5,4.1,0.41,5.8,14.2,0.764,2.5,3.3,82.0,82.0,NBA,32.9,1.4,2.5,SG,15.6,2003,1.1,GSW,2.2,4.6
23.0,2.9,0.5,5.1,0.468,0.481,6.2,13.0,0.282,1.0,3.5,0.438,7.2,16.5,0.684,3.3,4.8,78.0,78.0,NBA,37.6,1.6,2.3,SG,18.7,2004,1.1,GSW,2.5,6.7
24.0,3.9,0.4,4.2,0.492,0.486,6.7,13.9,0.338,1.7,5.1,0.446,8.5,19.0,0.693,3.0,4.3,72.0,72.0,NBA,37.8,1.7,2.2,SG,21.7,2005,1.5,GSW,2.3,5.9
25.0,3.1,0.5,4.4,0.509,0.477,6.1,12.8,0.384,2.4,6.4,0.446,8.5,19.2,0.673,3.7,5.5,75.0,75.0,NBA,38.4,1.4,2.7,SG,23.2,2006,1.3,GSW,2.2,5.8
26.0,3.4,0.6,3.7,0.492,0.453,3.8,8.5,0.365,2.2,5.9,0.417,6.0,14.4,0.657,1.8,2.7,51.0,49.0,NBA,32.8,1.4,2.5,SG,16.0,2007,1.1,GSW,1.6,5.1
27.0,3.1,0.7,4.4,0.524,0.466,4.9,10.6,0.406,3.0,7.3,0.441,7.9,17.9,0.752,3.0,4.0,82.0,82.0,NBA,38.4,1.0,2.9,SF,21.8,2008,1.4,CHA,2.0,5.4
28.0,2.0,0.4,3.4,0.544,0.518,4.7,9.0,0.397,1.8,4.5,0.477,6.5,13.5,0.769,2.1,2.8,72.0,71.0,NBA,33.5,1.1,2.0,SG,16.8,2009,1.1,TOT,1.3,4.4
28.0,2.6,0.2,3.2,0.502,0.435,5.0,11.5,0.458,1.9,4.2,0.441,6.9,15.7,0.745,2.9,3.9,14.0,14.0,NBA,35.1,0.9,3.1,SG,18.7,2009,1.0,CHA,1.7,4.1
28.0,1.9,0.4,3.4,0.556,0.545,4.6,8.4,0.383,1.8,4.6,0.488,6.3,13.0,0.778,1.9,2.5,58.0,57.0,NBA,33.1,1.1,1.8,SG,16.4,2009,1.1,PHO,1.2,4.5
29.0,1.8,0.4,4.1,0.553,0.528,4.0,7.6,0.393,2.0,5.1,0.474,6.0,12.6,0.739,1.7,2.3,79.0,76.0,NBA,31.5,1.0,2.1,SG,15.7,2010,0.8,PHO,1.2,5.1
30.0,1.8,0.2,3.3,0.536,0.49,3.5,7.2,0.395,2.4,6.0,0.447,5.9,13.2,0.73,1.5,2.0,80.0,80.0,NBA,33.9,0.8,2.0,SG,15.6,2011,1.2,TOT,1.2,4.1
30.0,1.4,0.1,3.1,0.55,0.502,4.8,9.6,0.419,2.5,5.9,0.47,7.3,15.6,0.764,2.2,2.9,25.0,25.0,NBA,31.8,1.3,1.8,SG,19.3,2011,1.1,PHO,1.2,4.4
30.0,2.0,0.2,3.4,0.528,0.482,2.9,6.1,0.384,2.3,6.0,0.433,5.3,12.1,0.701,1.1,1.6,55.0,55.0,NBA,34.9,0.6,2.1,SG,13.9,2011,1.2,ORL,1.2,4.0
31.0,2.0,0.4,2.9,0.493,0.442,2.6,5.9,0.368,1.9,5.1,0.408,4.5,11.0,0.594,0.8,1.3,54.0,54.0,NBA,29.5,0.7,1.7,SG,11.6,2012,1.0,ORL,1.1,3.6
32.0,1.5,0.5,3.3,0.487,0.462,2.4,5.1,0.341,1.7,5.1,0.402,4.1,10.2,0.606,0.6,1.0,33.0,33.0,NBA,28.4,0.6,1.7,SG,10.5,2013,1.2,PHI,0.8,3.8
34.0,2.0,0.2,2.8,0.435,0.378,1.6,4.3,0.323,1.6,5.1,0.348,3.3,9.4,0.773,0.9,1.2,19.0,15.0,NBA,21.9,0.7,1.5,SG,9.1,2015,0.7,PHI,0.8,3.5
