age,ast,ast_per_g,blk,college_id,fg,fg3,fg3_pct,fg3a,fg_pct,fga,ft,ft_pct,fta,g,mp,mp_per_g,orb,pf,pts,pts_per_g,season,stl,tov,trb,trb_per_g
19.0,13.0,0.5,43.0,NARIZONA,117.0,0.0,0.0,0.0,0.657,178.0,58.0,0.611,95.0,28.0,510.0,18.2,0.0,61.0,292.0,10.4,1997,6.0,49.0,90.0,3.2
20.0,17.0,0.6,41.0,NARIZONA,110.0,0.0,0.0,1.0,0.629,175.0,59.0,0.628,94.0,29.0,0.0,0.0,0.0,0.0,279.0,9.6,1998,15.0,0.0,90.0,3.1
21.0,13.0,0.5,42.0,NARIZONA,125.0,0.0,0.0,0.0,0.668,187.0,59.0,0.67,88.0,27.0,452.0,16.7,0.0,72.0,309.0,11.4,1999,8.0,49.0,104.0,3.9
22.0,36.0,1.2,70.0,NARIZONA,190.0,0.0,0.0,0.0,0.597,318.0,103.0,0.682,151.0,31.0,754.0,24.3,0.0,88.0,483.0,15.6,2000,11.0,57.0,202.0,6.5
