age,ast,blk,drb,efg_pct,fg,fg2,fg2_pct,fg2a,fg3,fg3_pct,fg3a,fg_pct,fga,ft,ft_pct,fta,g,gs,lg_id,mp,orb,pf,pos,pts,season,stl,team_id,tov,trb
22.0,13.0,1.0,15.0,0.491,25.0,18.0,0.6,30.0,7.0,0.25,28.0,0.431,58.0,14.0,0.636,22.0,14.0,5.0,NBA,236.0,1.0,18.0,SG,71.0,2017,6.0,TOT,12.0,16.0
22.0,1.0,0.0,5.0,0.875,5.0,1.0,1.0,1.0,4.0,0.571,7.0,0.625,8.0,2.0,0.5,4.0,3.0,3.0,NBA,47.0,0.0,6.0,SG,16.0,2017,2.0,NOP,3.0,5.0
22.0,12.0,1.0,10.0,0.43,20.0,17.0,0.586,29.0,3.0,0.143,21.0,0.4,50.0,12.0,0.667,18.0,11.0,2.0,NBA,189.0,1.0,12.0,SG,55.0,2017,4.0,MEM,9.0,11.0
23.0,66.0,5.0,40.0,0.522,116.0,67.0,0.456,147.0,49.0,0.402,122.0,0.431,269.0,44.0,0.746,59.0,35.0,9.0,NBA,692.0,16.0,59.0,SG,325.0,2018,18.0,MEM,54.0,56.0
24.0,109.0,13.0,143.0,0.463,196.0,141.0,0.456,309.0,55.0,0.316,174.0,0.406,483.0,67.0,0.728,92.0,75.0,13.0,NBA,1439.0,37.0,131.0,SG,514.0,2019,33.0,TOT,79.0,180.0
24.0,36.0,6.0,28.0,0.466,65.0,45.0,0.459,98.0,20.0,0.317,63.0,0.404,161.0,22.0,0.759,29.0,32.0,0.0,NBA,455.0,16.0,48.0,SG,172.0,2019,10.0,MEM,23.0,44.0
24.0,73.0,7.0,115.0,0.461,131.0,96.0,0.455,211.0,35.0,0.315,111.0,0.407,322.0,45.0,0.714,63.0,43.0,13.0,NBA,984.0,21.0,83.0,SG,342.0,2019,23.0,CHI,56.0,136.0
