age,ast_per_mp,blk_per_mp,drb_per_mp,fg2_pct,fg2_per_mp,fg2a_per_mp,fg3_pct,fg3_per_mp,fg3a_per_mp,fg_pct,fg_per_mp,fga_per_mp,ft_pct,ft_per_mp,fta_per_mp,g,gs,lg_id,mp,orb_per_mp,pf_per_mp,pos,pts_per_mp,season,stl_per_mp,team_id,tov_per_mp,trb_per_mp
23.0,4.6,0.3,2.9,0.434,3.6,8.4,0.333,0.1,0.4,0.429,3.8,8.8,0.701,2.1,3.0,62.0,5.0,NBA,809.0,0.8,6.2,PG,9.8,2005,1.7,ATL,2.6,3.7
24.0,2.7,0.3,2.4,0.441,4.1,9.3,0.4,0.1,0.4,0.439,4.3,9.7,0.727,0.9,1.2,73.0,66.0,NBA,978.0,1.1,5.4,PG,9.6,2006,0.9,ATL,0.8,3.5
25.0,3.0,0.3,2.4,0.465,3.9,8.5,0.313,0.3,1.1,0.448,4.3,9.6,0.686,1.6,2.3,53.0,18.0,NBA,539.0,1.0,4.1,PG,10.5,2007,1.6,ATL,2.1,3.4
26.0,4.0,0.2,2.0,0.421,2.9,6.8,0.327,0.9,2.7,0.394,3.7,9.5,0.726,2.1,2.9,75.0,20.0,NBA,1437.0,1.0,4.2,PG,10.5,2008,1.1,MIL,1.9,3.0
27.0,1.8,0.3,2.4,0.319,1.3,3.9,0.342,1.6,4.8,0.332,2.9,8.7,0.791,1.4,1.8,71.0,0.0,NBA,861.0,0.8,3.2,SG,8.8,2009,1.5,PHI,1.0,3.2
28.0,3.0,0.2,3.1,0.438,2.3,5.3,0.4,1.5,3.9,0.422,3.9,9.2,0.75,1.0,1.3,44.0,0.0,NBA,326.0,0.7,4.3,SG,10.3,2010,2.1,TOT,1.2,3.8
28.0,2.6,0.3,3.2,0.452,2.1,4.7,0.5,1.8,3.7,0.473,4.0,8.4,0.857,0.9,1.1,26.0,0.0,NBA,236.0,0.8,3.8,SG,10.7,2010,1.5,PHI,0.8,4.0
28.0,4.0,0.0,2.8,0.412,2.8,6.8,0.182,0.8,4.4,0.321,3.6,11.2,0.6,1.2,2.0,18.0,0.0,NBA,90.0,0.4,5.6,SG,9.2,2010,3.6,MIL,2.4,3.2
29.0,1.6,0.2,3.3,0.409,2.1,5.1,0.438,1.6,3.7,0.421,3.7,8.8,1.0,0.5,0.5,25.0,0.0,NBA,155.0,0.5,3.9,SG,9.5,2011,1.4,OKC,1.2,3.7
30.0,1.0,0.0,2.3,0.4,0.8,2.0,0.34,1.8,5.4,0.356,2.6,7.4,0.125,0.1,0.8,34.0,0.0,NBA,354.0,0.1,3.7,SG,7.2,2012,1.4,OKC,0.9,2.4
31.0,1.7,0.2,2.1,0.446,1.3,2.9,0.42,1.9,4.5,0.431,3.2,7.4,0.563,0.5,0.8,53.0,5.0,NBA,698.0,0.8,3.8,SG,8.8,2013,1.2,PHI,1.0,2.9
32.0,0.0,0.0,7.2,0.0,0.0,7.2,0.0,0.0,7.2,0.0,0.0,14.4,0.0,0.0,0.0,2.0,0.0,NBA,5.0,0.0,7.2,SG,0.0,2014,0.0,OKC,0.0,7.2
