age,ast,blk,drb,efg_pct,fg,fg2,fg2_pct,fg2a,fg3,fg3_pct,fg3a,fg_pct,fga,ft,ft_pct,fta,g,gs,lg_id,mp,orb,pf,pos,pts,season,stl,team_id,tov,trb
27.0,0.0,0.0,3.0,0.364,3.0,1.0,0.25,4.0,2.0,0.286,7.0,0.273,11.0,3.0,0.75,4.0,6.0,0.0,NBA,45.0,1.0,6.0,SG,11.0,2009,3.0,PHI,0.0,4.0
28.0,2.0,1.0,0.0,0.333,2.0,2.0,0.5,4.0,0.0,0.0,2.0,0.333,6.0,0.0,0.0,0.0,3.0,0.0,NBA,11.0,0.0,1.0,SG,4.0,2010,0.0,MIL,1.0,0.0
29.0,1.0,0.0,1.0,1.5,2.0,0.0,0.0,0.0,2.0,1.0,2.0,1.0,2.0,0.0,0.0,0.0,2.0,0.0,NBA,6.0,0.0,0.0,SG,6.0,2011,0.0,OKC,0.0,1.0
30.0,1.0,0.0,2.0,0.455,4.0,2.0,0.333,6.0,2.0,0.4,5.0,0.364,11.0,1.0,0.5,2.0,5.0,0.0,NBA,21.0,1.0,2.0,SG,11.0,2012,2.0,OKC,1.0,3.0
