age,ast_per_poss,blk_per_poss,def_rtg,drb_per_poss,fg2_pct,fg2_per_poss,fg2a_per_poss,fg3_pct,fg3_per_poss,fg3a_per_poss,fg_pct,fg_per_poss,fga_per_poss,ft_pct,ft_per_poss,fta_per_poss,g,gs,lg_id,mp,off_rtg,orb_per_poss,pf_per_poss,pos,pts_per_poss,season,stl_per_poss,team_id,tov_per_poss,trb_per_poss
22.0,2.9,0.6,104.0,4.5,0.456,3.1,6.8,0.32,2.5,7.7,0.384,5.6,14.5,0.756,1.3,1.8,77.0,12.0,NBA,1231.0,97.0,0.8,3.6,SG,15.0,2014,1.3,CHI,1.9,5.4
23.0,2.3,0.4,107.0,5.3,0.494,3.2,6.4,0.371,2.7,7.2,0.429,5.8,13.6,0.8,1.6,2.0,72.0,22.0,NBA,1412.0,108.0,1.1,3.2,SF,15.9,2015,1.2,CHI,1.8,6.4
24.0,2.4,0.7,109.0,6.9,0.38,2.7,7.1,0.361,2.2,6.0,0.372,4.9,13.1,0.909,1.2,1.3,64.0,33.0,NBA,1301.0,93.0,0.7,3.9,SF,13.0,2016,0.6,CHI,2.0,7.7
25.0,2.1,0.3,113.0,4.9,0.548,2.2,4.0,0.406,3.1,7.7,0.455,5.3,11.8,0.81,1.0,1.3,80.0,80.0,NBA,2336.0,114.0,0.5,2.7,SG,14.8,2017,1.2,MIL,1.2,5.4
26.0,2.4,0.7,114.0,3.2,0.49,1.9,3.8,0.403,2.6,6.5,0.435,4.5,10.3,0.792,0.9,1.2,75.0,59.0,NBA,2053.0,113.0,0.2,2.8,SG,12.5,2018,1.1,MIL,0.9,3.4
27.0,2.4,0.6,109.0,4.6,0.522,2.9,5.6,0.397,2.9,7.3,0.452,5.8,12.9,0.881,1.3,1.5,74.0,12.0,NBA,1304.0,119.0,1.0,3.2,SF,15.8,2019,0.9,MIL,0.8,5.6
28.0,3.2,0.3,117.0,1.8,0.481,1.8,3.8,0.455,4.2,9.2,0.462,6.0,13.0,1.0,0.6,0.6,12.0,12.0,NBA,344.0,126.0,0.7,3.1,SF,16.7,2020,1.0,DET,0.8,2.5
