age,and1s,astd_pts,drawn_offensive,drawn_shooting,fouls_offensive,fouls_shooting,g,lg_id,mp,own_shots_blk,pct_1,pct_2,pct_3,pct_4,pct_5,plus_minus_net,plus_minus_on,pos,season,team_id,tov_bad_pass,tov_lost_ball
22.0,4.0,146.0,6.0,17.0,3.0,49.0,77.0,NBA,1231.0,24.0,0.0,88.0,11.0,0.0,0.0,-9.4,-4.4,SG,2014,CHI,21.0,15.0
23.0,4.0,143.0,5.0,24.0,0.0,51.0,72.0,NBA,1412.0,21.0,0.0,48.0,51.0,1.0,0.0,-0.1,3.3,SF,2015,CHI,32.0,11.0
24.0,2.0,138.0,2.0,15.0,11.0,48.0,64.0,NBA,1301.0,28.0,0.0,30.0,70.0,1.0,0.0,8.7,4.2,SF,2016,CHI,20.0,14.0
25.0,4.0,221.0,7.0,22.0,5.0,77.0,80.0,NBA,2336.0,10.0,1.0,86.0,13.0,0.0,0.0,-4.5,-1.7,SG,2017,MIL,28.0,15.0
26.0,2.0,233.0,2.0,20.0,4.0,57.0,75.0,NBA,2053.0,18.0,0.0,66.0,31.0,3.0,0.0,-2.1,-1.1,SG,2018,MIL,22.0,6.0
27.0,7.0,156.0,3.0,19.0,1.0,50.0,74.0,NBA,1304.0,9.0,0.0,24.0,70.0,5.0,0.0,-2.2,7.1,SF,2019,MIL,15.0,5.0
28.0,0.0,55.0,3.0,2.0,1.0,10.0,12.0,NBA,344.0,1.0,0.0,0.0,81.0,19.0,0.0,-13.3,-9.4,SF,2020,DET,3.0,2.0
