age,ast_per_g,blk_per_g,drb_per_g,efg_pct,fg2_pct,fg2_per_g,fg2a_per_g,fg3_pct,fg3_per_g,fg3a_per_g,fg_pct,fg_per_g,fga_per_g,ft_pct,ft_per_g,fta_per_g,g,gs,lg_id,mp_per_g,orb_per_g,pf_per_g,pos,pts_per_g,season,stl_per_g,team_id,tov_per_g,trb_per_g
26.0,1.3,1.8,2.3,0.586,0.583,7.0,12.0,0.4,1.0,2.5,0.552,8.0,14.5,0.778,1.8,2.3,4.0,4.0,NBA,33.8,2.8,2.8,SF,18.8,1992,1.8,NJN,2.0,5.0
27.0,1.4,1.2,3.8,0.607,0.622,5.6,9.0,0.375,1.2,3.2,0.557,6.8,12.2,0.917,2.2,2.4,5.0,4.0,NBA,32.6,2.6,1.6,SF,17.0,1993,1.6,NJN,0.6,6.4
28.0,1.8,1.3,2.8,0.314,0.391,2.3,5.8,0.15,0.8,5.0,0.279,3.0,10.8,1.0,2.5,2.5,4.0,3.0,NBA,24.5,2.8,3.5,SF,9.3,1994,1.3,NJN,1.5,5.5
30.0,1.1,0.4,2.6,0.472,0.507,1.9,3.8,0.27,0.6,2.1,0.425,2.5,5.9,0.75,0.7,0.9,18.0,13.0,NBA,17.8,1.3,1.4,SG,6.2,1996,0.7,UTA,0.8,3.9
31.0,0.3,0.2,1.4,0.48,0.48,0.6,1.3,0.32,0.4,1.3,0.4,1.0,2.5,0.6,0.5,0.8,20.0,0.0,NBA,8.8,0.3,0.9,SF,2.9,1997,0.4,UTA,0.3,1.6
32.0,0.6,0.2,2.3,0.457,0.457,1.2,2.7,0.304,0.4,1.4,0.406,1.6,4.1,0.7,0.8,1.2,17.0,0.0,NBA,14.1,0.5,2.2,SF,4.5,1998,0.3,UTA,0.5,2.8
33.0,0.0,0.0,1.0,1.25,1.0,1.0,1.0,1.0,1.0,1.0,1.0,2.0,2.0,0.0,0.0,2.0,1.0,0.0,NBA,10.0,0.0,1.0,SF,5.0,1999,0.0,PHO,0.0,1.0
