age,ast,ast_per_g,blk,college_id,fg,fg3,fg3_pct,fg3a,fg_pct,fga,ft,ft_pct,fta,g,mp,mp_per_g,orb,pf,pts,pts_per_g,season,stl,tov,trb,trb_per_g
18.0,0.0,0.0,12.0,CINCY,105.0,0.0,0.0,0.0,0.482,218.0,50.0,0.602,83.0,26.0,753.0,29.0,0.0,74.0,260.0,10.0,1982,12.0,48.0,192.0,7.4
19.0,0.0,0.0,4.0,CINCY,62.0,0.0,0.0,0.0,0.512,121.0,23.0,0.657,35.0,11.0,316.0,28.7,0.0,27.0,147.0,13.4,1983,4.0,16.0,86.0,7.8
21.0,0.0,0.0,16.0,BRADLEY,137.0,0.0,0.0,0.0,0.535,256.0,79.0,0.627,126.0,30.0,879.0,29.3,0.0,111.0,353.0,11.8,1985,18.0,87.0,193.0,6.4
22.0,0.0,0.0,36.0,BRADLEY,199.0,0.0,0.0,0.0,0.61,326.0,92.0,0.561,164.0,35.0,1065.0,30.4,0.0,107.0,490.0,14.0,1986,0.0,0.0,250.0,7.1
