G,MP,FG,FGAFG%,3P,3PA,3P%,2P,2PA,2P%,FT,FTA,FT%,ORB,DRB,TRB,AST,STL,BLK,TOV,PF,PTS
82,19780,3021,6430,.470,407,1128,.361,2614,5302,.493,1542,2029,.760,966,2560,3526,1925,633,396,1243,1865,7991
,241.2,36.8,78.4,.470,5.0,13.8,.361,31.9,64.7,.493,18.8,24.7,.760,11.8,31.2,43.0,23.5,7.7,4.8,15.2,22.7,97.5
,19,13,25,1,14,14,12,16,25,1,17,18,11,20,10,14,9,15,16,14,11,16
,-0.9%,5.4%,-0.9%,+.028,0.9%,1.9%,-.004,6.2%,-1.5%,+.035,-6.2%,-8.3%,+.017,-8.8%,-0.6%,-3.0%,9.4%,-6.1%,-16.7%,-1.7%,1.0%,2.8%
82,19780,2825,6557,.431,394,1195,.330,2431,5362,.453,1422,1985,.716,978,2220,3198,1705,652,350,1186,1872,7466
,241.2,34.5,80.0,.431,4.8,14.6,.330,29.6,65.4,.453,17.3,24.2,.716,11.9,27.1,39.0,20.8,8.0,4.3,14.5,22.8,91.0
,19,4,6,6,14,22,3,5,6,7,6,8,1,11,1,2,7,18,5,21,12,3
,-0.9%,4.8%,1.5%,+.013,9.2%,5.5%,+.011,4.1%,0.7%,+.015,-5.3%,-4.2%,-.009,-3.2%,-2.5%,-2.7%,8.1%,-3.3%,-12.5%,-7.9%,-0.0%,2.9%
