age,ast_per_g,blk_per_g,drb_per_g,efg_pct,fg2_pct,fg2_per_g,fg2a_per_g,fg3_pct,fg3_per_g,fg3a_per_g,fg_pct,fg_per_g,fga_per_g,ft_pct,ft_per_g,fta_per_g,g,gs,lg_id,mp_per_g,orb_per_g,pf_per_g,pos,pts_per_g,season,stl_per_g,team_id,tov_per_g,trb_per_g
22.0,2.8,0.0,1.8,0.465,0.48,2.1,4.5,0.263,0.3,1.0,0.442,2.4,5.4,0.8,1.6,2.0,79.0,4.0,NBA,20.2,0.2,1.7,SG,6.7,2006,0.5,POR,1.3,2.0
23.0,5.3,0.1,2.4,0.499,0.49,3.3,6.6,0.35,0.8,2.3,0.454,4.1,8.9,0.871,3.1,3.5,79.0,79.0,NBA,33.6,0.2,2.6,PG,12.0,2007,1.1,POR,2.4,2.6
24.0,3.8,0.0,2.5,0.483,0.47,2.5,5.2,0.342,0.8,2.3,0.431,3.3,7.6,0.867,2.6,3.0,82.0,16.0,NBA,27.2,0.4,1.6,SG,9.9,2008,0.7,POR,2.2,2.9
25.0,4.1,0.2,2.8,0.498,0.487,3.8,7.7,0.353,1.0,2.7,0.453,4.7,10.4,0.852,2.7,3.2,82.0,53.0,NBA,33.1,0.5,2.2,SG,13.1,2009,1.1,IND,2.2,3.4
26.0,5.0,0.1,2.3,0.542,0.511,2.9,5.8,0.412,1.0,2.4,0.481,3.9,8.2,0.842,2.5,2.9,82.0,43.0,NBA,27.4,0.4,1.8,PG,11.4,2010,0.7,TOR,2.0,2.7
27.0,2.9,0.1,1.8,0.434,0.429,2.7,6.4,0.306,0.4,1.3,0.408,3.1,7.7,0.85,2.2,2.6,83.0,15.0,NBA,20.7,0.2,1.2,SG-PG,8.9,2011,0.7,TOT,1.3,2.1
27.0,4.5,0.0,2.8,0.41,0.449,3.4,7.5,0.167,0.3,1.8,0.393,3.7,9.4,0.87,3.1,3.5,13.0,13.0,NBA,26.7,0.5,1.9,PG,10.8,2011,1.1,TOR,2.6,3.2
27.0,2.6,0.1,1.7,0.44,0.425,2.6,6.2,0.345,0.4,1.2,0.412,3.0,7.4,0.845,2.0,2.4,70.0,2.0,NBA,19.6,0.2,1.1,SG,8.5,2011,0.6,NOH,1.1,1.9
28.0,6.3,0.2,3.4,0.49,0.482,5.0,10.5,0.348,0.9,2.5,0.456,5.9,13.0,0.872,2.9,3.3,45.0,39.0,NBA,34.0,0.5,2.1,PG,15.6,2012,0.7,NOH,2.4,3.9
29.0,5.6,0.1,2.8,0.499,0.466,3.9,8.3,0.404,1.0,2.6,0.452,4.9,10.8,0.843,2.1,2.5,79.0,4.0,NBA,29.7,0.3,1.7,SG,12.9,2013,0.8,GSW,2.0,3.1
30.0,4.1,0.3,2.5,0.455,0.435,2.8,6.4,0.341,0.8,2.3,0.41,3.6,8.7,0.839,1.6,1.9,80.0,31.0,NBA,28.2,0.3,1.7,PG,9.5,2014,0.7,CLE,1.7,2.8
31.0,4.7,0.2,2.8,0.463,0.477,4.0,8.4,0.267,0.5,1.8,0.439,4.5,10.2,0.881,2.5,2.8,80.0,27.0,NBA,28.0,0.2,1.8,PG,12.0,2015,0.9,BRK,2.4,3.1
32.0,7.4,0.2,4.0,0.434,0.426,3.4,8.0,0.304,1.0,3.2,0.391,4.4,11.2,0.893,3.1,3.5,32.0,32.0,NBA,32.1,0.3,2.4,PG,12.8,2016,1.1,BRK,2.9,4.3
33.0,2.5,0.0,0.0,0.667,1.0,1.0,1.0,0.0,0.0,0.5,0.667,1.0,1.5,1.0,1.0,1.0,2.0,0.0,NBA,16.5,0.0,2.0,PG,3.0,2017,1.0,NOP,1.5,0.0
34.0,5.6,0.1,2.7,0.455,0.459,2.6,5.8,0.291,0.4,1.4,0.427,3.0,7.1,0.84,1.0,1.2,62.0,56.0,NBA,25.0,0.4,1.6,PG,7.5,2018,0.6,NYK,1.9,3.1
