age,ast_per_g,blk_per_g,drb_per_g,efg_pct,fg2_pct,fg2_per_g,fg2a_per_g,fg3_pct,fg3_per_g,fg3a_per_g,fg_pct,fg_per_g,fga_per_g,ft_pct,ft_per_g,fta_per_g,g,gs,lg_id,mp_per_g,orb_per_g,pf_per_g,pos,pts_per_g,season,stl_per_g,team_id,tov_per_g,trb_per_g
27.0,2.2,0.2,2.3,0.353,0.414,2.0,4.8,0.0,0.0,0.8,0.353,2.0,5.7,0.688,1.8,2.7,6.0,0.0,NBA,18.5,0.2,0.7,SG,5.8,2011,0.2,NOH,1.3,2.5
29.0,4.7,0.3,3.8,0.529,0.546,5.9,10.8,0.292,0.6,2.0,0.506,6.5,12.8,0.896,3.6,4.0,12.0,4.0,NBA,35.5,0.6,2.2,SG,17.2,2013,0.9,GSW,3.2,4.4
31.0,4.5,0.2,3.8,0.565,0.59,3.8,6.5,0.333,0.8,2.5,0.519,4.7,9.0,1.0,2.2,2.2,6.0,0.0,NBA,25.5,0.3,2.3,PG,12.3,2015,1.2,BRK,3.3,4.2
