age,ast,ast_per_g,blk,college_id,fg,fg3,fg3_pct,fg3a,fg_pct,fga,ft,ft_pct,fta,g,mp,mp_per_g,orb,pf,pts,pts_per_g,season,stl,tov,trb,trb_per_g
19.0,56.0,2.1,8.0,BOSTONCOLL,144.0,59.0,0.399,148.0,0.386,373.0,161.0,0.894,180.0,27.0,865.0,32.0,0.0,62.0,508.0,18.8,2000,47.0,102.0,83.0,3.1
20.0,133.0,4.2,13.0,BOSTONCOLL,186.0,70.0,0.391,179.0,0.459,405.0,210.0,0.857,245.0,32.0,1095.0,34.2,0.0,73.0,652.0,20.4,2001,83.0,73.0,138.0,4.3
21.0,123.0,3.8,8.0,BOSTONCOLL,207.0,65.0,0.301,216.0,0.407,508.0,212.0,0.883,240.0,32.0,1199.0,37.5,0.0,83.0,691.0,21.6,2002,72.0,97.0,130.0,4.1
22.0,115.0,3.7,6.0,BOSTONCOLL,224.0,106.0,0.402,264.0,0.441,508.0,227.0,0.847,268.0,31.0,1198.0,38.6,0.0,66.0,781.0,25.2,2003,70.0,79.0,142.0,4.6
