age,ast,blk,drb,fg,fg2,fg2a,fg3,fg3a,fga,ft,fta,game_score,lg_id,mp,orb,pf,pts,season,stl,team_id,tov,trb
21.0,4.0,3.0,13.0,10.0,10.0,22.0,0.0,2.0,22.0,9.0,12.0,26.3,NBA,0.0,9.0,6.0,25.0,1990,5.0,CHH,6.0,20.0
22.0,4.0,5.0,11.0,11.0,11.0,19.0,0.0,1.0,19.0,11.0,11.0,24.1,NBA,0.0,7.0,6.0,26.0,1991,4.0,CHH,6.0,15.0
23.0,6.0,2.0,10.0,10.0,10.0,15.0,0.0,1.0,15.0,8.0,10.0,20.9,NBA,0.0,5.0,5.0,23.0,1992,3.0,CHH,4.0,12.0
24.0,5.0,3.0,10.0,11.0,11.0,19.0,0.0,1.0,19.0,8.0,12.0,22.4,NBA,0.0,5.0,6.0,29.0,1993,3.0,TOT,4.0,15.0
24.0,3.0,2.0,8.0,7.0,7.0,12.0,0.0,1.0,12.0,6.0,8.0,14.1,NBA,0.0,3.0,6.0,15.0,1993,2.0,CHH,4.0,10.0
24.0,5.0,3.0,10.0,11.0,11.0,19.0,0.0,1.0,19.0,8.0,12.0,22.4,NBA,0.0,5.0,6.0,29.0,1993,3.0,SAS,4.0,15.0
25.0,5.0,3.0,8.0,12.0,12.0,17.0,0.0,1.0,17.0,7.0,8.0,20.7,NBA,0.0,5.0,5.0,24.0,1994,4.0,SAS,4.0,9.0
26.0,3.0,3.0,9.0,7.0,7.0,11.0,1.0,1.0,11.0,11.0,16.0,16.1,NBA,0.0,6.0,6.0,16.0,1995,5.0,SAS,5.0,13.0
27.0,3.0,2.0,10.0,9.0,9.0,11.0,0.0,1.0,11.0,8.0,8.0,22.1,NBA,0.0,5.0,5.0,22.0,1996,3.0,TOT,5.0,11.0
27.0,2.0,2.0,8.0,7.0,7.0,11.0,0.0,1.0,11.0,8.0,8.0,11.6,NBA,0.0,3.0,5.0,15.0,1996,3.0,SAS,5.0,9.0
27.0,3.0,2.0,10.0,9.0,9.0,10.0,0.0,0.0,10.0,5.0,6.0,22.1,NBA,0.0,5.0,5.0,22.0,1996,2.0,NYK,4.0,11.0
29.0,4.0,2.0,7.0,7.0,7.0,13.0,1.0,1.0,13.0,7.0,9.0,12.8,NBA,0.0,4.0,6.0,14.0,1998,4.0,CHH,3.0,7.0
30.0,5.0,2.0,11.0,11.0,11.0,18.0,0.0,1.0,18.0,10.0,11.0,20.9,NBA,0.0,5.0,6.0,29.0,1999,6.0,TOT,4.0,12.0
30.0,5.0,2.0,11.0,11.0,11.0,18.0,0.0,0.0,18.0,10.0,11.0,20.9,NBA,0.0,5.0,6.0,29.0,1999,6.0,CHH,4.0,12.0
30.0,3.0,0.0,7.0,6.0,6.0,10.0,0.0,1.0,10.0,6.0,6.0,14.0,NBA,0.0,4.0,6.0,15.0,1999,3.0,LAL,2.0,9.0
31.0,3.0,1.0,7.0,6.0,6.0,8.0,1.0,3.0,9.0,6.0,6.0,11.8,NBA,0.0,3.0,6.0,15.0,2000,3.0,MIL,3.0,9.0
32.0,1.0,1.0,1.0,1.0,1.0,2.0,0.0,0.0,2.0,5.0,6.0,4.5,NBA,0.0,2.0,2.0,5.0,2001,1.0,CLE,1.0,3.0
