age,ast_pct,blk_pct,bpm,bpm-dum,dbpm,drb_pct,dws,fg3a_per_fga_pct,fta_per_fga_pct,g,lg_id,mp,obpm,orb_pct,ows,per,pos,season,stl_pct,team_id,tov_pct,trb_pct,ts_pct,usg_pct,vorp,ws,ws-dum,ws_per_48
21.0,5.3,1.2,-2.5,0.0,1.4,21.5,2.8,0.006,0.355,82.0,NBA,2757.0,-3.8,7.7,-1.7,10.2,C,1990,1.6,CHH,15.5,14.2,0.482,17.2,-0.3,1.1,0.0,0.02
22.0,5.3,1.2,-2.1,0.0,0.5,16.7,2.1,0.003,0.335,80.0,NBA,2467.0,-2.6,7.0,-0.3,10.8,C,1991,1.7,CHH,14.7,11.7,0.508,18.0,-0.1,1.8,0.0,0.034
23.0,8.7,1.1,-1.4,0.0,0.0,19.2,1.2,0.007,0.437,51.0,NBA,1257.0,-1.3,8.1,1.0,14.1,C,1992,1.8,CHH,13.9,13.6,0.54,19.4,0.2,2.1,0.0,0.082
24.0,6.1,1.0,-2.5,0.0,-0.3,19.3,2.3,0.008,0.471,83.0,NBA,1887.0,-2.2,7.6,1.1,12.5,PF,1993,1.2,TOT,14.8,13.7,0.543,19.5,-0.2,3.4,0.0,0.087
24.0,10.9,1.0,-2.5,0.0,-0.2,17.4,0.3,0.01,0.592,17.0,NBA,295.0,-2.3,7.7,0.1,12.3,PF,1993,1.8,CHH,16.3,12.7,0.514,20.6,0.0,0.4,0.0,0.068
24.0,5.2,1.0,-2.5,0.0,-0.3,19.7,2.0,0.008,0.447,66.0,NBA,1592.0,-2.2,7.5,1.0,12.6,PF,1993,1.1,SAS,14.5,13.9,0.549,19.2,-0.2,3.0,0.0,0.091
25.0,8.9,1.2,-1.5,0.0,-0.9,10.3,1.5,0.006,0.289,70.0,NBA,1344.0,-0.6,8.0,1.5,14.7,PF,1994,1.7,SAS,12.3,9.2,0.525,22.7,0.2,3.0,0.0,0.107
26.0,5.1,1.4,-1.0,0.0,1.3,18.8,2.5,0.005,0.588,81.0,NBA,1566.0,-2.2,9.1,0.9,12.7,PF,1995,1.9,SAS,18.5,14.2,0.565,17.2,0.4,3.5,0.0,0.106
27.0,5.0,1.0,-2.4,0.0,0.8,15.4,2.0,0.003,0.438,65.0,NBA,1313.0,-3.2,6.6,0.5,10.6,PF,1996,1.7,TOT,17.0,11.2,0.552,16.2,-0.1,2.5,0.0,0.091
27.0,3.2,1.1,-3.8,0.0,0.9,14.7,1.0,0.006,0.53,32.0,NBA,643.0,-4.7,6.3,-0.4,8.6,PF,1996,2.0,SAS,19.5,10.7,0.514,17.6,-0.3,0.6,0.0,0.048
27.0,6.7,0.8,-1.1,0.0,0.7,16.2,1.0,0.0,0.344,33.0,NBA,670.0,-1.8,6.9,0.9,12.6,PF,1996,1.4,NYK,14.0,11.7,0.594,14.9,0.2,1.8,0.0,0.133
29.0,7.4,1.3,-2.8,0.0,-0.4,14.9,1.1,0.025,0.384,79.0,NBA,1109.0,-2.4,7.9,0.6,11.3,PF,1998,1.7,CHH,14.9,11.4,0.517,18.2,-0.2,1.8,0.0,0.076
30.0,7.9,0.7,-1.0,0.0,0.1,18.4,1.1,0.004,0.495,41.0,NBA,1029.0,-1.1,5.3,1.4,13.7,PF,1999,1.9,TOT,13.1,12.1,0.547,17.5,0.3,2.5,0.0,0.115
30.0,8.5,1.3,0.8,0.0,0.6,18.7,0.7,0.0,0.497,16.0,NBA,556.0,0.2,4.7,1.2,17.6,PF,1999,2.1,CHH,12.0,12.0,0.59,20.0,0.4,1.9,0.0,0.161
30.0,7.2,0.0,-3.0,0.0,-0.4,18.1,0.4,0.009,0.491,25.0,NBA,473.0,-2.7,6.0,0.2,9.0,PF,1999,1.7,LAL,14.9,12.2,0.48,14.7,-0.1,0.6,0.0,0.06
31.0,4.2,0.6,-3.5,0.0,-0.9,17.0,0.3,0.055,0.441,34.0,NBA,602.0,-2.6,5.7,0.4,9.0,PF,2000,1.6,MIL,11.7,11.4,0.495,12.7,-0.2,0.7,0.0,0.059
32.0,3.8,1.9,1.3,0.0,0.3,8.9,0.0,0.0,1.6,6.0,NBA,39.0,0.9,14.9,0.1,15.7,PF,2001,2.7,CLE,10.5,11.9,0.587,11.0,0.0,0.1,0.0,0.174
