age,ast,blk,drb,fg,fg2,fg2a,fg3,fg3a,fga,ft,fta,game_score,lg_id,mp,orb,pf,pts,season,stl,team_id,tov,trb
24.0,5.0,2.0,7.0,6.0,6.0,14.0,0.0,1.0,14.0,9.0,10.0,18.2,NBA,0.0,5.0,5.0,17.0,1993,3.0,TOT,3.0,12.0
24.0,5.0,2.0,7.0,6.0,6.0,14.0,0.0,1.0,14.0,9.0,10.0,18.2,NBA,0.0,5.0,5.0,17.0,1993,3.0,SAS,3.0,12.0
25.0,2.0,1.0,5.0,3.0,3.0,9.0,0.0,0.0,9.0,2.0,2.0,4.6,NBA,0.0,2.0,5.0,6.0,1994,1.0,SAS,1.0,6.0
26.0,2.0,1.0,4.0,5.0,5.0,8.0,0.0,0.0,8.0,10.0,11.0,14.3,NBA,0.0,3.0,4.0,15.0,1995,1.0,SAS,3.0,6.0
27.0,1.0,0.0,1.0,1.0,1.0,1.0,0.0,0.0,1.0,0.0,0.0,0.9,NBA,0.0,0.0,2.0,2.0,1996,0.0,TOT,1.0,1.0
27.0,1.0,0.0,1.0,1.0,1.0,1.0,0.0,0.0,1.0,0.0,0.0,0.9,NBA,0.0,0.0,2.0,2.0,1996,0.0,NYK,1.0,1.0
29.0,1.0,1.0,3.0,3.0,3.0,6.0,0.0,1.0,7.0,3.0,4.0,6.2,NBA,0.0,2.0,4.0,9.0,1998,2.0,CHH,3.0,4.0
30.0,1.0,1.0,9.0,2.0,2.0,6.0,0.0,0.0,6.0,4.0,4.0,8.7,NBA,0.0,3.0,6.0,8.0,1999,2.0,TOT,1.0,9.0
30.0,1.0,1.0,9.0,2.0,2.0,6.0,0.0,0.0,6.0,4.0,4.0,8.7,NBA,0.0,3.0,6.0,8.0,1999,2.0,LAL,1.0,9.0
