age,ast_per_poss,blk_per_poss,def_rtg,drb_per_poss,fg2_pct,fg2_per_poss,fg2a_per_poss,fg3_pct,fg3_per_poss,fg3a_per_poss,fg_pct,fg_per_poss,fga_per_poss,ft_pct,ft_per_poss,fta_per_poss,g,gs,lg_id,mp,off_rtg,orb_per_poss,pf_per_poss,pos,pts_per_poss,season,stl_per_poss,team_id,tov_per_poss,trb_per_poss
24.0,3.5,1.9,104.0,8.0,0.5,6.8,13.6,0.0,0.0,0.5,0.483,6.8,14.1,0.771,6.3,8.2,10.0,2.0,NBA,220.0,112.0,3.8,7.3,PF,19.9,1993,1.9,SAS,3.0,11.7
25.0,2.9,2.0,109.0,8.8,0.286,5.9,20.6,0.0,0.0,0.0,0.286,5.9,20.6,0.6,2.9,4.9,4.0,0.0,NBA,56.0,83.0,2.9,9.8,PF,14.7,1994,1.0,SAS,1.0,11.8
26.0,2.3,1.0,102.0,7.2,0.492,7.4,15.1,0.0,0.0,0.0,0.492,7.4,15.1,0.846,8.5,10.0,15.0,1.0,NBA,209.0,113.0,3.6,9.2,PF,23.3,1995,1.8,SAS,3.8,10.8
27.0,8.0,0.0,105.0,8.0,1.0,8.0,8.0,0.0,0.0,0.0,1.0,8.0,8.0,0.0,0.0,0.0,1.0,0.0,NBA,7.0,100.0,0.0,16.1,PF,16.1,1996,0.0,NYK,8.0,8.0
29.0,1.0,1.0,106.0,6.5,0.407,5.5,13.6,0.0,0.0,0.5,0.393,5.5,14.1,0.8,4.0,5.0,9.0,0.0,NBA,114.0,78.0,3.5,11.6,PF,15.1,1998,1.5,CHH,5.5,10.1
30.0,0.9,1.5,105.0,9.8,0.357,3.0,8.3,0.0,0.0,0.0,0.357,3.0,8.3,0.75,1.8,2.4,8.0,8.0,NBA,178.0,99.0,2.7,9.8,PF,7.7,1999,1.2,LAL,0.6,12.5
