age,ast,ast_per_g,blk,college_id,fg,fg3,fg3_pct,fg3a,fg_pct,fga,ft,ft_pct,fta,g,mp,mp_per_g,orb,pf,pts,pts_per_g,season,stl,tov,trb,trb_per_g
19.0,56.0,1.7,13.0,RUTGERS,136.0,69.0,0.426,162.0,0.425,320.0,71.0,0.826,86.0,33.0,838.0,25.4,0.0,0.0,412.0,12.5,2004,27.0,0.0,63.0,1.9
20.0,98.0,3.4,22.0,RUTGERS,158.0,66.0,0.338,195.0,0.392,403.0,57.0,0.75,76.0,29.0,996.0,34.3,0.0,0.0,439.0,15.1,2005,36.0,0.0,70.0,2.4
21.0,103.0,3.1,27.0,RUTGERS,287.0,116.0,0.401,289.0,0.462,621.0,149.0,0.847,176.0,33.0,1211.0,36.7,0.0,0.0,839.0,25.4,2006,58.0,0.0,141.0,4.3
