article_url,date,headline
https://fansided.com/2019/10/30/draftkings-euroleague-basketball-picks-october-30/,2019/10/30,Fansided Fantasy: DraftKings EuroLeague Basketball Picks October 30
https://allucanheat.com/2019/05/26/miami-heat-recap-grade-bench-crew/,2019/05/26,"All U Can Heat: Miami Heat: Duncan Robinson, Yante Maten and Kendrick Nunn season grade and recap"
