lg_id,salary,season,team_name
NBA,473604.0,2013,Detroit Pistons
NBA,788872.0,2014,Milwaukee Bucks
NBA,915243.0,2015,Milwaukee Bucks
NBA,15000000.0,2016,Milwaukee Bucks
NBA,15200000.0,2017,Milwaukee Bucks
NBA,14100000.0,2018,Milwaukee Bucks
NBA,13000000.0,2019,Milwaukee Bucks
