lg_id,salary,season,team_name
NBA,332817.0,2002,Golden State Warriors
NBA,512435.0,2003,Golden State Warriors
NBA,8536000.0,2004,Washington Wizards
NBA,9389600.0,2005,Washington Wizards
NBA,10243200.0,2006,Washington Wizards
NBA,11096800.0,2007,Washington Wizards
NBA,11950400.0,2008,Washington Wizards
NBA,14653466.0,2009,Washington Wizards
NBA,16192080.0,2010,Washington Wizards
NBA,17730694.0,2011,Orlando Magic
NBA,19269307.0,2012,Orlando Magic
NBA,20807922.0,2013,Orlando Magic
