article_url,date,headline
https://ontapsportsnet.com/2019/09/30/why-coby-white-has-the-tools-to-develop-into-the-next-gilbert-arenas/,2019/09/30,On Tap Sports Net: Why Coby White has the Tools to Develop into the Next Gilbert Arenas
https://empirewritesback.com/2019/09/17/imagining-world-bronny-james-new-york-knicks/,2019/09/17,Empire Writes Back: Imagining a world where Bronny James is a part of the New York Knicks
https://thunderousintentions.com/2019/08/29/okc-thunder-perry-jones-return-europe/,2019/08/29,Thunderous Intentions: Former OKC Thunder forward Perry Jones NBA return bid fails as he returns to Europe
https://hoopshabit.com/2019/08/29/nba-5-players-not-enough/,2019/08/29,Hoops Habit: NBA: 5 players that we didn't get enough of
https://sircharlesincharge.com/2019/08/22/nba-underrated-players-20-years-conley/,2019/08/22,Sir Charles In Charge: Under the radar: 6 most underrated NBA players from the last 20 years
