age,avg_dist,fg2_dunk,fg2_pct,fg2_pct_ast,fg2a_pct_fga,fg3_heave,fg3_pct,fg3_pct_ast,fg3_pct_corner,fg3a_heave,fg3a_pct_fga,fg_pct,fg_pct_00_03,fg_pct_03_10,fg_pct_10_16,fg_pct_16_xx,g,lg_id,mp,pct_fg2_dunk,pct_fg3a_corner,pct_fga_00_03,pct_fga_03_10,pct_fga_10_16,pct_fga_16_xx,pos,season,team_id
20.0,13.5,11.0,0.498,0.289,0.706,0.0,0.345,0.795,0.3,1.0,0.294,0.453,0.626,0.154,0.286,0.462,47.0,NBA,1155.0,0.036,0.088,0.341,0.068,0.055,0.242,PG,2002,GSW
21.0,13.2,33.0,0.461,0.238,0.735,0.0,0.348,0.633,0.244,0.0,0.265,0.431,0.625,0.188,0.411,0.385,82.0,NBA,2866.0,0.03,0.131,0.303,0.095,0.095,0.242,PG,2003,GSW
22.0,15.5,18.0,0.401,0.262,0.636,0.0,0.375,0.76,0.327,0.0,0.364,0.392,0.572,0.168,0.377,0.356,55.0,NBA,2066.0,0.02,0.147,0.22,0.111,0.084,0.221,PG,2004,WAS
23.0,15.2,27.0,0.469,0.257,0.631,1.0,0.365,0.668,0.26,3.0,0.369,0.431,0.645,0.251,0.38,0.429,80.0,NBA,3274.0,0.018,0.137,0.233,0.11,0.109,0.179,PG,2005,WAS
24.0,15.3,24.0,0.485,0.282,0.676,0.0,0.369,0.603,0.345,2.0,0.324,0.447,0.637,0.318,0.407,0.431,80.0,NBA,3384.0,0.016,0.102,0.231,0.079,0.1,0.266,PG,2006,WAS
25.0,16.2,9.0,0.459,0.251,0.623,0.0,0.351,0.58,0.294,2.0,0.377,0.418,0.572,0.347,0.353,0.402,74.0,NBA,2942.0,0.006,0.087,0.242,0.048,0.066,0.267,PG,2007,WAS
26.0,17.3,0.0,0.475,0.321,0.602,0.0,0.282,0.5,0.25,0.0,0.398,0.398,0.575,0.429,0.462,0.414,13.0,NBA,425.0,0.0,0.051,0.204,0.036,0.066,0.296,PG,2008,WAS
27.0,14.3,0.0,0.25,0.25,0.696,0.0,0.286,1.0,0.0,0.0,0.304,0.261,0.143,0.5,0.0,0.286,2.0,NBA,63.0,0.0,0.143,0.304,0.087,0.0,0.304,PG,2009,WAS
28.0,15.6,1.0,0.437,0.163,0.706,0.0,0.348,0.508,0.25,1.0,0.294,0.411,0.528,0.353,0.421,0.411,32.0,NBA,1169.0,0.003,0.066,0.203,0.11,0.093,0.3,PG,2010,WAS
29.0,18.3,0.0,0.423,0.227,0.554,0.0,0.297,0.742,0.259,4.0,0.446,0.366,0.533,0.35,0.458,0.388,70.0,NBA,1796.0,0.0,0.083,0.123,0.109,0.08,0.243,PG,2011,TOT
29.0,18.7,0.0,0.449,0.301,0.561,0.0,0.324,0.809,0.222,1.0,0.439,0.394,0.656,0.258,0.48,0.433,21.0,NBA,726.0,0.0,0.062,0.097,0.094,0.076,0.294,PG,2011,WAS
29.0,18.0,0.0,0.401,0.157,0.55,0.0,0.275,0.68,0.278,3.0,0.45,0.344,0.466,0.408,0.441,0.333,49.0,NBA,1070.0,0.0,0.099,0.144,0.121,0.084,0.2,PG,2011,ORL
30.0,20.9,0.0,0.52,0.308,0.391,0.0,0.333,0.923,1.0,0.0,0.609,0.406,0.6,0.5,0.429,0.545,17.0,NBA,211.0,0.0,0.026,0.078,0.031,0.109,0.172,PG,2012,MEM
