age,ast_per_mp,blk_per_mp,drb_per_mp,fg2_pct,fg2_per_mp,fg2a_per_mp,fg3_pct,fg3_per_mp,fg3a_per_mp,fg_pct,fg_per_mp,fga_per_mp,ft_pct,ft_per_mp,fta_per_mp,g,gs,lg_id,mp,orb_per_mp,pf_per_mp,pos,pts_per_mp,season,stl_per_mp,team_id,tov_per_mp,trb_per_mp
24.0,1.6,1.8,9.8,0.635,5.9,9.2,0.0,0.0,0.0,0.635,5.9,9.2,0.48,3.5,7.3,9.0,9.0,NBA,246.0,3.2,4.4,C,15.2,2017,1.3,UTA,1.3,13.0
25.0,1.0,2.3,7.0,0.655,5.2,7.9,0.0,0.0,0.0,0.655,5.2,7.9,0.603,3.3,5.5,11.0,11.0,NBA,383.0,4.0,3.2,C,13.6,2018,0.9,UTA,2.0,11.1
26.0,1.7,3.1,6.6,0.594,4.5,7.6,0.0,0.0,0.0,0.594,4.5,7.6,0.783,4.3,5.4,5.0,5.0,NBA,152.0,5.4,3.8,C,13.3,2019,0.7,UTA,2.1,12.1
