age,ast_per_mp,blk_per_mp,drb_per_mp,fg2_pct,fg2_per_mp,fg2a_per_mp,fg3_pct,fg3_per_mp,fg3a_per_mp,fg_pct,fg_per_mp,fga_per_mp,ft_pct,ft_per_mp,fta_per_mp,g,gs,lg_id,mp,orb_per_mp,pf_per_mp,pos,pts_per_mp,season,stl_per_mp,team_id,tov_per_mp,trb_per_mp
25.0,6.7,0.0,2.7,0.667,3.9,5.9,0.25,1.2,4.7,0.481,5.1,10.6,0.429,1.2,2.7,7.0,0.0,NBA,92.0,0.8,3.5,PG,12.5,1996,4.3,NYK,2.3,3.5
26.0,7.7,0.0,4.4,0.389,1.4,3.6,0.111,0.2,1.8,0.296,1.6,5.3,0.75,0.6,0.8,9.0,0.0,NBA,182.0,0.6,3.6,PG,4.0,1997,2.6,NYK,3.0,4.9
27.0,8.3,0.3,3.4,0.412,1.9,4.7,0.429,1.2,2.9,0.418,3.2,7.6,0.688,1.5,2.2,10.0,10.0,NBA,261.0,0.4,3.3,PG,9.1,1998,2.8,NYK,2.3,3.9
28.0,5.5,0.2,2.5,0.432,1.2,2.7,0.321,1.3,4.1,0.366,2.5,6.8,0.75,0.4,0.6,20.0,20.0,NBA,494.0,0.9,3.3,PG,6.7,1999,2.6,NYK,1.7,3.4
29.0,5.3,0.4,4.7,0.6,3.0,4.9,0.396,1.7,4.3,0.504,4.7,9.3,0.714,1.2,1.7,16.0,16.0,NBA,439.0,0.9,3.3,PG,12.3,2000,1.8,NYK,1.6,5.6
30.0,2.9,0.0,2.1,0.333,2.1,6.3,0.25,1.3,5.0,0.296,3.3,11.3,1.0,2.5,2.5,5.0,0.0,NBA,86.0,0.8,3.3,PG,10.5,2001,0.8,NYK,3.3,2.9
33.0,2.8,0.0,0.0,0.333,2.8,8.3,1.0,8.3,8.3,0.667,11.1,16.6,0.0,0.0,0.0,5.0,0.0,NBA,13.0,0.0,5.5,PG,30.5,2004,5.5,SAS,5.5,0.0
