age,avg_dist,fg2_dunk,fg2_pct,fg2_pct_ast,fg2a_pct_fga,fg3_heave,fg3_pct,fg3_pct_ast,fg3_pct_corner,fg3a_heave,fg3a_pct_fga,fg_pct,fg_pct_00_03,fg_pct_03_10,fg_pct_10_16,fg_pct_16_xx,g,lg_id,mp,pct_fg2_dunk,pct_fg3a_corner,pct_fga_00_03,pct_fga_03_10,pct_fga_10_16,pct_fga_16_xx,pos,season,team_id
29.0,2.2,52.0,0.615,0.702,0.995,0.0,0.5,0.0,0.0,0.0,0.005,0.614,0.683,0.394,0.429,0.333,80.0,NBA,2534.0,0.147,0.0,0.755,0.193,0.038,0.008,PF,2001,ORL
30.0,1.8,38.0,0.556,0.8,0.993,0.0,0.5,1.0,0.0,0.0,0.007,0.555,0.617,0.303,0.1,0.167,83.0,NBA,1928.0,0.14,0.0,0.829,0.11,0.033,0.02,PF,2002,TOT
30.0,2.2,3.0,0.619,0.615,1.0,0.0,0.0,0.0,0.0,0.0,0.0,0.619,0.75,0.25,0.0,0.0,10.0,NBA,160.0,0.143,0.0,0.762,0.19,0.048,0.0,PF,2002,ORL
30.0,1.8,35.0,0.551,0.816,0.993,0.0,0.5,1.0,0.0,0.0,0.007,0.55,0.608,0.31,0.111,0.167,73.0,NBA,1768.0,0.14,0.0,0.835,0.104,0.032,0.022,PF,2002,PHO
31.0,3.3,19.0,0.554,0.699,0.993,0.0,0.0,0.0,0.0,1.0,0.007,0.55,0.623,0.442,0.263,0.333,80.0,NBA,1800.0,0.068,0.5,0.716,0.155,0.068,0.054,C,2003,PHO
32.0,3.5,22.0,0.516,0.711,0.987,0.0,0.0,0.0,0.0,2.0,0.013,0.51,0.626,0.351,0.2,0.167,82.0,NBA,1606.0,0.077,0.0,0.651,0.247,0.032,0.058,PF,2004,MEM
33.0,8.4,0.0,0.353,0.5,1.0,0.0,0.0,0.0,0.0,0.0,0.0,0.353,0.471,0.0,0.333,0.25,39.0,NBA,214.0,0.0,0.0,0.5,0.059,0.088,0.353,PF,2005,PHO
34.0,2.7,2.0,0.603,0.6,1.0,0.0,0.0,0.0,0.0,0.0,0.0,0.603,0.7,0.357,0.5,0.5,32.0,NBA,355.0,0.034,0.0,0.69,0.241,0.034,0.034,PF,2006,ORL
35.0,0.9,3.0,0.667,0.706,1.0,0.0,0.0,0.0,0.0,0.0,0.0,0.667,0.689,0.5,0.0,0.0,41.0,NBA,460.0,0.059,0.0,0.882,0.118,0.0,0.0,PF,2007,ORL
36.0,3.7,0.0,0.667,1.0,1.0,0.0,0.0,0.0,0.0,0.0,0.0,0.667,1.0,0.0,0.0,0.0,2.0,NBA,7.0,0.0,0.0,0.667,0.0,0.333,0.0,PF,2008,ORL
