lg_id,salary,season,team_name
NBA,250000.0,1995,Los Angeles Clippers
NBA,500000.0,1996,Los Angeles Clippers
NBA,600000.0,1997,Los Angeles Clippers
NBA,1000000.0,1998,Orlando Magic
NBA,1150000.0,1999,Orlando Magic
NBA,2000000.0,2000,Orlando Magic
NBA,4500000.0,2001,Orlando Magic
NBA,6000000.0,2002,Phoenix Suns
NBA,6585000.0,2003,Phoenix Suns
NBA,6585000.0,2004,Memphis Grizzlies
NBA,6573148.0,2005,Memphis Grizzlies
NBA,1059756.0,2005,Phoenix Suns
NBA,1138500.0,2006,Orlando Magic
NBA,1178348.0,2007,Orlando Magic
NBA,160071.0,2008,Orlando Magic
