age,ast,blk,drb,efg_pct,fg,fg2,fg2_pct,fg2a,fg3,fg3_pct,fg3a,fg_pct,fga,ft,ft_pct,fta,g,gs,lg_id,mp,orb,pf,pos,pts,season,stl,team_id,tov,trb
25.0,4.0,2.0,8.0,0.545,6.0,6.0,0.6,10.0,0.0,0.0,1.0,0.545,11.0,3.0,0.3,10.0,3.0,0.0,NBA,66.0,6.0,5.0,PF,15.0,1997,1.0,LAC,3.0,14.0
27.0,2.0,8.0,12.0,0.6,6.0,6.0,0.6,10.0,0.0,0.0,0.0,0.6,10.0,6.0,0.462,13.0,4.0,0.0,NBA,83.0,3.0,9.0,PF,18.0,1999,1.0,ORL,6.0,15.0
29.0,9.0,6.0,31.0,0.615,16.0,16.0,0.615,26.0,0.0,0.0,0.0,0.615,26.0,2.0,0.182,11.0,4.0,4.0,NBA,134.0,11.0,15.0,PF,34.0,2001,5.0,ORL,9.0,42.0
31.0,5.0,1.0,7.0,0.1,1.0,1.0,0.1,10.0,0.0,0.0,0.0,0.1,10.0,2.0,0.5,4.0,6.0,0.0,NBA,70.0,6.0,19.0,C,4.0,2003,1.0,PHO,6.0,13.0
32.0,6.0,2.0,3.0,0.0,0.0,0.0,0.0,7.0,0.0,0.0,0.0,0.0,7.0,2.0,0.5,4.0,4.0,0.0,NBA,61.0,1.0,9.0,PF,2.0,2004,2.0,MEM,3.0,4.0
33.0,1.0,0.0,0.0,0.0,0.0,0.0,0.0,1.0,0.0,0.0,0.0,0.0,1.0,0.0,0.0,0.0,1.0,0.0,NBA,2.0,0.0,0.0,PF,0.0,2005,1.0,PHO,0.0,0.0
