age,ast_per_mp,blk_per_mp,drb_per_mp,fg2_pct,fg2_per_mp,fg2a_per_mp,fg3_pct,fg3_per_mp,fg3a_per_mp,fg_pct,fg_per_mp,fga_per_mp,ft_pct,ft_per_mp,fta_per_mp,g,gs,lg_id,mp,orb_per_mp,pf_per_mp,pos,pts_per_mp,season,stl_per_mp,team_id,tov_per_mp,trb_per_mp
22.0,1.5,1.5,5.4,0.594,4.1,6.8,0.0,0.0,0.1,0.587,4.1,6.9,0.592,2.5,4.3,37.0,14.0,NBA,871.0,3.3,3.9,SF,10.6,1994,1.5,LAC,1.3,8.8
23.0,1.8,3.3,4.2,0.531,3.7,7.0,0.0,0.0,0.1,0.523,3.7,7.1,0.441,1.8,4.0,81.0,31.0,NBA,1655.0,2.6,4.9,PF,9.2,1995,2.0,LAC,1.7,6.8
24.0,1.8,3.3,4.1,0.585,3.9,6.7,0.0,0.0,0.1,0.575,3.9,6.8,0.444,2.6,5.9,80.0,3.0,NBA,985.0,3.2,4.6,PF,10.5,1996,1.6,LAC,1.6,7.3
25.0,2.6,2.3,4.6,0.621,4.2,6.7,0.0,0.0,0.1,0.609,4.2,6.8,0.504,1.9,3.8,82.0,25.0,NBA,2195.0,2.9,3.7,PF,10.3,1997,1.5,LAC,1.8,7.4
26.0,2.6,2.2,4.7,0.557,3.7,6.6,0.25,0.0,0.0,0.554,3.7,6.6,0.575,2.2,3.8,82.0,76.0,NBA,2953.0,3.1,3.2,PF,9.5,1998,1.3,ORL,2.1,7.8
27.0,2.4,1.8,4.8,0.556,3.6,6.4,0.0,0.0,0.1,0.545,3.6,6.5,0.432,1.5,3.4,31.0,22.0,NBA,851.0,2.3,3.3,PF,8.6,1999,1.7,ORL,2.5,7.1
28.0,3.8,2.3,5.0,0.607,3.2,5.2,0.0,0.0,0.0,0.602,3.2,5.2,0.506,1.3,2.5,82.0,55.0,NBA,2326.0,3.1,3.1,PF,7.6,2000,1.7,ORL,2.1,8.1
29.0,3.2,1.9,5.8,0.615,3.2,5.2,0.5,0.0,0.0,0.614,3.2,5.2,0.573,1.8,3.2,80.0,69.0,NBA,2534.0,3.0,3.4,PF,8.3,2001,1.5,ORL,2.0,8.8
30.0,2.4,1.7,4.1,0.556,3.1,5.5,0.5,0.0,0.0,0.555,3.1,5.6,0.422,0.8,1.9,83.0,36.0,NBA,1928.0,2.7,3.8,PF,7.0,2002,1.3,TOT,1.8,6.8
30.0,1.1,2.0,3.2,0.619,2.9,4.7,0.0,0.0,0.0,0.619,2.9,4.7,0.444,1.8,4.1,10.0,0.0,NBA,160.0,3.4,5.2,PF,7.7,2002,2.0,ORL,2.5,6.5
30.0,2.5,1.7,4.1,0.551,3.1,5.6,0.5,0.0,0.0,0.55,3.1,5.7,0.417,0.7,1.7,73.0,36.0,NBA,1768.0,2.7,3.7,PF,7.0,2002,1.2,PHO,1.7,6.8
31.0,2.2,1.4,4.7,0.554,3.1,5.5,0.0,0.0,0.0,0.55,3.1,5.6,0.621,1.4,2.3,80.0,20.0,NBA,1800.0,2.7,3.9,C,7.6,2003,1.0,PHO,1.5,7.4
32.0,2.0,1.6,4.9,0.516,3.6,6.9,0.0,0.0,0.1,0.51,3.6,7.0,0.526,1.4,2.6,82.0,1.0,NBA,1606.0,2.8,3.8,PF,8.5,2004,1.6,MEM,1.5,7.7
33.0,2.2,2.0,6.2,0.353,2.0,5.7,0.0,0.0,0.0,0.353,2.0,5.7,0.556,0.8,1.5,39.0,0.0,NBA,214.0,2.7,4.9,PF,4.9,2005,1.0,PHO,1.3,8.9
34.0,1.4,1.2,4.7,0.603,3.5,5.9,0.0,0.0,0.0,0.603,3.5,5.9,0.625,0.5,0.8,32.0,0.0,NBA,355.0,3.1,5.1,PF,7.6,2006,1.0,ORL,1.7,7.8
35.0,1.3,0.5,4.6,0.667,2.7,4.0,0.0,0.0,0.0,0.667,2.7,4.0,0.591,1.0,1.7,41.0,0.0,NBA,460.0,3.7,4.5,PF,6.3,2007,1.3,ORL,1.6,8.3
36.0,0.0,0.0,0.0,0.667,10.3,15.4,0.0,0.0,0.0,0.667,10.3,15.4,0.0,0.0,0.0,2.0,0.0,NBA,7.0,0.0,5.1,PF,20.6,2008,0.0,ORL,5.1,0.0
