age,ast_per_g,blk_per_g,drb_per_g,efg_pct,fg2_pct,fg2_per_g,fg2a_per_g,fg3_pct,fg3_per_g,fg3a_per_g,fg_pct,fg_per_g,fga_per_g,ft_pct,ft_per_g,fta_per_g,g,gs,lg_id,mp_per_g,orb_per_g,pf_per_g,pos,pts_per_g,season,stl_per_g,team_id,tov_per_g,trb_per_g
25.0,1.3,0.7,2.7,0.545,0.6,2.0,3.3,0.0,0.0,0.3,0.545,2.0,3.7,0.3,1.0,3.3,3.0,0.0,NBA,22.0,2.0,1.7,PF,5.0,1997,0.3,LAC,1.0,4.7
27.0,0.5,2.0,3.0,0.6,0.6,1.5,2.5,0.0,0.0,0.0,0.6,1.5,2.5,0.462,1.5,3.3,4.0,0.0,NBA,20.8,0.8,2.3,PF,4.5,1999,0.3,ORL,1.5,3.8
29.0,2.3,1.5,7.8,0.615,0.615,4.0,6.5,0.0,0.0,0.0,0.615,4.0,6.5,0.182,0.5,2.8,4.0,4.0,NBA,33.5,2.8,3.8,PF,8.5,2001,1.3,ORL,2.3,10.5
31.0,0.8,0.2,1.2,0.1,0.1,0.2,1.7,0.0,0.0,0.0,0.1,0.2,1.7,0.5,0.3,0.7,6.0,0.0,NBA,11.7,1.0,3.2,C,0.7,2003,0.2,PHO,1.0,2.2
32.0,1.5,0.5,0.8,0.0,0.0,0.0,1.8,0.0,0.0,0.0,0.0,0.0,1.8,0.5,0.5,1.0,4.0,0.0,NBA,15.3,0.3,2.3,PF,0.5,2004,0.5,MEM,0.8,1.0
33.0,1.0,0.0,0.0,0.0,0.0,0.0,1.0,0.0,0.0,0.0,0.0,0.0,1.0,0.0,0.0,0.0,1.0,0.0,NBA,2.0,0.0,0.0,PF,0.0,2005,1.0,PHO,0.0,0.0
