age,ast_per_poss,blk_per_poss,def_rtg,drb_per_poss,fg2_pct,fg2_per_poss,fg2a_per_poss,fg3_pct,fg3_per_poss,fg3a_per_poss,fg_pct,fg_per_poss,fga_per_poss,ft_pct,ft_per_poss,fta_per_poss,g,gs,lg_id,mp,off_rtg,orb_per_poss,pf_per_poss,pos,pts_per_poss,season,stl_per_poss,team_id,tov_per_poss,trb_per_poss
23.0,9.9,1.4,107.0,4.2,0.357,3.5,9.9,0.167,0.7,4.2,0.3,4.2,14.2,0.583,5.0,8.5,12.0,0.0,NBA,74.0,76.0,1.4,5.0,PG,14.2,2010,2.1,TOT,7.8,5.7
23.0,10.5,0.0,110.0,5.3,0.0,0.0,5.3,0.0,0.0,5.3,0.0,0.0,10.5,0.25,5.3,21.0,5.0,0.0,NBA,10.0,45.0,0.0,0.0,PG,5.3,2010,0.0,CLE,5.3,5.3
23.0,12.6,4.2,91.0,6.3,0.4,4.2,10.5,0.0,0.0,4.2,0.286,4.2,14.7,0.75,6.3,8.4,3.0,0.0,NBA,25.0,96.0,2.1,4.2,PG,14.7,2010,6.3,SAS,4.2,8.4
23.0,8.1,0.0,116.0,2.7,0.375,4.0,10.7,0.333,1.3,4.0,0.364,5.4,14.8,0.75,4.0,5.4,4.0,0.0,NBA,39.0,72.0,1.3,6.7,PG,16.1,2010,0.0,WAS,10.7,4.0
