age,and1s,astd_pts,drawn_offensive,drawn_shooting,fouls_offensive,fouls_shooting,g,lg_id,mp,own_shots_blk,pct_1,pct_2,pct_3,pct_4,pct_5,plus_minus_net,plus_minus_on,pos,season,team_id,tov_bad_pass,tov_lost_ball
23.0,0.0,32.0,1.0,4.0,2.0,4.0,12.0,NBA,74.0,3.0,100.0,0.0,0.0,0.0,0.0,-5.2,-2.7,PG,2010,TOT,7.0,2.0
23.0,0.0,4.0,0.0,1.0,0.0,0.0,5.0,NBA,10.0,0.0,100.0,0.0,0.0,0.0,0.0,43.6,50.9,PG,2010,CLE,1.0,0.0
23.0,0.0,15.0,1.0,2.0,0.0,1.0,3.0,NBA,25.0,1.0,100.0,0.0,0.0,0.0,0.0,2.4,8.1,PG,2010,SAS,1.0,1.0
23.0,0.0,13.0,0.0,1.0,2.0,3.0,4.0,NBA,39.0,2.0,100.0,0.0,0.0,0.0,0.0,-18.8,-24.1,PG,2010,WAS,5.0,1.0
