age,ast,blk,drb,efg_pct,fg,fg2,fg2_pct,fg2a,fg3,fg3_pct,fg3a,fg_pct,fga,ft,ft_pct,fta,g,gs,lg_id,mp,orb,pf,pos,pts,season,stl,team_id,tov,trb
24.0,2.0,0.0,3.0,0.333,1.0,1.0,1.0,1.0,0.0,0.0,2.0,0.333,3.0,0.0,0.0,0.0,7.0,0.0,NBA,12.0,0.0,3.0,SF,2.0,2006,0.0,LAC,0.0,3.0
27.0,0.0,1.0,4.0,0.6,5.0,3.0,0.6,5.0,2.0,0.4,5.0,0.5,10.0,0.0,0.0,2.0,9.0,0.0,NBA,42.0,2.0,8.0,PF,12.0,2009,0.0,DAL,2.0,6.0
