age,ast,ast_per_g,blk,college_id,fg,fg3,fg3_pct,fg3a,fg_pct,fga,ft,ft_pct,fta,g,mp,mp_per_g,orb,pf,pts,pts_per_g,season,stl,tov,trb,trb_per_g
20.0,36.0,1.2,62.0,MURRAYST,145.0,3.0,0.375,8.0,0.597,243.0,85.0,0.787,108.0,31.0,931.0,30.0,0.0,0.0,378.0,12.2,2002,34.0,0.0,312.0,10.1
21.0,54.0,1.9,52.0,MURRAYST,153.0,15.0,0.441,34.0,0.541,283.0,112.0,0.8,140.0,29.0,953.0,32.9,0.0,0.0,433.0,14.9,2003,34.0,0.0,320.0,11.0
