age,ast_per_poss,blk_per_poss,def_rtg,drb_per_poss,fg2_pct,fg2_per_poss,fg2a_per_poss,fg3_pct,fg3_per_poss,fg3a_per_poss,fg_pct,fg_per_poss,fga_per_poss,ft_pct,ft_per_poss,fta_per_poss,g,gs,lg_id,mp,off_rtg,orb_per_poss,pf_per_poss,pos,pts_per_poss,season,stl_per_poss,team_id,tov_per_poss,trb_per_poss
24.0,2.0,1.5,102.0,9.3,0.511,4.7,9.1,0.5,0.7,1.4,0.51,5.4,10.5,0.78,2.7,3.5,59.0,10.0,NBA,753.0,117.0,4.4,6.6,SF,14.1,2006,1.3,LAC,1.9,13.7
25.0,2.4,2.4,101.0,9.8,0.397,3.8,9.6,0.214,0.4,2.0,0.366,4.2,11.5,0.759,3.1,4.1,53.0,0.0,NBA,376.0,99.0,5.1,6.3,PF,12.0,2007,2.1,LAC,2.4,14.9
27.0,1.0,1.7,106.0,9.6,0.575,6.2,10.7,0.325,0.8,2.4,0.529,6.9,13.1,0.859,4.0,4.6,62.0,6.0,NBA,884.0,122.0,5.3,6.5,PF,18.6,2009,1.5,DAL,2.1,14.8
28.0,1.7,2.3,106.0,9.0,0.415,4.8,11.6,0.189,0.4,2.0,0.382,5.2,13.6,0.855,2.8,3.3,57.0,3.0,NBA,977.0,98.0,5.8,6.0,PF-SF,13.6,2010,1.5,TOT,2.6,14.8
28.0,2.2,1.7,102.0,9.3,0.452,4.7,10.3,0.227,1.2,5.4,0.375,5.9,15.7,1.0,1.5,1.5,25.0,0.0,NBA,211.0,92.0,4.2,7.6,SF,14.5,2010,2.7,DAL,3.0,13.5
28.0,1.5,2.5,107.0,8.9,0.406,4.9,12.0,0.133,0.1,1.0,0.384,5.0,13.0,0.839,3.2,3.8,32.0,3.0,NBA,766.0,100.0,6.2,5.6,PF,13.3,2010,1.2,WAS,2.5,15.1
30.0,3.0,1.6,103.0,11.1,0.591,7.7,13.1,0.222,0.4,1.8,0.547,8.1,14.8,0.933,2.8,3.0,12.0,0.0,NBA,262.0,122.0,4.9,5.3,PF,19.4,2012,1.8,WAS,2.0,16.0
