age,avg_dist,fg2_dunk,fg2_pct,fg2_pct_ast,fg2a_pct_fga,fg3_heave,fg3_pct,fg3_pct_ast,fg3_pct_corner,fg3a_heave,fg3a_pct_fga,fg_pct,fg_pct_00_03,fg_pct_03_10,fg_pct_10_16,fg_pct_16_xx,g,lg_id,mp,pct_fg2_dunk,pct_fg3a_corner,pct_fga_00_03,pct_fga_03_10,pct_fga_10_16,pct_fga_16_xx,pos,season,team_id
24.0,9.8,19.0,0.511,0.582,0.868,0.0,0.5,0.8,0.545,0.0,0.132,0.51,0.71,0.217,0.2,0.444,59.0,NBA,753.0,0.146,0.55,0.411,0.152,0.066,0.238,SF,2006,LAC
25.0,12.4,7.0,0.397,0.519,0.829,0.0,0.214,1.0,0.0,0.0,0.171,0.366,0.577,0.167,0.455,0.24,53.0,NBA,376.0,0.085,0.214,0.317,0.073,0.134,0.305,PF,2007,LAC
27.0,9.4,32.0,0.575,0.596,0.819,0.0,0.325,1.0,0.292,0.0,0.181,0.529,0.731,0.348,0.643,0.275,62.0,NBA,884.0,0.149,0.6,0.471,0.104,0.063,0.181,PF,2009,DAL
28.0,12.0,14.0,0.415,0.611,0.854,0.0,0.189,0.857,0.286,1.0,0.146,0.382,0.524,0.313,0.5,0.312,57.0,NBA,977.0,0.063,0.189,0.331,0.126,0.094,0.303,PF-SF,2010,TOT
28.0,16.0,4.0,0.452,0.632,0.656,0.0,0.227,0.8,0.2,0.0,0.344,0.375,0.563,0.0,0.4,0.4,25.0,NBA,211.0,0.063,0.227,0.25,0.016,0.078,0.313,SF,2010,DAL
28.0,10.7,10.0,0.406,0.606,0.921,0.0,0.133,1.0,0.5,1.0,0.079,0.384,0.515,0.323,0.526,0.281,32.0,NBA,766.0,0.063,0.133,0.358,0.163,0.1,0.3,PF,2010,WAS
30.0,11.6,14.0,0.591,0.769,0.88,0.0,0.222,1.0,0.0,1.0,0.12,0.547,0.833,0.0,0.375,0.478,12.0,NBA,262.0,0.187,0.0,0.4,0.067,0.107,0.307,PF,2012,WAS
