lg_id,salary,season,team_name
NBA,473604.0,2012,Boston Celtics
NBA,762195.0,2013,Orlando Magic
NBA,884293.0,2014,Orlando Magic
NBA,948163.0,2015,Chicago Bulls
NBA,1015421.0,2016,Chicago Bulls
NBA,8081363.0,2017,New Orleans Pelicans
NBA,8445024.0,2018,New Orleans Pelicans
NBA,8808685.0,2019,New Orleans Pelicans
