age,ast_per_mp,blk_per_mp,drb_per_mp,fg2_pct,fg2_per_mp,fg2a_per_mp,fg3_pct,fg3_per_mp,fg3a_per_mp,fg_pct,fg_per_mp,fga_per_mp,ft_pct,ft_per_mp,fta_per_mp,g,gs,lg_id,mp,orb_per_mp,pf_per_mp,pos,pts_per_mp,season,stl_per_mp,team_id,tov_per_mp,trb_per_mp
22.0,5.1,1.7,5.1,0.333,3.4,10.3,0.0,0.0,3.4,0.25,3.4,13.7,0.5,1.7,3.4,9.0,0.0,NBA,21.0,0.0,3.4,PG,8.6,2012,0.0,BOS,1.7,5.1
25.0,0.0,0.0,12.0,0.2,4.0,20.0,1.0,4.0,4.0,0.333,8.0,24.0,0.0,0.0,0.0,3.0,0.0,NBA,9.0,0.0,4.0,SG,20.0,2015,8.0,CHI,0.0,12.0
28.0,1.9,0.1,2.2,0.508,4.1,8.0,0.36,1.1,3.2,0.466,5.2,11.2,0.688,1.4,2.0,9.0,9.0,NBA,284.0,0.8,2.5,SG,12.9,2018,0.8,NOP,1.4,2.9
