age,ast,ast_per_g,blk,college_id,fg,fg3,fg3_pct,fg3a,fg_pct,fga,ft,ft_pct,fta,g,mp,mp_per_g,orb,pf,pts,pts_per_g,season,stl,tov,trb,trb_per_g
19.0,134.0,4.8,10.0,DUKE,207.0,19.0,0.352,54.0,0.5,414.0,73.0,0.682,107.0,28.0,1002.0,35.8,0.0,64.0,506.0,18.1,1983,26.0,103.0,115.0,4.1
20.0,138.0,4.1,4.0,DUKE,263.0,0.0,0.0,0.0,0.481,547.0,133.0,0.831,160.0,34.0,1306.0,38.4,0.0,65.0,659.0,19.4,1984,38.0,114.0,138.0,4.1
21.0,154.0,5.0,5.0,DUKE,225.0,0.0,0.0,0.0,0.495,455.0,132.0,0.795,166.0,31.0,1117.0,36.0,0.0,64.0,582.0,18.8,1985,51.0,90.0,141.0,4.5
22.0,129.0,3.2,5.0,DUKE,331.0,0.0,0.0,0.0,0.549,603.0,147.0,0.812,181.0,40.0,1324.0,33.1,0.0,77.0,809.0,20.2,1986,53.0,107.0,142.0,3.6
