age,ast_pct,blk_pct,bpm,bpm-dum,dbpm,drb_pct,dws,fg3a_per_fga_pct,fta_per_fga_pct,g,lg_id,mp,obpm,orb_pct,ows,per,pos,season,stl_pct,team_id,tov_pct,trb_pct,ts_pct,usg_pct,vorp,ws,ws-dum,ws_per_48
22.0,4.3,5.8,0.2,0.0,0.2,21.0,3.4,0.003,0.567,78.0,NBA,2644.0,-0.1,11.2,4.8,20.8,C,1993,0.5,CHH,14.4,16.4,0.586,25.5,1.4,8.2,0.0,0.148
23.0,6.6,5.7,0.5,0.0,0.6,23.0,2.5,0.002,0.672,60.0,NBA,2018.0,-0.1,10.0,3.8,21.7,C,1994,0.7,CHH,15.4,16.7,0.588,27.3,1.3,6.3,0.0,0.151
24.0,6.6,5.5,1.3,0.0,2.1,21.6,5.1,0.031,0.585,77.0,NBA,2941.0,-0.8,8.4,4.3,20.1,C,1995,0.9,CHH,14.8,15.3,0.593,25.6,2.5,9.4,0.0,0.153
25.0,11.4,5.5,4.4,0.0,3.7,21.7,5.5,0.028,0.662,70.0,NBA,2671.0,0.8,9.7,4.4,22.7,C,1996,1.4,MIA,15.9,15.9,0.584,28.1,4.3,9.9,0.0,0.178
26.0,8.8,6.3,2.7,0.0,3.9,23.4,5.6,0.01,0.638,66.0,NBA,2320.0,-1.2,9.8,2.8,21.6,C,1997,1.3,MIA,16.6,16.8,0.578,27.5,2.7,8.4,0.0,0.174
27.0,5.2,4.9,1.2,0.0,1.1,21.4,3.6,0.0,0.635,58.0,NBA,1939.0,0.1,12.1,3.9,22.4,C,1998,1.1,MIA,16.0,16.9,0.595,26.8,1.6,7.5,0.0,0.185
28.0,8.7,7.7,4.8,0.0,3.8,22.0,3.9,0.003,0.667,46.0,NBA,1753.0,1.0,12.3,4.0,24.6,C,1999,1.1,MIA,14.5,17.5,0.563,27.1,3.0,7.9,0.0,0.216
29.0,8.7,7.8,4.6,0.0,2.9,21.6,5.6,0.003,0.492,79.0,NBA,2748.0,1.7,9.5,7.3,25.8,C,2000,0.8,MIA,13.1,15.9,0.596,28.1,4.6,12.9,0.0,0.226
30.0,8.9,7.8,0.5,0.0,2.4,25.6,0.7,0.007,0.39,13.0,NBA,306.0,-1.9,13.6,0.2,24.6,C,2001,0.7,MIA,14.5,19.6,0.536,30.6,0.2,0.9,0.0,0.148
31.0,6.8,5.8,1.1,0.0,2.5,21.3,4.8,0.003,0.498,75.0,NBA,2455.0,-1.3,8.7,2.6,18.9,C,2002,0.6,MIA,14.7,15.0,0.558,24.1,1.9,7.4,0.0,0.145
33.0,6.6,2.2,-4.4,0.0,-1.6,10.4,0.3,0.0,0.479,12.0,NBA,215.0,-2.7,4.4,0.4,13.3,C,2004,0.5,NJN,10.4,7.4,0.558,20.9,-0.1,0.6,0.0,0.14
34.0,4.6,8.3,-3.4,0.0,2.5,24.5,1.5,0.0,0.665,37.0,NBA,702.0,-5.9,9.0,-0.3,15.4,C-PF,2005,0.6,TOT,17.2,16.8,0.515,22.1,-0.2,1.2,0.0,0.08
34.0,5.6,7.4,-4.8,0.0,2.3,25.6,0.9,0.0,0.573,18.0,NBA,457.0,-7.1,8.0,-0.6,13.5,PF,2005,0.6,NJN,19.3,16.7,0.498,23.9,-0.3,0.3,0.0,0.03
34.0,2.5,9.9,-0.8,0.0,2.7,22.4,0.5,0.0,0.887,19.0,NBA,245.0,-3.5,10.9,0.3,18.9,C,2005,0.6,MIA,12.2,16.9,0.551,18.7,0.1,0.9,0.0,0.173
35.0,1.4,10.2,0.7,0.0,3.0,20.3,2.6,0.003,0.711,65.0,NBA,1302.0,-2.3,11.8,2.1,19.4,C,2006,0.5,MIA,16.0,16.2,0.615,17.5,0.9,4.8,0.0,0.176
36.0,2.0,9.0,-2.0,0.0,2.0,16.4,2.5,0.0,0.725,77.0,NBA,1572.0,-3.9,9.7,1.0,16.7,C,2007,0.4,MIA,18.7,13.1,0.59,20.8,0.0,3.5,0.0,0.107
37.0,3.1,8.6,-2.5,0.0,1.7,18.5,0.5,0.0,0.8,25.0,NBA,389.0,-4.2,10.3,0.3,16.2,C,2008,0.5,MIA,16.3,14.3,0.58,18.7,0.0,0.8,0.0,0.098
