age,ast,blk,drb,efg_pct,fg,fg2,fg2_pct,fg2a,fg3,fg3_pct,fg3a,fg_pct,fga,ft,ft_pct,fta,g,gs,lg_id,mp,orb,pf,pos,pts,season,stl,team_id,tov,trb
22.0,76.0,271.0,542.0,0.511,572.0,572.0,0.513,1116.0,0.0,0.0,3.0,0.511,1119.0,495.0,0.781,634.0,78.0,78.0,NBA,2644.0,263.0,286.0,C,1639.0,1993,27.0,CHH,236.0,805.0
23.0,86.0,188.0,433.0,0.505,427.0,427.0,0.507,843.0,0.0,0.0,2.0,0.505,845.0,433.0,0.762,568.0,60.0,59.0,NBA,2018.0,177.0,207.0,C,1287.0,1994,27.0,CHH,199.0,610.0
24.0,111.0,225.0,561.0,0.524,571.0,560.0,0.525,1067.0,11.0,0.324,34.0,0.519,1101.0,490.0,0.761,644.0,77.0,77.0,NBA,2941.0,200.0,275.0,C,1643.0,1995,49.0,CHH,241.0,761.0
25.0,159.0,189.0,509.0,0.527,563.0,554.0,0.53,1046.0,9.0,0.3,30.0,0.523,1076.0,488.0,0.685,712.0,70.0,70.0,NBA,2671.0,218.0,245.0,C,1623.0,1996,70.0,MIA,262.0,727.0
26.0,104.0,189.0,467.0,0.535,473.0,472.0,0.539,876.0,1.0,0.111,9.0,0.534,885.0,363.0,0.642,565.0,66.0,65.0,NBA,2320.0,189.0,272.0,C,1310.0,1997,56.0,MIA,226.0,656.0
27.0,52.0,130.0,365.0,0.551,403.0,403.0,0.551,732.0,0.0,0.0,0.0,0.551,732.0,309.0,0.665,465.0,58.0,56.0,NBA,1939.0,193.0,208.0,C,1115.0,1998,40.0,MIA,179.0,558.0
28.0,74.0,180.0,341.0,0.511,324.0,324.0,0.513,632.0,0.0,0.0,2.0,0.511,634.0,276.0,0.652,423.0,46.0,46.0,NBA,1753.0,166.0,161.0,C,924.0,1999,34.0,MIA,139.0,507.0
29.0,123.0,294.0,538.0,0.551,652.0,652.0,0.553,1180.0,0.0,0.0,4.0,0.551,1184.0,414.0,0.711,582.0,79.0,78.0,NBA,2748.0,215.0,308.0,C,1718.0,2000,40.0,MIA,217.0,753.0
30.0,12.0,31.0,66.0,0.518,73.0,73.0,0.521,140.0,0.0,0.0,1.0,0.518,141.0,31.0,0.564,55.0,13.0,3.0,NBA,306.0,35.0,24.0,C,177.0,2001,4.0,MIA,28.0,101.0
31.0,87.0,186.0,450.0,0.517,447.0,446.0,0.517,863.0,1.0,0.333,3.0,0.516,866.0,283.0,0.657,431.0,75.0,74.0,NBA,2455.0,182.0,258.0,C,1178.0,2002,27.0,MIA,182.0,632.0
33.0,8.0,6.0,19.0,0.465,33.0,33.0,0.465,71.0,0.0,0.0,0.0,0.465,71.0,30.0,0.882,34.0,12.0,0.0,NBA,215.0,8.0,32.0,C,96.0,2004,2.0,NJN,10.0,27.0
34.0,18.0,74.0,145.0,0.472,100.0,100.0,0.472,212.0,0.0,0.0,0.0,0.472,212.0,82.0,0.582,141.0,37.0,17.0,NBA,702.0,53.0,82.0,C-PF,282.0,2005,8.0,TOT,57.0,198.0
34.0,14.0,41.0,96.0,0.453,68.0,68.0,0.453,150.0,0.0,0.0,0.0,0.453,150.0,51.0,0.593,86.0,18.0,14.0,NBA,457.0,31.0,50.0,PF,187.0,2005,5.0,NJN,45.0,127.0
34.0,4.0,33.0,49.0,0.516,32.0,32.0,0.516,62.0,0.0,0.0,0.0,0.516,62.0,31.0,0.564,55.0,19.0,3.0,NBA,245.0,22.0,32.0,C,95.0,2005,3.0,MIA,12.0,71.0
35.0,11.0,173.0,234.0,0.597,188.0,188.0,0.599,314.0,0.0,0.0,1.0,0.597,315.0,133.0,0.594,224.0,65.0,20.0,NBA,1302.0,125.0,177.0,C,509.0,2006,13.0,MIA,79.0,359.0
36.0,18.0,178.0,224.0,0.56,238.0,238.0,0.56,425.0,0.0,0.0,0.0,0.56,425.0,185.0,0.601,308.0,77.0,43.0,NBA,1572.0,126.0,219.0,C,661.0,2007,13.0,MIA,129.0,350.0
37.0,7.0,42.0,59.0,0.547,52.0,52.0,0.547,95.0,0.0,0.0,0.0,0.547,95.0,45.0,0.592,76.0,25.0,0.0,NBA,389.0,34.0,56.0,C,149.0,2008,4.0,MIA,25.0,93.0
