age,ast_per_poss,blk_per_poss,def_rtg,drb_per_poss,fg2_pct,fg2_per_poss,fg2a_per_poss,fg3_pct,fg3_per_poss,fg3a_per_poss,fg_pct,fg_per_poss,fga_per_poss,ft_pct,ft_per_poss,fta_per_poss,g,gs,lg_id,mp,off_rtg,orb_per_poss,pf_per_poss,pos,pts_per_poss,season,stl_per_poss,team_id,tov_per_poss,trb_per_poss
22.0,1.9,4.4,103.0,8.7,0.486,10.1,20.8,0.0,0.0,0.3,0.48,10.1,21.1,0.774,10.2,13.2,9.0,9.0,NBA,367.0,106.0,4.0,5.3,C,30.5,1993,0.9,CHH,5.3,12.7
24.0,3.6,4.2,104.0,12.7,0.408,6.5,15.9,0.5,1.3,2.6,0.421,7.8,18.6,0.837,11.7,14.0,4.0,4.0,NBA,174.0,114.0,4.6,5.5,C,28.6,1995,1.0,CHH,4.6,17.3
25.0,2.3,1.7,115.0,8.7,0.486,9.8,20.2,0.0,0.0,0.0,0.486,9.8,20.2,0.714,11.5,16.2,3.0,3.0,NBA,92.0,90.0,1.7,7.5,C,31.2,1996,1.2,MIA,9.2,10.4
26.0,1.6,4.1,95.0,11.4,0.495,9.2,18.6,0.375,0.3,0.7,0.491,9.5,19.3,0.555,7.6,13.7,17.0,17.0,NBA,630.0,92.0,3.9,6.5,C,26.8,1997,1.0,MIA,6.2,15.3
27.0,2.0,4.1,100.0,9.7,0.518,11.7,22.7,0.0,0.0,0.0,0.518,11.7,22.7,0.655,7.7,11.7,4.0,4.0,NBA,138.0,108.0,4.1,7.3,C,31.2,1998,1.2,MIA,3.2,13.8
28.0,1.2,4.3,96.0,10.5,0.521,11.7,22.5,0.0,0.0,0.0,0.521,11.7,22.5,0.653,9.9,15.1,5.0,5.0,NBA,194.0,106.0,2.2,5.9,C,33.3,1999,2.5,MIA,3.7,12.6
29.0,2.1,5.0,91.0,10.4,0.487,11.5,23.5,0.0,0.0,0.2,0.484,11.5,23.7,0.667,9.7,14.5,10.0,10.0,NBA,376.0,106.0,4.7,6.0,C,32.6,2000,0.3,MIA,3.6,15.1
30.0,1.8,2.9,112.0,7.7,0.48,7.1,14.7,0.0,0.0,0.0,0.48,7.1,14.7,0.579,6.5,11.2,3.0,3.0,NBA,91.0,97.0,1.8,5.3,C,20.6,2001,0.0,MIA,2.9,9.4
34.0,1.0,6.9,95.0,10.7,0.705,6.5,9.2,0.0,0.0,0.0,0.705,6.5,9.2,0.558,6.1,10.9,15.0,2.0,NBA,254.0,110.0,4.4,10.3,C,19.1,2005,1.0,MIA,4.6,15.1
35.0,0.7,5.6,95.0,10.4,0.703,6.1,8.7,0.0,0.0,0.0,0.703,6.1,8.7,0.667,6.6,9.9,21.0,0.0,NBA,226.0,117.0,4.0,11.5,C,18.8,2006,1.2,MIA,4.0,14.4
36.0,1.0,2.9,110.0,6.7,0.909,9.5,10.5,0.0,0.0,0.0,0.909,9.5,10.5,0.385,4.8,12.4,4.0,0.0,NBA,55.0,137.0,1.0,5.7,C,23.8,2007,0.0,MIA,1.0,7.6
