age,ast_per_poss,blk_per_poss,def_rtg,drb_per_poss,fg2_pct,fg2_per_poss,fg2a_per_poss,fg3_pct,fg3_per_poss,fg3a_per_poss,fg_pct,fg_per_poss,fga_per_poss,ft_pct,ft_per_poss,fta_per_poss,g,gs,lg_id,mp,off_rtg,orb_per_poss,pf_per_poss,pos,pts_per_poss,season,stl_per_poss,team_id,tov_per_poss,trb_per_poss
27.0,3.5,0.9,111.0,6.1,0.667,8.7,13.1,0.0,0.0,1.7,0.588,8.7,14.9,0.0,0.0,1.7,4.0,1.0,NBA,57.0,104.0,1.7,5.2,SG,17.5,2002,1.7,DAL,2.6,7.9
28.0,3.1,0.0,108.0,10.6,0.421,6.3,14.9,0.333,0.4,1.2,0.415,6.7,16.1,1.0,0.8,0.8,15.0,2.0,NBA,131.0,96.0,6.7,9.4,SG,14.5,2003,1.6,DAL,3.5,17.3
30.0,5.2,0.0,104.0,8.7,0.517,8.7,16.8,0.0,0.0,0.0,0.517,8.7,16.8,0.8,2.3,2.9,5.0,0.0,NBA,86.0,117.0,2.9,8.1,SF,19.7,2005,2.9,CHI,1.7,11.6
31.0,3.7,0.3,104.0,6.7,0.542,4.9,9.1,0.0,0.0,0.0,0.542,4.9,9.1,0.875,1.1,1.2,20.0,8.0,NBA,349.0,122.0,4.3,6.5,SG,11.0,2006,2.3,DAL,1.7,11.0
32.0,0.0,0.0,98.0,0.0,0.0,0.0,35.8,0.0,0.0,0.0,0.0,0.0,35.8,0.0,0.0,0.0,4.0,0.0,NBA,9.0,13.0,6.0,6.0,SF,0.0,2007,6.0,CHI,0.0,6.0
