age,avg_dist,fg2_dunk,fg2_pct,fg2_pct_ast,fg2a_pct_fga,fg3_heave,fg3_pct,fg3_pct_ast,fg3_pct_corner,fg3a_heave,fg3a_pct_fga,fg_pct,fg_pct_00_03,fg_pct_03_10,fg_pct_10_16,fg_pct_16_xx,g,lg_id,mp,pct_fg2_dunk,pct_fg3a_corner,pct_fga_00_03,pct_fga_03_10,pct_fga_10_16,pct_fga_16_xx,pos,season,team_id
27.0,14.2,3.0,0.546,0.677,0.604,0.0,0.282,0.773,0.269,0.0,0.396,0.442,0.756,0.393,0.464,0.389,38.0,NBA,707.0,0.015,0.333,0.228,0.142,0.142,0.091,SG,2018,LAC
28.0,16.1,1.0,0.632,0.5,0.543,0.0,0.313,0.6,0.0,0.0,0.457,0.486,0.714,0.333,1.0,0.8,15.0,NBA,128.0,0.029,0.25,0.2,0.171,0.029,0.143,SG,2019,MIN
