age,ast,blk,drb,efg_pct,fg,fg2,fg2_pct,fg2a,fg3,fg3_pct,fg3a,fg_pct,fga,ft,ft_pct,fta,g,gs,lg_id,mp,orb,pf,pos,pts,season,stl,team_id,tov,trb
27.0,43.0,13.0,44.0,0.497,87.0,65.0,0.546,119.0,22.0,0.282,78.0,0.442,197.0,13.0,0.813,16.0,38.0,17.0,NBA,707.0,12.0,63.0,SG,209.0,2018,31.0,LAC,20.0,56.0
28.0,12.0,0.0,7.0,0.557,17.0,12.0,0.632,19.0,5.0,0.313,16.0,0.486,35.0,0.0,0.0,1.0,15.0,0.0,NBA,128.0,1.0,16.0,SG,39.0,2019,6.0,MIN,5.0,8.0
