age,ast,blk,drb,fg,fg2,fg2a,fg3,fg3a,fga,ft,fta,game_score,lg_id,mp,orb,pf,pts,season,stl,team_id,tov,trb
23.0,2.0,0.0,0.0,1.0,0.0,3.0,1.0,2.0,5.0,1.0,2.0,0.0,NBA,0.0,0.0,4.0,4.0,1984,0.0,UTA,2.0,3.0
24.0,2.0,0.0,1.0,1.0,1.0,2.0,0.0,0.0,2.0,3.0,4.0,2.8,NBA,0.0,1.0,2.0,3.0,1985,1.0,UTA,2.0,1.0
25.0,7.0,1.0,3.0,9.0,7.0,12.0,2.0,2.0,13.0,4.0,4.0,20.7,NBA,0.0,6.0,5.0,22.0,1986,2.0,UTA,3.0,7.0
26.0,5.0,1.0,4.0,7.0,6.0,12.0,1.0,2.0,14.0,5.0,6.0,11.9,NBA,0.0,1.0,4.0,20.0,1987,1.0,UTA,2.0,4.0
27.0,5.0,0.0,6.0,10.0,8.0,13.0,3.0,6.0,19.0,4.0,5.0,24.6,NBA,0.0,3.0,6.0,25.0,1988,2.0,UTA,5.0,6.0
28.0,2.0,2.0,7.0,5.0,4.0,11.0,1.0,4.0,14.0,8.0,10.0,8.4,NBA,0.0,2.0,5.0,15.0,1989,1.0,UTA,2.0,9.0
29.0,3.0,0.0,4.0,6.0,4.0,9.0,3.0,5.0,12.0,1.0,2.0,9.0,NBA,0.0,5.0,3.0,16.0,1990,2.0,UTA,2.0,6.0
31.0,3.0,0.0,2.0,2.0,2.0,4.0,1.0,1.0,4.0,1.0,2.0,4.6,NBA,0.0,1.0,3.0,5.0,1992,1.0,TOT,1.0,2.0
31.0,3.0,0.0,2.0,2.0,2.0,4.0,1.0,1.0,4.0,1.0,2.0,4.6,NBA,0.0,1.0,3.0,5.0,1992,1.0,CHI,1.0,2.0
