age,ast,ast_per_g,blk,college_id,fg,fg3,fg3_pct,fg3a,fg_pct,fga,ft,ft_pct,fta,g,mp,mp_per_g,orb,pf,pts,pts_per_g,season,stl,tov,trb,trb_per_g
19.0,0.0,0.0,7.0,IOWA,71.0,0.0,0.0,0.0,0.425,167.0,43.0,0.589,73.0,33.0,0.0,0.0,0.0,65.0,185.0,5.6,1980,16.0,0.0,67.0,2.0
20.0,0.0,0.0,1.0,IOWA,70.0,0.0,0.0,0.0,0.449,156.0,45.0,0.849,53.0,22.0,0.0,0.0,0.0,49.0,185.0,8.4,1981,17.0,0.0,75.0,3.4
21.0,0.0,0.0,8.0,IOWA,117.0,0.0,0.0,0.0,0.494,237.0,65.0,0.699,93.0,25.0,0.0,0.0,0.0,51.0,299.0,12.0,1982,28.0,0.0,102.0,4.1
22.0,0.0,0.0,2.0,IOWA,184.0,10.0,0.5,20.0,0.487,378.0,98.0,0.76,129.0,31.0,0.0,0.0,0.0,78.0,476.0,15.4,1983,39.0,0.0,166.0,5.4
