age,ast,blk,drb,fg,fg2,fg2a,fg3,fg3a,fga,ft,fta,game_score,lg_id,mp,orb,pf,pts,season,stl,team_id,tov,trb
24.0,1.0,2.0,6.0,3.0,3.0,5.0,0.0,1.0,5.0,4.0,4.0,7.4,NBA,0.0,2.0,5.0,10.0,1995,2.0,HOU,3.0,8.0
25.0,5.0,2.0,11.0,12.0,12.0,16.0,0.0,1.0,16.0,5.0,7.0,18.0,NBA,0.0,6.0,6.0,26.0,1996,3.0,TOR,6.0,16.0
26.0,2.0,3.0,7.0,7.0,7.0,14.0,0.0,0.0,14.0,5.0,8.0,12.0,NBA,0.0,4.0,5.0,16.0,1997,2.0,TOR,5.0,8.0
27.0,6.0,4.0,6.0,10.0,10.0,14.0,0.0,1.0,14.0,3.0,5.0,16.1,NBA,0.0,5.0,6.0,23.0,1998,2.0,TOT,7.0,10.0
27.0,6.0,4.0,6.0,10.0,10.0,14.0,0.0,1.0,14.0,3.0,5.0,16.1,NBA,0.0,5.0,6.0,23.0,1998,2.0,TOR,7.0,10.0
27.0,4.0,2.0,6.0,5.0,5.0,7.0,0.0,0.0,7.0,2.0,4.0,10.8,NBA,0.0,4.0,6.0,11.0,1998,2.0,BOS,3.0,9.0
29.0,2.0,3.0,6.0,5.0,5.0,8.0,0.0,0.0,8.0,2.0,4.0,9.9,NBA,0.0,4.0,4.0,10.0,2000,1.0,IND,4.0,9.0
30.0,4.0,2.0,9.0,8.0,8.0,13.0,0.0,0.0,13.0,3.0,6.0,14.0,NBA,0.0,5.0,5.0,16.0,2001,1.0,IND,4.0,12.0
