age,ast,blk,drb,fg,fg2,fg2a,fg3,fg3a,fga,ft,fta,game_score,lg_id,mp,orb,pf,pts,season,stl,team_id,tov,trb
23.0,3.0,1.0,3.0,3.0,3.0,8.0,0.0,1.0,9.0,5.0,5.0,9.9,NBA,23,3.0,5.0,9.0,2011,2.0,IND,2.0,6.0
24.0,1.0,1.0,2.0,1.0,1.0,2.0,0.0,1.0,3.0,0.0,0.0,1.6,NBA,9,0.0,1.0,2.0,2012,0.0,LAL,1.0,2.0
26.0,5.0,1.0,9.0,6.0,3.0,5.0,3.0,5.0,9.0,5.0,6.0,16.2,NBA,43,1.0,5.0,15.0,2014,2.0,CHA,2.0,10.0
28.0,3.0,2.0,7.0,5.0,5.0,7.0,0.0,2.0,8.0,4.0,4.0,8.3,NBA,21,3.0,5.0,10.0,2016,2.0,MIA,1.0,7.0
