age,ast_per_poss,blk_per_poss,def_rtg,drb_per_poss,fg2_pct,fg2_per_poss,fg2a_per_poss,fg3_pct,fg3_per_poss,fg3a_per_poss,fg_pct,fg_per_poss,fga_per_poss,ft_pct,ft_per_poss,fta_per_poss,g,gs,lg_id,mp,off_rtg,orb_per_poss,pf_per_poss,pos,pts_per_poss,season,stl_per_poss,team_id,tov_per_poss,trb_per_poss
20.0,3.9,0.0,102.0,15.6,0.667,11.7,17.6,0.0,0.0,2.0,0.6,11.7,19.5,0.0,0.0,0.0,8.0,0.0,NBA,28.0,107.0,3.9,2.0,PF,23.4,2008,2.0,POR,3.9,19.5
21.0,2.9,2.9,105.0,8.6,0.479,6.2,13.0,0.0,0.0,1.8,0.422,6.2,14.8,0.769,1.8,2.3,33.0,0.0,NBA,279.0,100.0,4.6,7.3,PF,14.3,2009,2.1,IND,2.1,13.2
22.0,4.2,1.5,105.0,8.2,0.553,6.4,11.6,0.348,0.8,2.2,0.521,7.2,13.8,0.5,1.8,3.6,42.0,3.0,NBA,524.0,114.0,3.8,7.0,C,16.9,2010,1.6,IND,1.8,12.0
23.0,4.8,1.8,104.0,8.7,0.577,6.0,10.3,0.383,0.7,1.9,0.547,6.7,12.2,0.739,2.8,3.8,72.0,51.0,NBA,1597.0,116.0,3.5,5.2,PF,16.9,2011,1.5,IND,3.0,12.1
24.0,3.8,1.3,104.0,8.1,0.477,3.9,8.2,0.429,0.2,0.5,0.475,4.1,8.7,0.639,1.7,2.7,50.0,6.0,NBA,718.0,108.0,4.5,5.5,PF,10.2,2012,1.1,LAL,2.3,12.6
25.0,5.0,0.9,110.0,8.2,0.51,4.6,9.1,0.286,0.8,3.0,0.455,5.5,12.1,0.765,2.3,3.0,67.0,22.0,NBA,1487.0,109.0,3.3,4.6,PF,14.1,2013,1.1,TOT,2.3,11.4
25.0,5.3,0.9,110.0,7.3,0.439,3.3,7.5,0.309,1.3,4.2,0.392,4.6,11.6,0.733,1.7,2.3,41.0,3.0,NBA,685.0,104.0,3.1,4.9,PF,12.1,2013,0.8,ORL,2.1,10.4
25.0,4.6,1.0,111.0,8.9,0.553,5.8,10.5,0.241,0.5,1.9,0.505,6.3,12.4,0.782,2.8,3.6,26.0,19.0,NBA,802.0,113.0,3.4,4.3,PF,15.8,2013,1.4,CHA,2.5,12.3
26.0,7.3,1.0,105.0,6.3,0.516,3.1,6.1,0.361,2.3,6.4,0.436,5.4,12.5,0.729,1.4,1.9,78.0,78.0,NBA,2360.0,115.0,1.9,4.2,PF,14.5,2014,1.3,CHA,1.8,8.2
27.0,5.9,0.5,106.0,6.8,0.588,3.6,6.1,0.421,1.4,3.4,0.528,5.0,9.5,0.615,1.4,2.3,17.0,4.0,NBA,296.0,103.0,1.2,7.3,PF,12.8,2015,2.1,MIA,3.9,8.0
28.0,7.0,0.6,105.0,7.2,0.434,3.7,8.5,0.245,1.0,4.2,0.372,4.7,12.8,0.7,2.4,3.4,42.0,1.0,NBA,595.0,99.0,1.9,5.9,PF,12.9,2016,1.6,MIA,2.6,9.1
29.0,6.6,0.5,108.0,6.7,0.356,4.1,11.5,0.419,1.7,4.1,0.373,5.8,15.6,0.667,0.8,1.2,22.0,14.0,NBA,381.0,97.0,3.0,4.1,PF,14.2,2017,1.3,MIA,3.0,9.8
30.0,0.0,0.0,117.0,0.0,0.0,0.0,0.0,0.0,0.0,8.4,0.0,0.0,8.4,0.0,0.0,0.0,2.0,0.0,NBA,6.0,0.0,0.0,16.7,PF,0.0,2018,0.0,DAL,0.0,0.0
