article_url,date,headline
https://hoopshabit.com/2019/08/06/new-york-knicks-carmelo-anthony-greatest-scoring/,2019/08/06,Hoops Habit: New York Knicks: Remembering Carmelo Anthony's greatest scoring night as a Knick
https://swarmandsting.com/2019/06/21/charlotte-hornets-pj-washington-cody-martin-pick-numbers/,2019/06/21,Swarm and Sting: Charlotte Hornets: PJ Washington and Cody Martin pick their numbers
https://lakeshowlife.com/2019/06/21/los-angeles-lakers-will-history-repeat-following-big-trade/,2019/06/21,Lake Show Life: Los Angeles Lakers: Will history repeat itself following big trade
