age,ast_per_mp,blk_per_mp,drb_per_mp,fg2_pct,fg2_per_mp,fg2a_per_mp,fg3_pct,fg3_per_mp,fg3a_per_mp,fg_pct,fg_per_mp,fga_per_mp,ft_pct,ft_per_mp,fta_per_mp,g,gs,lg_id,mp,orb_per_mp,pf_per_mp,pos,pts_per_mp,season,stl_per_mp,team_id,tov_per_mp,trb_per_mp
23.0,2.7,0.5,4.6,0.348,3.6,10.5,0.0,0.0,0.5,0.333,3.6,10.9,0.818,4.1,5.0,5.0,0.0,NBA,79.0,3.6,7.7,PF,11.4,2011,1.8,IND,2.3,8.2
24.0,2.3,2.3,9.0,0.333,2.3,6.8,0.0,0.0,2.3,0.25,2.3,9.0,0.0,0.0,0.0,6.0,0.0,NBA,16.0,0.0,2.3,PF,4.5,2012,0.0,LAL,4.5,9.0
26.0,3.5,0.2,6.1,0.438,1.6,3.7,0.471,1.9,4.0,0.455,3.5,7.7,0.8,1.9,2.3,4.0,4.0,NBA,154.0,0.2,3.0,PF,10.8,2014,0.9,CHA,1.4,6.3
28.0,2.4,1.3,5.1,0.593,4.3,7.3,0.0,0.0,1.9,0.471,4.3,9.1,1.0,1.6,1.6,10.0,0.0,NBA,134.0,1.9,5.4,PF,10.2,2016,1.3,MIA,1.1,7.0
