age,ast_per_g,blk_per_g,drb_per_g,efg_pct,fg2_pct,fg2_per_g,fg2a_per_g,fg3_pct,fg3_per_g,fg3a_per_g,fg_pct,fg_per_g,fga_per_g,ft_pct,ft_per_g,fta_per_g,g,gs,lg_id,mp_per_g,orb_per_g,pf_per_g,pos,pts_per_g,season,stl_per_g,team_id,tov_per_g,trb_per_g
25.0,0.0,0.0,0.5,0.0,0.0,0.0,2.0,0.0,0.0,0.0,0.0,0.0,2.0,0.0,0.0,0.0,2.0,0.0,NBA,2.5,0.0,0.0,PF,0.0,2003,0.0,ATL,0.0,0.5
26.0,0.6,0.1,1.1,0.435,0.455,1.4,3.1,0.0,0.0,0.1,0.435,1.4,3.3,0.333,0.1,0.4,7.0,0.0,NBA,12.3,1.1,1.3,PF,3.0,2004,0.1,CHI,1.3,2.3
27.0,0.3,0.0,0.1,0.455,0.455,0.6,1.2,0.0,0.0,0.0,0.455,0.6,1.2,0.5,0.2,0.4,9.0,0.0,NBA,3.3,0.1,0.3,PF,1.3,2005,0.0,PHO,0.1,0.2
