age,ast,blk,drb,fg,fg2,fg2a,fg3,fg3a,fga,ft,fta,game_score,lg_id,mp,orb,pf,pts,season,stl,team_id,tov,trb
25.0,0.0,0.0,1.0,0.0,0.0,4.0,0.0,0.0,4.0,0.0,0.0,0.0,NBA,0.0,0.0,0.0,0.0,2003,0.0,ATL,0.0,1.0
26.0,2.0,1.0,4.0,3.0,3.0,5.0,0.0,1.0,5.0,1.0,2.0,6.9,NBA,0.0,3.0,3.0,6.0,2004,1.0,CHI,4.0,5.0
27.0,1.0,0.0,1.0,2.0,2.0,3.0,0.0,0.0,3.0,1.0,2.0,4.4,NBA,0.0,1.0,2.0,5.0,2005,0.0,PHO,1.0,2.0
