age,ast_per_poss,blk_per_poss,def_rtg,drb_per_poss,fg2_pct,fg2_per_poss,fg2a_per_poss,fg3_pct,fg3_per_poss,fg3a_per_poss,fg_pct,fg_per_poss,fga_per_poss,ft_pct,ft_per_poss,fta_per_poss,g,gs,lg_id,mp,off_rtg,orb_per_poss,pf_per_poss,pos,pts_per_poss,season,stl_per_poss,team_id,tov_per_poss,trb_per_poss
25.0,0.0,0.0,108.0,10.6,0.0,0.0,42.2,0.0,0.0,0.0,0.0,0.0,42.2,0.0,0.0,0.0,2.0,0.0,NBA,5.0,0.0,0.0,0.0,PF,0.0,2003,0.0,ATL,0.0,10.6
26.0,2.4,0.6,108.0,4.8,0.455,6.1,13.3,0.0,0.0,0.6,0.435,6.1,13.9,0.333,0.6,1.8,7.0,0.0,NBA,86.0,76.0,4.8,5.4,PF,12.7,2004,0.6,CHI,5.4,9.7
27.0,5.0,0.0,115.0,1.7,0.455,8.3,18.3,0.0,0.0,0.0,0.455,8.3,18.3,0.5,3.3,6.7,9.0,0.0,NBA,30.0,104.0,1.7,5.0,PF,20.0,2005,0.0,PHO,1.7,3.3
