age,ast_per_g,blk_per_g,drb_per_g,efg_pct,fg2_pct,fg2_per_g,fg2a_per_g,fg3_pct,fg3_per_g,fg3a_per_g,fg_pct,fg_per_g,fga_per_g,ft_pct,ft_per_g,fta_per_g,g,gs,lg_id,mp_per_g,orb_per_g,pf_per_g,pos,pts_per_g,season,stl_per_g,team_id,tov_per_g,trb_per_g
32.0,3.5,1.5,2.5,0.618,0.375,1.5,4.0,0.556,2.5,4.5,0.471,4.0,8.5,1.0,1.5,1.5,2.0,0.0,NBA,32.0,0.5,1.5,SG,12.0,2018,1.5,LAL,1.5,3.0
33.0,0.0,0.0,0.3,0.0,0.0,0.0,0.8,0.0,0.0,0.8,0.0,0.0,1.5,0.0,0.0,0.0,4.0,0.0,NBA,3.8,0.3,0.0,SG,0.0,2019,0.3,LAL,0.3,0.5
