age,ast,blk,drb,fg,fg2,fg2a,fg3,fg3a,fga,ft,fta,game_score,lg_id,mp,orb,pf,pts,season,stl,team_id,tov,trb
20.0,11.0,2.0,10.0,12.0,12.0,25.0,0.0,1.0,25.0,12.0,12.0,30.4,NBA,60,4.0,6.0,36.0,2009,3.0,CHI,7.0,11.0
21.0,10.0,0.0,6.0,13.0,13.0,26.0,1.0,2.0,28.0,6.0,6.0,22.3,NBA,44,2.0,3.0,31.0,2010,2.0,CHI,7.0,7.0
22.0,12.0,3.0,7.0,16.0,12.0,29.0,4.0,9.0,32.0,19.0,21.0,37.2,NBA,49,5.0,5.0,44.0,2011,4.0,CHI,8.0,8.0
23.0,9.0,1.0,6.0,9.0,6.0,17.0,3.0,6.0,23.0,2.0,2.0,17.0,NBA,38,3.0,1.0,23.0,2012,1.0,CHI,5.0,9.0
26.0,10.0,1.0,7.0,12.0,9.0,23.0,5.0,9.0,26.0,9.0,10.0,29.4,NBA,49,3.0,4.0,34.0,2015,3.0,CHI,8.0,9.0
29.0,4.0,0.0,6.0,8.0,7.0,14.0,2.0,3.0,16.0,4.0,4.0,11.5,NBA,33,1.0,3.0,17.0,2018,2.0,TOT,4.0,6.0
29.0,4.0,0.0,6.0,8.0,7.0,14.0,2.0,3.0,16.0,4.0,4.0,11.5,NBA,33,1.0,3.0,17.0,2018,2.0,MIN,4.0,6.0
