article_url,date,headline
https://dawindycity.com/2019/11/15/chicago-bulls-coby-white-threes-fire/,2019/11/15,Da Windy City: Bulls: Coby White giving Chicago exactly what they needed
https://allucanheat.com/2019/11/14/miami-heat-cavaliers-preview-watch-odds/,2019/11/14,"All U Can Heat: Miami Heat vs Cleveland Cavaliers: Preview, Watch/Listen, Odds"
https://section215.com/2019/11/14/philadelphia-76ers-d-j-augustin/,2019/11/14,Section 215: The Philadelphia 76ers could seriously use a player like D.J. Augustin
