age,and1s,astd_pts,drawn_offensive,drawn_shooting,fouls_offensive,fouls_shooting,g,lg_id,mp,own_shots_blk,pct_1,pct_2,pct_3,pct_4,pct_5,plus_minus_net,plus_minus_on,pos,season,team_id,tov_bad_pass,tov_lost_ball
21.0,10.0,242.0,21.0,50.0,10.0,102.0,79.0,NBA,1803.0,34.0,0.0,14.0,86.0,1.0,0.0,-1.6,-8.4,SF,2008,MIN,43.0,22.0
22.0,3.0,54.0,5.0,8.0,3.0,17.0,15.0,NBA,307.0,11.0,0.0,81.0,19.0,0.0,0.0,6.2,0.1,SF,2009,MIN,7.0,2.0
23.0,24.0,419.0,32.0,123.0,23.0,97.0,82.0,NBA,2482.0,59.0,0.0,89.0,11.0,0.0,0.0,-0.6,-10.2,SG,2010,MIN,85.0,36.0
24.0,14.0,199.0,24.0,90.0,11.0,69.0,69.0,NBA,1510.0,31.0,0.0,46.0,52.0,2.0,0.0,-3.4,-4.0,SF-SG,2011,TOT,44.0,25.0
24.0,13.0,170.0,24.0,81.0,8.0,57.0,56.0,NBA,1362.0,29.0,0.0,49.0,49.0,2.0,0.0,2.9,-5.1,SF,2011,MIN,43.0,21.0
24.0,1.0,29.0,0.0,9.0,3.0,12.0,13.0,NBA,148.0,2.0,0.0,21.0,79.0,0.0,0.0,1.9,6.6,SG,2011,DAL,1.0,4.0
25.0,10.0,194.0,19.0,58.0,6.0,36.0,59.0,NBA,1287.0,37.0,0.0,11.0,86.0,4.0,0.0,-1.4,2.5,SF,2012,DEN,30.0,17.0
26.0,19.0,263.0,17.0,95.0,8.0,54.0,82.0,NBA,2003.0,59.0,0.0,15.0,80.0,5.0,0.0,-2.7,3.9,SF,2013,DEN,39.0,39.0
27.0,30.0,307.0,20.0,104.0,11.0,87.0,81.0,NBA,2609.0,43.0,0.0,12.0,87.0,1.0,0.0,9.7,5.7,SF,2014,MIN,41.0,39.0
28.0,21.0,396.0,23.0,96.0,14.0,55.0,80.0,NBA,2087.0,57.0,0.0,25.0,71.0,4.0,0.0,3.1,-0.7,SF,2015,TOT,62.0,38.0
28.0,6.0,166.0,6.0,31.0,6.0,19.0,24.0,NBA,680.0,16.0,0.0,0.0,92.0,8.0,0.0,-5.2,-13.9,SF,2015,MIN,24.0,14.0
28.0,15.0,230.0,17.0,65.0,8.0,36.0,56.0,NBA,1407.0,41.0,0.0,37.0,61.0,2.0,0.0,3.0,5.5,SF,2015,HOU,38.0,24.0
29.0,12.0,257.0,18.0,54.0,6.0,48.0,82.0,NBA,1669.0,27.0,0.0,5.0,83.0,12.0,0.0,-3.8,-2.2,SF,2016,HOU,36.0,29.0
30.0,10.0,230.0,10.0,36.0,10.0,47.0,82.0,NBA,1281.0,28.0,0.0,24.0,73.0,4.0,0.0,5.3,4.0,SF,2017,TOT,20.0,17.0
30.0,8.0,151.0,8.0,25.0,10.0,36.0,58.0,NBA,923.0,20.0,0.0,27.0,71.0,2.0,0.0,3.7,9.0,SF,2017,HOU,12.0,8.0
30.0,2.0,79.0,2.0,11.0,0.0,11.0,24.0,NBA,358.0,8.0,0.0,13.0,77.0,9.0,0.0,-1.6,-8.6,SF,2017,LAL,8.0,9.0
31.0,5.0,151.0,16.0,33.0,8.0,47.0,72.0,NBA,1208.0,25.0,0.0,47.0,49.0,4.0,0.0,-2.9,-1.6,SF-SG,2018,TOT,30.0,7.0
31.0,3.0,91.0,8.0,21.0,4.0,34.0,54.0,NBA,694.0,15.0,0.0,18.0,74.0,8.0,0.0,-4.8,-5.5,SF,2018,LAL,24.0,6.0
31.0,2.0,60.0,8.0,12.0,4.0,13.0,18.0,NBA,514.0,10.0,0.0,86.0,14.0,0.0,0.0,0.3,3.5,SG,2018,OKC,6.0,1.0
32.0,2.0,90.0,9.0,19.0,2.0,28.0,31.0,NBA,492.0,10.0,0.0,5.0,74.0,21.0,0.0,0.2,1.2,SF,2019,TOT,9.0,4.0
32.0,0.0,25.0,3.0,5.0,0.0,5.0,7.0,NBA,140.0,5.0,0.0,8.0,55.0,37.0,0.0,-0.4,2.6,SF,2019,PHI,4.0,1.0
32.0,2.0,65.0,6.0,14.0,2.0,23.0,24.0,NBA,352.0,5.0,0.0,4.0,82.0,14.0,0.0,1.7,0.6,SF,2019,SAC,5.0,3.0
