age,ast_per_poss,blk_per_poss,def_rtg,drb_per_poss,fg2_pct,fg2_per_poss,fg2a_per_poss,fg3_pct,fg3_per_poss,fg3a_per_poss,fg_pct,fg_per_poss,fga_per_poss,ft_pct,ft_per_poss,fta_per_poss,g,gs,lg_id,mp,off_rtg,orb_per_poss,pf_per_poss,pos,pts_per_poss,season,stl_per_poss,team_id,tov_per_poss,trb_per_poss
23.0,2.0,0.4,113.0,6.2,0.517,5.6,10.9,0.333,1.0,2.9,0.478,6.6,13.8,0.812,3.6,4.4,80.0,24.0,NBA,1581.0,104.0,1.9,7.6,SF,17.8,2006,1.2,TOR,3.1,8.1
24.0,1.7,0.2,107.0,7.6,0.513,7.2,14.0,0.29,0.4,1.2,0.495,7.5,15.3,0.84,4.3,5.1,79.0,21.0,NBA,1319.0,110.0,2.2,6.3,SF,19.8,2007,1.2,TOR,1.9,9.7
25.0,2.4,0.0,110.0,7.9,0.427,7.6,17.7,0.667,0.3,0.5,0.434,7.9,18.2,0.844,6.1,7.2,38.0,3.0,NBA,331.0,99.0,2.9,7.6,SF,22.2,2008,0.5,TOR,3.7,10.8
26.0,1.6,0.4,111.0,6.7,0.491,7.7,15.7,0.188,0.1,0.5,0.481,7.8,16.3,0.825,4.5,5.4,78.0,10.0,NBA,1541.0,106.0,3.2,6.5,SF,20.2,2009,1.2,TOR,2.5,9.9
27.0,1.5,0.5,109.0,5.6,0.545,6.9,12.6,0.154,0.1,0.9,0.52,7.0,13.5,0.74,3.6,4.9,63.0,18.0,NBA,759.0,106.0,2.6,6.9,SF,17.8,2010,1.5,DEN,2.9,8.2
28.0,1.6,0.6,114.0,6.7,0.49,6.4,13.1,0.3,0.8,2.6,0.458,7.2,15.8,0.806,2.6,3.2,39.0,8.0,NBA,586.0,96.0,0.7,6.4,SF,17.8,2011,0.5,CLE,2.5,7.4
