age,ast,blk,drb,fg,fg2,fg2a,fg3,fg3a,fga,ft,fta,game_score,lg_id,mp,orb,pf,pts,season,stl,team_id,tov,trb
24.0,1.0,0.0,10.0,2.0,2.0,5.0,0.0,1.0,5.0,2.0,3.0,4.1,NBA,36,1.0,4.0,6.0,2007,2.0,TOR,2.0,10.0
25.0,0.0,0.0,0.0,0.0,0.0,1.0,0.0,1.0,2.0,0.0,0.0,0.0,NBA,2,0.0,0.0,0.0,2008,0.0,TOR,0.0,0.0
27.0,0.0,1.0,6.0,9.0,8.0,13.0,1.0,1.0,14.0,2.0,4.0,17.9,NBA,25,4.0,6.0,21.0,2010,2.0,DEN,1.0,10.0
