age,and1s,astd_pts,drawn_offensive,drawn_shooting,fouls_offensive,fouls_shooting,g,lg_id,mp,own_shots_blk,pct_1,pct_2,pct_3,pct_4,pct_5,plus_minus_net,plus_minus_on,pos,season,team_id,tov_bad_pass,tov_lost_ball
23.0,13.0,142.0,16.0,66.0,31.0,110.0,80.0,NBA,1581.0,27.0,0.0,19.0,77.0,4.0,0.0,-1.6,-4.5,SF,2006,TOR,24.0,27.0
24.0,16.0,114.0,13.0,61.0,16.0,84.0,79.0,NBA,1319.0,26.0,0.0,2.0,87.0,10.0,0.0,2.9,3.1,SF,2007,TOR,9.0,17.0
25.0,1.0,33.0,7.0,21.0,7.0,27.0,38.0,NBA,331.0,12.0,0.0,26.0,59.0,15.0,0.0,-2.4,1.2,SF,2008,TOR,3.0,9.0
26.0,20.0,111.0,12.0,76.0,24.0,83.0,78.0,NBA,1541.0,37.0,0.0,11.0,67.0,22.0,0.0,-1.4,-3.8,SF,2009,TOR,20.0,15.0
27.0,7.0,52.0,10.0,39.0,16.0,49.0,63.0,NBA,759.0,18.0,0.0,5.0,85.0,10.0,0.0,-9.3,-3.3,SF,2010,DEN,9.0,15.0
28.0,5.0,43.0,6.0,17.0,7.0,43.0,39.0,NBA,586.0,8.0,0.0,1.0,73.0,25.0,0.0,0.9,-8.7,SF,2011,CLE,12.0,5.0
