age,ast_pct,blk_pct,bpm,bpm-dum,dbpm,drb_pct,dws,fg3a_per_fga_pct,fta_per_fga_pct,g,lg_id,mp,obpm,orb_pct,ows,per,pos,season,stl_pct,team_id,tov_pct,trb_pct,ts_pct,usg_pct,vorp,ws,ws-dum,ws_per_48
23.0,6.0,0.6,-3.5,0.0,-1.7,15.1,0.3,0.21,0.321,80.0,NBA,1581.0,-1.8,4.2,1.0,10.2,SF,2006,1.2,TOR,16.3,9.4,0.564,16.5,-0.6,1.3,0.0,0.038
24.0,5.4,0.2,-2.6,0.0,-0.8,17.4,1.3,0.08,0.338,79.0,NBA,1319.0,-1.8,4.9,1.7,12.9,SF,2007,1.2,TOR,9.9,11.0,0.564,17.4,-0.2,3.0,0.0,0.108
25.0,7.0,0.0,-6.6,0.0,-2.3,17.7,0.3,0.027,0.398,38.0,NBA,331.0,-4.3,6.4,0.0,10.3,SF,2008,0.5,TOR,14.8,12.0,0.52,22.2,-0.4,0.3,0.0,0.04
26.0,5.0,0.6,-3.5,0.0,-1.3,14.9,1.1,0.033,0.333,78.0,NBA,1541.0,-2.2,7.3,1.1,11.9,SF,2009,1.2,TOR,11.9,11.1,0.542,18.7,-0.6,2.2,0.0,0.068
27.0,4.5,0.7,-3.6,0.0,-1.1,12.7,0.6,0.064,0.361,63.0,NBA,759.0,-2.5,6.0,0.5,10.6,SF,2010,1.5,DEN,15.5,9.3,0.568,16.2,-0.3,1.1,0.0,0.072
28.0,5.2,0.9,-7.1,0.0,-2.4,15.3,0.1,0.168,0.201,39.0,NBA,586.0,-4.7,1.5,-0.2,7.7,SF,2011,0.5,CLE,12.6,8.2,0.518,17.2,-0.8,0.0,0.0,-0.004
