age,ast,blk,drb,fg,fg2,fg2a,fg3,fg3a,fga,ft,fta,game_score,lg_id,mp,orb,pf,pts,season,stl,team_id,tov,trb
23.0,5.0,3.0,8.0,7.0,6.0,15.0,2.0,4.0,18.0,7.0,8.0,13.4,NBA,44,4.0,6.0,19.0,2006,3.0,TOR,4.0,9.0
24.0,5.0,1.0,11.0,8.0,8.0,17.0,3.0,4.0,17.0,10.0,11.0,16.7,NBA,41,4.0,6.0,19.0,2007,2.0,TOR,3.0,12.0
25.0,4.0,0.0,6.0,5.0,5.0,11.0,1.0,1.0,11.0,7.0,8.0,11.5,NBA,34,3.0,5.0,13.0,2008,1.0,TOR,3.0,6.0
26.0,4.0,3.0,10.0,11.0,10.0,18.0,1.0,2.0,19.0,8.0,9.0,24.0,NBA,39,5.0,6.0,24.0,2009,2.0,TOR,4.0,12.0
27.0,2.0,2.0,6.0,7.0,7.0,14.0,1.0,2.0,15.0,6.0,7.0,14.5,NBA,32,4.0,5.0,20.0,2010,2.0,DEN,3.0,8.0
28.0,2.0,3.0,6.0,6.0,5.0,10.0,2.0,4.0,11.0,3.0,5.0,10.4,NBA,30,2.0,5.0,14.0,2011,2.0,CLE,3.0,6.0
