age,ast,blk,drb,efg_pct,fg,fg2,fg2_pct,fg2a,fg3,fg3_pct,fg3a,fg_pct,fga,ft,ft_pct,fta,g,gs,lg_id,mp,orb,pf,pos,pts,season,stl,team_id,tov,trb
20.0,52.0,25.0,190.0,0.514,202.0,144.0,0.543,265.0,58.0,0.315,184.0,0.45,449.0,72.0,0.783,92.0,63.0,46.0,NBA,1294.0,56.0,146.0,SF,534.0,2019,41.0,BRK,77.0,246.0
21.0,1.0,0.0,15.0,0.472,7.0,4.0,0.286,14.0,3.0,0.75,4.0,0.389,18.0,2.0,0.333,6.0,8.0,0.0,NBA,92.0,5.0,15.0,SF,19.0,2020,4.0,BRK,11.0,20.0
