article_url,date,headline
https://hoopshabit.com/2019/11/14/brooklyn-nets-good-rebounds-bad-turnovers/,2019/11/14,Hoops Habit: The good (rebounds) and the bad (turnovers) so far for Brooklyn Nets
https://sircharlesincharge.com/2019/11/10/nba-more-international-players/,2019/11/10,Sir Charles In Charge: The NBA has a greater international make-up than ever before
https://hoopshabit.com/2019/10/26/brooklyn-nets-early-trends-sign-come/,2019/10/26,Hoops Habit: Are early trends sign of what's to come for Brooklyn Nets?
