article_url,date,headline
https://bluemanhoop.com/2019/11/07/golden-state-warriors-season-audition-young-dubs/,2019/11/07,Blue Man Hoop: Golden State Warriors: This season is an audition for young Dubs
https://goldengatesports.com/2019/11/07/golden-state-warriors-jordan-poole-groove/,2019/11/07,Golden Gate Sports: Golden State Warriors: Jordan Poole struggling to find a groove early on
https://www.hoopsrumors.com/2019/11/2019-offseason-in-review-golden-state-warriors.html,2019/11/20,HoopsRumors: 2019 Offseason In Review: Golden State Warriors
https://www.fantasycruncher.com/articles/2019/11/06/fanduel-nba-dfs-core-plays-cheat-sheet-november-6-2019/,2019/11/06,"Fantasy Cruncher: FanDuel NBA DFS Core Plays & Cheat Sheet – November 6, 2019"
