lg_id,salary,season,team_name
NBA,2033000.0,1994,Dallas Mavericks
NBA,2633300.0,1995,Dallas Mavericks
NBA,3233000.0,1996,Dallas Mavericks
NBA,3833000.0,1997,Dallas Mavericks
NBA,4433334.0,1998,Miami Heat
NBA,5033000.0,1999,Miami Heat
NBA,5600000.0,2000,Miami Heat
NBA,6200000.0,2001,Charlotte Hornets
NBA,6975000.0,2002,Charlotte Hornets
NBA,7750000.0,2003,New Orleans Hornets
NBA,8525000.0,2004,New Orleans Hornets
NBA,9300000.0,2005,New Orleans Hornets
NBA,10075000.0,2006,Philadelphia 76ers
