age,ast_per_mp,blk_per_mp,drb_per_mp,fg2_pct,fg2_per_mp,fg2a_per_mp,fg3_pct,fg3_per_mp,fg3a_per_mp,fg_pct,fg_per_mp,fga_per_mp,ft_pct,ft_per_mp,fta_per_mp,g,gs,lg_id,mp,orb_per_mp,pf_per_mp,pos,pts_per_mp,season,stl_per_mp,team_id,tov_per_mp,trb_per_mp
24.0,2.3,0.1,4.0,0.406,2.8,6.9,0.355,1.4,4.0,0.387,4.2,10.9,0.65,1.7,2.6,17.0,17.0,NBA,554.0,1.4,3.8,SF,11.6,1997,1.1,MIA,1.9,5.5
25.0,2.5,0.3,5.0,0.235,2.2,9.5,0.364,1.1,3.1,0.267,3.3,12.6,0.75,0.8,1.1,5.0,3.0,NBA,129.0,1.1,5.9,SF,8.7,1998,0.8,MIA,2.5,6.1
26.0,2.4,0.0,2.1,0.371,3.1,8.3,0.429,1.4,3.3,0.388,4.5,11.6,0.667,1.4,2.1,5.0,5.0,NBA,152.0,0.9,2.6,SF,11.8,1999,0.5,MIA,2.4,3.1
27.0,2.7,0.2,3.1,0.403,4.3,10.6,0.394,1.1,2.8,0.401,5.4,13.4,0.857,3.1,3.6,10.0,10.0,NBA,423.0,0.8,2.6,SF,14.9,2000,0.9,MIA,2.0,3.9
28.0,4.9,0.3,3.8,0.412,6.6,16.1,0.333,0.6,1.8,0.404,7.2,17.9,0.841,6.4,7.6,10.0,10.0,NBA,419.0,1.5,2.1,SF,21.4,2001,1.0,CHH,2.6,5.3
29.0,3.6,0.0,3.6,0.0,0.0,18.0,0.0,0.0,3.6,0.0,0.0,21.6,0.0,0.0,0.0,1.0,1.0,NBA,10.0,0.0,0.0,SF,0.0,2002,0.0,CHH,0.0,3.6
30.0,4.7,0.2,3.1,0.438,6.2,14.2,0.4,1.3,3.3,0.43,7.6,17.6,0.714,5.6,7.8,4.0,4.0,NBA,162.0,0.0,0.9,SF,22.0,2003,0.9,NOH,2.2,3.1
