age,ast_per_poss,blk_per_poss,def_rtg,drb_per_poss,fg2_pct,fg2_per_poss,fg2a_per_poss,fg3_pct,fg3_per_poss,fg3a_per_poss,fg_pct,fg_per_poss,fga_per_poss,ft_pct,ft_per_poss,fta_per_poss,g,gs,lg_id,mp,off_rtg,orb_per_poss,pf_per_poss,pos,pts_per_poss,season,stl_per_poss,team_id,tov_per_poss,trb_per_poss
23.0,5.0,0.4,106.0,4.1,0.412,5.5,13.3,0.235,0.4,1.9,0.39,5.9,15.2,0.698,3.4,4.8,51.0,1.0,NBA,465.0,91.0,1.8,5.3,SG,15.7,2006,3.4,WAS,3.8,5.9
24.0,6.2,0.4,110.0,5.4,0.431,7.3,17.0,0.176,0.4,2.4,0.4,7.7,19.4,0.524,1.5,2.9,47.0,1.0,NBA,369.0,90.0,1.9,4.7,SG,17.4,2007,2.4,WAS,3.5,7.3
