age,and1s,astd_pts,drawn_offensive,drawn_shooting,fouls_offensive,fouls_shooting,g,lg_id,mp,own_shots_blk,pct_1,pct_2,pct_3,pct_4,pct_5,plus_minus_net,plus_minus_on,pos,season,team_id,tov_bad_pass,tov_lost_ball
23.0,3.0,105.0,3.0,16.0,5.0,25.0,51.0,NBA,465.0,8.0,3.0,65.0,32.0,0.0,0.0,1.6,3.5,SG,2006,WAS,15.0,9.0
24.0,1.0,105.0,0.0,8.0,3.0,16.0,47.0,NBA,369.0,6.0,44.0,54.0,2.0,0.0,0.0,-13.5,-13.1,SG,2007,WAS,6.0,12.0
