age,ast_per_g,blk_per_g,drb_per_g,efg_pct,fg2_pct,fg2_per_g,fg2a_per_g,fg3_pct,fg3_per_g,fg3a_per_g,fg_pct,fg_per_g,fga_per_g,ft_pct,ft_per_g,fta_per_g,g,gs,lg_id,mp_per_g,orb_per_g,pf_per_g,pos,pts_per_g,season,stl_per_g,team_id,tov_per_g,trb_per_g
25.0,0.2,1.1,2.6,0.541,0.541,2.7,4.9,0.0,0.0,0.0,0.541,2.7,4.9,0.563,1.2,2.1,15.0,0.0,NBA,16.3,2.1,3.2,SF,6.5,1987,0.4,DET,1.1,4.7
26.0,0.9,0.6,3.7,0.522,0.53,3.1,5.8,0.0,0.0,0.1,0.522,3.1,5.9,0.407,1.0,2.3,23.0,0.0,NBA,20.6,2.2,3.8,SF,7.1,1988,0.6,DET,1.3,5.9
27.0,0.9,0.7,6.7,0.529,0.561,2.2,3.9,0.0,0.0,0.2,0.529,2.2,4.1,0.686,1.4,2.1,17.0,0.0,NBA,24.1,3.3,3.4,SF,5.8,1989,0.4,DET,1.4,10.0
28.0,0.9,0.7,5.6,0.568,0.568,2.8,5.0,0.0,0.0,0.0,0.568,2.8,5.0,0.514,0.9,1.8,19.0,17.0,NBA,29.5,2.9,3.3,SF,6.6,1990,0.5,DET,1.6,8.5
29.0,0.9,0.7,7.3,0.462,0.476,2.6,5.5,0.222,0.1,0.6,0.451,2.7,6.1,0.417,0.7,1.6,15.0,14.0,NBA,33.0,4.5,3.7,SF,6.3,1991,0.7,DET,0.9,11.8
30.0,1.8,0.4,7.0,0.593,0.64,3.2,5.0,0.0,0.0,0.4,0.593,3.2,5.4,0.5,0.8,1.6,5.0,5.0,NBA,31.2,3.2,3.4,PF,7.2,1992,0.8,DET,1.4,10.2
32.0,0.7,1.3,8.0,0.5,0.632,4.0,6.3,0.0,0.0,1.7,0.5,4.0,8.0,0.167,0.3,2.0,3.0,3.0,NBA,38.0,8.0,4.7,PF,8.3,1994,2.0,SAS,2.0,16.0
33.0,1.3,0.0,9.9,0.542,0.571,3.7,6.5,0.0,0.0,0.4,0.542,3.7,6.9,0.571,1.4,2.5,14.0,12.0,NBA,32.8,4.9,3.6,PF,8.9,1995,0.9,SAS,1.8,14.8
34.0,2.1,0.4,8.3,0.485,0.485,2.8,5.7,0.0,0.0,0.0,0.485,2.8,5.7,0.593,1.9,3.3,18.0,15.0,NBA,34.4,5.4,4.2,PF,7.5,1996,0.8,CHI,2.3,13.7
35.0,1.4,0.2,5.3,0.395,0.4,1.4,3.4,0.25,0.2,0.8,0.37,1.6,4.3,0.577,0.8,1.4,19.0,14.0,NBA,28.2,3.1,3.9,PF,4.2,1997,0.5,CHI,1.5,8.4
36.0,2.0,0.6,7.1,0.376,0.376,1.8,4.8,0.25,0.0,0.2,0.371,1.9,5.0,0.605,1.1,1.8,21.0,9.0,NBA,34.4,4.7,4.2,PF,4.9,1998,0.7,CHI,1.7,11.8
