age,ast_per_g,blk_per_g,drb_per_g,efg_pct,fg2_pct,fg2_per_g,fg2a_per_g,fg3_pct,fg3_per_g,fg3a_per_g,fg_pct,fg_per_g,fga_per_g,ft_pct,ft_per_g,fta_per_g,g,gs,lg_id,mp_per_g,orb_per_g,pf_per_g,pos,pts_per_g,season,stl_per_g,team_id,tov_per_g,trb_per_g
25.0,0.7,0.6,2.2,0.545,0.546,2.8,5.1,0.0,0.0,0.0,0.545,2.8,5.1,0.587,1.0,1.6,77.0,1.0,NBA,15.0,2.1,2.2,SF,6.5,1987,0.5,DET,1.2,4.3
26.0,1.3,0.5,4.8,0.565,0.568,4.8,8.4,0.294,0.1,0.2,0.561,4.9,8.6,0.535,1.9,3.5,82.0,32.0,NBA,26.2,3.9,3.3,SF,11.6,1988,0.9,DET,1.9,8.7
27.0,1.2,0.9,5.4,0.601,0.614,3.8,6.2,0.231,0.1,0.3,0.595,3.9,6.5,0.626,1.2,1.9,82.0,8.0,NBA,26.9,4.0,3.6,SF,9.0,1989,0.7,DET,1.5,9.4
28.0,0.9,0.7,5.6,0.582,0.589,3.5,5.9,0.111,0.0,0.1,0.581,3.5,6.0,0.654,1.7,2.6,82.0,43.0,NBA,29.0,4.1,3.4,SF,8.8,1990,0.6,DET,1.1,9.7
29.0,1.0,0.7,8.1,0.498,0.509,3.3,6.5,0.2,0.1,0.4,0.493,3.4,6.8,0.631,1.4,2.1,82.0,77.0,NBA,33.5,4.4,3.4,SF,8.2,1991,0.8,DET,1.1,12.5
30.0,2.3,0.9,12.3,0.564,0.581,3.8,6.5,0.317,0.4,1.2,0.539,4.2,7.7,0.6,1.0,1.7,82.0,80.0,NBA,40.3,6.4,3.0,PF,9.8,1992,0.8,DET,1.7,18.7
31.0,1.6,0.7,12.3,0.444,0.472,2.7,5.7,0.205,0.2,1.2,0.427,3.0,6.9,0.534,1.4,2.6,62.0,55.0,NBA,38.9,5.9,3.2,PF,7.5,1993,0.8,DET,1.7,18.3
32.0,2.3,0.4,11.6,0.543,0.563,1.9,3.4,0.208,0.1,0.3,0.534,2.0,3.7,0.52,0.7,1.3,79.0,51.0,NBA,37.8,5.7,2.9,PF,4.7,1994,0.7,SAS,1.7,17.3
33.0,2.0,0.5,11.2,0.571,0.576,2.8,4.9,0.0,0.0,0.0,0.571,2.8,4.9,0.676,1.5,2.3,49.0,26.0,NBA,32.0,5.6,3.2,PF,7.1,1995,0.6,SAS,2.0,16.8
34.0,2.5,0.4,9.3,0.485,0.516,2.2,4.3,0.111,0.0,0.4,0.48,2.3,4.8,0.528,0.9,1.7,64.0,57.0,NBA,32.6,5.6,3.1,PF,5.5,1996,0.6,CHI,2.2,14.9
35.0,3.1,0.3,10.2,0.456,0.461,2.2,4.9,0.263,0.1,0.3,0.448,2.3,5.2,0.568,0.9,1.6,55.0,54.0,NBA,35.4,5.8,3.1,PF,5.7,1997,0.6,CHI,2.0,16.1
36.0,2.9,0.2,9.8,0.436,0.448,1.9,4.2,0.174,0.1,0.3,0.431,1.9,4.5,0.55,0.8,1.4,80.0,66.0,NBA,35.7,5.3,3.0,PF,4.7,1998,0.6,CHI,1.8,15.0
37.0,1.3,0.5,8.5,0.348,0.364,0.7,1.9,0.0,0.0,0.1,0.348,0.7,2.0,0.436,0.7,1.7,23.0,11.0,NBA,28.6,2.7,3.1,PF,2.1,1999,0.4,LAL,1.3,11.2
38.0,1.2,0.1,10.3,0.387,0.4,1.0,2.5,0.0,0.0,0.1,0.387,1.0,2.6,0.714,0.8,1.2,12.0,12.0,NBA,32.4,4.0,3.4,PF,2.8,2000,0.2,DAL,1.6,14.3
