age,ast,blk,drb,efg_pct,fg,fg2,fg2_pct,fg2a,fg3,fg3_pct,fg3a,fg_pct,fga,ft,ft_pct,fta,g,gs,lg_id,mp,orb,pf,pos,pts,season,stl,team_id,tov,trb
23.0,19.0,4.0,9.0,0.31,15.0,14.0,0.35,40.0,1.0,0.1,10.0,0.3,50.0,27.0,0.871,31.0,3.0,3.0,NBA,119.0,9.0,12.0,SF,58.0,2000,3.0,TOR,8.0,18.0
24.0,56.0,20.0,41.0,0.48,122.0,97.0,0.443,219.0,25.0,0.41,61.0,0.436,280.0,58.0,0.784,74.0,12.0,12.0,NBA,539.0,37.0,45.0,SF,327.0,2001,20.0,TOR,27.0,78.0
28.0,23.0,0.0,25.0,0.396,35.0,29.0,0.377,77.0,6.0,0.316,19.0,0.365,96.0,31.0,0.861,36.0,4.0,4.0,NBA,179.0,9.0,17.0,SF,107.0,2005,9.0,NJN,15.0,34.0
29.0,58.0,6.0,61.0,0.492,113.0,99.0,0.532,186.0,14.0,0.241,58.0,0.463,244.0,86.0,0.796,108.0,11.0,11.0,NBA,450.0,16.0,34.0,SG,326.0,2006,20.0,NJN,26.0,77.0
30.0,64.0,7.0,65.0,0.44,93.0,72.0,0.398,181.0,21.0,0.389,54.0,0.396,235.0,61.0,0.693,88.0,12.0,12.0,NBA,487.0,17.0,35.0,SG,268.0,2007,11.0,NJN,38.0,82.0
33.0,32.0,3.0,50.0,0.435,74.0,62.0,0.466,133.0,12.0,0.235,51.0,0.402,184.0,57.0,0.826,69.0,14.0,14.0,NBA,480.0,9.0,50.0,SG,217.0,2010,12.0,ORL,22.0,59.0
35.0,1.0,2.0,17.0,0.329,12.0,9.0,0.29,31.0,3.0,0.3,10.0,0.293,41.0,6.0,0.75,8.0,4.0,0.0,NBA,107.0,5.0,11.0,SG,33.0,2012,5.0,DAL,6.0,22.0
37.0,17.0,2.0,18.0,0.566,31.0,16.0,0.432,37.0,15.0,0.484,31.0,0.456,68.0,11.0,0.786,14.0,7.0,0.0,NBA,190.0,7.0,12.0,SG,88.0,2014,3.0,DAL,6.0,25.0
38.0,11.0,2.0,34.0,0.455,27.0,20.0,0.513,39.0,7.0,0.25,28.0,0.403,67.0,8.0,0.889,9.0,11.0,0.0,NBA,196.0,13.0,17.0,SG,69.0,2015,7.0,MEM,7.0,47.0
39.0,5.0,1.0,10.0,0.561,15.0,8.0,0.348,23.0,7.0,0.7,10.0,0.455,33.0,8.0,1.0,8.0,4.0,4.0,NBA,91.0,5.0,9.0,SG,45.0,2016,2.0,MEM,3.0,15.0
40.0,9.0,0.0,16.0,0.571,20.0,12.0,0.545,22.0,8.0,0.4,20.0,0.476,42.0,7.0,1.0,7.0,6.0,6.0,NBA,195.0,4.0,15.0,SF,55.0,2017,2.0,MEM,10.0,20.0
