age,ast,blk,drb,fg,fg2,fg2a,fg3,fg3a,fga,ft,fta,game_score,lg_id,mp,orb,pf,pts,season,stl,team_id,tov,trb
24.0,3.0,2.0,7.0,7.0,7.0,11.0,0.0,0.0,11.0,3.0,4.0,8.9,NBA,27,5.0,5.0,14.0,2017,2.0,NYK,3.0,11.0
25.0,2.0,1.0,5.0,1.0,1.0,2.0,0.0,0.0,2.0,4.0,6.0,5.1,NBA,20,2.0,2.0,6.0,2018,0.0,MIL,2.0,6.0
