age,ast,blk,drb,fg,fg2,fg2a,fg3,fg3a,fga,ft,fta,game_score,lg_id,mp,orb,pf,pts,season,stl,team_id,tov,trb
24.0,4.0,1.0,6.0,7.0,5.0,8.0,3.0,5.0,10.0,4.0,4.0,12.0,NBA,38,3.0,5.0,17.0,2018,4.0,UTA,4.0,9.0
25.0,4.0,1.0,11.0,8.0,6.0,9.0,3.0,6.0,13.0,3.0,4.0,13.0,NBA,34,2.0,4.0,18.0,2019,1.0,UTA,3.0,11.0
