age,ast,blk,drb,efg_pct,fg,fg2,fg2_pct,fg2a,fg3,fg3_pct,fg3a,fg_pct,fga,ft,ft_pct,fta,g,gs,lg_id,mp,orb,pf,pos,pts,season,stl,team_id,tov,trb
24.0,95.0,16.0,211.0,0.496,120.0,78.0,0.47,166.0,42.0,0.356,118.0,0.423,284.0,61.0,0.803,76.0,69.0,4.0,NBA,1150.0,25.0,105.0,SF,343.0,2018,36.0,UTA,55.0,236.0
25.0,124.0,24.0,263.0,0.574,163.0,95.0,0.569,167.0,68.0,0.386,176.0,0.475,343.0,32.0,0.762,42.0,82.0,16.0,NBA,1671.0,22.0,172.0,SF,426.0,2019,54.0,UTA,70.0,285.0
26.0,23.0,4.0,46.0,0.689,25.0,13.0,0.591,22.0,12.0,0.522,23.0,0.556,45.0,6.0,1.0,6.0,11.0,10.0,NBA,308.0,1.0,32.0,PF,68.0,2020,7.0,UTA,12.0,47.0
