age,ast,blk,drb,fg,fg2,fg2a,fg3,fg3a,fga,ft,fta,game_score,lg_id,mp,orb,pf,pts,season,stl,team_id,tov,trb
23.0,8.0,4.0,7.0,12.0,10.0,18.0,4.0,10.0,20.0,9.0,10.0,29.1,NBA,0.0,7.0,6.0,30.0,2002,5.0,MEM,6.0,10.0
24.0,5.0,4.0,8.0,9.0,7.0,10.0,5.0,7.0,13.0,7.0,9.0,25.0,NBA,0.0,6.0,5.0,22.0,2003,5.0,MEM,4.0,11.0
25.0,4.0,4.0,8.0,9.0,7.0,13.0,3.0,7.0,18.0,7.0,9.0,21.5,NBA,0.0,7.0,6.0,22.0,2004,5.0,MEM,3.0,14.0
26.0,5.0,5.0,10.0,10.0,9.0,14.0,4.0,7.0,17.0,9.0,11.0,29.3,NBA,0.0,5.0,6.0,33.0,2005,4.0,MEM,5.0,14.0
27.0,5.0,5.0,10.0,10.0,9.0,14.0,5.0,7.0,18.0,6.0,9.0,20.2,NBA,50.0,7.0,6.0,24.0,2006,4.0,MEM,4.0,13.0
28.0,7.0,4.0,8.0,10.0,6.0,9.0,7.0,12.0,17.0,7.0,8.0,23.1,NBA,52.0,4.0,6.0,28.0,2007,4.0,HOU,5.0,10.0
29.0,6.0,5.0,8.0,7.0,6.0,8.0,5.0,10.0,15.0,5.0,8.0,20.8,NBA,47.0,6.0,6.0,20.0,2008,4.0,HOU,5.0,12.0
30.0,6.0,4.0,11.0,7.0,6.0,8.0,5.0,8.0,11.0,5.0,6.0,19.4,NBA,45.0,3.0,5.0,19.0,2009,5.0,HOU,3.0,12.0
31.0,7.0,7.0,9.0,8.0,5.0,10.0,6.0,9.0,15.0,6.0,6.0,22.6,NBA,50.0,7.0,5.0,23.0,2010,3.0,HOU,3.0,12.0
32.0,7.0,4.0,12.0,7.0,5.0,9.0,5.0,9.0,13.0,4.0,6.0,19.2,NBA,47.0,6.0,6.0,19.0,2011,4.0,TOT,5.0,13.0
32.0,7.0,4.0,12.0,7.0,5.0,9.0,5.0,9.0,13.0,4.0,6.0,19.2,NBA,47.0,3.0,6.0,19.0,2011,3.0,HOU,5.0,13.0
32.0,3.0,3.0,7.0,4.0,3.0,5.0,2.0,5.0,10.0,4.0,5.0,11.5,NBA,37.0,6.0,4.0,13.0,2011,4.0,MEM,2.0,11.0
33.0,5.0,4.0,5.0,6.0,3.0,5.0,6.0,9.0,11.0,2.0,3.0,21.0,NBA,50.0,4.0,6.0,18.0,2012,5.0,MIA,3.0,6.0
34.0,5.0,4.0,8.0,6.0,2.0,2.0,6.0,8.0,9.0,3.0,4.0,17.0,NBA,39.0,3.0,6.0,18.0,2013,3.0,MIA,2.0,8.0
35.0,5.0,3.0,5.0,5.0,3.0,4.0,4.0,8.0,9.0,2.0,4.0,13.9,NBA,40.0,3.0,4.0,16.0,2014,3.0,MIA,3.0,5.0
