age,ast,blk,drb,fg,fg2,fg2a,fg3,fg3a,fga,ft,fta,game_score,lg_id,mp,orb,pf,pts,season,stl,team_id,tov,trb
24.0,0.0,2.0,6.0,3.0,3.0,9.0,0.0,0.0,9.0,3.0,4.0,6.3,NBA,0.0,4.0,6.0,9.0,2004,2.0,TOT,1.0,8.0
24.0,0.0,2.0,6.0,3.0,3.0,9.0,0.0,0.0,9.0,3.0,4.0,6.3,NBA,0.0,4.0,6.0,9.0,2004,2.0,BOS,1.0,8.0
28.0,0.0,0.0,0.0,0.0,0.0,1.0,0.0,0.0,1.0,0.0,0.0,-2.5,NBA,3.0,0.0,2.0,0.0,2008,0.0,LAL,1.0,0.0
