age,ast,blk,drb,efg_pct,fg,fg2,fg2_pct,fg2a,fg3,fg3_pct,fg3a,fg_pct,fga,ft,ft_pct,fta,g,gs,lg_id,mp,orb,pf,pos,pts,season,stl,team_id,tov,trb
24.0,0.0,4.0,10.0,0.318,7.0,7.0,0.318,22.0,0.0,0.0,0.0,0.318,22.0,6.0,0.6,10.0,4.0,0.0,NBA,65.0,8.0,12.0,C,20.0,2004,4.0,BOS,3.0,18.0
28.0,0.0,0.0,0.0,0.0,0.0,0.0,0.0,1.0,0.0,0.0,0.0,0.0,1.0,0.0,0.0,0.0,1.0,0.0,NBA,3.0,0.0,2.0,C,0.0,2008,0.0,LAL,1.0,0.0
