age,ast,blk,drb,fg,fg2,fg2a,fg3,fg3a,fga,ft,fta,game_score,lg_id,mp,orb,pf,pts,season,stl,team_id,tov,trb
23.0,4.0,0.0,8.0,5.0,3.0,6.0,3.0,5.0,11.0,6.0,6.0,15.7,NBA,28,2.0,3.0,19.0,2019,2.0,BRK,3.0,8.0
24.0,2.0,0.0,1.0,1.0,1.0,1.0,0.0,3.0,4.0,2.0,2.0,2.3,NBA,9,0.0,0.0,4.0,2020,1.0,BRK,1.0,1.0
