age,and1s,astd_pts,drawn_offensive,drawn_shooting,fouls_offensive,fouls_shooting,g,lg_id,mp,own_shots_blk,pct_1,pct_2,pct_3,pct_4,pct_5,plus_minus_net,plus_minus_on,pos,season,team_id,tov_bad_pass,tov_lost_ball
23.0,0.0,49.0,0.0,8.0,2.0,6.0,18.0,NBA,211.0,4.0,4.0,59.0,34.0,3.0,0.0,-0.8,-0.9,SG,2019,BRK,12.0,3.0
24.0,0.0,7.0,0.0,1.0,0.0,0.0,2.0,NBA,10.0,1.0,100.0,0.0,0.0,0.0,0.0,-1.8,-4.0,SG,2020,BRK,1.0,0.0
