age,ast,blk,drb,efg_pct,fg,fg2,fg2_pct,fg2a,fg3,fg3_pct,fg3a,fg_pct,fga,ft,ft_pct,fta,g,gs,lg_id,mp,orb,pf,pos,pts,season,stl,team_id,tov,trb
23.0,21.0,0.0,32.0,0.425,25.0,13.0,0.481,27.0,12.0,0.261,46.0,0.342,73.0,19.0,0.864,22.0,18.0,0.0,NBA,211.0,4.0,15.0,SG,81.0,2019,6.0,BRK,18.0,36.0
24.0,3.0,0.0,2.0,0.25,1.0,1.0,1.0,1.0,0.0,0.0,3.0,0.25,4.0,2.0,1.0,2.0,2.0,0.0,NBA,10.0,0.0,0.0,SG,4.0,2020,1.0,BRK,1.0,2.0
