article_url,date,headline
https://hoopshabit.com/2019/11/14/brooklyn-nets-good-rebounds-bad-turnovers/,2019/11/14,Hoops Habit: The good (rebounds) and the bad (turnovers) so far for Brooklyn Nets
https://www.hoopsrumors.com/2019/10/2019-offseason-in-review-brooklyn-nets.html,2019/10/20,HoopsRumors: 2019 Offseason In Review: Brooklyn Nets
https://hoopshabit.com/2019/10/22/brooklyn-nets-evaluating-preseason-shooting/,2019/10/22,Hoops Habit: Looking at preseason deep shooting for 3-point heavy Nets
https://elitesportsny.com/2019/10/15/brooklyn-nets-are-already-blowing-projections-out-of-the-water-film-room/,2019/10/15,ESNY: Brooklyn Nets are already blowing projections out of the water (Film Room)
https://orlandomagicdaily.com/2019/09/22/2020-orlando-magic-player-outlook-josh-magette/,2019/09/22,Orlando Magic Daily: 2020 Orlando Magic Player Outlook: Josh Magette
