age,avg_dist,fg2_dunk,fg2_pct,fg2_pct_ast,fg2a_pct_fga,fg3_heave,fg3_pct,fg3_pct_ast,fg3_pct_corner,fg3a_heave,fg3a_pct_fga,fg_pct,fg_pct_00_03,fg_pct_03_10,fg_pct_10_16,fg_pct_16_xx,g,lg_id,mp,pct_fg2_dunk,pct_fg3a_corner,pct_fga_00_03,pct_fga_03_10,pct_fga_10_16,pct_fga_16_xx,pos,season,team_id
21.0,12.4,2.0,0.636,0.714,0.688,0.0,0.4,1.0,1.0,0.0,0.313,0.563,0.8,1.0,0.0,0.0,22.0,NBA,71.0,0.125,0.2,0.313,0.188,0.063,0.125,PF,2018,MIL
22.0,15.7,17.0,0.468,0.776,0.494,0.0,0.362,0.957,0.38,0.0,0.506,0.414,0.567,0.387,0.35,0.385,48.0,NBA,882.0,0.096,0.394,0.239,0.124,0.08,0.052,PF,2019,MIL
23.0,20.4,1.0,0.5,1.0,0.222,0.0,0.143,1.0,1.0,0.0,0.778,0.222,0.5,0.0,0.0,0.0,4.0,NBA,17.0,0.111,0.143,0.222,0.0,0.0,0.0,PF,2020,MIL
