age,ast,blk,drb,efg_pct,fg,fg2,fg2_pct,fg2a,fg3,fg3_pct,fg3a,fg_pct,fga,ft,ft_pct,fta,g,gs,lg_id,mp,orb,pf,pos,pts,season,stl,team_id,tov,trb
24.0,40.0,4.0,26.0,0.531,93.0,93.0,0.531,175.0,0.0,0.0,0.0,0.531,175.0,53.0,0.841,63.0,10.0,0.0,NBA,397.0,15.0,15.0,SG,239.0,1984,6.0,DAL,24.0,41.0
25.0,19.0,2.0,15.0,0.516,47.0,46.0,0.511,90.0,1.0,0.5,2.0,0.511,92.0,36.0,0.947,38.0,4.0,4.0,NBA,169.0,11.0,8.0,SG,131.0,1985,2.0,DAL,14.0,26.0
26.0,32.0,1.0,20.0,0.497,83.0,83.0,0.5,166.0,0.0,0.0,1.0,0.497,167.0,42.0,0.792,53.0,10.0,10.0,NBA,371.0,15.0,26.0,SG,208.0,1986,8.0,DAL,20.0,35.0
27.0,17.0,0.0,10.0,0.493,36.0,36.0,0.5,72.0,0.0,0.0,1.0,0.493,73.0,22.0,0.917,24.0,4.0,4.0,NBA,153.0,4.0,7.0,SG,94.0,1987,2.0,DAL,8.0,14.0
28.0,77.0,3.0,29.0,0.483,126.0,126.0,0.488,258.0,0.0,0.0,3.0,0.483,261.0,55.0,0.887,62.0,17.0,17.0,NBA,672.0,26.0,28.0,SG,307.0,1988,15.0,DAL,25.0,55.0
30.0,13.0,2.0,7.0,0.463,24.0,22.0,0.449,49.0,2.0,0.4,5.0,0.444,54.0,10.0,1.0,10.0,3.0,3.0,NBA,127.0,2.0,7.0,SG,60.0,1990,6.0,DAL,13.0,9.0
33.0,16.0,2.0,13.0,0.375,22.0,18.0,0.367,49.0,4.0,0.267,15.0,0.344,64.0,15.0,0.833,18.0,15.0,0.0,NBA,214.0,4.0,22.0,SG,63.0,1993,3.0,NYK,21.0,17.0
34.0,3.0,0.0,2.0,0.364,3.0,1.0,0.143,7.0,2.0,0.5,4.0,0.273,11.0,0.0,0.0,0.0,6.0,0.0,NBA,34.0,1.0,6.0,SG,8.0,1994,0.0,NYK,1.0,3.0
