age,ast_per_g,blk_per_g,drb_per_g,efg_pct,fg2_pct,fg2_per_g,fg2a_per_g,fg3_pct,fg3_per_g,fg3a_per_g,fg_pct,fg_per_g,fga_per_g,ft_pct,ft_per_g,fta_per_g,g,gs,lg_id,mp_per_g,orb_per_g,pf_per_g,pos,pts_per_g,season,stl_per_g,team_id,tov_per_g,trb_per_g
24.0,4.0,0.4,2.6,0.531,0.531,9.3,17.5,0.0,0.0,0.0,0.531,9.3,17.5,0.841,5.3,6.3,10.0,0.0,NBA,39.7,1.5,1.5,SG,23.9,1984,0.6,DAL,2.4,4.1
25.0,4.8,0.5,3.8,0.516,0.511,11.5,22.5,0.5,0.3,0.5,0.511,11.8,23.0,0.947,9.0,9.5,4.0,4.0,NBA,42.3,2.8,2.0,SG,32.8,1985,0.5,DAL,3.5,6.5
26.0,3.2,0.1,2.0,0.497,0.5,8.3,16.6,0.0,0.0,0.1,0.497,8.3,16.7,0.792,4.2,5.3,10.0,10.0,NBA,37.1,1.5,2.6,SG,20.8,1986,0.8,DAL,2.0,3.5
27.0,4.3,0.0,2.5,0.493,0.5,9.0,18.0,0.0,0.0,0.3,0.493,9.0,18.3,0.917,5.5,6.0,4.0,4.0,NBA,38.3,1.0,1.8,SG,23.5,1987,0.5,DAL,2.0,3.5
28.0,4.5,0.2,1.7,0.483,0.488,7.4,15.2,0.0,0.0,0.2,0.483,7.4,15.4,0.887,3.2,3.6,17.0,17.0,NBA,39.5,1.5,1.6,SG,18.1,1988,0.9,DAL,1.5,3.2
30.0,4.3,0.7,2.3,0.463,0.449,7.3,16.3,0.4,0.7,1.7,0.444,8.0,18.0,1.0,3.3,3.3,3.0,3.0,NBA,42.3,0.7,2.3,SG,20.0,1990,2.0,DAL,4.3,3.0
33.0,1.1,0.1,0.9,0.375,0.367,1.2,3.3,0.267,0.3,1.0,0.344,1.5,4.3,0.833,1.0,1.2,15.0,0.0,NBA,14.3,0.3,1.5,SG,4.2,1993,0.2,NYK,1.4,1.1
34.0,0.5,0.0,0.3,0.364,0.143,0.2,1.2,0.5,0.3,0.7,0.273,0.5,1.8,0.0,0.0,0.0,6.0,0.0,NBA,5.7,0.2,1.0,SG,1.3,1994,0.0,NYK,0.2,0.5
