age,ast,ast_per_g,blk,college_id,fg,fg3,fg3_pct,fg3a,fg_pct,fga,ft,ft_pct,fta,g,mp,mp_per_g,orb,pf,pts,pts_per_g,season,stl,tov,trb,trb_per_g
18.0,69.0,4.3,1.0,UCONN,17.0,3.0,0.176,17.0,0.37,46.0,9.0,0.692,13.0,16.0,226.0,14.1,0.0,0.0,46.0,2.9,2004,16.0,0.0,21.0,1.3
19.0,243.0,7.8,8.0,UCONN,103.0,27.0,0.403,67.0,0.404,255.0,64.0,0.719,89.0,31.0,961.0,31.0,0.0,0.0,297.0,9.6,2005,35.0,0.0,117.0,3.8
20.0,198.0,8.6,5.0,UCONN,83.0,24.0,0.4,60.0,0.407,204.0,94.0,0.862,109.0,23.0,767.0,33.3,0.0,0.0,284.0,12.3,2006,21.0,0.0,89.0,3.9
