age,ast_per_mp,blk_per_mp,drb_per_mp,fg2_pct,fg2_per_mp,fg2a_per_mp,fg3_pct,fg3_per_mp,fg3a_per_mp,fg_pct,fg_per_mp,fga_per_mp,ft_pct,ft_per_mp,fta_per_mp,g,gs,lg_id,mp,orb_per_mp,pf_per_mp,pos,pts_per_mp,season,stl_per_mp,team_id,tov_per_mp,trb_per_mp
21.0,7.1,0.1,3.7,0.446,4.4,9.9,0.282,1.3,4.5,0.395,5.7,14.4,0.847,2.0,2.3,79.0,2.0,NBA,1315.0,0.8,2.6,PG,14.6,2007,0.8,NJN,3.9,4.5
22.0,5.9,0.1,3.7,0.377,2.4,6.4,0.38,2.3,6.0,0.379,4.7,12.4,0.787,1.6,2.0,53.0,7.0,NBA,854.0,0.6,2.2,PG,13.2,2008,1.1,NJN,3.2,4.3
23.0,8.7,0.7,2.7,0.182,1.3,7.3,0.333,1.3,4.0,0.235,2.7,11.3,0.333,1.3,4.0,9.0,0.0,NBA,54.0,0.0,4.0,PG,8.0,2009,0.7,GSW,2.7,2.7
24.0,6.6,0.0,3.3,0.421,3.3,7.8,0.296,1.0,3.3,0.384,4.3,11.2,0.673,1.5,2.3,62.0,1.0,NBA,872.0,0.5,1.8,PG,11.1,2010,1.3,MEM,3.1,3.8
