age,ast_per_poss,blk_per_poss,def_rtg,drb_per_poss,fg2_pct,fg2_per_poss,fg2a_per_poss,fg3_pct,fg3_per_poss,fg3a_per_poss,fg_pct,fg_per_poss,fga_per_poss,ft_pct,ft_per_poss,fta_per_poss,g,gs,lg_id,mp,off_rtg,orb_per_poss,pf_per_poss,pos,pts_per_poss,season,stl_per_poss,team_id,tov_per_poss,trb_per_poss
22.0,0.0,1.6,104.0,6.5,0.471,13.0,27.5,0.0,0.0,6.5,0.381,13.0,34.0,0.889,13.0,14.6,9.0,0.0,NBA,33.0,83.0,3.2,4.9,SG,38.9,1998,1.6,SEA,9.7,9.7
23.0,0.0,0.0,104.0,7.3,0.4,5.4,13.6,0.0,0.0,2.7,0.333,5.4,16.3,0.722,11.8,16.3,10.0,0.0,NBA,59.0,99.0,1.8,5.4,SG,22.7,1999,2.7,SEA,2.7,9.1
