age,ast,blk,drb,fg,fg2,fg2a,fg3,fg3a,fga,ft,fta,game_score,lg_id,mp,orb,pf,pts,season,stl,team_id,tov,trb
22.0,0.0,1.0,2.0,3.0,3.0,4.0,0.0,2.0,6.0,2.0,2.0,7.4,NBA,0.0,1.0,2.0,8.0,1998,1.0,SEA,3.0,3.0
23.0,0.0,0.0,3.0,4.0,4.0,8.0,0.0,2.0,9.0,3.0,4.0,6.4,NBA,0.0,1.0,2.0,10.0,1999,2.0,SEA,1.0,3.0
