age,ast_per_mp,blk_per_mp,drb_per_mp,fg2_pct,fg2_per_mp,fg2a_per_mp,fg3_pct,fg3_per_mp,fg3a_per_mp,fg_pct,fg_per_mp,fga_per_mp,ft_pct,ft_per_mp,fta_per_mp,g,gs,lg_id,mp,orb_per_mp,pf_per_mp,pos,pts_per_mp,season,stl_per_mp,team_id,tov_per_mp,trb_per_mp
22.0,0.0,1.1,4.4,0.471,8.7,18.5,0.0,0.0,4.4,0.381,8.7,22.9,0.889,8.7,9.8,9.0,0.0,NBA,33.0,2.2,3.3,SG,26.2,1998,1.1,SEA,6.5,6.5
23.0,0.0,0.0,4.9,0.4,3.7,9.2,0.0,0.0,1.8,0.333,3.7,11.0,0.722,7.9,11.0,10.0,0.0,NBA,59.0,1.2,3.7,SG,15.3,1999,1.8,SEA,1.8,6.1
