age,ast_pct,blk_pct,bpm,bpm-dum,dbpm,drb_pct,dws,fg3a_per_fga_pct,fta_per_fga_pct,g,lg_id,mp,obpm,orb_pct,ows,per,pos,season,stl_pct,team_id,tov_pct,trb_pct,ts_pct,usg_pct,vorp,ws,ws-dum,ws_per_48
22.0,1.8,3.2,0.1,0.0,2.1,14.6,1.8,0.0,0.412,69.0,NBA,997.0,-2.1,9.8,1.1,12.1,PF,1996,2.6,DET,15.7,12.3,0.595,12.5,0.5,2.9,0.0,0.141
23.0,5.1,2.7,-1.9,0.0,1.2,17.1,0.8,0.009,0.286,47.0,NBA,462.0,-3.1,9.9,0.3,11.1,PF,1997,2.0,DET,15.4,13.6,0.523,16.0,0.0,1.0,0.0,0.109
24.0,4.2,4.2,0.8,0.0,2.0,11.8,1.3,0.0,0.403,68.0,NBA,994.0,-1.2,9.2,1.5,11.4,PF,1998,1.4,DET,11.9,10.5,0.574,11.0,0.7,2.8,0.0,0.135
25.0,6.0,3.7,1.7,0.0,2.2,13.7,1.3,0.0,0.454,47.0,NBA,935.0,-0.5,8.6,1.4,12.5,PF,1999,1.6,DET,14.7,11.1,0.58,12.4,0.9,2.7,0.0,0.139
26.0,3.5,4.5,0.3,0.0,2.3,16.6,0.7,0.0,0.304,38.0,NBA,498.0,-2.0,7.1,0.5,12.1,PF,2000,2.5,TOT,15.3,11.8,0.567,13.3,0.3,1.1,0.0,0.11
26.0,0.9,5.3,-5.6,0.0,1.2,14.0,0.2,0.0,0.176,21.0,NBA,165.0,-6.8,3.5,-0.2,4.1,PF,2000,1.5,DET,23.1,8.8,0.478,12.7,-0.2,0.0,0.0,-0.006
26.0,4.8,4.1,3.2,0.0,2.9,17.8,0.5,0.0,0.359,17.0,NBA,333.0,0.3,8.9,0.7,16.0,PF,2000,3.0,WAS,11.7,13.3,0.603,13.6,0.4,1.2,0.0,0.167
27.0,4.2,5.2,-0.6,0.0,2.2,23.5,1.4,0.0,0.517,65.0,NBA,764.0,-2.8,11.9,0.8,13.1,PF,2001,1.6,ORL,21.2,17.6,0.59,13.1,0.3,2.3,0.0,0.141
28.0,5.8,4.3,-3.2,0.0,1.0,17.5,0.9,0.0,0.358,68.0,NBA,714.0,-4.2,10.1,0.0,10.1,PF,2002,1.4,ORL,19.7,13.8,0.509,17.2,-0.2,0.9,0.0,0.062
29.0,0.0,0.0,-19.5,0.0,-4.7,0.0,0.0,0.0,0.667,1.0,NBA,10.0,-14.7,0.0,-0.1,-17.3,PF,2003,0.0,DET,0.0,0.0,0.129,18.7,0.0,-0.1,0.0,-0.285
