age,ast,blk,drb,fg,fg2,fg2a,fg3,fg3a,fga,ft,fta,game_score,lg_id,mp,orb,pf,pts,season,stl,team_id,tov,trb
24.0,1.0,2.0,5.0,2.0,2.0,3.0,0.0,0.0,3.0,1.0,2.0,6.5,NBA,21,3.0,4.0,5.0,2011,1.0,CHI,2.0,8.0
25.0,2.0,3.0,6.0,3.0,3.0,6.0,0.0,0.0,6.0,4.0,7.0,8.2,NBA,40,3.0,5.0,10.0,2012,1.0,CHI,2.0,9.0
26.0,2.0,4.0,11.0,7.0,7.0,10.0,0.0,0.0,10.0,13.0,18.0,17.9,NBA,41,8.0,4.0,21.0,2013,1.0,HOU,3.0,14.0
27.0,2.0,1.0,9.0,5.0,5.0,12.0,0.0,0.0,12.0,2.0,2.0,6.2,NBA,34,6.0,6.0,10.0,2014,2.0,HOU,3.0,15.0
28.0,2.0,0.0,7.0,1.0,1.0,4.0,0.0,0.0,4.0,2.0,4.0,5.0,NBA,24,6.0,5.0,3.0,2015,2.0,NOP,3.0,13.0
