age,ast,blk,drb,efg_pct,fg,fg2,fg2_pct,fg2a,fg3,fg3_pct,fg3a,fg_pct,fga,ft,ft_pct,fta,g,gs,lg_id,mp,orb,pf,pos,pts,season,stl,team_id,tov,trb
24.0,32.0,56.0,194.0,0.553,78.0,78.0,0.553,141.0,0.0,0.0,0.0,0.553,141.0,73.0,0.503,145.0,82.0,0.0,NBA,989.0,112.0,153.0,C,229.0,2011,20.0,CHI,64.0,306.0
25.0,32.0,68.0,223.0,0.506,79.0,79.0,0.506,156.0,0.0,0.0,0.0,0.506,156.0,47.0,0.456,103.0,66.0,2.0,NBA,971.0,127.0,121.0,C,205.0,2012,30.0,CHI,68.0,350.0
26.0,75.0,87.0,681.0,0.541,332.0,332.0,0.542,613.0,0.0,0.0,1.0,0.541,614.0,168.0,0.562,299.0,82.0,82.0,NBA,2464.0,275.0,223.0,C,832.0,2013,46.0,HOU,173.0,956.0
27.0,25.0,37.0,277.0,0.532,101.0,101.0,0.532,190.0,0.0,0.0,0.0,0.532,190.0,78.0,0.619,126.0,48.0,19.0,NBA,968.0,101.0,92.0,C,280.0,2014,14.0,HOU,59.0,378.0
28.0,72.0,54.0,504.0,0.517,213.0,213.0,0.517,412.0,0.0,0.0,0.0,0.517,412.0,131.0,0.582,225.0,76.0,76.0,NBA,1982.0,244.0,144.0,C,557.0,2015,29.0,NOP,95.0,748.0
29.0,26.0,23.0,294.0,0.533,104.0,104.0,0.533,195.0,0.0,0.0,0.0,0.533,195.0,61.0,0.545,112.0,68.0,64.0,NBA,1178.0,120.0,124.0,C,269.0,2016,21.0,NOP,60.0,414.0
30.0,15.0,10.0,115.0,0.477,31.0,31.0,0.477,65.0,0.0,0.0,0.0,0.477,65.0,23.0,0.59,39.0,31.0,19.0,NBA,482.0,48.0,51.0,C,85.0,2017,5.0,NOP,14.0,163.0
31.0,3.0,4.0,38.0,0.409,9.0,9.0,0.409,22.0,0.0,0.0,0.0,0.409,22.0,4.0,0.308,13.0,18.0,0.0,NBA,182.0,9.0,20.0,C,22.0,2018,2.0,TOT,9.0,47.0
31.0,2.0,2.0,30.0,0.438,7.0,7.0,0.438,16.0,0.0,0.0,0.0,0.438,16.0,4.0,0.333,12.0,14.0,0.0,NBA,121.0,7.0,14.0,C,18.0,2018,1.0,NOP,5.0,37.0
31.0,1.0,2.0,8.0,0.333,2.0,2.0,0.333,6.0,0.0,0.0,0.0,0.333,6.0,0.0,0.0,1.0,4.0,0.0,NBA,61.0,2.0,6.0,C,4.0,2018,1.0,CHI,4.0,10.0
