age,ast,ast_per_g,blk,college_id,fg,fg3,fg3_pct,fg3a,fg_pct,fga,ft,ft_pct,fta,g,mp,mp_per_g,orb,pf,pts,pts_per_g,season,stl,tov,trb,trb_per_g
20.0,42.0,1.1,4.0,MISSOURI,82.0,41.0,0.373,110.0,0.387,212.0,42.0,0.724,58.0,38.0,0.0,0.0,0.0,0.0,247.0,6.5,2009,19.0,39.0,62.0,1.6
21.0,39.0,1.1,3.0,MISSOURI,156.0,68.0,0.37,184.0,0.393,397.0,95.0,0.731,130.0,34.0,818.0,24.1,29.0,58.0,475.0,14.0,2010,45.0,71.0,115.0,3.4
22.0,67.0,2.0,11.0,MISSOURI,106.0,52.0,0.366,142.0,0.366,290.0,77.0,0.726,106.0,34.0,869.0,25.6,16.0,58.0,341.0,10.0,2011,42.0,67.0,105.0,3.1
23.0,56.0,1.6,10.0,MISSOURI,171.0,78.0,0.459,170.0,0.521,328.0,87.0,0.725,120.0,35.0,1175.0,33.6,30.0,83.0,507.0,14.5,2012,45.0,59.0,148.0,4.2
