age,ast_per_mp,blk_per_mp,drb_per_mp,fg2_pct,fg2_per_mp,fg2a_per_mp,fg3_pct,fg3_per_mp,fg3a_per_mp,fg_pct,fg_per_mp,fga_per_mp,ft_pct,ft_per_mp,fta_per_mp,g,gs,lg_id,mp,orb_per_mp,pf_per_mp,pos,pts_per_mp,season,stl_per_mp,team_id,tov_per_mp,trb_per_mp
21.0,1.6,1.1,4.9,0.539,3.9,7.2,0.0,0.0,0.0,0.537,3.9,7.3,0.532,1.1,2.1,57.0,20.0,NBA,1078.0,3.4,5.2,PF,8.9,2012,1.3,WAS,2.0,8.3
22.0,1.7,1.0,4.7,0.504,3.4,6.8,0.0,0.0,0.1,0.5,3.4,6.8,0.308,0.7,2.3,51.0,4.0,NBA,601.0,2.6,6.4,PF,7.5,2013,0.9,WAS,1.6,7.3
23.0,1.0,1.6,5.1,0.514,4.1,8.0,0.0,0.0,0.0,0.514,4.1,8.0,0.339,0.9,2.6,54.0,1.0,NBA,776.0,3.8,5.6,PF,9.1,2014,2.5,TOT,1.7,8.9
23.0,0.8,1.5,4.6,0.522,3.7,7.0,0.0,0.0,0.0,0.522,3.7,7.0,0.267,0.6,2.3,33.0,1.0,NBA,470.0,4.1,4.9,PF,8.0,2014,2.0,WAS,1.7,8.7
23.0,1.3,1.9,5.9,0.506,4.8,9.5,0.0,0.0,0.0,0.506,4.8,9.5,0.423,1.3,3.1,21.0,0.0,NBA,306.0,3.3,6.7,PF,10.9,2014,3.2,DEN,1.6,9.2
