age,ast_per_g,blk_per_g,drb_per_g,efg_pct,fg2_pct,fg2_per_g,fg2a_per_g,fg3_pct,fg3_per_g,fg3a_per_g,fg_pct,fg_per_g,fga_per_g,ft_pct,ft_per_g,fta_per_g,g,gs,lg_id,mp_per_g,orb_per_g,pf_per_g,pos,pts_per_g,season,stl_per_g,team_id,tov_per_g,trb_per_g
21.0,0.8,0.6,2.6,0.537,0.539,2.1,3.8,0.0,0.0,0.0,0.537,2.1,3.8,0.532,0.6,1.1,57.0,20.0,NBA,18.9,1.8,2.7,PF,4.7,2012,0.7,WAS,1.1,4.4
22.0,0.5,0.3,1.5,0.5,0.504,1.1,2.2,0.0,0.0,0.0,0.5,1.1,2.2,0.308,0.2,0.8,51.0,4.0,NBA,11.8,0.8,2.1,PF,2.5,2013,0.3,WAS,0.5,2.4
23.0,0.4,0.6,2.0,0.514,0.514,1.6,3.2,0.0,0.0,0.0,0.514,1.6,3.2,0.339,0.4,1.0,54.0,1.0,NBA,14.4,1.5,2.2,PF,3.6,2014,1.0,TOT,0.7,3.5
23.0,0.3,0.6,1.8,0.522,0.522,1.5,2.8,0.0,0.0,0.0,0.522,1.5,2.8,0.267,0.2,0.9,33.0,1.0,NBA,14.2,1.6,1.9,PF,3.2,2014,0.8,WAS,0.7,3.4
23.0,0.5,0.8,2.4,0.506,0.506,2.0,3.9,0.0,0.0,0.0,0.506,2.0,3.9,0.423,0.5,1.2,21.0,0.0,NBA,14.6,1.3,2.7,PF,4.4,2014,1.3,DEN,0.7,3.7
