age,avg_dist,fg2_dunk,fg2_pct,fg2_pct_ast,fg2a_pct_fga,fg3_heave,fg3_pct,fg3_pct_ast,fg3_pct_corner,fg3a_heave,fg3a_pct_fga,fg_pct,fg_pct_00_03,fg_pct_03_10,fg_pct_10_16,fg_pct_16_xx,g,lg_id,mp,pct_fg2_dunk,pct_fg3a_corner,pct_fga_00_03,pct_fga_03_10,pct_fga_10_16,pct_fga_16_xx,pos,season,team_id
21.0,13.1,6.0,0.442,0.455,0.743,0.0,0.326,0.821,0.359,0.0,0.257,0.412,0.568,0.319,0.282,0.453,74.0,NBA,1245.0,0.018,0.453,0.263,0.14,0.116,0.224,SF,2001,SAC
22.0,14.2,20.0,0.44,0.471,0.751,0.0,0.368,0.905,0.382,1.0,0.249,0.422,0.523,0.372,0.41,0.418,80.0,NBA,1970.0,0.031,0.199,0.217,0.114,0.146,0.275,SF,2002,SAC
23.0,14.4,9.0,0.435,0.485,0.801,0.0,0.372,0.966,0.167,1.0,0.199,0.422,0.573,0.298,0.45,0.396,67.0,NBA,1175.0,0.028,0.154,0.21,0.12,0.102,0.368,SF,2003,SAC
24.0,16.2,11.0,0.399,0.547,0.626,0.0,0.419,0.921,0.506,1.0,0.374,0.406,0.532,0.288,0.329,0.384,80.0,NBA,2073.0,0.019,0.353,0.169,0.102,0.109,0.247,SF,2004,SAS
25.0,15.2,25.0,0.438,0.451,0.687,0.0,0.38,0.839,0.24,2.0,0.313,0.419,0.619,0.333,0.4,0.321,67.0,NBA,1757.0,0.035,0.102,0.231,0.077,0.128,0.251,SF,2005,ORL
26.0,15.2,19.0,0.478,0.38,0.677,0.0,0.403,0.921,0.542,3.0,0.323,0.454,0.55,0.348,0.443,0.471,78.0,NBA,2615.0,0.024,0.17,0.23,0.075,0.139,0.233,SF,2006,ORL
27.0,15.1,7.0,0.435,0.407,0.659,0.0,0.388,0.945,0.406,2.0,0.341,0.419,0.555,0.324,0.513,0.299,73.0,NBA,2268.0,0.012,0.228,0.221,0.09,0.145,0.203,SF,2007,ORL
28.0,13.6,25.0,0.485,0.246,0.66,0.0,0.4,0.777,0.479,4.0,0.34,0.456,0.587,0.364,0.392,0.406,82.0,NBA,3026.0,0.025,0.176,0.317,0.081,0.126,0.135,SF,2008,ORL
29.0,15.1,5.0,0.445,0.218,0.633,0.0,0.356,0.799,0.325,5.0,0.367,0.413,0.538,0.299,0.47,0.351,77.0,NBA,2815.0,0.006,0.106,0.26,0.075,0.129,0.17,SF,2009,ORL
30.0,16.6,14.0,0.436,0.31,0.571,0.0,0.374,0.787,0.467,7.0,0.429,0.409,0.532,0.452,0.344,0.357,74.0,NBA,2272.0,0.025,0.104,0.231,0.062,0.091,0.187,SF,2010,TOR
31.0,17.9,4.0,0.473,0.297,0.571,0.0,0.41,0.756,0.488,2.0,0.429,0.446,0.594,0.35,0.457,0.457,81.0,NBA,2540.0,0.011,0.139,0.133,0.083,0.112,0.242,SF-PF,2011,TOT
31.0,17.7,1.0,0.458,0.341,0.497,0.0,0.423,0.927,0.625,0.0,0.503,0.44,0.567,0.348,0.5,0.424,25.0,NBA,630.0,0.01,0.082,0.155,0.119,0.052,0.171,PF,2011,PHO
31.0,18.0,3.0,0.478,0.285,0.597,0.0,0.404,0.674,0.457,2.0,0.403,0.448,0.606,0.351,0.451,0.465,56.0,NBA,1910.0,0.011,0.164,0.125,0.07,0.134,0.268,SF,2011,ORL
32.0,18.1,2.0,0.48,0.254,0.488,0.0,0.353,0.571,0.326,1.0,0.512,0.415,0.663,0.391,0.375,0.363,53.0,NBA,1653.0,0.006,0.167,0.183,0.046,0.079,0.181,SF,2012,ORL
33.0,15.4,0.0,0.448,0.385,0.547,0.0,0.042,0.0,0.0,0.0,0.453,0.264,0.692,0.429,0.0,0.167,11.0,NBA,189.0,0.0,0.167,0.245,0.132,0.057,0.113,SF,2013,ORL
34.0,17.3,1.0,0.339,0.7,0.541,0.0,0.44,0.909,0.375,0.0,0.459,0.385,0.533,0.267,0.125,0.333,38.0,NBA,392.0,0.009,0.16,0.138,0.138,0.073,0.193,SF,2014,LAC
35.0,21.4,1.0,0.469,0.565,0.261,0.0,0.432,0.9,0.563,0.0,0.739,0.441,0.714,0.333,0.5,0.348,62.0,NBA,705.0,0.005,0.23,0.074,0.032,0.032,0.122,SF,2015,LAC
