age,ast_per_poss,blk_per_poss,def_rtg,drb_per_poss,fg2_pct,fg2_per_poss,fg2a_per_poss,fg3_pct,fg3_per_poss,fg3a_per_poss,fg_pct,fg_per_poss,fga_per_poss,ft_pct,ft_per_poss,fta_per_poss,g,gs,lg_id,mp,off_rtg,orb_per_poss,pf_per_poss,pos,pts_per_poss,season,stl_per_poss,team_id,tov_per_poss,trb_per_poss
21.0,2.8,1.0,100.0,6.6,0.442,4.5,10.2,0.326,1.1,3.5,0.412,5.6,13.7,0.777,3.6,4.6,74.0,7.0,NBA,1245.0,103.0,2.0,5.7,SF,16.0,2001,2.1,SAC,2.2,8.6
22.0,4.2,0.8,102.0,7.6,0.44,5.8,13.2,0.368,1.6,4.4,0.422,7.4,17.5,0.726,4.3,5.9,80.0,10.0,NBA,1970.0,107.0,1.6,4.7,SF,20.7,2002,1.5,SAC,2.1,9.3
23.0,3.7,0.5,102.0,6.6,0.435,5.8,13.4,0.372,1.2,3.3,0.422,7.1,16.7,0.8,3.8,4.7,67.0,11.0,NBA,1175.0,104.0,1.5,5.4,SF,19.1,2003,1.1,SAC,2.1,8.1
24.0,4.0,0.8,94.0,7.9,0.399,4.2,10.5,0.419,2.6,6.3,0.406,6.8,16.7,0.708,3.0,4.2,80.0,44.0,NBA,2073.0,104.0,1.3,4.3,SF,19.2,2004,2.1,SAS,2.4,9.3
25.0,4.4,0.5,110.0,4.9,0.438,6.8,15.5,0.38,2.7,7.1,0.419,9.5,22.6,0.836,5.4,6.5,67.0,11.0,NBA,1757.0,107.0,1.8,4.0,SF,27.0,2005,1.2,ORL,3.4,6.7
26.0,4.5,0.4,109.0,5.5,0.478,5.9,12.3,0.403,2.4,5.9,0.454,8.3,18.2,0.861,5.3,6.2,78.0,59.0,NBA,2615.0,116.0,1.5,4.9,SF,24.2,2006,1.5,ORL,2.7,6.9
27.0,5.5,0.4,105.0,5.6,0.435,5.6,12.8,0.388,2.6,6.6,0.419,8.1,19.4,0.781,4.0,5.2,73.0,73.0,NBA,2268.0,106.0,1.3,5.2,SF,22.8,2007,1.6,ORL,3.4,6.9
28.0,6.9,0.4,107.0,6.6,0.485,6.6,13.7,0.4,2.8,7.1,0.456,9.4,20.7,0.829,5.5,6.6,82.0,82.0,NBA,3026.0,111.0,1.4,4.1,SF,27.2,2008,1.3,ORL,4.2,8.0
29.0,6.9,0.4,104.0,6.7,0.445,5.3,12.0,0.356,2.5,6.9,0.413,7.8,18.9,0.807,5.8,7.2,77.0,77.0,NBA,2815.0,107.0,0.8,4.0,SF,23.9,2009,1.2,ORL,3.8,7.6
30.0,6.9,0.7,113.0,6.8,0.436,3.8,8.7,0.374,2.5,6.6,0.409,6.3,15.3,0.774,4.0,5.1,74.0,69.0,NBA,2272.0,109.0,1.0,5.0,SF,19.0,2010,1.2,TOR,2.8,7.8
31.0,7.0,0.7,105.0,6.4,0.473,4.0,8.5,0.41,2.6,6.4,0.446,6.6,14.8,0.679,2.2,3.2,81.0,72.0,NBA,2540.0,112.0,0.9,5.1,SF-PF,18.0,2011,1.5,TOT,2.7,7.3
31.0,4.7,1.1,110.0,6.5,0.458,3.6,7.7,0.423,3.3,7.8,0.44,6.9,15.6,0.722,2.1,2.9,25.0,16.0,NBA,630.0,110.0,1.6,6.2,PF,19.1,2011,1.5,PHO,2.5,8.1
31.0,7.9,0.6,103.0,6.4,0.478,4.2,8.7,0.404,2.4,5.9,0.448,6.5,14.6,0.667,2.2,3.3,56.0,56.0,NBA,1910.0,112.0,0.7,4.7,SF,17.6,2011,1.5,ORL,2.8,7.1
32.0,7.6,0.6,106.0,5.7,0.48,3.8,8.0,0.353,3.0,8.4,0.415,6.8,16.4,0.705,2.2,3.1,53.0,53.0,NBA,1653.0,99.0,0.8,4.5,SF,18.8,2012,1.5,ORL,4.6,6.5
33.0,6.3,0.3,109.0,6.1,0.448,3.6,8.0,0.042,0.3,6.6,0.264,3.9,14.6,0.5,0.8,1.7,11.0,1.0,NBA,189.0,68.0,1.1,3.0,SF,8.8,2013,1.9,ORL,3.3,7.2
34.0,4.2,1.3,101.0,10.0,0.339,2.6,7.5,0.44,2.8,6.4,0.385,5.4,13.9,0.5,1.1,2.3,38.0,0.0,NBA,392.0,101.0,1.4,6.4,SF,14.7,2014,2.4,LAC,2.0,11.4
35.0,2.7,0.5,107.0,6.8,0.469,1.7,3.5,0.432,4.3,10.0,0.441,6.0,13.5,0.545,0.4,0.8,62.0,2.0,NBA,705.0,107.0,0.4,4.7,SF,16.7,2015,1.4,LAC,2.1,7.1
