age,ast_per_g,blk_per_g,drb_per_g,efg_pct,fg2_pct,fg2_per_g,fg2a_per_g,fg3_pct,fg3_per_g,fg3a_per_g,fg_pct,fg_per_g,fga_per_g,ft_pct,ft_per_g,fta_per_g,g,gs,lg_id,mp_per_g,orb_per_g,pf_per_g,pos,pts_per_g,season,stl_per_g,team_id,tov_per_g,trb_per_g
18.0,0.3,0.0,0.0,0.286,0.286,0.7,2.3,0.0,0.0,0.0,0.286,0.7,2.3,0.0,0.0,0.0,3.0,0.0,NBA,3.7,0.0,1.3,C,1.3,1999,0.0,DAL,0.3,0.0
19.0,0.1,0.1,0.5,0.387,0.387,0.9,2.2,0.0,0.0,0.0,0.387,0.9,2.2,1.0,0.1,0.1,14.0,0.0,NBA,4.4,0.4,1.1,C,1.9,2000,0.1,DAL,0.3,0.9
20.0,0.2,0.4,1.7,0.488,0.541,1.8,3.4,0.0,0.0,0.4,0.488,1.8,3.7,0.6,0.3,0.5,11.0,4.0,NBA,10.9,0.4,1.9,C,3.9,2001,0.2,IND,0.3,2.1
21.0,0.1,0.1,0.6,0.4,0.41,0.7,1.8,0.0,0.0,0.0,0.4,0.7,1.8,0.0,0.0,0.1,22.0,0.0,NBA,4.0,0.3,0.7,C,1.5,2002,0.1,IND,0.2,1.0
22.0,0.3,0.1,0.8,0.286,0.25,0.4,1.5,0.25,0.2,0.6,0.25,0.5,2.2,0.0,0.0,0.1,26.0,0.0,NBA,5.3,0.3,0.9,C,1.2,2003,0.2,BOS,0.3,1.1
23.0,0.2,0.0,1.6,0.4,0.4,0.8,2.0,0.0,0.0,0.0,0.4,0.8,2.0,0.5,0.6,1.2,5.0,0.0,NBA,6.6,0.4,1.8,C,2.2,2004,0.0,TOT,0.6,2.0
23.0,0.0,0.0,2.0,0.333,0.333,0.8,2.3,0.0,0.0,0.0,0.333,0.8,2.3,0.5,0.8,1.5,4.0,0.0,NBA,7.3,0.5,1.8,C,2.3,2004,0.0,CLE,0.8,2.5
23.0,1.0,0.0,0.0,1.0,1.0,1.0,1.0,0.0,0.0,0.0,1.0,1.0,1.0,0.0,0.0,0.0,1.0,0.0,NBA,4.0,0.0,2.0,C,2.0,2004,0.0,NYK,0.0,0.0
24.0,0.1,0.1,0.3,0.311,0.294,0.5,1.6,0.333,0.0,0.1,0.297,0.5,1.8,1.0,0.1,0.1,21.0,0.0,NBA,3.5,0.3,0.8,C,1.2,2005,0.1,NYK,0.3,0.6
