age,ast_per_g,blk_per_g,drb_per_g,efg_pct,fg2_pct,fg2_per_g,fg2a_per_g,fg3_pct,fg3_per_g,fg3a_per_g,fg_pct,fg_per_g,fga_per_g,ft_pct,ft_per_g,fta_per_g,g,gs,lg_id,mp_per_g,orb_per_g,pf_per_g,pos,pts_per_g,season,stl_per_g,team_id,tov_per_g,trb_per_g
23.0,2.2,0.4,5.8,0.48,0.48,7.9,16.5,0.333,0.0,0.1,0.479,8.0,16.6,0.73,3.9,5.4,78.0,0.0,NBA,36.6,3.1,2.6,SF,19.9,1980,1.3,TOT,2.5,8.9
23.0,2.1,0.4,6.4,0.48,0.481,7.9,16.5,0.2,0.0,0.1,0.479,7.9,16.6,0.711,3.8,5.3,53.0,0.0,NBA,38.6,3.3,2.8,SF,19.7,1980,1.5,NJN,2.5,9.7
23.0,2.3,0.5,4.5,0.482,0.48,8.0,16.6,0.5,0.1,0.2,0.48,8.0,16.8,0.77,4.3,5.6,25.0,0.0,NBA,32.4,2.6,2.3,SF,20.4,1980,1.0,POR,2.6,7.1
24.0,2.1,0.2,3.8,0.5,0.497,5.3,10.6,0.5,0.1,0.1,0.497,5.3,10.7,0.707,2.7,3.8,74.0,0.0,NBA,28.5,2.0,2.5,SF,13.4,1981,1.0,POR,2.2,5.8
25.0,2.0,0.5,5.6,0.577,0.579,6.8,11.8,0.25,0.0,0.1,0.576,6.9,11.9,0.75,3.9,5.2,75.0,71.0,NBA,34.7,2.6,2.3,SF,17.7,1982,0.8,POR,1.9,8.2
26.0,2.1,0.4,4.8,0.544,0.549,8.0,14.6,0.15,0.0,0.3,0.543,8.1,14.8,0.792,4.2,5.4,80.0,80.0,NBA,36.0,2.7,2.3,SF,20.4,1983,0.8,POR,2.5,7.5
27.0,2.3,0.3,3.9,0.585,0.593,6.3,10.6,0.118,0.0,0.2,0.583,6.3,10.8,0.797,3.5,4.4,79.0,74.0,NBA,33.4,2.1,2.8,SF,16.2,1984,0.9,POR,2.1,6.0
28.0,3.1,0.4,5.1,0.546,0.547,8.8,16.1,0.0,0.0,0.0,0.546,8.8,16.1,0.793,5.7,7.2,78.0,76.0,NBA,34.1,2.7,2.3,PF,23.3,1985,1.0,DEN,2.4,7.8
29.0,2.4,0.2,4.5,0.505,0.505,6.8,13.4,0.333,0.0,0.1,0.504,6.8,13.5,0.801,4.0,5.0,69.0,62.0,NBA,29.1,1.8,2.1,PF,17.7,1986,0.8,DEN,1.9,6.3
30.0,2.0,0.0,3.0,0.4,0.4,4.0,10.0,0.0,0.0,0.0,0.4,4.0,10.0,1.0,2.0,2.0,1.0,1.0,NBA,20.0,2.0,2.0,PF,10.0,1987,1.0,DEN,1.0,5.0
31.0,1.7,0.1,2.3,0.49,0.493,3.8,7.7,0.0,0.0,0.0,0.49,3.8,7.7,0.74,2.0,2.7,27.0,7.0,NBA,19.7,1.3,1.6,PF,9.6,1988,0.5,DEN,1.1,3.6
32.0,0.8,0.1,2.1,0.405,0.409,2.0,4.8,0.0,0.0,0.0,0.405,2.0,4.8,0.722,2.4,3.3,24.0,0.0,NBA,14.7,1.2,1.3,SF,6.3,1989,0.3,TOT,1.3,3.3
32.0,0.5,0.1,2.4,0.44,0.449,1.6,3.5,0.0,0.0,0.1,0.44,1.6,3.6,0.71,1.6,2.2,14.0,0.0,NBA,12.0,0.9,0.9,SF,4.7,1989,0.4,DEN,0.8,3.3
32.0,1.1,0.2,1.6,0.379,0.379,2.5,6.6,0.0,0.0,0.0,0.379,2.5,6.6,0.729,3.5,4.8,10.0,0.0,NBA,18.5,1.6,1.9,SF,8.5,1989,0.2,SAS,1.9,3.2
33.0,0.6,0.0,1.8,0.645,0.645,1.4,2.2,0.0,0.0,0.0,0.645,1.4,2.2,0.773,1.2,1.6,14.0,0.0,NBA,11.7,0.7,1.0,SF,4.1,1990,0.1,IND,0.4,2.5
