age,ast,blk,drb,efg_pct,fg,fg2,fg2_pct,fg2a,fg3,fg3_pct,fg3a,fg_pct,fga,ft,ft_pct,fta,g,gs,lg_id,mp,orb,pf,pos,pts,season,stl,team_id,tov,trb
22.0,8.0,13.0,29.0,0.475,19.0,19.0,0.475,40.0,0.0,0.0,0.0,0.475,40.0,32.0,0.696,46.0,6.0,0.0,NBA,172.0,29.0,27.0,C,70.0,2005,1.0,CHI,8.0,58.0
23.0,3.0,2.0,19.0,0.667,4.0,4.0,0.667,6.0,0.0,0.0,0.0,0.667,6.0,3.0,0.3,10.0,6.0,0.0,NBA,104.0,8.0,29.0,C,11.0,2006,2.0,CHI,6.0,27.0
25.0,5.0,20.0,78.0,0.632,43.0,43.0,0.632,68.0,0.0,0.0,0.0,0.632,68.0,10.0,0.625,16.0,12.0,12.0,NBA,412.0,45.0,43.0,C,96.0,2008,5.0,NOH,10.0,123.0
26.0,2.0,1.0,13.0,0.5,6.0,6.0,0.5,12.0,0.0,0.0,0.0,0.5,12.0,3.0,0.5,6.0,4.0,4.0,NBA,94.0,8.0,17.0,C,15.0,2009,2.0,NOH,8.0,21.0
27.0,2.0,3.0,7.0,0.545,6.0,6.0,0.545,11.0,0.0,0.0,0.0,0.545,11.0,2.0,0.667,3.0,4.0,0.0,NBA,60.0,3.0,16.0,C,14.0,2010,2.0,CHA,4.0,10.0
28.0,8.0,19.0,114.0,0.582,57.0,57.0,0.582,98.0,0.0,0.0,0.0,0.582,98.0,53.0,0.679,78.0,21.0,21.0,NBA,680.0,79.0,77.0,C,167.0,2011,13.0,DAL,14.0,193.0
29.0,4.0,7.0,27.0,0.44,11.0,11.0,0.44,25.0,0.0,0.0,0.0,0.44,25.0,9.0,0.6,15.0,5.0,5.0,NBA,167.0,18.0,18.0,C,31.0,2012,7.0,NYK,15.0,45.0
30.0,4.0,14.0,48.0,0.538,28.0,28.0,0.538,52.0,0.0,0.0,0.0,0.538,52.0,12.0,0.75,16.0,12.0,12.0,NBA,350.0,40.0,48.0,C,68.0,2013,8.0,NYK,11.0,88.0
32.0,1.0,6.0,27.0,0.655,19.0,19.0,0.655,29.0,0.0,0.0,0.0,0.655,29.0,13.0,0.5,26.0,5.0,5.0,NBA,160.0,27.0,16.0,C,51.0,2015,3.0,DAL,5.0,54.0
