age,ast,blk,drb,efg_pct,fg,fg2,fg2_pct,fg2a,fg3,fg3_pct,fg3a,fg_pct,fga,ft,ft_pct,fta,g,gs,lg_id,mp,orb,pf,pos,pts,season,stl,team_id,tov,trb
19.0,1.0,1.0,0.0,0.0,0.0,0.0,0.0,1.0,0.0,0.0,0.0,0.0,1.0,4.0,1.0,4.0,5.0,0.0,NBA,14.0,1.0,3.0,SF,4.0,2002,0.0,SAC,2.0,1.0
20.0,0.0,1.0,5.0,0.4,2.0,2.0,0.4,5.0,0.0,0.0,0.0,0.4,5.0,2.0,1.0,2.0,7.0,0.0,NBA,18.0,0.0,4.0,SF,6.0,2003,0.0,SAC,2.0,5.0
21.0,1.0,1.0,2.0,0.5,3.0,3.0,0.5,6.0,0.0,0.0,0.0,0.5,6.0,1.0,0.5,2.0,3.0,0.0,NBA,20.0,0.0,4.0,SF,7.0,2004,1.0,SAC,3.0,2.0
27.0,9.0,6.0,34.0,0.534,21.0,16.0,0.485,33.0,5.0,0.455,11.0,0.477,44.0,23.0,0.657,35.0,4.0,4.0,NBA,164.0,2.0,9.0,SF,70.0,2010,5.0,CHA,3.0,36.0
28.0,17.0,3.0,46.0,0.47,30.0,27.0,0.54,50.0,3.0,0.176,17.0,0.448,67.0,28.0,0.875,32.0,6.0,6.0,NBA,226.0,9.0,19.0,PF,91.0,2011,8.0,POR,15.0,55.0
30.0,17.0,5.0,23.0,0.545,31.0,20.0,0.526,38.0,11.0,0.379,29.0,0.463,67.0,11.0,0.55,20.0,7.0,7.0,NBA,243.0,5.0,20.0,SF,84.0,2013,8.0,BRK,9.0,28.0
32.0,0.0,0.0,1.0,0.0,0.0,0.0,0.0,1.0,0.0,0.0,0.0,0.0,1.0,0.0,0.0,0.0,1.0,0.0,NBA,4.0,0.0,0.0,SF,0.0,2015,0.0,BOS,0.0,1.0
