age,ast_per_poss,blk_per_poss,def_rtg,drb_per_poss,fg2_pct,fg2_per_poss,fg2a_per_poss,fg3_pct,fg3_per_poss,fg3a_per_poss,fg_pct,fg_per_poss,fga_per_poss,ft_pct,ft_per_poss,fta_per_poss,g,gs,lg_id,mp,off_rtg,orb_per_poss,pf_per_poss,pos,pts_per_poss,season,stl_per_poss,team_id,tov_per_poss,trb_per_poss
19.0,3.7,3.7,110.0,0.0,0.0,0.0,3.7,0.0,0.0,0.0,0.0,0.0,3.7,1.0,14.6,14.6,5.0,0.0,NBA,14.0,102.0,3.7,11.0,SF,14.6,2002,0.0,SAC,7.3,3.7
20.0,0.0,2.8,106.0,14.1,0.4,5.6,14.1,0.0,0.0,0.0,0.4,5.6,14.1,1.0,5.6,5.6,7.0,0.0,NBA,18.0,79.0,0.0,11.3,SF,16.9,2003,0.0,SAC,5.6,14.1
21.0,2.6,2.6,100.0,5.1,0.5,7.7,15.4,0.0,0.0,0.0,0.5,7.7,15.4,0.5,2.6,5.1,3.0,0.0,NBA,20.0,70.0,0.0,10.3,SF,18.0,2004,2.6,SAC,7.7,5.1
27.0,3.1,2.1,106.0,11.7,0.485,5.5,11.3,0.455,1.7,3.8,0.477,7.2,15.1,0.657,7.9,12.0,4.0,4.0,NBA,164.0,121.0,0.7,3.1,SF,24.0,2010,1.7,CHA,1.0,12.3
28.0,4.4,0.8,108.0,11.8,0.54,6.9,12.8,0.176,0.8,4.4,0.448,7.7,17.2,0.875,7.2,8.2,6.0,6.0,NBA,226.0,108.0,2.3,4.9,PF,23.3,2011,2.0,POR,3.8,14.1
30.0,3.8,1.1,106.0,5.1,0.526,4.5,8.5,0.379,2.5,6.5,0.463,6.9,15.0,0.55,2.5,4.5,7.0,7.0,NBA,243.0,110.0,1.1,4.5,SF,18.8,2013,1.8,BRK,2.0,6.3
32.0,0.0,0.0,111.0,12.9,0.0,0.0,12.9,0.0,0.0,0.0,0.0,0.0,12.9,0.0,0.0,0.0,1.0,0.0,NBA,4.0,0.0,0.0,0.0,SF,0.0,2015,0.0,BOS,0.0,12.9
