age,ast_per_mp,blk_per_mp,drb_per_mp,fg2_pct,fg2_per_mp,fg2a_per_mp,fg3_pct,fg3_per_mp,fg3a_per_mp,fg_pct,fg_per_mp,fga_per_mp,ft_pct,ft_per_mp,fta_per_mp,g,gs,lg_id,mp,orb_per_mp,pf_per_mp,pos,pts_per_mp,season,stl_per_mp,team_id,tov_per_mp,trb_per_mp
28.0,0.7,4.2,6.6,0.529,3.8,7.2,0.0,0.0,0.0,0.529,3.8,7.2,0.769,1.4,1.8,10.0,10.0,NBA,256.0,3.4,5.2,C,9.0,2001,0.6,DAL,1.4,10.0
29.0,0.0,1.4,5.8,0.5,4.3,8.6,0.0,0.0,0.0,0.5,4.3,8.6,0.0,0.0,0.0,7.0,0.0,NBA,25.0,1.4,13.0,C,8.6,2002,0.0,DAL,1.4,7.2
30.0,0.7,2.0,6.1,0.408,2.9,7.2,0.0,0.0,0.1,0.4,2.9,7.3,0.75,1.3,1.8,17.0,7.0,NBA,246.0,3.4,7.0,C,7.2,2003,0.4,DAL,2.2,9.5
31.0,0.0,0.0,0.0,0.0,0.0,0.0,0.0,0.0,0.0,0.0,0.0,0.0,0.0,0.0,0.0,2.0,0.0,NBA,3.0,0.0,12.0,C,0.0,2004,0.0,DAL,0.0,0.0
32.0,0.0,2.7,2.7,0.667,5.3,8.0,0.0,0.0,0.0,0.667,5.3,8.0,0.5,1.3,2.7,7.0,0.0,NBA,27.0,5.3,9.3,C,12.0,2005,0.0,DAL,0.0,8.0
