age,ast_per_poss,blk_per_poss,def_rtg,drb_per_poss,fg2_pct,fg2_per_poss,fg2a_per_poss,fg3_pct,fg3_per_poss,fg3a_per_poss,fg_pct,fg_per_poss,fga_per_poss,ft_pct,ft_per_poss,fta_per_poss,g,gs,lg_id,mp,off_rtg,orb_per_poss,pf_per_poss,pos,pts_per_poss,season,stl_per_poss,team_id,tov_per_poss,trb_per_poss
28.0,1.1,6.4,102.0,10.0,0.529,5.7,10.8,0.0,0.0,0.0,0.529,5.7,10.8,0.769,2.1,2.8,10.0,10.0,NBA,256.0,112.0,5.1,7.8,C,13.6,2001,0.8,DAL,2.1,15.0
29.0,0.0,2.0,111.0,8.0,0.5,6.0,12.0,0.0,0.0,0.0,0.5,6.0,12.0,0.0,0.0,0.0,7.0,0.0,NBA,25.0,92.0,2.0,17.9,C,12.0,2002,0.0,DAL,2.0,10.0
30.0,1.0,2.9,109.0,8.8,0.408,4.2,10.3,0.0,0.0,0.2,0.4,4.2,10.5,0.75,1.9,2.5,17.0,7.0,NBA,246.0,90.0,4.8,10.0,C,10.3,2003,0.6,DAL,3.1,13.6
31.0,0.0,0.0,111.0,0.0,0.0,0.0,0.0,0.0,0.0,0.0,0.0,0.0,0.0,0.0,0.0,0.0,2.0,0.0,NBA,3.0,0.0,0.0,16.6,C,0.0,2004,0.0,DAL,0.0,0.0
32.0,0.0,3.9,117.0,3.9,0.667,7.7,11.6,0.0,0.0,0.0,0.667,7.7,11.6,0.5,1.9,3.9,7.0,0.0,NBA,27.0,151.0,7.7,13.5,C,17.4,2005,0.0,DAL,0.0,11.6
