age,ast_per_g,blk_per_g,drb_per_g,efg_pct,fg2_pct,fg2_per_g,fg2a_per_g,fg3_pct,fg3_per_g,fg3a_per_g,fg_pct,fg_per_g,fga_per_g,ft_pct,ft_per_g,fta_per_g,g,gs,lg_id,mp_per_g,orb_per_g,pf_per_g,pos,pts_per_g,season,stl_per_g,team_id,tov_per_g,trb_per_g
28.0,0.5,3.0,4.7,0.529,0.529,2.7,5.1,0.0,0.0,0.0,0.529,2.7,5.1,0.769,1.0,1.3,10.0,10.0,NBA,25.6,2.4,3.7,C,6.4,2001,0.4,DAL,1.0,7.1
29.0,0.0,0.1,0.6,0.5,0.5,0.4,0.9,0.0,0.0,0.0,0.5,0.4,0.9,0.0,0.0,0.0,7.0,0.0,NBA,3.6,0.1,1.3,C,0.9,2002,0.0,DAL,0.1,0.7
30.0,0.3,0.8,2.5,0.4,0.408,1.2,2.9,0.0,0.0,0.1,0.4,1.2,2.9,0.75,0.5,0.7,17.0,7.0,NBA,14.5,1.4,2.8,C,2.9,2003,0.2,DAL,0.9,3.8
31.0,0.0,0.0,0.0,0.0,0.0,0.0,0.0,0.0,0.0,0.0,0.0,0.0,0.0,0.0,0.0,0.0,2.0,0.0,NBA,1.5,0.0,0.5,C,0.0,2004,0.0,DAL,0.0,0.0
32.0,0.0,0.3,0.3,0.667,0.667,0.6,0.9,0.0,0.0,0.0,0.667,0.6,0.9,0.5,0.1,0.3,7.0,0.0,NBA,3.9,0.6,1.0,C,1.3,2005,0.0,DAL,0.0,0.9
