age,ast_per_poss,blk_per_poss,def_rtg,drb_per_poss,fg2_pct,fg2_per_poss,fg2a_per_poss,fg3_pct,fg3_per_poss,fg3a_per_poss,fg_pct,fg_per_poss,fga_per_poss,ft_pct,ft_per_poss,fta_per_poss,g,gs,lg_id,mp,off_rtg,orb_per_poss,pf_per_poss,pos,pts_per_poss,season,stl_per_poss,team_id,tov_per_poss,trb_per_poss
21.0,3.5,5.3,105.0,7.5,0.412,7.3,17.7,0.0,0.0,0.1,0.409,7.3,17.8,0.607,3.7,6.1,49.0,45.0,NBA,1385.0,84.0,3.5,6.2,C,18.3,1994,1.6,PHI,5.4,11.1
22.0,1.2,6.1,104.0,9.3,0.457,7.0,15.4,0.0,0.0,0.1,0.455,7.0,15.5,0.638,3.3,5.2,82.0,59.0,NBA,2365.0,99.0,5.4,7.5,C,17.3,1995,1.2,PHI,3.2,14.7
23.0,1.4,6.5,101.0,9.4,0.444,8.7,19.7,0.25,0.0,0.1,0.443,8.8,19.8,0.687,3.8,5.6,79.0,68.0,NBA,2329.0,95.0,5.0,6.5,C,21.4,1996,1.1,TOT,4.0,14.4
23.0,1.2,5.9,106.0,11.2,0.443,6.7,15.1,0.0,0.0,0.0,0.443,6.7,15.1,0.76,3.0,3.9,12.0,11.0,NBA,334.0,89.0,5.3,6.5,C,16.4,1996,1.2,PHI,4.8,16.5
23.0,1.5,6.6,101.0,9.1,0.444,9.1,20.4,0.25,0.0,0.1,0.443,9.1,20.5,0.679,4.0,5.8,67.0,57.0,NBA,1995.0,96.0,4.9,6.5,C,22.2,1996,1.1,NJN,3.9,14.1
24.0,1.2,5.7,105.0,9.0,0.453,9.4,20.7,0.0,0.0,0.2,0.449,9.4,20.9,0.654,3.4,5.3,73.0,70.0,NBA,2288.0,98.0,5.1,5.5,C,22.2,1997,0.9,TOT,3.1,14.1
24.0,0.8,6.8,104.0,8.8,0.441,8.4,19.1,0.0,0.0,0.2,0.436,8.4,19.3,0.664,3.4,5.2,40.0,38.0,NBA,1228.0,99.0,5.0,5.2,C,20.3,1997,1.0,NJN,2.7,13.8
24.0,1.6,4.5,105.0,9.3,0.464,10.5,22.7,0.0,0.0,0.2,0.461,10.5,22.8,0.642,3.5,5.4,33.0,32.0,NBA,1060.0,97.0,5.2,5.8,C,24.5,1997,0.9,DAL,3.6,14.5
25.0,1.8,6.3,100.0,10.4,0.422,8.8,20.7,0.333,0.0,0.1,0.422,8.8,20.8,0.722,3.8,5.3,64.0,46.0,NBA,1822.0,96.0,4.8,6.3,C,21.4,1998,1.5,DAL,2.8,15.2
26.0,1.7,6.6,97.0,10.9,0.485,7.0,14.3,0.0,0.0,0.2,0.48,7.0,14.5,0.748,3.6,4.8,49.0,33.0,NBA,1294.0,109.0,5.4,6.4,C,17.5,1999,1.5,DAL,2.3,16.3
27.0,1.6,5.1,101.0,9.0,0.482,7.0,14.6,0.2,0.0,0.1,0.479,7.1,14.8,0.765,3.0,4.0,77.0,54.0,NBA,1901.0,108.0,4.3,6.9,C,17.2,2000,1.9,DAL,2.0,13.2
28.0,1.0,5.9,96.0,11.5,0.494,5.6,11.3,0.167,0.0,0.2,0.49,5.6,11.5,0.787,3.6,4.6,82.0,35.0,NBA,2001.0,109.0,4.1,6.6,C,14.9,2001,0.9,DAL,2.3,15.6
29.0,1.4,4.4,102.0,8.4,0.481,5.3,11.1,0.0,0.0,0.1,0.479,5.3,11.1,0.922,4.0,4.4,53.0,16.0,NBA,757.0,116.0,3.6,8.7,C,14.7,2002,1.9,DAL,1.7,12.0
30.0,1.6,5.1,96.0,9.7,0.537,6.0,11.2,0.0,0.0,0.0,0.536,6.0,11.2,0.806,4.2,5.2,81.0,39.0,NBA,1731.0,121.0,4.5,7.3,C,16.3,2003,1.9,DAL,2.0,14.3
31.0,1.3,4.9,102.0,6.7,0.476,5.9,12.5,0.0,0.0,0.1,0.473,5.9,12.5,0.837,2.7,3.3,66.0,5.0,NBA,773.0,118.0,4.8,8.7,C,14.6,2004,2.2,DAL,1.1,11.5
32.0,0.9,3.7,101.0,8.4,0.452,4.9,10.9,0.0,0.0,0.0,0.452,4.9,10.9,0.683,2.5,3.7,77.0,14.0,NBA,885.0,104.0,4.1,9.0,C,12.3,2005,1.5,DAL,1.9,12.5
