lg_id,salary,season,team_name
NBA,300000.0,1991,Houston Rockets
NBA,375000.0,1993,San Antonio Spurs
NBA,488000.0,1994,Detroit Pistons
NBA,150000.0,1995,Golden State Warriors
NBA,350000.0,1996,Golden State Warriors
NBA,247500.0,1997,Milwaukee Bucks
