age,ast,blk,drb,efg_pct,fg,fg2,fg2_pct,fg2a,fg3,fg3_pct,fg3a,fg_pct,fga,ft,ft_pct,fta,g,gs,lg_id,mp,orb,pf,pos,pts,season,stl,team_id,tov,trb
26.0,3.0,0.0,4.0,0.833,2.0,1.0,0.5,2.0,1.0,1.0,1.0,0.667,3.0,2.0,0.5,4.0,3.0,0.0,NBA,44.0,1.0,8.0,SF,7.0,1991,3.0,HOU,1.0,5.0
28.0,1.0,0.0,2.0,0.625,2.0,1.0,0.333,3.0,1.0,1.0,1.0,0.5,4.0,0.0,0.0,0.0,5.0,0.0,NBA,20.0,1.0,7.0,PF,5.0,1993,0.0,SAS,0.0,3.0
