age,ast,blk,drb,fg,fg2,fg2a,fg3,fg3a,fga,ft,fta,game_score,lg_id,mp,orb,pf,pts,season,stl,team_id,tov,trb
26.0,2.0,0.0,2.0,2.0,1.0,1.0,1.0,1.0,2.0,1.0,2.0,5.0,NBA,0.0,1.0,5.0,5.0,1991,2.0,HOU,1.0,3.0
28.0,1.0,0.0,1.0,1.0,1.0,1.0,1.0,1.0,1.0,0.0,0.0,2.9,NBA,0.0,1.0,3.0,3.0,1993,0.0,SAS,0.0,1.0
