age,ast,blk,drb,fg,fg2,fg2a,fg3,fg3a,fga,ft,fta,game_score,lg_id,mp,orb,pf,pts,season,stl,team_id,tov,trb
22.0,3.0,3.0,7.0,9.0,8.0,9.0,1.0,2.0,10.0,3.0,4.0,21.4,NBA,0.0,3.0,5.0,21.0,2005,3.0,POR,4.0,10.0
23.0,4.0,3.0,10.0,8.0,8.0,13.0,2.0,3.0,16.0,6.0,9.0,24.7,NBA,37.0,7.0,6.0,22.0,2006,4.0,POR,6.0,12.0
24.0,3.0,1.0,5.0,5.0,5.0,10.0,0.0,2.0,11.0,3.0,4.0,6.2,NBA,21.0,3.0,5.0,12.0,2007,1.0,CHI,4.0,5.0
25.0,2.0,0.0,4.0,5.0,5.0,6.0,0.0,1.0,6.0,3.0,4.0,10.4,NBA,22.0,2.0,4.0,11.0,2008,2.0,CHI,3.0,5.0
