age,ast,ast_per_g,blk,college_id,fg,fg3,fg3_pct,fg3a,fg_pct,fga,ft,ft_pct,fta,g,mp,mp_per_g,orb,pf,pts,pts_per_g,season,stl,tov,trb,trb_per_g
23.0,69.0,2.0,0.0,CINCY,114.0,0.0,0.0,2.0,0.479,238.0,50.0,0.556,90.0,34.0,864.0,25.4,0.0,0.0,278.0,8.2,1992,0.0,0.0,213.0,6.3
24.0,47.0,2.2,0.0,CINCY,104.0,0.0,0.0,0.0,0.55,189.0,30.0,0.566,53.0,21.0,588.0,28.0,0.0,0.0,238.0,11.3,1993,0.0,0.0,170.0,8.1
