age,avg_dist,fg2_dunk,fg2_pct,fg2_pct_ast,fg2a_pct_fga,fg3_heave,fg3_pct,fg3_pct_ast,fg3_pct_corner,fg3a_heave,fg3a_pct_fga,fg_pct,fg_pct_00_03,fg_pct_03_10,fg_pct_10_16,fg_pct_16_xx,g,lg_id,mp,pct_fg2_dunk,pct_fg3a_corner,pct_fga_00_03,pct_fga_03_10,pct_fga_10_16,pct_fga_16_xx,pos,season,team_id
22.0,9.8,11.0,0.455,0.508,0.863,0.0,0.196,0.556,0.286,1.0,0.137,0.42,0.592,0.293,0.388,0.358,57.0,NBA,929.0,0.042,0.152,0.387,0.173,0.146,0.158,SG,2001,ATL
23.0,10.8,18.0,0.444,0.444,0.8,0.0,0.33,0.967,0.4,1.0,0.2,0.421,0.556,0.262,0.348,0.368,55.0,NBA,1156.0,0.042,0.165,0.39,0.092,0.151,0.167,SG,2002,ATL
24.0,12.2,19.0,0.451,0.502,0.756,0.0,0.354,0.857,0.45,1.0,0.244,0.427,0.515,0.263,0.357,0.441,76.0,NBA,1890.0,0.029,0.253,0.369,0.059,0.108,0.221,SG,2003,ATL
25.0,11.4,20.0,0.404,0.526,0.798,0.0,0.336,0.925,0.541,0.0,0.202,0.39,0.547,0.208,0.273,0.325,69.0,NBA,1643.0,0.036,0.311,0.363,0.081,0.149,0.204,SG,2004,TOT
25.0,11.2,18.0,0.403,0.533,0.8,0.0,0.343,0.917,0.563,0.0,0.2,0.391,0.546,0.167,0.263,0.34,55.0,NBA,1465.0,0.036,0.305,0.37,0.08,0.153,0.197,SG,2004,ATL
25.0,12.6,2.0,0.412,0.476,0.785,0.0,0.286,1.0,0.4,0.0,0.215,0.385,0.55,0.5,0.375,0.235,14.0,NBA,178.0,0.031,0.357,0.308,0.092,0.123,0.262,SG,2004,TOR
26.0,10.8,2.0,0.5,0.571,0.636,0.0,0.125,1.0,0.2,0.0,0.364,0.364,0.444,0.75,0.0,0.0,7.0,NBA,68.0,0.091,0.625,0.409,0.182,0.045,0.0,SG,2005,SAS
