age,ast_per_poss,blk_per_poss,def_rtg,drb_per_poss,fg2_pct,fg2_per_poss,fg2a_per_poss,fg3_pct,fg3_per_poss,fg3a_per_poss,fg_pct,fg_per_poss,fga_per_poss,ft_pct,ft_per_poss,fta_per_poss,g,gs,lg_id,mp,off_rtg,orb_per_poss,pf_per_poss,pos,pts_per_poss,season,stl_per_poss,team_id,tov_per_poss,trb_per_poss
21.0,3.2,0.5,111.0,2.7,0.429,6.3,14.8,0.267,1.4,5.3,0.386,7.7,20.1,0.729,6.0,8.2,30.0,1.0,NBA,446.0,99.0,1.8,3.3,SG,22.9,2000,1.8,ATL,3.3,4.5
22.0,3.9,0.6,104.0,5.2,0.455,7.4,16.3,0.196,0.5,2.6,0.42,7.9,18.9,0.681,2.6,3.9,57.0,7.0,NBA,929.0,94.0,2.2,5.2,SG,19.0,2001,2.8,ATL,3.0,7.4
23.0,3.8,0.6,107.0,6.0,0.444,7.3,16.5,0.33,1.4,4.1,0.421,8.7,20.6,0.757,3.5,4.7,55.0,25.0,NBA,1156.0,96.0,1.6,4.0,SG,22.2,2002,2.0,ATL,3.4,7.6
24.0,3.9,0.4,107.0,6.1,0.451,6.2,13.7,0.354,1.6,4.4,0.427,7.7,18.1,0.784,3.5,4.5,76.0,42.0,NBA,1890.0,101.0,1.7,4.1,SG,20.6,2003,2.0,ATL,3.0,7.9
25.0,4.2,0.6,106.0,6.7,0.404,6.1,15.2,0.336,1.3,3.8,0.39,7.4,19.0,0.769,3.9,5.0,69.0,30.0,NBA,1643.0,95.0,1.9,4.0,SG,20.0,2004,1.6,TOT,3.3,8.6
25.0,4.1,0.6,107.0,6.6,0.403,6.1,15.1,0.343,1.3,3.8,0.391,7.4,18.9,0.775,4.0,5.1,55.0,26.0,NBA,1465.0,97.0,1.9,3.8,SG,20.1,2004,1.4,ATL,3.0,8.5
25.0,4.7,0.6,97.0,7.8,0.412,6.5,15.8,0.286,1.2,4.4,0.385,7.8,20.2,0.714,3.1,4.4,14.0,4.0,NBA,178.0,80.0,1.2,5.3,SG,19.9,2004,3.1,TOR,5.9,9.0
26.0,3.2,2.4,97.0,6.4,0.5,5.6,11.1,0.125,0.8,6.4,0.364,6.4,17.5,0.8,6.4,7.9,7.0,0.0,NBA,68.0,106.0,2.4,7.1,SG,19.8,2005,2.4,SAS,1.6,8.7
