age,ast_per_mp,blk_per_mp,drb_per_mp,fg2_pct,fg2_per_mp,fg2a_per_mp,fg3_pct,fg3_per_mp,fg3a_per_mp,fg_pct,fg_per_mp,fga_per_mp,ft_pct,ft_per_mp,fta_per_mp,g,gs,lg_id,mp,orb_per_mp,pf_per_mp,pos,pts_per_mp,season,stl_per_mp,team_id,tov_per_mp,trb_per_mp
23.0,0.0,0.0,0.0,0.143,2.8,19.4,0.0,0.0,0.0,0.143,2.8,19.4,0.5,2.8,5.5,2.0,0.0,NBA,13.0,0.0,0.0,SG,8.3,2004,5.5,SAS,2.8,0.0
24.0,4.4,0.2,2.0,0.382,3.2,8.4,0.278,1.2,4.4,0.346,4.4,12.8,0.75,0.7,1.0,8.0,3.0,NBA,146.0,1.7,3.7,SG,10.8,2005,1.0,NOH,2.0,3.7
