age,ast,blk,drb,fg,fg2,fg2a,fg3,fg3a,fga,ft,fta,game_score,lg_id,mp,orb,pf,pts,season,stl,team_id,tov,trb
22.0,4.0,1.0,5.0,10.0,9.0,14.0,1.0,2.0,15.0,4.0,4.0,15.3,NBA,0.0,2.0,4.0,22.0,1991,1.0,SAS,4.0,5.0
23.0,4.0,2.0,7.0,13.0,11.0,19.0,2.0,3.0,19.0,4.0,5.0,19.2,NBA,0.0,5.0,5.0,29.0,1992,2.0,TOT,6.0,8.0
23.0,2.0,0.0,3.0,2.0,2.0,4.0,0.0,1.0,4.0,3.0,3.0,7.0,NBA,0.0,1.0,2.0,7.0,1992,1.0,SAS,1.0,3.0
23.0,4.0,2.0,7.0,13.0,11.0,19.0,2.0,3.0,19.0,4.0,5.0,19.2,NBA,0.0,5.0,5.0,29.0,1992,2.0,ORL,6.0,8.0
24.0,6.0,2.0,6.0,9.0,9.0,14.0,3.0,5.0,15.0,6.0,7.0,15.4,NBA,0.0,3.0,5.0,19.0,1993,2.0,GSW,5.0,9.0
26.0,2.0,2.0,4.0,5.0,5.0,10.0,2.0,5.0,14.0,8.0,8.0,11.5,NBA,0.0,3.0,6.0,13.0,1995,2.0,NJN,3.0,5.0
27.0,6.0,2.0,9.0,11.0,9.0,11.0,5.0,9.0,15.0,4.0,4.0,28.1,NBA,0.0,3.0,6.0,27.0,1996,3.0,PHI,4.0,11.0
29.0,0.0,0.0,0.0,0.0,0.0,2.0,0.0,2.0,4.0,0.0,0.0,-1.1,NBA,0.0,0.0,2.0,0.0,1998,1.0,POR,1.0,0.0
