age,ast_per_mp,blk_per_mp,drb_per_mp,fg2_pct,fg2_per_mp,fg2a_per_mp,fg3_pct,fg3_per_mp,fg3a_per_mp,fg_pct,fg_per_mp,fga_per_mp,ft_pct,ft_per_mp,fta_per_mp,g,gs,lg_id,mp,orb_per_mp,pf_per_mp,pos,pts_per_mp,season,stl_per_mp,team_id,tov_per_mp,trb_per_mp
22.0,1.7,0.4,5.4,0.442,6.1,13.8,0.256,0.2,0.9,0.43,6.3,14.7,0.727,2.7,3.7,72.0,13.0,NBA,1580.0,1.7,4.0,PF,15.6,2001,0.7,CHI,2.8,7.1
23.0,2.2,0.4,5.5,0.451,6.7,14.8,0.171,0.1,0.8,0.438,6.8,15.6,0.668,3.5,5.2,76.0,20.0,NBA,1963.0,2.3,3.4,PF,17.2,2002,0.9,CHI,2.4,7.8
24.0,2.1,0.8,6.1,0.469,7.9,16.8,0.167,0.0,0.3,0.465,7.9,17.0,0.657,3.9,6.0,38.0,0.0,NBA,809.0,3.6,4.0,PF,19.8,2003,0.6,CHI,2.5,9.6
25.0,2.1,0.4,6.9,0.396,6.4,16.2,0.118,0.1,0.8,0.383,6.5,17.1,0.75,4.4,5.9,46.0,2.0,NBA,738.0,3.0,4.7,SF,17.6,2004,0.8,CHI,2.5,9.9
26.0,2.6,0.5,5.8,0.465,5.3,11.4,0.0,0.0,0.2,0.455,5.3,11.6,0.68,2.8,4.1,54.0,0.0,NBA,903.0,1.2,3.8,PF,13.4,2005,1.0,MIL,2.5,7.0
27.0,0.9,0.0,5.5,0.5,7.4,14.8,1.0,0.9,0.9,0.529,8.3,15.7,0.5,0.9,1.8,3.0,0.0,NBA,39.0,0.9,4.6,PF,18.5,2006,0.0,NOK,1.8,6.5
