age,ast,blk,fg,fg3,fg3_pct,fg3a,fg_pct,fga,ft,ft_pct,fta,g,gs,lg_id,mp,orb,pf,pos,pts,season,stl,team_id,tov,trb
26.0,3.0,0.0,2.0,0.0,0.0,0.0,0.5,4.0,1.0,0.5,2.0,1.0,0.0,NBA,18,3.0,2.0,C,5.0,2003,0.0,IND,2.0,6.0
27.0,0.0,0.0,4.0,0.0,0.0,0.0,0.8,5.0,0.0,0.0,0.0,1.0,0.0,NBA,10,1.0,0.0,PF,8.0,2004,0.0,SAC,2.0,2.0
