age,ast_pct,blk_pct,bpm,bpm-dum,dbpm,drb_pct,dws,fg3a_per_fga_pct,fta_per_fga_pct,g,lg_id,mp,obpm,orb_pct,ows,per,pos,season,stl_pct,team_id,tov_pct,trb_pct,ts_pct,usg_pct,vorp,ws,ws-dum,ws_per_48
22.0,22.2,0.0,-1.1,0.0,-1.0,7.7,1.1,0.094,0.347,79.0,NBA,1214.0,-0.1,3.3,1.2,14.8,PG,1986,3.1,POR,17.1,5.5,0.545,20.2,0.3,2.3,0.0,0.093
23.0,33.6,0.2,1.3,0.0,0.2,10.8,2.8,0.078,0.434,80.0,NBA,2714.0,1.1,3.0,4.0,16.2,PG,1987,2.7,POR,21.8,6.9,0.57,17.0,2.2,6.8,0.0,0.12
24.0,35.9,0.3,2.4,0.0,0.0,11.3,3.3,0.078,0.364,82.0,NBA,2991.0,2.4,2.3,6.5,18.1,PG,1988,2.3,POR,19.1,6.8,0.592,16.8,3.4,9.8,0.0,0.157
25.0,32.8,0.2,2.2,0.0,-0.6,10.2,2.6,0.191,0.283,81.0,NBA,3102.0,2.8,2.9,6.5,17.7,PG,1989,2.2,POR,16.1,6.4,0.555,19.1,3.3,9.2,0.0,0.142
26.0,35.4,0.1,4.3,0.0,0.0,8.4,3.8,0.246,0.487,80.0,NBA,2781.0,4.4,2.3,7.9,20.0,PG,1990,2.5,POR,17.2,5.3,0.597,20.1,4.4,11.7,0.0,0.202
27.0,34.0,0.3,6.1,0.0,0.3,9.4,3.9,0.332,0.359,81.0,NBA,2665.0,5.9,2.2,9.2,21.7,PG,1991,2.8,POR,14.7,5.9,0.632,19.6,5.5,13.0,0.0,0.235
28.0,24.9,0.3,3.1,0.0,-0.5,8.0,3.5,0.287,0.326,82.0,NBA,2784.0,3.6,2.0,7.0,18.1,PG,1992,2.2,POR,12.7,5.0,0.575,21.6,3.6,10.6,0.0,0.182
29.0,21.7,0.2,2.4,0.0,-0.5,10.1,3.1,0.311,0.35,81.0,NBA,2883.0,2.9,2.1,5.7,17.0,PG,1993,1.7,POR,13.5,6.0,0.577,21.1,3.2,8.8,0.0,0.147
30.0,28.2,0.6,1.0,0.0,-1.3,9.3,1.8,0.337,0.28,77.0,NBA,2074.0,2.4,2.3,3.5,16.4,PG,1994,1.9,POR,15.0,5.6,0.538,21.7,1.6,5.4,0.0,0.124
31.0,25.4,0.2,-0.4,0.0,-1.0,9.7,0.8,0.427,0.307,35.0,NBA,770.0,0.6,2.5,0.9,13.7,PG,1995,2.0,POR,16.1,5.9,0.515,19.8,0.3,1.7,0.0,0.106
32.0,35.1,0.6,-0.8,0.0,-2.0,10.2,1.3,0.372,0.344,82.0,NBA,2072.0,1.2,2.1,2.3,15.4,PG,1996,2.2,MIN,19.8,6.1,0.552,18.7,0.6,3.7,0.0,0.085
33.0,30.2,0.5,-1.8,0.0,-2.1,10.9,1.2,0.445,0.37,82.0,NBA,1568.0,0.3,2.4,1.5,14.5,PG,1997,1.8,MIN,19.7,6.6,0.544,19.0,0.1,2.7,0.0,0.082
34.0,23.5,0.6,0.7,0.0,-2.2,8.2,0.9,0.404,0.338,82.0,NBA,1786.0,2.9,2.4,4.3,17.3,PG,1998,1.8,MIN,13.6,5.3,0.586,19.1,1.2,5.2,0.0,0.139
35.0,19.6,0.6,2.8,0.0,0.0,10.5,1.7,0.381,0.4,50.0,NBA,1365.0,2.8,1.2,3.3,16.9,PG,1999,2.0,MIA,14.5,6.2,0.603,18.4,1.7,5.0,0.0,0.178
36.0,22.3,0.4,2.7,0.0,0.0,11.3,2.3,0.447,0.367,68.0,NBA,1613.0,2.7,1.8,3.4,16.6,PG,2000,1.6,SAS,15.7,6.7,0.596,18.3,1.9,5.6,0.0,0.168
37.0,24.5,0.5,2.2,0.0,0.2,11.4,2.3,0.466,0.264,80.0,NBA,1678.0,2.0,1.7,3.0,15.5,PG,2001,1.7,SAS,17.5,6.8,0.583,16.7,1.8,5.4,0.0,0.154
38.0,25.2,0.9,0.8,0.0,0.6,13.1,1.9,0.442,0.259,72.0,NBA,1294.0,0.2,1.1,1.6,13.9,PG,2002,1.9,SAS,19.2,7.3,0.558,15.9,0.9,3.5,0.0,0.131
