age,and1s,astd_pts,drawn_offensive,drawn_shooting,fouls_offensive,fouls_shooting,g,lg_id,mp,own_shots_blk,pct_1,pct_2,pct_3,pct_4,pct_5,plus_minus_net,plus_minus_on,pos,season,team_id,tov_bad_pass,tov_lost_ball
37.0,9.0,539.0,0.0,40.0,2.0,31.0,80.0,NBA,1678.0,21.0,81.0,19.0,0.0,0.0,0.0,5.9,12.3,PG,2001,SAS,83.0,17.0
38.0,4.0,458.0,0.0,13.0,12.0,34.0,72.0,NBA,1294.0,13.0,91.0,9.0,0.0,0.0,0.0,11.2,14.6,PG,2002,SAS,50.0,17.0
