age,ast_pct,blk_pct,bpm,bpm-dum,dbpm,drb_pct,dws,fg3a_per_fga_pct,fta_per_fga_pct,g,lg_id,mp,obpm,orb_pct,ows,per,pos,season,stl_pct,team_id,tov_pct,trb_pct,ts_pct,usg_pct,vorp,ws,ws-dum,ws_per_48
23.0,16.6,0.6,-8.2,0.0,-2.7,7.2,0.0,0.053,0.387,37.0,NBA,234.0,-5.5,5.5,-0.4,4.5,SF,2003,1.7,GSW,17.8,6.4,0.348,19.4,-0.4,-0.4,0.0,-0.086
24.0,14.0,0.2,-0.7,0.0,-0.1,12.2,1.9,0.296,0.337,81.0,NBA,2179.0,-0.6,3.2,1.7,12.6,SG,2004,2.4,BOS,15.5,7.8,0.531,17.4,0.7,3.6,0.0,0.08
25.0,12.0,0.3,-2.7,0.0,-1.2,12.3,1.0,0.296,0.456,71.0,NBA,1317.0,-1.5,2.3,0.6,10.9,SG-SF,2005,1.7,TOT,14.1,7.4,0.518,17.7,-0.2,1.7,0.0,0.061
25.0,11.6,0.3,-1.8,0.0,-1.1,12.1,0.9,0.309,0.441,55.0,NBA,1125.0,-0.7,2.1,1.0,12.1,SG,2005,1.8,BOS,13.2,7.2,0.543,17.6,0.1,1.9,0.0,0.083
25.0,14.3,0.0,-8.0,0.0,-1.5,13.8,0.2,0.216,0.549,16.0,NBA,192.0,-6.5,3.6,-0.4,4.3,SF,2005,1.4,CLE,19.2,8.6,0.363,18.4,-0.3,-0.3,0.0,-0.064
26.0,11.0,0.1,-3.2,0.0,-0.3,12.4,0.7,0.221,0.392,58.0,NBA,866.0,-2.9,3.0,0.1,9.8,SF,2006,2.1,MIL,13.6,7.6,0.482,15.9,-0.3,0.8,0.0,0.043
