age,ast,blk,drb,fg,fg2,fg2a,fg3,fg3a,fga,ft,fta,game_score,lg_id,mp,orb,pf,pts,season,stl,team_id,tov,trb
22.0,3.0,3.0,9.0,10.0,7.0,14.0,3.0,4.0,18.0,10.0,12.0,22.0,NBA,0.0,7.0,6.0,24.0,1999,2.0,DEN,3.0,15.0
23.0,4.0,9.0,13.0,13.0,11.0,16.0,4.0,8.0,20.0,7.0,9.0,38.7,NBA,0.0,7.0,6.0,32.0,2000,3.0,DEN,4.0,20.0
24.0,4.0,7.0,14.0,13.0,10.0,20.0,5.0,8.0,28.0,9.0,11.0,30.1,NBA,0.0,7.0,6.0,32.0,2001,3.0,DEN,5.0,20.0
25.0,3.0,8.0,10.0,12.0,10.0,16.0,6.0,11.0,24.0,8.0,10.0,30.1,NBA,0.0,7.0,6.0,30.0,2002,3.0,TOT,4.0,15.0
25.0,3.0,8.0,10.0,12.0,10.0,16.0,6.0,11.0,24.0,8.0,10.0,30.1,NBA,0.0,7.0,6.0,30.0,2002,3.0,DEN,3.0,15.0
25.0,3.0,5.0,10.0,12.0,7.0,13.0,6.0,9.0,19.0,5.0,6.0,23.3,NBA,0.0,5.0,6.0,30.0,2002,3.0,DAL,4.0,13.0
26.0,5.0,5.0,8.0,11.0,10.0,13.0,6.0,8.0,16.0,4.0,6.0,25.3,NBA,0.0,8.0,6.0,26.0,2003,3.0,DAL,3.0,15.0
27.0,4.0,3.0,6.0,7.0,6.0,10.0,3.0,6.0,13.0,2.0,2.0,11.2,NBA,0.0,4.0,6.0,17.0,2004,2.0,BOS,3.0,9.0
28.0,4.0,5.0,11.0,10.0,8.0,11.0,4.0,8.0,16.0,6.0,7.0,25.2,NBA,0.0,7.0,6.0,28.0,2005,4.0,BOS,3.0,15.0
29.0,7.0,4.0,10.0,12.0,5.0,10.0,7.0,9.0,19.0,3.0,5.0,27.4,NBA,38.0,4.0,6.0,32.0,2006,3.0,BOS,4.0,12.0
30.0,1.0,3.0,6.0,5.0,4.0,8.0,1.0,4.0,9.0,4.0,5.0,11.6,NBA,29.0,4.0,6.0,15.0,2007,2.0,POR,3.0,7.0
31.0,1.0,3.0,6.0,4.0,4.0,7.0,0.0,1.0,7.0,2.0,3.0,7.5,NBA,22.0,5.0,5.0,10.0,2008,2.0,POR,2.0,11.0
