age,ast,ast_per_g,blk,college_id,fg,fg3,fg3_pct,fg3a,fg_pct,fga,ft,ft_pct,fta,g,mp,mp_per_g,orb,pf,pts,pts_per_g,season,stl,tov,trb,trb_per_g
18.0,17.0,0.5,20.0,KANSAS,143.0,2.0,0.4,5.0,0.534,268.0,65.0,0.637,102.0,31.0,732.0,23.6,0.0,71.0,353.0,11.4,1995,9.0,56.0,231.0,7.5
19.0,14.0,0.4,27.0,KANSAS,189.0,2.0,0.286,7.0,0.543,348.0,74.0,0.661,112.0,34.0,917.0,27.0,0.0,86.0,454.0,13.4,1996,29.0,62.0,278.0,8.2
20.0,25.0,0.7,46.0,KANSAS,261.0,1.0,0.167,6.0,0.584,447.0,143.0,0.761,188.0,36.0,1041.0,28.9,0.0,96.0,666.0,18.5,1997,33.0,64.0,335.0,9.3
21.0,30.0,1.0,45.0,KANSAS,232.0,8.0,0.471,17.0,0.548,423.0,121.0,0.738,164.0,30.0,0.0,0.0,0.0,0.0,593.0,19.8,1998,27.0,0.0,342.0,11.4
