age,ast_per_mp,blk_per_mp,drb_per_mp,fg2_pct,fg2_per_mp,fg2a_per_mp,fg3_pct,fg3_per_mp,fg3a_per_mp,fg_pct,fg_per_mp,fga_per_mp,ft_pct,ft_per_mp,fta_per_mp,g,gs,lg_id,mp,orb_per_mp,pf_per_mp,pos,pts_per_mp,season,stl_per_mp,team_id,tov_per_mp,trb_per_mp
25.0,0.7,3.2,6.3,0.55,4.8,8.8,0.333,0.9,2.6,0.5,5.7,11.5,0.545,0.9,1.6,8.0,8.0,NBA,245.0,2.6,5.7,C,13.2,2002,0.3,DAL,0.9,9.0
26.0,0.4,3.2,3.8,0.513,4.4,8.6,0.2,0.6,2.9,0.433,5.0,11.5,0.842,1.2,1.4,20.0,16.0,NBA,491.0,2.6,6.3,C,11.7,2003,0.8,DAL,1.0,6.5
28.0,1.6,2.3,5.4,0.32,1.6,4.9,0.5,1.6,3.1,0.39,3.1,8.0,0.8,1.6,1.9,7.0,7.0,NBA,185.0,1.2,5.3,PF,9.3,2005,1.2,BOS,1.4,6.6
