age,ast,blk,drb,fg,fg2,fg2a,fg3,fg3a,fga,ft,fta,game_score,lg_id,mp,orb,pf,pts,season,stl,team_id,tov,trb
23.0,6.0,0.0,2.0,3.0,2.0,4.0,2.0,3.0,5.0,6.0,7.0,12.5,NBA,0.0,0.0,4.0,13.0,1999,1.0,HOU,3.0,2.0
28.0,5.0,2.0,6.0,8.0,7.0,18.0,3.0,8.0,20.0,4.0,4.0,10.6,NBA,0.0,2.0,4.0,21.0,2004,1.0,HOU,7.0,7.0
29.0,4.0,1.0,4.0,10.0,9.0,14.0,3.0,8.0,19.0,4.0,4.0,15.0,NBA,0.0,3.0,4.0,22.0,2005,4.0,TOT,3.0,5.0
29.0,4.0,1.0,4.0,10.0,9.0,14.0,3.0,8.0,19.0,4.0,4.0,15.0,NBA,0.0,3.0,4.0,22.0,2005,4.0,SAC,3.0,5.0
30.0,6.0,1.0,6.0,9.0,8.0,17.0,3.0,6.0,18.0,6.0,6.0,19.5,NBA,52.0,3.0,5.0,23.0,2006,2.0,LAC,5.0,8.0
