age,ast_per_g,blk_per_g,drb_per_g,efg_pct,fg2_pct,fg2_per_g,fg2a_per_g,fg3_pct,fg3_per_g,fg3a_per_g,fg_pct,fg_per_g,fga_per_g,ft_pct,ft_per_g,fta_per_g,g,gs,lg_id,mp_per_g,orb_per_g,pf_per_g,pos,pts_per_g,season,stl_per_g,team_id,tov_per_g,trb_per_g
23.0,2.8,0.0,1.0,0.6,0.375,0.8,2.0,0.571,1.0,1.8,0.467,1.8,3.8,0.909,2.5,2.8,4.0,4.0,NBA,23.5,0.0,2.8,PG,7.0,1999,0.5,HOU,1.3,1.0
28.0,2.8,0.6,3.8,0.427,0.426,4.6,10.8,0.286,1.2,4.2,0.387,5.8,15.0,0.8,1.6,2.0,5.0,5.0,NBA,42.0,1.0,2.8,SG,14.4,2004,0.6,HOU,3.6,4.8
29.0,1.8,0.4,2.0,0.493,0.533,4.8,9.0,0.28,1.4,5.0,0.443,6.2,14.0,0.714,1.0,1.4,5.0,5.0,NBA,31.8,0.8,2.6,SG,14.8,2005,1.2,SAC,1.2,2.8
30.0,2.0,0.3,3.9,0.465,0.442,4.2,9.4,0.367,0.9,2.5,0.427,5.1,11.9,0.897,2.2,2.4,12.0,12.0,NBA,39.4,0.8,2.3,SG,13.3,2006,0.7,LAC,1.9,4.8
