age,ast_per_g,blk_per_g,drb_per_g,efg_pct,fg2_pct,fg2_per_g,fg2a_per_g,fg3_pct,fg3_per_g,fg3a_per_g,fg_pct,fg_per_g,fga_per_g,ft_pct,ft_per_g,fta_per_g,g,gs,lg_id,mp_per_g,orb_per_g,pf_per_g,pos,pts_per_g,season,stl_per_g,team_id,tov_per_g,trb_per_g
23.0,0.1,0.4,1.4,0.553,0.553,0.8,1.5,0.0,0.0,0.0,0.553,0.8,1.5,0.464,0.3,0.5,51.0,0.0,NBA,6.5,0.7,1.4,PF,1.9,1990,0.2,HOU,0.6,2.1
24.0,0.2,0.2,1.4,0.422,0.427,0.8,2.0,0.0,0.0,0.0,0.422,0.8,2.0,0.412,0.2,0.4,42.0,0.0,NBA,8.2,1.0,0.8,PF,1.8,1991,0.5,HOU,0.7,2.4
28.0,0.0,0.0,1.3,0.25,0.25,0.1,0.6,0.0,0.0,0.0,0.25,0.1,0.6,0.5,0.4,0.9,7.0,0.0,NBA,4.3,0.1,0.9,PF,0.7,1995,0.1,HOU,0.1,1.4
29.0,0.1,0.1,1.3,0.554,0.554,0.9,1.6,0.0,0.0,0.0,0.554,0.9,1.6,0.5,0.4,0.7,51.0,1.0,NBA,6.4,0.8,1.4,PF,2.2,1996,0.2,IND,0.7,2.2
30.0,0.3,0.2,2.4,0.435,0.444,0.9,2.0,0.0,0.0,0.0,0.435,0.9,2.0,0.42,0.5,1.1,45.0,0.0,NBA,12.6,1.3,1.9,PF,2.2,1997,0.4,TOT,0.6,3.7
30.0,0.3,0.1,2.0,0.286,0.303,0.6,1.8,0.0,0.0,0.1,0.286,0.6,1.9,0.529,0.5,0.9,18.0,0.0,NBA,11.3,1.1,1.5,PF,1.6,1997,0.4,NJN,0.7,3.1
30.0,0.3,0.3,2.7,0.526,0.526,1.1,2.1,0.0,0.0,0.0,0.526,1.1,2.1,0.364,0.4,1.2,27.0,0.0,NBA,13.5,1.4,2.2,PF,2.7,1997,0.3,PHI,0.6,4.1
31.0,0.0,0.0,0.0,0.0,0.0,0.0,0.0,0.0,0.0,0.0,0.0,0.0,0.0,0.0,0.0,0.0,1.0,0.0,NBA,3.0,0.0,0.0,PF,0.0,1998,0.0,DAL,0.0,0.0
