age,ast,blk,drb,efg_pct,fg,fg2,fg2_pct,fg2a,fg3,fg3_pct,fg3a,fg_pct,fga,ft,ft_pct,fta,g,gs,lg_id,mp,orb,pf,pos,pts,season,stl,team_id,tov,trb
24.0,269.0,5.0,92.0,0.417,107.0,105.0,0.436,241.0,2.0,0.111,18.0,0.413,259.0,108.0,0.777,139.0,78.0,2.0,NBA,1238.0,30.0,112.0,PG,324.0,1984,93.0,IND,106.0,122.0
25.0,50.0,0.0,12.0,0.37,10.0,10.0,0.385,26.0,0.0,0.0,1.0,0.37,27.0,8.0,1.0,8.0,21.0,0.0,NBA,190.0,4.0,28.0,PG,28.0,1985,11.0,TOT,13.0,16.0
25.0,8.0,0.0,1.0,0.286,2.0,2.0,0.286,7.0,0.0,0.0,0.0,0.286,7.0,0.0,0.0,0.0,6.0,0.0,NBA,31.0,0.0,5.0,PG,4.0,1985,0.0,DET,2.0,1.0
25.0,42.0,0.0,11.0,0.4,8.0,8.0,0.421,19.0,0.0,0.0,1.0,0.4,20.0,8.0,1.0,8.0,15.0,0.0,NBA,159.0,4.0,23.0,PG,24.0,1985,11.0,ATL,11.0,15.0
29.0,93.0,0.0,28.0,0.32,8.0,8.0,0.348,23.0,0.0,0.0,2.0,0.32,25.0,7.0,0.636,11.0,14.0,0.0,NBA,250.0,6.0,28.0,SG,23.0,1989,14.0,CHH,9.0,34.0
30.0,337.0,4.0,122.0,0.323,73.0,71.0,0.323,220.0,2.0,0.222,9.0,0.319,229.0,39.0,0.722,54.0,80.0,38.0,NBA,1744.0,41.0,114.0,PG,187.0,1990,73.0,MIN,63.0,163.0
