age,ast_per_g,blk_per_g,drb_per_g,efg_pct,fg2_pct,fg2_per_g,fg2a_per_g,fg3_pct,fg3_per_g,fg3a_per_g,fg_pct,fg_per_g,fga_per_g,ft_pct,ft_per_g,fta_per_g,g,gs,lg_id,mp_per_g,orb_per_g,pf_per_g,pos,pts_per_g,season,stl_per_g,team_id,tov_per_g,trb_per_g
23.0,1.2,0.1,1.4,0.451,0.48,1.5,3.0,0.0,0.0,0.2,0.451,1.5,3.2,0.447,0.4,0.9,41.0,23.0,NBA,12.3,1.0,2.1,SF,3.3,1995,0.5,NYK,1.0,2.4
24.0,0.3,0.1,0.6,0.397,0.403,0.9,2.2,0.0,0.0,0.0,0.397,0.9,2.2,0.7,0.5,0.6,31.0,0.0,NBA,5.9,0.6,0.8,SF,2.2,1996,0.2,TOT,0.6,1.3
24.0,0.3,0.0,0.6,0.318,0.318,0.5,1.6,0.0,0.0,0.0,0.318,0.5,1.6,0.625,0.4,0.6,14.0,0.0,NBA,4.4,0.6,0.6,SF,1.4,1996,0.1,NYK,0.4,1.2
24.0,0.2,0.1,0.7,0.435,0.444,1.2,2.6,0.0,0.0,0.1,0.435,1.2,2.7,0.75,0.5,0.7,17.0,0.0,NBA,7.2,0.6,1.0,SF,2.9,1996,0.2,SAS,0.8,1.4
25.0,1.4,0.8,1.7,0.509,0.51,3.6,7.1,0.0,0.0,0.0,0.509,3.6,7.1,0.645,1.8,2.9,65.0,26.0,NBA,20.7,1.5,2.5,SF,9.0,1997,0.8,SAS,1.8,3.2
26.0,1.2,0.3,1.6,0.45,0.448,2.3,5.1,0.5,0.0,0.0,0.448,2.3,5.1,0.67,1.7,2.5,72.0,16.0,NBA,18.3,0.9,1.8,SF,6.3,1998,0.5,SAS,1.1,2.5
27.0,0.0,0.0,0.0,0.0,0.0,0.0,2.0,0.0,0.0,0.0,0.0,0.0,2.0,0.5,1.0,2.0,1.0,0.0,NBA,6.0,0.0,0.0,SF,1.0,1999,0.0,DEN,0.0,0.0
28.0,1.4,0.2,2.1,0.491,0.49,3.5,7.1,0.4,0.0,0.1,0.489,3.5,7.2,0.741,1.6,2.2,75.0,23.0,NBA,20.0,1.3,2.5,SF,8.7,2000,0.6,ORL,1.5,3.3
29.0,1.0,0.2,1.9,0.446,0.459,2.0,4.3,0.077,0.0,0.2,0.445,2.0,4.4,0.639,1.0,1.6,82.0,0.0,NBA,14.8,1.0,1.7,SF,5.0,2001,0.4,ORL,1.0,3.0
30.0,1.4,0.3,2.3,0.547,0.553,2.9,5.3,0.0,0.0,0.1,0.547,2.9,5.3,0.657,1.3,2.0,68.0,19.0,NBA,18.9,1.2,2.0,SF,7.1,2002,0.7,ORL,1.3,3.5
31.0,1.2,0.2,1.6,0.425,0.436,1.6,3.7,0.0,0.0,0.1,0.425,1.6,3.8,0.75,1.1,1.5,21.0,2.0,NBA,13.1,0.6,1.6,SF,4.4,2003,0.6,PHI,0.8,2.1
