age,ast,blk,drb,fg,fg2,fg2a,fg3,fg3a,fga,ft,fta,game_score,lg_id,mp,orb,pf,pts,season,stl,team_id,tov,trb
26.0,6.0,2.0,7.0,11.0,10.0,19.0,1.0,1.0,19.0,7.0,9.0,22.5,NBA,0.0,6.0,4.0,27.0,1985,2.0,CLE,4.0,13.0
27.0,7.0,2.0,7.0,13.0,12.0,22.0,1.0,2.0,23.0,8.0,12.0,24.8,NBA,0.0,7.0,5.0,28.0,1986,5.0,TOT,4.0,13.0
27.0,2.0,0.0,5.0,6.0,6.0,9.0,0.0,1.0,9.0,3.0,4.0,11.6,NBA,0.0,2.0,4.0,14.0,1986,1.0,CLE,1.0,5.0
27.0,7.0,2.0,7.0,13.0,12.0,22.0,1.0,2.0,23.0,8.0,12.0,24.8,NBA,0.0,7.0,5.0,28.0,1986,5.0,IND,4.0,13.0
28.0,4.0,1.0,6.0,10.0,10.0,14.0,0.0,1.0,14.0,8.0,10.0,23.0,NBA,0.0,4.0,4.0,27.0,1987,3.0,IND,5.0,9.0
29.0,4.0,2.0,6.0,11.0,11.0,18.0,0.0,1.0,18.0,7.0,10.0,19.7,NBA,0.0,5.0,5.0,25.0,1988,4.0,IND,4.0,10.0
30.0,6.0,2.0,11.0,15.0,15.0,25.0,1.0,1.0,26.0,12.0,12.0,31.9,NBA,0.0,11.0,6.0,36.0,1989,4.0,PHI,5.0,15.0
31.0,8.0,2.0,7.0,11.0,10.0,18.0,1.0,2.0,18.0,7.0,8.0,25.4,NBA,0.0,4.0,5.0,30.0,1990,4.0,PHI,3.0,9.0
32.0,6.0,2.0,9.0,13.0,13.0,22.0,2.0,2.0,22.0,9.0,10.0,23.8,NBA,0.0,7.0,6.0,28.0,1991,5.0,PHI,5.0,11.0
33.0,5.0,1.0,8.0,15.0,14.0,20.0,2.0,5.0,22.0,9.0,9.0,27.5,NBA,0.0,5.0,4.0,34.0,1992,3.0,PHI,4.0,10.0
34.0,4.0,1.0,6.0,10.0,10.0,19.0,3.0,7.0,22.0,12.0,12.0,19.4,NBA,0.0,3.0,4.0,25.0,1993,3.0,PHI,4.0,7.0
35.0,4.0,1.0,4.0,4.0,4.0,7.0,2.0,4.0,9.0,4.0,4.0,9.9,NBA,0.0,4.0,3.0,10.0,1994,1.0,TOT,3.0,8.0
35.0,3.0,1.0,4.0,4.0,2.0,7.0,2.0,3.0,9.0,4.0,4.0,9.9,NBA,0.0,4.0,3.0,10.0,1994,1.0,NJN,1.0,8.0
35.0,4.0,1.0,4.0,4.0,4.0,6.0,1.0,4.0,8.0,2.0,3.0,9.4,NBA,0.0,3.0,1.0,9.0,1994,1.0,WSB,3.0,5.0
