age,ast,ast_per_g,blk,college_id,fg,fg3,fg3_pct,fg3a,fg_pct,fga,ft,ft_pct,fta,g,mp,mp_per_g,orb,pf,pts,pts_per_g,season,stl,tov,trb,trb_per_g
24.0,0.0,0.0,22.0,FRESNOST,234.0,0.0,0.0,0.0,0.549,426.0,104.0,0.813,128.0,35.0,1303.0,37.2,0.0,91.0,572.0,16.3,1983,54.0,76.0,204.0,5.8
25.0,0.0,0.0,11.0,FRESNOST,249.0,0.0,0.0,0.0,0.57,437.0,82.0,0.788,104.0,33.0,1197.0,36.3,0.0,76.0,580.0,17.6,1984,49.0,67.0,200.0,6.1
