age,ast_per_g,blk_per_g,drb_per_g,efg_pct,fg2_pct,fg2_per_g,fg2a_per_g,fg3_pct,fg3_per_g,fg3a_per_g,fg_pct,fg_per_g,fga_per_g,ft_pct,ft_per_g,fta_per_g,g,gs,lg_id,mp_per_g,orb_per_g,pf_per_g,pos,pts_per_g,season,stl_per_g,team_id,tov_per_g,trb_per_g
20.0,1.0,1.8,5.4,0.531,0.532,5.5,10.3,0.0,0.0,0.0,0.531,5.5,10.3,0.793,2.1,2.6,82.0,75.0,NBA,30.5,2.7,3.1,C,13.0,2009,0.5,NJN,1.8,8.1
21.0,2.3,1.7,5.4,0.499,0.5,6.9,13.7,0.0,0.0,0.0,0.499,6.9,13.8,0.817,5.1,6.2,82.0,82.0,NBA,36.9,3.3,3.1,C,18.8,2010,0.7,NJN,2.5,8.6
22.0,1.6,1.5,3.5,0.492,0.492,7.9,16.0,0.0,0.0,0.0,0.492,7.9,16.0,0.787,4.7,6.0,82.0,82.0,NBA,35.2,2.4,2.9,C,20.4,2011,0.6,NJN,2.1,6.0
23.0,1.2,0.8,2.0,0.494,0.494,7.6,15.4,0.0,0.0,0.0,0.494,7.6,15.4,0.625,4.0,6.4,5.0,5.0,NBA,27.2,1.6,1.6,C,19.2,2012,0.2,NJN,1.2,3.6
24.0,0.9,2.1,4.1,0.521,0.522,7.7,14.8,0.0,0.0,0.0,0.521,7.7,14.8,0.758,4.0,5.3,74.0,74.0,NBA,30.4,2.8,2.1,C,19.4,2013,0.4,BRK,1.8,6.9
25.0,0.9,1.8,3.7,0.563,0.566,7.6,13.4,0.0,0.0,0.1,0.563,7.6,13.5,0.817,5.5,6.8,17.0,17.0,NBA,31.4,2.3,3.1,C,20.7,2014,0.5,BRK,1.6,6.0
26.0,0.7,1.8,4.5,0.513,0.517,7.0,13.6,0.1,0.0,0.1,0.513,7.0,13.7,0.814,3.1,3.8,72.0,44.0,NBA,29.2,3.0,2.9,C,17.2,2015,0.6,BRK,1.4,7.4
27.0,2.0,1.7,5.1,0.512,0.515,8.1,15.7,0.143,0.0,0.2,0.511,8.1,15.8,0.787,4.3,5.5,73.0,73.0,NBA,33.7,2.8,2.9,C,20.6,2016,0.8,BRK,2.4,7.8
28.0,2.3,1.7,3.8,0.531,0.536,5.6,10.5,0.346,1.8,5.2,0.474,7.4,15.6,0.81,3.9,4.9,75.0,75.0,NBA,29.6,1.6,2.6,C,20.5,2017,0.5,BRK,2.5,5.4
29.0,1.7,1.3,3.0,0.536,0.549,3.5,6.3,0.345,1.5,4.4,0.465,5.0,10.7,0.703,1.5,2.1,74.0,72.0,NBA,23.4,1.0,2.6,C,13.0,2018,0.4,LAL,1.3,4.0
30.0,1.2,2.2,4.5,0.571,0.613,2.1,3.4,0.365,2.3,6.3,0.452,4.4,9.7,0.842,1.4,1.6,81.0,81.0,NBA,28.7,0.4,2.3,C,12.5,2019,0.6,MIL,1.0,4.9
31.0,1.5,2.0,3.7,0.475,0.561,2.1,3.7,0.279,1.5,5.5,0.392,3.6,9.3,0.905,1.7,1.9,11.0,11.0,NBA,26.7,0.7,2.7,C,10.5,2020,0.5,MIL,1.4,4.5
