lg_id,salary,season,team_name
NBA,2098560.0,2009,New Jersey Nets
NBA,2225880.0,2010,New Jersey Nets
NBA,2413320.0,2011,New Jersey Nets
NBA,3076983.0,2012,New Jersey Nets
NBA,13668750.0,2013,Brooklyn Nets
NBA,14693906.0,2014,Brooklyn Nets
NBA,15719063.0,2015,Brooklyn Nets
NBA,20000000.0,2016,Brooklyn Nets
NBA,21165675.0,2017,Brooklyn Nets
NBA,22642350.0,2018,Los Angeles Lakers
NBA,3382000.0,2019,Milwaukee Bucks
