age,and1s,astd_pts,drawn_offensive,drawn_shooting,fouls_offensive,fouls_shooting,g,lg_id,mp,own_shots_blk,pct_1,pct_2,pct_3,pct_4,pct_5,plus_minus_net,plus_minus_on,pos,season,team_id,tov_bad_pass,tov_lost_ball
19.0,1.0,5.0,0.0,5.0,3.0,14.0,19.0,NBA,104.0,1.0,0.0,0.0,0.0,0.0,100.0,-0.4,-5.1,C,2005,POR,2.0,3.0
20.0,3.0,3.0,1.0,8.0,4.0,25.0,27.0,NBA,212.0,2.0,0.0,0.0,0.0,0.0,100.0,-1.5,-12.5,C,2006,POR,1.0,4.0
