age,ast,ast_per_g,blk,college_id,fg,fg3,fg3_pct,fg3a,fg_pct,fga,ft,ft_pct,fta,g,mp,mp_per_g,orb,pf,pts,pts_per_g,season,stl,tov,trb,trb_per_g
18.0,13.0,0.5,2.0,FLORIDAST,42.0,0.0,0.0,0.0,0.483,87.0,31.0,0.633,49.0,27.0,283.0,10.5,0.0,35.0,115.0,4.3,1986,13.0,44.0,49.0,1.8
19.0,18.0,0.6,2.0,FLORIDAST,87.0,14.0,0.298,47.0,0.442,197.0,42.0,0.618,68.0,30.0,590.0,19.7,0.0,57.0,230.0,7.7,1987,4.0,53.0,126.0,4.2
20.0,48.0,1.6,6.0,FLORIDAST,193.0,72.0,0.453,159.0,0.479,403.0,88.0,0.786,112.0,30.0,902.0,30.1,0.0,69.0,546.0,18.2,1988,34.0,85.0,111.0,3.7
21.0,125.0,4.2,6.0,FLORIDAST,207.0,115.0,0.439,262.0,0.448,462.0,154.0,0.875,176.0,30.0,1067.0,35.6,0.0,70.0,683.0,22.8,1989,53.0,97.0,109.0,3.6
