age,ast,blk,drb,fg,fg2,fg2a,fg3,fg3a,fga,ft,fta,game_score,lg_id,mp,orb,pf,pts,season,stl,team_id,tov,trb
22.0,0.0,0.0,0.0,1.0,1.0,2.0,0.0,0.0,2.0,0.0,0.0,-0.1,NBA,0.0,1.0,2.0,2.0,1990,0.0,IND,1.0,1.0
24.0,4.0,1.0,1.0,5.0,2.0,3.0,3.0,4.0,7.0,4.0,7.0,12.4,NBA,0.0,0.0,4.0,17.0,1992,1.0,IND,3.0,1.0
25.0,6.0,1.0,3.0,2.0,2.0,5.0,1.0,3.0,8.0,1.0,4.0,6.8,NBA,0.0,2.0,5.0,5.0,1993,2.0,IND,2.0,5.0
30.0,3.0,1.0,9.0,8.0,5.0,10.0,6.0,9.0,13.0,2.0,2.0,19.2,NBA,0.0,1.0,4.0,22.0,1998,1.0,PHO,3.0,9.0
31.0,1.0,0.0,5.0,5.0,2.0,4.0,4.0,7.0,10.0,3.0,4.0,11.8,NBA,0.0,1.0,5.0,15.0,1999,3.0,PHO,1.0,6.0
