age,ast,blk,drb,efg_pct,fg,fg2,fg2_pct,fg2a,fg3,fg3_pct,fg3a,fg_pct,fga,ft,ft_pct,fta,g,gs,lg_id,mp,orb,pf,pos,pts,season,stl,team_id,tov,trb
22.0,0.0,0.0,0.0,0.5,1.0,1.0,0.5,2.0,0.0,0.0,0.0,0.5,2.0,0.0,0.0,0.0,1.0,0.0,NBA,4.0,1.0,2.0,SF,2.0,1990,0.0,IND,1.0,1.0
24.0,6.0,1.0,2.0,0.625,6.0,3.0,0.5,6.0,3.0,0.5,6.0,0.5,12.0,8.0,0.727,11.0,2.0,2.0,NBA,53.0,0.0,5.0,SF,23.0,1992,2.0,IND,3.0,2.0
25.0,14.0,1.0,8.0,0.391,8.0,6.0,0.545,11.0,2.0,0.167,12.0,0.348,23.0,1.0,0.25,4.0,4.0,0.0,NBA,79.0,3.0,14.0,SF,19.0,1993,4.0,IND,5.0,11.0
30.0,8.0,1.0,17.0,0.659,21.0,9.0,0.45,20.0,12.0,0.571,21.0,0.512,41.0,3.0,0.75,4.0,4.0,3.0,NBA,126.0,2.0,15.0,SF,57.0,1998,1.0,PHO,6.0,19.0
31.0,2.0,0.0,11.0,0.583,13.0,4.0,0.4,10.0,9.0,0.45,20.0,0.433,30.0,7.0,0.7,10.0,3.0,0.0,NBA,80.0,2.0,13.0,SF,42.0,1999,5.0,PHO,3.0,13.0
