age,avg_dist,fg2_dunk,fg2_pct,fg2_pct_ast,fg2a_pct_fga,fg3_heave,fg3_pct,fg3_pct_ast,fg3_pct_corner,fg3a_heave,fg3a_pct_fga,fg_pct,fg_pct_00_03,fg_pct_03_10,fg_pct_10_16,fg_pct_16_xx,g,lg_id,mp,pct_fg2_dunk,pct_fg3a_corner,pct_fga_00_03,pct_fga_03_10,pct_fga_10_16,pct_fga_16_xx,pos,season,team_id
22.0,7.9,19.0,0.562,0.732,0.973,0.0,0.5,1.0,1.0,0.0,0.027,0.56,0.651,0.5,0.5,0.4,29.0,NBA,342.0,0.267,0.5,0.573,0.08,0.053,0.267,PF,2013,TOR
23.0,8.1,25.0,0.492,0.694,0.894,0.0,0.267,1.0,0.3,0.0,0.106,0.468,0.6,0.387,0.429,0.348,63.0,NBA,847.0,0.191,0.667,0.461,0.22,0.05,0.163,SF,2014,TOT
23.0,14.1,2.0,0.444,0.75,0.643,0.0,0.4,1.0,0.5,0.0,0.357,0.429,0.6,1.0,0.0,0.0,7.0,NBA,61.0,0.143,0.4,0.357,0.071,0.0,0.214,SF,2014,TOR
23.0,7.5,23.0,0.496,0.69,0.921,0.0,0.2,1.0,0.25,0.0,0.079,0.472,0.6,0.367,0.429,0.4,56.0,NBA,786.0,0.197,0.8,0.472,0.236,0.055,0.157,SF,2014,SAC
24.0,12.8,33.0,0.494,0.724,0.819,0.0,0.3,1.0,0.261,1.0,0.181,0.459,0.673,0.419,0.409,0.378,68.0,NBA,1287.0,0.106,0.383,0.296,0.094,0.133,0.296,PF,2015,NYK
25.0,9.7,43.0,0.606,0.71,0.771,0.0,0.388,0.947,0.529,0.0,0.229,0.556,0.735,0.385,0.5,0.424,59.0,NBA,876.0,0.215,0.347,0.458,0.121,0.037,0.154,PF,2016,SAC
26.0,16.2,6.0,0.413,0.727,0.471,0.0,0.411,0.973,0.36,1.0,0.529,0.412,0.489,0.273,0.308,0.4,38.0,NBA,558.0,0.035,0.278,0.265,0.065,0.076,0.059,PF,2017,TOT
26.0,15.4,2.0,0.4,0.75,0.588,0.0,0.143,1.0,0.5,0.0,0.412,0.294,0.5,0.5,1.0,0.0,6.0,NBA,48.0,0.118,0.286,0.235,0.118,0.059,0.118,PF,2017,DAL
26.0,16.3,4.0,0.414,0.724,0.458,0.0,0.434,0.972,0.348,1.0,0.542,0.425,0.488,0.222,0.25,0.5,32.0,NBA,510.0,0.026,0.277,0.268,0.059,0.078,0.052,PF,2017,BRK
27.0,20.7,9.0,0.384,0.857,0.2,0.0,0.349,0.99,0.404,0.0,0.8,0.356,0.5,0.0,0.333,0.333,70.0,NBA,1359.0,0.036,0.305,0.115,0.027,0.025,0.033,PF,2018,BRK
28.0,21.7,0.0,0.667,1.0,0.167,0.0,0.133,1.0,0.2,0.0,0.833,0.222,1.0,0.0,0.0,0.0,10.0,NBA,123.0,0.0,0.333,0.111,0.0,0.056,0.0,PF,2019,PHO
