age,ast,blk,drb,efg_pct,fg,fg2,fg2_pct,fg2a,fg3,fg3_pct,fg3a,fg_pct,fga,ft,ft_pct,fta,g,gs,lg_id,mp,orb,pf,pos,pts,season,stl,team_id,tov,trb
23.0,19.0,23.0,64.0,0.377,46.0,46.0,0.383,120.0,0.0,0.0,2.0,0.377,122.0,16.0,0.552,29.0,38.0,5.0,NBA,408.0,46.0,95.0,C,108.0,1986,6.0,CHI,29.0,110.0
24.0,5.0,13.0,24.0,0.5,30.0,30.0,0.5,60.0,0.0,0.0,0.0,0.5,60.0,16.0,0.64,25.0,35.0,3.0,NBA,233.0,13.0,70.0,C,76.0,1987,4.0,LAL,19.0,37.0
25.0,8.0,42.0,58.0,0.427,44.0,44.0,0.427,103.0,0.0,0.0,0.0,0.427,103.0,44.0,0.667,66.0,48.0,2.0,NBA,421.0,27.0,105.0,C,132.0,1988,7.0,LAL,30.0,85.0
26.0,12.0,58.0,87.0,0.471,72.0,72.0,0.471,153.0,0.0,0.0,0.0,0.471,153.0,49.0,0.645,76.0,43.0,18.0,NBA,623.0,42.0,102.0,PF,193.0,1989,13.0,SAS,48.0,129.0
27.0,1.0,11.0,23.0,0.417,10.0,10.0,0.417,24.0,0.0,0.0,0.0,0.417,24.0,1.0,0.167,6.0,13.0,3.0,NBA,107.0,11.0,18.0,C,21.0,1990,4.0,GSW,9.0,34.0
28.0,4.0,3.0,19.0,0.333,9.0,9.0,0.333,27.0,0.0,0.0,0.0,0.333,27.0,6.0,0.5,12.0,15.0,0.0,NBA,95.0,7.0,27.0,C,24.0,1991,3.0,TOT,3.0,26.0
28.0,1.0,0.0,4.0,0.545,6.0,6.0,0.545,11.0,0.0,0.0,0.0,0.545,11.0,2.0,0.5,4.0,5.0,0.0,NBA,25.0,3.0,9.0,C,14.0,1991,2.0,GSW,2.0,7.0
28.0,3.0,3.0,15.0,0.188,3.0,3.0,0.188,16.0,0.0,0.0,0.0,0.188,16.0,4.0,0.5,8.0,10.0,0.0,NBA,70.0,4.0,18.0,C,10.0,1991,1.0,LAC,1.0,19.0
29.0,0.0,0.0,1.0,0.0,0.0,0.0,0.0,0.0,0.0,0.0,0.0,0.0,0.0,0.0,0.0,0.0,2.0,0.0,NBA,3.0,0.0,0.0,C,0.0,1992,0.0,GSW,0.0,1.0
