age,ast,ast_per_g,blk,college_id,fg,fg3,fg3_pct,fg3a,fg_pct,fga,ft,ft_pct,fta,g,mp,mp_per_g,orb,pf,pts,pts_per_g,season,stl,tov,trb,trb_per_g
19.0,0.0,0.0,30.0,CANISIUS,24.0,0.0,0.0,0.0,0.444,54.0,7.0,0.5,14.0,22.0,311.0,14.1,0.0,57.0,55.0,2.5,1982,4.0,28.0,68.0,3.1
20.0,0.0,0.0,36.0,CANISIUS,49.0,0.0,0.0,0.0,0.462,106.0,27.0,0.519,52.0,28.0,560.0,20.0,0.0,93.0,125.0,4.5,1983,8.0,52.0,131.0,4.7
21.0,0.0,0.0,54.0,CANISIUS,153.0,0.0,0.0,0.0,0.632,242.0,56.0,0.583,96.0,30.0,829.0,27.6,0.0,102.0,362.0,12.1,1984,6.0,73.0,175.0,5.8
22.0,0.0,0.0,52.0,CANISIUS,172.0,0.0,0.0,0.0,0.601,286.0,97.0,0.655,148.0,28.0,812.0,29.0,0.0,86.0,441.0,15.8,1985,14.0,77.0,192.0,6.9
