age,ast_per_mp,blk_per_mp,drb_per_mp,fg2_pct,fg2_per_mp,fg2a_per_mp,fg3_pct,fg3_per_mp,fg3a_per_mp,fg_pct,fg_per_mp,fga_per_mp,ft_pct,ft_per_mp,fta_per_mp,g,gs,lg_id,mp,orb_per_mp,pf_per_mp,pos,pts_per_mp,season,stl_per_mp,team_id,tov_per_mp,trb_per_mp
20.0,1.7,0.7,5.7,0.552,4.9,8.9,0.0,0.0,0.0,0.551,4.9,8.9,0.622,2.3,3.8,80.0,48.0,NBA,2222.0,4.0,3.2,C,12.2,2011,1.5,DET,1.3,9.7
21.0,2.6,0.8,6.9,0.522,7.0,13.5,0.0,0.0,0.0,0.521,7.0,13.5,0.739,3.5,4.7,66.0,66.0,NBA,2082.0,4.1,3.1,C,17.6,2012,1.4,DET,2.8,11.0
22.0,3.8,0.7,7.2,0.488,6.9,14.1,0.0,0.0,0.1,0.486,6.9,14.2,0.689,3.6,5.3,81.0,81.0,NBA,2687.0,3.2,2.5,C,17.4,2013,1.4,DET,3.1,10.4
23.0,2.3,0.6,6.7,0.497,6.7,13.6,0.0,0.0,0.0,0.497,6.7,13.6,0.657,3.2,4.9,82.0,82.0,NBA,2690.0,3.4,2.7,PF,16.7,2014,1.2,DET,2.2,10.2
24.0,2.4,0.6,8.0,0.496,7.1,14.4,0.0,0.0,0.0,0.496,7.1,14.4,0.75,4.2,5.7,69.0,57.0,NBA,2137.0,3.9,2.5,PF,18.5,2015,1.3,DET,2.5,11.9
25.0,2.8,1.0,7.4,0.522,7.6,14.6,0.0,0.0,0.0,0.522,7.6,14.6,0.74,3.5,4.8,79.0,67.0,NBA,2314.0,3.4,2.5,C,18.8,2016,1.1,MIL,2.0,10.8
26.0,3.7,0.8,7.2,0.536,7.6,14.3,0.0,0.0,0.1,0.533,7.6,14.3,0.741,3.5,4.7,81.0,0.0,NBA,1823.0,3.3,3.3,C,18.8,2017,1.8,MIL,2.8,10.5
27.0,3.9,0.8,8.3,0.565,7.5,13.4,0.0,0.0,0.0,0.565,7.5,13.4,0.739,3.0,4.1,51.0,14.0,NBA,1040.0,3.8,3.3,C,18.1,2018,1.5,TOT,3.3,12.1
27.0,2.3,0.0,8.7,0.485,7.3,15.0,0.0,0.0,0.0,0.485,7.3,15.0,0.5,0.9,1.8,5.0,0.0,NBA,79.0,2.7,3.2,C,15.5,2018,0.0,MIL,2.7,11.4
27.0,3.9,0.5,8.5,0.626,7.5,12.0,0.0,0.0,0.0,0.626,7.5,12.0,0.674,2.4,3.6,20.0,14.0,NBA,465.0,3.9,3.1,C,17.4,2018,1.2,PHO,3.1,12.4
27.0,4.3,1.2,8.1,0.53,7.6,14.4,0.0,0.0,0.0,0.53,7.6,14.4,0.797,4.0,5.0,26.0,0.0,NBA,496.0,3.8,3.5,C,19.2,2018,2.0,BOS,3.5,12.0
28.0,1.8,0.6,7.9,0.495,6.8,13.8,0.2,0.1,0.4,0.487,6.9,14.2,0.625,3.4,5.4,43.0,2.0,NBA,480.0,5.0,5.0,C,17.2,2019,1.0,TOT,2.4,12.9
28.0,1.4,0.7,8.2,0.471,6.3,13.4,0.0,0.0,0.3,0.46,6.3,13.7,0.574,3.0,5.2,38.0,2.0,NBA,423.0,5.1,5.2,C,15.6,2019,1.1,TOR,2.6,13.3
28.0,7.2,0.0,0.0,0.6,21.6,36.0,0.0,0.0,0.0,0.6,21.6,36.0,0.0,0.0,0.0,2.0,0.0,NBA,5.0,21.6,0.0,C,43.2,2019,0.0,BOS,0.0,21.6
28.0,4.8,0.0,6.2,0.636,9.7,15.2,1.0,0.7,0.7,0.652,10.4,15.9,0.909,6.9,7.6,3.0,0.0,NBA,52.0,2.8,3.5,C,28.4,2019,0.7,PHI,0.7,9.0
