article_url,date,headline
https://fansided.com/2019/11/14/draftkings-euroleague-basketball-picks-november-15/,2019/11/14,Fansided Fantasy: DraftKings EuroLeague Basketball Picks November 15
https://section215.com/2019/11/13/philadelphia-76ers-kyle-oquinn-signing/,2019/11/13,Section 215: Philadelphia 76ers: Kyle O'Quinn has been a sneaky good signing
https://pistonpowered.com/2019/11/01/detroit-pistons-long-road-out-of-mediocrity/,2019/11/01,Piston Powered: Detroit Pistons long road out of mediocrity
https://www.hoopsrumors.com/2019/10/2019-offseason-in-review-philadelphia-76ers.html,2019/10/20,HoopsRumors: 2019 Offseason In Review: Philadelphia 76ers
https://fansided.com/2019/10/23/draftkings-euroleague-basketball-picks-october-24/,2019/10/23,Fansided Fantasy: DraftKings EuroLeague Basketball Picks October 24
