age,ast,blk,drb,fg,fg2,fg2a,fg3,fg3a,fga,ft,fta,game_score,lg_id,mp,orb,pf,pts,season,stl,team_id,tov,trb
20.0,5.0,3.0,13.0,11.0,11.0,17.0,0.0,1.0,17.0,8.0,10.0,26.2,NBA,44,9.0,6.0,27.0,2011,4.0,DET,5.0,17.0
21.0,7.0,2.0,12.0,15.0,15.0,21.0,0.0,1.0,21.0,13.0,16.0,32.5,NBA,43,8.0,6.0,32.0,2012,4.0,DET,6.0,20.0
22.0,11.0,3.0,13.0,14.0,14.0,22.0,0.0,1.0,22.0,9.0,11.0,31.8,NBA,43,9.0,5.0,35.0,2013,4.0,DET,7.0,18.0
23.0,9.0,3.0,13.0,13.0,13.0,24.0,0.0,1.0,24.0,12.0,15.0,26.0,NBA,44,10.0,6.0,28.0,2014,4.0,DET,5.0,17.0
24.0,6.0,2.0,17.0,11.0,11.0,22.0,0.0,0.0,22.0,11.0,15.0,29.0,NBA,45,10.0,5.0,29.0,2015,4.0,DET,6.0,21.0
25.0,6.0,4.0,12.0,13.0,13.0,21.0,0.0,1.0,21.0,10.0,12.0,25.4,NBA,44,10.0,5.0,29.0,2016,3.0,MIL,6.0,17.0
26.0,7.0,3.0,11.0,12.0,12.0,17.0,0.0,2.0,17.0,7.0,10.0,27.0,NBA,36,6.0,5.0,28.0,2017,4.0,MIL,5.0,16.0
27.0,10.0,2.0,12.0,10.0,10.0,15.0,0.0,0.0,15.0,9.0,9.0,24.8,NBA,35,8.0,5.0,22.0,2018,4.0,TOT,5.0,17.0
27.0,3.0,0.0,6.0,4.0,4.0,9.0,0.0,0.0,9.0,2.0,4.0,9.0,NBA,21,3.0,3.0,10.0,2018,0.0,MIL,3.0,7.0
27.0,7.0,2.0,12.0,10.0,10.0,15.0,0.0,0.0,15.0,6.0,6.0,21.3,NBA,35,8.0,4.0,22.0,2018,3.0,PHO,5.0,17.0
27.0,10.0,2.0,9.0,8.0,8.0,13.0,0.0,0.0,13.0,9.0,9.0,24.8,NBA,28,4.0,5.0,19.0,2018,4.0,BOS,5.0,11.0
28.0,3.0,2.0,8.0,8.0,8.0,11.0,1.0,1.0,11.0,6.0,7.0,16.3,NBA,24,5.0,5.0,18.0,2019,2.0,TOT,3.0,9.0
28.0,2.0,2.0,8.0,8.0,8.0,11.0,0.0,1.0,11.0,4.0,7.0,14.3,NBA,22,5.0,5.0,17.0,2019,2.0,TOR,3.0,9.0
28.0,1.0,0.0,0.0,2.0,2.0,3.0,0.0,0.0,3.0,0.0,0.0,4.8,NBA,4,2.0,0.0,4.0,2019,0.0,BOS,0.0,2.0
28.0,3.0,0.0,5.0,6.0,6.0,9.0,1.0,1.0,10.0,6.0,6.0,16.3,NBA,24,2.0,3.0,18.0,2019,1.0,PHI,1.0,6.0
