age,ast,blk,drb,efg_pct,fg,fg2,fg2_pct,fg2a,fg3,fg3_pct,fg3a,fg_pct,fga,ft,ft_pct,fta,g,gs,lg_id,mp,orb,pf,pos,pts,season,stl,team_id,tov,trb
22.0,50.0,4.0,32.0,0.444,103.0,102.0,0.447,228.0,1.0,0.2,5.0,0.442,233.0,50.0,0.926,54.0,57.0,0.0,NBA,482.0,25.0,55.0,SG,257.0,1986,21.0,HOU,34.0,57.0
23.0,100.0,16.0,99.0,0.419,251.0,251.0,0.425,591.0,0.0,0.0,8.0,0.419,599.0,111.0,0.854,130.0,74.0,3.0,NBA,1174.0,71.0,111.0,SG,613.0,1987,37.0,HOU,74.0,170.0
24.0,87.0,8.0,73.0,0.458,223.0,223.0,0.465,480.0,0.0,0.0,7.0,0.458,487.0,89.0,0.788,113.0,58.0,26.0,NBA,1084.0,53.0,89.0,SG,535.0,1988,50.0,TOT,56.0,126.0
24.0,17.0,2.0,9.0,0.395,34.0,34.0,0.4,85.0,0.0,0.0,1.0,0.395,86.0,15.0,0.938,16.0,14.0,10.0,NBA,199.0,12.0,15.0,SG,83.0,1988,8.0,HOU,6.0,21.0
24.0,70.0,6.0,64.0,0.471,189.0,189.0,0.478,395.0,0.0,0.0,6.0,0.471,401.0,74.0,0.763,97.0,44.0,16.0,NBA,885.0,41.0,74.0,SG,452.0,1988,42.0,GSW,50.0,105.0
25.0,0.0,0.0,2.0,0.25,1.0,1.0,0.25,4.0,0.0,0.0,0.0,0.25,4.0,2.0,1.0,2.0,3.0,0.0,NBA,7.0,0.0,1.0,SG,4.0,1989,1.0,DET,0.0,2.0
26.0,1.0,1.0,5.0,0.35,14.0,14.0,0.35,40.0,0.0,0.0,0.0,0.35,40.0,3.0,0.75,4.0,15.0,0.0,NBA,93.0,5.0,9.0,SG,31.0,1990,7.0,LAC,5.0,10.0
