age,ast_per_g,blk_per_g,drb_per_g,efg_pct,fg2_pct,fg2_per_g,fg2a_per_g,fg3_pct,fg3_per_g,fg3a_per_g,fg_pct,fg_per_g,fga_per_g,ft_pct,ft_per_g,fta_per_g,g,gs,lg_id,mp_per_g,orb_per_g,pf_per_g,pos,pts_per_g,season,stl_per_g,team_id,tov_per_g,trb_per_g
22.0,0.1,0.2,0.3,0.483,0.483,0.9,1.9,0.0,0.0,0.0,0.483,0.9,1.9,0.4,0.1,0.3,15.0,0.0,NBA,5.5,0.3,0.2,SG,2.0,1986,0.3,HOU,0.1,0.7
23.0,0.6,0.0,0.4,0.372,0.381,1.8,4.7,0.0,0.0,0.1,0.372,1.8,4.8,0.833,0.6,0.7,9.0,0.0,NBA,10.1,0.3,1.7,SG,4.1,1987,0.3,HOU,0.3,0.8
