age,ast_pct,blk_pct,bpm,bpm-dum,dbpm,drb_pct,dws,fg3a_per_fga_pct,fta_per_fga_pct,g,lg_id,mp,obpm,orb_pct,ows,per,pos,season,stl_pct,team_id,tov_pct,trb_pct,ts_pct,usg_pct,vorp,ws,ws-dum,ws_per_48
22.0,0.0,0.0,-5.3,0.0,-9.9,56.1,0.0,0.0,0.0,1.0,NBA,2.0,4.6,0.0,0.0,39.8,PG,2018,0.0,IND,0.0,28.2,1.0,22.3,0.0,0.0,0.0,0.425
23.0,6.3,2.1,-3.6,0.0,0.5,7.8,0.3,0.422,0.375,23.0,NBA,210.0,-4.1,4.9,-0.2,7.6,PG,2019,2.8,IND,11.8,6.3,0.443,17.6,-0.1,0.1,0.0,0.02
24.0,11.8,1.3,0.0,0.0,1.2,3.3,0.1,0.167,0.278,3.0,NBA,67.0,-1.2,1.6,0.1,12.6,PG,2020,3.6,IND,4.7,2.5,0.52,13.6,0.0,0.2,0.0,0.131
