age,ast_per_poss,blk_per_poss,def_rtg,drb_per_poss,fg2_pct,fg2_per_poss,fg2a_per_poss,fg3_pct,fg3_per_poss,fg3a_per_poss,fg_pct,fg_per_poss,fga_per_poss,ft_pct,ft_per_poss,fta_per_poss,g,gs,lg_id,mp,off_rtg,orb_per_poss,pf_per_poss,pos,pts_per_poss,season,stl_per_poss,team_id,tov_per_poss,trb_per_poss
23.0,1.6,2.2,106.0,4.7,0.446,8.9,19.9,0.143,0.2,1.4,0.426,9.1,21.3,0.656,4.1,6.3,27.0,8.0,NBA,271.0,89.0,5.9,5.7,PF,22.5,1999,0.6,WAS,5.1,10.7
24.0,0.0,0.0,117.0,0.0,0.0,0.0,0.0,0.0,0.0,0.0,0.0,0.0,0.0,0.0,0.0,0.0,1.0,0.0,NBA,1.0,0.0,0.0,0.0,PF,0.0,2000,0.0,DAL,0.0,0.0
