age,ast_per_poss,blk_per_poss,def_rtg,drb_per_poss,fg2_pct,fg2_per_poss,fg2a_per_poss,fg3_pct,fg3_per_poss,fg3a_per_poss,fg_pct,fg_per_poss,fga_per_poss,ft_pct,ft_per_poss,fta_per_poss,g,gs,lg_id,mp,off_rtg,orb_per_poss,pf_per_poss,pos,pts_per_poss,season,stl_per_poss,team_id,tov_per_poss,trb_per_poss
21.0,6.6,0.8,108.0,3.6,0.429,4.4,10.4,0.2,0.4,2.1,0.39,4.9,12.5,0.824,3.0,3.6,19.0,0.0,NBA,243.0,95.0,1.9,4.7,SG,13.1,2012,1.7,MIN,3.6,5.5
22.0,3.6,1.1,106.0,4.3,0.404,3.8,9.3,0.333,1.4,4.3,0.382,5.2,13.6,0.6,2.1,3.6,16.0,12.0,NBA,289.0,100.0,2.7,5.4,SG,14.0,2013,2.1,MIN,1.8,7.0
24.0,0.0,0.0,115.0,0.0,0.0,0.0,25.1,0.0,0.0,0.0,0.0,0.0,25.1,0.0,0.0,0.0,1.0,0.0,NBA,2.0,0.0,0.0,0.0,SG,0.0,2015,0.0,PHI,0.0,0.0
