age,ast_per_g,blk_per_g,drb_per_g,efg_pct,fg2_pct,fg2_per_g,fg2a_per_g,fg3_pct,fg3_per_g,fg3a_per_g,fg_pct,fg_per_g,fga_per_g,ft_pct,ft_per_g,fta_per_g,g,gs,lg_id,mp_per_g,orb_per_g,pf_per_g,pos,pts_per_g,season,stl_per_g,team_id,tov_per_g,trb_per_g
21.0,1.6,0.2,0.9,0.407,0.429,1.1,2.6,0.2,0.1,0.5,0.39,1.2,3.1,0.824,0.7,0.9,19.0,0.0,NBA,12.8,0.5,1.2,SG,3.3,2012,0.4,MIN,0.9,1.4
22.0,1.3,0.4,1.5,0.434,0.404,1.3,3.3,0.333,0.5,1.5,0.382,1.8,4.8,0.6,0.8,1.3,16.0,12.0,NBA,18.1,0.9,1.9,SG,4.9,2013,0.8,MIN,0.6,2.4
24.0,0.0,0.0,0.0,0.0,0.0,0.0,1.0,0.0,0.0,0.0,0.0,0.0,1.0,0.0,0.0,0.0,1.0,0.0,NBA,2.0,0.0,0.0,SG,0.0,2015,0.0,PHI,0.0,0.0
