age,ast,blk,drb,efg_pct,fg,fg2,fg2_pct,fg2a,fg3,fg3_pct,fg3a,fg_pct,fga,ft,ft_pct,fta,g,gs,lg_id,mp,orb,pf,pos,pts,season,stl,team_id,tov,trb
22.0,15.0,10.0,58.0,0.5,33.0,31.0,0.564,55.0,2.0,0.154,13.0,0.485,68.0,7.0,0.7,10.0,40.0,16.0,NBA,399.0,36.0,74.0,SG,75.0,2014,19.0,OKC,19.0,94.0
23.0,70.0,29.0,195.0,0.51,92.0,71.0,0.612,116.0,21.0,0.247,85.0,0.458,201.0,23.0,0.479,48.0,67.0,65.0,NBA,1286.0,60.0,141.0,SG,228.0,2015,53.0,OKC,46.0,255.0
24.0,47.0,42.0,172.0,0.555,136.0,104.0,0.608,171.0,32.0,0.311,103.0,0.496,274.0,33.0,0.611,54.0,70.0,70.0,NBA,1553.0,79.0,133.0,SG,337.0,2016,53.0,OKC,35.0,251.0
25.0,79.0,79.0,305.0,0.513,215.0,170.0,0.609,279.0,45.0,0.245,184.0,0.464,463.0,47.0,0.423,111.0,79.0,79.0,NBA,2376.0,98.0,204.0,SF,522.0,2017,94.0,OKC,51.0,403.0
26.0,46.0,35.0,110.0,0.562,87.0,79.0,0.627,126.0,8.0,0.222,36.0,0.537,162.0,12.0,0.316,38.0,39.0,39.0,NBA,1037.0,75.0,89.0,SG,194.0,2018,45.0,OKC,30.0,185.0
