age,ast_per_g,blk_per_g,drb_per_g,efg_pct,fg2_pct,fg2_per_g,fg2a_per_g,fg3_pct,fg3_per_g,fg3a_per_g,fg_pct,fg_per_g,fga_per_g,ft_pct,ft_per_g,fta_per_g,g,gs,lg_id,mp_per_g,orb_per_g,pf_per_g,pos,pts_per_g,season,stl_per_g,team_id,tov_per_g,trb_per_g
20.0,0.5,0.1,1.1,0.477,0.514,1.6,3.2,0.222,0.2,0.8,0.455,1.8,4.0,0.833,0.5,0.5,11.0,0.0,NBA,11.9,0.5,0.7,SF,4.3,2008,0.9,NOH,0.5,1.6
21.0,0.5,0.3,1.5,0.429,0.429,0.8,1.8,0.0,0.0,0.0,0.429,0.8,1.8,0.5,0.5,1.0,4.0,0.0,NBA,8.0,0.0,1.5,SF,2.0,2009,0.0,NOH,0.3,1.5
