age,ast,blk,drb,fg,fg2,fg2a,fg3,fg3a,fga,ft,fta,game_score,lg_id,mp,orb,pf,pts,season,stl,team_id,tov,trb
21.0,2.0,1.0,4.0,3.0,2.0,7.0,2.0,3.0,8.0,2.0,3.0,5.0,NBA,30,1.0,6.0,8.0,2014,1.0,POR,2.0,5.0
22.0,4.0,2.0,7.0,5.0,4.0,9.0,3.0,6.0,13.0,3.0,4.0,8.3,NBA,37,2.0,5.0,11.0,2015,3.0,POR,2.0,7.0
23.0,5.0,2.0,6.0,8.0,8.0,13.0,6.0,10.0,18.0,6.0,7.0,19.5,NBA,40,2.0,6.0,26.0,2016,3.0,POR,3.0,6.0
24.0,5.0,2.0,8.0,12.0,7.0,11.0,8.0,10.0,15.0,8.0,8.0,23.1,NBA,43,2.0,5.0,30.0,2017,4.0,POR,3.0,8.0
25.0,4.0,3.0,8.0,13.0,7.0,10.0,8.0,18.0,24.0,9.0,11.0,39.5,NBA,45,2.0,6.0,41.0,2018,2.0,BRK,5.0,8.0
26.0,4.0,1.0,10.0,10.0,4.0,7.0,7.0,13.0,16.0,6.0,9.0,21.3,NBA,38,3.0,6.0,27.0,2019,2.0,BRK,3.0,10.0
