age,ast,blk,drb,fg,fg2,fg2a,fg3,fg3a,fga,ft,fta,game_score,lg_id,mp,orb,pf,pts,season,stl,team_id,tov,trb
22.0,1.0,1.0,2.0,3.0,2.0,2.0,1.0,1.0,3.0,0.0,0.0,8.0,NBA,24,0.0,1.0,7.0,2015,2.0,POR,1.0,2.0
23.0,3.0,1.0,6.0,7.0,6.0,6.0,5.0,7.0,10.0,4.0,5.0,17.6,NBA,38,3.0,5.0,20.0,2016,2.0,POR,3.0,6.0
24.0,1.0,0.0,4.0,3.0,3.0,5.0,1.0,5.0,10.0,1.0,2.0,4.5,NBA,25,0.0,5.0,7.0,2017,1.0,POR,1.0,4.0
