age,ast_per_mp,blk_per_mp,drb_per_mp,fg2_pct,fg2_per_mp,fg2a_per_mp,fg3_pct,fg3_per_mp,fg3a_per_mp,fg_pct,fg_per_mp,fga_per_mp,ft_pct,ft_per_mp,fta_per_mp,g,gs,lg_id,mp,orb_per_mp,pf_per_mp,pos,pts_per_mp,season,stl_per_mp,team_id,tov_per_mp,trb_per_mp
22.0,0.9,0.9,2.8,0.667,1.8,2.8,1.0,1.8,1.8,0.8,3.7,4.6,0.0,0.0,0.0,2.0,1.0,NBA,39.0,0.0,0.9,SG,9.2,2015,1.8,POR,0.9,2.8
23.0,1.8,0.1,3.2,0.605,2.7,4.5,0.429,1.8,4.2,0.521,4.5,8.7,0.737,1.7,2.3,11.0,0.0,NBA,302.0,0.6,2.7,SG,12.5,2016,0.8,POR,0.7,3.8
24.0,0.8,0.0,4.7,0.545,2.3,4.3,0.231,1.2,5.1,0.375,3.5,9.4,0.333,0.4,1.2,4.0,0.0,NBA,92.0,0.0,3.5,SG,8.6,2017,0.4,POR,0.4,4.7
