age,ast,blk,drb,efg_pct,fg,fg2,fg2_pct,fg2a,fg3,fg3_pct,fg3a,fg_pct,fga,ft,ft_pct,fta,g,gs,lg_id,mp,orb,pf,pos,pts,season,stl,team_id,tov,trb
22.0,1.0,1.0,3.0,1.0,4.0,2.0,0.667,3.0,2.0,1.0,2.0,0.8,5.0,0.0,0.0,0.0,2.0,1.0,NBA,39.0,0.0,1.0,SG,10.0,2015,2.0,POR,1.0,3.0
23.0,15.0,1.0,27.0,0.623,38.0,23.0,0.605,38.0,15.0,0.429,35.0,0.521,73.0,14.0,0.737,19.0,11.0,0.0,NBA,302.0,5.0,23.0,SG,105.0,2016,7.0,POR,6.0,32.0
24.0,2.0,0.0,12.0,0.438,9.0,6.0,0.545,11.0,3.0,0.231,13.0,0.375,24.0,1.0,0.333,3.0,4.0,0.0,NBA,92.0,0.0,9.0,SG,22.0,2017,1.0,POR,1.0,12.0
