article_url,date,headline
https://fansided.com/2019/10/31/draftkings-nba-picks-october-31-3/,2019/10/31,FanSided: DraftKings NBA Picks October 31: Kawhi going for 5-0
https://thesixersense.com/2019/10/28/philadelphia-76ers-3-players-watch-atlanta-hawks/,2019/10/28,The Sixer Sense: Philadelphia 76ers: 3 players to watch for against the Atlanta Hawks
https://hoopshabit.com/2019/10/25/atlanta-hawks-3-takeaways-2019-20-season-opener/,2019/10/25,Hoops Habit: Rebuilding Atlanta Hawks drop Detroit on the road; 3 takeaways
https://www.hoopsrumors.com/2019/10/2019-offseason-in-review-brooklyn-nets.html,2019/10/20,HoopsRumors: 2019 Offseason In Review: Brooklyn Nets
