age,avg_dist,fg2_dunk,fg2_pct,fg2_pct_ast,fg2a_pct_fga,fg3_heave,fg3_pct,fg3_pct_ast,fg3_pct_corner,fg3a_heave,fg3a_pct_fga,fg_pct,fg_pct_00_03,fg_pct_03_10,fg_pct_10_16,fg_pct_16_xx,g,lg_id,mp,pct_fg2_dunk,pct_fg3a_corner,pct_fga_00_03,pct_fga_03_10,pct_fga_10_16,pct_fga_16_xx,pos,season,team_id
21.0,15.6,0.0,0.316,0.667,0.576,0.0,0.429,0.833,0.5,0.0,0.424,0.364,0.375,0.333,0.5,0.167,15.0,NBA,100.0,0.0,0.286,0.242,0.091,0.061,0.182,SG,2014,POR
22.0,17.9,9.0,0.485,0.848,0.444,0.0,0.353,1.0,0.4,0.0,0.556,0.412,0.839,0.5,0.111,0.167,51.0,NBA,683.0,0.072,0.412,0.203,0.026,0.059,0.157,SG,2015,POR
23.0,17.2,11.0,0.506,0.769,0.58,0.0,0.393,0.964,0.43,1.0,0.42,0.459,0.711,0.362,0.514,0.443,81.0,NBA,2105.0,0.019,0.302,0.133,0.069,0.109,0.27,SG,2016,POR
24.0,17.7,3.0,0.49,0.775,0.533,0.0,0.444,0.97,0.42,0.0,0.467,0.468,0.646,0.404,0.467,0.421,79.0,NBA,2254.0,0.005,0.268,0.153,0.088,0.07,0.224,SG,2017,POR
25.0,20.0,5.0,0.461,0.743,0.357,0.0,0.378,0.94,0.384,4.0,0.643,0.407,0.739,0.456,0.37,0.312,75.0,NBA,2197.0,0.007,0.137,0.083,0.096,0.065,0.112,SG,2018,BRK
26.0,21.0,0.0,0.342,0.872,0.306,0.0,0.378,0.99,0.519,2.0,0.694,0.367,0.633,0.136,0.5,0.15,43.0,NBA,1133.0,0.0,0.201,0.08,0.059,0.059,0.107,SG,2019,BRK
