age,avg_dist,fg2_dunk,fg2_pct,fg2_pct_ast,fg2a_pct_fga,fg3_heave,fg3_pct,fg3_pct_ast,fg3_pct_corner,fg3a_heave,fg3a_pct_fga,fg_pct,fg_pct_00_03,fg_pct_03_10,fg_pct_10_16,fg_pct_16_xx,g,lg_id,mp,pct_fg2_dunk,pct_fg3a_corner,pct_fga_00_03,pct_fga_03_10,pct_fga_10_16,pct_fga_16_xx,pos,season,team_id
20.0,11.4,32.0,0.478,0.551,0.915,0.0,0.407,0.909,0.458,0.0,0.085,0.472,0.555,0.462,0.403,0.451,81.0,NBA,2009.0,0.04,0.296,0.284,0.165,0.135,0.331,PF,2009,MIA
21.0,11.6,69.0,0.469,0.514,0.902,0.0,0.275,1.0,0.317,1.0,0.098,0.45,0.652,0.42,0.306,0.407,78.0,NBA,2328.0,0.072,0.402,0.285,0.144,0.154,0.319,PF,2010,MIA
22.0,12.6,33.0,0.463,0.425,0.868,0.0,0.366,0.683,0.348,0.0,0.132,0.45,0.658,0.413,0.397,0.409,73.0,NBA,2361.0,0.03,0.14,0.193,0.23,0.176,0.27,SF,2011,MIN
23.0,13.2,9.0,0.462,0.421,0.797,0.0,0.376,0.763,0.441,2.0,0.203,0.445,0.626,0.406,0.374,0.441,47.0,NBA,1087.0,0.02,0.337,0.199,0.193,0.199,0.205,SF,2012,MIN
24.0,13.5,19.0,0.426,0.434,0.812,0.0,0.313,0.844,0.421,1.0,0.188,0.405,0.633,0.306,0.461,0.349,75.0,NBA,1554.0,0.027,0.264,0.206,0.209,0.116,0.281,SF,2013,PHO
25.0,11.3,19.0,0.518,0.551,0.848,0.0,0.389,1.0,0.474,0.0,0.152,0.499,0.67,0.521,0.383,0.375,55.0,NBA,831.0,0.062,0.352,0.307,0.206,0.132,0.203,SF,2014,MIA
26.0,12.6,7.0,0.472,0.357,0.84,0.0,0.235,1.0,0.5,0.0,0.16,0.434,0.614,0.513,0.458,0.319,24.0,NBA,505.0,0.033,0.294,0.208,0.184,0.226,0.222,PF,2015,MIA
27.0,8.9,10.0,0.531,0.567,0.956,0.0,0.333,1.0,0.333,0.0,0.044,0.522,0.649,0.476,0.455,0.447,20.0,NBA,363.0,0.049,0.667,0.361,0.205,0.161,0.229,PF,2016,HOU
28.0,10.2,13.0,0.545,0.545,0.894,0.0,0.419,1.0,0.333,0.0,0.106,0.532,0.699,0.49,0.456,0.451,56.0,NBA,935.0,0.034,0.488,0.303,0.246,0.167,0.175,PF,2017,MIL
29.0,9.0,37.0,0.52,0.467,0.893,0.0,0.395,0.912,0.304,1.0,0.107,0.507,0.675,0.463,0.428,0.37,74.0,NBA,1653.0,0.052,0.267,0.328,0.268,0.171,0.124,PF,2018,NYK
30.0,7.6,7.0,0.529,0.472,0.889,0.0,0.176,1.0,0.25,0.0,0.111,0.49,0.714,0.426,0.333,0.375,26.0,NBA,277.0,0.046,0.471,0.366,0.353,0.118,0.052,PF,2019,LAL
