age,ast_per_g,blk_per_g,drb_per_g,efg_pct,fg2_pct,fg2_per_g,fg2a_per_g,fg3_pct,fg3_per_g,fg3a_per_g,fg_pct,fg_per_g,fga_per_g,ft_pct,ft_per_g,fta_per_g,g,gs,lg_id,mp_per_g,orb_per_g,pf_per_g,pos,pts_per_g,season,stl_per_g,team_id,tov_per_g,trb_per_g
20.0,1.0,0.5,4.1,0.49,0.478,5.2,10.8,0.407,0.4,1.0,0.472,5.6,11.8,0.772,2.3,3.0,81.0,19.0,NBA,24.8,1.4,2.3,PF,13.9,2009,0.5,MIA,1.5,5.4
21.0,1.3,0.6,4.8,0.463,0.469,5.6,12.0,0.275,0.4,1.3,0.45,6.0,13.3,0.8,2.5,3.1,78.0,78.0,NBA,29.8,1.6,2.8,PF,14.8,2010,1.0,MIA,1.7,6.4
22.0,2.2,0.7,4.0,0.474,0.463,6.9,14.8,0.366,0.8,2.2,0.45,7.7,17.1,0.753,3.0,4.0,73.0,73.0,NBA,32.3,1.6,3.0,SF,19.2,2011,0.7,MIN,2.7,5.6
23.0,1.0,0.4,3.6,0.483,0.462,3.9,8.4,0.376,0.8,2.1,0.445,4.7,10.6,0.642,1.3,2.0,47.0,7.0,NBA,23.1,0.8,1.8,SF,11.5,2012,0.4,MIN,1.7,4.4
24.0,1.5,0.5,3.1,0.434,0.426,3.5,8.3,0.313,0.6,1.9,0.405,4.1,10.2,0.746,1.3,1.7,75.0,20.0,NBA,20.7,0.7,1.4,SF,10.1,2013,0.4,PHO,1.9,3.8
25.0,0.8,0.4,2.6,0.528,0.518,2.8,5.5,0.389,0.4,1.0,0.499,3.2,6.5,0.772,1.1,1.4,55.0,2.0,NBA,15.1,0.6,1.7,SF,7.9,2014,0.4,MIA,1.0,3.1
26.0,1.3,0.5,3.2,0.453,0.472,3.5,7.4,0.235,0.3,1.4,0.434,3.8,8.8,0.769,0.8,1.1,24.0,1.0,NBA,21.0,0.5,2.8,PF,8.8,2015,0.6,MIA,1.5,3.7
27.0,0.8,0.5,3.5,0.529,0.531,5.2,9.8,0.333,0.2,0.5,0.522,5.4,10.3,0.776,1.9,2.5,20.0,0.0,NBA,18.2,1.5,2.0,PF,12.8,2016,0.6,HOU,1.2,4.9
28.0,0.9,0.5,2.7,0.554,0.545,3.5,6.5,0.419,0.3,0.8,0.532,3.9,7.3,0.743,1.4,1.9,56.0,6.0,NBA,16.7,0.7,1.6,PF,9.4,2017,0.5,MIL,1.2,3.4
29.0,1.7,0.6,4.3,0.528,0.52,5.1,9.7,0.395,0.5,1.2,0.507,5.5,10.9,0.78,1.7,2.1,74.0,30.0,NBA,22.3,1.3,2.0,PF,13.2,2018,0.5,NYK,1.9,5.6
30.0,1.0,0.4,1.8,0.5,0.529,2.8,5.2,0.176,0.1,0.7,0.49,2.9,5.9,0.718,1.1,1.5,26.0,2.0,NBA,10.7,0.5,1.6,PF,7.0,2019,0.3,LAL,1.0,2.3
