age,ast,blk,drb,fg,fg2,fg2a,fg3,fg3a,fga,ft,fta,game_score,lg_id,mp,orb,pf,pts,season,stl,team_id,tov,trb
20.0,3.0,2.0,11.0,11.0,11.0,21.0,2.0,4.0,25.0,7.0,7.0,13.5,NBA,36,4.0,3.0,22.0,2009,2.0,MIA,3.0,15.0
21.0,2.0,0.0,6.0,7.0,7.0,13.0,1.0,1.0,14.0,3.0,4.0,10.1,NBA,34,3.0,4.0,16.0,2010,3.0,MIA,5.0,8.0
25.0,1.0,0.0,1.0,4.0,4.0,7.0,0.0,0.0,7.0,1.0,3.0,5.5,NBA,18,2.0,2.0,9.0,2014,0.0,MIA,1.0,3.0
27.0,2.0,0.0,6.0,6.0,5.0,11.0,1.0,2.0,13.0,4.0,4.0,10.5,NBA,23,1.0,2.0,17.0,2016,1.0,HOU,3.0,7.0
28.0,1.0,1.0,3.0,5.0,2.0,7.0,3.0,3.0,9.0,0.0,4.0,6.3,NBA,21,2.0,5.0,13.0,2017,1.0,MIL,2.0,5.0
