article_url,date,headline
https://dunkingwithwolves.com/2019/11/09/player-grades-from-the-minnesota-timberwolves-win-over-the-warriors/,2019/11/09,Dunking with Wolves: Player grades from the Minnesota Timberwolves' win over the Warriors
https://dunkingwithwolves.com/2019/11/06/player-grades-minnesota-timberwolves-loss-grizzlies/,2019/11/06,Dunking with Wolves: Player grades from Minnesota Timberwolves' loss to the Grizzlies
https://dunkingwithwolves.com/2019/11/06/timberwolves-at-grizzlies-odds-injuries-and-what-to-watch-for/,2019/11/06,"Dunking with Wolves: Timberwolves at Grizzlies: Odds, injuries, and what to watch for"
