age,ast,ast_per_g,blk,college_id,fg,fg3,fg3_pct,fg3a,fg_pct,fga,ft,ft_pct,fta,g,mp,mp_per_g,orb,pf,pts,pts_per_g,season,stl,tov,trb,trb_per_g
19.0,78.0,2.7,0.0,ALCORNST,101.0,34.0,0.415,82.0,0.414,244.0,82.0,0.781,105.0,29.0,0.0,0.0,0.0,0.0,318.0,11.0,2004,0.0,0.0,71.0,2.4
21.0,73.0,2.3,2.0,JACKSONST,255.0,67.0,0.441,152.0,0.455,560.0,174.0,0.75,232.0,32.0,1114.0,34.8,0.0,0.0,751.0,23.5,2006,46.0,0.0,155.0,4.8
22.0,90.0,2.6,3.0,JACKSONST,311.0,79.0,0.333,237.0,0.414,752.0,246.0,0.743,331.0,35.0,1323.0,37.8,0.0,0.0,947.0,27.1,2007,32.0,0.0,158.0,4.5
