age,ast_per_poss,blk_per_poss,def_rtg,drb_per_poss,fg2_pct,fg2_per_poss,fg2a_per_poss,fg3_pct,fg3_per_poss,fg3a_per_poss,fg_pct,fg_per_poss,fga_per_poss,ft_pct,ft_per_poss,fta_per_poss,g,gs,lg_id,mp,off_rtg,orb_per_poss,pf_per_poss,pos,pts_per_poss,season,stl_per_poss,team_id,tov_per_poss,trb_per_poss
24.0,0.0,0.0,109.0,3.9,0.0,0.0,19.3,0.0,0.0,0.0,0.0,0.0,19.3,1.0,15.5,15.5,4.0,0.0,NBA,14.0,62.0,0.0,15.5,SG,15.5,2009,0.0,CLE,3.9,3.9
26.0,6.1,0.6,117.0,2.8,0.367,6.1,16.5,0.333,0.6,1.7,0.364,6.6,18.2,0.9,5.0,5.5,8.0,0.0,NBA,94.0,98.0,1.1,6.6,SG,18.8,2011,0.6,TOT,2.8,3.9
26.0,7.0,0.6,117.0,3.2,0.333,5.7,17.2,0.333,0.6,1.9,0.333,6.4,19.1,0.875,4.5,5.1,7.0,0.0,NBA,81.0,92.0,1.3,7.0,SG,17.9,2011,0.6,TOR,3.2,4.5
26.0,0.0,0.0,114.0,0.0,0.667,8.1,12.2,0.0,0.0,0.0,0.667,8.1,12.2,1.0,8.1,8.1,1.0,0.0,NBA,13.0,165.0,0.0,4.1,SG,24.4,2011,0.0,LAL,0.0,0.0
27.0,3.6,0.0,107.0,8.0,0.571,7.1,12.5,0.0,0.0,0.0,0.571,7.1,12.5,1.0,4.5,4.5,11.0,0.0,NBA,61.0,108.0,2.7,8.9,SG,18.7,2012,0.9,NOH,4.5,10.7
