age,ast,blk,drb,efg_pct,fg,fg2,fg2_pct,fg2a,fg3,fg3_pct,fg3a,fg_pct,fga,ft,ft_pct,fta,g,gs,lg_id,mp,orb,pf,pos,pts,season,stl,team_id,tov,trb
22.0,0.0,0.0,2.0,0.667,2.0,2.0,0.667,3.0,0.0,0.0,0.0,0.667,3.0,1.0,0.5,2.0,1.0,0.0,NBA,10.0,0.0,2.0,C,5.0,1982,0.0,NJN,0.0,2.0
23.0,1.0,4.0,5.0,0.667,6.0,6.0,0.667,9.0,0.0,0.0,0.0,0.667,9.0,3.0,0.75,4.0,2.0,0.0,NBA,29.0,4.0,2.0,C,15.0,1983,0.0,NJN,1.0,9.0
24.0,6.0,15.0,33.0,0.58,29.0,29.0,0.58,50.0,0.0,0.0,0.0,0.58,50.0,36.0,0.692,52.0,11.0,0.0,NBA,223.0,22.0,17.0,C,94.0,1984,7.0,NJN,9.0,55.0
25.0,4.0,5.0,15.0,0.545,18.0,18.0,0.545,33.0,0.0,0.0,0.0,0.545,33.0,6.0,1.0,6.0,3.0,0.0,NBA,81.0,4.0,5.0,C,42.0,1985,3.0,NJN,10.0,19.0
26.0,5.0,2.0,19.0,0.372,16.0,16.0,0.372,43.0,0.0,0.0,0.0,0.372,43.0,26.0,0.963,27.0,3.0,3.0,NBA,109.0,11.0,11.0,C,58.0,1986,4.0,NJN,9.0,30.0
29.0,2.0,8.0,17.0,0.396,19.0,19.0,0.396,48.0,0.0,0.0,0.0,0.396,48.0,11.0,0.688,16.0,3.0,3.0,NBA,118.0,6.0,8.0,C,49.0,1989,0.0,PHI,2.0,23.0
30.0,11.0,23.0,46.0,0.487,57.0,57.0,0.509,112.0,0.0,0.0,5.0,0.487,117.0,14.0,0.933,15.0,10.0,10.0,NBA,342.0,8.0,27.0,C,128.0,1990,8.0,PHI,17.0,54.0
33.0,0.0,0.0,1.0,0.5,1.0,1.0,0.5,2.0,0.0,0.0,0.0,0.5,2.0,0.0,0.0,0.0,2.0,0.0,NBA,5.0,0.0,0.0,C,2.0,1993,0.0,CHH,0.0,1.0
