age,ast_per_poss,blk_per_poss,def_rtg,drb_per_poss,fg2_pct,fg2_per_poss,fg2a_per_poss,fg3_pct,fg3_per_poss,fg3a_per_poss,fg_pct,fg_per_poss,fga_per_poss,ft_pct,ft_per_poss,fta_per_poss,g,gs,lg_id,mp,off_rtg,orb_per_poss,pf_per_poss,pos,pts_per_poss,season,stl_per_poss,team_id,tov_per_poss,trb_per_poss
22.0,0.0,0.0,105.0,10.0,0.667,10.0,15.0,0.0,0.0,0.0,0.667,10.0,15.0,0.5,5.0,10.0,1.0,0.0,NBA,10.0,133.0,0.0,10.0,C,24.9,1982,0.0,NJN,0.0,10.0
23.0,1.7,6.8,111.0,8.5,0.667,10.2,15.3,0.0,0.0,0.0,0.667,10.2,15.3,0.75,5.1,6.8,2.0,0.0,NBA,29.0,141.0,6.8,3.4,C,25.4,1983,0.0,NJN,1.7,15.3
24.0,1.3,3.3,100.0,7.2,0.58,6.3,10.9,0.0,0.0,0.0,0.58,6.3,10.9,0.692,7.9,11.4,11.0,0.0,NBA,223.0,129.0,4.8,3.7,C,20.5,1984,1.5,NJN,2.0,12.0
25.0,2.2,2.8,111.0,8.4,0.545,10.1,18.5,0.0,0.0,0.0,0.545,10.1,18.5,1.0,3.4,3.4,3.0,0.0,NBA,81.0,96.0,2.2,2.8,C,23.6,1985,1.7,NJN,5.6,10.7
26.0,2.2,0.9,116.0,8.5,0.372,7.1,19.2,0.0,0.0,0.0,0.372,7.1,19.2,0.963,11.6,12.0,3.0,3.0,NBA,109.0,110.0,4.9,4.9,C,25.9,1986,1.8,NJN,4.0,13.4
29.0,0.9,3.4,110.0,7.3,0.396,8.1,20.5,0.0,0.0,0.0,0.396,8.1,20.5,0.688,4.7,6.8,3.0,3.0,NBA,118.0,96.0,2.6,3.4,C,20.9,1989,0.0,PHI,0.9,9.8
30.0,1.7,3.5,112.0,6.9,0.509,8.6,16.9,0.0,0.0,0.8,0.487,8.6,17.6,0.933,2.1,2.3,10.0,10.0,NBA,342.0,99.0,1.2,4.1,C,19.3,1990,1.2,PHI,2.6,8.1
33.0,0.0,0.0,107.0,10.4,0.5,10.4,20.9,0.0,0.0,0.0,0.5,10.4,20.9,0.0,0.0,0.0,2.0,0.0,NBA,5.0,107.0,0.0,0.0,C,20.9,1993,0.0,CHH,0.0,10.4
