age,and1s,astd_pts,drawn_offensive,drawn_shooting,fouls_offensive,fouls_shooting,g,lg_id,mp,own_shots_blk,pct_1,pct_2,pct_3,pct_4,pct_5,plus_minus_net,plus_minus_on,pos,season,team_id,tov_bad_pass,tov_lost_ball
22.0,2.0,47.0,3.0,30.0,3.0,20.0,57.0,NBA,535.0,25.0,0.0,0.0,4.0,83.0,14.0,-0.2,1.4,SF,2010,CHA,4.0,3.0
23.0,12.0,71.0,2.0,30.0,7.0,20.0,49.0,NBA,576.0,11.0,0.0,4.0,50.0,44.0,2.0,-2.8,-4.3,SF,2011,TOT,10.0,10.0
23.0,11.0,60.0,1.0,25.0,5.0,18.0,41.0,NBA,488.0,10.0,0.0,5.0,53.0,40.0,2.0,2.4,-2.4,SF,2011,CHA,9.0,8.0
23.0,1.0,11.0,1.0,5.0,2.0,2.0,8.0,NBA,88.0,1.0,0.0,0.0,37.0,63.0,0.0,-15.2,-13.7,SF,2011,NYK,1.0,2.0
24.0,19.0,143.0,3.0,70.0,3.0,44.0,65.0,NBA,1443.0,41.0,0.0,1.0,91.0,8.0,0.0,1.7,-14.7,SF,2012,CHA,16.0,21.0
