age,ast,blk,drb,efg_pct,fg,fg2,fg2_pct,fg2a,fg3,fg3_pct,fg3a,fg_pct,fga,ft,ft_pct,fta,g,gs,lg_id,mp,orb,pf,pos,pts,season,stl,team_id,tov,trb
21.0,16.0,3.0,23.0,0.521,21.0,13.0,0.52,25.0,8.0,0.348,23.0,0.438,48.0,11.0,0.846,13.0,15.0,3.0,NBA,181.0,10.0,14.0,SG,61.0,2017,9.0,GSW,3.0,33.0
22.0,0.0,0.0,2.0,0.5,1.0,1.0,1.0,1.0,0.0,0.0,1.0,0.5,2.0,2.0,1.0,2.0,6.0,0.0,NBA,16.0,1.0,1.0,SG,4.0,2018,2.0,GSW,0.0,3.0
23.0,4.0,0.0,1.0,0.3,1.0,0.0,0.0,2.0,1.0,0.333,3.0,0.2,5.0,2.0,1.0,2.0,11.0,0.0,NBA,48.0,2.0,4.0,SG,5.0,2019,2.0,TOR,1.0,3.0
