age,ast,blk,drb,fg,fg2,fg2a,fg3,fg3a,fga,ft,fta,game_score,lg_id,mp,orb,pf,pts,season,stl,team_id,tov,trb
22.0,7.0,2.0,12.0,11.0,10.0,18.0,3.0,6.0,23.0,6.0,7.0,24.4,NBA,39,5.0,6.0,28.0,2014,3.0,BOS,6.0,12.0
23.0,7.0,3.0,9.0,12.0,9.0,13.0,4.0,6.0,17.0,6.0,8.0,27.1,NBA,42,7.0,6.0,30.0,2015,4.0,BOS,5.0,13.0
24.0,5.0,3.0,8.0,11.0,8.0,15.0,5.0,6.0,21.0,6.0,7.0,24.1,NBA,38,3.0,6.0,28.0,2016,4.0,BOS,4.0,11.0
25.0,6.0,2.0,10.0,9.0,6.0,8.0,4.0,7.0,13.0,6.0,7.0,25.6,NBA,36,4.0,6.0,26.0,2017,3.0,BOS,4.0,11.0
26.0,10.0,4.0,10.0,12.0,8.0,12.0,6.0,8.0,19.0,9.0,10.0,30.4,NBA,42,5.0,5.0,32.0,2018,5.0,MIA,5.0,13.0
27.0,6.0,3.0,9.0,11.0,7.0,11.0,5.0,10.0,17.0,9.0,11.0,23.3,NBA,45,4.0,5.0,28.0,2019,4.0,MIA,4.0,11.0
28.0,5.0,2.0,8.0,5.0,2.0,5.0,4.0,9.0,11.0,4.0,4.0,13.5,NBA,30,3.0,6.0,14.0,2020,2.0,MIA,3.0,8.0
