age,ast_per_poss,blk_per_poss,def_rtg,drb_per_poss,fg2_pct,fg2_per_poss,fg2a_per_poss,fg3_pct,fg3_per_poss,fg3a_per_poss,fg_pct,fg_per_poss,fga_per_poss,ft_pct,ft_per_poss,fta_per_poss,g,gs,lg_id,mp,off_rtg,orb_per_poss,pf_per_poss,pos,pts_per_poss,season,stl_per_poss,team_id,tov_per_poss,trb_per_poss
23.0,10.4,0.0,109.0,4.2,0.471,8.3,17.7,0.333,1.0,3.1,0.45,9.4,20.9,0.0,0.0,0.0,7.0,0.0,NBA,47.0,96.0,2.1,2.1,PG,19.8,1990,2.1,PHO,5.2,6.3
28.0,13.2,0.0,121.0,0.0,0.0,0.0,13.2,0.0,0.0,2.6,0.0,0.0,15.9,1.0,5.3,5.3,3.0,0.0,NBA,20.0,89.0,7.9,13.2,PG,5.3,1995,2.6,DEN,0.0,7.9
