age,ast_pct,blk_pct,bpm,bpm-dum,dbpm,drb_pct,dws,fg3a_per_fga_pct,fta_per_fga_pct,g,lg_id,mp,obpm,orb_pct,ows,per,pos,season,stl_pct,team_id,tov_pct,trb_pct,ts_pct,usg_pct,vorp,ws,ws-dum,ws_per_48
23.0,32.2,0.1,-5.3,0.0,-1.3,6.5,0.7,0.074,0.273,67.0,NBA,678.0,-4.0,2.8,-0.8,9.7,PG,1990,2.5,PHO,24.1,4.8,0.43,19.4,-0.6,-0.1,0.0,-0.007
24.0,25.4,0.0,-4.2,0.0,0.6,9.4,0.2,0.111,0.222,22.0,NBA,107.0,-4.8,1.1,-0.1,9.2,PG,1991,4.3,NYK,25.2,5.4,0.439,16.2,-0.1,0.0,0.0,0.012
25.0,34.7,0.1,-4.1,0.0,-2.5,7.0,0.6,0.08,0.107,68.0,NBA,891.0,-1.7,1.8,0.8,13.0,PG,1992,2.6,TOT,16.3,4.4,0.478,13.8,-0.5,1.4,0.0,0.077
25.0,34.6,0.0,-7.2,0.0,1.1,5.8,0.1,0.0,0.25,13.0,NBA,57.0,-8.3,1.9,-0.2,8.1,PG,1992,6.6,CHH,36.0,3.8,0.056,9.8,-0.1,-0.1,0.0,-0.062
25.0,34.7,0.1,-3.9,0.0,-2.7,7.1,0.5,0.083,0.101,55.0,NBA,834.0,-1.2,1.8,1.0,13.3,PG,1992,2.3,PHI,15.3,4.5,0.494,14.1,-0.4,1.5,0.0,0.086
26.0,28.3,0.1,-6.3,0.0,-2.8,4.7,0.4,0.309,0.141,72.0,NBA,996.0,-3.5,2.6,-0.2,8.7,PG,1993,2.1,PHI,18.8,3.6,0.415,12.2,-1.1,0.2,0.0,0.01
28.0,40.2,1.0,-8.3,0.0,-3.7,5.4,0.1,0.212,0.364,14.0,NBA,151.0,-4.6,1.6,-0.1,9.1,PG,1995,2.1,DEN,26.8,3.6,0.405,15.6,-0.2,0.0,0.0,0.011
29.0,27.4,0.3,-6.5,0.0,-2.4,6.0,0.2,0.343,0.061,31.0,NBA,527.0,-4.0,1.5,-0.2,7.7,PG,1996,2.2,TOT,22.8,3.7,0.408,11.2,-0.6,0.0,0.0,0.003
29.0,33.3,0.5,-6.1,0.0,-2.9,7.6,0.1,0.375,0.125,11.0,NBA,280.0,-3.2,1.2,0.1,9.5,PG,1996,2.2,PHI,22.9,4.3,0.444,10.5,-0.3,0.1,0.0,0.026
29.0,22.9,0.0,-5.7,0.0,-1.5,4.2,0.1,0.357,0.0,10.0,NBA,138.0,-4.1,0.9,-0.1,7.5,PG,1996,3.0,WSB,26.3,2.6,0.429,12.3,-0.1,0.0,0.0,0.002
29.0,18.3,0.0,-8.5,0.0,-2.4,4.3,0.0,0.261,0.0,10.0,NBA,109.0,-6.0,3.2,-0.2,3.1,PG,1996,1.0,DEN,17.9,3.7,0.304,11.5,-0.2,-0.1,0.0,-0.053
