age,ast_per_g,blk_per_g,drb_per_g,efg_pct,fg2_pct,fg2_per_g,fg2a_per_g,fg3_pct,fg3_per_g,fg3a_per_g,fg_pct,fg_per_g,fga_per_g,ft_pct,ft_per_g,fta_per_g,g,gs,lg_id,mp_per_g,orb_per_g,pf_per_g,pos,pts_per_g,season,stl_per_g,team_id,tov_per_g,trb_per_g
22.0,0.4,0.6,4.2,0.468,0.47,3.9,8.3,0.222,0.0,0.1,0.467,3.9,8.4,0.657,1.5,2.2,82.0,19.0,NBA,21.8,2.2,2.8,PF,9.3,1985,0.4,ATL,1.3,6.4
23.0,0.5,0.5,5.6,0.517,0.52,5.1,9.8,0.0,0.0,0.1,0.517,5.1,9.9,0.654,2.1,3.2,82.0,59.0,NBA,28.0,3.0,3.6,PF,12.3,1986,0.8,ATL,2.2,8.6
24.0,0.8,0.8,6.5,0.537,0.538,6.6,12.3,0.25,0.0,0.0,0.536,6.6,12.4,0.709,2.8,4.0,81.0,81.0,NBA,32.4,4.0,3.9,PF,16.1,1987,0.8,ATL,2.1,10.5
25.0,0.4,0.5,4.2,0.518,0.52,4.7,9.1,0.0,0.0,0.0,0.518,4.7,9.2,0.649,2.1,3.3,75.0,55.0,NBA,27.9,3.1,3.2,PF,11.6,1988,0.9,ATL,1.8,7.3
27.0,0.7,0.6,4.8,0.52,0.521,5.1,9.9,0.286,0.0,0.1,0.519,5.2,9.9,0.683,2.1,3.0,81.0,51.0,NBA,28.1,3.1,3.2,PF,12.4,1990,0.8,ATL,1.8,8.0
28.0,1.2,0.5,5.6,0.506,0.505,5.5,10.9,0.4,0.1,0.1,0.504,5.6,11.0,0.668,2.0,3.0,80.0,80.0,NBA,29.7,3.2,2.9,PF,13.1,1991,0.8,ATL,1.9,8.8
29.0,2.1,0.7,10.4,0.485,0.493,7.2,14.7,0.162,0.1,0.5,0.483,7.3,15.1,0.804,3.6,4.5,81.0,80.0,NBA,36.6,5.2,2.8,PF,18.3,1992,0.9,ATL,2.4,15.5
30.0,2.1,0.5,8.7,0.509,0.512,7.6,14.9,0.241,0.1,0.4,0.506,7.7,15.2,0.653,2.5,3.8,80.0,80.0,NBA,36.0,4.2,3.3,PF,17.9,1993,0.9,ATL,2.7,12.9
31.0,1.9,0.5,7.9,0.502,0.501,7.7,15.4,0.375,0.1,0.3,0.499,7.8,15.7,0.713,3.4,4.7,80.0,80.0,NBA,35.8,4.2,3.1,PF,19.1,1994,1.0,ATL,2.4,12.0
32.0,1.3,0.5,7.5,0.467,0.47,7.0,14.9,0.2,0.0,0.2,0.466,7.1,15.1,0.69,3.1,4.4,67.0,63.0,NBA,35.7,3.4,3.2,PF,17.2,1995,0.9,TOT,2.4,10.9
32.0,1.5,1.5,13.0,0.39,0.4,8.0,20.0,0.0,0.0,0.5,0.39,8.0,20.5,0.667,5.0,7.5,2.0,2.0,NBA,44.5,5.0,3.5,PF,21.0,1995,0.5,ATL,3.5,18.0
32.0,1.3,0.5,7.4,0.471,0.473,7.0,14.8,0.214,0.0,0.2,0.469,7.0,15.0,0.691,3.0,4.3,65.0,61.0,NBA,35.4,3.3,3.2,PF,17.1,1995,0.9,MIA,2.4,10.7
33.0,0.7,0.5,5.7,0.457,0.461,4.3,9.4,0.111,0.0,0.1,0.456,4.3,9.5,0.708,1.9,2.7,75.0,60.0,NBA,28.5,2.8,3.4,PF,10.6,1996,0.4,TOT,2.1,8.5
33.0,0.7,0.5,6.1,0.473,0.479,4.1,8.7,0.0,0.0,0.1,0.473,4.1,8.8,0.712,1.9,2.7,47.0,42.0,NBA,28.9,2.9,3.4,PF,10.2,1996,0.4,MIA,2.1,8.9
33.0,0.7,0.6,5.1,0.435,0.436,4.6,10.6,0.25,0.0,0.1,0.433,4.6,10.7,0.701,1.9,2.8,28.0,18.0,NBA,27.8,2.6,3.4,PF,11.3,1996,0.5,GSW,2.2,7.8
34.0,0.9,0.4,5.5,0.482,0.487,4.6,9.5,0.143,0.0,0.2,0.481,4.7,9.7,0.693,1.9,2.7,75.0,32.0,NBA,26.2,1.9,2.9,PF,11.2,1997,0.6,HOU,1.6,7.5
35.0,1.0,0.5,5.5,0.511,0.513,6.5,12.8,0.143,0.0,0.1,0.51,6.6,12.9,0.793,3.0,3.8,81.0,74.0,NBA,31.2,2.9,2.9,PF,16.1,1998,0.7,HOU,2.1,8.4
36.0,1.6,0.7,5.7,0.418,0.42,4.5,10.6,0.0,0.0,0.0,0.418,4.5,10.6,0.839,3.1,3.7,42.0,38.0,NBA,29.0,2.6,3.2,C,12.0,1999,0.7,TOR,2.0,8.3
37.0,0.6,0.6,3.6,0.416,0.415,3.0,7.2,0.333,0.0,0.0,0.415,3.0,7.2,0.799,1.7,2.1,79.0,1.0,NBA,21.3,2.5,3.2,PF,7.6,2000,0.5,TOR,1.2,6.1
38.0,0.6,0.7,4.6,0.441,0.443,3.9,8.8,0.167,0.0,0.1,0.441,3.9,8.8,0.769,1.4,1.9,78.0,22.0,NBA,23.5,2.3,2.8,C,9.3,2001,0.7,TOT,1.1,6.8
38.0,0.6,0.6,4.4,0.461,0.464,3.5,7.6,0.0,0.0,0.1,0.461,3.5,7.7,0.753,1.7,2.3,35.0,9.0,NBA,22.0,1.9,2.2,C,8.8,2001,0.5,TOR,1.1,6.4
38.0,0.7,0.7,4.7,0.429,0.429,4.2,9.7,0.25,0.0,0.1,0.428,4.2,9.8,0.788,1.2,1.5,43.0,13.0,NBA,24.6,2.5,3.2,C,9.6,2001,0.9,DEN,1.1,7.2
39.0,0.3,0.4,3.7,0.44,0.442,2.4,5.4,0.0,0.0,0.0,0.44,2.4,5.5,0.747,1.3,1.7,52.0,5.0,NBA,16.6,2.0,1.9,PF,6.1,2002,0.5,HOU,0.8,5.8
40.0,0.3,0.3,2.0,0.479,0.482,1.7,3.6,0.0,0.0,0.0,0.479,1.7,3.6,0.614,0.7,1.2,71.0,6.0,NBA,11.8,1.2,1.7,C,4.2,2003,0.3,SAS,0.8,3.2
41.0,0.2,0.2,1.3,0.467,0.47,1.5,3.1,0.0,0.0,0.0,0.467,1.5,3.1,0.615,0.5,0.8,48.0,0.0,NBA,7.8,0.8,1.3,C,3.4,2004,0.4,SAS,0.7,2.0
42.0,0.3,0.2,1.6,0.389,0.398,1.2,3.0,0.0,0.0,0.1,0.389,1.2,3.1,0.739,0.6,0.8,29.0,5.0,NBA,11.9,1.0,1.8,C,3.0,2005,0.3,ATL,0.5,2.6
44.0,0.2,0.2,1.2,0.385,0.385,1.0,2.6,0.0,0.0,0.0,0.385,1.0,2.6,1.0,0.4,0.4,5.0,0.0,NBA,8.6,0.4,2.2,PF,2.4,2007,0.4,DAL,0.4,1.6
