age,ast_per_mp,blk_per_mp,drb_per_mp,fg2_pct,fg2_per_mp,fg2a_per_mp,fg3_pct,fg3_per_mp,fg3a_per_mp,fg_pct,fg_per_mp,fga_per_mp,ft_pct,ft_per_mp,fta_per_mp,g,gs,lg_id,mp,orb_per_mp,pf_per_mp,pos,pts_per_mp,season,stl_per_mp,team_id,tov_per_mp,trb_per_mp
24.0,1.4,0.0,6.2,0.5,4.8,9.6,0.333,0.5,1.4,0.478,5.3,11.0,0.7,3.4,4.8,5.0,0.0,NBA,75.0,3.8,5.8,SG,14.4,2001,2.4,DAL,1.0,10.1
25.0,1.4,0.3,4.5,0.5,4.1,8.2,0.0,0.0,0.3,0.48,4.1,8.6,0.75,1.0,1.4,7.0,0.0,NBA,105.0,4.5,5.1,SG,9.3,2002,1.0,DAL,1.0,8.9
26.0,1.0,0.6,4.5,0.364,2.6,7.1,0.222,0.6,2.9,0.323,3.2,10.0,1.0,1.3,1.3,10.0,0.0,NBA,112.0,1.0,5.8,SG,8.4,2003,0.3,PHI,1.0,5.5
28.0,1.8,0.4,5.4,0.222,0.7,3.2,0.222,0.7,3.2,0.222,1.4,6.5,0.0,0.0,0.0,5.0,2.0,NBA,100.0,0.4,5.0,SG,3.6,2005,0.7,DEN,1.1,5.8
29.0,1.6,0.3,2.9,0.565,3.4,6.0,0.313,2.6,8.4,0.418,6.0,14.5,0.875,1.8,2.1,5.0,4.0,NBA,137.0,0.8,3.2,SG,16.6,2006,0.8,DEN,0.3,3.7
30.0,1.6,0.8,3.3,0.0,0.0,2.5,0.0,0.0,3.3,0.0,0.0,5.7,0.5,0.8,1.6,6.0,0.0,NBA,44.0,1.6,5.7,SG,0.8,2007,1.6,DAL,1.6,4.9
