age,ast_per_poss,blk_per_poss,def_rtg,drb_per_poss,fg2_pct,fg2_per_poss,fg2a_per_poss,fg3_pct,fg3_per_poss,fg3a_per_poss,fg_pct,fg_per_poss,fga_per_poss,ft_pct,ft_per_poss,fta_per_poss,g,gs,lg_id,mp,off_rtg,orb_per_poss,pf_per_poss,pos,pts_per_poss,season,stl_per_poss,team_id,tov_per_poss,trb_per_poss
24.0,2.2,0.0,102.0,9.4,0.5,7.2,14.5,0.333,0.7,2.2,0.478,8.0,16.6,0.7,5.1,7.2,5.0,0.0,NBA,75.0,119.0,5.8,8.7,SG,21.7,2001,3.6,DAL,1.4,15.2
25.0,1.9,0.5,112.0,6.2,0.5,5.7,11.4,0.0,0.0,0.5,0.48,5.7,11.9,0.75,1.4,1.9,7.0,0.0,NBA,105.0,116.0,6.2,7.1,SG,12.8,2002,1.4,DAL,1.4,12.3
26.0,1.5,1.0,107.0,7.0,0.364,4.0,11.0,0.222,1.0,4.5,0.323,5.0,15.5,1.0,2.0,2.0,10.0,0.0,NBA,112.0,89.0,1.5,9.0,SG,13.0,2003,0.5,PHI,1.5,8.5
28.0,2.6,0.5,109.0,7.9,0.222,1.1,4.8,0.222,1.1,4.8,0.222,2.1,9.5,0.0,0.0,0.0,5.0,2.0,NBA,100.0,62.0,0.5,7.4,SG,5.3,2005,1.1,DEN,1.6,8.5
29.0,2.3,0.4,106.0,4.2,0.565,4.9,8.8,0.313,3.8,12.2,0.418,8.8,20.9,0.875,2.7,3.0,5.0,4.0,NBA,137.0,116.0,1.1,4.6,SG,24.0,2006,1.1,DEN,0.4,5.3
30.0,2.3,1.2,112.0,4.7,0.0,0.0,3.5,0.0,0.0,4.7,0.0,0.0,8.2,0.5,1.2,2.3,6.0,0.0,NBA,44.0,36.0,2.3,8.2,SG,1.2,2007,2.3,DAL,2.3,7.0
