age,avg_dist,fg2_dunk,fg2_pct,fg2_pct_ast,fg2a_pct_fga,fg3_heave,fg3_pct,fg3_pct_ast,fg3_pct_corner,fg3a_heave,fg3a_pct_fga,fg_pct,fg_pct_00_03,fg_pct_03_10,fg_pct_10_16,fg_pct_16_xx,g,lg_id,mp,pct_fg2_dunk,pct_fg3a_corner,pct_fga_00_03,pct_fga_03_10,pct_fga_10_16,pct_fga_16_xx,pos,season,team_id
24.0,5.1,5.0,0.443,0.659,0.964,0.0,0.286,1.0,0.25,0.0,0.036,0.438,0.594,0.228,0.381,0.364,37.0,NBA,820.0,0.031,0.571,0.5,0.297,0.109,0.057,SG,2001,DAL
25.0,7.3,0.0,0.544,0.687,0.919,0.0,0.313,0.8,0.333,1.0,0.081,0.525,0.695,0.375,0.292,0.345,44.0,NBA,885.0,0.0,0.375,0.53,0.121,0.121,0.146,SG,2002,DAL
26.0,10.0,2.0,0.496,0.659,0.862,0.0,0.273,0.933,0.269,1.0,0.138,0.465,0.642,0.459,0.286,0.387,75.0,NBA,1514.0,0.005,0.473,0.379,0.153,0.141,0.188,SG,2003,PHI
27.0,12.6,1.0,0.412,0.667,0.749,0.0,0.273,1.0,0.261,0.0,0.251,0.377,0.489,0.214,0.433,0.464,53.0,NBA,703.0,0.006,0.523,0.257,0.16,0.171,0.16,SG,2004,PHI
28.0,12.3,4.0,0.61,0.784,0.601,0.0,0.405,0.959,0.431,1.0,0.399,0.528,0.718,0.353,0.25,0.346,70.0,NBA,1522.0,0.013,0.421,0.432,0.056,0.026,0.086,SG,2005,DEN
29.0,16.8,3.0,0.546,0.726,0.417,0.0,0.354,0.988,0.286,0.0,0.583,0.434,0.66,0.524,0.182,0.381,73.0,NBA,1758.0,0.007,0.374,0.24,0.05,0.026,0.101,SG,2006,DEN
30.0,13.2,1.0,0.464,0.604,0.656,0.0,0.311,1.0,0.268,0.0,0.344,0.411,0.663,0.333,0.296,0.293,76.0,NBA,1372.0,0.003,0.544,0.288,0.14,0.09,0.137,SG,2007,DAL
31.0,16.9,0.0,0.448,0.5,0.573,0.0,0.3,0.933,0.444,1.0,0.427,0.385,0.714,0.444,0.455,0.231,31.0,NBA,520.0,0.0,0.18,0.179,0.077,0.094,0.222,SG,2008,MIN
32.0,12.7,1.0,0.444,0.604,0.679,0.0,0.255,1.0,0.364,1.0,0.321,0.384,0.464,0.467,0.5,0.36,63.0,NBA,878.0,0.006,0.431,0.352,0.094,0.075,0.157,SF,2009,MEM
