age,ast_per_mp,blk_per_mp,drb_per_mp,fg2_pct,fg2_per_mp,fg2a_per_mp,fg3_pct,fg3_per_mp,fg3a_per_mp,fg_pct,fg_per_mp,fga_per_mp,ft_pct,ft_per_mp,fta_per_mp,g,gs,lg_id,mp,orb_per_mp,pf_per_mp,pos,pts_per_mp,season,stl_per_mp,team_id,tov_per_mp,trb_per_mp
27.0,0.7,1.3,6.0,0.571,5.3,9.3,0.0,0.0,0.0,0.571,5.3,9.3,0.5,2.7,5.3,4.0,4.0,NBA,54.0,4.7,11.3,C,13.3,2001,1.3,ORL,1.3,10.7
28.0,0.0,0.0,0.0,0.0,0.0,0.0,0.0,0.0,0.0,0.0,0.0,0.0,0.0,0.0,8.0,2.0,0.0,NBA,9.0,0.0,12.0,C,0.0,2002,0.0,ORL,4.0,0.0
29.0,0.7,1.7,5.2,0.6,4.2,6.9,0.0,0.0,0.0,0.6,4.2,6.9,0.8,1.4,1.7,7.0,6.0,NBA,104.0,2.8,8.7,C,9.7,2003,0.7,ORL,3.1,8.0
