age,ast_per_mp,blk_per_mp,drb_per_mp,fg2_pct,fg2_per_mp,fg2a_per_mp,fg3_pct,fg3_per_mp,fg3a_per_mp,fg_pct,fg_per_mp,fga_per_mp,ft_pct,ft_per_mp,fta_per_mp,g,gs,lg_id,mp,orb_per_mp,pf_per_mp,pos,pts_per_mp,season,stl_per_mp,team_id,tov_per_mp,trb_per_mp
22.0,1.6,0.9,3.7,0.49,4.3,8.7,0.0,0.0,0.2,0.48,4.3,8.9,0.579,2.0,3.4,22.0,1.0,NBA,203.0,3.2,5.3,C,10.5,1996,1.2,GSW,0.7,6.9
23.0,1.1,0.9,5.9,0.52,4.8,9.2,0.0,0.0,0.0,0.52,4.8,9.2,0.603,3.1,5.1,71.0,1.0,NBA,1065.0,4.1,7.7,C,12.7,1997,1.1,GSW,2.6,10.1
24.0,1.4,1.2,5.0,0.499,4.0,8.0,0.0,0.0,0.0,0.497,4.0,8.0,0.601,2.4,4.0,81.0,49.0,NBA,1523.0,4.3,6.5,C,10.4,1998,2.0,BOS,2.0,9.3
25.0,1.0,0.9,4.9,0.5,4.5,9.0,0.0,0.0,0.0,0.5,4.5,9.0,0.674,3.1,4.6,47.0,32.0,NBA,1102.0,3.4,5.3,C,12.1,1999,1.6,TOT,1.8,8.3
25.0,1.4,1.3,4.2,0.491,3.9,8.0,0.0,0.0,0.0,0.491,3.9,8.0,0.655,2.7,4.0,14.0,1.0,NBA,258.0,4.6,7.1,C,10.5,1999,1.8,BOS,3.1,8.8
25.0,0.9,0.9,5.2,0.502,4.7,9.3,0.0,0.0,0.0,0.502,4.7,9.3,0.679,3.2,4.8,33.0,31.0,NBA,844.0,3.0,4.7,C,12.6,1999,1.6,CLE,1.4,8.2
26.0,1.1,1.3,5.6,0.508,4.4,8.7,0.0,0.0,0.0,0.508,4.4,8.7,0.588,1.8,3.1,82.0,31.0,NBA,1831.0,3.1,5.4,C,10.7,2000,1.2,CLE,2.1,8.6
27.0,1.3,1.3,5.8,0.554,4.3,7.7,0.0,0.0,0.0,0.554,4.3,7.7,0.573,1.9,3.3,67.0,51.0,NBA,903.0,3.6,7.9,C,10.4,2001,1.6,ORL,2.0,9.4
28.0,1.3,1.4,5.1,0.45,3.8,8.5,0.0,0.0,0.0,0.45,3.8,8.5,0.56,1.6,2.8,61.0,14.0,NBA,633.0,4.2,7.4,C,9.2,2002,1.3,ORL,1.9,9.3
29.0,1.4,1.0,5.3,0.534,4.0,7.6,0.0,0.0,0.0,0.534,4.0,7.6,0.644,1.8,2.8,77.0,21.0,NBA,1327.0,3.9,7.0,C,9.9,2003,1.1,ORL,2.3,9.2
30.0,1.3,1.0,5.5,0.477,2.8,5.8,0.0,0.0,0.0,0.477,2.8,5.8,0.815,1.3,1.6,71.0,53.0,NBA,1211.0,3.9,6.5,C,6.8,2004,1.4,ORL,1.6,9.4
31.0,0.0,0.0,2.2,0.444,2.9,6.6,0.0,0.0,0.0,0.444,2.9,6.6,0.333,0.7,2.2,8.0,0.0,NBA,49.0,5.1,10.3,C,6.6,2005,1.5,ORL,0.7,7.3
