age,ast_per_g,blk_per_g,drb_per_g,efg_pct,fg2_pct,fg2_per_g,fg2a_per_g,fg3_pct,fg3_per_g,fg3a_per_g,fg_pct,fg_per_g,fga_per_g,ft_pct,ft_per_g,fta_per_g,g,gs,lg_id,mp_per_g,orb_per_g,pf_per_g,pos,pts_per_g,season,stl_per_g,team_id,tov_per_g,trb_per_g
24.0,0.8,0.2,1.5,0.428,0.408,1.4,3.5,0.367,0.2,0.6,0.402,1.6,4.1,0.769,0.4,0.5,51.0,1.0,NBA,13.2,0.6,1.1,SF,3.9,2015,0.3,NYK,0.7,2.1
27.0,0.4,0.3,2.2,0.465,0.32,0.5,1.5,0.362,1.0,2.8,0.347,1.5,4.2,1.0,0.5,0.5,17.0,0.0,NBA,13.4,0.0,1.8,SF,4.4,2018,0.2,LAL,0.4,2.2
