age,ast_pct,blk_pct,bpm,bpm-dum,dbpm,drb_pct,dws,fg3a_per_fga_pct,fta_per_fga_pct,g,lg_id,mp,obpm,orb_pct,ows,per,pos,season,stl_pct,team_id,tov_pct,trb_pct,ts_pct,usg_pct,vorp,ws,ws-dum,ws_per_48
24.0,9.9,1.4,-6.1,0.0,-1.6,13.3,0.2,0.144,0.124,51.0,NBA,672.0,-4.5,5.2,-0.5,8.5,SF,2015,1.2,NYK,13.7,9.1,0.451,17.5,-0.7,-0.3,0.0,-0.02
27.0,4.2,1.8,-5.1,0.0,-1.3,17.6,0.2,0.653,0.111,17.0,NBA,228.0,-3.7,0.0,0.0,6.9,SF,2018,0.8,LAL,7.4,8.9,0.497,15.2,-0.2,0.2,0.0,0.042
