age,ast_per_mp,blk_per_mp,drb_per_mp,fg2_pct,fg2_per_mp,fg2a_per_mp,fg3_pct,fg3_per_mp,fg3a_per_mp,fg_pct,fg_per_mp,fga_per_mp,ft_pct,ft_per_mp,fta_per_mp,g,gs,lg_id,mp,orb_per_mp,pf_per_mp,pos,pts_per_mp,season,stl_per_mp,team_id,tov_per_mp,trb_per_mp
24.0,2.1,0.6,4.0,0.408,3.9,9.6,0.367,0.6,1.6,0.402,4.5,11.2,0.769,1.1,1.4,51.0,1.0,NBA,672.0,1.7,2.9,SF,10.7,2015,0.8,NYK,1.9,5.7
27.0,1.1,0.8,6.0,0.32,1.3,3.9,0.362,2.7,7.4,0.347,3.9,11.4,1.0,1.3,1.3,17.0,0.0,NBA,228.0,0.0,4.7,SF,11.8,2018,0.6,LAL,0.9,6.0
