age,ast,ast_per_g,blk,college_id,fg,fg3,fg3_pct,fg3a,fg_pct,fga,ft,ft_pct,fta,g,mp,mp_per_g,orb,pf,pts,pts_per_g,season,stl,tov,trb,trb_per_g
18.0,121.0,3.6,7.0,TEXAS,239.0,45.0,0.366,123.0,0.463,516.0,125.0,0.706,177.0,34.0,1147.0,33.7,0.0,84.0,648.0,19.1,1992,58.0,70.0,146.0,4.3
19.0,92.0,3.5,11.0,TEXAS,169.0,29.0,0.274,106.0,0.377,448.0,129.0,0.697,185.0,26.0,966.0,37.2,0.0,58.0,496.0,19.1,1993,48.0,79.0,130.0,5.0
20.0,106.0,3.1,5.0,TEXAS,185.0,37.0,0.259,143.0,0.413,448.0,132.0,0.706,187.0,34.0,1139.0,33.5,0.0,80.0,539.0,15.9,1994,79.0,81.0,185.0,5.4
21.0,121.0,4.0,6.0,TEXAS,233.0,34.0,0.298,114.0,0.475,491.0,123.0,0.676,182.0,30.0,1100.0,36.7,0.0,50.0,623.0,20.8,1995,70.0,81.0,158.0,5.3
