age,ast,blk,drb,fg,fg2,fg2a,fg3,fg3a,fga,ft,fta,game_score,lg_id,mp,orb,pf,pts,season,stl,team_id,tov,trb
25.0,1.0,1.0,2.0,2.0,2.0,5.0,0.0,0.0,5.0,2.0,2.0,2.8,NBA,0.0,1.0,3.0,5.0,1998,1.0,TOT,1.0,3.0
25.0,1.0,1.0,2.0,2.0,2.0,5.0,0.0,0.0,5.0,2.0,2.0,2.8,NBA,0.0,1.0,3.0,5.0,1998,1.0,CHI,1.0,3.0
