age,ast_per_mp,blk_per_mp,drb_per_mp,fg2_pct,fg2_per_mp,fg2a_per_mp,fg3_pct,fg3_per_mp,fg3a_per_mp,fg_pct,fg_per_mp,fga_per_mp,ft_pct,ft_per_mp,fta_per_mp,g,gs,lg_id,mp,orb_per_mp,pf_per_mp,pos,pts_per_mp,season,stl_per_mp,team_id,tov_per_mp,trb_per_mp
21.0,2.2,1.1,5.1,0.417,1.8,4.4,0.364,1.5,4.0,0.391,3.3,8.4,1.0,0.7,0.7,5.0,0.0,NBA,99.0,1.1,1.8,PG,8.7,2016,0.4,BOS,0.7,6.2
22.0,4.2,0.5,4.2,0.432,2.5,5.7,0.368,1.8,4.9,0.402,4.3,10.7,0.8,2.1,2.6,17.0,0.0,NBA,277.0,1.6,2.6,PG,12.5,2017,1.4,BOS,1.3,5.7
23.0,5.6,0.3,4.8,0.479,2.9,6.2,0.347,2.6,7.6,0.406,5.6,13.8,0.821,2.4,2.9,19.0,19.0,NBA,696.0,0.4,2.0,PG,16.2,2018,1.2,BOS,1.1,5.2
24.0,3.8,0.4,7.8,0.44,2.4,5.6,0.235,1.8,7.6,0.322,4.2,13.1,0.75,2.7,3.6,9.0,0.0,NBA,162.0,0.9,3.3,PG,12.9,2019,0.9,BOS,2.2,8.7
