age,ast_per_g,blk_per_g,drb_per_g,efg_pct,fg2_pct,fg2_per_g,fg2a_per_g,fg3_pct,fg3_per_g,fg3a_per_g,fg_pct,fg_per_g,fga_per_g,ft_pct,ft_per_g,fta_per_g,g,gs,lg_id,mp_per_g,orb_per_g,pf_per_g,pos,pts_per_g,season,stl_per_g,team_id,tov_per_g,trb_per_g
21.0,0.9,0.0,1.0,0.302,0.291,0.6,2.0,0.222,0.2,0.7,0.274,0.7,2.7,0.8,0.2,0.3,39.0,0.0,NBA,8.0,0.6,0.6,PG,1.8,2016,0.2,BOS,0.5,1.6
22.0,1.8,0.1,2.5,0.437,0.405,1.3,3.1,0.318,0.8,2.4,0.367,2.0,5.6,0.773,0.7,0.9,74.0,0.0,NBA,17.1,0.5,0.9,PG,5.5,2017,0.6,BOS,0.6,3.1
23.0,2.9,0.2,3.9,0.491,0.41,2.0,5.0,0.381,1.9,5.0,0.395,4.0,10.0,0.772,1.4,1.9,80.0,16.0,NBA,25.9,0.8,1.5,PG,11.3,2018,1.0,BOS,1.0,4.7
24.0,2.9,0.3,3.5,0.477,0.422,1.8,4.2,0.353,1.5,4.3,0.387,3.3,8.4,0.785,0.9,1.2,79.0,14.0,NBA,22.7,0.4,1.3,PG,9.0,2019,0.9,BOS,0.9,3.9
25.0,5.2,0.3,3.5,0.503,0.443,3.5,8.0,0.388,2.4,6.1,0.419,5.9,14.1,0.829,2.6,3.2,11.0,11.0,NBA,31.8,0.5,2.6,PG,16.8,2020,1.1,CHO,3.5,3.9
