age,ast_per_g,blk_per_g,drb_per_g,efg_pct,fg2_pct,fg2_per_g,fg2a_per_g,fg3_pct,fg3_per_g,fg3a_per_g,fg_pct,fg_per_g,fga_per_g,ft_pct,ft_per_g,fta_per_g,g,gs,lg_id,mp_per_g,orb_per_g,pf_per_g,pos,pts_per_g,season,stl_per_g,team_id,tov_per_g,trb_per_g
21.0,1.2,0.6,2.8,0.478,0.417,1.0,2.4,0.364,0.8,2.2,0.391,1.8,4.6,1.0,0.4,0.4,5.0,0.0,NBA,19.8,0.6,1.0,PG,4.8,2016,0.2,BOS,0.4,3.4
22.0,1.9,0.2,1.9,0.488,0.432,1.1,2.6,0.368,0.8,2.2,0.402,1.9,4.8,0.8,0.9,1.2,17.0,0.0,NBA,16.3,0.7,1.2,PG,5.6,2017,0.6,BOS,0.6,2.6
23.0,5.7,0.3,4.8,0.502,0.479,3.0,6.3,0.347,2.7,7.7,0.406,5.7,14.0,0.821,2.4,2.9,19.0,19.0,NBA,36.6,0.4,2.0,PG,16.5,2018,1.3,BOS,1.2,5.3
24.0,1.9,0.2,3.9,0.39,0.44,1.2,2.8,0.235,0.9,3.8,0.322,2.1,6.6,0.75,1.3,1.8,9.0,0.0,NBA,18.0,0.4,1.7,PG,6.4,2019,0.4,BOS,1.1,4.3
