lg_id,salary,season,team_name
NBA,202500.0,1986,Denver Nuggets
NBA,300000.0,1988,Denver Nuggets
NBA,405000.0,1989,Denver Nuggets
NBA,2185000.0,1991,Denver Nuggets
NBA,1558000.0,1992,Atlanta Hawks
NBA,1988000.0,1993,Atlanta Hawks
NBA,2457000.0,1994,Atlanta Hawks
NBA,2747500.0,1995,Atlanta Hawks
NBA,3088000.0,1996,Atlanta Hawks
