age,ast,blk,drb,fg,fg2,fg2a,fg3,fg3a,fga,ft,fta,game_score,lg_id,mp,orb,pf,pts,season,stl,team_id,tov,trb
23.0,3.0,1.0,4.0,6.0,6.0,12.0,1.0,2.0,13.0,3.0,4.0,10.3,NBA,35,3.0,5.0,14.0,2007,2.0,PHI,2.0,6.0
24.0,7.0,1.0,8.0,8.0,6.0,9.0,3.0,5.0,13.0,5.0,6.0,25.6,NBA,41,5.0,5.0,20.0,2008,3.0,TOT,3.0,13.0
24.0,4.0,1.0,6.0,3.0,2.0,6.0,3.0,4.0,7.0,5.0,6.0,8.1,NBA,23,3.0,5.0,11.0,2008,1.0,DEN,3.0,8.0
24.0,7.0,1.0,8.0,8.0,6.0,9.0,2.0,4.0,13.0,4.0,4.0,25.6,NBA,41,5.0,4.0,20.0,2008,3.0,MEM,1.0,13.0
24.0,0.0,0.0,1.0,1.0,1.0,1.0,0.0,0.0,1.0,0.0,0.0,1.3,NBA,5,0.0,2.0,2.0,2008,1.0,HOU,1.0,1.0
24.0,2.0,0.0,5.0,6.0,5.0,6.0,3.0,5.0,9.0,4.0,5.0,11.1,NBA,35,3.0,5.0,15.0,2008,1.0,MIA,3.0,8.0
24.0,1.0,0.0,2.0,1.0,1.0,1.0,0.0,2.0,3.0,0.0,0.0,2.7,NBA,10,0.0,1.0,2.0,2008,1.0,SAS,1.0,2.0
