age,ast_per_g,blk_per_g,drb_per_g,efg_pct,fg2_pct,fg2_per_g,fg2a_per_g,fg3_pct,fg3_per_g,fg3a_per_g,fg_pct,fg_per_g,fga_per_g,ft_pct,ft_per_g,fta_per_g,g,gs,lg_id,mp_per_g,orb_per_g,pf_per_g,pos,pts_per_g,season,stl_per_g,team_id,tov_per_g,trb_per_g
23.0,0.4,0.0,0.8,0.468,0.5,1.0,1.9,0.111,0.0,0.2,0.462,1.0,2.1,0.561,0.5,0.9,44.0,5.0,NBA,7.6,0.5,1.3,SF,2.5,2007,0.3,PHI,0.4,1.3
24.0,0.6,0.1,1.3,0.493,0.483,0.9,1.9,0.34,0.4,1.1,0.429,1.3,3.0,0.784,0.9,1.1,47.0,2.0,NBA,11.3,0.6,1.8,SF,3.8,2008,0.3,TOT,0.6,2.0
24.0,0.4,0.0,1.1,0.477,0.415,0.7,1.6,0.391,0.4,0.9,0.406,1.0,2.6,0.821,0.9,1.1,25.0,0.0,NBA,8.9,0.4,1.8,SF,3.4,2008,0.2,DEN,0.6,1.5
24.0,1.2,0.2,1.9,0.431,0.478,1.2,2.6,0.231,0.3,1.4,0.389,1.6,4.0,0.9,1.0,1.1,9.0,2.0,NBA,15.2,1.1,1.9,SF,4.4,2008,0.6,MEM,0.6,3.0
24.0,0.0,0.0,0.3,0.5,0.5,0.5,1.0,0.0,0.0,0.0,0.5,0.5,1.0,0.0,0.0,0.0,4.0,0.0,NBA,2.3,0.0,0.8,SF,1.0,2008,0.3,HOU,0.3,0.3
24.0,0.8,0.0,2.7,0.625,0.647,1.8,2.8,0.4,1.0,2.5,0.531,2.8,5.3,0.615,1.3,2.2,6.0,0.0,NBA,23.8,1.3,3.0,SF,8.0,2008,0.3,MIA,1.2,4.0
24.0,0.3,0.0,0.7,0.25,0.5,0.3,0.7,0.0,0.0,0.7,0.25,0.3,1.3,0.0,0.0,0.0,3.0,0.0,NBA,6.7,0.0,0.3,SF,0.7,2008,0.7,SAS,0.3,0.7
