lg_id,salary,season,team_name
NBA,507336.0,2015,Miami Heat
NBA,845059.0,2016,Memphis Grizzlies
NBA,74564.0,2016,New Orleans Pelicans
NBA,2898000.0,2017,Memphis Grizzlies
NBA,3028410.0,2018,Detroit Pistons
NBA,1621415.0,2019,Philadelphia 76ers
