age,ast_per_g,blk_per_g,drb_per_g,efg_pct,fg2_pct,fg2_per_g,fg2a_per_g,fg3_pct,fg3_per_g,fg3a_per_g,fg_pct,fg_per_g,fga_per_g,ft_pct,ft_per_g,fta_per_g,g,gs,lg_id,mp_per_g,orb_per_g,pf_per_g,pos,pts_per_g,season,stl_per_g,team_id,tov_per_g,trb_per_g
26.0,1.2,0.3,2.8,0.5,0.526,1.7,3.2,0.316,1.0,3.2,0.421,2.7,6.3,0.857,2.0,2.3,6.0,4.0,NBA,26.5,1.3,3.3,SF,8.3,2017,0.8,MEM,1.2,4.2
28.0,1.1,0.3,2.4,0.555,0.688,2.0,2.9,0.281,0.8,2.9,0.484,2.8,5.8,0.632,1.1,1.7,11.0,0.0,NBA,21.1,1.5,2.8,SF,7.5,2019,0.4,PHI,0.9,3.8
