age,ast_per_mp,blk_per_mp,drb_per_mp,fg2_pct,fg2_per_mp,fg2a_per_mp,fg3_pct,fg3_per_mp,fg3a_per_mp,fg_pct,fg_per_mp,fga_per_mp,ft_pct,ft_per_mp,fta_per_mp,g,gs,lg_id,mp,orb_per_mp,pf_per_mp,pos,pts_per_mp,season,stl_per_mp,team_id,tov_per_mp,trb_per_mp
26.0,1.6,0.5,3.8,0.526,2.3,4.3,0.316,1.4,4.3,0.421,3.6,8.6,0.857,2.7,3.2,6.0,4.0,NBA,159.0,1.8,4.5,SF,11.3,2017,1.1,MEM,1.6,5.7
28.0,1.9,0.5,4.0,0.688,3.4,5.0,0.281,1.4,5.0,0.484,4.8,9.9,0.632,1.9,2.9,11.0,0.0,NBA,232.0,2.5,4.8,SF,12.9,2019,0.6,PHI,1.6,6.5
