age,ast,blk,drb,fg,fg2,fg2a,fg3,fg3a,fga,ft,fta,game_score,lg_id,mp,orb,pf,pts,season,stl,team_id,tov,trb
23.0,5.0,2.0,8.0,6.0,5.0,10.0,2.0,7.0,12.0,3.0,4.0,11.5,NBA,0.0,5.0,6.0,13.0,2002,2.0,HOU,3.0,10.0
24.0,4.0,3.0,6.0,8.0,7.0,13.0,2.0,3.0,13.0,2.0,2.0,14.0,NBA,0.0,5.0,4.0,17.0,2003,2.0,HOU,3.0,10.0
27.0,2.0,2.0,4.0,3.0,3.0,7.0,0.0,1.0,7.0,2.0,2.0,4.7,NBA,20.0,2.0,2.0,7.0,2006,2.0,ORL,2.0,6.0
