age,and1s,astd_pts,drawn_offensive,drawn_shooting,fouls_offensive,fouls_shooting,g,lg_id,mp,own_shots_blk,pct_1,pct_2,pct_3,pct_4,pct_5,plus_minus_net,plus_minus_on,pos,season,team_id,tov_bad_pass,tov_lost_ball
20.0,0.0,9.0,3.0,3.0,0.0,9.0,16.0,NBA,73.0,4.0,14.0,84.0,2.0,0.0,0.0,-17.5,-14.7,SG,2006,LAL,0.0,1.0
21.0,0.0,0.0,0.0,0.0,0.0,0.0,1.0,NBA,1.0,0.0,0.0,0.0,0.0,100.0,0.0,17.2,16.7,SF,2007,LAC,0.0,0.0
22.0,2.0,17.0,0.0,5.0,0.0,6.0,29.0,NBA,154.0,2.0,20.0,80.0,0.0,0.0,0.0,-3.6,-2.3,SG,2008,TOT,3.0,7.0
22.0,2.0,12.0,0.0,4.0,0.0,3.0,21.0,NBA,90.0,2.0,34.0,66.0,0.0,0.0,0.0,-14.1,-10.2,SG,2008,DEN,3.0,6.0
22.0,0.0,5.0,0.0,1.0,0.0,3.0,8.0,NBA,64.0,0.0,0.0,100.0,0.0,0.0,0.0,11.5,10.0,SG,2008,POR,0.0,1.0
23.0,13.0,159.0,5.0,57.0,6.0,35.0,63.0,NBA,1225.0,33.0,0.0,62.0,37.0,0.0,0.0,0.7,5.0,SG,2009,HOU,27.0,11.0
25.0,3.0,72.0,3.0,17.0,1.0,16.0,58.0,NBA,553.0,12.0,3.0,72.0,25.0,0.0,0.0,-5.6,1.2,SG,2011,BOS,7.0,8.0
26.0,4.0,63.0,1.0,20.0,3.0,12.0,33.0,NBA,469.0,8.0,0.0,70.0,31.0,0.0,0.0,-8.2,-6.1,SG,2012,ORL,8.0,18.0
