age,ast,blk,drb,efg_pct,fg,fg2,fg2_pct,fg2a,fg3,fg3_pct,fg3a,fg_pct,fga,ft,ft_pct,fta,g,gs,lg_id,mp,orb,pf,pos,pts,season,stl,team_id,tov,trb
23.0,9.0,1.0,12.0,0.473,39.0,30.0,0.429,70.0,9.0,0.409,22.0,0.424,92.0,19.0,0.864,22.0,13.0,0.0,NBA,181.0,0.0,11.0,SG,106.0,2009,2.0,HOU,11.0,12.0
25.0,0.0,0.0,1.0,0.0,0.0,0.0,0.0,1.0,0.0,0.0,1.0,0.0,2.0,0.0,0.0,0.0,3.0,0.0,NBA,5.0,0.0,0.0,SG,0.0,2011,0.0,BOS,0.0,1.0
26.0,0.0,0.0,1.0,0.6,3.0,3.0,0.6,5.0,0.0,0.0,0.0,0.6,5.0,0.0,0.0,0.0,1.0,0.0,NBA,6.0,0.0,1.0,SG,6.0,2012,0.0,ORL,1.0,1.0
