age,ast,blk,drb,fg,fg2,fg2a,fg3,fg3a,fga,ft,fta,game_score,lg_id,mp,orb,pf,pts,season,stl,team_id,tov,trb
20.0,1.0,0.0,2.0,3.0,2.0,7.0,1.0,2.0,9.0,2.0,4.0,4.6,NBA,17,1.0,4.0,9.0,2006,1.0,LAL,1.0,2.0
21.0,0.0,0.0,0.0,0.0,0.0,0.0,0.0,1.0,1.0,0.0,0.0,-0.7,NBA,1,0.0,0.0,0.0,2007,0.0,LAC,0.0,0.0
22.0,2.0,1.0,5.0,4.0,3.0,5.0,2.0,5.0,10.0,2.0,2.0,7.4,NBA,32,1.0,2.0,11.0,2008,1.0,TOT,3.0,5.0
22.0,2.0,1.0,2.0,3.0,3.0,4.0,1.0,2.0,4.0,2.0,2.0,7.4,NBA,17,1.0,1.0,6.0,2008,1.0,DEN,3.0,2.0
22.0,1.0,1.0,5.0,4.0,2.0,5.0,2.0,5.0,10.0,1.0,2.0,4.6,NBA,32,0.0,2.0,11.0,2008,0.0,POR,2.0,5.0
23.0,5.0,2.0,6.0,10.0,7.0,13.0,4.0,7.0,18.0,7.0,7.0,17.9,NBA,41,2.0,4.0,23.0,2009,3.0,HOU,4.0,7.0
25.0,5.0,1.0,6.0,6.0,4.0,8.0,2.0,6.0,13.0,4.0,4.0,9.5,NBA,45,2.0,5.0,14.0,2011,2.0,BOS,4.0,6.0
26.0,4.0,1.0,6.0,6.0,4.0,9.0,3.0,5.0,13.0,5.0,6.0,12.9,NBA,41,2.0,3.0,16.0,2012,2.0,ORL,3.0,8.0
