age,ast,blk,drb,fg,fg2,fg2a,fg3,fg3a,fga,ft,fta,game_score,lg_id,mp,orb,pf,pts,season,stl,team_id,tov,trb
22.0,2.0,0.0,2.0,1.0,1.0,2.0,0.0,0.0,2.0,0.0,0.0,4.0,NBA,5,1.0,1.0,2.0,2007,0.0,ORL,0.0,3.0
23.0,1.0,1.0,3.0,3.0,3.0,4.0,0.0,0.0,4.0,2.0,4.0,6.5,NBA,18,4.0,3.0,8.0,2008,2.0,ORL,1.0,5.0
