age,avg_dist,fg2_dunk,fg2_pct,fg2_pct_ast,fg2a_pct_fga,fg3_heave,fg3_pct,fg3_pct_ast,fg3_pct_corner,fg3a_heave,fg3a_pct_fga,fg_pct,fg_pct_00_03,fg_pct_03_10,fg_pct_10_16,fg_pct_16_xx,g,lg_id,mp,pct_fg2_dunk,pct_fg3a_corner,pct_fga_00_03,pct_fga_03_10,pct_fga_10_16,pct_fga_16_xx,pos,season,team_id
23.0,16.3,2.0,0.402,0.242,0.707,0.0,0.294,0.5,0.333,1.0,0.293,0.371,0.565,0.286,0.333,0.35,61.0,NBA,267.0,0.017,0.265,0.198,0.06,0.103,0.345,SG,2013,GSW
24.0,14.8,9.0,0.484,0.375,0.627,0.0,0.336,0.674,0.4,4.0,0.373,0.429,0.645,0.306,0.389,0.4,67.0,NBA,911.0,0.029,0.195,0.271,0.143,0.052,0.16,SG,2014,TOT
24.0,17.4,2.0,0.448,0.231,0.598,0.0,0.256,0.4,0.143,3.0,0.402,0.371,0.636,0.364,0.0,0.348,44.0,NBA,268.0,0.031,0.179,0.227,0.113,0.021,0.237,SG,2014,GSW
24.0,13.8,7.0,0.497,0.423,0.638,0.0,0.371,0.758,0.5,1.0,0.362,0.451,0.648,0.289,0.438,0.438,23.0,NBA,643.0,0.028,0.202,0.289,0.154,0.065,0.13,SG,2014,LAL
25.0,12.9,17.0,0.467,0.624,0.601,0.0,0.364,0.938,0.422,0.0,0.399,0.426,0.607,0.327,0.158,0.381,75.0,NBA,1324.0,0.066,0.485,0.323,0.157,0.057,0.063,SG,2015,ATL
26.0,12.7,15.0,0.502,0.536,0.579,0.0,0.357,0.927,0.41,1.0,0.421,0.441,0.594,0.276,0.368,0.333,75.0,NBA,2083.0,0.029,0.384,0.39,0.08,0.026,0.083,SF,2016,ATL
27.0,14.8,13.0,0.446,0.522,0.631,0.0,0.346,0.848,0.414,1.0,0.369,0.409,0.566,0.222,0.311,0.434,73.0,NBA,1963.0,0.021,0.327,0.272,0.1,0.062,0.198,SF,2017,ATL
28.0,14.7,19.0,0.438,0.472,0.595,0.0,0.394,0.833,0.436,1.0,0.405,0.42,0.608,0.266,0.333,0.396,65.0,NBA,1789.0,0.031,0.285,0.226,0.139,0.08,0.149,SG,2018,ATL
29.0,15.0,15.0,0.465,0.478,0.566,0.0,0.32,0.844,0.34,4.0,0.434,0.402,0.611,0.213,0.296,0.464,67.0,NBA,1643.0,0.023,0.353,0.279,0.109,0.078,0.1,SG,2019,ATL
30.0,16.8,0.0,0.412,0.357,0.548,0.0,0.321,0.889,0.5,0.0,0.452,0.371,0.444,0.3,0.2,0.6,8.0,NBA,185.0,0.0,0.286,0.145,0.161,0.081,0.161,SF,2020,POR
