age,avg_dist,fg2_dunk,fg2_pct,fg2_pct_ast,fg2a_pct_fga,fg3_heave,fg3_pct,fg3_pct_ast,fg3_pct_corner,fg3a_heave,fg3a_pct_fga,fg_pct,fg_pct_00_03,fg_pct_03_10,fg_pct_10_16,fg_pct_16_xx,g,lg_id,mp,pct_fg2_dunk,pct_fg3a_corner,pct_fga_00_03,pct_fga_03_10,pct_fga_10_16,pct_fga_16_xx,pos,season,team_id
19.0,13.5,0.0,0.388,0.275,0.66,0.0,0.302,0.625,0.3,0.0,0.34,0.359,0.531,0.389,0.2,0.3,37.0,NBA,573.0,0.0,0.189,0.205,0.231,0.096,0.128,PG,2016,MIN
20.0,14.9,0.0,0.454,0.347,0.597,0.0,0.356,0.885,0.348,1.0,0.403,0.414,0.537,0.452,0.5,0.25,60.0,NBA,774.0,0.0,0.315,0.227,0.171,0.088,0.11,PG,2017,MIN
21.0,14.0,2.0,0.528,0.381,0.607,0.0,0.349,0.933,0.372,2.0,0.393,0.457,0.68,0.377,0.514,0.462,82.0,NBA,1467.0,0.009,0.333,0.229,0.186,0.113,0.079,PG,2018,MIN
22.0,13.2,0.0,0.453,0.228,0.717,0.0,0.317,0.65,0.407,1.0,0.283,0.415,0.558,0.455,0.364,0.388,68.0,NBA,1560.0,0.0,0.214,0.213,0.222,0.173,0.11,PG,2019,MIN
23.0,13.2,0.0,0.5,0.31,0.716,0.0,0.174,1.0,0.0,0.0,0.284,0.407,0.667,0.368,0.5,0.5,11.0,NBA,239.0,0.0,0.13,0.185,0.235,0.222,0.074,PG,2020,MEM
