age,ast_pct,blk_pct,bpm,bpm-dum,dbpm,drb_pct,dws,fg3a_per_fga_pct,fta_per_fga_pct,g,lg_id,mp,obpm,orb_pct,ows,per,pos,season,stl_pct,team_id,tov_pct,trb_pct,ts_pct,usg_pct,vorp,ws,ws-dum,ws_per_48
19.0,27.7,0.4,-3.7,0.0,-2.0,8.0,0.3,0.34,0.25,37.0,NBA,573.0,-1.7,1.4,0.0,11.2,PG,2016,2.7,MIN,16.0,4.8,0.45,16.1,-0.3,0.3,0.0,0.027
20.0,28.0,0.6,-1.8,0.0,-1.5,8.7,0.6,0.403,0.238,60.0,NBA,774.0,-0.4,1.5,1.0,13.8,PG,2017,3.1,MIN,16.0,5.0,0.523,13.6,0.0,1.5,0.0,0.096
21.0,21.2,0.4,0.5,0.0,-0.3,9.2,1.2,0.393,0.247,82.0,NBA,1467.0,0.8,1.2,2.3,14.1,PG,2018,3.2,MIN,14.0,5.2,0.572,12.7,0.9,3.6,0.0,0.117
22.0,28.3,0.3,-1.8,0.0,-1.5,7.7,0.9,0.283,0.155,68.0,NBA,1560.0,-0.3,1.6,2.1,13.7,PG,2019,2.5,MIN,9.0,4.6,0.491,14.1,0.1,3.0,0.0,0.091
23.0,31.4,0.0,-6.8,0.0,-3.8,6.3,0.1,0.284,0.235,11.0,NBA,239.0,-3.0,0.0,0.0,11.2,PG,2020,2.3,MEM,16.8,3.1,0.464,18.4,-0.3,0.0,0.0,0.007
