age,ast_pct,blk_pct,bpm,bpm-dum,dbpm,drb_pct,dws,fg3a_per_fga_pct,fta_per_fga_pct,g,lg_id,mp,obpm,orb_pct,ows,per,pos,season,stl_pct,team_id,tov_pct,trb_pct,ts_pct,usg_pct,vorp,ws,ws-dum,ws_per_48
25.0,0.0,0.0,-8.7,0.0,-6.7,5.7,0.0,0.5,0.0,10.0,NBA,20.0,-2.1,6.2,0.0,14.1,SF,2009,2.7,CLE,7.7,6.0,0.5,30.7,0.0,0.0,0.0,0.045
26.0,6.8,0.5,-3.5,0.0,-1.5,10.2,0.7,0.451,0.218,54.0,NBA,742.0,-2.0,2.7,0.3,8.2,PG,2010,0.8,CLE,7.4,6.7,0.496,15.3,-0.3,1.1,0.0,0.069
27.0,9.0,0.6,-7.2,0.0,-1.9,12.4,0.1,0.357,0.095,26.0,NBA,391.0,-5.3,2.0,-0.6,4.8,SF,2011,1.2,CLE,10.9,7.1,0.396,17.1,-0.5,-0.5,0.0,-0.067
