age,ast_per_poss,blk_per_poss,def_rtg,drb_per_poss,fg2_pct,fg2_per_poss,fg2a_per_poss,fg3_pct,fg3_per_poss,fg3a_per_poss,fg_pct,fg_per_poss,fga_per_poss,ft_pct,ft_per_poss,fta_per_poss,g,gs,lg_id,mp,off_rtg,orb_per_poss,pf_per_poss,pos,pts_per_poss,season,stl_per_poss,team_id,tov_per_poss,trb_per_poss
25.0,0.0,0.0,104.0,2.7,0.5,8.1,16.2,0.333,5.4,16.2,0.417,13.5,32.5,0.0,0.0,0.0,10.0,0.0,NBA,20.0,96.0,2.7,5.4,SF,32.5,2009,2.7,CLE,2.7,5.4
26.0,2.4,0.4,108.0,4.7,0.451,3.6,8.0,0.323,2.1,6.6,0.393,5.7,14.6,0.711,2.3,3.2,54.0,6.0,NBA,742.0,104.0,1.1,5.2,PG,15.9,2010,0.8,CLE,1.3,5.9
27.0,2.9,0.4,114.0,5.4,0.346,3.7,10.7,0.289,1.7,5.9,0.325,5.4,16.6,0.75,1.2,1.6,26.0,1.0,NBA,391.0,82.0,0.9,4.5,SF,13.7,2011,1.2,CLE,2.1,6.3
