age,ast_per_g,blk_per_g,drb_per_g,efg_pct,fg2_pct,fg2_per_g,fg2a_per_g,fg3_pct,fg3_per_g,fg3a_per_g,fg_pct,fg_per_g,fga_per_g,ft_pct,ft_per_g,fta_per_g,g,gs,lg_id,mp_per_g,orb_per_g,pf_per_g,pos,pts_per_g,season,stl_per_g,team_id,tov_per_g,trb_per_g
23.0,2.1,0.0,0.5,0.43,0.441,0.8,1.8,0.2,0.0,0.2,0.422,0.8,2.0,0.75,0.4,0.5,32.0,0.0,NBA,10.5,0.1,0.8,SG,2.1,1989,0.5,NJN,0.6,0.6
24.0,2.9,0.0,0.4,0.375,0.3,0.3,1.1,0.5,0.1,0.2,0.333,0.4,1.3,0.25,0.1,0.4,9.0,0.0,NBA,9.0,0.1,1.2,SG,1.1,1990,0.4,PHI,1.1,0.6
25.0,9.1,0.2,1.0,0.436,0.469,2.3,4.9,0.238,0.5,2.1,0.4,2.8,7.0,0.846,2.2,2.6,10.0,2.0,NBA,22.6,0.4,2.5,SG,8.3,1991,1.0,DEN,2.3,1.4
28.0,1.7,0.0,0.6,0.5,0.467,0.4,0.8,0.4,0.1,0.3,0.45,0.5,1.1,0.867,0.7,0.8,18.0,0.0,NBA,4.3,0.2,0.7,SG,1.8,1994,0.1,NYK,0.3,0.7
29.0,3.0,0.1,1.5,0.49,0.611,2.0,3.3,0.133,0.2,1.4,0.471,2.2,4.6,0.455,0.5,1.0,11.0,8.0,NBA,25.5,0.1,2.1,SG,5.0,1995,0.7,PHI,1.3,1.6
