age,ast_pct,blk_pct,bpm,bpm-dum,dbpm,drb_pct,dws,fg3a_per_fga_pct,fta_per_fga_pct,g,lg_id,mp,obpm,orb_pct,ows,per,pos,season,stl_pct,team_id,tov_pct,trb_pct,ts_pct,usg_pct,vorp,ws,ws-dum,ws_per_48
23.0,26.1,0.2,-6.2,0.0,-2.1,5.5,0.2,0.078,0.25,32.0,NBA,337.0,-4.1,1.0,0.1,9.1,SG,1989,2.1,NJN,22.0,3.1,0.472,11.1,-0.4,0.2,0.0,0.035
24.0,39.2,0.0,-9.9,0.0,-3.6,5.6,0.1,0.167,0.333,9.0,NBA,81.0,-6.4,1.4,-0.1,6.2,SG,1990,2.5,PHI,42.1,3.5,0.363,12.4,-0.2,-0.1,0.0,-0.044
25.0,46.6,0.5,-7.0,0.0,-6.1,4.6,0.0,0.3,0.371,10.0,NBA,226.0,-0.9,1.5,0.3,15.2,SG,1991,1.9,DEN,22.0,2.9,0.51,16.3,-0.3,0.3,0.0,0.061
28.0,57.5,0.0,2.6,0.0,-2.0,14.2,0.1,0.25,0.75,18.0,NBA,78.0,4.6,4.4,0.4,23.7,SG,1994,1.3,NYK,15.8,9.4,0.62,17.8,0.1,0.6,0.0,0.339
29.0,17.9,0.3,-4.8,0.0,-1.5,7.1,0.1,0.294,0.216,11.0,NBA,280.0,-3.3,0.4,0.0,7.2,SG,1995,1.5,PHI,20.0,3.7,0.492,11.1,-0.2,0.1,0.0,0.013
