age,ast_pct,blk_pct,bpm,bpm-dum,dbpm,drb_pct,dws,fg3a_per_fga_pct,fta_per_fga_pct,g,lg_id,mp,obpm,orb_pct,ows,per,pos,season,stl_pct,team_id,tov_pct,trb_pct,ts_pct,usg_pct,vorp,ws,ws-dum,ws_per_48
24.0,25.5,0.6,-4.2,0.0,-3.4,7.2,0.2,0.509,0.105,38.0,NBA,246.0,-0.9,3.4,-0.1,10.5,PG,1995,2.1,ORL,18.5,5.3,0.486,25.5,-0.1,0.1,0.0,0.022
25.0,20.6,0.0,-0.4,0.0,-3.1,9.3,0.3,0.621,0.262,33.0,NBA,246.0,2.7,1.9,0.4,16.9,PG,1996,2.6,ORL,17.3,5.7,0.609,25.5,0.1,0.6,0.0,0.121
26.0,29.3,0.1,-1.1,0.0,-2.6,8.3,0.5,0.601,0.094,67.0,NBA,1055.0,1.5,2.0,0.6,13.6,PG,1997,2.7,TOT,17.1,5.2,0.526,21.6,0.2,1.1,0.0,0.051
26.0,15.8,0.0,-19.2,0.0,-4.9,0.0,0.0,0.0,0.0,2.0,NBA,8.0,-14.3,0.0,0.0,-9.1,PG,1997,0.0,UTA,50.0,0.0,0.0,11.6,0.0,0.0,0.0,-0.26
26.0,29.4,0.1,-1.0,0.0,-2.6,8.4,0.5,0.602,0.094,65.0,NBA,1047.0,1.7,2.0,0.7,13.7,PG,1997,2.7,DEN,16.9,5.2,0.528,21.7,0.3,1.2,0.0,0.054
27.0,26.5,0.5,-3.2,0.0,-1.1,10.0,0.3,0.536,0.143,30.0,NBA,167.0,-2.2,0.7,-0.1,11.2,PG,1998,3.2,TOT,21.2,5.3,0.496,20.9,-0.1,0.2,0.0,0.051
27.0,11.5,0.0,-3.6,0.0,-2.2,9.9,0.1,0.593,0.111,13.0,NBA,46.0,-1.5,2.6,-0.1,11.4,PG,1998,4.6,PHO,15.0,6.3,0.459,32.8,0.0,0.0,0.0,-0.034
27.0,32.3,0.6,-3.1,0.0,-0.6,10.0,0.2,0.483,0.172,17.0,NBA,121.0,-2.4,0.0,0.0,11.2,PG,1998,2.7,NYK,26.1,5.0,0.529,16.4,0.0,0.2,0.0,0.084
