age,ast_per_g,blk_per_g,drb_per_g,efg_pct,fg2_pct,fg2_per_g,fg2a_per_g,fg3_pct,fg3_per_g,fg3a_per_g,fg_pct,fg_per_g,fga_per_g,ft_pct,ft_per_g,fta_per_g,g,gs,lg_id,mp_per_g,orb_per_g,pf_per_g,pos,pts_per_g,season,stl_per_g,team_id,tov_per_g,trb_per_g
24.0,1.1,0.1,0.4,0.474,0.482,0.7,1.5,0.31,0.5,1.5,0.395,1.2,3.0,0.667,0.2,0.3,38.0,2.0,NBA,6.5,0.2,1.2,PG,3.1,1995,0.3,ORL,0.7,0.6
25.0,0.9,0.0,0.6,0.587,0.59,0.7,1.2,0.391,0.8,1.9,0.466,1.5,3.1,0.704,0.6,0.8,33.0,0.0,NBA,7.5,0.1,1.1,PG,4.2,1996,0.4,ORL,0.7,0.7
26.0,2.7,0.0,1.2,0.518,0.401,1.0,2.4,0.398,1.4,3.6,0.399,2.4,6.1,0.632,0.4,0.6,67.0,6.0,NBA,15.7,0.3,1.9,PG,6.6,1997,0.8,TOT,1.3,1.4
26.0,0.5,0.0,0.0,0.0,0.0,0.0,0.5,0.0,0.0,0.0,0.0,0.0,0.5,0.0,0.0,0.0,2.0,0.0,NBA,4.0,0.0,0.5,PG,0.0,1997,0.0,UTA,0.5,0.0
26.0,2.8,0.0,1.2,0.52,0.404,1.0,2.5,0.398,1.5,3.8,0.4,2.5,6.2,0.632,0.4,0.6,65.0,6.0,NBA,16.1,0.3,1.9,PG,6.8,1997,0.8,DEN,1.3,1.5
27.0,0.9,0.0,0.5,0.491,0.538,0.5,0.9,0.3,0.3,1.0,0.411,0.8,1.9,0.5,0.1,0.3,30.0,0.0,NBA,5.6,0.0,0.7,PG,2.0,1998,0.3,TOT,0.5,0.5
27.0,0.2,0.0,0.3,0.463,0.455,0.4,0.8,0.313,0.4,1.2,0.37,0.8,2.1,0.333,0.1,0.2,13.0,0.0,NBA,3.5,0.1,0.5,PG,2.0,1998,0.3,PHO,0.4,0.4
27.0,1.4,0.1,0.6,0.517,0.6,0.5,0.9,0.286,0.2,0.8,0.448,0.8,1.7,0.6,0.2,0.3,17.0,0.0,NBA,7.1,0.0,0.9,PG,1.9,1998,0.4,NYK,0.6,0.6
