age,ast_per_mp,blk_per_mp,drb_per_mp,fg2_pct,fg2_per_mp,fg2a_per_mp,fg3_pct,fg3_per_mp,fg3a_per_mp,fg_pct,fg_per_mp,fga_per_mp,ft_pct,ft_per_mp,fta_per_mp,g,gs,lg_id,mp,orb_per_mp,pf_per_mp,pos,pts_per_mp,season,stl_per_mp,team_id,tov_per_mp,trb_per_mp
24.0,1.1,1.4,6.6,0.48,4.9,10.3,0.133,0.1,1.0,0.449,5.1,11.3,0.574,2.1,3.7,50.0,1.0,NBA,531.0,3.2,4.1,PF,12.4,2015,0.7,BRK,1.4,9.8
25.0,0.0,0.7,7.2,0.429,6.5,15.1,0.0,0.0,0.7,0.409,6.5,15.8,0.667,2.9,4.3,8.0,0.0,NBA,50.0,4.3,5.8,PF,15.8,2016,0.0,PHO,0.0,11.5
