age,avg_dist,fg2_dunk,fg2_pct,fg2_pct_ast,fg2a_pct_fga,fg3_heave,fg3_pct,fg3_pct_ast,fg3_pct_corner,fg3a_heave,fg3a_pct_fga,fg_pct,fg_pct_00_03,fg_pct_03_10,fg_pct_10_16,fg_pct_16_xx,g,lg_id,mp,pct_fg2_dunk,pct_fg3a_corner,pct_fga_00_03,pct_fga_03_10,pct_fga_10_16,pct_fga_16_xx,pos,season,team_id
24.0,15.4,1.0,0.476,0.171,0.631,0.0,0.291,0.8,0.125,4.0,0.369,0.408,0.763,0.367,0.429,0.357,70.0,NBA,860.0,0.004,0.093,0.163,0.258,0.09,0.12,SG,2011,MEM
25.0,13.5,1.0,0.469,0.264,0.742,0.0,0.319,0.767,0.238,0.0,0.258,0.43,0.598,0.426,0.448,0.423,66.0,NBA,1706.0,0.002,0.156,0.176,0.27,0.111,0.185,SG,2012,NOH
26.0,11.9,0.0,0.462,0.166,0.76,0.0,0.342,0.747,0.615,5.0,0.24,0.433,0.569,0.424,0.419,0.414,78.0,NBA,2685.0,0.0,0.107,0.208,0.369,0.085,0.098,PG,2013,NOH
27.0,16.1,0.0,0.455,0.214,0.561,0.0,0.377,0.807,0.314,4.0,0.439,0.421,0.596,0.406,0.419,0.507,79.0,NBA,1779.0,0.002,0.121,0.087,0.307,0.065,0.102,SG-PG,2014,TOT
27.0,15.1,0.0,0.49,0.224,0.667,0.0,0.32,0.625,0.25,2.0,0.333,0.433,0.778,0.467,0.357,0.529,18.0,NBA,465.0,0.0,0.08,0.06,0.4,0.093,0.113,PG,2014,SAC
27.0,16.4,0.0,0.442,0.21,0.53,0.0,0.389,0.839,0.323,2.0,0.47,0.417,0.563,0.38,0.448,0.5,61.0,NBA,1314.0,0.002,0.13,0.094,0.28,0.057,0.098,SG,2014,TOR
28.0,16.7,1.0,0.436,0.399,0.516,0.0,0.379,0.812,0.467,3.0,0.484,0.408,0.568,0.372,0.455,0.425,82.0,NBA,1991.0,0.003,0.128,0.112,0.226,0.076,0.101,PG,2015,TOR
29.0,16.9,0.0,0.415,0.444,0.471,0.0,0.247,0.667,0.2,2.0,0.529,0.326,0.458,0.278,0.6,0.385,23.0,NBA,460.0,0.0,0.137,0.174,0.13,0.072,0.094,PG,2016,MIL
30.0,14.1,0.0,0.2,0.0,0.625,0.0,0.333,0.0,0.0,0.0,0.375,0.25,0.0,0.0,1.0,0.0,3.0,NBA,39.0,0.0,0.0,0.125,0.375,0.125,0.0,PG,2017,BRK
