age,ast,blk,drb,fg,fg2,fg2a,fg3,fg3a,fga,ft,fta,game_score,lg_id,mp,orb,pf,pts,season,stl,team_id,tov,trb
24.0,3.0,1.0,3.0,4.0,4.0,8.0,1.0,4.0,12.0,5.0,5.0,9.6,NBA,27,1.0,2.0,14.0,2011,2.0,MEM,2.0,4.0
27.0,9.0,1.0,6.0,6.0,4.0,7.0,3.0,6.0,12.0,5.0,5.0,16.5,NBA,35,2.0,5.0,18.0,2014,1.0,TOT,3.0,6.0
27.0,9.0,1.0,6.0,6.0,4.0,7.0,3.0,6.0,12.0,5.0,5.0,16.5,NBA,35,2.0,5.0,18.0,2014,1.0,TOR,3.0,6.0
28.0,5.0,0.0,2.0,4.0,2.0,6.0,2.0,5.0,11.0,2.0,2.0,7.5,NBA,32,0.0,4.0,11.0,2015,1.0,TOR,2.0,2.0
