age,ast_per_g,blk_per_g,drb_per_g,efg_pct,fg2_pct,fg2_per_g,fg2a_per_g,fg3_pct,fg3_per_g,fg3a_per_g,fg_pct,fg_per_g,fga_per_g,ft_pct,ft_per_g,fta_per_g,g,gs,lg_id,mp_per_g,orb_per_g,pf_per_g,pos,pts_per_g,season,stl_per_g,team_id,tov_per_g,trb_per_g
24.0,2.2,0.1,0.9,0.461,0.476,1.0,2.1,0.291,0.4,1.2,0.408,1.4,3.3,0.773,0.5,0.6,70.0,1.0,NBA,12.3,0.2,1.2,SG,3.6,2011,0.3,MEM,1.0,1.0
25.0,5.4,0.1,2.3,0.471,0.469,2.8,5.9,0.319,0.7,2.0,0.43,3.4,7.9,0.821,1.5,1.8,66.0,26.0,NBA,25.8,0.3,1.9,SG,8.9,2012,0.9,NOH,2.2,2.6
26.0,9.0,0.1,3.8,0.474,0.462,4.6,9.9,0.342,1.1,3.1,0.433,5.6,13.0,0.805,1.6,2.0,78.0,78.0,NBA,34.4,0.6,2.4,PG,13.9,2013,0.8,NOH,3.2,4.3
27.0,4.1,0.1,1.9,0.504,0.455,2.1,4.7,0.377,1.4,3.7,0.421,3.5,8.3,0.88,1.2,1.4,79.0,23.0,NBA,22.5,0.3,1.8,SG-PG,9.6,2014,0.4,TOT,1.6,2.2
27.0,5.3,0.1,1.6,0.487,0.49,2.7,5.6,0.32,0.9,2.8,0.433,3.6,8.3,0.938,1.7,1.8,18.0,18.0,NBA,25.8,0.3,2.1,PG,9.8,2014,0.3,SAC,1.5,1.9
27.0,3.7,0.1,2.0,0.509,0.442,2.0,4.4,0.389,1.5,3.9,0.417,3.5,8.3,0.855,1.1,1.2,61.0,5.0,NBA,21.5,0.2,1.7,SG,9.5,2014,0.4,TOR,1.7,2.3
28.0,3.7,0.1,2.4,0.5,0.436,2.0,4.6,0.379,1.6,4.3,0.408,3.6,8.8,0.758,0.6,0.8,82.0,29.0,NBA,24.3,0.3,2.2,PG,9.5,2015,0.6,TOR,1.5,2.6
29.0,4.0,0.0,1.8,0.391,0.415,1.2,2.8,0.247,0.8,3.2,0.326,2.0,6.0,0.846,1.0,1.1,23.0,0.0,NBA,20.0,0.2,1.8,PG,5.7,2016,0.4,MIL,1.7,2.0
30.0,1.7,0.3,0.7,0.313,0.2,0.3,1.7,0.333,0.3,1.0,0.25,0.7,2.7,0.667,0.7,1.0,3.0,0.0,NBA,13.0,0.0,2.0,PG,2.3,2017,0.3,BRK,0.3,0.7
