lg_id,salary,season,team_name
NBA,1035960.0,2011,Memphis Grizzlies
NBA,1113600.0,2012,New Orleans Hornets
NBA,1191240.0,2013,New Orleans Hornets
NBA,2150188.0,2014,Sacramento Kings
NBA,6400000.0,2015,Toronto Raptors
NBA,6600000.0,2016,Milwaukee Bucks
NBA,4347826.0,2017,Brooklyn Nets
