age,ast_per_mp,blk_per_mp,drb_per_mp,fg2_pct,fg2_per_mp,fg2a_per_mp,fg3_pct,fg3_per_mp,fg3a_per_mp,fg_pct,fg_per_mp,fga_per_mp,ft_pct,ft_per_mp,fta_per_mp,g,gs,lg_id,mp,orb_per_mp,pf_per_mp,pos,pts_per_mp,season,stl_per_mp,team_id,tov_per_mp,trb_per_mp
23.0,8.0,0.1,2.0,0.463,2.7,5.7,0.359,1.4,4.0,0.42,4.1,9.7,0.884,1.6,1.8,82.0,6.0,NBA,1372.0,0.5,3.0,PG,11.2,1989,1.8,PHI,1.7,2.5
24.0,7.6,0.0,1.8,0.447,3.2,7.3,0.392,1.1,2.9,0.431,4.4,10.2,0.877,1.8,2.1,72.0,1.0,NBA,975.0,0.6,3.9,PG,11.8,1990,1.7,PHI,1.4,2.4
25.0,7.5,0.2,1.6,0.485,4.2,8.6,0.333,1.7,5.0,0.43,5.8,13.6,0.847,2.2,2.6,80.0,0.0,NBA,980.0,1.0,4.5,PG,15.6,1991,1.9,MIN,1.9,2.6
26.0,6.8,0.2,2.4,0.475,4.5,9.4,0.356,1.1,3.0,0.447,5.6,12.4,0.81,1.7,2.1,82.0,0.0,NBA,1082.0,0.9,2.7,PG,13.9,1992,2.2,MIN,1.7,3.3
27.0,5.8,0.1,1.8,0.497,3.4,6.8,0.414,1.0,2.4,0.475,4.3,9.1,0.83,2.7,3.2,82.0,0.0,NBA,1516.0,0.5,3.2,PG,12.3,1993,1.9,HOU,1.7,2.4
28.0,4.4,0.1,2.7,0.522,3.5,6.7,0.377,0.7,1.8,0.491,4.2,8.5,0.871,2.2,2.5,73.0,0.0,NBA,1225.0,0.3,2.9,PG,11.2,1994,1.5,HOU,1.6,3.0
29.0,5.2,0.2,2.3,0.49,4.5,9.2,0.362,1.1,3.1,0.458,5.6,12.3,0.81,2.9,3.5,59.0,0.0,NBA,808.0,0.6,2.5,PG,15.2,1995,1.5,TOT,2.1,2.9
29.0,4.3,0.2,2.3,0.563,5.2,9.3,0.471,1.5,3.3,0.538,6.8,12.6,0.857,3.5,4.1,28.0,0.0,NBA,186.0,0.2,2.7,PG,18.6,1995,1.5,HOU,2.7,2.5
29.0,5.4,0.2,2.3,0.468,4.3,9.1,0.327,1.0,3.0,0.433,5.3,12.2,0.793,2.7,3.4,31.0,0.0,NBA,622.0,0.8,2.4,PG,14.2,1995,1.5,DAL,1.9,3.1
30.0,5.0,0.2,1.5,0.472,5.5,11.6,0.403,1.3,3.1,0.457,6.7,14.7,0.855,3.0,3.5,69.0,0.0,NBA,716.0,0.6,2.7,PG,17.7,1996,2.1,DAL,2.2,2.1
31.0,4.2,0.0,1.7,0.519,2.0,3.9,0.417,0.7,1.7,0.487,2.7,5.6,0.933,2.0,2.2,38.0,0.0,NBA,251.0,0.9,5.0,PG,8.2,1997,3.0,NYK,2.4,2.6
32.0,5.7,0.3,2.8,0.418,2.7,6.3,0.455,0.6,1.3,0.424,3.2,7.6,0.9,2.1,2.3,43.0,0.0,NBA,312.0,0.7,2.9,PG,9.1,1998,2.1,CLE,1.4,3.5
