age,ast,blk,drb,efg_pct,fg,fg2,fg2_pct,fg2a,fg3,fg3_pct,fg3a,fg_pct,fga,ft,ft_pct,fta,g,gs,lg_id,mp,orb,pf,pos,pts,season,stl,team_id,tov,trb
22.0,146.0,72.0,296.0,0.481,252.0,252.0,0.482,523.0,0.0,0.0,1.0,0.481,524.0,140.0,0.757,185.0,82.0,20.0,NBA,1623.0,131.0,292.0,C,644.0,1982,46.0,UTA,151.0,427.0
23.0,205.0,98.0,435.0,0.457,342.0,342.0,0.457,748.0,0.0,0.0,1.0,0.457,749.0,228.0,0.773,295.0,82.0,50.0,NBA,2284.0,200.0,325.0,C,912.0,1983,54.0,TOT,253.0,635.0
23.0,165.0,68.0,312.0,0.449,231.0,231.0,0.45,513.0,0.0,0.0,1.0,0.449,514.0,157.0,0.805,195.0,50.0,50.0,NBA,1638.0,137.0,216.0,C,619.0,1983,39.0,UTA,195.0,449.0
23.0,40.0,30.0,123.0,0.472,111.0,111.0,0.472,235.0,0.0,0.0,0.0,0.472,235.0,71.0,0.71,100.0,32.0,0.0,NBA,646.0,63.0,109.0,C,293.0,1983,15.0,DEN,58.0,186.0
24.0,91.0,60.0,288.0,0.493,183.0,183.0,0.496,369.0,0.0,0.0,2.0,0.493,371.0,215.0,0.79,272.0,82.0,15.0,NBA,1420.0,145.0,308.0,C,581.0,1984,32.0,DEN,119.0,433.0
25.0,38.0,25.0,96.0,0.465,60.0,60.0,0.465,129.0,0.0,0.0,0.0,0.465,129.0,79.0,0.814,97.0,56.0,0.0,NBA,542.0,48.0,98.0,C,199.0,1985,20.0,DEN,44.0,144.0
26.0,79.0,63.0,285.0,0.502,221.0,221.0,0.503,439.0,0.0,0.0,1.0,0.502,440.0,216.0,0.777,278.0,80.0,13.0,NBA,1654.0,154.0,298.0,C,658.0,1986,42.0,DEN,105.0,439.0
27.0,85.0,74.0,260.0,0.519,210.0,210.0,0.519,405.0,0.0,0.0,0.0,0.519,405.0,229.0,0.779,294.0,76.0,41.0,NBA,1556.0,120.0,266.0,C,649.0,1987,20.0,DEN,95.0,380.0
28.0,106.0,92.0,462.0,0.54,361.0,361.0,0.542,666.0,0.0,0.0,2.0,0.54,668.0,407.0,0.836,487.0,81.0,74.0,NBA,2166.0,200.0,323.0,PF,1129.0,1988,62.0,DEN,155.0,662.0
29.0,105.0,81.0,358.0,0.525,317.0,314.0,0.525,598.0,3.0,0.333,9.0,0.522,607.0,332.0,0.826,402.0,76.0,64.0,NBA,1918.0,142.0,320.0,C,969.0,1989,42.0,DEN,160.0,500.0
30.0,61.0,45.0,225.0,0.494,163.0,163.0,0.5,326.0,0.0,0.0,4.0,0.494,330.0,225.0,0.852,264.0,53.0,22.0,NBA,1194.0,117.0,200.0,C,551.0,1990,41.0,DEN,72.0,342.0
31.0,98.0,61.0,361.0,0.499,298.0,298.0,0.503,592.0,0.0,0.0,5.0,0.499,597.0,274.0,0.835,328.0,82.0,38.0,NBA,2228.0,174.0,264.0,C,870.0,1991,55.0,MIL,106.0,535.0
32.0,34.0,19.0,110.0,0.417,83.0,83.0,0.417,199.0,0.0,0.0,0.0,0.417,199.0,74.0,0.771,96.0,43.0,4.0,NBA,726.0,58.0,98.0,C,240.0,1992,19.0,MIL,41.0,168.0
33.0,78.0,36.0,177.0,0.399,105.0,105.0,0.404,260.0,0.0,0.0,3.0,0.399,263.0,112.0,0.818,137.0,70.0,7.0,NBA,1124.0,72.0,148.0,C,322.0,1993,36.0,MIL,65.0,249.0
34.0,13.0,10.0,48.0,0.333,28.0,28.0,0.333,84.0,0.0,0.0,0.0,0.333,84.0,29.0,0.906,32.0,36.0,6.0,NBA,363.0,31.0,45.0,C,85.0,1994,10.0,TOT,23.0,79.0
34.0,5.0,8.0,29.0,0.304,14.0,14.0,0.304,46.0,0.0,0.0,0.0,0.304,46.0,21.0,0.955,22.0,23.0,6.0,NBA,230.0,16.0,27.0,C,49.0,1994,5.0,MIL,14.0,45.0
34.0,8.0,2.0,19.0,0.368,14.0,14.0,0.368,38.0,0.0,0.0,0.0,0.368,38.0,8.0,0.8,10.0,13.0,0.0,NBA,133.0,15.0,18.0,C,36.0,1994,5.0,LAL,9.0,34.0
35.0,89.0,37.0,151.0,0.51,126.0,125.0,0.506,247.0,1.0,1.0,1.0,0.508,248.0,50.0,0.725,69.0,69.0,27.0,NBA,823.0,57.0,170.0,C,303.0,1995,20.0,PHO,64.0,208.0
36.0,9.0,16.0,60.0,0.34,32.0,32.0,0.34,94.0,0.0,0.0,0.0,0.34,94.0,37.0,0.804,46.0,32.0,6.0,NBA,399.0,29.0,60.0,C,101.0,1996,11.0,MIA,23.0,89.0
37.0,14.0,16.0,84.0,0.392,47.0,47.0,0.395,119.0,0.0,0.0,1.0,0.392,120.0,39.0,0.75,52.0,45.0,6.0,NBA,540.0,41.0,74.0,PF,133.0,1997,15.0,ORL,27.0,125.0
38.0,44.0,33.0,145.0,0.418,155.0,155.0,0.418,371.0,0.0,0.0,0.0,0.418,371.0,96.0,0.807,119.0,74.0,33.0,NBA,1272.0,97.0,182.0,C,406.0,1998,34.0,ORL,61.0,242.0
39.0,4.0,2.0,11.0,0.379,11.0,11.0,0.379,29.0,0.0,0.0,0.0,0.379,29.0,6.0,0.75,8.0,19.0,1.0,NBA,143.0,3.0,23.0,C,28.0,1999,1.0,ORL,8.0,14.0
