age,ast_pct,blk_pct,bpm,bpm-dum,dbpm,drb_pct,dws,fg3a_per_fga_pct,fta_per_fga_pct,g,lg_id,mp,obpm,orb_pct,ows,per,pos,season,stl_pct,team_id,tov_pct,trb_pct,ts_pct,usg_pct,vorp,ws,ws-dum,ws_per_48
19.0,9.0,4.4,-2.7,0.0,0.8,20.0,0.3,0.02,0.137,22.0,NBA,355.0,-3.5,7.9,0.1,12.7,C,2017,0.4,SAC,18.2,14.0,0.573,16.9,-0.1,0.4,0.0,0.057
20.0,11.2,4.7,-3.7,0.0,1.8,23.4,0.1,0.0,0.0,17.0,NBA,122.0,-5.5,11.6,-0.1,12.2,C,2018,1.6,TOT,16.0,17.2,0.429,18.4,-0.1,0.0,0.0,0.005
20.0,11.5,4.8,-5.0,0.0,1.4,24.2,0.1,0.0,0.0,16.0,NBA,118.0,-6.3,11.1,-0.2,10.7,C,2018,0.9,SAC,16.3,17.4,0.415,18.7,-0.1,0.0,0.0,-0.018
20.0,0.0,0.0,34.1,0.0,16.3,0.0,0.0,0.0,0.0,1.0,NBA,4.0,17.8,27.5,0.0,58.1,C,2018,24.9,POR,0.0,13.6,1.0,11.0,0.0,0.1,0.0,0.675
