article_url,date,headline
https://aroyalpain.com/2019/11/02/vlade-divac-needs-to-make-a-decision-or-step-down/,2019/11/02,A Royal Pain: Sacramento Kings: Vlade Needs To Make A Decision Or Step Down
https://aroyalpain.com/2019/09/05/sacramento-kings-divac-transactions/,2019/09/05,"A Royal Pain: Kings: Vlade Divac's Transactions, The Good And The Bad"
https://behindthebuckpass.com/2019/09/01/milwaukee-bucks-giannis-antetokounmpo-helps-greece-win-montenegro/,2019/09/01,Behind the Buck Pass: Milwaukee Bucks: Giannis Antetokounmpo helps Greece to win over Montenegro
https://behindthebuckpass.com/2019/08/31/milwaukee-bucks-2019-fiba-world-cup-gameday-1-previews/,2019/08/31,Behind the Buck Pass: Milwaukee Bucks: 2019 FIBA World Cup - Gameday 1 previews
