age,and1s,astd_pts,drawn_offensive,drawn_shooting,fouls_offensive,fouls_shooting,g,lg_id,mp,own_shots_blk,pct_1,pct_2,pct_3,pct_4,pct_5,plus_minus_net,plus_minus_on,pos,season,team_id,tov_bad_pass,tov_lost_ball
28.0,7.0,554.0,0.0,61.0,6.0,80.0,74.0,NBA,2247.0,17.0,9.0,79.0,12.0,0.0,0.0,1.7,-9.6,SG,2001,CHI,50.0,16.0
29.0,5.0,291.0,0.0,30.0,1.0,43.0,79.0,NBA,1408.0,18.0,6.0,91.0,3.0,0.0,0.0,3.0,-7.6,SG,2002,CHI,22.0,9.0
30.0,1.0,152.0,0.0,10.0,1.0,31.0,63.0,NBA,784.0,5.0,6.0,92.0,2.0,0.0,0.0,8.3,1.3,SG,2003,CHI,17.0,7.0
31.0,2.0,234.0,0.0,37.0,1.0,68.0,79.0,NBA,1804.0,10.0,4.0,95.0,2.0,0.0,0.0,-3.6,4.2,SG,2004,MIN,28.0,13.0
32.0,5.0,184.0,0.0,24.0,1.0,50.0,76.0,NBA,1272.0,7.0,0.0,99.0,1.0,0.0,0.0,7.9,7.0,SG,2005,MIN,13.0,4.0
