age,ast_per_poss,blk_per_poss,def_rtg,drb_per_poss,fg2_pct,fg2_per_poss,fg2a_per_poss,fg3_pct,fg3_per_poss,fg3a_per_poss,fg_pct,fg_per_poss,fga_per_poss,ft_pct,ft_per_poss,fta_per_poss,g,gs,lg_id,mp,off_rtg,orb_per_poss,pf_per_poss,pos,pts_per_poss,season,stl_per_poss,team_id,tov_per_poss,trb_per_poss
23.0,5.1,0.6,105.0,3.2,0.438,4.4,10.1,0.333,0.6,1.9,0.421,5.1,12.0,0.833,9.5,11.4,15.0,1.0,NBA,85.0,112.0,2.5,7.6,SG,20.2,1996,3.8,IND,4.4,5.7
24.0,3.9,0.6,103.0,6.4,0.442,3.6,8.1,0.414,2.7,6.6,0.429,6.3,14.7,0.792,5.8,7.3,47.0,0.0,NBA,572.0,120.0,1.2,4.8,SG,21.1,1997,2.5,IND,2.1,7.6
25.0,2.8,0.2,101.0,6.8,0.387,3.3,8.6,0.376,2.0,5.3,0.383,5.3,13.9,0.855,3.7,4.3,65.0,1.0,NBA,874.0,109.0,0.9,6.3,SG,16.3,1998,2.5,IND,1.4,7.7
26.0,2.6,0.0,109.0,5.7,0.417,3.2,7.7,0.111,0.6,5.7,0.286,3.8,13.4,1.0,3.8,3.8,12.0,0.0,NBA,87.0,89.0,1.3,7.0,SG,12.1,1999,0.0,IND,1.9,7.0
27.0,5.4,0.1,104.0,6.5,0.419,3.6,8.6,0.34,2.0,6.0,0.387,5.7,14.6,0.908,4.4,4.8,31.0,11.0,NBA,845.0,106.0,0.4,4.2,SG,17.7,2000,2.5,CHI,2.7,7.0
28.0,6.3,0.3,107.0,6.9,0.465,2.7,5.9,0.412,2.5,6.0,0.438,5.2,11.8,0.866,3.3,3.8,74.0,37.0,NBA,2247.0,119.0,0.5,3.7,SG,16.1,2001,2.3,CHI,1.8,7.4
29.0,5.1,0.2,107.0,7.2,0.487,3.7,7.5,0.261,0.9,3.5,0.416,4.6,11.0,0.84,3.0,3.5,79.0,8.0,NBA,1408.0,112.0,0.7,3.3,SG,13.0,2002,2.3,CHI,1.2,7.9
30.0,4.6,0.3,103.0,8.2,0.419,2.9,6.9,0.238,0.3,1.4,0.389,3.2,8.2,0.82,2.7,3.3,63.0,0.0,NBA,784.0,103.0,0.7,3.9,SG,9.4,2003,2.6,CHI,1.6,9.0
31.0,3.3,0.3,100.0,7.4,0.483,3.1,6.3,0.442,2.3,5.1,0.465,5.3,11.5,0.845,2.9,3.5,79.0,3.0,NBA,1804.0,121.0,0.6,4.1,SG,15.8,2004,2.0,MIN,1.3,8.0
32.0,3.6,0.6,106.0,6.3,0.496,2.9,5.9,0.483,3.0,6.1,0.489,5.9,12.0,0.873,3.8,4.3,76.0,0.0,NBA,1272.0,138.0,1.4,4.4,SG,18.5,2005,2.1,MIN,0.8,7.7
