age,ast_pct,blk_pct,bpm,bpm-dum,dbpm,drb_pct,dws,fg3a_per_fga_pct,fta_per_fga_pct,g,lg_id,mp,obpm,orb_pct,ows,per,pos,season,stl_pct,team_id,tov_pct,trb_pct,ts_pct,usg_pct,vorp,ws,ws-dum,ws_per_48
22.0,7.6,0.7,-6.7,0.0,-1.0,16.6,0.2,0.5,0.158,21.0,NBA,242.0,-5.8,0.9,-0.5,4.8,SG,2018,2.0,PHO,11.0,8.6,0.388,16.0,-0.3,-0.3,0.0,-0.06
23.0,8.5,0.0,-4.2,0.0,-1.3,9.2,0.0,0.333,0.0,10.0,NBA,47.0,-2.9,4.8,0.0,8.1,SG,2019,1.0,IND,7.7,7.1,0.5,12.1,0.0,0.1,0.0,0.064
