age,ast_per_poss,blk_per_poss,def_rtg,drb_per_poss,fg2_pct,fg2_per_poss,fg2a_per_poss,fg3_pct,fg3_per_poss,fg3a_per_poss,fg_pct,fg_per_poss,fga_per_poss,ft_pct,ft_per_poss,fta_per_poss,g,gs,lg_id,mp,off_rtg,orb_per_poss,pf_per_poss,pos,pts_per_poss,season,stl_per_poss,team_id,tov_per_poss,trb_per_poss
26.0,2.9,0.6,113.0,6.9,0.607,2.7,4.5,0.389,2.3,5.8,0.484,5.0,10.3,0.824,2.3,2.7,20.0,15.0,NBA,323.0,122.0,2.4,6.3,PF,14.5,1995,1.1,HOU,1.8,9.4
27.0,0.0,0.0,116.0,5.1,0.333,5.1,15.4,0.0,0.0,5.1,0.25,5.1,20.5,0.0,0.0,10.3,1.0,0.0,NBA,10.0,55.0,10.3,0.0,PF,10.3,1996,0.0,HOU,5.1,15.4
