age,ast_per_poss,blk_per_poss,def_rtg,drb_per_poss,fg2_pct,fg2_per_poss,fg2a_per_poss,fg3_pct,fg3_per_poss,fg3a_per_poss,fg_pct,fg_per_poss,fga_per_poss,ft_pct,ft_per_poss,fta_per_poss,g,gs,lg_id,mp,off_rtg,orb_per_poss,pf_per_poss,pos,pts_per_poss,season,stl_per_poss,team_id,tov_per_poss,trb_per_poss
23.0,7.8,1.6,105.0,7.0,0.452,8.9,19.7,0.0,0.0,1.3,0.423,8.9,21.0,0.583,1.9,3.2,6.0,6.0,NBA,191.0,85.0,0.3,3.8,PG,19.7,2015,1.9,MIL,4.3,7.3
25.0,5.9,1.0,114.0,2.9,0.429,5.9,13.8,0.0,0.0,1.0,0.4,5.9,14.7,0.5,2.0,3.9,5.0,0.0,NBA,53.0,76.0,1.0,5.9,PG,13.8,2017,2.0,CHI,5.9,3.9
27.0,6.5,0.0,111.0,9.8,0.435,5.5,12.5,0.25,1.1,4.4,0.387,6.5,16.9,0.875,3.8,4.4,5.0,0.0,NBA,92.0,91.0,1.1,6.5,PG,18.0,2019,1.6,ORL,4.4,10.9
