age,ast,blk,drb,efg_pct,fg,fg2,fg2_pct,fg2a,fg3,fg3_pct,fg3a,fg_pct,fga,ft,ft_pct,fta,g,gs,lg_id,mp,orb,pf,pos,pts,season,stl,team_id,tov,trb
22.0,247.0,8.0,175.0,0.47,433.0,433.0,0.472,918.0,0.0,0.0,4.0,0.47,922.0,260.0,0.767,339.0,80.0,65.0,NBA,2486.0,148.0,232.0,PG,1126.0,1985,99.0,IND,197.0,323.0
23.0,505.0,5.0,284.0,0.506,436.0,435.0,0.508,856.0,1.0,0.167,6.0,0.506,862.0,263.0,0.745,353.0,80.0,77.0,NBA,2870.0,102.0,230.0,PG,1136.0,1986,131.0,IND,208.0,386.0
24.0,473.0,18.0,225.0,0.51,370.0,368.0,0.513,717.0,2.0,0.2,10.0,0.509,727.0,238.0,0.788,302.0,82.0,82.0,NBA,2549.0,109.0,222.0,PG,980.0,1987,109.0,IND,167.0,334.0
25.0,568.0,11.0,258.0,0.523,442.0,442.0,0.531,832.0,0.0,0.0,13.0,0.523,845.0,227.0,0.802,283.0,80.0,80.0,NBA,2733.0,106.0,225.0,PG,1111.0,1988,115.0,IND,175.0,364.0
26.0,494.0,12.0,225.0,0.517,419.0,416.0,0.526,791.0,3.0,0.13,23.0,0.515,814.0,243.0,0.799,304.0,76.0,69.0,NBA,2552.0,85.0,212.0,PG,1084.0,1989,77.0,IND,192.0,310.0
27.0,610.0,10.0,204.0,0.515,467.0,455.0,0.514,885.0,12.0,0.353,34.0,0.508,919.0,230.0,0.782,294.0,82.0,82.0,NBA,2876.0,118.0,213.0,PG,1176.0,1990,92.0,IND,206.0,322.0
28.0,369.0,13.0,131.0,0.534,356.0,352.0,0.539,653.0,4.0,0.222,18.0,0.531,671.0,161.0,0.729,221.0,69.0,45.0,NBA,1929.0,83.0,116.0,PG,877.0,1991,76.0,IND,137.0,214.0
29.0,266.0,7.0,140.0,0.487,294.0,288.0,0.494,583.0,6.0,0.222,27.0,0.482,610.0,132.0,0.737,179.0,82.0,6.0,NBA,1737.0,69.0,134.0,PG,726.0,1992,56.0,IND,140.0,209.0
30.0,224.0,9.0,106.0,0.512,280.0,273.0,0.527,518.0,7.0,0.194,36.0,0.505,554.0,143.0,0.726,197.0,75.0,8.0,NBA,1503.0,63.0,126.0,PG,710.0,1993,63.0,IND,121.0,169.0
31.0,173.0,6.0,96.0,0.462,147.0,147.0,0.468,314.0,0.0,0.0,4.0,0.462,318.0,64.0,0.736,87.0,55.0,5.0,NBA,1053.0,27.0,98.0,PG,358.0,1994,40.0,IND,87.0,123.0
32.0,109.0,1.0,68.0,0.495,93.0,93.0,0.514,181.0,0.0,0.0,7.0,0.495,188.0,65.0,0.722,90.0,55.0,1.0,NBA,686.0,20.0,80.0,PG,251.0,1995,27.0,IND,43.0,88.0
33.0,255.0,5.0,121.0,0.436,227.0,224.0,0.452,496.0,3.0,0.107,28.0,0.433,524.0,133.0,0.751,177.0,77.0,3.0,NBA,1747.0,49.0,115.0,PG,590.0,1996,41.0,NJN,122.0,170.0
