age,ast_per_poss,blk_per_poss,def_rtg,drb_per_poss,fg2_pct,fg2_per_poss,fg2a_per_poss,fg3_pct,fg3_per_poss,fg3a_per_poss,fg_pct,fg_per_poss,fga_per_poss,ft_pct,ft_per_poss,fta_per_poss,g,gs,lg_id,mp,off_rtg,orb_per_poss,pf_per_poss,pos,pts_per_poss,season,stl_per_poss,team_id,tov_per_poss,trb_per_poss
24.0,8.9,0.4,106.0,6.3,0.371,4.8,13.0,0.0,0.0,0.4,0.361,4.8,13.4,0.767,8.6,11.2,4.0,4.0,NBA,141.0,105.0,3.4,5.6,PG,18.2,1987,1.5,IND,3.7,9.7
27.0,8.6,0.5,118.0,4.3,0.5,7.7,15.3,0.0,0.0,1.0,0.471,7.7,16.3,0.889,3.8,4.3,3.0,3.0,NBA,113.0,106.0,1.9,2.9,PG,19.2,1990,1.0,IND,3.8,6.2
28.0,9.4,1.2,120.0,2.9,0.462,7.4,16.0,0.0,0.0,0.4,0.45,7.4,16.4,0.786,4.5,5.7,5.0,0.0,NBA,115.0,113.0,4.1,4.1,PG,19.3,1991,0.4,IND,3.3,7.0
29.0,6.0,0.0,120.0,2.0,0.556,10.0,18.1,0.0,0.0,0.0,0.556,10.0,18.1,0.333,1.0,3.0,3.0,0.0,NBA,51.0,95.0,0.0,5.0,PG,21.1,1992,3.0,IND,4.0,2.0
30.0,2.0,0.7,113.0,2.7,0.435,6.6,15.3,0.5,1.3,2.7,0.444,8.0,17.9,1.0,2.7,2.7,3.0,3.0,NBA,80.0,93.0,0.7,4.0,PG,19.9,1993,1.3,IND,3.3,3.3
31.0,8.4,0.2,104.0,2.0,0.549,8.6,15.7,0.0,0.0,1.1,0.513,8.6,16.8,0.85,3.8,4.4,16.0,1.0,NBA,247.0,107.0,2.7,6.0,PG,21.0,1994,2.2,IND,4.9,4.6
32.0,13.8,0.0,115.0,6.9,0.5,6.9,13.8,0.0,0.0,6.9,0.333,6.9,20.7,0.0,0.0,20.7,3.0,0.0,NBA,8.0,82.0,6.9,0.0,PG,13.8,1995,0.0,IND,0.0,13.8
