age,ast,ast_per_g,blk,college_id,fg,fg3,fg3_pct,fg3a,fg_pct,fga,ft,ft_pct,fta,g,mp,mp_per_g,orb,pf,pts,pts_per_g,season,stl,tov,trb,trb_per_g
20.0,1.0,0.0,12.0,DUKE,18.0,0.0,0.0,0.0,0.474,38.0,6.0,0.545,11.0,24.0,0.0,0.0,0.0,0.0,42.0,1.8,2009,4.0,20.0,34.0,1.4
21.0,12.0,0.3,26.0,DUKE,83.0,1.0,1.0,1.0,0.561,148.0,39.0,0.661,59.0,40.0,654.0,16.4,65.0,103.0,206.0,5.2,2010,20.0,43.0,197.0,4.9
22.0,14.0,0.4,17.0,DUKE,72.0,0.0,0.0,0.0,0.522,138.0,32.0,0.593,54.0,37.0,617.0,16.7,71.0,88.0,176.0,4.8,2011,20.0,33.0,177.0,4.8
23.0,18.0,0.5,32.0,DUKE,89.0,0.0,0.0,0.0,0.61,146.0,48.0,0.632,76.0,34.0,697.0,20.5,99.0,78.0,226.0,6.6,2012,18.0,42.0,242.0,7.1
