age,ast_per_mp,blk_per_mp,drb_per_mp,fg2_pct,fg2_per_mp,fg2a_per_mp,fg3_pct,fg3_per_mp,fg3a_per_mp,fg_pct,fg_per_mp,fga_per_mp,ft_pct,ft_per_mp,fta_per_mp,g,gs,lg_id,mp,orb_per_mp,pf_per_mp,pos,pts_per_mp,season,stl_per_mp,team_id,tov_per_mp,trb_per_mp
23.0,0.0,0.0,6.0,1.0,6.0,6.0,0.0,0.0,0.0,1.0,6.0,6.0,1.0,12.0,12.0,2.0,0.0,NBA,6.0,0.0,0.0,C,24.0,1999,0.0,DET,0.0,6.0
24.0,1.3,2.3,5.0,0.621,6.4,10.3,0.0,0.0,0.0,0.621,6.4,10.3,0.794,4.0,5.0,29.0,0.0,NBA,488.0,3.2,7.7,C,16.8,2000,0.7,DET,1.7,8.3
25.0,1.0,1.9,6.1,0.494,4.1,8.3,0.0,0.0,0.0,0.493,4.1,8.4,0.731,3.0,4.1,81.0,2.0,NBA,1154.0,3.8,6.3,C,11.2,2001,0.7,DET,2.3,9.9
26.0,1.8,1.5,5.1,0.475,4.6,9.8,0.5,0.2,0.3,0.475,4.8,10.1,0.769,3.3,4.3,30.0,0.0,NBA,217.0,3.6,5.8,C,13.1,2002,1.2,DET,2.3,8.8
27.0,2.5,3.3,1.7,0.385,4.2,10.9,0.0,0.0,0.0,0.385,4.2,10.9,0.8,6.7,8.4,8.0,0.0,NBA,43.0,5.0,5.9,C,15.1,2003,0.0,TOT,1.7,6.7
27.0,0.0,6.0,0.0,0.0,0.0,3.0,0.0,0.0,0.0,0.0,0.0,3.0,0.0,0.0,0.0,3.0,0.0,NBA,12.0,3.0,18.0,C,0.0,2003,0.0,BOS,0.0,3.0
27.0,3.5,2.3,2.3,0.417,5.8,13.9,0.0,0.0,0.0,0.417,5.8,13.9,0.8,9.3,11.6,5.0,0.0,NBA,31.0,5.8,1.2,C,20.9,2003,0.0,ATL,2.3,8.1
28.0,1.7,1.2,5.0,0.505,4.6,9.0,0.0,0.0,0.0,0.505,4.6,9.0,0.857,2.7,3.2,32.0,0.0,NBA,395.0,2.6,5.9,PF-C,11.8,2004,0.6,TOT,2.0,7.7
28.0,0.0,0.0,3.6,0.2,3.6,18.0,0.0,0.0,0.0,0.2,3.6,18.0,0.0,0.0,0.0,4.0,0.0,NBA,10.0,3.6,3.6,C,7.2,2004,0.0,NJN,0.0,7.2
28.0,1.8,1.2,5.0,0.521,4.6,8.8,0.0,0.0,0.0,0.521,4.6,8.8,0.857,2.8,3.3,28.0,0.0,NBA,385.0,2.6,6.0,PF,12.0,2004,0.7,UTA,2.1,7.7
29.0,1.4,1.0,4.6,0.507,4.4,8.6,0.2,0.0,0.2,0.502,4.4,8.8,0.787,3.3,4.2,74.0,4.0,NBA,1178.0,3.0,5.3,PF,12.1,2005,0.6,LAC,1.9,7.5
30.0,1.7,0.9,5.3,0.443,3.3,7.5,0.0,0.0,0.1,0.435,3.3,7.7,0.742,2.8,3.8,47.0,1.0,NBA,583.0,2.7,5.7,C,9.5,2006,0.4,SEA,2.5,8.0
31.0,1.3,1.0,4.5,0.61,5.3,8.7,0.0,0.0,0.0,0.609,5.3,8.7,0.681,2.8,4.1,79.0,55.0,NBA,2082.0,2.5,4.5,C,13.4,2007,0.8,NJN,2.0,7.0
32.0,1.3,0.7,5.0,0.579,4.3,7.4,0.0,0.0,0.0,0.577,4.3,7.4,0.736,2.0,2.7,82.0,79.0,NBA,2385.0,2.4,4.7,PF,10.5,2008,0.5,SAC,1.7,7.5
33.0,1.6,0.6,5.5,0.553,3.4,6.2,0.0,0.0,0.0,0.553,3.4,6.2,0.787,1.4,1.8,70.0,20.0,NBA,1202.0,2.3,6.2,PF-C,8.3,2009,0.5,TOT,1.4,7.7
33.0,1.4,0.7,5.2,0.521,3.0,5.8,0.0,0.0,0.0,0.521,3.0,5.8,0.81,1.6,2.0,46.0,20.0,NBA,746.0,2.2,5.4,PF,7.7,2009,0.6,SAC,1.3,7.3
33.0,2.0,0.4,5.9,0.6,4.0,6.7,0.0,0.0,0.0,0.6,4.0,6.7,0.737,1.1,1.5,24.0,0.0,NBA,456.0,2.4,7.6,C,9.2,2009,0.3,BOS,1.7,8.4
34.0,3.2,1.2,3.8,0.6,4.8,8.0,0.0,0.0,0.0,0.6,4.8,8.0,0.636,0.6,1.0,23.0,20.0,NBA,406.0,2.3,5.3,C,10.2,2010,0.4,GSW,1.9,6.1
36.0,1.5,0.9,4.6,0.45,2.7,6.1,0.0,0.0,0.0,0.45,2.7,6.1,0.857,1.8,2.1,7.0,0.0,NBA,118.0,2.1,7.3,C,7.3,2012,0.9,GSW,2.1,6.7
