lg_id,salary,season,team_name
NBA,460000.0,2000,Detroit Pistons
NBA,2850000.0,2001,Detroit Pistons
NBA,2531250.0,2002,Detroit Pistons
NBA,2412500.0,2003,Detroit Pistons
NBA,46642.0,2003,Boston Celtics
NBA,513000.0,2004,New Jersey Nets
NBA,870046.0,2005,Los Angeles Clippers
NBA,1020000.0,2006,Seattle SuperSonics
NBA,1071225.0,2007,New Jersey Nets
NBA,5356000.0,2008,Sacramento Kings
NBA,5632200.0,2009,Sacramento Kings
NBA,2000000.0,2010,Sacramento Kings
NBA,537952.0,2010,Golden State Warriors
