age,avg_dist,fg2_dunk,fg2_pct,fg2_pct_ast,fg2a_pct_fga,fg3_heave,fg3_pct,fg3_pct_ast,fg3_pct_corner,fg3a_heave,fg3a_pct_fga,fg_pct,fg_pct_00_03,fg_pct_03_10,fg_pct_10_16,fg_pct_16_xx,g,lg_id,mp,pct_fg2_dunk,pct_fg3a_corner,pct_fga_00_03,pct_fga_03_10,pct_fga_10_16,pct_fga_16_xx,pos,season,team_id
19.0,10.4,1.0,0.444,0.5,1.0,0.0,0.0,0.0,0.0,0.0,0.0,0.444,0.5,0.0,0.333,0.667,11.0,NBA,30.0,0.222,0.0,0.222,0.111,0.333,0.333,C,2018,IND
20.0,12.7,0.0,0.0,0.0,1.0,0.0,0.0,0.0,0.0,0.0,0.0,0.0,0.0,0.0,0.0,0.0,3.0,NBA,6.0,0.0,0.0,0.333,0.0,0.0,0.667,C,2019,IND
