age,and1s,astd_pts,drawn_offensive,drawn_shooting,fouls_offensive,fouls_shooting,g,lg_id,mp,own_shots_blk,pct_1,pct_2,pct_3,pct_4,pct_5,plus_minus_net,plus_minus_on,pos,season,team_id,tov_bad_pass,tov_lost_ball
19.0,0.0,0.0,0.0,3.0,0.0,0.0,11.0,NBA,30.0,2.0,0.0,0.0,0.0,0.0,100.0,-26.5,-24.7,C,2018,IND,1.0,1.0
20.0,0.0,2.0,0.0,0.0,0.0,0.0,3.0,NBA,6.0,0.0,0.0,0.0,0.0,0.0,100.0,-26.5,-23.1,C,2019,IND,0.0,0.0
