age,ast_pct,blk_pct,bpm,bpm-dum,dbpm,drb_pct,dws,fg3a_per_fga_pct,fta_per_fga_pct,g,lg_id,mp,obpm,orb_pct,ows,per,pos,season,stl_pct,team_id,tov_pct,trb_pct,ts_pct,usg_pct,vorp,ws,ws-dum,ws_per_48
19.0,0.0,8.9,-5.4,0.0,-1.2,15.0,0.0,0.0,0.667,11.0,NBA,30.0,-4.1,19.0,0.1,21.6,C,2018,1.7,IND,14.7,16.9,0.558,20.3,0.0,0.1,0.0,0.165
20.0,19.4,14.8,-14.0,0.0,8.5,36.2,0.0,0.0,0.0,3.0,NBA,6.0,-22.5,18.9,-0.1,-6.0,C,2019,0.0,IND,25.0,27.7,0.0,29.1,0.0,-0.1,0.0,-0.48
