age,ast_per_g,blk_per_g,drb_per_g,efg_pct,fg2_pct,fg2_per_g,fg2a_per_g,fg3_pct,fg3_per_g,fg3a_per_g,fg_pct,fg_per_g,fga_per_g,ft_pct,ft_per_g,fta_per_g,g,gs,lg_id,mp_per_g,orb_per_g,pf_per_g,pos,pts_per_g,season,stl_per_g,team_id,tov_per_g,trb_per_g
20.0,0.4,0.5,2.3,0.444,0.446,1.9,4.3,0.0,0.0,0.0,0.444,1.9,4.3,0.649,1.1,1.7,43.0,12.0,NBA,14.0,1.1,1.7,PF,5.0,1997,0.3,DAL,0.9,3.4
21.0,0.6,1.0,5.0,0.486,0.488,3.8,7.8,0.0,0.0,0.0,0.486,3.8,7.8,0.546,1.3,2.4,41.0,19.0,NBA,25.0,2.3,3.1,PF,8.9,1998,0.7,DAL,1.5,7.4
22.0,0.2,0.4,2.5,0.463,0.466,2.3,4.8,0.0,0.0,0.0,0.463,2.3,4.9,0.541,1.4,2.5,39.0,2.0,NBA,14.6,1.2,2.2,PF,5.9,1999,0.2,DAL,0.9,3.7
23.0,0.5,0.5,2.7,0.449,0.449,1.9,4.3,0.0,0.0,0.0,0.449,1.9,4.3,0.683,1.2,1.8,71.0,7.0,NBA,13.8,1.1,1.5,PF,5.1,2000,0.1,SAS,0.9,3.8
24.0,0.5,0.7,2.9,0.482,0.482,2.0,4.1,0.333,0.0,0.0,0.48,2.0,4.1,0.629,1.3,2.0,61.0,1.0,NBA,15.8,1.1,1.7,PF,5.3,2001,0.2,SAS,1.1,4.0
25.0,0.9,1.3,5.1,0.512,0.512,2.7,5.3,0.0,0.0,0.0,0.512,2.7,5.3,0.667,1.2,1.9,69.0,63.0,NBA,24.0,1.9,2.5,PF,6.7,2002,0.4,LAL,0.8,7.0
26.0,1.0,0.8,3.8,0.42,0.421,1.7,4.1,0.0,0.0,0.0,0.42,1.7,4.1,0.653,1.0,1.5,67.0,39.0,NBA,18.6,1.7,2.1,C,4.4,2003,0.3,LAL,0.8,5.5
27.0,0.2,0.3,2.1,0.384,0.392,1.2,2.9,0.0,0.0,0.1,0.384,1.2,3.0,0.659,0.9,1.3,33.0,0.0,NBA,12.7,1.3,1.6,PF,3.2,2004,0.3,MIA,0.5,3.4
28.0,0.3,0.5,0.7,0.355,0.355,0.8,2.2,0.0,0.0,0.0,0.355,0.8,2.2,0.667,0.1,0.2,14.0,0.0,NBA,9.6,0.6,1.8,PF,1.7,2005,0.2,WAS,0.6,1.3
29.0,0.0,0.1,0.4,0.0,0.0,0.0,0.3,0.0,0.0,0.0,0.0,0.0,0.3,1.0,0.3,0.3,7.0,0.0,NBA,3.1,0.0,1.0,PF,0.3,2006,0.0,IND,0.3,0.4
