age,ast_per_poss,blk_per_poss,def_rtg,drb_per_poss,fg2_pct,fg2_per_poss,fg2a_per_poss,fg3_pct,fg3_per_poss,fg3a_per_poss,fg_pct,fg_per_poss,fga_per_poss,ft_pct,ft_per_poss,fta_per_poss,g,gs,lg_id,mp,off_rtg,orb_per_poss,pf_per_poss,pos,pts_per_poss,season,stl_per_poss,team_id,tov_per_poss,trb_per_poss
23.0,0.9,5.2,86.0,14.0,0.452,6.1,13.5,0.0,0.0,0.0,0.452,6.1,13.5,0.667,3.5,5.2,4.0,4.0,NBA,121.0,94.0,5.7,5.7,PF,15.7,2000,0.4,SAS,3.5,19.7
24.0,2.1,0.7,105.0,6.3,0.333,3.5,10.6,0.0,0.0,0.0,0.333,3.5,10.6,0.5,2.8,5.6,12.0,0.0,NBA,76.0,94.0,3.5,8.5,PF,9.9,2001,0.7,SAS,0.7,9.9
25.0,0.9,1.3,102.0,10.1,0.451,5.0,11.1,1.0,0.2,0.2,0.462,5.2,11.4,0.765,2.8,3.7,19.0,5.0,NBA,240.0,108.0,7.0,9.2,PF,13.6,2002,0.4,LAL,2.6,17.1
26.0,2.1,2.1,105.0,9.5,0.4,2.1,5.3,0.0,0.0,0.0,0.4,2.1,5.3,0.0,0.0,0.0,9.0,0.0,NBA,49.0,81.0,4.2,11.6,C,4.2,2003,1.1,LAL,3.2,13.7
27.0,0.0,0.0,103.0,5.1,0.0,0.0,10.1,0.0,0.0,0.0,0.0,0.0,10.1,0.0,0.0,0.0,4.0,0.0,NBA,11.0,0.0,0.0,10.1,PF,0.0,2004,0.0,MIA,0.0,5.1
