article_url,date,headline
https://behindthebuckpass.com/2019/09/10/milwaukee-bucks-usa-will-face-stern-test-france/,2019/09/10,Behind the Buck Pass: Milwaukee Bucks: USA will face stern test against France
https://hoopshabit.com/2019/08/29/fiba-world-cup-2019-5-non-team-usa-gold-medal/,2019/08/29,Hoops Habit: FIBA World Cup 2019: 5 non-Team USA teams with a chance to win gold
https://orlandomagicdaily.com/2019/08/24/team-usa-gets-wake-call-rest-world-prepares/,2019/08/24,Orlando Magic Daily: Team USA gets its wake-up call as the rest of the world prepares
https://orlandomagicdaily.com/2019/08/16/evan-fournier-leads-france-over-nikola-vuceivc-montenegro/,2019/08/16,"Orlando Magic Daily: Evan Fournier leads France over Nikola Vuceivc, Montenegro"
