age,ast_per_g,blk_per_g,drb_per_g,efg_pct,fg2_pct,fg2_per_g,fg2a_per_g,fg3_pct,fg3_per_g,fg3a_per_g,fg_pct,fg_per_g,fga_per_g,ft_pct,ft_per_g,fta_per_g,g,gs,lg_id,mp_per_g,orb_per_g,pf_per_g,pos,pts_per_g,season,stl_per_g,team_id,tov_per_g,trb_per_g
28.0,0.3,0.7,2.2,0.464,0.4,0.3,0.8,0.333,0.5,1.5,0.357,0.8,2.3,1.0,0.5,0.5,6.0,0.0,NBA,12.8,0.8,1.0,SF,2.7,2016,0.2,LAC,0.3,3.0
29.0,0.0,0.0,0.7,0.0,0.0,0.0,0.0,0.0,0.0,0.0,0.0,0.0,0.0,0.5,0.3,0.7,3.0,0.0,NBA,3.7,0.0,0.7,SF,0.3,2017,0.3,LAC,0.0,0.7
