age,ast_per_mp,blk_per_mp,drb_per_mp,fg2_pct,fg2_per_mp,fg2a_per_mp,fg3_pct,fg3_per_mp,fg3a_per_mp,fg_pct,fg_per_mp,fga_per_mp,ft_pct,ft_per_mp,fta_per_mp,g,gs,lg_id,mp,orb_per_mp,pf_per_mp,pos,pts_per_mp,season,stl_per_mp,team_id,tov_per_mp,trb_per_mp
23.0,2.6,0.9,3.3,0.427,2.9,6.8,0.356,1.8,5.0,0.397,4.7,11.9,0.696,1.1,1.6,79.0,63.0,NBA,2069.0,0.9,2.8,SG,12.3,2011,1.0,MIN,1.7,4.2
24.0,1.4,1.2,3.7,0.461,2.6,5.6,0.314,1.3,4.1,0.398,3.9,9.7,0.706,0.6,0.8,65.0,64.0,NBA,1469.0,0.6,2.8,SF,9.6,2012,0.9,MIN,1.5,4.3
25.0,1.3,0.7,3.9,0.461,4.2,9.1,0.323,1.9,5.9,0.407,6.1,15.0,0.771,1.0,1.3,50.0,21.0,NBA,953.0,0.8,2.1,SF,15.1,2013,0.8,PHO,1.8,4.6
26.0,2.0,1.2,4.5,0.466,2.8,6.1,0.369,1.6,4.4,0.425,4.5,10.5,0.792,1.0,1.2,79.0,62.0,NBA,2240.0,1.1,3.3,SF,11.5,2014,1.4,LAL,1.4,5.6
27.0,2.0,0.7,4.0,0.451,3.1,6.9,0.351,1.5,4.2,0.414,4.6,11.1,0.804,1.4,1.8,76.0,59.0,NBA,2245.0,1.1,2.6,SF,12.1,2015,0.9,LAL,1.4,5.1
28.0,1.1,1.2,4.6,0.51,2.3,4.5,0.333,2.2,6.7,0.404,4.5,11.1,0.652,0.6,1.0,80.0,9.0,NBA,1666.0,0.8,3.7,SF,11.9,2016,1.9,LAC,1.2,5.4
29.0,1.0,1.3,6.9,0.537,2.0,3.6,0.246,1.3,5.2,0.365,3.2,8.9,0.647,0.5,0.8,68.0,3.0,NBA,810.0,1.2,3.7,SF,8.3,2017,1.3,LAC,0.8,8.0
30.0,1.5,1.5,4.5,0.471,2.2,4.6,0.339,1.5,4.3,0.408,3.6,8.9,0.741,1.0,1.4,74.0,40.0,NBA,1486.0,0.7,3.5,SF,9.8,2018,1.8,LAC,1.3,5.2
31.0,1.6,0.8,4.0,0.385,1.3,3.5,0.329,1.7,5.1,0.352,3.0,8.6,0.684,0.9,1.3,38.0,13.0,NBA,534.0,0.8,4.2,SF,8.6,2019,0.9,TOT,1.2,4.9
31.0,1.5,0.7,4.2,0.421,1.5,3.6,0.38,1.8,4.8,0.398,3.3,8.4,0.667,0.6,0.9,26.0,13.0,NBA,377.0,1.0,4.3,SF,9.1,2019,1.1,NOP,1.1,5.2
31.0,1.6,1.1,3.7,0.286,0.9,3.2,0.231,1.4,6.0,0.25,2.3,9.2,0.7,1.6,2.3,12.0,0.0,NBA,157.0,0.5,4.1,SF,7.6,2019,0.5,WAS,1.4,4.1
