age,ast_per_poss,blk_per_poss,def_rtg,drb_per_poss,fg2_pct,fg2_per_poss,fg2a_per_poss,fg3_pct,fg3_per_poss,fg3a_per_poss,fg_pct,fg_per_poss,fga_per_poss,ft_pct,ft_per_poss,fta_per_poss,g,gs,lg_id,mp,off_rtg,orb_per_poss,pf_per_poss,pos,pts_per_poss,season,stl_per_poss,team_id,tov_per_poss,trb_per_poss
23.0,0.0,0.0,106.0,4.4,0.667,2.9,4.4,0.364,5.9,16.1,0.429,8.8,20.5,0.0,0.0,0.0,7.0,0.0,NBA,34.0,112.0,2.9,4.4,SF,23.5,2014,2.9,HOU,1.5,7.3
24.0,2.7,0.8,104.0,6.4,0.426,3.4,7.9,0.374,4.3,11.4,0.396,7.7,19.4,0.82,4.6,5.6,70.0,49.0,NBA,1956.0,104.0,1.7,4.8,SF,24.2,2015,2.5,PHI,3.3,8.1
25.0,2.5,1.0,106.0,9.1,0.452,2.7,5.9,0.353,4.4,12.4,0.385,7.1,18.3,0.791,3.6,4.6,67.0,49.0,NBA,1903.0,97.0,1.7,6.0,SF,22.1,2016,2.7,PHI,3.7,10.8
26.0,2.3,1.6,105.0,7.9,0.484,3.6,7.4,0.333,3.1,9.5,0.399,6.7,16.8,0.822,3.3,4.0,67.0,67.0,NBA,2119.0,100.0,2.1,4.7,SF,19.9,2017,2.9,PHI,3.0,10.0
27.0,3.0,1.4,103.0,7.2,0.497,2.7,5.4,0.369,3.9,10.4,0.413,6.6,15.9,0.853,2.2,2.6,80.0,80.0,NBA,2532.0,107.0,1.0,4.5,SF,19.2,2018,2.6,PHI,2.4,8.2
28.0,1.8,1.9,108.0,6.5,0.518,2.8,5.4,0.378,3.4,8.9,0.431,6.2,14.3,0.764,2.7,3.5,35.0,35.0,NBA,1203.0,110.0,1.1,5.0,SF,18.4,2019,2.9,TOT,1.9,7.6
28.0,1.5,2.5,106.0,6.4,0.5,2.1,4.3,0.39,3.2,8.3,0.427,5.4,12.6,0.739,1.8,2.5,13.0,13.0,NBA,440.0,102.0,0.8,4.8,SF,15.8,2019,2.6,PHI,2.4,7.2
28.0,2.0,1.5,109.0,6.6,0.526,3.2,6.1,0.372,3.5,9.3,0.433,6.7,15.4,0.773,3.2,4.1,22.0,22.0,NBA,763.0,115.0,1.3,5.1,SF,20.0,2019,3.1,MIN,1.6,7.9
29.0,1.8,1.5,108.0,7.2,0.63,4.4,6.9,0.366,3.9,10.5,0.471,8.2,17.5,0.909,2.6,2.8,7.0,7.0,NBA,173.0,112.0,2.1,5.1,PF,22.9,2020,1.8,MIN,2.6,9.2
