age,ast_per_g,blk_per_g,drb_per_g,efg_pct,fg2_pct,fg2_per_g,fg2a_per_g,fg3_pct,fg3_per_g,fg3a_per_g,fg_pct,fg_per_g,fga_per_g,ft_pct,ft_per_g,fta_per_g,g,gs,lg_id,mp_per_g,orb_per_g,pf_per_g,pos,pts_per_g,season,stl_per_g,team_id,tov_per_g,trb_per_g
23.0,0.0,0.0,0.4,0.571,0.667,0.3,0.4,0.364,0.6,1.6,0.429,0.9,2.0,0.0,0.0,0.0,7.0,0.0,NBA,4.9,0.3,0.4,SF,2.3,2014,0.3,HOU,0.1,0.7
24.0,1.5,0.4,3.6,0.506,0.426,1.9,4.4,0.374,2.4,6.4,0.396,4.3,10.8,0.82,2.5,3.1,70.0,49.0,NBA,27.9,0.9,2.7,SF,13.5,2015,1.4,PHI,1.8,4.5
25.0,1.4,0.6,5.3,0.504,0.452,1.6,3.4,0.353,2.5,7.2,0.385,4.1,10.6,0.791,2.1,2.6,67.0,49.0,NBA,28.4,1.0,3.5,SF,12.8,2016,1.6,PHI,2.1,6.3
26.0,1.5,1.0,5.1,0.492,0.484,2.3,4.8,0.333,2.0,6.1,0.399,4.4,10.9,0.822,2.1,2.6,67.0,67.0,NBA,31.6,1.4,3.0,SF,12.9,2017,1.9,PHI,2.0,6.5
27.0,2.0,0.9,4.7,0.534,0.497,1.8,3.6,0.369,2.5,6.9,0.413,4.3,10.5,0.853,1.5,1.7,80.0,80.0,NBA,31.7,0.7,3.0,SF,12.6,2018,1.7,PHI,1.6,5.4
28.0,1.3,1.3,4.7,0.548,0.518,2.0,3.9,0.378,2.4,6.4,0.431,4.5,10.3,0.764,1.9,2.5,35.0,35.0,NBA,34.4,0.8,3.6,SF,13.3,2019,2.1,TOT,1.3,5.5
28.0,1.1,1.8,4.6,0.556,0.5,1.5,3.1,0.39,2.3,5.9,0.427,3.8,9.0,0.739,1.3,1.8,13.0,13.0,NBA,33.8,0.5,3.5,SF,11.3,2019,1.8,PHI,1.7,5.2
28.0,1.5,1.1,4.8,0.545,0.526,2.3,4.4,0.372,2.5,6.7,0.433,4.8,11.1,0.773,2.3,3.0,22.0,22.0,NBA,34.7,1.0,3.7,SF,14.5,2019,2.3,MIN,1.1,5.7
29.0,1.0,0.9,4.0,0.581,0.63,2.4,3.9,0.366,2.1,5.9,0.471,4.6,9.7,0.909,1.4,1.6,7.0,7.0,NBA,24.7,1.1,2.9,PF,12.7,2020,1.0,MIN,1.4,5.1
