age,ast_per_mp,blk_per_mp,drb_per_mp,fg2_pct,fg2_per_mp,fg2a_per_mp,fg3_pct,fg3_per_mp,fg3a_per_mp,fg_pct,fg_per_mp,fga_per_mp,ft_pct,ft_per_mp,fta_per_mp,g,gs,lg_id,mp,orb_per_mp,pf_per_mp,pos,pts_per_mp,season,stl_per_mp,team_id,tov_per_mp,trb_per_mp
23.0,0.9,3.2,4.8,0.504,4.7,9.4,1.0,0.0,0.0,0.505,4.8,9.4,0.574,1.1,1.8,82.0,50.0,NBA,1848.0,2.7,4.2,PF,10.6,1997,0.4,VAN,1.7,7.5
24.0,0.7,2.7,3.1,0.36,3.1,8.5,0.0,0.0,0.0,0.36,3.1,8.5,0.333,0.7,2.0,15.0,0.0,NBA,106.0,2.7,6.1,PF,6.8,1998,1.0,TOT,1.7,5.8
24.0,1.0,3.9,4.9,0.375,2.9,7.8,0.0,0.0,0.0,0.375,2.9,7.8,0.5,1.0,1.9,9.0,0.0,NBA,37.0,0.0,5.8,PF,6.8,1998,1.9,BOS,1.0,4.9
24.0,0.5,2.1,2.1,0.353,3.1,8.9,0.0,0.0,0.0,0.353,3.1,8.9,0.25,0.5,2.1,6.0,0.0,NBA,69.0,4.2,6.3,PF,6.8,1998,0.5,TOR,2.1,6.3
26.0,0.9,3.9,4.8,0.402,3.5,8.8,0.0,0.0,0.1,0.398,3.5,8.9,0.463,1.9,4.2,40.0,0.0,NBA,355.0,3.3,3.7,PF,9.0,2000,0.2,DEN,1.0,8.1
