age,ast_per_poss,blk_per_poss,def_rtg,drb_per_poss,fg2_pct,fg2_per_poss,fg2a_per_poss,fg3_pct,fg3_per_poss,fg3a_per_poss,fg_pct,fg_per_poss,fga_per_poss,ft_pct,ft_per_poss,fta_per_poss,g,gs,lg_id,mp,off_rtg,orb_per_poss,pf_per_poss,pos,pts_per_poss,season,stl_per_poss,team_id,tov_per_poss,trb_per_poss
22.0,3.0,1.5,107.0,5.2,0.394,9.7,24.5,0.0,0.0,0.7,0.382,9.7,25.3,0.6,2.2,3.7,12.0,0.0,NBA,70.0,103.0,6.7,9.7,SG,21.6,1988,2.2,BOS,0.0,11.9
23.0,4.6,0.0,109.0,6.6,0.491,10.8,21.9,0.0,0.0,0.8,0.473,10.8,22.8,0.692,3.7,5.4,3.0,3.0,NBA,125.0,98.0,2.1,4.6,SF,25.2,1989,2.1,BOS,3.3,8.7
24.0,5.3,0.5,120.0,3.8,0.607,8.9,14.7,0.0,0.0,0.2,0.597,8.9,14.9,0.771,6.5,8.4,5.0,5.0,NBA,200.0,126.0,2.2,3.4,SG,24.3,1990,1.7,BOS,2.9,6.0
25.0,3.5,0.7,115.0,5.4,0.497,10.4,20.8,0.0,0.0,0.4,0.487,10.4,21.3,0.824,6.1,7.4,11.0,11.0,NBA,462.0,114.0,2.0,3.6,SG,26.8,1991,1.3,BOS,2.2,7.4
26.0,5.0,1.0,113.0,4.1,0.533,14.5,27.2,0.333,0.3,0.8,0.528,14.8,28.0,0.762,6.2,8.1,10.0,10.0,NBA,408.0,121.0,1.4,4.9,SG,36.0,1992,3.1,BOS,2.1,5.5
27.0,4.1,4.1,116.0,0.0,0.7,29.0,41.5,0.0,0.0,4.1,0.636,29.0,45.6,0.75,12.4,16.6,1.0,1.0,NBA,13.0,130.0,8.3,4.1,SG,70.5,1993,0.0,BOS,4.1,8.3
