age,ast_per_mp,blk_per_mp,drb_per_mp,fg2_pct,fg2_per_mp,fg2a_per_mp,fg3_pct,fg3_per_mp,fg3a_per_mp,fg_pct,fg_per_mp,fga_per_mp,ft_pct,ft_per_mp,fta_per_mp,g,gs,lg_id,mp,orb_per_mp,pf_per_mp,pos,pts_per_mp,season,stl_per_mp,team_id,tov_per_mp,trb_per_mp
22.0,2.1,1.0,3.6,0.394,6.7,17.0,0.0,0.0,0.5,0.382,6.7,17.5,0.6,1.5,2.6,12.0,0.0,NBA,70.0,4.6,6.7,SG,14.9,1988,1.5,BOS,0.0,8.2
23.0,3.2,0.0,4.6,0.491,7.5,15.3,0.0,0.0,0.6,0.473,7.5,15.8,0.692,2.6,3.7,3.0,3.0,NBA,125.0,1.4,3.2,SF,17.6,1989,1.4,BOS,2.3,6.0
24.0,4.0,0.4,2.9,0.607,6.7,11.0,0.0,0.0,0.2,0.597,6.7,11.2,0.771,4.9,6.3,5.0,5.0,NBA,200.0,1.6,2.5,SG,18.2,1990,1.3,BOS,2.2,4.5
25.0,2.5,0.5,3.9,0.497,7.4,14.9,0.0,0.0,0.3,0.487,7.4,15.2,0.824,4.4,5.3,11.0,11.0,NBA,462.0,1.4,2.6,SG,19.2,1991,0.9,BOS,1.6,5.3
26.0,3.4,0.7,2.8,0.533,10.0,18.7,0.333,0.2,0.5,0.528,10.1,19.2,0.762,4.2,5.6,10.0,10.0,NBA,408.0,1.0,3.4,SG,24.7,1992,2.1,BOS,1.4,3.8
27.0,2.8,2.8,0.0,0.7,19.4,27.7,0.0,0.0,2.8,0.636,19.4,30.5,0.75,8.3,11.1,1.0,1.0,NBA,13.0,5.5,2.8,SG,47.1,1993,0.0,BOS,2.8,5.5
