age,ast,blk,drb,fg,fg2,fg2a,fg3,fg3a,fga,ft,fta,game_score,lg_id,mp,orb,pf,pts,season,stl,team_id,tov,trb
23.0,2.0,1.0,4.0,5.0,5.0,8.0,2.0,2.0,10.0,2.0,3.0,11.7,NBA,26,2.0,5.0,12.0,2017,2.0,CHO,1.0,4.0
24.0,5.0,1.0,5.0,6.0,4.0,8.0,4.0,5.0,10.0,5.0,6.0,13.7,NBA,31,4.0,6.0,15.0,2018,4.0,CHO,2.0,7.0
25.0,3.0,2.0,7.0,7.0,4.0,6.0,4.0,11.0,17.0,4.0,5.0,16.2,NBA,32,3.0,5.0,21.0,2019,2.0,BRK,3.0,7.0
26.0,4.0,1.0,5.0,6.0,5.0,10.0,2.0,4.0,13.0,5.0,6.0,10.8,NBA,36,3.0,5.0,13.0,2020,2.0,MIN,3.0,6.0
