age,ast_per_mp,blk_per_mp,drb_per_mp,fg2_pct,fg2_per_mp,fg2a_per_mp,fg3_pct,fg3_per_mp,fg3a_per_mp,fg_pct,fg_per_mp,fga_per_mp,ft_pct,ft_per_mp,fta_per_mp,g,gs,lg_id,mp,orb_per_mp,pf_per_mp,pos,pts_per_mp,season,stl_per_mp,team_id,tov_per_mp,trb_per_mp
25.0,0.0,0.0,3.6,0.25,3.6,14.4,0.0,0.0,0.0,0.25,3.6,14.4,1.0,7.2,7.2,3.0,0.0,NBA,10.0,3.6,10.8,C,14.4,2001,0.0,TOR,0.0,7.2
26.0,0.0,1.6,3.9,0.6,4.7,7.8,0.0,0.0,0.0,0.6,4.7,7.8,0.8,6.3,7.8,5.0,0.0,NBA,46.0,4.7,4.7,C,15.7,2002,0.0,TOR,0.8,8.6
27.0,0.7,3.2,5.2,0.448,4.3,9.5,0.0,0.0,0.0,0.448,4.3,9.5,0.723,3.4,4.6,22.0,8.0,NBA,364.0,2.9,5.7,C,11.9,2003,0.8,TOR,2.1,8.1
28.0,0.0,2.5,6.8,0.391,2.7,6.8,0.0,0.0,0.0,0.391,2.7,6.8,0.746,4.3,5.8,28.0,1.0,NBA,366.0,4.2,5.8,C,9.6,2004,0.8,TOT,1.8,11.0
28.0,0.0,5.1,5.1,0.0,0.0,5.1,0.0,0.0,0.0,0.0,0.0,5.1,0.0,0.0,0.0,3.0,0.0,NBA,7.0,0.0,5.1,C,0.0,2004,0.0,DAL,5.1,5.1
28.0,0.0,2.4,6.8,0.397,2.7,6.8,0.0,0.0,0.0,0.397,2.7,6.8,0.746,4.4,5.9,25.0,1.0,NBA,359.0,4.3,5.8,C,9.8,2004,0.8,ATL,1.7,11.1
29.0,0.5,2.5,4.5,0.421,4.0,9.5,0.0,0.0,0.5,0.4,4.0,10.0,0.571,2.0,3.5,11.0,0.0,NBA,72.0,4.5,10.0,C,10.0,2005,0.5,LAC,0.0,9.0
