age,ast_pct,blk_pct,bpm,bpm-dum,dbpm,drb_pct,dws,fg3a_per_fga_pct,fta_per_fga_pct,g,lg_id,mp,obpm,orb_pct,ows,per,pos,season,stl_pct,team_id,tov_pct,trb_pct,ts_pct,usg_pct,vorp,ws,ws-dum,ws_per_48
26.0,6.4,1.3,-4.3,0.0,-0.8,19.0,0.1,0.0,0.523,26.0,NBA,148.0,-3.5,5.3,0.1,11.9,PF,1990,1.4,SEA,14.3,11.9,0.508,17.8,-0.1,0.2,0.0,0.066
27.0,20.2,4.9,-2.3,0.0,5.3,16.0,0.1,0.036,0.143,13.0,NBA,53.0,-7.6,6.7,-0.3,9.4,PF,1991,6.6,SEA,16.8,11.3,0.286,28.3,0.0,-0.1,0.0,-0.117
