age,ast_per_mp,blk_per_mp,drb_per_mp,fg2_pct,fg2_per_mp,fg2a_per_mp,fg3_pct,fg3_per_mp,fg3a_per_mp,fg_pct,fg_per_mp,fga_per_mp,ft_pct,ft_per_mp,fta_per_mp,g,gs,lg_id,mp,orb_per_mp,pf_per_mp,pos,pts_per_mp,season,stl_per_mp,team_id,tov_per_mp,trb_per_mp
28.0,2.6,0.1,3.0,0.389,2.9,7.3,0.278,0.7,2.4,0.361,3.5,9.8,0.905,5.2,5.7,13.0,0.0,NBA,265.0,1.1,3.5,SG,12.9,1999,1.0,POR,2.4,4.1
32.0,1.7,0.4,3.8,0.514,4.4,8.5,0.464,1.6,3.4,0.5,6.0,11.9,0.774,2.9,3.8,12.0,0.0,NBA,296.0,1.9,4.1,SF,16.4,2003,1.0,SAC,2.1,5.7
33.0,1.6,0.2,8.0,0.477,3.4,7.2,0.276,1.3,4.7,0.397,4.7,11.9,0.667,1.3,2.0,5.0,5.0,NBA,221.0,0.5,1.5,SF,12.1,2004,0.8,HOU,1.5,8.5
34.0,1.7,0.6,3.6,0.463,2.4,5.1,0.516,2.4,4.7,0.488,4.8,9.8,0.875,0.5,0.6,15.0,6.0,NBA,474.0,1.0,3.2,SF,12.5,2005,0.8,PHO,0.8,4.6
35.0,3.4,1.7,1.7,0.4,3.4,8.6,0.0,0.0,1.7,0.333,3.4,10.3,0.0,0.0,0.0,3.0,0.0,NBA,21.0,3.4,6.9,SF,6.9,2006,1.7,LAL,3.4,5.1
