age,and1s,astd_pts,drawn_offensive,drawn_shooting,fouls_offensive,fouls_shooting,g,lg_id,mp,own_shots_blk,pct_1,pct_2,pct_3,pct_4,pct_5,plus_minus_net,plus_minus_on,pos,season,team_id,tov_bad_pass,tov_lost_ball
30.0,4.0,347.0,0.0,52.0,12.0,70.0,56.0,NBA,1690.0,40.0,0.0,63.0,36.0,1.0,0.0,-4.2,-8.6,SF,2001,TOT,71.0,27.0
30.0,1.0,109.0,0.0,24.0,5.0,18.0,17.0,NBA,550.0,19.0,0.0,57.0,43.0,0.0,0.0,-7.3,-12.1,SF,2001,ATL,26.0,8.0
30.0,3.0,238.0,0.0,28.0,7.0,52.0,39.0,NBA,1140.0,21.0,0.0,66.0,32.0,1.0,0.0,-3.1,-7.0,SF,2001,CLE,45.0,19.0
31.0,6.0,298.0,0.0,21.0,12.0,81.0,55.0,NBA,1825.0,31.0,0.0,10.0,88.0,2.0,0.0,2.9,-0.2,SF,2002,MIA,55.0,29.0
32.0,13.0,272.0,0.0,29.0,10.0,59.0,63.0,NBA,1309.0,26.0,1.0,51.0,48.0,0.0,0.0,-6.4,2.3,SF,2003,SAC,46.0,14.0
33.0,3.0,488.0,0.0,28.0,17.0,112.0,80.0,NBA,3119.0,37.0,0.0,15.0,85.0,1.0,0.0,3.0,2.6,SF,2004,HOU,106.0,32.0
34.0,3.0,411.0,0.0,19.0,7.0,97.0,64.0,NBA,1987.0,10.0,1.0,82.0,17.0,0.0,0.0,-7.8,0.4,SF,2005,TOT,63.0,33.0
34.0,3.0,189.0,0.0,10.0,5.0,34.0,24.0,NBA,990.0,6.0,1.0,95.0,4.0,0.0,0.0,-5.5,0.7,SF,2005,HOU,27.0,18.0
34.0,0.0,222.0,0.0,9.0,2.0,63.0,40.0,NBA,997.0,4.0,2.0,69.0,29.0,0.0,0.0,-9.9,0.2,SF,2005,PHO,36.0,15.0
35.0,0.0,80.0,3.0,4.0,2.0,30.0,40.0,NBA,512.0,5.0,1.0,31.0,68.0,0.0,0.0,-3.8,0.7,SF,2006,TOT,27.0,2.0
35.0,0.0,72.0,3.0,4.0,2.0,25.0,27.0,NBA,420.0,5.0,1.0,30.0,69.0,0.0,0.0,-3.2,3.1,SF,2006,PHO,22.0,2.0
35.0,0.0,8.0,0.0,0.0,0.0,5.0,13.0,NBA,92.0,0.0,0.0,34.0,66.0,0.0,0.0,-13.3,-10.5,SF,2006,LAL,5.0,0.0
