age,ast_pct,blk_pct,bpm,bpm-dum,dbpm,drb_pct,dws,fg3a_per_fga_pct,fta_per_fga_pct,g,lg_id,mp,obpm,orb_pct,ows,per,pos,season,stl_pct,team_id,tov_pct,trb_pct,ts_pct,usg_pct,vorp,ws,ws-dum,ws_per_48
22.0,23.1,0.8,-3.3,0.0,-1.4,10.1,0.2,0.157,0.197,28.0,NBA,938.0,-1.9,4.4,-1.8,11.0,SF,1993,2.1,DAL,18.5,7.0,0.451,27.0,-0.3,-1.6,0.0,-0.081
23.0,21.5,0.6,-1.9,0.0,-1.6,8.7,0.8,0.042,0.242,82.0,NBA,3066.0,-0.3,5.8,-0.3,14.4,SG,1994,1.4,DAL,17.4,7.1,0.497,26.5,0.0,0.6,0.0,0.009
24.0,17.0,0.4,0.4,0.0,-2.4,8.1,0.6,0.107,0.37,51.0,NBA,1982.0,2.8,6.2,4.3,18.9,SG,1995,0.7,DAL,11.8,7.1,0.549,28.2,1.2,4.9,0.0,0.118
25.0,14.3,0.5,-1.1,0.0,-2.6,9.7,0.6,0.255,0.32,82.0,NBA,2820.0,1.5,5.9,4.8,16.6,SG,1996,0.8,DAL,11.3,7.6,0.538,24.9,0.6,5.4,0.0,0.092
26.0,19.4,0.9,0.5,0.0,-0.4,11.5,1.6,0.24,0.301,77.0,NBA,2831.0,0.9,5.1,2.8,15.1,SG-SF,1997,1.6,TOT,15.1,8.2,0.526,21.6,1.8,4.4,0.0,0.075
26.0,16.8,0.7,0.9,0.0,-0.2,10.3,1.1,0.236,0.32,46.0,NBA,1676.0,1.0,5.5,1.8,15.2,SG,1997,1.8,DAL,13.8,7.9,0.532,21.3,1.2,2.8,0.0,0.081
26.0,23.2,1.1,0.0,0.0,-0.7,13.2,0.5,0.245,0.277,31.0,NBA,1155.0,0.7,4.5,1.1,15.0,SF,1997,1.3,NJN,17.0,8.6,0.518,22.0,0.6,1.6,0.0,0.066
27.0,22.3,0.2,-0.6,0.0,-0.9,10.1,1.7,0.173,0.255,79.0,NBA,3046.0,0.2,4.7,0.8,13.2,SG,1998,1.4,TOT,17.6,7.3,0.504,21.7,1.1,2.5,0.0,0.039
27.0,21.5,0.2,-0.4,0.0,-1.0,10.2,0.9,0.209,0.288,48.0,NBA,1788.0,0.6,4.4,1.4,13.1,SG,1998,1.2,PHI,19.4,7.3,0.545,18.8,0.7,2.3,0.0,0.062
27.0,23.5,0.1,-0.9,0.0,-0.6,9.8,0.8,0.138,0.224,31.0,NBA,1258.0,-0.2,5.0,-0.6,13.2,SG,1998,1.6,GSW,15.8,7.3,0.466,25.9,0.4,0.2,0.0,0.007
28.0,18.5,0.4,0.1,0.0,0.6,11.7,1.6,0.243,0.273,49.0,NBA,1175.0,-0.5,3.7,0.9,13.1,SG,1999,2.0,POR,16.5,7.8,0.499,19.3,0.6,2.5,0.0,0.101
29.0,14.5,0.2,-0.9,0.0,-1.9,11.6,0.7,0.245,0.172,79.0,NBA,2767.0,1.0,4.0,2.1,14.3,SF,2000,1.1,ATL,12.2,7.8,0.496,24.2,0.8,2.8,0.0,0.049
30.0,16.4,0.4,-3.0,0.0,-0.9,11.6,1.0,0.127,0.267,56.0,NBA,1690.0,-2.1,3.6,-0.8,10.7,SF,2001,1.6,TOT,15.5,7.6,0.455,22.3,-0.4,0.1,0.0,0.003
30.0,15.4,0.5,-2.3,0.0,-0.8,12.6,0.4,0.175,0.392,17.0,NBA,550.0,-1.5,3.4,-0.1,12.7,SF,2001,1.8,ATL,15.9,8.0,0.478,24.6,0.0,0.4,0.0,0.031
30.0,16.9,0.4,-3.3,0.0,-1.0,11.1,0.6,0.101,0.202,39.0,NBA,1140.0,-2.3,3.7,-0.8,9.7,SF,2001,1.6,CLE,15.4,7.4,0.443,21.2,-0.4,-0.2,0.0,-0.01
31.0,13.4,0.6,-0.4,0.0,1.3,15.0,2.5,0.151,0.162,55.0,NBA,1825.0,-1.7,3.5,0.3,11.3,SF,2002,1.3,MIA,15.5,9.3,0.511,17.8,0.7,2.8,0.0,0.073
32.0,13.6,0.2,-1.3,0.0,-0.1,13.8,1.7,0.154,0.119,63.0,NBA,1309.0,-1.2,7.2,0.8,12.4,SF,2003,1.2,SAC,14.1,10.7,0.501,19.1,0.2,2.5,0.0,0.09
33.0,12.8,0.6,1.6,0.0,1.3,15.6,4.4,0.45,0.141,80.0,NBA,3119.0,0.3,2.1,2.2,12.2,SF,2004,1.5,HOU,15.5,9.2,0.54,17.3,2.8,6.6,0.0,0.102
34.0,14.1,0.2,0.3,0.0,0.0,12.7,1.8,0.507,0.1,64.0,NBA,1987.0,0.3,1.9,1.4,10.9,SF,2005,0.9,TOT,15.9,7.5,0.553,16.5,1.1,3.2,0.0,0.077
34.0,14.5,0.1,0.9,0.0,0.9,12.1,1.2,0.519,0.117,24.0,NBA,990.0,0.0,1.2,0.3,10.5,SF,2005,1.3,HOU,15.8,6.8,0.538,16.8,0.7,1.5,0.0,0.075
34.0,13.6,0.3,-0.3,0.0,-0.9,13.4,0.6,0.495,0.084,40.0,NBA,997.0,0.5,2.6,1.1,11.4,SF,2005,0.6,PHO,16.0,8.3,0.568,16.2,0.4,1.6,0.0,0.079
35.0,9.1,0.8,-7.0,0.0,-0.6,14.0,0.5,0.463,0.081,40.0,NBA,512.0,-6.4,2.4,-1.3,3.0,SF,2006,1.2,TOT,17.4,8.3,0.365,17.6,-0.6,-0.8,0.0,-0.078
35.0,9.6,1.0,-6.2,0.0,-0.2,13.7,0.4,0.488,0.101,27.0,NBA,420.0,-6.0,3.0,-1.1,3.2,SF,2006,1.2,PHO,18.2,8.5,0.367,17.6,-0.4,-0.7,0.0,-0.075
35.0,6.6,0.0,-10.7,0.0,-2.6,15.3,0.1,0.355,0.0,13.0,NBA,92.0,-8.1,0.0,-0.2,2.1,SF,2006,1.1,LAL,13.9,7.7,0.355,17.8,-0.2,-0.2,0.0,-0.089
