age,ast_per_g,blk_per_g,drb_per_g,efg_pct,fg2_pct,fg2_per_g,fg2a_per_g,fg3_pct,fg3_per_g,fg3a_per_g,fg_pct,fg_per_g,fga_per_g,ft_pct,ft_per_g,fta_per_g,g,gs,lg_id,mp_per_g,orb_per_g,pf_per_g,pos,pts_per_g,season,stl_per_g,team_id,tov_per_g,trb_per_g
28.0,1.5,0.1,1.7,0.396,0.389,1.6,4.2,0.278,0.4,1.4,0.361,2.0,5.5,0.905,2.9,3.2,13.0,0.0,NBA,20.4,0.6,2.0,SG,7.3,1999,0.5,POR,1.4,2.3
32.0,1.2,0.3,2.6,0.566,0.514,3.0,5.8,0.464,1.1,2.3,0.5,4.1,8.2,0.774,2.0,2.6,12.0,0.0,NBA,24.7,1.3,2.8,SF,11.3,2003,0.7,SAC,1.4,3.9
33.0,2.0,0.2,9.8,0.452,0.477,4.2,8.8,0.276,1.6,5.8,0.397,5.8,14.6,0.667,1.6,2.4,5.0,5.0,NBA,44.2,0.6,1.8,SF,14.8,2004,1.0,HOU,1.8,10.4
34.0,1.5,0.5,3.2,0.612,0.463,2.1,4.5,0.516,2.1,4.1,0.488,4.2,8.6,0.875,0.5,0.5,15.0,6.0,NBA,31.6,0.9,2.8,SF,11.0,2005,0.7,PHO,0.7,4.1
35.0,0.7,0.3,0.3,0.333,0.4,0.7,1.7,0.0,0.0,0.3,0.333,0.7,2.0,0.0,0.0,0.0,3.0,0.0,NBA,7.0,0.7,1.3,SF,1.3,2006,0.3,LAL,0.7,1.0
