age,ast_per_g,blk_per_g,drb_per_g,efg_pct,fg2_pct,fg2_per_g,fg2a_per_g,fg3_pct,fg3_per_g,fg3a_per_g,fg_pct,fg_per_g,fga_per_g,ft_pct,ft_per_g,fta_per_g,g,gs,lg_id,mp_per_g,orb_per_g,pf_per_g,pos,pts_per_g,season,stl_per_g,team_id,tov_per_g,trb_per_g
28.0,1.7,0.0,2.0,0.482,0.6,3.0,5.0,0.231,1.0,4.3,0.429,4.0,9.3,0.0,0.0,0.0,3.0,3.0,NBA,29.3,0.0,2.0,SG,9.0,1996,1.0,MIA,0.3,2.0
29.0,2.6,0.0,2.8,0.627,0.543,3.8,7.0,0.458,4.4,9.6,0.494,8.2,16.6,0.68,3.4,5.0,5.0,5.0,NBA,38.2,0.4,2.8,SG,24.2,1997,0.4,PHO,3.0,3.2
30.0,2.0,0.0,0.0,0.261,0.333,3.0,9.0,0.0,0.0,2.5,0.261,3.0,11.5,0.857,3.0,3.5,2.0,2.0,NBA,29.0,0.0,0.5,SG,9.0,1998,1.0,PHO,1.0,0.0
31.0,2.0,0.0,1.3,0.333,0.267,1.3,5.0,0.333,0.7,2.0,0.286,2.0,7.0,0.75,1.0,1.3,3.0,3.0,NBA,19.0,0.7,3.0,SG,5.7,1999,0.3,PHO,1.3,2.0
