article_url,date,headline
https://airalamo.com/2019/11/15/november-huge-for-san-antonio-spurs/,2019/11/15,Air Alamo: The rest of November is huge for the San Antonio Spurs
https://clipperholics.com/2019/11/13/la-clippers-which-supporting-cast-was-kawhis-best/,2019/11/13,Fully Clips: LA Clippers: Which supporting cast was Kawhi Leonard's best?
https://bluemanhoop.com/2019/11/09/golden-state-warriors-wonderful-time-sceptics/,2019/11/09,Blue Man Hoop: Golden State Warriors: What a wonderful time it is for Warriors sceptics
https://airalamo.com/2019/11/08/san-antonio-spurs-three-keys-to-victory-against-the-boston-celtics/,2019/11/08,Air Alamo: San Antonio Spurs: Three keys to victory against the Boston Celtics
https://thunderousintentions.com/2019/11/07/preview-okc-thunder-san-antonio-spurs/,2019/11/07,Thunderous Intentions: Streaks are on the line as OKC Thunder face San Antonio Spurs
