age,ast,blk,drb,efg_pct,fg,fg2,fg2_pct,fg2a,fg3,fg3_pct,fg3a,fg_pct,fga,ft,ft_pct,fta,g,gs,lg_id,mp,orb,pf,pos,pts,season,stl,team_id,tov,trb
23.0,207.0,1.0,106.0,0.406,160.0,155.0,0.405,383.0,5.0,0.294,17.0,0.4,400.0,97.0,0.708,137.0,78.0,8.0,NBA,1268.0,26.0,153.0,PG,422.0,2001,49.0,DET,139.0,132.0
24.0,25.0,0.0,7.0,0.456,30.0,28.0,0.467,60.0,2.0,0.25,8.0,0.441,68.0,8.0,0.889,9.0,32.0,0.0,NBA,153.0,1.0,9.0,PG,70.0,2002,7.0,SAC,27.0,8.0
25.0,10.0,0.0,7.0,0.283,6.0,5.0,0.227,22.0,1.0,1.0,1.0,0.261,23.0,3.0,0.75,4.0,12.0,0.0,NBA,55.0,1.0,6.0,PG,16.0,2003,2.0,SAC,14.0,8.0
26.0,19.0,2.0,6.0,0.304,7.0,7.0,0.318,22.0,0.0,0.0,1.0,0.304,23.0,1.0,0.5,2.0,4.0,2.0,NBA,92.0,1.0,13.0,PG,15.0,2004,4.0,CLE,5.0,7.0
27.0,7.0,0.0,4.0,0.357,5.0,5.0,0.417,12.0,0.0,0.0,2.0,0.357,14.0,3.0,0.75,4.0,14.0,0.0,NBA,65.0,2.0,2.0,PG,13.0,2005,2.0,SEA,2.0,6.0
28.0,42.0,2.0,12.0,0.38,25.0,21.0,0.382,55.0,4.0,0.25,16.0,0.352,71.0,19.0,0.792,24.0,27.0,0.0,NBA,230.0,2.0,30.0,PG,73.0,2006,3.0,SEA,14.0,14.0
