lg_id,salary,season,team_name
NBA,936600.0,2006,Seattle SuperSonics
NBA,1006800.0,2007,Seattle SuperSonics
NBA,1077120.0,2008,Seattle SuperSonics
NBA,1939893.0,2009,Denver Nuggets
NBA,884881.0,2010,Denver Nuggets
NBA,3250000.0,2011,New Jersey Nets
NBA,3250000.0,2012,New Jersey Nets
NBA,3500000.0,2013,Atlanta Hawks
