age,ast_pct,blk_pct,bpm,bpm-dum,dbpm,drb_pct,dws,fg3a_per_fga_pct,fta_per_fga_pct,g,lg_id,mp,obpm,orb_pct,ows,per,pos,season,stl_pct,team_id,tov_pct,trb_pct,ts_pct,usg_pct,vorp,ws,ws-dum,ws_per_48
20.0,1.8,3.1,-4.0,0.0,-1.4,17.9,0.2,0.0,0.25,68.0,NBA,1282.0,-2.6,10.1,0.7,10.4,C,2006,1.0,SEA,15.3,13.9,0.53,13.7,-0.7,1.0,0.0,0.037
21.0,4.8,2.4,-3.1,0.0,0.0,19.5,1.2,0.0,0.176,81.0,NBA,1510.0,-3.1,7.2,0.5,11.6,C,2007,1.4,SEA,14.8,13.3,0.532,16.7,-0.4,1.7,0.0,0.053
22.0,3.8,2.3,-5.5,0.0,0.0,22.6,1.5,0.002,0.198,72.0,NBA,1310.0,-5.5,8.2,-1.1,10.0,C,2008,1.3,SEA,13.3,15.4,0.453,18.2,-1.1,0.4,0.0,0.014
23.0,4.5,2.0,-6.3,0.0,-0.1,23.9,0.8,0.011,0.165,49.0,NBA,559.0,-6.1,8.7,-0.6,8.1,C,2009,1.7,TOT,12.9,16.3,0.429,17.2,-0.6,0.2,0.0,0.018
23.0,2.8,1.1,-6.6,0.0,-0.6,23.3,0.5,0.009,0.133,22.0,NBA,342.0,-6.0,8.9,-0.3,9.3,C,2009,2.4,OKC,11.1,16.0,0.426,17.4,-0.4,0.1,0.0,0.019
23.0,7.1,3.6,-5.6,0.0,0.7,25.0,0.3,0.016,0.222,27.0,NBA,217.0,-6.3,8.3,-0.2,6.4,C,2009,0.7,DEN,15.8,16.9,0.434,16.9,-0.2,0.1,0.0,0.017
24.0,4.8,2.2,-2.9,0.0,0.5,25.4,0.6,0.01,0.208,36.0,NBA,436.0,-3.5,8.5,0.2,10.7,C,2010,1.2,DEN,17.3,17.1,0.553,13.6,-0.1,0.8,0.0,0.089
25.0,8.4,2.9,-3.2,0.0,1.4,20.4,1.1,0.014,0.097,77.0,NBA,893.0,-4.6,8.0,-0.7,9.9,C,2011,2.0,NJN,13.2,14.0,0.452,18.1,-0.3,0.4,0.0,0.024
26.0,8.2,1.9,-4.3,0.0,-0.3,20.3,0.6,0.004,0.142,59.0,NBA,920.0,-4.0,8.3,0.1,10.3,C,2012,1.2,NJN,12.1,14.1,0.452,15.6,-0.5,0.7,0.0,0.034
27.0,7.1,2.0,-4.8,0.0,0.7,25.3,0.6,0.036,0.109,31.0,NBA,352.0,-5.4,10.9,-0.2,11.0,C,2013,1.5,ATL,17.2,18.2,0.468,18.3,-0.2,0.4,0.0,0.048
