age,and1s,astd_pts,drawn_offensive,drawn_shooting,fouls_offensive,fouls_shooting,g,lg_id,mp,own_shots_blk,pct_1,pct_2,pct_3,pct_4,pct_5,plus_minus_net,plus_minus_on,pos,season,team_id,tov_bad_pass,tov_lost_ball
20.0,5.0,34.0,7.0,36.0,15.0,118.0,68.0,NBA,1282.0,25.0,0.0,0.0,0.0,0.0,100.0,-4.2,-6.1,C,2006,SEA,19.0,15.0
21.0,7.0,101.0,6.0,35.0,17.0,126.0,81.0,NBA,1510.0,13.0,0.0,0.0,0.0,0.0,100.0,-7.9,-8.2,C,2007,SEA,30.0,13.0
22.0,7.0,67.0,5.0,43.0,8.0,94.0,72.0,NBA,1310.0,24.0,0.0,0.0,0.0,0.0,100.0,-2.5,-10.8,C,2008,SEA,29.0,21.0
23.0,3.0,35.0,2.0,12.0,4.0,57.0,49.0,NBA,559.0,5.0,0.0,0.0,0.0,0.0,100.0,-16.7,-17.1,C,2009,TOT,5.0,7.0
23.0,1.0,13.0,2.0,7.0,3.0,27.0,22.0,NBA,342.0,3.0,0.0,0.0,0.0,0.0,100.0,-7.3,-13.4,C,2009,OKC,1.0,2.0
23.0,2.0,22.0,0.0,5.0,1.0,30.0,27.0,NBA,217.0,2.0,0.0,0.0,0.0,0.0,100.0,-27.9,-22.8,C,2009,DEN,4.0,5.0
24.0,3.0,31.0,2.0,10.0,4.0,46.0,36.0,NBA,436.0,4.0,0.0,0.0,0.0,0.0,100.0,-3.8,0.8,C,2010,DEN,7.0,7.0
25.0,4.0,100.0,5.0,12.0,12.0,98.0,77.0,NBA,893.0,3.0,0.0,0.0,0.0,9.0,91.0,-0.9,-7.8,C,2011,NJN,19.0,5.0
26.0,1.0,99.0,1.0,15.0,7.0,77.0,59.0,NBA,920.0,10.0,0.0,0.0,0.0,2.0,98.0,-1.7,-7.9,C,2012,NJN,18.0,10.0
27.0,3.0,36.0,1.0,8.0,4.0,28.0,31.0,NBA,352.0,4.0,0.0,0.0,0.0,0.0,100.0,-14.8,-13.0,C,2013,ATL,10.0,4.0
