age,ast_per_g,blk_per_g,drb_per_g,efg_pct,fg2_pct,fg2_per_g,fg2a_per_g,fg3_pct,fg3_per_g,fg3a_per_g,fg_pct,fg_per_g,fga_per_g,ft_pct,ft_per_g,fta_per_g,g,gs,lg_id,mp_per_g,orb_per_g,pf_per_g,pos,pts_per_g,season,stl_per_g,team_id,tov_per_g,trb_per_g
22.0,1.4,0.7,5.1,0.457,0.459,5.2,11.4,0.0,0.0,0.0,0.457,5.2,11.4,0.732,2.8,3.9,77.0,63.0,NBA,31.9,2.3,2.9,C,13.3,1996,0.6,VAN,2.0,7.4
23.0,2.1,0.9,5.8,0.486,0.49,6.6,13.5,0.091,0.0,0.1,0.486,6.6,13.7,0.704,2.9,4.1,75.0,75.0,NBA,37.0,2.3,3.6,C,16.2,1997,0.4,VAN,2.3,8.1
24.0,2.1,1.1,5.3,0.523,0.525,6.6,12.7,0.0,0.0,0.1,0.523,6.6,12.7,0.706,3.0,4.3,74.0,74.0,NBA,34.1,2.6,3.8,C,16.3,1998,0.5,VAN,2.1,7.9
25.0,1.5,0.3,3.5,0.406,0.408,4.1,10.0,0.0,0.0,0.0,0.406,4.1,10.0,0.578,2.7,4.6,25.0,14.0,NBA,28.1,2.0,4.1,C,10.8,1999,0.5,VAN,1.9,5.5
26.0,1.2,0.6,3.8,0.448,0.452,3.7,8.1,0.0,0.0,0.1,0.448,3.7,8.1,0.648,1.6,2.4,69.0,67.0,NBA,25.7,1.8,3.6,C,8.9,2000,0.5,VAN,1.7,5.7
27.0,1.1,0.7,4.3,0.461,0.462,3.4,7.3,0.25,0.0,0.1,0.46,3.4,7.4,0.796,1.5,1.9,75.0,48.0,NBA,24.4,1.8,3.2,C,8.3,2001,0.6,VAN,1.2,6.0
