age,ast_per_g,blk_per_g,drb_per_g,efg_pct,fg2_pct,fg2_per_g,fg2a_per_g,fg3_pct,fg3_per_g,fg3a_per_g,fg_pct,fg_per_g,fga_per_g,ft_pct,ft_per_g,fta_per_g,g,gs,lg_id,mp_per_g,orb_per_g,pf_per_g,pos,pts_per_g,season,stl_per_g,team_id,tov_per_g,trb_per_g
23.0,0.6,0.1,1.4,0.439,0.434,2.5,5.7,0.5,0.0,0.1,0.435,2.5,5.8,0.811,1.5,1.8,62.0,4.0,NBA,10.9,0.5,1.3,PF,6.6,1993,0.2,WSB,0.7,2.0
24.0,2.1,0.3,4.4,0.503,0.509,6.9,13.5,0.143,0.0,0.3,0.502,6.9,13.7,0.824,4.4,5.3,75.0,69.0,NBA,33.2,1.9,2.3,SF,18.2,1994,0.6,WSB,2.0,6.2
25.0,1.3,0.1,3.1,0.452,0.461,3.8,8.2,0.25,0.3,1.0,0.438,4.1,9.3,0.765,2.7,3.5,39.0,20.0,NBA,27.0,1.2,2.5,PF,11.0,1995,0.4,WSB,1.1,4.2
26.0,1.6,0.1,2.6,0.439,0.44,3.9,8.9,0.286,0.3,0.9,0.426,4.2,9.8,0.732,2.6,3.5,56.0,5.0,NBA,19.8,1.1,1.9,SF,11.2,1996,0.4,DEN,1.2,3.7
27.0,1.0,0.3,2.7,0.463,0.462,4.1,8.8,0.316,0.3,1.0,0.447,4.4,9.9,0.66,1.7,2.6,37.0,2.0,NBA,19.8,1.1,1.9,SF,10.9,1997,0.3,PHI,1.3,3.8
28.0,0.0,0.0,0.2,0.15,0.0,0.0,0.9,0.5,0.1,0.2,0.1,0.1,1.1,0.0,0.0,0.0,9.0,0.0,NBA,4.7,0.3,0.8,SF,0.3,1998,0.0,NJN,0.2,0.6
29.0,0.9,0.3,2.8,0.425,0.429,3.2,7.4,0.273,0.5,1.9,0.396,3.7,9.4,0.625,2.9,4.7,17.0,10.0,NBA,21.5,1.1,2.0,PF,10.9,1999,0.3,SEA,1.5,3.8
30.0,0.5,0.1,1.1,0.388,0.372,1.0,2.7,0.333,0.1,0.4,0.367,1.1,3.1,0.667,0.3,0.4,16.0,0.0,NBA,8.9,0.4,1.5,PF,2.6,2000,0.1,PHO,0.5,1.4
31.0,0.5,0.1,1.4,0.55,0.444,1.0,2.3,1.0,0.3,0.3,0.5,1.3,2.5,0.75,1.1,1.5,8.0,1.0,NBA,9.5,0.9,1.1,SF,3.9,2001,0.6,MIA,1.3,2.3
