age,ast,blk,drb,fg,fg2,fg2a,fg3,fg3a,fga,ft,fta,game_score,lg_id,mp,orb,pf,pts,season,stl,team_id,tov,trb
23.0,4.0,1.0,7.0,8.0,8.0,17.0,1.0,1.0,18.0,10.0,11.0,19.2,NBA,0.0,3.0,5.0,24.0,1993,2.0,WSB,3.0,8.0
24.0,7.0,2.0,10.0,13.0,13.0,25.0,1.0,2.0,26.0,12.0,15.0,31.6,NBA,0.0,8.0,5.0,38.0,1994,2.0,WSB,6.0,15.0
25.0,3.0,1.0,7.0,10.0,10.0,17.0,1.0,3.0,18.0,8.0,10.0,19.6,NBA,0.0,5.0,5.0,23.0,1995,2.0,WSB,5.0,12.0
26.0,5.0,1.0,10.0,14.0,13.0,24.0,2.0,4.0,27.0,11.0,15.0,31.2,NBA,0.0,6.0,6.0,38.0,1996,3.0,DEN,6.0,12.0
27.0,4.0,2.0,9.0,12.0,11.0,18.0,3.0,4.0,19.0,8.0,13.0,23.1,NBA,0.0,4.0,4.0,29.0,1997,1.0,PHI,3.0,13.0
28.0,0.0,0.0,1.0,1.0,0.0,3.0,1.0,1.0,4.0,0.0,0.0,1.3,NBA,0.0,1.0,2.0,3.0,1998,0.0,NJN,1.0,2.0
29.0,4.0,1.0,9.0,9.0,8.0,16.0,3.0,5.0,20.0,13.0,16.0,20.2,NBA,0.0,3.0,5.0,26.0,1999,2.0,SEA,7.0,10.0
30.0,2.0,1.0,3.0,6.0,5.0,10.0,1.0,2.0,11.0,2.0,2.0,8.5,NBA,0.0,2.0,5.0,13.0,2000,1.0,PHO,2.0,5.0
31.0,1.0,1.0,3.0,5.0,4.0,5.0,1.0,1.0,6.0,5.0,6.0,11.8,NBA,0.0,2.0,4.0,16.0,2001,2.0,MIA,5.0,5.0
