age,ast_per_mp,blk_per_mp,drb_per_mp,fg2_pct,fg2_per_mp,fg2a_per_mp,fg3_pct,fg3_per_mp,fg3a_per_mp,fg_pct,fg_per_mp,fga_per_mp,ft_pct,ft_per_mp,fta_per_mp,g,gs,lg_id,mp,orb_per_mp,pf_per_mp,pos,pts_per_mp,season,stl_per_mp,team_id,tov_per_mp,trb_per_mp
23.0,2.1,0.2,4.8,0.434,8.2,19.0,0.5,0.2,0.3,0.435,8.4,19.3,0.811,4.8,5.9,62.0,4.0,NBA,674.0,1.8,4.4,PF,21.7,1993,0.6,WSB,2.2,6.5
24.0,2.3,0.3,4.7,0.509,7.4,14.6,0.143,0.0,0.3,0.502,7.5,14.9,0.824,4.7,5.8,75.0,69.0,NBA,2487.0,2.0,2.4,SF,19.8,1994,0.7,WSB,2.2,6.8
25.0,1.7,0.1,4.1,0.461,5.1,11.0,0.25,0.3,1.4,0.438,5.4,12.4,0.765,3.6,4.7,39.0,20.0,NBA,1052.0,1.6,3.3,PF,14.7,1995,0.5,WSB,1.5,5.6
26.0,2.9,0.2,4.7,0.44,7.1,16.2,0.286,0.5,1.6,0.426,7.6,17.8,0.732,4.7,6.4,56.0,5.0,NBA,1107.0,2.0,3.4,SF,20.3,1996,0.7,DEN,2.2,6.7
27.0,1.8,0.5,4.9,0.462,7.4,16.1,0.316,0.6,1.9,0.447,8.0,17.9,0.66,3.1,4.8,37.0,2.0,NBA,733.0,2.0,3.5,SF,19.7,1997,0.6,PHI,2.3,6.9
28.0,0.0,0.0,1.7,0.0,0.0,6.9,0.5,0.9,1.7,0.1,0.9,8.6,0.0,0.0,0.0,9.0,0.0,NBA,42.0,2.6,6.0,SF,2.6,1998,0.0,NJN,1.7,4.3
29.0,1.6,0.5,4.6,0.429,5.3,12.4,0.273,0.9,3.3,0.396,6.2,15.7,0.625,4.9,7.9,17.0,10.0,NBA,365.0,1.8,3.4,PF,18.2,1999,0.5,SEA,2.5,6.4
30.0,2.0,0.3,4.3,0.372,4.0,10.8,0.333,0.5,1.5,0.367,4.5,12.3,0.667,1.0,1.5,16.0,0.0,NBA,143.0,1.5,6.0,PF,10.6,2000,0.5,PHO,2.0,5.8
31.0,1.9,0.5,5.2,0.444,3.8,8.5,1.0,0.9,0.9,0.5,4.7,9.5,0.75,4.3,5.7,8.0,1.0,NBA,76.0,3.3,4.3,SF,14.7,2001,2.4,MIA,4.7,8.5
