age,ast,blk,drb,efg_pct,fg,fg2,fg2_pct,fg2a,fg3,fg3_pct,fg3a,fg_pct,fga,ft,ft_pct,fta,g,gs,lg_id,mp,orb,pf,pos,pts,season,stl,team_id,tov,trb
22.0,3.0,8.0,21.0,0.658,25.0,25.0,0.658,38.0,0.0,0.0,0.0,0.658,38.0,7.0,0.467,15.0,14.0,0.0,NBA,138.0,8.0,23.0,PF,57.0,1991,6.0,LAL,6.0,29.0
23.0,6.0,6.0,16.0,0.378,14.0,14.0,0.378,37.0,0.0,0.0,0.0,0.378,37.0,12.0,0.667,18.0,4.0,2.0,NBA,117.0,9.0,14.0,C,40.0,1992,3.0,LAL,4.0,25.0
24.0,7.0,12.0,25.0,0.42,29.0,29.0,0.42,69.0,0.0,0.0,0.0,0.42,69.0,12.0,0.5,24.0,5.0,5.0,NBA,178.0,17.0,15.0,PF,70.0,1993,6.0,LAL,12.0,42.0
26.0,16.0,30.0,47.0,0.485,64.0,64.0,0.485,132.0,0.0,0.0,0.0,0.485,132.0,29.0,0.659,44.0,10.0,10.0,NBA,376.0,26.0,44.0,PF,157.0,1995,4.0,LAL,15.0,73.0
27.0,8.0,9.0,29.0,0.513,20.0,20.0,0.526,38.0,0.0,0.0,1.0,0.513,39.0,8.0,0.5,16.0,4.0,4.0,NBA,129.0,3.0,17.0,PF,48.0,1996,1.0,LAL,10.0,32.0
28.0,9.0,13.0,25.0,0.403,37.0,36.0,0.391,92.0,1.0,1.0,1.0,0.398,93.0,31.0,0.816,38.0,9.0,9.0,NBA,278.0,14.0,30.0,PF,106.0,1997,7.0,LAL,14.0,39.0
29.0,8.0,12.0,28.0,0.451,23.0,23.0,0.451,51.0,0.0,0.0,0.0,0.451,51.0,22.0,0.647,34.0,13.0,0.0,NBA,180.0,17.0,27.0,PF,68.0,1998,3.0,LAL,13.0,45.0
31.0,4.0,4.0,24.0,0.468,22.0,22.0,0.478,46.0,0.0,0.0,1.0,0.468,47.0,13.0,0.929,14.0,4.0,4.0,NBA,150.0,9.0,16.0,C,57.0,2000,2.0,CHH,8.0,33.0
32.0,7.0,11.0,52.0,0.396,42.0,42.0,0.396,106.0,0.0,0.0,0.0,0.396,106.0,37.0,0.755,49.0,10.0,10.0,NBA,287.0,27.0,37.0,PF,121.0,2001,5.0,CHH,17.0,79.0
33.0,16.0,23.0,46.0,0.445,49.0,49.0,0.45,109.0,0.0,0.0,1.0,0.445,110.0,24.0,0.706,34.0,9.0,9.0,NBA,254.0,14.0,34.0,PF,122.0,2002,6.0,CHH,17.0,60.0
35.0,10.0,9.0,15.0,0.286,10.0,10.0,0.286,35.0,0.0,0.0,0.0,0.286,35.0,10.0,0.556,18.0,14.0,0.0,NBA,124.0,10.0,28.0,C,30.0,2004,6.0,DET,9.0,25.0
36.0,5.0,0.0,15.0,0.308,4.0,4.0,0.308,13.0,0.0,0.0,0.0,0.308,13.0,4.0,0.5,8.0,10.0,0.0,NBA,57.0,3.0,13.0,C,12.0,2005,2.0,DET,4.0,18.0
