article_url,date,headline
https://raptorsrapture.com/2019/09/26/toronto-raptors-lowry-or-gasol/,2019/09/26,Raptors Rapture: Lowry vs Gasol: Who has the stronger Hall of Fame case?
https://kingjamesgospel.com/2019/09/19/cleveland-cavaliers-set-right-example-inaugural-wall-honor-class/,2019/09/19,Right Down Euclid: The Cavs set right example with their inaugural Wall of Honor class
https://sircharlesincharge.com/2019/09/15/active-nba-players-surprisingly-hall-of-fame/,2019/09/15,Sir Charles In Charge: NBA: 5 active NBA players surprisingly close to the Hall of Fame
https://behindthebuckpass.com/2019/09/09/milwaukee-bucks-daily-team-usa-corralled-giannis-antetokounmpo-greece/,2019/09/09,"Behind the Buck Pass: Milwaukee Bucks Daily: How Team USA corralled Giannis Antetokounmpo, Greece"
https://behindthebuckpass.com/2019/09/08/milwaukee-bucks-daily-late-game-drama-stems-from-team-usa-win-over-greece/,2019/09/08,Behind the Buck Pass: Milwaukee Bucks Daily: Late game drama stems from Team USA win over Greece
