age,ast_per_mp,blk_per_mp,drb_per_mp,fg2_pct,fg2_per_mp,fg2a_per_mp,fg3_pct,fg3_per_mp,fg3a_per_mp,fg_pct,fg_per_mp,fga_per_mp,ft_pct,ft_per_mp,fta_per_mp,g,gs,lg_id,mp,orb_per_mp,pf_per_mp,pos,pts_per_mp,season,stl_per_mp,team_id,tov_per_mp,trb_per_mp
22.0,6.4,0.7,2.1,0.339,3.6,10.7,0.2,0.3,1.7,0.319,4.0,12.4,0.773,2.9,3.8,35.0,0.0,NBA,209.0,1.9,3.8,PG,11.2,1989,1.6,IND,5.0,4.0
24.0,12.0,0.0,0.0,0.667,12.0,18.0,0.0,0.0,0.0,0.667,12.0,18.0,1.0,12.0,12.0,3.0,0.0,NBA,6.0,0.0,0.0,PG,36.0,1991,0.0,MIL,0.0,0.0
