age,ast_per_g,blk_per_g,drb_per_g,efg_pct,fg2_pct,fg2_per_g,fg2a_per_g,fg3_pct,fg3_per_g,fg3a_per_g,fg_pct,fg_per_g,fga_per_g,ft_pct,ft_per_g,fta_per_g,g,gs,lg_id,mp_per_g,orb_per_g,pf_per_g,pos,pts_per_g,season,stl_per_g,team_id,tov_per_g,trb_per_g
22.0,1.1,0.1,0.3,0.333,0.339,0.6,1.8,0.2,0.1,0.3,0.319,0.7,2.1,0.773,0.5,0.6,35.0,0.0,NBA,6.0,0.3,0.6,PG,1.9,1989,0.3,IND,0.8,0.7
24.0,0.7,0.0,0.0,0.667,0.667,0.7,1.0,0.0,0.0,0.0,0.667,0.7,1.0,1.0,0.7,0.7,3.0,0.0,NBA,2.0,0.0,0.0,PG,2.0,1991,0.0,MIL,0.0,0.0
