age,ast_per_mp,blk_per_mp,drb_per_mp,fg2_pct,fg2_per_mp,fg2a_per_mp,fg3_pct,fg3_per_mp,fg3a_per_mp,fg_pct,fg_per_mp,fga_per_mp,ft_pct,ft_per_mp,fta_per_mp,g,gs,lg_id,mp,orb_per_mp,pf_per_mp,pos,pts_per_mp,season,stl_per_mp,team_id,tov_per_mp,trb_per_mp
22.0,5.5,0.5,2.1,0.339,2.3,6.9,0.286,0.5,1.7,0.329,2.8,8.6,0.429,0.4,0.9,38.0,0.0,NBA,293.0,0.9,6.1,PG,6.5,1998,2.6,TOR,3.1,2.9
25.0,4.3,0.2,2.4,0.233,1.7,7.2,0.0,0.0,1.7,0.189,1.7,8.9,0.833,1.2,1.4,8.0,0.0,NBA,149.0,0.5,4.3,PG,4.6,2001,1.7,GSW,2.2,2.9
