age,ast,ast_per_g,blk,college_id,fg,fg3,fg3_pct,fg3a,fg_pct,fga,ft,ft_pct,fta,g,mp,mp_per_g,orb,pf,pts,pts_per_g,season,stl,tov,trb,trb_per_g
21.0,14.0,0.5,25.0,CALIFORNIA,53.0,0.0,0.0,0.0,0.431,123.0,30.0,0.612,49.0,27.0,0.0,0.0,0.0,0.0,136.0,5.0,1998,19.0,0.0,126.0,4.7
22.0,16.0,0.5,42.0,CALIFORNIA,80.0,0.0,0.0,0.0,0.513,156.0,21.0,0.412,51.0,32.0,632.0,19.8,0.0,84.0,181.0,5.7,1999,26.0,36.0,162.0,5.1
