age,ast_per_g,blk_per_g,drb_per_g,efg_pct,fg2_pct,fg2_per_g,fg2a_per_g,fg3_pct,fg3_per_g,fg3a_per_g,fg_pct,fg_per_g,fga_per_g,ft_pct,ft_per_g,fta_per_g,g,gs,lg_id,mp_per_g,orb_per_g,pf_per_g,pos,pts_per_g,season,stl_per_g,team_id,tov_per_g,trb_per_g
27.0,0.5,0.6,2.2,0.472,0.475,1.5,3.2,0.0,0.0,0.0,0.472,1.5,3.2,0.667,0.5,0.7,62.0,14.0,NBA,14.1,1.0,2.3,C,3.5,2004,0.6,DEN,0.6,3.3
28.0,0.5,0.6,2.1,0.47,0.469,1.5,3.2,0.333,0.0,0.0,0.468,1.5,3.2,0.57,0.7,1.2,67.0,11.0,NBA,14.0,0.9,1.9,C,3.7,2005,0.5,DEN,0.6,3.0
29.0,0.7,0.6,3.3,0.533,0.538,2.1,3.9,0.2,0.0,0.1,0.532,2.1,3.9,0.662,0.7,1.0,72.0,54.0,NBA,21.9,1.4,2.9,C,4.9,2006,0.8,DEN,0.9,4.7
30.0,0.8,0.8,3.6,0.511,0.514,2.1,4.0,0.0,0.0,0.0,0.511,2.1,4.0,0.775,0.9,1.1,70.0,41.0,NBA,19.0,1.2,2.6,C,5.0,2007,0.4,SAS,1.2,4.8
31.0,0.4,0.3,2.4,0.39,0.391,1.5,3.7,0.0,0.0,0.0,0.39,1.5,3.7,0.703,0.4,0.6,63.0,5.0,NBA,12.9,0.8,1.5,C,3.3,2008,0.2,TOT,0.7,3.2
31.0,0.4,0.3,2.5,0.419,0.419,1.5,3.6,0.0,0.0,0.0,0.419,1.5,3.6,0.833,0.5,0.6,41.0,3.0,NBA,13.0,0.8,1.5,C,3.5,2008,0.2,SAS,0.7,3.3
31.0,0.4,0.3,2.2,0.341,0.345,1.4,4.0,0.0,0.0,0.0,0.341,1.4,4.0,0.462,0.3,0.6,22.0,2.0,NBA,12.7,0.8,1.5,C,3.0,2008,0.3,SEA,0.8,3.0
32.0,0.5,0.6,2.2,0.494,0.497,1.4,2.8,0.25,0.0,0.1,0.491,1.4,2.9,0.846,0.6,0.7,59.0,23.0,NBA,16.6,1.7,2.4,C,3.4,2009,0.6,MIL,0.8,3.9
33.0,0.2,0.0,0.7,0.333,0.333,0.4,1.3,0.0,0.0,0.0,0.333,0.4,1.3,0.4,0.2,0.4,12.0,0.0,NBA,5.5,0.5,0.6,C,1.0,2010,0.1,TOT,0.1,1.2
33.0,0.2,0.0,0.7,0.308,0.308,0.4,1.2,0.0,0.0,0.0,0.308,0.4,1.2,1.0,0.2,0.2,11.0,0.0,NBA,5.6,0.5,0.6,C,0.9,2010,0.1,MIL,0.1,1.2
33.0,0.0,0.0,0.0,0.5,0.5,1.0,2.0,0.0,0.0,0.0,0.5,1.0,2.0,0.0,0.0,3.0,1.0,0.0,NBA,4.0,1.0,0.0,C,2.0,2010,0.0,PHI,0.0,1.0
34.0,0.5,0.2,1.3,0.478,0.478,0.9,1.8,0.0,0.0,0.0,0.478,0.9,1.8,0.839,0.4,0.5,62.0,1.0,NBA,9.8,0.6,1.4,C,2.2,2011,0.3,UTA,0.5,1.9
35.0,0.2,0.2,0.2,0.333,0.333,0.2,0.6,0.0,0.0,0.0,0.333,0.2,0.6,0.0,0.0,0.0,5.0,0.0,NBA,3.2,0.0,0.0,C,0.4,2012,0.2,PHI,0.2,0.2
