age,ast_per_poss,blk_per_poss,def_rtg,drb_per_poss,fg2_pct,fg2_per_poss,fg2a_per_poss,fg3_pct,fg3_per_poss,fg3a_per_poss,fg_pct,fg_per_poss,fga_per_poss,ft_pct,ft_per_poss,fta_per_poss,g,gs,lg_id,mp,off_rtg,orb_per_poss,pf_per_poss,pos,pts_per_poss,season,stl_per_poss,team_id,tov_per_poss,trb_per_poss
27.0,1.9,2.3,100.0,8.1,0.475,5.5,11.6,0.0,0.0,0.1,0.472,5.5,11.7,0.667,1.8,2.6,62.0,14.0,NBA,875.0,103.0,3.8,8.5,C,12.8,2004,2.1,DEN,2.1,11.9
28.0,1.9,2.2,102.0,7.7,0.469,5.5,11.6,0.333,0.1,0.2,0.468,5.5,11.8,0.57,2.5,4.3,67.0,11.0,NBA,939.0,100.0,3.3,7.1,C,13.6,2005,1.9,DEN,2.2,11.0
29.0,1.5,1.5,104.0,7.8,0.538,4.9,9.0,0.2,0.0,0.2,0.532,4.9,9.2,0.662,1.6,2.4,72.0,54.0,NBA,1579.0,105.0,3.2,6.8,C,11.4,2006,1.7,DEN,2.1,11.0
30.0,2.2,2.4,97.0,10.2,0.514,5.8,11.2,0.0,0.0,0.1,0.511,5.8,11.3,0.775,2.5,3.2,70.0,41.0,NBA,1332.0,100.0,3.3,7.4,C,14.1,2007,1.2,SAS,3.5,13.5
31.0,1.6,1.3,104.0,9.7,0.391,5.9,15.2,0.0,0.0,0.1,0.39,5.9,15.3,0.703,1.7,2.4,63.0,5.0,NBA,813.0,83.0,3.2,6.2,C,13.6,2008,1.0,TOT,3.0,12.9
31.0,1.6,1.4,100.0,10.3,0.419,6.3,15.0,0.0,0.0,0.0,0.419,6.3,15.0,0.833,2.0,2.4,41.0,3.0,NBA,534.0,89.0,3.3,6.3,C,14.6,2008,0.9,SAS,3.0,13.7
31.0,1.4,1.1,109.0,8.6,0.345,5.4,15.5,0.0,0.0,0.2,0.341,5.4,15.7,0.462,1.1,2.3,22.0,2.0,NBA,279.0,73.0,3.0,6.1,C,11.8,2008,1.1,SEA,3.0,11.6
32.0,1.7,1.9,106.0,6.8,0.497,4.4,8.8,0.25,0.1,0.2,0.491,4.4,9.0,0.846,1.8,2.1,59.0,23.0,NBA,977.0,107.0,5.3,7.6,C,10.6,2009,1.9,MIL,2.5,12.2
33.0,1.6,0.0,107.0,6.3,0.333,4.0,11.9,0.0,0.0,0.0,0.333,4.0,11.9,0.4,1.6,4.0,12.0,0.0,NBA,66.0,90.0,4.8,5.6,C,9.5,2010,0.8,TOT,0.8,11.1
33.0,1.7,0.0,106.0,6.8,0.308,3.4,11.0,0.0,0.0,0.0,0.308,3.4,11.0,1.0,1.7,1.7,11.0,0.0,NBA,62.0,94.0,4.2,5.9,C,8.4,2010,0.8,MIL,0.8,11.0
33.0,0.0,0.0,120.0,0.0,0.5,13.1,26.2,0.0,0.0,0.0,0.5,13.1,26.2,0.0,0.0,39.3,1.0,0.0,NBA,4.0,71.0,13.1,0.0,C,26.2,2010,0.0,PHI,0.0,13.1
34.0,2.9,1.2,109.0,6.9,0.478,4.7,9.8,0.0,0.0,0.0,0.478,4.7,9.8,0.839,2.2,2.7,62.0,1.0,NBA,610.0,101.0,3.0,7.3,C,11.6,2011,1.8,UTA,2.8,9.9
35.0,3.3,3.3,96.0,3.3,0.333,3.3,10.0,0.0,0.0,0.0,0.333,3.3,10.0,0.0,0.0,0.0,5.0,0.0,NBA,16.0,61.0,0.0,0.0,C,6.7,2012,3.3,PHI,3.3,3.3
