age,ast_per_mp,blk_per_mp,drb_per_mp,fg2_pct,fg2_per_mp,fg2a_per_mp,fg3_pct,fg3_per_mp,fg3a_per_mp,fg_pct,fg_per_mp,fga_per_mp,ft_pct,ft_per_mp,fta_per_mp,g,gs,lg_id,mp,orb_per_mp,pf_per_mp,pos,pts_per_mp,season,stl_per_mp,team_id,tov_per_mp,trb_per_mp
23.0,1.2,3.7,5.0,0.2,2.5,12.4,0.0,0.0,0.0,0.2,2.5,12.4,0.0,0.0,2.5,7.0,0.0,NBA,29.0,5.0,3.7,PF,5.0,2008,1.2,ATL,0.0,9.9
24.0,0.9,0.0,3.3,0.5,2.8,5.6,0.0,0.0,0.0,0.5,2.8,5.6,1.0,0.9,0.9,9.0,1.0,NBA,77.0,4.2,4.2,C,6.5,2009,0.5,ATL,0.5,7.5
