lg_id,salary,season,team_name
NBA,163296.0,2015,Memphis Grizzlies
NBA,19914.0,2015,Denver Nuggets
NBA,163296.0,2016,Memphis Grizzlies
NBA,163296.0,2017,Memphis Grizzlies
NBA,163296.0,2018,Memphis Grizzlies
NBA,163296.0,2019,Memphis Grizzlies
