lg_id,salary,season,team_name
NBA,3400000.0,2011,San Antonio Spurs
NBA,3672000.0,2012,San Antonio Spurs
NBA,3944000.0,2013,San Antonio Spurs
NBA,10000000.0,2014,San Antonio Spurs
NBA,9250000.0,2015,San Antonio Spurs
NBA,8500000.0,2016,Atlanta Hawks
NBA,8550000.0,2017,Philadelphia 76ers
