age,ast_per_g,blk_per_g,drb_per_g,efg_pct,fg2_pct,fg2_per_g,fg2a_per_g,fg3_pct,fg3_per_g,fg3a_per_g,fg_pct,fg_per_g,fga_per_g,ft_pct,ft_per_g,fta_per_g,g,gs,lg_id,mp_per_g,orb_per_g,pf_per_g,pos,pts_per_g,season,stl_per_g,team_id,tov_per_g,trb_per_g
26.0,0.4,0.3,2.2,0.529,0.532,1.7,3.2,0.0,0.0,0.0,0.529,1.7,3.2,0.543,1.3,2.3,60.0,6.0,NBA,12.3,1.2,1.5,C,4.6,2011,0.5,SAS,0.5,3.4
27.0,1.1,0.8,3.6,0.618,0.618,3.6,5.8,0.0,0.0,0.0,0.618,3.6,5.8,0.691,2.1,3.1,59.0,2.0,NBA,19.0,1.6,2.3,C,9.3,2012,0.4,SAS,1.5,5.2
28.0,1.6,0.8,4.6,0.56,0.561,3.9,6.9,0.0,0.0,0.0,0.56,3.9,7.0,0.73,2.6,3.5,81.0,58.0,NBA,24.7,1.8,2.0,PF,10.3,2013,0.8,SAS,1.2,6.4
29.0,1.5,0.5,4.1,0.523,0.528,3.1,5.8,0.0,0.0,0.1,0.523,3.1,5.9,0.699,2.1,2.9,59.0,50.0,NBA,21.5,2.1,2.0,C,8.2,2014,0.5,SAS,1.3,6.2
30.0,1.5,0.7,3.1,0.558,0.558,3.3,5.8,0.0,0.0,0.0,0.558,3.3,5.8,0.75,1.7,2.3,52.0,35.0,NBA,19.8,1.8,2.0,C,8.2,2015,0.7,SAS,1.2,4.8
31.0,0.8,0.3,2.1,0.523,0.529,2.3,4.3,0.0,0.0,0.1,0.523,2.3,4.3,0.813,1.1,1.3,36.0,2.0,NBA,16.1,1.3,2.0,C,5.6,2016,0.6,ATL,0.7,3.3
32.0,0.5,0.1,1.8,0.484,0.48,1.5,3.1,0.333,0.3,0.8,0.452,1.8,3.9,0.818,1.1,1.4,8.0,0.0,NBA,9.5,1.0,1.0,C,4.9,2017,0.1,PHI,0.8,2.8
