age,ast,blk,drb,efg_pct,fg,fg2,fg2_pct,fg2a,fg3,fg3_pct,fg3a,fg_pct,fga,ft,ft_pct,fta,g,gs,lg_id,mp,orb,pf,pos,pts,season,stl,team_id,tov,trb
26.0,26.0,17.0,129.0,0.529,101.0,101.0,0.532,190.0,0.0,0.0,1.0,0.529,191.0,76.0,0.543,140.0,60.0,6.0,NBA,738.0,72.0,91.0,C,278.0,2011,29.0,SAS,32.0,201.0
27.0,65.0,47.0,213.0,0.618,212.0,212.0,0.618,343.0,0.0,0.0,0.0,0.618,343.0,125.0,0.691,181.0,59.0,2.0,NBA,1121.0,93.0,134.0,C,549.0,2012,21.0,SAS,87.0,306.0
28.0,130.0,64.0,371.0,0.56,315.0,315.0,0.561,561.0,0.0,0.0,2.0,0.56,563.0,208.0,0.73,285.0,81.0,58.0,NBA,1997.0,144.0,161.0,PF,838.0,2013,63.0,SAS,100.0,515.0
29.0,90.0,31.0,240.0,0.523,181.0,181.0,0.528,343.0,0.0,0.0,3.0,0.523,346.0,121.0,0.699,173.0,59.0,50.0,NBA,1271.0,123.0,117.0,C,483.0,2014,29.0,SAS,75.0,363.0
30.0,78.0,37.0,161.0,0.558,169.0,169.0,0.558,303.0,0.0,0.0,0.0,0.558,303.0,90.0,0.75,120.0,52.0,35.0,NBA,1030.0,91.0,103.0,C,428.0,2015,35.0,SAS,60.0,252.0
31.0,30.0,12.0,75.0,0.523,81.0,81.0,0.529,153.0,0.0,0.0,2.0,0.523,155.0,39.0,0.813,48.0,36.0,2.0,NBA,579.0,45.0,71.0,C,201.0,2016,20.0,ATL,24.0,120.0
32.0,4.0,1.0,14.0,0.484,14.0,12.0,0.48,25.0,2.0,0.333,6.0,0.452,31.0,9.0,0.818,11.0,8.0,0.0,NBA,76.0,8.0,8.0,C,39.0,2017,1.0,PHI,6.0,22.0
