age,ast_pct,blk_pct,bpm,bpm-dum,dbpm,drb_pct,dws,fg3a_per_fga_pct,fta_per_fga_pct,g,lg_id,mp,obpm,orb_pct,ows,per,pos,season,stl_pct,team_id,tov_pct,trb_pct,ts_pct,usg_pct,vorp,ws,ws-dum,ws_per_48
24.0,5.6,2.3,-0.8,0.0,0.1,11.5,0.1,0.0,0.581,10.0,NBA,132.0,-0.9,9.6,0.2,12.4,C,1988,1.9,PHI,18.8,10.6,0.617,15.3,0.0,0.3,0.0,0.099
25.0,4.5,2.8,-3.3,0.0,0.2,17.9,0.7,0.005,0.329,72.0,NBA,843.0,-3.5,7.8,0.0,8.7,C,1989,1.3,PHI,14.2,12.8,0.484,14.6,-0.3,0.7,0.0,0.042
26.0,6.1,2.2,-5.8,0.0,-1.0,15.6,0.2,0.0,0.41,27.0,NBA,198.0,-4.8,10.3,-0.2,6.3,C,1990,1.4,TOT,17.2,13.1,0.451,17.8,-0.2,0.0,0.0,0.006
26.0,12.2,0.0,-9.2,0.0,-2.0,9.8,0.1,0.0,0.087,13.0,NBA,56.0,-7.3,14.5,-0.2,-1.9,C,1990,0.9,SAS,20.1,12.1,0.314,22.1,-0.1,-0.1,0.0,-0.121
26.0,3.6,3.1,-4.5,0.0,-0.6,17.9,0.1,0.0,0.605,14.0,NBA,142.0,-3.8,8.7,0.0,9.6,C,1990,1.6,GSW,15.8,13.5,0.52,16.0,-0.1,0.2,0.0,0.056
