age,and1s,astd_pts,drawn_offensive,drawn_shooting,fouls_offensive,fouls_shooting,g,lg_id,mp,own_shots_blk,pct_1,pct_2,pct_3,pct_4,pct_5,plus_minus_net,plus_minus_on,pos,season,team_id,tov_bad_pass,tov_lost_ball
23.0,0.0,5.0,0.0,3.0,0.0,12.0,17.0,NBA,123.0,1.0,6.0,36.0,58.0,0.0,0.0,-8.2,-12.8,SG,2018,TOT,2.0,1.0
23.0,0.0,5.0,0.0,2.0,0.0,4.0,13.0,NBA,81.0,1.0,0.0,42.0,58.0,0.0,0.0,-7.9,-11.3,SG,2018,DAL,1.0,0.0
23.0,0.0,0.0,0.0,1.0,0.0,8.0,4.0,NBA,42.0,0.0,17.0,25.0,59.0,0.0,0.0,-10.2,-16.0,SG,2018,ATL,1.0,1.0
