age,ast,ast_per_g,blk,college_id,fg,fg3,fg3_pct,fg3a,fg_pct,fga,ft,ft_pct,fta,g,mp,mp_per_g,orb,pf,pts,pts_per_g,season,stl,tov,trb,trb_per_g
19.0,53.0,1.7,16.0,SEMOST,107.0,14.0,0.359,39.0,0.525,204.0,62.0,0.596,104.0,32.0,714.0,22.3,39.0,85.0,290.0,9.1,2014,32.0,60.0,89.0,2.8
20.0,55.0,1.8,15.0,SEMOST,120.0,12.0,0.211,57.0,0.472,254.0,71.0,0.568,125.0,30.0,871.0,29.0,41.0,73.0,323.0,10.8,2015,38.0,39.0,143.0,4.8
21.0,61.0,2.3,15.0,SEMOST,150.0,8.0,0.174,46.0,0.437,343.0,86.0,0.61,141.0,26.0,817.0,31.4,62.0,72.0,394.0,15.2,2016,42.0,60.0,171.0,6.6
22.0,73.0,2.2,30.0,SEMOST,208.0,28.0,0.384,73.0,0.543,383.0,105.0,0.66,159.0,33.0,1086.0,32.9,28.0,85.0,549.0,16.6,2017,47.0,66.0,169.0,5.1
