age,ast_pct,blk_pct,bpm,bpm-dum,dbpm,drb_pct,dws,fg3a_per_fga_pct,fta_per_fga_pct,g,lg_id,mp,obpm,orb_pct,ows,per,pos,season,stl_pct,team_id,tov_pct,trb_pct,ts_pct,usg_pct,vorp,ws,ws-dum,ws_per_48
19.0,6.8,4.5,-2.5,0.0,0.3,22.6,1.2,0.009,0.327,63.0,NBA,1129.0,-2.8,12.4,0.4,16.9,PF,2009,1.8,GSW,14.0,17.5,0.506,21.7,-0.1,1.6,0.0,0.069
20.0,8.5,4.9,-1.4,0.0,0.8,21.4,0.8,0.016,0.44,33.0,NBA,749.0,-2.2,10.7,0.7,18.7,C,2010,1.8,GSW,11.7,16.0,0.521,23.9,0.1,1.5,0.0,0.098
21.0,9.8,3.1,-3.6,0.0,-0.1,22.7,0.6,0.015,0.326,40.0,NBA,590.0,-3.5,8.0,-0.2,16.2,C-PF,2011,1.9,TOT,14.9,15.2,0.505,25.8,-0.2,0.5,0.0,0.038
21.0,8.1,4.6,-7.8,0.0,0.7,26.3,0.2,0.089,0.267,17.0,NBA,127.0,-8.5,9.8,-0.4,7.6,PF,2011,1.6,NYK,16.6,18.0,0.348,21.1,-0.2,-0.2,0.0,-0.074
21.0,10.3,2.6,-2.5,0.0,-0.3,21.7,0.5,0.0,0.338,23.0,NBA,463.0,-2.2,7.5,0.2,18.5,C,2011,1.9,MIN,14.6,14.4,0.537,27.1,-0.1,0.7,0.0,0.069
22.0,6.6,4.8,-1.5,0.0,1.0,17.5,0.6,0.005,0.42,34.0,NBA,517.0,-2.6,9.0,0.5,17.6,PF,2012,1.3,MIN,14.4,13.2,0.532,23.8,0.1,1.1,0.0,0.099
23.0,5.5,5.0,-1.5,0.0,2.3,22.1,0.6,0.07,0.395,39.0,NBA,329.0,-3.8,10.1,-0.1,15.6,PF,2013,2.9,DEN,21.7,16.2,0.534,22.5,0.0,0.5,0.0,0.073
24.0,9.1,2.7,-1.8,0.0,1.3,21.0,0.7,0.347,0.392,43.0,NBA,527.0,-3.1,4.1,-0.1,12.2,PF,2014,2.4,DEN,15.9,12.5,0.499,19.8,0.0,0.6,0.0,0.055
