age,ast_per_g,blk_per_g,drb_per_g,efg_pct,fg2_pct,fg2_per_g,fg2a_per_g,fg3_pct,fg3_per_g,fg3a_per_g,fg_pct,fg_per_g,fga_per_g,ft_pct,ft_per_g,fta_per_g,g,gs,lg_id,mp_per_g,orb_per_g,pf_per_g,pos,pts_per_g,season,stl_per_g,team_id,tov_per_g,trb_per_g
25.0,0.5,0.5,2.8,0.581,0.583,2.7,4.6,0.0,0.0,0.0,0.581,2.7,4.6,0.727,1.3,1.8,68.0,7.0,NBA,15.1,1.5,2.9,C,6.6,1987,0.5,NJN,1.4,4.2
26.0,0.9,0.6,3.3,0.499,0.502,3.2,6.4,0.0,0.0,0.0,0.499,3.2,6.5,0.762,2.0,2.6,70.0,24.0,NBA,21.4,1.7,3.3,PF,8.5,1988,0.6,TOT,1.8,5.0
26.0,1.4,0.6,4.3,0.483,0.487,4.3,8.8,0.0,0.0,0.1,0.483,4.3,8.9,0.774,2.4,3.1,27.0,10.0,NBA,24.3,2.1,4.1,PF,11.0,1988,1.0,NJN,2.7,6.4
26.0,0.5,0.6,2.8,0.516,0.519,2.6,4.9,0.0,0.0,0.0,0.516,2.6,5.0,0.752,1.8,2.3,43.0,14.0,NBA,19.6,1.3,2.8,PF,6.9,1988,0.3,PHI,1.3,4.1
27.0,0.3,0.3,2.2,0.485,0.485,2.0,4.2,0.0,0.0,0.0,0.485,2.0,4.2,0.792,1.1,1.3,58.0,11.0,NBA,12.1,0.8,2.1,PF,5.1,1989,0.2,PHI,0.8,3.1
28.0,0.5,0.3,2.5,0.474,0.479,2.1,4.4,0.0,0.0,0.0,0.474,2.1,4.4,0.829,1.5,1.9,22.0,0.0,NBA,13.9,1.4,2.5,PF,5.7,1990,0.3,MIL,1.2,4.0
32.0,0.0,0.2,1.8,0.48,0.48,1.3,2.8,0.0,0.0,0.0,0.48,1.3,2.8,0.5,0.4,0.9,9.0,0.0,NBA,8.6,1.1,1.0,PF,3.1,1994,0.2,DET,0.8,2.9
