age,ast,blk,drb,fg,fg2,fg2a,fg3,fg3a,fga,ft,fta,game_score,lg_id,mp,orb,pf,pts,season,stl,team_id,tov,trb
22.0,10.0,2.0,7.0,11.0,10.0,15.0,5.0,6.0,16.0,8.0,9.0,26.8,NBA,0.0,5.0,6.0,27.0,2000,4.0,MIN,5.0,10.0
23.0,10.0,2.0,9.0,13.0,11.0,20.0,3.0,4.0,21.0,9.0,10.0,21.8,NBA,0.0,5.0,6.0,28.0,2001,3.0,MIN,6.0,12.0
24.0,8.0,2.0,9.0,14.0,13.0,20.0,3.0,6.0,24.0,13.0,13.0,29.9,NBA,0.0,5.0,6.0,37.0,2002,3.0,MIN,6.0,14.0
25.0,8.0,3.0,9.0,19.0,13.0,19.0,6.0,9.0,26.0,12.0,12.0,33.2,NBA,0.0,3.0,5.0,44.0,2003,3.0,MIN,4.0,11.0
26.0,4.0,1.0,5.0,8.0,6.0,13.0,4.0,5.0,17.0,8.0,10.0,18.7,NBA,0.0,4.0,5.0,24.0,2004,2.0,MIN,3.0,6.0
27.0,8.0,2.0,7.0,12.0,10.0,19.0,3.0,6.0,22.0,11.0,12.0,29.7,NBA,0.0,4.0,5.0,34.0,2005,3.0,MIN,6.0,9.0
28.0,10.0,2.0,8.0,13.0,11.0,18.0,4.0,9.0,24.0,12.0,12.0,29.3,NBA,51.0,4.0,5.0,34.0,2006,4.0,TOT,6.0,10.0
28.0,6.0,2.0,8.0,12.0,9.0,18.0,4.0,9.0,24.0,12.0,12.0,29.3,NBA,51.0,4.0,5.0,34.0,2006,3.0,MIN,6.0,10.0
28.0,10.0,1.0,8.0,13.0,11.0,17.0,4.0,7.0,19.0,9.0,10.0,23.1,NBA,47.0,4.0,5.0,30.0,2006,4.0,BOS,4.0,10.0
29.0,6.0,1.0,6.0,11.0,8.0,16.0,4.0,8.0,22.0,11.0,13.0,23.5,NBA,38.0,2.0,6.0,35.0,2007,2.0,BOS,6.0,7.0
30.0,5.0,2.0,6.0,12.0,9.0,18.0,5.0,9.0,20.0,8.0,8.0,24.4,NBA,43.0,3.0,5.0,32.0,2008,2.0,TOT,3.0,8.0
30.0,5.0,1.0,6.0,12.0,9.0,13.0,5.0,9.0,20.0,8.0,8.0,24.4,NBA,34.0,2.0,5.0,32.0,2008,2.0,SEA,3.0,8.0
30.0,5.0,2.0,6.0,8.0,8.0,18.0,3.0,9.0,18.0,5.0,6.0,14.3,NBA,43.0,3.0,4.0,18.0,2008,2.0,CLE,3.0,8.0
31.0,8.0,1.0,11.0,8.0,6.0,8.0,4.0,8.0,13.0,4.0,6.0,22.7,NBA,45.0,4.0,5.0,21.0,2009,3.0,CLE,4.0,13.0
