age,ast_per_g,blk_per_g,drb_per_g,efg_pct,fg2_pct,fg2_per_g,fg2a_per_g,fg3_pct,fg3_per_g,fg3a_per_g,fg_pct,fg_per_g,fga_per_g,ft_pct,ft_per_g,fta_per_g,g,gs,lg_id,mp_per_g,orb_per_g,pf_per_g,pos,pts_per_g,season,stl_per_g,team_id,tov_per_g,trb_per_g
22.0,0.8,0.1,3.8,0.595,0.595,1.8,3.0,0.0,0.0,0.0,0.595,1.8,3.0,0.614,0.9,1.4,82.0,61.0,NBA,20.0,2.1,3.0,PF,4.4,1983,0.8,KCK,0.6,5.9
23.0,0.7,0.1,2.1,0.5,0.5,0.9,1.8,0.0,0.0,0.0,0.5,0.9,1.8,0.8,0.7,0.8,71.0,1.0,NBA,13.5,1.0,1.9,PF,2.5,1984,0.6,KCK,0.5,3.1
24.0,0.8,0.0,1.3,0.591,0.591,1.2,2.0,0.0,0.0,0.0,0.591,1.2,2.0,0.526,0.5,0.9,22.0,0.0,NBA,10.2,0.7,1.2,PF,2.8,1985,0.1,KCK,0.5,2.0
26.0,1.4,0.2,3.1,0.448,0.497,1.3,2.7,0.129,0.1,0.5,0.438,1.4,3.2,0.739,0.9,1.2,60.0,7.0,NBA,16.3,1.6,2.4,PF,3.7,1987,0.7,SAS,0.6,4.7
27.0,0.7,0.1,2.1,0.463,0.458,0.7,1.6,0.5,0.0,0.0,0.459,0.7,1.6,0.651,0.6,0.9,68.0,1.0,NBA,12.3,1.2,1.4,PF,2.1,1988,0.4,SAS,0.4,3.3
28.0,0.3,0.0,1.3,0.361,0.382,0.3,0.8,0.0,0.0,0.0,0.361,0.3,0.8,0.444,0.1,0.2,43.0,0.0,NBA,6.0,0.5,1.0,PF,0.7,1989,0.2,TOT,0.2,1.8
28.0,0.5,0.1,1.5,0.714,0.714,0.4,0.5,0.0,0.0,0.0,0.714,0.4,0.5,0.5,0.1,0.2,13.0,0.0,NBA,7.2,0.3,1.8,PF,0.8,1989,0.2,CHI,0.1,1.8
28.0,0.3,0.0,1.2,0.276,0.296,0.3,0.9,0.0,0.0,0.1,0.276,0.3,1.0,0.429,0.1,0.2,30.0,0.0,NBA,5.5,0.6,0.7,PF,0.6,1989,0.1,PHO,0.2,1.8
29.0,0.6,0.1,2.0,0.529,0.544,0.8,1.5,0.0,0.0,0.0,0.529,0.8,1.5,0.732,0.7,0.9,46.0,0.0,NBA,10.9,1.0,1.5,PF,2.3,1990,0.3,CHI,0.4,3.0
30.0,0.7,0.1,1.9,0.49,0.494,0.7,1.5,0.313,0.1,0.3,0.464,0.8,1.8,0.737,0.5,0.7,55.0,0.0,NBA,10.4,0.8,0.8,PF,2.2,1991,0.4,PHO,0.3,2.7
31.0,0.7,0.0,1.7,0.595,0.592,0.8,1.4,0.4,0.4,1.0,0.512,1.2,2.3,0.667,0.3,0.5,52.0,4.0,NBA,9.7,0.5,0.9,PF,3.1,1992,0.3,PHO,0.3,2.1
32.0,0.4,0.0,1.3,0.435,0.429,0.4,1.0,0.296,0.2,0.7,0.377,0.6,1.7,0.75,0.2,0.3,41.0,4.0,NBA,7.5,0.3,1.0,PF,1.7,1993,0.3,TOT,0.2,1.6
32.0,0.4,0.0,1.3,0.424,0.375,0.3,0.8,0.318,0.2,0.7,0.348,0.5,1.5,0.7,0.2,0.3,30.0,4.0,NBA,7.6,0.3,1.2,PF,1.5,1993,0.3,GSW,0.2,1.6
32.0,0.2,0.1,1.1,0.457,0.5,0.8,1.6,0.2,0.1,0.5,0.435,0.9,2.1,1.0,0.2,0.2,11.0,0.0,NBA,7.2,0.4,0.5,PF,2.1,1993,0.3,CHI,0.2,1.5
