age,ast_per_g,blk_per_g,drb_per_g,efg_pct,fg2_pct,fg2_per_g,fg2a_per_g,fg3_pct,fg3_per_g,fg3a_per_g,fg_pct,fg_per_g,fga_per_g,ft_pct,ft_per_g,fta_per_g,g,gs,lg_id,mp_per_g,orb_per_g,pf_per_g,pos,pts_per_g,season,stl_per_g,team_id,tov_per_g,trb_per_g
27.0,1.2,2.6,11.3,0.475,0.475,2.8,5.9,0.0,0.0,0.0,0.475,2.8,5.9,0.436,1.7,3.9,10.0,10.0,NBA,40.8,4.8,2.4,C,7.3,2002,1.9,DET,1.9,16.1
28.0,1.6,3.1,11.2,0.486,0.491,3.1,6.4,0.0,0.0,0.1,0.486,3.1,6.4,0.446,2.6,5.9,17.0,17.0,NBA,42.5,5.1,2.9,C,8.9,2003,2.5,DET,0.9,16.3
29.0,1.9,2.4,10.1,0.454,0.46,4.0,8.8,0.0,0.0,0.1,0.454,4.0,8.9,0.427,2.2,5.1,23.0,23.0,NBA,40.2,4.1,2.5,C,10.3,2004,1.9,DET,1.6,14.3
30.0,1.0,2.4,7.5,0.481,0.49,4.1,8.3,0.0,0.0,0.2,0.481,4.1,8.5,0.461,1.9,4.1,25.0,25.0,NBA,39.2,3.8,2.6,C,10.0,2005,1.7,DET,1.2,11.3
31.0,1.7,1.2,7.2,0.465,0.471,1.8,3.9,0.0,0.0,0.1,0.465,1.8,3.9,0.273,1.0,3.7,18.0,18.0,NBA,35.7,3.3,2.3,C,4.7,2006,1.3,DET,0.8,10.5
32.0,1.4,1.7,6.6,0.566,0.577,3.0,5.2,0.0,0.0,0.1,0.566,3.0,5.3,0.5,2.7,5.4,10.0,10.0,NBA,36.9,2.9,1.9,C,8.7,2007,1.5,CHI,1.0,9.5
33.0,1.2,1.1,4.0,0.515,0.515,1.3,2.5,0.0,0.0,0.0,0.515,1.3,2.5,0.35,0.5,1.5,13.0,13.0,NBA,23.4,2.5,2.0,PF,3.2,2008,0.6,CLE,0.5,6.5
34.0,0.3,0.3,1.4,0.615,0.615,0.6,0.9,0.0,0.0,0.0,0.615,0.6,0.9,0.0,0.0,0.4,14.0,0.0,NBA,12.6,1.3,0.9,PF,1.1,2009,0.3,CLE,0.2,2.7
