age,ast,blk,drb,fg,fg2,fg2a,fg3,fg3a,fga,ft,fta,game_score,lg_id,mp,orb,pf,pts,season,stl,team_id,tov,trb
22.0,2.0,1.0,7.0,5.0,3.0,7.0,2.0,3.0,9.0,7.0,10.0,13.9,NBA,33,3.0,5.0,19.0,2010,2.0,WAS,3.0,10.0
23.0,3.0,2.0,7.0,6.0,6.0,11.0,2.0,3.0,13.0,6.0,6.0,15.8,NBA,41,5.0,5.0,18.0,2011,6.0,TOT,4.0,9.0
23.0,0.0,1.0,1.0,1.0,1.0,3.0,0.0,0.0,3.0,0.0,0.0,1.0,NBA,15,2.0,3.0,2.0,2011,0.0,SAS,3.0,2.0
23.0,2.0,0.0,4.0,3.0,3.0,5.0,0.0,2.0,6.0,3.0,4.0,12.4,NBA,31,5.0,5.0,8.0,2011,4.0,WAS,2.0,7.0
23.0,3.0,2.0,7.0,6.0,6.0,11.0,2.0,3.0,13.0,6.0,6.0,15.8,NBA,41,5.0,4.0,18.0,2011,6.0,CLE,4.0,9.0
24.0,5.0,2.0,10.0,9.0,8.0,13.0,3.0,5.0,16.0,9.0,10.0,19.3,NBA,42,6.0,6.0,22.0,2012,4.0,CLE,4.0,13.0
25.0,6.0,3.0,8.0,9.0,8.0,15.0,5.0,9.0,17.0,7.0,8.0,20.1,NBA,42,4.0,6.0,22.0,2013,4.0,CLE,6.0,10.0
26.0,3.0,2.0,7.0,5.0,5.0,9.0,2.0,6.0,11.0,4.0,4.0,12.7,NBA,36,4.0,5.0,12.0,2014,3.0,CLE,3.0,8.0
27.0,2.0,1.0,6.0,7.0,7.0,10.0,2.0,3.0,13.0,7.0,7.0,15.1,NBA,32,4.0,5.0,15.0,2015,3.0,TOT,3.0,7.0
27.0,2.0,1.0,6.0,7.0,7.0,9.0,2.0,3.0,9.0,7.0,7.0,15.1,NBA,30,4.0,5.0,15.0,2015,3.0,DEN,3.0,7.0
27.0,2.0,1.0,5.0,5.0,5.0,10.0,1.0,3.0,13.0,3.0,4.0,8.3,NBA,32,3.0,3.0,11.0,2015,1.0,POR,2.0,7.0
28.0,5.0,1.0,8.0,8.0,8.0,11.0,2.0,4.0,13.0,4.0,7.0,13.8,NBA,42,4.0,6.0,18.0,2016,5.0,NOP,3.0,10.0
29.0,3.0,1.0,3.0,2.0,2.0,5.0,0.0,3.0,8.0,3.0,5.0,8.7,NBA,27,1.0,3.0,7.0,2017,4.0,DEN,2.0,4.0
