age,ast_per_poss,blk_per_poss,def_rtg,drb_per_poss,fg2_pct,fg2_per_poss,fg2a_per_poss,fg3_pct,fg3_per_poss,fg3a_per_poss,fg_pct,fg_per_poss,fga_per_poss,ft_pct,ft_per_poss,fta_per_poss,g,gs,lg_id,mp,off_rtg,orb_per_poss,pf_per_poss,pos,pts_per_poss,season,stl_per_poss,team_id,tov_per_poss,trb_per_poss
26.0,12.6,0.0,101.0,4.9,0.39,6.5,16.7,0.2,1.2,6.1,0.339,7.7,22.7,0.909,4.1,4.5,16.0,0.0,NBA,136.0,87.0,0.8,6.1,PG,20.7,2011,3.2,CHI,6.9,5.7
27.0,11.0,0.0,101.0,4.0,0.238,3.3,14.0,0.25,1.3,5.3,0.241,4.7,19.3,0.75,4.0,5.3,6.0,5.0,NBA,164.0,85.0,0.3,5.3,PG,14.6,2012,1.7,CHI,2.3,4.3
28.0,4.4,0.3,108.0,4.1,0.5,6.8,13.5,0.267,1.4,5.1,0.436,8.1,18.6,0.667,2.7,4.1,7.0,0.0,NBA,161.0,115.0,1.7,3.7,PG,20.3,2013,1.7,BRK,0.3,5.7
29.0,2.9,0.2,105.0,5.9,0.42,3.3,7.9,0.4,2.5,6.4,0.411,5.9,14.3,0.607,2.7,4.4,19.0,0.0,NBA,342.0,99.0,0.5,4.4,PG,17.0,2014,2.5,IND,2.2,6.4
