age,ast,ast_per_g,blk,college_id,fg,fg3,fg3_pct,fg3a,fg_pct,fga,ft,ft_pct,fta,g,mp,mp_per_g,orb,pf,pts,pts_per_g,season,stl,tov,trb,trb_per_g
19.0,21.0,0.7,37.0,MARYLAND,118.0,1.0,0.333,3.0,0.578,204.0,71.0,0.74,96.0,30.0,671.0,22.4,45.0,87.0,308.0,10.3,2018,11.0,53.0,196.0,6.5
20.0,68.0,2.0,64.0,MARYLAND,173.0,3.0,0.3,10.0,0.607,285.0,113.0,0.779,145.0,34.0,1021.0,30.0,100.0,92.0,462.0,13.6,2019,22.0,95.0,362.0,10.6
