age,ast,blk,drb,efg_pct,fg,fg2,fg2_pct,fg2a,fg3,fg3_pct,fg3a,fg_pct,fga,ft,ft_pct,fta,g,gs,lg_id,mp,orb,pf,pos,pts,season,stl,team_id,tov,trb
23.0,18.0,22.0,123.0,0.549,112.0,112.0,0.557,201.0,0.0,0.0,3.0,0.549,204.0,49.0,0.605,81.0,57.0,1.0,NBA,860.0,75.0,112.0,PF,273.0,1997,12.0,HOU,57.0,198.0
24.0,24.0,27.0,134.0,0.485,129.0,129.0,0.487,265.0,0.0,0.0,1.0,0.485,266.0,92.0,0.754,122.0,58.0,3.0,NBA,903.0,73.0,112.0,PF,350.0,1998,10.0,HOU,47.0,207.0
25.0,15.0,25.0,174.0,0.513,156.0,156.0,0.513,304.0,0.0,0.0,0.0,0.513,304.0,88.0,0.721,122.0,41.0,10.0,NBA,903.0,72.0,103.0,PF,400.0,1999,6.0,HOU,61.0,246.0
26.0,97.0,58.0,367.0,0.506,420.0,420.0,0.507,828.0,0.0,0.0,2.0,0.506,830.0,236.0,0.792,298.0,82.0,82.0,NBA,2677.0,196.0,287.0,PF,1076.0,2000,36.0,VAN,217.0,563.0
27.0,56.0,45.0,249.0,0.487,247.0,247.0,0.49,504.0,0.0,0.0,3.0,0.487,507.0,171.0,0.763,224.0,74.0,45.0,NBA,1815.0,139.0,237.0,C,665.0,2001,34.0,TOT,145.0,388.0
27.0,36.0,26.0,187.0,0.466,180.0,180.0,0.47,383.0,0.0,0.0,3.0,0.466,386.0,120.0,0.779,154.0,44.0,40.0,NBA,1267.0,102.0,136.0,C,480.0,2001,19.0,VAN,104.0,289.0
27.0,20.0,19.0,62.0,0.554,67.0,67.0,0.554,121.0,0.0,0.0,0.0,0.554,121.0,51.0,0.729,70.0,30.0,5.0,NBA,548.0,37.0,101.0,C,185.0,2001,15.0,NYK,41.0,99.0
28.0,37.0,36.0,224.0,0.527,237.0,237.0,0.529,448.0,0.0,0.0,2.0,0.527,450.0,122.0,0.709,172.0,77.0,4.0,NBA,1563.0,125.0,250.0,PF,596.0,2002,30.0,NYK,95.0,349.0
29.0,62.0,23.0,311.0,0.508,225.0,225.0,0.508,443.0,0.0,0.0,0.0,0.508,443.0,123.0,0.82,150.0,74.0,64.0,NBA,1850.0,165.0,231.0,PF,573.0,2003,12.0,NYK,90.0,476.0
30.0,29.0,14.0,119.0,0.495,100.0,100.0,0.495,202.0,0.0,0.0,0.0,0.495,202.0,58.0,0.744,78.0,56.0,3.0,NBA,872.0,58.0,134.0,PF,258.0,2004,12.0,NYK,65.0,177.0
31.0,56.0,18.0,186.0,0.512,217.0,217.0,0.512,424.0,0.0,0.0,0.0,0.512,424.0,127.0,0.718,177.0,70.0,28.0,NBA,1271.0,106.0,188.0,PF,561.0,2005,24.0,CHI,84.0,292.0
32.0,39.0,13.0,100.0,0.495,135.0,135.0,0.495,273.0,0.0,0.0,0.0,0.495,273.0,77.0,0.626,123.0,72.0,23.0,NBA,824.0,54.0,131.0,C,347.0,2006,7.0,CHI,61.0,154.0
33.0,6.0,1.0,25.0,0.446,25.0,25.0,0.446,56.0,0.0,0.0,0.0,0.446,56.0,17.0,0.773,22.0,26.0,0.0,NBA,220.0,13.0,49.0,PF,67.0,2007,1.0,CHA,15.0,38.0
34.0,4.0,4.0,31.0,0.429,18.0,18.0,0.429,42.0,0.0,0.0,0.0,0.429,42.0,10.0,0.625,16.0,22.0,0.0,NBA,166.0,11.0,34.0,C,46.0,2008,1.0,CHA,11.0,42.0
