age,ast_pct,blk_pct,bpm,bpm-dum,dbpm,drb_pct,dws,fg3a_per_fga_pct,fta_per_fga_pct,g,lg_id,mp,obpm,orb_pct,ows,per,pos,season,stl_pct,team_id,tov_pct,trb_pct,ts_pct,usg_pct,vorp,ws,ws-dum,ws_per_48
23.0,3.3,1.9,-4.0,0.0,-0.4,15.8,1.0,0.015,0.397,57.0,NBA,860.0,-3.6,10.6,0.4,10.8,PF,1997,0.7,HOU,19.2,13.3,0.57,15.7,-0.4,1.4,0.0,0.079
24.0,4.4,2.1,-4.4,0.0,-1.9,17.4,0.5,0.004,0.459,58.0,NBA,903.0,-2.4,9.7,1.3,13.7,PF,1998,0.6,HOU,12.8,13.6,0.547,18.4,-0.5,1.7,0.0,0.092
25.0,3.0,1.9,-5.2,0.0,-2.6,21.1,0.9,0.0,0.401,41.0,NBA,903.0,-2.7,10.0,1.3,16.1,PF,1999,0.4,HOU,14.6,15.9,0.559,21.8,-0.7,2.2,0.0,0.115
26.0,6.3,1.6,-2.8,0.0,-1.3,16.5,1.0,0.002,0.359,82.0,NBA,2677.0,-1.5,8.7,2.0,13.3,PF,2000,0.7,VAN,18.4,12.6,0.56,20.0,-0.5,3.0,0.0,0.054
27.0,5.3,1.8,-2.7,0.0,0.0,15.7,1.7,0.006,0.442,74.0,NBA,1815.0,-2.7,9.0,0.8,12.0,C,2001,1.0,TOT,19.3,12.4,0.549,19.2,-0.3,2.5,0.0,0.067
27.0,4.9,1.4,-4.1,0.0,-0.9,16.8,0.8,0.008,0.399,44.0,NBA,1267.0,-3.2,9.3,0.1,11.7,C,2001,0.8,VAN,18.6,13.1,0.529,20.1,-0.7,0.9,0.0,0.035
27.0,6.4,2.8,0.5,0.0,2.1,13.3,0.9,0.0,0.579,30.0,NBA,548.0,-1.5,8.4,0.7,12.9,C,2001,1.5,NYK,21.3,10.9,0.609,17.2,0.4,1.6,0.0,0.14
28.0,4.2,1.7,-2.6,0.0,-0.5,16.6,1.4,0.004,0.382,77.0,NBA,1563.0,-2.1,9.3,1.6,13.0,PF,2002,1.0,NYK,15.3,12.9,0.567,18.5,-0.3,3.0,0.0,0.092
29.0,5.4,0.9,-2.0,0.0,-0.6,20.2,1.1,0.0,0.339,74.0,NBA,1850.0,-1.4,10.3,2.7,12.3,PF,2003,0.3,NYK,15.0,15.1,0.563,15.0,0.0,3.8,0.0,0.098
30.0,5.5,1.2,-3.9,0.0,-0.5,15.5,0.7,0.0,0.386,56.0,NBA,872.0,-3.3,7.8,0.2,9.0,PF,2004,0.7,NYK,21.6,11.7,0.546,16.0,-0.4,0.8,0.0,0.046
31.0,8.0,1.1,-0.8,0.0,0.7,16.3,2.1,0.0,0.417,70.0,NBA,1271.0,-1.5,9.4,1.5,14.5,PF,2005,1.0,CHI,14.3,12.8,0.559,20.6,0.4,3.6,0.0,0.135
32.0,8.0,1.2,-4.4,0.0,-0.8,13.9,0.9,0.0,0.451,72.0,NBA,824.0,-3.6,7.6,0.2,11.1,C,2006,0.4,CHI,15.7,10.7,0.53,21.2,-0.5,1.1,0.0,0.063
33.0,4.4,0.3,-8.1,0.0,-2.6,13.9,0.1,0.0,0.393,26.0,NBA,220.0,-5.5,6.8,-0.1,5.0,PF,2007,0.2,CHA,18.6,10.2,0.51,16.7,-0.3,0.0,0.0,0.003
34.0,3.8,1.8,-9.0,0.0,-1.8,21.6,0.1,0.0,0.381,22.0,NBA,166.0,-7.2,7.6,-0.2,5.8,C,2008,0.3,CHA,18.3,14.5,0.469,16.6,-0.3,0.0,0.0,-0.01
