age,ast,blk,drb,fg,fg2,fg2a,fg3,fg3a,fga,ft,fta,game_score,lg_id,mp,orb,pf,pts,season,stl,team_id,tov,trb
20.0,10.0,5.0,11.0,14.0,14.0,25.0,1.0,2.0,27.0,15.0,17.0,28.6,NBA,0.0,7.0,5.0,37.0,1997,3.0,VAN,7.0,17.0
21.0,13.0,5.0,9.0,15.0,14.0,27.0,2.0,4.0,30.0,13.0,15.0,27.8,NBA,0.0,9.0,5.0,32.0,1998,4.0,VAN,8.0,17.0
22.0,11.0,6.0,12.0,15.0,15.0,28.0,2.0,3.0,31.0,16.0,19.0,33.3,NBA,0.0,5.0,6.0,39.0,1999,6.0,VAN,8.0,16.0
23.0,10.0,6.0,18.0,13.0,12.0,30.0,2.0,4.0,31.0,15.0,16.0,32.6,NBA,0.0,8.0,6.0,36.0,2000,4.0,VAN,7.0,22.0
24.0,7.0,5.0,18.0,15.0,15.0,26.0,2.0,4.0,27.0,15.0,16.0,31.7,NBA,0.0,7.0,6.0,38.0,2001,3.0,VAN,7.0,22.0
25.0,9.0,5.0,14.0,21.0,21.0,30.0,2.0,4.0,30.0,16.0,16.0,46.0,NBA,0.0,7.0,6.0,50.0,2002,7.0,ATL,8.0,18.0
26.0,7.0,2.0,13.0,13.0,13.0,25.0,3.0,3.0,25.0,14.0,16.0,27.4,NBA,0.0,8.0,6.0,33.0,2003,6.0,ATL,6.0,17.0
27.0,5.0,2.0,14.0,17.0,17.0,26.0,1.0,2.0,27.0,16.0,17.0,34.3,NBA,0.0,6.0,6.0,43.0,2004,4.0,TOT,5.0,16.0
27.0,5.0,2.0,14.0,17.0,17.0,26.0,1.0,2.0,27.0,16.0,17.0,34.3,NBA,0.0,6.0,6.0,43.0,2004,4.0,ATL,5.0,16.0
27.0,4.0,2.0,9.0,8.0,8.0,17.0,1.0,2.0,17.0,7.0,8.0,17.3,NBA,0.0,5.0,5.0,20.0,2004,3.0,POR,4.0,12.0
28.0,7.0,3.0,12.0,11.0,10.0,23.0,1.0,4.0,23.0,10.0,10.0,25.2,NBA,0.0,8.0,6.0,27.0,2005,5.0,POR,5.0,14.0
29.0,8.0,4.0,10.0,12.0,12.0,20.0,2.0,3.0,20.0,8.0,10.0,24.8,NBA,47.0,7.0,6.0,32.0,2006,4.0,SAC,6.0,13.0
30.0,5.0,3.0,10.0,10.0,10.0,19.0,1.0,1.0,19.0,8.0,10.0,23.2,NBA,44.0,6.0,6.0,25.0,2007,4.0,SAC,6.0,14.0
31.0,2.0,0.0,2.0,2.0,2.0,4.0,0.0,0.0,4.0,2.0,2.0,3.6,NBA,19.0,2.0,5.0,4.0,2008,1.0,SAC,1.0,4.0
