age,ast_per_g,blk_per_g,drb_per_g,efg_pct,fg2_pct,fg2_per_g,fg2a_per_g,fg3_pct,fg3_per_g,fg3a_per_g,fg_pct,fg_per_g,fga_per_g,ft_pct,ft_per_g,fta_per_g,g,gs,lg_id,mp_per_g,orb_per_g,pf_per_g,pos,pts_per_g,season,stl_per_g,team_id,tov_per_g,trb_per_g
24.0,0.7,0.0,1.3,0.167,0.2,0.3,1.7,0.0,0.0,0.3,0.167,0.3,2.0,1.0,0.3,0.3,3.0,0.0,NBA,8.7,0.3,1.7,SG,1.0,2001,0.0,MIN,0.3,1.7
25.0,5.7,0.3,4.7,0.51,0.472,5.7,12.0,0.4,2.0,5.0,0.451,7.7,17.0,0.7,4.7,6.7,3.0,3.0,NBA,44.7,0.3,4.7,PG,22.0,2002,1.0,MIN,3.0,5.0
26.0,4.7,0.1,3.1,0.442,0.425,3.2,7.6,0.31,1.9,6.0,0.374,5.1,13.6,0.933,6.0,6.4,14.0,14.0,NBA,34.6,0.3,2.7,PG,18.0,2003,0.6,DET,2.4,3.4
27.0,5.9,0.1,2.4,0.449,0.408,3.2,7.8,0.346,1.6,4.7,0.385,4.8,12.4,0.89,5.3,5.9,23.0,23.0,NBA,38.3,0.6,2.5,PG,16.4,2004,1.3,DET,2.6,3.0
28.0,6.5,0.2,3.4,0.493,0.474,4.0,8.5,0.349,1.8,5.0,0.428,5.8,13.6,0.893,5.3,6.0,25.0,25.0,NBA,39.4,0.9,2.8,PG,18.7,2005,1.0,DET,2.0,4.3
29.0,6.5,0.1,3.0,0.476,0.452,3.4,7.5,0.34,1.8,5.2,0.406,5.2,12.7,0.905,5.8,6.4,18.0,18.0,NBA,39.2,0.4,2.4,PG,17.9,2006,1.2,DET,2.4,3.4
30.0,5.7,0.1,2.9,0.526,0.476,3.1,6.4,0.389,2.2,5.6,0.435,5.3,12.1,0.832,5.9,7.1,16.0,16.0,NBA,40.6,0.4,2.4,PG,18.6,2007,1.2,DET,2.9,3.3
31.0,5.5,0.1,2.5,0.471,0.417,3.0,7.2,0.375,1.6,4.3,0.401,4.6,11.5,0.832,5.3,6.3,15.0,15.0,NBA,32.0,0.4,2.1,PG,16.1,2008,0.8,DET,1.3,2.9
32.0,6.8,0.3,3.5,0.569,0.447,2.9,6.4,0.468,2.8,5.9,0.457,5.6,12.3,0.906,6.6,7.3,16.0,16.0,NBA,38.7,0.3,2.4,PG,20.6,2009,1.3,DEN,1.9,3.8
33.0,6.3,0.5,2.2,0.512,0.5,4.3,8.7,0.355,1.8,5.2,0.446,6.2,13.8,0.881,6.2,7.0,6.0,6.0,NBA,34.5,0.2,4.0,PG,20.3,2010,1.0,DEN,3.0,2.3
34.0,4.0,0.0,2.0,0.364,0.2,1.0,5.0,0.333,2.0,6.0,0.273,3.0,11.0,1.0,2.0,2.0,1.0,1.0,NBA,35.0,0.0,2.0,PG,10.0,2011,0.0,NYK,3.0,2.0
36.0,1.0,0.2,1.7,0.389,0.263,0.8,3.2,0.353,1.0,2.8,0.306,1.8,6.0,0.818,1.5,1.8,6.0,6.0,NBA,19.2,0.3,1.7,SG,6.2,2013,0.2,LAC,1.3,2.0
