age,ast_per_mp,blk_per_mp,drb_per_mp,fg2_pct,fg2_per_mp,fg2a_per_mp,fg3_pct,fg3_per_mp,fg3a_per_mp,fg_pct,fg_per_mp,fga_per_mp,ft_pct,ft_per_mp,fta_per_mp,g,gs,lg_id,mp,orb_per_mp,pf_per_mp,pos,pts_per_mp,season,stl_per_mp,team_id,tov_per_mp,trb_per_mp
24.0,2.8,0.0,5.5,0.2,1.4,6.9,0.0,0.0,1.4,0.167,1.4,8.3,1.0,1.4,1.4,3.0,0.0,NBA,26.0,1.4,6.9,SG,4.2,2001,0.0,MIN,1.4,6.9
25.0,4.6,0.3,3.8,0.472,4.6,9.7,0.4,1.6,4.0,0.451,6.2,13.7,0.7,3.8,5.4,3.0,3.0,NBA,134.0,0.3,3.8,PG,17.7,2002,0.8,MIN,2.4,4.0
26.0,4.9,0.1,3.2,0.425,3.3,7.9,0.31,1.9,6.2,0.374,5.3,14.1,0.933,6.2,6.7,14.0,14.0,NBA,485.0,0.3,2.8,PG,18.7,2003,0.7,DET,2.5,3.5
27.0,5.6,0.1,2.3,0.408,3.0,7.3,0.346,1.5,4.4,0.385,4.5,11.7,0.89,4.9,5.6,23.0,23.0,NBA,881.0,0.6,2.3,PG,15.4,2004,1.3,DET,2.5,2.9
28.0,5.9,0.2,3.1,0.474,3.7,7.8,0.349,1.6,4.6,0.428,5.3,12.4,0.893,4.9,5.4,25.0,25.0,NBA,985.0,0.8,2.6,PG,17.1,2005,0.9,DET,1.8,3.9
29.0,6.0,0.1,2.8,0.452,3.1,6.9,0.34,1.6,4.8,0.406,4.7,11.7,0.905,5.4,5.9,18.0,18.0,NBA,705.0,0.4,2.2,PG,16.5,2006,1.1,DET,2.2,3.1
30.0,5.0,0.1,2.6,0.476,2.7,5.7,0.389,1.9,5.0,0.435,4.7,10.7,0.832,5.2,6.3,16.0,16.0,NBA,649.0,0.4,2.2,PG,16.5,2007,1.1,DET,2.6,2.9
31.0,6.2,0.1,2.8,0.417,3.4,8.1,0.375,1.8,4.8,0.401,5.2,12.9,0.832,5.9,7.1,15.0,15.0,NBA,480.0,0.5,2.4,PG,18.1,2008,0.9,DET,1.5,3.3
32.0,6.3,0.2,3.3,0.447,2.7,6.0,0.468,2.6,5.5,0.457,5.2,11.5,0.906,6.2,6.8,16.0,16.0,NBA,619.0,0.3,2.2,PG,19.2,2009,1.2,DEN,1.8,3.5
33.0,6.6,0.5,2.3,0.5,4.5,9.0,0.355,1.9,5.4,0.446,6.4,14.4,0.881,6.4,7.3,6.0,6.0,NBA,207.0,0.2,4.2,PG,21.2,2010,1.0,DEN,3.1,2.4
34.0,4.1,0.0,2.1,0.2,1.0,5.1,0.333,2.1,6.2,0.273,3.1,11.3,1.0,2.1,2.1,1.0,1.0,NBA,35.0,0.0,2.1,PG,10.3,2011,0.0,NYK,3.1,2.1
36.0,1.9,0.3,3.1,0.263,1.6,5.9,0.353,1.9,5.3,0.306,3.4,11.3,0.818,2.8,3.4,6.0,6.0,NBA,115.0,0.6,3.1,SG,11.6,2013,0.3,LAC,2.5,3.8
