article_url,date,headline
https://pistonpowered.com/2019/10/11/detroit-pistons-luke-kennard-stacks-jj-redick-kyle-korver/,2019/10/11,Piston Powered: How Detroit Pistons' Luke Kennard Stacks Up with JJ Redick and Kyle Korver
https://dunkingwithwolves.com/2019/09/21/minnesota-timberwolves-3-worst-trades-in-timberwolves-history/,2019/09/21,Dunking with Wolves: Minnesota Timberwolves: 3 worst trades in Timberwolves history
https://dunkingwithwolves.com/2019/08/24/minnesota-timberwolves-a-history-of-team-usa-participants/,2019/08/24,Dunking with Wolves: Minnesota Timberwolves: A history of Team USA participants
https://hooplifetv.com/2019/07/03/five-college-basketball-stars-who-didnt-make-it-in-the-nba/,2019/07/03,HoopLifeTV: Five College Basketball Stars Who Didn’t Make it in the NBA
