age,ast,blk,drb,fg,fg2,fg2a,fg3,fg3a,fga,ft,fta,game_score,lg_id,mp,orb,pf,pts,season,stl,team_id,tov,trb
27.0,3.0,2.0,5.0,5.0,3.0,6.0,3.0,7.0,10.0,2.0,3.0,14.4,NBA,25,5.0,4.0,14.0,2013,2.0,BRK,2.0,8.0
28.0,4.0,3.0,9.0,12.0,5.0,9.0,7.0,12.0,18.0,5.0,8.0,29.0,NBA,33,4.0,5.0,34.0,2014,2.0,BRK,3.0,13.0
29.0,4.0,2.0,14.0,9.0,5.0,6.0,5.0,11.0,15.0,5.0,7.0,25.6,NBA,43,4.0,5.0,26.0,2015,3.0,BRK,5.0,15.0
30.0,4.0,2.0,9.0,12.0,7.0,13.0,6.0,13.0,23.0,8.0,9.0,18.7,NBA,40,4.0,6.0,30.0,2016,2.0,PHO,5.0,12.0
31.0,3.0,1.0,8.0,8.0,4.0,7.0,7.0,9.0,12.0,5.0,5.0,20.6,NBA,31,3.0,5.0,25.0,2017,1.0,MIL,2.0,8.0
32.0,4.0,1.0,5.0,6.0,2.0,3.0,5.0,9.0,11.0,0.0,0.0,10.1,NBA,24,1.0,4.0,16.0,2018,1.0,MIL,2.0,5.0
