age,ast_pct,blk_pct,bpm,bpm-dum,dbpm,drb_pct,dws,fg3a_per_fga_pct,fta_per_fga_pct,g,lg_id,mp,obpm,orb_pct,ows,per,pos,season,stl_pct,team_id,tov_pct,trb_pct,ts_pct,usg_pct,vorp,ws,ws-dum,ws_per_48
23.0,8.4,1.8,-0.8,0.0,-0.6,21.6,0.1,0.0,0.176,6.0,NBA,41.0,-0.3,23.5,0.1,19.8,C,2008,1.3,ORL,9.8,22.5,0.491,22.7,0.0,0.1,0.0,0.158
24.0,2.9,4.8,0.6,0.0,2.9,26.3,1.9,0.005,0.241,63.0,NBA,794.0,-2.3,14.0,1.4,17.0,PF,2009,1.2,ORL,10.8,20.3,0.578,13.5,0.5,3.3,0.0,0.202
25.0,2.4,4.8,-0.5,0.0,2.5,24.3,2.2,0.013,0.33,81.0,NBA,1088.0,-3.0,11.5,1.2,13.9,C,2010,0.8,ORL,15.0,18.1,0.563,13.0,0.4,3.4,0.0,0.151
26.0,5.5,3.3,0.7,0.0,1.7,27.4,2.7,0.007,0.32,80.0,NBA,2032.0,-1.0,8.5,3.7,17.8,C,2011,0.9,TOT,10.5,18.0,0.594,17.1,1.4,6.4,0.0,0.152
26.0,6.8,4.1,1.7,0.0,3.8,23.0,0.8,0.0,0.222,25.0,NBA,396.0,-2.1,11.5,0.5,13.7,C,2011,0.9,ORL,16.0,17.4,0.562,12.4,0.4,1.3,0.0,0.157
26.0,5.2,3.2,0.5,0.0,1.2,28.5,1.9,0.008,0.335,55.0,NBA,1636.0,-0.7,7.8,3.2,18.8,C,2011,0.9,PHO,9.7,18.1,0.598,18.3,1.0,5.1,0.0,0.151
27.0,4.8,3.4,2.0,0.0,1.2,25.0,2.7,0.003,0.326,66.0,NBA,2114.0,0.8,10.0,4.9,21.2,C,2012,1.2,PHO,9.3,17.6,0.578,20.8,2.1,7.6,0.0,0.172
28.0,6.5,3.9,-0.6,0.0,1.8,24.0,2.1,0.005,0.244,61.0,NBA,1876.0,-2.4,7.6,1.3,15.4,C,2013,1.1,PHO,13.6,15.6,0.543,17.2,0.7,3.4,0.0,0.086
29.0,8.4,3.8,1.0,0.0,2.1,25.1,4.0,0.001,0.273,81.0,NBA,2655.0,-1.1,8.7,4.1,17.6,C,2014,0.8,WAS,11.8,16.7,0.568,18.2,2.0,8.1,0.0,0.146
30.0,6.5,3.6,1.8,0.0,2.3,24.1,4.2,0.004,0.226,82.0,NBA,2453.0,-0.4,8.5,4.4,18.2,C,2015,1.0,WAS,10.5,16.5,0.587,17.6,2.4,8.6,0.0,0.168
31.0,7.5,3.4,1.2,0.0,1.7,26.3,3.1,0.001,0.271,75.0,NBA,2256.0,-0.5,10.8,4.2,19.0,C,2016,1.0,WAS,12.4,18.4,0.592,18.9,1.8,7.3,0.0,0.156
32.0,6.8,2.0,0.3,0.0,1.2,26.8,2.9,0.003,0.236,82.0,NBA,2556.0,-0.9,10.6,3.9,15.4,C,2017,0.8,WAS,13.8,18.7,0.593,14.7,1.5,6.8,0.0,0.127
33.0,10.6,2.6,0.3,0.0,1.9,24.0,2.4,0.0,0.291,82.0,NBA,2075.0,-1.6,9.9,2.4,14.7,C,2018,1.0,WAS,13.5,17.0,0.546,15.5,1.2,4.9,0.0,0.113
34.0,12.0,2.5,-1.1,0.0,1.4,26.5,0.8,0.0,0.258,47.0,NBA,751.0,-2.5,9.8,0.6,12.8,C,2019,0.4,LAC,19.4,18.4,0.562,14.4,0.2,1.4,0.0,0.089
