age,ast_per_poss,blk_per_poss,def_rtg,drb_per_poss,fg2_pct,fg2_per_poss,fg2a_per_poss,fg3_pct,fg3_per_poss,fg3a_per_poss,fg_pct,fg_per_poss,fga_per_poss,ft_pct,ft_per_poss,fta_per_poss,g,gs,lg_id,mp,off_rtg,orb_per_poss,pf_per_poss,pos,pts_per_poss,season,stl_per_poss,team_id,tov_per_poss,trb_per_poss
24.0,5.0,1.2,104.0,5.5,0.485,4.0,8.2,0.0,0.0,0.2,0.471,4.0,8.5,0.909,5.0,5.5,8.0,0.0,NBA,203.0,110.0,2.5,6.5,SF,13.0,1982,1.5,SEA,3.2,8.0
25.0,5.9,1.4,109.0,6.1,0.417,5.6,13.4,0.0,0.0,0.6,0.4,5.6,13.9,0.824,3.9,4.7,8.0,0.0,NBA,157.0,93.0,0.8,7.2,SF,15.1,1983,1.7,DEN,3.1,7.0
26.0,11.6,0.0,118.0,2.8,0.647,6.1,9.4,0.0,0.0,1.1,0.579,6.1,10.5,1.0,3.3,3.3,5.0,0.0,NBA,82.0,125.0,1.7,8.8,SF,15.5,1984,1.7,DEN,3.3,4.4
27.0,4.7,0.9,110.0,3.1,0.495,6.4,13.0,0.0,0.0,0.1,0.489,6.4,13.1,0.732,4.3,5.8,15.0,0.0,NBA,310.0,109.0,3.4,8.1,SF,17.1,1985,2.0,DEN,3.1,6.6
28.0,8.7,0.5,116.0,1.8,0.519,6.4,12.4,1.0,0.5,0.5,0.536,6.9,12.8,0.813,6.0,7.3,6.0,0.0,NBA,102.0,121.0,0.9,5.5,SF,20.2,1986,0.5,DEN,3.2,2.8
29.0,4.1,0.0,125.0,3.5,0.348,4.7,13.4,0.0,0.0,1.2,0.32,4.7,14.5,0.6,5.2,8.7,3.0,2.0,NBA,76.0,86.0,0.0,3.5,PF,14.5,1987,2.3,DEN,1.7,3.5
30.0,5.9,2.1,114.0,4.1,0.417,4.6,11.0,0.0,0.0,1.8,0.357,4.6,12.8,0.692,4.1,5.9,11.0,0.0,NBA,212.0,94.0,2.5,9.1,SF,13.2,1988,1.1,DEN,3.2,6.6
31.0,3.8,0.4,112.0,5.9,0.407,4.6,11.4,0.5,1.3,2.5,0.424,5.9,13.9,0.583,2.9,5.1,3.0,3.0,NBA,106.0,111.0,2.5,5.5,PF,16.0,1989,2.1,DEN,0.8,8.4
32.0,6.1,1.1,115.0,2.8,0.286,2.2,7.8,0.333,0.6,1.7,0.294,2.8,9.5,1.0,5.6,5.6,3.0,0.0,NBA,79.0,117.0,2.8,7.3,PF,11.7,1990,2.8,DEN,1.1,5.6
