age,ast_per_g,blk_per_g,drb_per_g,efg_pct,fg2_pct,fg2_per_g,fg2a_per_g,fg3_pct,fg3_per_g,fg3a_per_g,fg_pct,fg_per_g,fga_per_g,ft_pct,ft_per_g,fta_per_g,g,gs,lg_id,mp_per_g,orb_per_g,pf_per_g,pos,pts_per_g,season,stl_per_g,team_id,tov_per_g,trb_per_g
24.0,2.5,0.6,2.8,0.471,0.485,2.0,4.1,0.0,0.0,0.1,0.471,2.0,4.3,0.909,2.5,2.8,8.0,0.0,NBA,25.4,1.3,3.3,SF,6.5,1982,0.8,SEA,1.6,4.0
25.0,2.6,0.6,2.8,0.4,0.417,2.5,6.0,0.0,0.0,0.3,0.4,2.5,6.3,0.824,1.8,2.1,8.0,0.0,NBA,19.6,0.4,3.3,SF,6.8,1983,0.8,DEN,1.4,3.1
26.0,4.2,0.0,1.0,0.579,0.647,2.2,3.4,0.0,0.0,0.4,0.579,2.2,3.8,1.0,1.2,1.2,5.0,0.0,NBA,16.4,0.6,3.2,SF,5.6,1984,0.6,DEN,1.2,1.6
27.0,2.2,0.4,1.5,0.489,0.495,3.0,6.1,0.0,0.0,0.1,0.489,3.0,6.1,0.732,2.0,2.7,15.0,0.0,NBA,20.7,1.6,3.8,SF,8.0,1985,0.9,DEN,1.5,3.1
28.0,3.2,0.2,0.7,0.554,0.519,2.3,4.5,1.0,0.2,0.2,0.536,2.5,4.7,0.813,2.2,2.7,6.0,0.0,NBA,17.0,0.3,2.0,SF,7.3,1986,0.2,DEN,1.2,1.0
29.0,2.3,0.0,2.0,0.32,0.348,2.7,7.7,0.0,0.0,0.7,0.32,2.7,8.3,0.6,3.0,5.0,3.0,2.0,NBA,25.3,0.0,2.0,PF,8.3,1987,1.3,DEN,1.0,2.0
30.0,2.4,0.8,1.6,0.357,0.417,1.8,4.4,0.0,0.0,0.7,0.357,1.8,5.1,0.692,1.6,2.4,11.0,0.0,NBA,19.3,1.0,3.6,SF,5.3,1988,0.5,DEN,1.3,2.6
31.0,3.0,0.3,4.7,0.47,0.407,3.7,9.0,0.5,1.0,2.0,0.424,4.7,11.0,0.583,2.3,4.0,3.0,3.0,NBA,35.3,2.0,4.3,PF,12.7,1989,1.7,DEN,0.7,6.7
32.0,3.7,0.7,1.7,0.324,0.286,1.3,4.7,0.333,0.3,1.0,0.294,1.7,5.7,1.0,3.3,3.3,3.0,0.0,NBA,26.3,1.7,4.3,PF,7.0,1990,1.7,DEN,0.7,3.3
