age,ast_pct,blk_pct,bpm,bpm-dum,dbpm,drb_pct,dws,fg3a_per_fga_pct,fta_per_fga_pct,g,lg_id,mp,obpm,orb_pct,ows,per,pos,season,stl_pct,team_id,tov_pct,trb_pct,ts_pct,usg_pct,vorp,ws,ws-dum,ws_per_48
22.0,14.5,1.9,0.2,0.0,2.0,12.6,2.6,0.041,0.305,79.0,NBA,1650.0,-1.8,8.1,-0.4,12.9,SF,1988,2.8,CHI,17.0,10.4,0.489,20.0,0.9,2.3,0.0,0.066
23.0,15.1,1.5,1.4,0.0,1.9,14.3,3.3,0.089,0.347,73.0,NBA,2413.0,-0.4,6.8,0.7,14.9,SF,1989,2.9,CHI,16.6,10.7,0.524,21.3,2.1,4.0,0.0,0.08
24.0,19.8,2.0,2.6,0.0,2.3,14.9,4.3,0.097,0.257,82.0,NBA,3148.0,0.2,5.6,1.4,16.3,SF,1990,3.3,CHI,17.8,10.3,0.528,21.2,3.6,5.7,0.0,0.087
25.0,23.5,1.9,6.3,0.0,3.2,16.6,5.4,0.059,0.295,82.0,NBA,3014.0,3.1,6.5,5.9,20.6,SF,1991,3.2,CHI,15.1,11.6,0.561,21.8,6.4,11.2,0.0,0.179
26.0,25.8,1.8,6.5,0.0,2.6,15.8,5.5,0.059,0.319,82.0,NBA,3164.0,3.9,6.9,7.1,21.5,SF,1992,2.5,CHI,14.0,11.5,0.555,24.6,6.8,12.7,0.0,0.192
27.0,24.0,1.6,4.3,0.0,2.3,16.0,4.8,0.07,0.264,81.0,NBA,3123.0,2.0,7.3,3.8,19.2,SF,1993,2.9,CHI,14.2,11.5,0.51,23.9,5.0,8.6,0.0,0.132
28.0,24.6,1.4,8.3,0.0,3.8,19.4,6.0,0.154,0.32,72.0,NBA,2759.0,4.5,7.3,5.2,23.2,SF,1994,4.0,CHI,13.7,13.3,0.544,27.1,7.2,11.2,0.0,0.194
29.0,22.8,2.2,7.8,0.0,4.0,18.2,6.7,0.239,0.333,79.0,NBA,3014.0,3.8,6.9,5.1,22.6,SF,1995,4.0,CHI,15.2,12.5,0.559,26.3,7.4,11.8,0.0,0.188
30.0,25.2,1.5,6.8,0.0,2.2,14.2,5.3,0.33,0.266,77.0,NBA,2825.0,4.6,6.3,7.0,21.0,SF,1996,2.5,CHI,13.2,10.2,0.551,24.4,6.3,12.3,0.0,0.209
31.0,24.3,1.1,6.6,0.0,1.7,13.3,5.2,0.31,0.213,82.0,NBA,3095.0,4.9,5.9,7.8,21.3,SF,1997,2.7,CHI,12.5,9.7,0.554,24.6,6.7,13.1,0.0,0.203
32.0,26.5,1.9,5.8,0.0,1.8,12.1,3.0,0.273,0.274,44.0,NBA,1652.0,4.0,3.7,3.7,20.4,SF,1998,2.6,CHI,12.1,7.9,0.533,24.4,3.2,6.6,0.0,0.193
33.0,24.4,1.3,3.5,0.0,1.7,14.2,2.3,0.351,0.303,50.0,NBA,2011.0,1.8,3.9,2.5,16.8,SF,1999,2.6,HOU,18.8,9.4,0.53,19.7,2.8,4.9,0.0,0.116
34.0,23.7,1.1,4.2,0.0,2.2,16.2,4.4,0.306,0.259,82.0,NBA,2749.0,2.0,5.1,3.4,16.4,SF,2000,2.3,POR,17.8,11.0,0.533,19.6,4.3,7.8,0.0,0.137
35.0,21.8,1.2,2.7,0.0,1.5,14.2,2.7,0.312,0.27,64.0,NBA,2133.0,1.3,4.1,2.4,15.3,SF,2001,2.4,POR,18.8,9.3,0.541,17.9,2.6,5.1,0.0,0.115
36.0,28.7,1.3,2.2,0.0,1.7,14.5,2.6,0.295,0.244,62.0,NBA,1996.0,0.5,4.5,1.2,14.9,SF,2002,2.7,POR,20.5,9.5,0.497,19.1,2.1,3.7,0.0,0.09
37.0,24.3,1.0,2.0,0.0,1.6,14.0,2.6,0.223,0.248,64.0,NBA,1911.0,0.3,3.6,1.2,15.3,SF,2003,3.0,POR,19.9,8.8,0.52,20.0,1.9,3.8,0.0,0.095
38.0,21.0,1.6,-0.8,0.0,0.7,13.1,0.5,0.343,0.193,23.0,NBA,412.0,-1.5,5.2,-0.2,12.4,SF,2004,2.7,CHI,16.0,9.0,0.448,19.6,0.1,0.3,0.0,0.037
