age,ast_per_mp,blk_per_mp,drb_per_mp,fg2_pct,fg2_per_mp,fg2a_per_mp,fg3_pct,fg3_per_mp,fg3a_per_mp,fg_pct,fg_per_mp,fga_per_mp,ft_pct,ft_per_mp,fta_per_mp,g,gs,lg_id,mp,orb_per_mp,pf_per_mp,pos,pts_per_mp,season,stl_per_mp,team_id,tov_per_mp,trb_per_mp
22.0,3.7,1.1,4.0,0.475,5.6,11.8,0.174,0.1,0.5,0.463,5.7,12.3,0.576,2.2,3.8,79.0,0.0,NBA,1650.0,2.5,4.7,SF,13.6,1988,2.0,CHI,2.9,6.5
23.0,3.8,0.9,4.6,0.496,5.8,11.8,0.273,0.3,1.1,0.476,6.2,12.9,0.668,3.0,4.5,73.0,56.0,NBA,2413.0,2.1,3.9,SF,15.6,1989,2.1,CHI,3.0,6.6
24.0,5.1,1.2,4.5,0.514,6.1,11.9,0.25,0.3,1.3,0.489,6.4,13.2,0.675,2.3,3.4,82.0,82.0,NBA,3148.0,1.7,3.4,SF,15.4,1990,2.4,CHI,3.2,6.3
25.0,6.1,1.1,5.2,0.534,6.9,13.0,0.309,0.3,0.8,0.52,7.2,13.8,0.706,2.9,4.1,82.0,82.0,NBA,3014.0,1.9,3.2,SF,17.5,1991,2.3,CHI,2.8,7.1
26.0,6.5,1.1,5.1,0.525,7.6,14.6,0.2,0.2,0.9,0.506,7.8,15.5,0.76,3.8,4.9,82.0,82.0,NBA,3164.0,2.1,2.8,SF,19.6,1992,1.8,CHI,2.9,7.2
27.0,5.8,0.8,4.8,0.491,7.0,14.2,0.237,0.3,1.1,0.473,7.2,15.3,0.663,2.7,4.0,81.0,81.0,NBA,3123.0,2.3,2.5,SF,17.4,1993,2.0,CHI,2.8,7.2
28.0,5.3,0.8,5.9,0.522,7.4,14.1,0.32,0.8,2.6,0.491,8.2,16.7,0.66,3.5,5.3,72.0,72.0,NBA,2759.0,2.3,3.0,SF,20.7,1994,2.8,CHI,3.0,8.2
29.0,4.9,1.1,5.5,0.523,6.3,12.0,0.345,1.3,3.8,0.48,7.6,15.8,0.716,3.8,5.3,79.0,79.0,NBA,3014.0,2.1,2.8,SF,20.2,1995,2.8,CHI,3.2,7.6
30.0,5.8,0.7,4.4,0.507,5.3,10.4,0.374,1.9,5.1,0.463,7.2,15.5,0.679,2.8,4.1,77.0,77.0,NBA,2825.0,1.9,2.5,SF,19.1,1996,1.7,CHI,2.6,6.3
31.0,5.4,0.5,4.3,0.522,5.7,11.0,0.368,1.8,4.9,0.474,7.5,15.9,0.701,2.4,3.4,82.0,82.0,NBA,3095.0,1.9,2.5,SF,19.3,1997,1.8,CHI,2.5,6.2
32.0,5.5,0.9,3.8,0.496,5.5,11.2,0.318,1.3,4.2,0.447,6.9,15.3,0.777,3.3,4.2,44.0,44.0,NBA,1652.0,1.2,2.5,SF,18.3,1998,1.7,CHI,2.4,4.9
33.0,5.2,0.7,4.7,0.482,3.4,7.0,0.34,1.3,3.8,0.432,4.7,10.8,0.721,2.4,3.3,50.0,50.0,NBA,2011.0,1.1,2.1,SF,13.0,1999,1.8,HOU,2.8,5.8
34.0,5.3,0.5,5.2,0.506,4.0,7.8,0.327,1.1,3.4,0.451,5.1,11.3,0.717,2.1,2.9,82.0,82.0,NBA,2749.0,1.5,2.7,SF,13.4,2000,1.5,POR,2.7,6.7
35.0,5.0,0.6,4.4,0.5,3.5,6.9,0.344,1.1,3.1,0.451,4.5,10.1,0.739,2.0,2.7,64.0,60.0,NBA,2133.0,1.2,2.7,SF,12.2,2001,1.6,POR,2.6,5.6
36.0,6.5,0.6,4.4,0.455,3.5,7.6,0.305,1.0,3.2,0.411,4.4,10.8,0.774,2.0,2.6,62.0,60.0,NBA,1996.0,1.4,2.9,SF,11.9,2002,1.8,POR,3.1,5.8
37.0,5.4,0.5,4.2,0.489,4.3,8.7,0.286,0.7,2.5,0.444,5.0,11.2,0.818,2.3,2.8,64.0,58.0,NBA,1911.0,1.1,2.8,SF,13.0,2003,2.0,POR,3.1,5.2
38.0,4.4,0.8,4.2,0.435,3.5,8.0,0.271,1.1,4.2,0.379,4.6,12.2,0.63,1.5,2.4,23.0,6.0,NBA,412.0,1.7,3.3,SF,11.9,2004,1.8,CHI,2.5,5.9
