lg_id,salary,season,team_name
NBA,816482.0,2015,Sacramento Kings
NBA,947276.0,2016,San Antonio Spurs
NBA,111444.0,2016,Memphis Grizzlies
NBA,119494.0,2017,Charlotte Hornets
NBA,11949.0,2017,Detroit Pistons
