lg_id,salary,season,team_name
NBA,150000.0,1994,Los Angeles Lakers
NBA,325000.0,1995,Los Angeles Lakers
NBA,400000.0,1996,Vancouver Grizzlies
NBA,247500.0,1997,Seattle SuperSonics
NBA,510000.0,2000,Portland Trail Blazers
NBA,611000.0,2001,Portland Trail Blazers
NBA,715850.0,2002,Seattle SuperSonics
NBA,60361.0,2003,Atlanta Hawks
