age,avg_dist,fg2_dunk,fg2_pct,fg2_pct_ast,fg2a_pct_fga,fg3_heave,fg3_pct,fg3_pct_ast,fg3_pct_corner,fg3a_heave,fg3a_pct_fga,fg_pct,fg_pct_00_03,fg_pct_03_10,fg_pct_10_16,fg_pct_16_xx,g,lg_id,mp,pct_fg2_dunk,pct_fg3a_corner,pct_fga_00_03,pct_fga_03_10,pct_fga_10_16,pct_fga_16_xx,pos,season,team_id
30.0,9.3,3.0,0.464,0.692,1.0,0.0,0.0,0.0,0.0,0.0,0.0,0.464,0.556,0.2,0.8,0.333,12.0,NBA,72.0,0.107,0.0,0.321,0.179,0.179,0.321,PF,2001,POR
31.0,7.7,0.0,0.333,0.5,1.0,0.0,0.0,0.0,0.0,0.0,0.0,0.333,0.5,0.25,0.0,0.333,5.0,NBA,47.0,0.0,0.0,0.333,0.333,0.083,0.25,PF,2002,SEA
32.0,4.6,1.0,0.4,1.0,1.0,0.0,0.0,0.0,0.0,0.0,0.0,0.4,1.0,0.0,0.0,0.0,4.0,NBA,32.0,0.2,0.0,0.4,0.6,0.0,0.0,PF,2003,ATL
