age,ast_per_mp,blk_per_mp,drb_per_mp,fg2_pct,fg2_per_mp,fg2a_per_mp,fg3_pct,fg3_per_mp,fg3a_per_mp,fg_pct,fg_per_mp,fga_per_mp,ft_pct,ft_per_mp,fta_per_mp,g,gs,lg_id,mp,orb_per_mp,pf_per_mp,pos,pts_per_mp,season,stl_per_mp,team_id,tov_per_mp,trb_per_mp
24.0,0.0,0.0,9.0,0.0,0.0,0.0,0.0,0.0,0.0,0.0,0.0,0.0,0.0,0.0,0.0,3.0,0.0,NBA,4.0,0.0,0.0,PF,0.0,1995,0.0,LAL,0.0,9.0
30.0,0.0,0.0,12.9,0.0,0.0,2.6,0.0,0.0,0.0,0.0,0.0,2.6,0.0,0.0,0.0,2.0,0.0,NBA,14.0,2.6,10.3,PF,0.0,2001,0.0,POR,2.6,15.4
