age,ast_pct,blk_pct,bpm,bpm-dum,dbpm,drb_pct,dws,fg3a_per_fga_pct,fta_per_fga_pct,g,lg_id,mp,obpm,orb_pct,ows,per,pos,season,stl_pct,team_id,tov_pct,trb_pct,ts_pct,usg_pct,vorp,ws,ws-dum,ws_per_48
27.0,5.2,0.0,-7.1,0.0,-3.9,3.8,0.0,0.2,0.2,9.0,NBA,32.0,-3.2,14.8,0.0,6.9,SG,2005,0.0,NJN,0.0,9.4,0.368,16.0,0.0,0.0,0.0,0.026
28.0,5.6,0.7,-6.3,0.0,-2.7,14.5,0.1,0.171,0.341,25.0,NBA,116.0,-3.6,7.8,0.0,9.2,SF,2006,1.3,WAS,9.6,11.0,0.456,20.0,-0.1,0.1,0.0,0.039
30.0,10.1,0.3,-4.0,0.0,-2.6,10.9,0.0,0.079,0.326,26.0,NBA,259.0,-1.4,13.5,0.1,11.5,SG,2008,1.4,MIL,8.9,12.3,0.452,19.4,-0.1,0.2,0.0,0.031
