age,ast_per_g,blk_per_g,drb_per_g,efg_pct,fg2_pct,fg2_per_g,fg2a_per_g,fg3_pct,fg3_per_g,fg3a_per_g,fg_pct,fg_per_g,fga_per_g,ft_pct,ft_per_g,fta_per_g,g,gs,lg_id,mp_per_g,orb_per_g,pf_per_g,pos,pts_per_g,season,stl_per_g,team_id,tov_per_g,trb_per_g
25.0,0.0,0.7,2.3,0.556,0.556,1.7,3.0,0.0,0.0,0.0,0.556,1.7,3.0,0.556,1.7,3.0,3.0,2.0,NBA,19.0,1.7,2.3,SF,5.0,1992,0.7,SAS,2.0,4.0
27.0,1.7,0.0,1.0,0.429,0.429,2.0,4.7,0.0,0.0,0.0,0.429,2.0,4.7,0.75,3.0,4.0,3.0,0.0,NBA,15.0,0.3,1.0,SF,7.0,1994,0.3,ORL,0.7,1.3
28.0,0.5,0.0,0.7,0.333,0.333,0.6,1.8,0.0,0.0,0.0,0.333,0.6,1.8,0.75,0.8,1.1,18.0,6.0,NBA,11.0,0.3,1.2,SF,2.1,1995,0.2,ORL,0.7,1.1
29.0,0.1,0.1,1.0,0.583,0.583,1.0,1.7,0.0,0.0,0.0,0.583,1.0,1.7,0.688,1.6,2.3,7.0,0.0,NBA,13.1,0.6,1.0,SF,3.6,1996,0.0,ORL,0.3,1.6
30.0,0.0,0.0,2.0,0.0,0.0,0.0,1.0,0.0,0.0,0.0,0.0,0.0,1.0,0.0,0.0,0.0,1.0,0.0,NBA,4.0,0.0,1.0,SF,0.0,1997,0.0,CHH,0.0,2.0
31.0,0.3,0.0,1.0,0.429,0.429,0.8,1.8,0.0,0.0,0.0,0.429,0.8,1.8,0.75,0.8,1.0,4.0,0.0,NBA,7.0,0.0,1.0,SF,2.3,1998,0.0,CHH,0.3,1.0
