age,ast_per_poss,blk_per_poss,def_rtg,drb_per_poss,fg2_pct,fg2_per_poss,fg2a_per_poss,fg3_pct,fg3_per_poss,fg3a_per_poss,fg_pct,fg_per_poss,fga_per_poss,ft_pct,ft_per_poss,fta_per_poss,g,gs,lg_id,mp,off_rtg,orb_per_poss,pf_per_poss,pos,pts_per_poss,season,stl_per_poss,team_id,tov_per_poss,trb_per_poss
22.0,4.8,0.1,114.0,2.5,0.409,4.2,10.3,0.361,3.5,9.6,0.386,7.7,19.9,0.833,1.8,2.1,61.0,7.0,NBA,1135.0,100.0,0.8,3.3,PG,20.6,2012,1.3,SAC,3.0,3.3
23.0,4.9,0.2,115.0,2.8,0.423,5.7,13.4,0.417,3.4,8.3,0.421,9.1,21.7,0.859,4.5,5.2,69.0,0.0,NBA,967.0,106.0,1.0,3.4,SG,26.2,2013,1.6,SAC,3.6,3.8
24.0,6.3,0.3,110.0,4.3,0.469,6.6,14.1,0.476,3.9,8.3,0.471,10.5,22.4,0.905,1.9,2.1,49.0,0.0,NBA,519.0,105.0,0.8,3.4,SG,26.9,2014,1.4,TOT,4.7,5.1
24.0,6.7,0.3,111.0,4.2,0.464,6.4,13.7,0.493,4.0,8.0,0.475,10.3,21.8,0.895,1.9,2.1,41.0,0.0,NBA,463.0,106.0,0.8,3.1,SG,26.5,2014,1.5,SAC,4.8,4.9
24.0,2.9,0.0,106.0,5.7,0.5,8.6,17.1,0.364,3.8,10.5,0.448,12.4,27.6,1.0,1.9,1.9,8.0,0.0,NBA,56.0,97.0,1.0,6.7,SG,30.4,2014,0.0,CHI,3.8,6.7
25.0,6.0,0.2,111.0,3.3,0.458,5.6,12.2,0.188,0.9,5.0,0.38,6.5,17.1,0.956,4.4,4.6,50.0,0.0,NBA,509.0,97.0,0.8,4.4,PG,18.4,2015,1.5,NOP,3.4,4.1
26.0,2.8,0.0,111.0,0.0,0.333,2.8,8.3,0.5,2.8,5.6,0.4,5.6,13.9,0.8,11.1,13.9,6.0,0.0,NBA,18.0,94.0,0.0,5.6,SG,25.0,2016,2.8,TOT,5.6,0.0
26.0,3.8,0.0,109.0,0.0,0.333,3.8,11.4,0.0,0.0,3.8,0.25,3.8,15.3,0.0,0.0,0.0,4.0,0.0,NBA,13.0,51.0,0.0,3.8,SG,7.6,2016,3.8,NOP,3.8,0.0
26.0,0.0,0.0,116.0,0.0,0.0,0.0,0.0,1.0,10.3,10.3,1.0,10.3,10.3,0.8,41.1,51.4,2.0,0.0,NBA,5.0,151.0,0.0,10.3,SG,72.0,2016,0.0,NYK,10.3,0.0
29.0,5.9,0.0,117.0,4.4,0.5,5.9,11.8,0.0,0.0,9.5,0.276,5.9,21.3,1.0,4.4,4.4,6.0,0.0,NBA,65.0,75.0,0.7,3.7,SG,16.2,2019,2.2,PHO,3.7,5.1
