age,ast_per_g,blk_per_g,drb_per_g,efg_pct,fg2_pct,fg2_per_g,fg2a_per_g,fg3_pct,fg3_per_g,fg3a_per_g,fg_pct,fg_per_g,fga_per_g,ft_pct,ft_per_g,fta_per_g,g,gs,lg_id,mp_per_g,orb_per_g,pf_per_g,pos,pts_per_g,season,stl_per_g,team_id,tov_per_g,trb_per_g
23.0,0.4,0.0,1.0,0.5,0.5,0.6,1.2,0.333,0.2,0.6,0.444,0.8,1.8,1.0,1.0,1.0,5.0,0.0,NBA,8.2,0.2,1.8,SF,2.8,2004,0.2,HOU,0.4,1.2
25.0,0.0,0.0,0.0,0.0,0.0,0.0,0.0,0.0,0.0,0.0,0.0,0.0,0.0,0.0,0.0,0.0,1.0,0.0,NBA,1.0,0.0,0.0,SF,0.0,2006,0.0,NJN,0.0,0.0
26.0,1.5,0.1,2.5,0.516,0.468,1.8,3.9,0.375,1.5,4.0,0.421,3.3,7.9,0.955,1.8,1.8,12.0,0.0,NBA,23.4,0.4,2.5,SF,9.9,2007,0.6,NJN,1.5,2.9
