age,ast,blk,drb,fg,fg2,fg2a,fg3,fg3a,fga,ft,fta,game_score,lg_id,mp,orb,pf,pts,season,stl,team_id,tov,trb
23.0,4.0,2.0,11.0,10.0,10.0,18.0,1.0,2.0,18.0,8.0,10.0,22.5,NBA,0.0,4.0,5.0,24.0,2004,5.0,MIA,5.0,15.0
25.0,5.0,1.0,14.0,9.0,8.0,16.0,2.0,5.0,19.0,8.0,8.0,19.8,NBA,53.0,6.0,6.0,21.0,2006,4.0,WAS,5.0,20.0
27.0,5.0,1.0,5.0,11.0,7.0,14.0,4.0,8.0,22.0,6.0,7.0,25.8,NBA,46.0,4.0,4.0,32.0,2008,3.0,WAS,4.0,9.0
29.0,3.0,2.0,10.0,12.0,9.0,16.0,3.0,8.0,24.0,8.0,9.0,29.9,NBA,40.0,1.0,5.0,35.0,2010,3.0,TOT,5.0,11.0
29.0,3.0,2.0,10.0,12.0,9.0,16.0,3.0,8.0,24.0,8.0,9.0,29.9,NBA,40.0,1.0,5.0,35.0,2010,3.0,DAL,5.0,11.0
31.0,3.0,1.0,6.0,6.0,5.0,9.0,3.0,7.0,13.0,3.0,4.0,7.7,NBA,32.0,2.0,5.0,15.0,2012,2.0,LAC,3.0,6.0
32.0,0.0,1.0,6.0,7.0,7.0,12.0,2.0,4.0,16.0,2.0,2.0,11.5,NBA,33.0,1.0,3.0,14.0,2013,1.0,LAC,2.0,7.0
33.0,3.0,1.0,5.0,5.0,3.0,6.0,4.0,8.0,10.0,8.0,9.0,11.9,NBA,41.0,3.0,5.0,15.0,2014,2.0,TOT,3.0,6.0
33.0,3.0,1.0,5.0,5.0,3.0,6.0,4.0,8.0,10.0,8.0,9.0,11.9,NBA,41.0,3.0,5.0,15.0,2014,2.0,OKC,3.0,6.0
