age,and1s,astd_pts,drawn_offensive,drawn_shooting,fouls_offensive,fouls_shooting,g,lg_id,mp,own_shots_blk,pct_1,pct_2,pct_3,pct_4,pct_5,plus_minus_net,plus_minus_on,pos,season,team_id,tov_bad_pass,tov_lost_ball
22.0,31.0,462.0,0.0,145.0,43.0,81.0,78.0,NBA,2858.0,95.0,0.0,0.0,94.0,6.0,0.0,-5.6,-7.2,SF,2003,MIA,64.0,66.0
23.0,11.0,296.0,0.0,67.0,17.0,74.0,68.0,NBA,2030.0,58.0,0.0,8.0,92.0,1.0,0.0,2.7,1.9,SF,2004,MIA,38.0,28.0
24.0,33.0,345.0,0.0,140.0,38.0,60.0,77.0,NBA,2746.0,71.0,0.0,24.0,76.0,0.0,0.0,-3.9,-4.7,SF,2005,LAL,49.0,24.0
25.0,24.0,413.0,15.0,137.0,39.0,85.0,75.0,NBA,2708.0,59.0,0.0,33.0,61.0,6.0,0.0,-0.5,1.8,SF,2006,WAS,57.0,46.0
26.0,27.0,526.0,11.0,125.0,33.0,60.0,63.0,NBA,2474.0,63.0,0.0,0.0,77.0,23.0,0.0,5.0,1.1,SF,2007,WAS,60.0,44.0
27.0,22.0,633.0,5.0,95.0,21.0,64.0,58.0,NBA,2314.0,47.0,0.0,4.0,92.0,4.0,0.0,10.0,3.7,SF,2008,WAS,76.0,37.0
28.0,43.0,646.0,4.0,172.0,23.0,66.0,67.0,NBA,2585.0,68.0,0.0,40.0,59.0,0.0,0.0,1.0,-7.9,SG,2009,WAS,101.0,54.0
29.0,15.0,357.0,1.0,118.0,30.0,90.0,74.0,NBA,2783.0,69.0,0.0,13.0,84.0,3.0,0.0,0.5,-1.0,SF-SG,2010,TOT,48.0,41.0
29.0,11.0,246.0,0.0,74.0,22.0,58.0,47.0,NBA,1853.0,43.0,0.0,4.0,93.0,3.0,0.0,4.3,-3.2,SF,2010,WAS,34.0,27.0
29.0,4.0,111.0,1.0,44.0,8.0,32.0,27.0,NBA,930.0,26.0,0.0,31.0,67.0,2.0,0.0,0.7,3.4,SG,2010,DAL,14.0,14.0
30.0,8.0,113.0,0.0,39.0,13.0,21.0,29.0,NBA,867.0,21.0,0.0,0.0,65.0,35.0,0.0,4.6,8.3,SF,2011,DAL,9.0,11.0
31.0,7.0,178.0,6.0,45.0,12.0,56.0,63.0,NBA,1871.0,41.0,0.0,1.0,95.0,3.0,0.0,12.4,8.1,SF,2012,LAC,24.0,19.0
32.0,8.0,182.0,4.0,35.0,17.0,61.0,78.0,NBA,1879.0,29.0,0.0,1.0,95.0,4.0,0.0,-0.3,6.8,SF,2013,LAC,19.0,22.0
33.0,3.0,192.0,4.0,24.0,11.0,52.0,56.0,NBA,1419.0,13.0,0.0,22.0,72.0,6.0,0.0,-6.3,-6.1,SF,2014,TOT,27.0,13.0
33.0,3.0,130.0,2.0,18.0,10.0,22.0,34.0,NBA,821.0,10.0,0.0,23.0,71.0,5.0,0.0,-4.3,-12.4,SF,2014,MIL,22.0,11.0
33.0,0.0,62.0,2.0,6.0,1.0,30.0,22.0,NBA,598.0,3.0,0.0,20.0,74.0,6.0,0.0,-5.5,2.2,SF,2014,OKC,5.0,2.0
34.0,6.0,184.0,3.0,19.0,6.0,65.0,78.0,NBA,1623.0,8.0,0.0,12.0,88.0,0.0,0.0,0.2,-1.3,SF,2015,DET,32.0,6.0
35.0,1.0,24.0,0.0,4.0,0.0,11.0,17.0,NBA,176.0,0.0,0.0,7.0,85.0,8.0,0.0,-10.5,-12.9,SF,2016,SAC,1.0,1.0
