age,ast_per_g,blk_per_g,drb_per_g,efg_pct,fg2_pct,fg2_per_g,fg2a_per_g,fg3_pct,fg3_per_g,fg3a_per_g,fg_pct,fg_per_g,fga_per_g,ft_pct,ft_per_g,fta_per_g,g,gs,lg_id,mp_per_g,orb_per_g,pf_per_g,pos,pts_per_g,season,stl_per_g,team_id,tov_per_g,trb_per_g
21.0,0.5,0.0,0.3,0.473,0.385,0.6,1.6,0.39,0.5,1.2,0.387,1.1,2.8,0.778,0.2,0.3,33.0,0.0,NBA,7.3,0.1,0.5,SG,2.9,2008,0.2,GSW,0.4,0.4
22.0,2.1,0.0,1.5,0.524,0.473,2.1,4.4,0.397,1.2,3.1,0.442,3.3,7.5,0.769,1.0,1.2,42.0,23.0,NBA,21.0,0.2,1.7,SG,8.9,2009,0.9,GSW,1.4,1.7
23.0,1.3,0.1,1.2,0.485,0.425,1.4,3.3,0.38,0.9,2.4,0.406,2.3,5.7,0.835,1.5,1.8,66.0,1.0,NBA,17.0,0.2,1.2,SG,7.1,2010,0.6,TOR,0.9,1.4
24.0,1.2,0.1,1.7,0.534,0.458,2.1,4.6,0.414,1.7,4.1,0.437,3.8,8.6,0.784,1.2,1.6,80.0,69.0,NBA,24.5,0.2,1.8,SG,10.5,2011,0.5,NOH,1.0,1.9
25.0,1.5,0.1,2.3,0.495,0.445,2.7,6.1,0.377,1.6,4.3,0.417,4.3,10.4,0.783,1.5,2.0,66.0,55.0,NBA,29.8,0.3,1.7,SG,11.8,2012,0.7,NOH,1.0,2.6
26.0,2.0,0.1,1.7,0.46,0.416,2.2,5.3,0.357,1.1,3.0,0.395,3.3,8.4,0.839,1.9,2.3,73.0,27.0,NBA,25.8,0.2,1.9,SG,9.6,2013,0.6,CHI,1.1,1.9
27.0,2.2,0.1,2.6,0.576,0.525,2.6,5.0,0.43,1.6,3.7,0.485,4.2,8.7,0.847,1.4,1.6,80.0,25.0,NBA,25.2,0.2,1.6,SF,11.4,2014,0.6,SAS,1.2,2.8
28.0,1.5,0.0,2.1,0.515,0.471,1.8,3.9,0.374,1.4,3.7,0.423,3.2,7.6,0.848,1.4,1.6,62.0,9.0,NBA,22.4,0.4,1.4,SG,9.2,2015,0.5,SAS,1.0,2.5
29.0,1.9,0.0,1.6,0.457,0.456,2.3,5.0,0.306,1.3,4.4,0.386,3.6,9.3,0.833,1.7,2.0,68.0,7.0,NBA,24.6,0.1,1.3,SG,10.2,2016,0.5,SAC,1.2,1.7
30.0,2.0,0.1,2.2,0.512,0.488,2.2,4.5,0.36,1.4,3.8,0.429,3.6,8.3,0.893,2.0,2.3,74.0,0.0,NBA,24.0,0.2,1.2,SG,10.5,2017,0.6,CHO,0.9,2.4
31.0,1.9,0.2,1.6,0.539,0.509,2.4,4.6,0.377,1.9,4.9,0.441,4.2,9.6,0.908,1.9,2.0,80.0,2.0,NBA,24.3,0.3,1.1,SG,12.1,2018,0.8,TOT,1.2,1.9
31.0,2.0,0.1,1.7,0.505,0.45,2.1,4.6,0.372,1.8,4.8,0.41,3.8,9.3,0.927,1.9,2.1,52.0,1.0,NBA,23.3,0.3,0.8,SG,11.4,2018,0.9,ATL,1.0,1.9
31.0,1.6,0.3,1.6,0.597,0.618,2.9,4.7,0.385,2.0,5.3,0.495,4.9,10.0,0.87,1.7,1.9,28.0,1.0,NBA,26.3,0.2,1.8,SG,13.6,2018,0.7,PHI,1.4,1.8
32.0,1.7,0.1,2.3,0.52,0.468,1.7,3.7,0.372,1.9,5.0,0.413,3.6,8.7,0.903,1.4,1.6,79.0,1.0,NBA,23.0,0.2,1.5,SG,10.5,2019,0.4,SAS,0.9,2.5
33.0,1.1,0.0,1.5,0.29,0.304,0.9,2.9,0.185,0.6,3.4,0.24,1.5,6.3,0.714,0.6,0.9,8.0,0.0,NBA,16.8,0.0,1.0,SG,4.3,2020,0.3,SAS,0.6,1.5
