age,ast,blk,drb,fg,fg2,fg2a,fg3,fg3a,fga,ft,fta,game_score,lg_id,mp,orb,pf,pts,season,stl,team_id,tov,trb
23.0,4.0,0.0,4.0,7.0,6.0,10.0,3.0,5.0,15.0,0.0,0.0,13.0,NBA,0.0,3.0,4.0,15.0,1997,1.0,CHH,2.0,7.0
26.0,3.0,0.0,4.0,5.0,5.0,11.0,1.0,2.0,12.0,7.0,10.0,17.0,NBA,0.0,5.0,4.0,17.0,2000,1.0,SAC,3.0,6.0
27.0,2.0,0.0,4.0,8.0,6.0,12.0,2.0,6.0,14.0,5.0,6.0,11.1,NBA,0.0,2.0,4.0,18.0,2001,2.0,PHO,3.0,6.0
28.0,4.0,1.0,5.0,6.0,3.0,6.0,3.0,5.0,11.0,2.0,4.0,12.8,NBA,0.0,3.0,3.0,16.0,2002,2.0,TOT,3.0,6.0
28.0,4.0,1.0,5.0,6.0,3.0,6.0,3.0,5.0,11.0,2.0,4.0,12.8,NBA,0.0,3.0,3.0,16.0,2002,2.0,BOS,3.0,6.0
29.0,6.0,1.0,8.0,10.0,7.0,11.0,4.0,8.0,16.0,6.0,8.0,23.2,NBA,0.0,1.0,4.0,23.0,2003,5.0,BOS,3.0,9.0
30.0,2.0,0.0,1.0,0.0,0.0,0.0,0.0,0.0,0.0,0.0,0.0,2.7,NBA,0.0,0.0,0.0,0.0,2004,1.0,DAL,0.0,1.0
32.0,3.0,0.0,3.0,3.0,3.0,6.0,1.0,3.0,7.0,2.0,2.0,7.7,NBA,16.0,2.0,3.0,8.0,2006,2.0,TOT,2.0,3.0
32.0,3.0,0.0,3.0,3.0,3.0,6.0,1.0,3.0,7.0,2.0,2.0,7.7,NBA,16.0,2.0,3.0,8.0,2006,2.0,DET,2.0,3.0
