age,ast_per_poss,blk_per_poss,def_rtg,drb_per_poss,fg2_pct,fg2_per_poss,fg2a_per_poss,fg3_pct,fg3_per_poss,fg3a_per_poss,fg_pct,fg_per_poss,fga_per_poss,ft_pct,ft_per_poss,fta_per_poss,g,gs,lg_id,mp,off_rtg,orb_per_poss,pf_per_poss,pos,pts_per_poss,season,stl_per_poss,team_id,tov_per_poss,trb_per_poss
23.0,6.2,0.4,110.0,4.3,0.465,4.2,9.0,0.464,3.3,7.0,0.465,7.4,16.0,0.824,2.6,3.2,61.0,1.0,NBA,867.0,108.0,1.9,4.4,PG,20.8,1997,2.3,CHH,4.3,6.2
24.0,5.4,0.4,107.0,4.2,0.424,8.5,20.0,0.268,1.3,4.9,0.393,9.8,24.9,0.735,3.5,4.7,77.0,9.0,NBA,1681.0,94.0,1.2,3.0,PG,24.4,1998,2.3,TOT,3.4,5.4
24.0,4.7,0.0,112.0,3.2,0.667,3.2,4.7,1.0,1.6,1.6,0.75,4.7,6.3,0.5,1.6,3.2,3.0,0.0,NBA,34.0,87.0,0.0,12.6,PG,12.6,1998,0.0,CHH,6.3,3.2
24.0,5.4,0.4,107.0,4.2,0.423,8.6,20.3,0.263,1.3,5.0,0.392,9.9,25.3,0.738,3.5,4.7,74.0,9.0,NBA,1647.0,94.0,1.2,2.8,PG,24.6,1998,2.3,GSW,3.3,5.4
25.0,8.1,0.5,105.0,3.7,0.406,6.5,16.0,0.242,1.4,5.7,0.364,7.9,21.7,0.648,3.9,6.1,36.0,13.0,NBA,630.0,94.0,0.9,4.0,PG,21.1,1999,1.4,GSW,3.9,4.6
26.0,3.9,0.4,104.0,3.7,0.464,7.9,16.9,0.225,0.6,2.8,0.43,8.5,19.8,0.797,3.3,4.2,46.0,1.0,NBA,682.0,102.0,2.6,4.1,PG,21.0,2000,2.5,SAC,2.3,6.2
27.0,3.6,0.4,101.0,4.2,0.436,7.4,17.0,0.321,1.2,3.8,0.415,8.6,20.8,0.787,4.2,5.3,82.0,11.0,NBA,2288.0,100.0,1.7,3.9,SG,22.6,2001,1.7,PHO,2.3,5.9
28.0,4.8,0.4,105.0,5.2,0.425,5.7,13.5,0.313,2.4,7.7,0.384,8.2,21.2,0.804,2.8,3.5,63.0,17.0,NBA,1447.0,102.0,2.1,3.5,SG,21.6,2002,1.9,TOT,2.1,7.3
28.0,4.8,0.2,106.0,5.1,0.442,7.1,16.1,0.32,2.8,8.8,0.399,9.9,24.9,0.836,3.4,4.0,41.0,1.0,NBA,877.0,104.0,2.3,3.6,SG,26.0,2002,1.9,PHO,2.4,7.4
28.0,4.6,0.5,103.0,5.4,0.381,3.6,9.6,0.299,1.8,6.1,0.349,5.5,15.7,0.733,2.0,2.7,22.0,16.0,NBA,570.0,96.0,1.8,3.5,SG,14.7,2002,2.0,BOS,1.7,7.2
29.0,4.1,0.3,103.0,5.4,0.441,3.2,7.2,0.395,3.4,8.6,0.416,6.6,15.8,0.782,1.9,2.5,67.0,39.0,NBA,1873.0,108.0,1.2,3.5,PG,18.4,2003,2.0,BOS,1.9,6.5
30.0,2.8,0.7,107.0,4.4,0.424,5.1,11.9,0.303,2.0,6.7,0.38,7.1,18.6,0.841,3.7,4.5,33.0,11.0,NBA,509.0,105.0,1.6,4.7,SG,19.9,2004,2.7,DAL,1.7,6.0
31.0,4.1,0.1,113.0,4.0,0.447,6.8,15.2,0.356,2.8,7.9,0.416,9.6,23.2,0.757,4.0,5.3,56.0,1.0,NBA,1340.0,108.0,1.1,4.8,SG,26.1,2005,1.8,ATL,2.1,5.1
32.0,4.7,0.1,105.0,5.6,0.447,7.3,16.4,0.426,2.9,6.7,0.441,10.2,23.1,0.741,2.9,3.9,24.0,0.0,NBA,385.0,106.0,2.0,4.0,PG-SG,26.1,2006,1.9,TOT,2.7,7.6
32.0,0.0,0.0,115.0,7.6,0.0,0.0,7.6,0.0,0.0,0.0,0.0,0.0,7.6,1.0,15.2,15.2,1.0,0.0,NBA,7.0,145.0,7.6,0.0,SG,15.2,2006,0.0,ATL,0.0,15.2
32.0,4.8,0.1,105.0,5.6,0.451,7.5,16.5,0.426,2.9,6.9,0.444,10.4,23.4,0.72,2.6,3.7,23.0,0.0,NBA,378.0,106.0,1.9,4.1,PG,26.3,2006,1.9,DET,2.8,7.5
