article_url,date,headline
https://www.hoopsrumors.com/2019/10/2019-offseason-in-review-utah-jazz.html,2019/10/20,HoopsRumors: 2019 Offseason In Review: Utah Jazz
https://thunderousintentions.com/2019/10/23/okc-thunder-vs-utah-jazz-2019-20-team-preview/,2019/10/23,"Thunderous Intentions: OKC Thunder vs. Utah Jazz, 2019-20 team preview"
https://www.hoopsrumors.com/2019/10/201920-overunders-northwest-division.html,2019/10/20,HoopsRumors: 2019/20 Over/Unders: Northwest Division
https://thejnotes.com/2019/10/06/utah-jazz-good-bad-ugly-preseason-blowout-adelaide/,2019/10/06,"Purple and Blues: Utah Jazz: The good, the bad, the ugly from preseason blowout over Adelaide"
