age,ast,blk,drb,efg_pct,fg,fg2,fg2_pct,fg2a,fg3,fg3_pct,fg3a,fg_pct,fga,ft,ft_pct,fta,g,gs,lg_id,mp,orb,pf,pos,pts,season,stl,team_id,tov,trb
25.0,0.0,0.0,0.0,0.5,1.0,1.0,0.5,2.0,0.0,0.0,0.0,0.5,2.0,0.0,0.0,0.0,1.0,0.0,NBA,4.0,2.0,0.0,C,2.0,2012,0.0,NYK,0.0,2.0
28.0,0.0,0.0,1.0,0.0,0.0,0.0,0.0,2.0,0.0,0.0,0.0,0.0,2.0,0.0,0.0,0.0,1.0,0.0,NBA,5.0,1.0,0.0,C,0.0,2015,0.0,BRK,1.0,2.0
