age,ast,blk,drb,fg,fg2,fg2a,fg3,fg3a,fga,ft,fta,game_score,lg_id,mp,orb,pf,pts,season,stl,team_id,tov,trb
25.0,0.0,0.0,0.0,1.0,1.0,2.0,0.0,0.0,2.0,0.0,0.0,2.4,NBA,4,2.0,0.0,2.0,2012,0.0,NYK,0.0,2.0
28.0,0.0,0.0,1.0,0.0,0.0,2.0,0.0,0.0,2.0,0.0,0.0,-1.4,NBA,5,1.0,0.0,0.0,2015,0.0,BRK,1.0,2.0
