age,ast_per_mp,blk_per_mp,drb_per_mp,fg2_pct,fg2_per_mp,fg2a_per_mp,fg3_pct,fg3_per_mp,fg3a_per_mp,fg_pct,fg_per_mp,fga_per_mp,ft_pct,ft_per_mp,fta_per_mp,g,gs,lg_id,mp,orb_per_mp,pf_per_mp,pos,pts_per_mp,season,stl_per_mp,team_id,tov_per_mp,trb_per_mp
24.0,1.4,1.4,7.0,0.553,5.2,9.5,0.0,0.0,0.0,0.553,5.2,9.5,0.659,3.4,5.1,12.0,0.0,NBA,289.0,4.1,4.5,C,13.8,1994,0.5,DEN,2.1,11.1
25.0,1.6,0.8,10.6,0.556,8.2,14.7,0.0,0.0,0.0,0.556,8.2,14.7,1.0,3.3,3.3,3.0,0.0,NBA,44.0,4.1,12.3,C,19.6,1995,0.0,DEN,8.2,14.7
27.0,1.2,0.9,4.3,0.481,5.4,11.1,0.0,0.0,0.0,0.481,5.4,11.1,0.516,1.7,3.3,19.0,0.0,NBA,336.0,3.3,6.8,C,12.4,1997,2.0,CHI,1.5,7.6
29.0,0.3,0.6,5.9,0.6,7.1,11.8,0.0,0.0,0.0,0.6,7.1,11.8,0.556,1.5,2.7,5.0,5.0,NBA,122.0,3.5,7.4,C,15.6,1999,0.9,DET,2.1,9.4
