age,ast_pct,blk_pct,bpm,bpm-dum,dbpm,drb_pct,dws,fg3a_per_fga_pct,fta_per_fga_pct,g,lg_id,mp,obpm,orb_pct,ows,per,pos,season,stl_pct,team_id,tov_pct,trb_pct,ts_pct,usg_pct,vorp,ws,ws-dum,ws_per_48
18.0,5.2,0.9,-6.3,0.0,-2.0,13.8,0.1,0.089,0.268,21.0,NBA,160.0,-4.3,15.1,-0.3,6.4,PF,1999,1.4,IND,14.9,14.5,0.359,22.0,-0.2,-0.2,0.0,-0.049
19.0,7.1,0.7,-2.6,0.0,-0.3,14.2,0.9,0.129,0.42,50.0,NBA,854.0,-2.3,6.4,0.1,10.8,PF,2000,1.5,IND,17.2,10.4,0.524,20.1,-0.1,1.0,0.0,0.057
20.0,11.8,0.7,-2.5,0.0,0.7,15.2,2.2,0.013,0.289,78.0,NBA,1892.0,-3.2,7.4,-1.0,10.2,PF,2001,1.8,IND,19.5,11.4,0.479,18.8,-0.2,1.2,0.0,0.031
21.0,7.3,1.1,-1.2,0.0,-0.2,15.1,1.4,0.006,0.298,44.0,NBA,1313.0,-1.0,8.5,1.2,14.3,PF,2002,1.6,IND,12.5,11.9,0.526,21.6,0.3,2.6,0.0,0.094
22.0,8.8,1.0,-1.8,0.0,0.2,15.7,3.2,0.051,0.306,82.0,NBA,2467.0,-2.0,7.4,0.7,12.4,SF,2003,1.5,IND,13.8,11.6,0.493,21.6,0.1,3.9,0.0,0.075
23.0,10.3,0.7,0.4,0.0,1.0,16.9,4.1,0.085,0.277,79.0,NBA,2441.0,-0.6,7.8,1.8,14.9,PF,2004,1.8,IND,13.8,12.3,0.514,22.9,1.5,5.9,0.0,0.116
24.0,14.5,0.5,-1.3,0.0,-0.8,15.2,1.0,0.075,0.356,66.0,NBA,2550.0,-0.5,6.3,0.6,14.4,SF,2005,1.8,ATL,15.2,10.5,0.508,23.6,0.4,1.6,0.0,0.03
25.0,15.8,0.4,-1.1,0.0,-1.6,17.4,1.2,0.157,0.287,76.0,NBA,2782.0,0.5,5.5,2.6,16.0,PF,2006,1.6,ATL,12.4,11.3,0.513,25.6,0.6,3.8,0.0,0.065
26.0,9.8,0.7,-0.8,0.0,-1.1,15.4,2.2,0.271,0.223,78.0,NBA,2563.0,0.3,6.5,2.0,14.8,PF,2007,1.3,TOT,12.4,10.9,0.54,23.1,0.7,4.3,0.0,0.08
26.0,7.8,0.6,-1.7,0.0,-1.1,15.1,1.1,0.242,0.207,36.0,NBA,1208.0,-0.6,6.7,0.3,13.4,PF,2007,1.1,IND,14.6,10.8,0.538,23.1,0.1,1.5,0.0,0.059
26.0,11.6,0.8,-0.1,0.0,-1.1,15.7,1.1,0.294,0.237,42.0,NBA,1355.0,1.0,6.4,1.7,16.1,PF,2007,1.4,GSW,10.6,10.9,0.542,23.1,0.7,2.8,0.0,0.099
27.0,8.9,0.5,-0.1,0.0,-1.6,16.9,1.7,0.442,0.206,81.0,NBA,2190.0,1.6,5.0,3.7,15.6,C,2008,1.6,GSW,8.2,10.7,0.547,21.1,1.1,5.4,0.0,0.118
28.0,6.8,0.6,-1.1,0.0,-1.7,15.8,2.0,0.388,0.243,73.0,NBA,2546.0,0.6,4.1,1.9,15.9,PF,2009,1.7,TOT,10.7,9.8,0.547,25.7,0.6,3.9,0.0,0.073
28.0,8.9,0.0,-4.6,0.0,-2.7,11.8,0.1,0.4,0.143,5.0,NBA,166.0,-1.9,6.6,-0.2,8.8,PF,2009,2.1,GSW,8.6,9.2,0.417,20.9,-0.1,-0.1,0.0,-0.03
28.0,6.6,0.7,-0.8,0.0,-1.6,16.1,1.9,0.387,0.25,68.0,NBA,2380.0,0.7,4.0,2.1,16.4,PF,2009,1.7,NYK,10.8,9.8,0.555,26.0,0.7,4.0,0.0,0.08
29.0,8.6,0.9,-1.9,0.0,-2.6,16.7,1.3,0.397,0.308,72.0,NBA,2195.0,0.7,4.5,2.2,16.8,PF,2010,1.4,NYK,10.1,10.5,0.546,26.8,0.1,3.5,0.0,0.077
30.0,9.6,0.5,-1.1,0.0,-1.2,17.2,1.5,0.486,0.173,73.0,NBA,1665.0,0.2,5.4,0.6,12.3,PF,2011,1.2,DEN,12.7,11.5,0.527,22.3,0.4,2.1,0.0,0.06
31.0,8.2,0.5,-0.5,0.0,-1.3,20.4,1.6,0.392,0.228,64.0,NBA,1761.0,0.8,4.9,1.6,15.3,PF,2012,1.7,DEN,11.6,12.9,0.535,24.4,0.6,3.2,0.0,0.088
32.0,13.7,0.6,-3.8,0.0,-2.1,19.9,0.1,0.526,0.07,10.0,NBA,119.0,-1.7,5.7,-0.1,10.3,C,2013,1.8,ORL,10.6,12.8,0.434,25.1,-0.1,0.0,0.0,-0.012
33.0,8.7,0.0,-4.6,0.0,-2.4,15.0,0.5,0.483,0.169,34.0,NBA,511.0,-2.2,3.3,-0.2,9.7,PF,2014,1.4,WAS,13.3,9.1,0.506,22.7,-0.3,0.4,0.0,0.035
