age,and1s,astd_pts,drawn_offensive,drawn_shooting,fouls_offensive,fouls_shooting,g,lg_id,mp,own_shots_blk,pct_1,pct_2,pct_3,pct_4,pct_5,plus_minus_net,plus_minus_on,pos,season,team_id,tov_bad_pass,tov_lost_ball
20.0,11.0,287.0,0.0,65.0,39.0,74.0,78.0,NBA,1892.0,48.0,0.0,1.0,70.0,28.0,1.0,0.3,0.1,PF,2001,IND,53.0,31.0
21.0,15.0,123.0,0.0,64.0,25.0,59.0,44.0,NBA,1313.0,26.0,0.0,0.0,41.0,58.0,1.0,-2.4,-1.6,PF,2002,IND,17.0,20.0
22.0,25.0,286.0,0.0,118.0,40.0,97.0,82.0,NBA,2467.0,83.0,0.0,5.0,57.0,38.0,0.0,-1.8,2.9,SF,2003,IND,42.0,51.0
23.0,26.0,307.0,0.0,104.0,30.0,95.0,79.0,NBA,2441.0,80.0,0.0,0.0,43.0,57.0,0.0,-11.4,2.3,PF,2004,IND,50.0,50.0
24.0,35.0,463.0,0.0,158.0,39.0,78.0,66.0,NBA,2550.0,74.0,0.0,0.0,61.0,39.0,1.0,-0.7,-10.9,SF,2005,ATL,69.0,63.0
25.0,33.0,531.0,24.0,150.0,40.0,129.0,76.0,NBA,2782.0,71.0,0.0,0.0,20.0,73.0,7.0,-4.0,-6.6,PF,2006,ATL,82.0,41.0
26.0,18.0,345.0,34.0,99.0,34.0,138.0,78.0,NBA,2563.0,60.0,0.0,0.0,12.0,65.0,24.0,0.4,-1.5,PF,2007,TOT,54.0,36.0
26.0,9.0,124.0,14.0,42.0,22.0,54.0,36.0,NBA,1208.0,31.0,0.0,0.0,25.0,63.0,12.0,-0.5,-3.4,PF,2007,IND,30.0,15.0
26.0,9.0,221.0,20.0,57.0,12.0,84.0,42.0,NBA,1355.0,29.0,0.0,0.0,0.0,66.0,34.0,0.9,0.1,PF,2007,GSW,24.0,21.0
27.0,17.0,306.0,39.0,80.0,17.0,132.0,81.0,NBA,2190.0,40.0,0.0,0.0,0.0,47.0,53.0,1.2,2.5,C,2008,GSW,26.0,27.0
28.0,27.0,244.0,18.0,131.0,28.0,93.0,73.0,NBA,2546.0,78.0,0.0,0.0,10.0,83.0,7.0,2.9,-1.4,PF,2009,TOT,54.0,50.0
28.0,0.0,23.0,3.0,4.0,2.0,6.0,5.0,NBA,166.0,6.0,0.0,0.0,21.0,79.0,1.0,-2.2,-6.1,PF,2009,GSW,0.0,2.0
28.0,27.0,221.0,15.0,127.0,26.0,87.0,68.0,NBA,2380.0,72.0,0.0,0.0,9.0,84.0,7.0,4.2,-1.1,PF,2009,NYK,54.0,48.0
29.0,34.0,251.0,23.0,145.0,25.0,104.0,72.0,NBA,2195.0,51.0,0.0,0.0,27.0,60.0,14.0,-2.1,-4.8,PF,2010,NYK,43.0,40.0
30.0,13.0,235.0,13.0,51.0,23.0,93.0,73.0,NBA,1665.0,43.0,0.0,0.0,1.0,89.0,11.0,-1.4,4.3,PF,2011,DEN,34.0,33.0
31.0,15.0,211.0,15.0,74.0,27.0,68.0,64.0,NBA,1761.0,51.0,0.0,0.0,0.0,81.0,19.0,3.8,5.0,PF,2012,DEN,42.0,31.0
32.0,0.0,23.0,0.0,2.0,1.0,7.0,10.0,NBA,119.0,1.0,0.0,0.0,0.0,21.0,79.0,-9.7,-17.2,C,2013,ORL,4.0,1.0
33.0,5.0,64.0,8.0,19.0,8.0,28.0,34.0,NBA,511.0,10.0,0.0,0.0,0.0,94.0,6.0,3.1,4.0,PF,2014,WAS,10.0,7.0
