age,ast_per_mp,blk_per_mp,drb_per_mp,fg2_pct,fg2_per_mp,fg2a_per_mp,fg3_pct,fg3_per_mp,fg3a_per_mp,fg_pct,fg_per_mp,fga_per_mp,ft_pct,ft_per_mp,fta_per_mp,g,gs,lg_id,mp,orb_per_mp,pf_per_mp,pos,pts_per_mp,season,stl_per_mp,team_id,tov_per_mp,trb_per_mp
20.0,2.7,0.0,0.9,0.182,1.8,9.9,0.0,0.0,1.8,0.154,1.8,11.7,0.5,0.9,1.8,3.0,0.0,NBA,40.0,2.7,7.2,PF,4.5,2001,0.0,IND,0.9,3.6
22.0,1.7,1.0,5.2,0.241,2.4,10.1,0.0,0.0,1.4,0.212,2.4,11.5,0.667,1.4,2.1,6.0,0.0,NBA,103.0,2.4,7.3,SF,6.3,2003,2.1,IND,3.5,7.7
23.0,1.0,0.8,5.8,0.43,4.9,11.4,0.4,0.2,0.4,0.429,5.1,11.8,0.545,2.5,4.6,16.0,2.0,NBA,427.0,2.8,4.7,PF,12.8,2004,1.9,IND,2.4,8.6
26.0,0.8,1.0,4.7,0.4,3.3,8.2,0.395,2.1,5.2,0.398,5.4,13.5,0.633,2.6,4.1,11.0,5.0,NBA,262.0,2.3,5.5,PF,15.4,2007,0.7,GSW,1.4,7.0
30.0,2.6,0.0,3.1,0.417,2.6,6.2,0.5,2.6,5.1,0.455,5.1,11.3,0.75,1.5,2.1,5.0,0.0,NBA,70.0,0.5,3.6,PF,14.4,2011,1.5,DEN,2.1,3.6
31.0,1.3,0.2,5.1,0.35,3.1,8.8,0.286,2.2,7.7,0.32,5.3,16.6,0.667,2.2,3.3,7.0,0.0,NBA,163.0,1.5,2.9,PF,15.0,2012,0.7,DEN,0.7,6.6
33.0,0.0,0.0,9.2,0.75,3.7,4.9,0.0,0.0,4.3,0.4,3.7,9.2,0.714,3.1,4.3,7.0,0.0,NBA,59.0,0.6,8.5,PF,10.4,2014,1.8,WAS,2.4,9.8
