age,ast_per_mp,blk_per_mp,drb_per_mp,fg2_pct,fg2_per_mp,fg2a_per_mp,fg3_pct,fg3_per_mp,fg3a_per_mp,fg_pct,fg_per_mp,fga_per_mp,ft_pct,ft_per_mp,fta_per_mp,g,gs,lg_id,mp,orb_per_mp,pf_per_mp,pos,pts_per_mp,season,stl_per_mp,team_id,tov_per_mp,trb_per_mp
23.0,6.5,0.0,3.8,0.554,5.1,9.3,0.269,1.2,4.3,0.463,6.3,13.6,0.5,3.8,7.6,32.0,0.0,NBA,217.0,1.0,2.8,PG,17.6,2010,2.0,UTA,2.3,4.8
24.0,5.0,0.1,3.0,0.493,3.9,8.0,0.237,1.1,4.5,0.4,5.0,12.6,0.5,2.2,4.3,24.0,0.0,NBA,301.0,1.6,3.0,PG,13.3,2011,1.9,TOT,3.2,4.5
24.0,3.3,0.0,2.8,0.313,2.8,8.9,0.333,1.1,3.3,0.318,3.9,12.2,0.5,2.8,5.5,8.0,0.0,NBA,65.0,0.6,2.2,PG,11.6,2011,1.7,MIN,3.3,3.3
24.0,4.4,0.4,2.4,0.6,4.8,8.0,0.2,1.2,6.0,0.429,6.0,14.0,0.333,0.8,2.4,6.0,0.0,NBA,90.0,0.8,4.0,PG,14.0,2011,1.6,TOR,3.2,3.2
24.0,6.2,0.0,3.5,0.516,3.9,7.6,0.235,1.0,4.2,0.417,4.9,11.8,0.55,2.7,4.9,10.0,0.0,NBA,146.0,2.5,2.7,PG,13.6,2011,2.2,NJN,3.2,5.9
25.0,5.7,0.1,3.7,0.392,3.4,8.6,0.341,1.3,3.7,0.376,4.6,12.3,0.615,2.7,4.4,57.0,12.0,NBA,793.0,1.2,2.6,SG,13.2,2012,2.5,NJN,2.4,4.9
