age,ast,blk,drb,efg_pct,fg,fg2,fg2_pct,fg2a,fg3,fg3_pct,fg3a,fg_pct,fga,ft,ft_pct,fta,g,gs,lg_id,mp,orb,pf,pos,pts,season,stl,team_id,tov,trb
26.0,5.0,0.0,7.0,0.341,7.0,6.0,0.353,17.0,1.0,0.2,5.0,0.318,22.0,2.0,0.667,3.0,4.0,0.0,NBA,55.0,4.0,5.0,PG,17.0,2001,4.0,MIN,2.0,11.0
27.0,1.0,0.0,0.0,0.375,1.0,0.0,0.0,2.0,1.0,0.5,2.0,0.25,4.0,1.0,0.5,2.0,3.0,0.0,NBA,30.0,1.0,6.0,SG,4.0,2002,1.0,MIN,1.0,1.0
