age,ast_per_mp,blk_per_mp,drb_per_mp,fg2_pct,fg2_per_mp,fg2a_per_mp,fg3_pct,fg3_per_mp,fg3a_per_mp,fg_pct,fg_per_mp,fga_per_mp,ft_pct,ft_per_mp,fta_per_mp,g,gs,lg_id,mp,orb_per_mp,pf_per_mp,pos,pts_per_mp,season,stl_per_mp,team_id,tov_per_mp,trb_per_mp
22.0,2.6,0.5,4.6,0.492,7.6,15.5,0.2,0.0,0.1,0.49,7.7,15.6,0.687,3.3,4.8,82.0,80.0,NBA,2706.0,4.1,4.1,SF,18.7,1986,1.3,SEA,3.3,8.7
23.0,2.5,0.6,4.4,0.512,9.5,18.6,0.214,0.0,0.2,0.509,9.6,18.8,0.696,3.3,4.7,82.0,82.0,NBA,3031.0,4.0,3.6,SF,22.4,1987,1.4,SEA,2.8,8.4
24.0,3.5,0.7,4.2,0.496,9.0,18.1,0.28,0.2,0.7,0.488,9.1,18.7,0.715,3.7,5.2,78.0,77.0,NBA,2703.0,2.7,3.1,SF,22.2,1988,1.3,SEA,3.0,6.9
25.0,2.0,0.6,3.9,0.494,10.1,20.4,0.306,0.2,0.5,0.489,10.2,20.9,0.732,4.7,6.4,82.0,10.0,NBA,2385.0,2.7,3.5,SF,25.3,1989,1.3,SEA,3.2,6.5
26.0,2.5,0.5,4.2,0.498,9.0,18.0,0.294,0.1,0.3,0.496,9.0,18.3,0.733,3.6,4.9,69.0,67.0,NBA,2432.0,2.4,3.4,SF,21.8,1990,1.1,SEA,2.8,6.6
27.0,2.6,0.6,5.2,0.501,8.1,16.1,0.0,0.0,0.1,0.497,8.1,16.2,0.723,2.6,3.6,81.0,79.0,NBA,2634.0,2.4,3.6,SF,18.8,1991,1.0,TOT,2.5,7.6
27.0,2.6,0.3,3.1,0.484,9.5,19.5,0.0,0.0,0.2,0.479,9.5,19.7,0.71,3.3,4.7,15.0,15.0,NBA,529.0,2.4,3.4,SF,22.3,1991,1.8,SEA,2.7,5.5
27.0,2.5,0.7,5.8,0.506,7.7,15.2,0.0,0.0,0.1,0.503,7.7,15.3,0.727,2.5,3.4,66.0,64.0,NBA,2105.0,2.3,3.7,SF,17.9,1991,0.9,PHO,2.5,8.1
28.0,2.3,0.4,4.4,0.485,7.3,15.1,0.308,0.2,0.6,0.478,7.5,15.7,0.714,2.1,2.9,82.0,82.0,NBA,2344.0,2.7,3.7,SF,17.3,1992,0.9,NYK,2.3,7.1
29.0,2.6,0.8,5.2,0.5,7.3,14.7,0.273,0.1,0.4,0.495,7.4,15.0,0.793,3.1,3.9,82.0,27.0,NBA,2215.0,2.7,4.0,PF,18.1,1993,1.2,BOS,2.8,7.9
30.0,2.3,0.7,4.7,0.472,6.9,14.6,0.244,0.2,0.7,0.461,7.1,15.3,0.676,2.6,3.9,82.0,5.0,NBA,1971.0,2.6,3.5,SF,16.9,1994,0.9,BOS,2.1,7.3
31.0,2.7,0.5,5.2,0.457,6.0,13.2,0.286,0.2,0.5,0.451,6.2,13.7,0.712,2.2,3.1,68.0,15.0,NBA,1430.0,2.4,3.7,SF,14.8,1995,0.8,BOS,2.2,7.6
33.0,2.0,0.5,6.0,0.403,4.1,10.2,0.2,0.2,0.8,0.389,4.2,10.9,0.73,2.0,2.7,62.0,5.0,NBA,1170.0,3.8,4.4,PF,10.6,1997,1.1,NJN,2.2,9.8
34.0,1.8,0.4,3.8,0.333,2.0,6.0,0.0,0.0,0.0,0.333,2.0,6.0,0.625,1.0,1.6,20.0,0.0,NBA,180.0,2.4,4.6,SF,5.0,1998,0.6,NJN,1.6,6.2
