age,ast,blk,drb,fg,fg2,fg2a,fg3,fg3a,fga,ft,fta,game_score,lg_id,mp,orb,pf,pts,season,stl,team_id,tov,trb
24.0,6.0,1.0,3.0,11.0,10.0,18.0,1.0,3.0,19.0,4.0,4.0,20.1,NBA,0.0,2.0,4.0,25.0,1984,1.0,KCK,2.0,4.0
26.0,2.0,1.0,5.0,13.0,13.0,25.0,0.0,2.0,25.0,7.0,8.0,24.0,NBA,0.0,4.0,3.0,33.0,1986,3.0,SAC,3.0,8.0
29.0,5.0,1.0,8.0,13.0,12.0,20.0,6.0,8.0,25.0,9.0,10.0,27.0,NBA,0.0,4.0,6.0,35.0,1989,3.0,PHO,4.0,11.0
30.0,3.0,2.0,6.0,11.0,7.0,12.0,6.0,7.0,17.0,6.0,7.0,24.2,NBA,0.0,5.0,5.0,33.0,1990,2.0,PHO,2.0,9.0
31.0,2.0,1.0,3.0,13.0,12.0,25.0,2.0,5.0,27.0,10.0,10.0,26.0,NBA,0.0,5.0,5.0,34.0,1991,2.0,TOT,4.0,7.0
31.0,2.0,1.0,3.0,13.0,12.0,25.0,2.0,5.0,27.0,10.0,10.0,26.0,NBA,0.0,5.0,5.0,34.0,1991,2.0,SEA,4.0,7.0
32.0,3.0,3.0,4.0,12.0,12.0,20.0,2.0,7.0,22.0,6.0,7.0,16.9,NBA,0.0,3.0,3.0,26.0,1992,1.0,SEA,4.0,5.0
33.0,5.0,1.0,4.0,12.0,11.0,16.0,3.0,5.0,20.0,9.0,9.0,23.5,NBA,0.0,2.0,6.0,34.0,1993,1.0,SEA,4.0,6.0
36.0,1.0,0.0,0.0,0.0,0.0,3.0,0.0,2.0,5.0,0.0,0.0,-2.8,NBA,0.0,0.0,0.0,0.0,1996,0.0,IND,0.0,0.0
37.0,3.0,0.0,4.0,12.0,7.0,10.0,5.0,8.0,17.0,9.0,9.0,24.3,NBA,0.0,3.0,3.0,31.0,1997,1.0,TOT,2.0,5.0
37.0,3.0,0.0,4.0,12.0,7.0,10.0,5.0,8.0,17.0,9.0,9.0,24.3,NBA,0.0,3.0,3.0,31.0,1997,1.0,HOU,2.0,5.0
38.0,1.0,0.0,2.0,4.0,4.0,6.0,1.0,4.0,10.0,5.0,6.0,5.4,NBA,0.0,2.0,5.0,10.0,1998,0.0,HOU,2.0,4.0
