age,ast,blk,drb,efg_pct,fg,fg2,fg2_pct,fg2a,fg3,fg3_pct,fg3a,fg_pct,fga,ft,ft_pct,fta,g,gs,lg_id,mp,orb,pf,pos,pts,season,stl,team_id,tov,trb
22.0,109.0,14.0,194.0,0.46,295.0,294.0,0.465,632.0,1.0,0.091,11.0,0.459,643.0,99.0,0.664,149.0,74.0,27.0,NBA,1517.0,128.0,210.0,SF,690.0,1982,50.0,KCK,97.0,322.0
23.0,216.0,20.0,310.0,0.501,677.0,657.0,0.506,1299.0,20.0,0.282,71.0,0.494,1370.0,247.0,0.779,317.0,82.0,82.0,NBA,2933.0,191.0,259.0,SF,1621.0,1983,70.0,KCK,181.0,501.0
24.0,296.0,21.0,290.0,0.492,753.0,733.0,0.493,1488.0,20.0,0.313,64.0,0.485,1552.0,268.0,0.81,331.0,82.0,82.0,NBA,2920.0,165.0,266.0,SF,1794.0,1984,76.0,KCK,213.0,455.0
25.0,273.0,22.0,256.0,0.496,769.0,756.0,0.5,1511.0,13.0,0.241,54.0,0.491,1565.0,325.0,0.871,373.0,82.0,81.0,NBA,3029.0,151.0,237.0,SF,1876.0,1985,83.0,KCK,225.0,407.0
26.0,214.0,17.0,246.0,0.477,623.0,619.0,0.479,1291.0,4.0,0.2,20.0,0.475,1311.0,280.0,0.816,343.0,82.0,30.0,NBA,2514.0,173.0,237.0,SF,1530.0,1986,54.0,SAC,191.0,419.0
27.0,251.0,19.0,207.0,0.477,606.0,569.0,0.478,1191.0,37.0,0.314,118.0,0.463,1309.0,267.0,0.829,322.0,81.0,30.0,NBA,2457.0,146.0,218.0,SF,1516.0,1987,42.0,SAC,163.0,353.0
28.0,180.0,9.0,197.0,0.491,533.0,509.0,0.501,1016.0,24.0,0.255,94.0,0.48,1110.0,204.0,0.85,240.0,73.0,59.0,NBA,2177.0,121.0,190.0,SF,1294.0,1988,33.0,PHO,139.0,318.0
29.0,162.0,7.0,215.0,0.526,608.0,537.0,0.51,1052.0,71.0,0.413,172.0,0.497,1224.0,217.0,0.868,250.0,70.0,7.0,NBA,2043.0,91.0,198.0,SF,1504.0,1989,47.0,PHO,122.0,306.0
30.0,107.0,10.0,177.0,0.492,411.0,341.0,0.472,723.0,70.0,0.38,184.0,0.453,907.0,188.0,0.917,205.0,64.0,4.0,NBA,1811.0,69.0,174.0,SF,1080.0,1990,32.0,PHO,108.0,246.0
31.0,111.0,9.0,164.0,0.501,543.0,504.0,0.503,1002.0,39.0,0.325,120.0,0.484,1122.0,229.0,0.891,257.0,81.0,27.0,NBA,2085.0,107.0,181.0,SG,1354.0,1991,58.0,TOT,122.0,271.0
31.0,17.0,2.0,30.0,0.489,88.0,82.0,0.497,165.0,6.0,0.286,21.0,0.473,186.0,21.0,0.724,29.0,15.0,0.0,NBA,312.0,16.0,37.0,SG,203.0,1991,9.0,PHO,24.0,46.0
31.0,94.0,7.0,134.0,0.504,455.0,422.0,0.504,837.0,33.0,0.333,99.0,0.486,936.0,208.0,0.912,228.0,66.0,27.0,NBA,1773.0,91.0,144.0,SG,1151.0,1991,49.0,SEA,98.0,225.0
32.0,161.0,11.0,174.0,0.47,534.0,507.0,0.48,1057.0,27.0,0.252,107.0,0.459,1164.0,291.0,0.861,338.0,81.0,19.0,NBA,2366.0,118.0,199.0,SF,1386.0,1992,55.0,SEA,130.0,292.0
33.0,135.0,4.0,148.0,0.476,463.0,446.0,0.477,935.0,17.0,0.304,56.0,0.467,991.0,234.0,0.911,257.0,82.0,0.0,NBA,1869.0,124.0,173.0,SF,1177.0,1993,36.0,SEA,134.0,272.0
34.0,125.0,8.0,144.0,0.499,339.0,280.0,0.476,588.0,59.0,0.393,150.0,0.459,738.0,99.0,0.78,127.0,73.0,27.0,NBA,1460.0,80.0,143.0,SF,836.0,1994,36.0,CHH,84.0,224.0
36.0,69.0,4.0,108.0,0.464,180.0,135.0,0.438,308.0,45.0,0.352,128.0,0.413,436.0,70.0,0.886,79.0,62.0,1.0,NBA,1002.0,45.0,104.0,SF,475.0,1996,20.0,IND,56.0,153.0
37.0,52.0,2.0,111.0,0.51,160.0,111.0,0.481,231.0,49.0,0.374,131.0,0.442,362.0,55.0,0.809,68.0,52.0,2.0,NBA,913.0,27.0,81.0,SF,424.0,1997,15.0,TOT,47.0,138.0
37.0,17.0,1.0,37.0,0.467,59.0,50.0,0.463,108.0,9.0,0.321,28.0,0.434,136.0,20.0,0.741,27.0,28.0,0.0,NBA,306.0,3.0,33.0,SF,147.0,1997,5.0,IND,17.0,40.0
37.0,35.0,1.0,74.0,0.535,101.0,61.0,0.496,123.0,40.0,0.388,103.0,0.447,226.0,35.0,0.854,41.0,24.0,2.0,NBA,607.0,24.0,48.0,SF,277.0,1997,10.0,HOU,30.0,98.0
38.0,88.0,3.0,103.0,0.478,227.0,161.0,0.465,346.0,66.0,0.333,198.0,0.417,544.0,113.0,0.831,136.0,75.0,1.0,NBA,1490.0,50.0,89.0,SF,633.0,1998,32.0,HOU,62.0,153.0
39.0,1.0,0.0,2.0,0.462,6.0,6.0,0.5,12.0,0.0,0.0,1.0,0.462,13.0,0.0,0.0,0.0,3.0,0.0,NBA,18.0,0.0,3.0,SF,12.0,1999,0.0,HOU,2.0,2.0
