age,and1s,astd_pts,drawn_offensive,drawn_shooting,fouls_offensive,fouls_shooting,g,lg_id,mp,own_shots_blk,pct_1,pct_2,pct_3,pct_4,pct_5,plus_minus_net,plus_minus_on,pos,season,team_id,tov_bad_pass,tov_lost_ball
21.0,4.0,411.0,0.0,33.0,12.0,97.0,76.0,NBA,1919.0,15.0,0.0,55.0,44.0,2.0,0.0,-1.6,-5.6,SG,2004,ATL,72.0,21.0
22.0,5.0,324.0,0.0,27.0,4.0,56.0,66.0,NBA,1201.0,17.0,6.0,52.0,38.0,5.0,0.0,5.2,-7.0,SG,2005,ATL,58.0,16.0
23.0,31.0,1172.0,19.0,110.0,25.0,135.0,81.0,NBA,2874.0,44.0,0.0,0.0,2.0,52.0,46.0,10.2,8.9,PF,2006,PHO,100.0,38.0
24.0,22.0,829.0,15.0,54.0,16.0,100.0,73.0,NBA,2268.0,29.0,0.0,0.0,0.0,86.0,14.0,-6.0,5.2,PF,2007,PHO,76.0,32.0
25.0,19.0,750.0,20.0,59.0,20.0,90.0,82.0,NBA,2308.0,34.0,0.0,0.0,5.0,78.0,17.0,-3.8,4.1,PF,2008,PHO,77.0,27.0
26.0,19.0,759.0,8.0,60.0,33.0,97.0,81.0,NBA,2754.0,44.0,0.0,0.0,3.0,90.0,7.0,1.4,1.3,PF,2009,TOT,103.0,46.0
26.0,6.0,108.0,2.0,10.0,8.0,20.0,22.0,NBA,538.0,5.0,0.0,0.0,4.0,88.0,8.0,-1.1,1.1,PF,2009,PHO,16.0,8.0
26.0,13.0,651.0,6.0,50.0,25.0,77.0,59.0,NBA,2216.0,39.0,0.0,0.0,2.0,90.0,7.0,6.3,1.4,PF,2009,CHA,87.0,38.0
27.0,20.0,738.0,14.0,59.0,33.0,111.0,82.0,NBA,2906.0,30.0,0.0,0.0,1.0,79.0,19.0,3.2,2.4,PF,2010,CHA,98.0,26.0
28.0,13.0,739.0,15.0,45.0,23.0,111.0,82.0,NBA,2778.0,30.0,0.0,0.0,2.0,87.0,11.0,-0.9,-4.8,PF,2011,CHA,83.0,32.0
29.0,1.0,457.0,4.0,15.0,15.0,65.0,57.0,NBA,1424.0,15.0,0.0,0.0,1.0,83.0,16.0,-3.7,-6.6,PF,2012,TOT,58.0,28.0
29.0,1.0,348.0,3.0,11.0,9.0,39.0,37.0,NBA,1018.0,11.0,0.0,0.0,2.0,91.0,8.0,-0.5,-16.0,PF,2012,CHA,47.0,22.0
29.0,0.0,109.0,1.0,4.0,6.0,26.0,20.0,NBA,406.0,4.0,0.0,0.0,0.0,62.0,38.0,9.1,15.8,PF,2012,SAS,11.0,6.0
30.0,6.0,416.0,5.0,22.0,12.0,76.0,75.0,NBA,1709.0,12.0,0.0,0.0,2.0,87.0,11.0,-3.6,4.8,PF,2013,SAS,35.0,18.0
31.0,13.0,509.0,13.0,33.0,15.0,66.0,79.0,NBA,1974.0,23.0,0.0,0.0,3.0,94.0,3.0,0.8,8.6,PF,2014,SAS,53.0,31.0
32.0,9.0,538.0,8.0,34.0,12.0,70.0,81.0,NBA,1984.0,26.0,0.0,0.0,3.0,96.0,1.0,1.4,7.2,PF,2015,SAS,53.0,40.0
33.0,11.0,410.0,7.0,34.0,7.0,46.0,76.0,NBA,1386.0,16.0,0.0,0.0,0.0,96.0,4.0,-2.2,10.1,PF,2016,SAS,46.0,31.0
34.0,4.0,402.0,11.0,17.0,8.0,36.0,73.0,NBA,1283.0,8.0,0.0,0.0,0.0,98.0,2.0,-4.7,1.4,PF,2017,UTA,53.0,16.0
