age,ast_per_mp,blk_per_mp,drb_per_mp,fg2_pct,fg2_per_mp,fg2a_per_mp,fg3_pct,fg3_per_mp,fg3a_per_mp,fg_pct,fg_per_mp,fga_per_mp,ft_pct,ft_per_mp,fta_per_mp,g,gs,lg_id,mp,orb_per_mp,pf_per_mp,pos,pts_per_mp,season,stl_per_mp,team_id,tov_per_mp,trb_per_mp
20.0,1.3,0.3,3.4,0.604,2.2,3.6,0.371,1.8,4.8,0.471,4.0,8.4,0.629,0.9,1.5,74.0,62.0,NBA,1481.0,1.1,3.2,SF,10.6,2018,1.3,TOR,1.1,4.5
21.0,1.3,0.6,3.7,0.574,3.1,5.4,0.332,1.8,5.4,0.453,4.9,10.8,0.581,1.0,1.7,67.0,6.0,NBA,1352.0,1.5,3.7,SF,12.5,2019,1.2,TOR,1.5,5.2
22.0,1.9,1.8,5.4,0.632,3.6,5.7,0.5,1.9,3.9,0.578,5.5,9.5,0.333,0.3,0.9,7.0,7.0,NBA,242.0,1.5,2.8,SF,13.2,2020,1.5,TOR,1.0,6.8
