age,ast,blk,drb,efg_pct,fg,fg2,fg2_pct,fg2a,fg3,fg3_pct,fg3a,fg_pct,fga,ft,ft_pct,fta,g,gs,lg_id,mp,orb,pf,pos,pts,season,stl,team_id,tov,trb
20.0,55.0,14.0,140.0,0.577,163.0,90.0,0.604,149.0,73.0,0.371,197.0,0.471,346.0,39.0,0.629,62.0,74.0,62.0,NBA,1481.0,44.0,130.0,SF,438.0,2018,52.0,TOR,45.0,184.0
21.0,47.0,22.0,139.0,0.536,183.0,116.0,0.574,202.0,67.0,0.332,202.0,0.453,404.0,36.0,0.581,62.0,67.0,6.0,NBA,1352.0,58.0,140.0,SF,469.0,2019,46.0,TOR,55.0,197.0
22.0,13.0,12.0,36.0,0.68,37.0,24.0,0.632,38.0,13.0,0.5,26.0,0.578,64.0,2.0,0.333,6.0,7.0,7.0,NBA,242.0,10.0,19.0,SF,89.0,2020,10.0,TOR,7.0,46.0
