age,ast,blk,drb,fg,fg2,fg2a,fg3,fg3a,fga,ft,fta,game_score,lg_id,mp,orb,pf,pts,season,stl,team_id,tov,trb
23.0,3.0,2.0,5.0,4.0,4.0,8.0,0.0,0.0,8.0,4.0,4.0,7.2,NBA,26,5.0,5.0,10.0,2008,2.0,MIN,2.0,8.0
25.0,3.0,2.0,6.0,3.0,3.0,4.0,0.0,0.0,4.0,2.0,4.0,8.9,NBA,24,4.0,6.0,6.0,2010,2.0,CHI,3.0,9.0
