age,ast_per_g,blk_per_g,drb_per_g,efg_pct,fg2_pct,fg2_per_g,fg2a_per_g,fg3_pct,fg3_per_g,fg3a_per_g,fg_pct,fg_per_g,fga_per_g,ft_pct,ft_per_g,fta_per_g,g,gs,lg_id,mp_per_g,orb_per_g,pf_per_g,pos,pts_per_g,season,stl_per_g,team_id,tov_per_g,trb_per_g
22.0,1.0,0.7,3.3,0.448,0.42,2.1,5.0,0.347,0.7,2.0,0.399,2.8,6.9,0.717,1.2,1.7,63.0,7.0,NBA,19.5,1.1,2.8,PF,7.4,2012,0.7,PHO,1.1,4.4
23.0,1.3,0.8,3.2,0.442,0.426,2.7,6.3,0.336,0.5,1.6,0.407,3.2,8.0,0.732,1.1,1.5,82.0,32.0,NBA,22.4,1.6,2.5,PF,8.2,2013,0.9,PHO,1.3,4.8
24.0,1.8,0.6,4.3,0.507,0.512,4.7,9.1,0.315,0.4,1.3,0.486,5.1,10.4,0.792,3.2,4.0,81.0,0.0,NBA,26.6,1.7,2.9,PF,13.8,2014,0.8,PHO,1.8,6.0
25.0,2.3,0.5,4.8,0.491,0.494,5.5,11.2,0.318,0.7,2.2,0.465,6.2,13.4,0.763,2.2,2.8,82.0,82.0,NBA,31.5,1.3,3.0,PF,15.3,2015,1.2,PHO,2.1,6.2
26.0,1.9,0.5,4.4,0.458,0.458,4.0,8.8,0.303,0.7,2.4,0.425,4.8,11.2,0.735,1.7,2.3,64.0,45.0,NBA,25.5,1.1,2.9,PF,12.0,2016,0.9,TOT,2.1,5.5
26.0,2.4,0.5,4.1,0.422,0.42,4.0,9.6,0.289,0.6,2.1,0.397,4.6,11.6,0.717,1.8,2.5,37.0,24.0,NBA,24.8,1.2,2.8,PF,11.6,2016,0.9,PHO,2.4,5.2
26.0,1.4,0.6,4.7,0.51,0.524,4.0,7.7,0.316,0.9,2.9,0.467,5.0,10.6,0.764,1.6,2.0,27.0,21.0,NBA,26.4,1.1,3.0,PF,12.4,2016,0.9,WAS,1.7,5.9
27.0,1.7,0.6,5.1,0.497,0.483,4.4,9.1,0.362,0.9,2.6,0.457,5.3,11.7,0.837,2.4,2.8,76.0,76.0,NBA,31.2,1.4,3.3,PF,14.0,2017,1.1,WAS,1.7,6.5
28.0,1.9,0.5,4.6,0.536,0.529,3.5,6.6,0.367,1.0,2.8,0.48,4.5,9.4,0.82,1.4,1.8,73.0,73.0,NBA,27.0,1.0,3.0,PF,11.5,2018,0.8,WAS,1.7,5.6
29.0,1.4,0.4,3.5,0.492,0.484,2.3,4.8,0.335,1.2,3.5,0.421,3.5,8.3,0.772,1.2,1.6,58.0,16.0,NBA,21.9,1.1,3.0,PF,9.4,2019,0.6,TOT,0.9,4.6
29.0,1.8,0.6,3.9,0.509,0.516,2.8,5.4,0.333,1.4,4.2,0.436,4.2,9.6,0.781,1.7,2.1,34.0,15.0,NBA,26.0,1.2,3.4,PF,11.5,2019,0.7,WAS,1.4,5.1
29.0,0.8,0.1,3.0,0.455,0.423,1.7,4.0,0.339,0.8,2.5,0.391,2.5,6.5,0.737,0.6,0.8,24.0,1.0,NBA,16.1,0.8,2.4,PF,6.5,2019,0.5,OKC,0.3,3.8
30.0,1.9,0.1,3.5,0.554,0.508,2.7,5.3,0.408,1.7,4.1,0.464,4.3,9.3,0.731,1.6,2.2,12.0,11.0,NBA,26.2,0.3,2.8,PF,11.9,2020,0.8,DET,2.3,3.8
