age,ast_per_g,blk_per_g,drb_per_g,efg_pct,fg2_pct,fg2_per_g,fg2a_per_g,fg3_pct,fg3_per_g,fg3a_per_g,fg_pct,fg_per_g,fga_per_g,ft_pct,ft_per_g,fta_per_g,g,gs,lg_id,mp_per_g,orb_per_g,pf_per_g,pos,pts_per_g,season,stl_per_g,team_id,tov_per_g,trb_per_g
25.0,0.4,0.9,1.8,0.449,0.449,2.2,4.9,0.0,0.0,0.0,0.449,2.2,4.9,0.667,0.6,0.9,10.0,0.0,NBA,13.8,1.2,2.1,PF,5.0,2004,0.2,MIA,0.4,3.0
27.0,1.2,1.0,2.2,0.467,0.467,2.3,5.0,0.0,0.0,0.0,0.467,2.3,5.0,0.0,0.0,0.2,6.0,6.0,NBA,19.3,0.8,2.7,PF,4.7,2006,0.3,CHI,1.7,3.0
28.0,0.2,0.2,0.6,0.167,0.167,0.4,2.4,0.0,0.0,0.0,0.167,0.4,2.4,0.0,0.0,0.0,5.0,0.0,NBA,6.8,0.8,1.4,PF,0.8,2007,0.2,CHI,0.6,1.4
29.0,0.0,0.0,0.0,0.0,0.0,0.0,0.3,0.0,0.0,0.0,0.0,0.0,0.3,0.0,0.0,0.0,3.0,0.0,NBA,6.0,0.0,1.3,PF,0.0,2008,0.0,DAL,0.0,0.0
31.0,0.0,0.0,0.3,0.0,0.0,0.0,0.3,0.0,0.0,0.0,0.0,0.0,0.3,0.0,0.0,0.0,4.0,0.0,NBA,2.8,0.5,0.5,PF,0.0,2010,0.3,DEN,0.0,0.8
32.0,0.0,0.0,1.0,0.0,0.0,0.0,1.0,0.0,0.0,0.0,0.0,0.0,1.0,0.5,1.0,2.0,1.0,0.0,NBA,7.0,0.0,2.0,PF,1.0,2011,0.0,ORL,0.0,1.0
