age,ast,blk,drb,fg,fg2,fg2a,fg3,fg3a,fga,ft,fta,game_score,lg_id,mp,orb,pf,pts,season,stl,team_id,tov,trb
25.0,1.0,2.0,4.0,6.0,6.0,9.0,0.0,0.0,9.0,2.0,2.0,10.8,NBA,0.0,5.0,4.0,13.0,2004,2.0,MIA,2.0,8.0
27.0,3.0,2.0,4.0,5.0,5.0,8.0,0.0,0.0,8.0,0.0,1.0,4.3,NBA,24.0,2.0,4.0,10.0,2006,1.0,CHI,4.0,5.0
28.0,1.0,1.0,2.0,1.0,1.0,7.0,0.0,0.0,7.0,0.0,0.0,2.0,NBA,17.0,2.0,3.0,2.0,2007,1.0,CHI,2.0,4.0
29.0,0.0,0.0,0.0,0.0,0.0,1.0,0.0,0.0,1.0,0.0,0.0,0.0,NBA,12.0,0.0,4.0,0.0,2008,0.0,TOT,0.0,0.0
29.0,0.0,0.0,0.0,0.0,0.0,1.0,0.0,0.0,1.0,0.0,0.0,0.0,NBA,12.0,0.0,4.0,0.0,2008,0.0,DAL,0.0,0.0
31.0,0.0,0.0,1.0,0.0,0.0,1.0,0.0,0.0,1.0,0.0,0.0,1.0,NBA,6.0,2.0,1.0,0.0,2010,1.0,DEN,0.0,3.0
32.0,0.0,0.0,1.0,0.0,0.0,1.0,0.0,0.0,1.0,1.0,2.0,-0.6,NBA,8.0,0.0,2.0,1.0,2011,0.0,ORL,0.0,1.0
