age,ast,blk,drb,efg_pct,fg,fg2,fg2_pct,fg2a,fg3,fg3_pct,fg3a,fg_pct,fga,ft,ft_pct,fta,g,gs,lg_id,mp,orb,pf,pos,pts,season,stl,team_id,tov,trb
25.0,4.0,9.0,18.0,0.449,22.0,22.0,0.449,49.0,0.0,0.0,0.0,0.449,49.0,6.0,0.667,9.0,10.0,0.0,NBA,138.0,12.0,21.0,PF,50.0,2004,2.0,MIA,4.0,30.0
27.0,7.0,6.0,13.0,0.467,14.0,14.0,0.467,30.0,0.0,0.0,0.0,0.467,30.0,0.0,0.0,1.0,6.0,6.0,NBA,116.0,5.0,16.0,PF,28.0,2006,2.0,CHI,10.0,18.0
28.0,1.0,1.0,3.0,0.167,2.0,2.0,0.167,12.0,0.0,0.0,0.0,0.167,12.0,0.0,0.0,0.0,5.0,0.0,NBA,34.0,4.0,7.0,PF,4.0,2007,1.0,CHI,3.0,7.0
29.0,0.0,0.0,0.0,0.0,0.0,0.0,0.0,1.0,0.0,0.0,0.0,0.0,1.0,0.0,0.0,0.0,3.0,0.0,NBA,18.0,0.0,4.0,PF,0.0,2008,0.0,DAL,0.0,0.0
31.0,0.0,0.0,1.0,0.0,0.0,0.0,0.0,1.0,0.0,0.0,0.0,0.0,1.0,0.0,0.0,0.0,4.0,0.0,NBA,11.0,2.0,2.0,PF,0.0,2010,1.0,DEN,0.0,3.0
32.0,0.0,0.0,1.0,0.0,0.0,0.0,0.0,1.0,0.0,0.0,0.0,0.0,1.0,1.0,0.5,2.0,1.0,0.0,NBA,7.0,0.0,2.0,PF,1.0,2011,0.0,ORL,0.0,1.0
