age,ast,blk,drb,fg,fg2,fg2a,fg3,fg3a,fga,ft,fta,game_score,lg_id,mp,orb,pf,pts,season,stl,team_id,tov,trb
23.0,5.0,1.0,3.0,6.0,6.0,14.0,0.0,1.0,14.0,2.0,2.0,10.3,NBA,0.0,6.0,4.0,13.0,1991,3.0,TOT,4.0,6.0
23.0,3.0,1.0,3.0,3.0,3.0,8.0,0.0,0.0,8.0,2.0,2.0,6.1,NBA,0.0,6.0,3.0,7.0,1991,2.0,GSW,4.0,6.0
23.0,5.0,0.0,3.0,6.0,6.0,14.0,0.0,1.0,14.0,2.0,2.0,10.3,NBA,0.0,3.0,4.0,13.0,1991,3.0,WSB,3.0,6.0
24.0,1.0,0.0,0.0,1.0,1.0,5.0,0.0,0.0,5.0,0.0,0.0,-1.2,NBA,0.0,2.0,3.0,2.0,1992,0.0,BOS,1.0,2.0
25.0,2.0,1.0,1.0,4.0,4.0,6.0,0.0,1.0,7.0,1.0,2.0,6.4,NBA,0.0,1.0,0.0,9.0,1993,1.0,WSB,1.0,2.0
26.0,3.0,0.0,3.0,4.0,4.0,5.0,1.0,4.0,6.0,2.0,2.0,6.6,NBA,0.0,3.0,3.0,9.0,1994,2.0,HOU,3.0,6.0
30.0,1.0,0.0,5.0,4.0,2.0,4.0,2.0,2.0,6.0,2.0,2.0,9.6,NBA,0.0,1.0,0.0,12.0,1998,3.0,VAN,2.0,6.0
33.0,3.0,1.0,8.0,8.0,3.0,5.0,5.0,8.0,10.0,4.0,5.0,21.8,NBA,0.0,4.0,3.0,21.0,2001,4.0,TOT,4.0,8.0
33.0,0.0,0.0,0.0,0.0,0.0,0.0,0.0,0.0,0.0,0.0,0.0,-1.0,NBA,0.0,0.0,0.0,0.0,2001,0.0,CLE,1.0,0.0
33.0,3.0,1.0,8.0,8.0,3.0,5.0,5.0,8.0,10.0,4.0,5.0,21.8,NBA,0.0,4.0,3.0,21.0,2001,4.0,ATL,4.0,8.0
34.0,0.0,0.0,2.0,1.0,0.0,2.0,1.0,2.0,4.0,0.0,0.0,0.8,NBA,0.0,0.0,1.0,3.0,2002,0.0,NYK,0.0,2.0
