age,ast_per_g,blk_per_g,drb_per_g,efg_pct,fg2_pct,fg2_per_g,fg2a_per_g,fg3_pct,fg3_per_g,fg3a_per_g,fg_pct,fg_per_g,fga_per_g,ft_pct,ft_per_g,fta_per_g,g,gs,lg_id,mp_per_g,orb_per_g,pf_per_g,pos,pts_per_g,season,stl_per_g,team_id,tov_per_g,trb_per_g
24.0,0.0,0.2,0.5,0.5,0.5,0.5,1.0,0.0,0.0,0.0,0.5,0.5,1.0,0.364,0.3,0.7,16.0,0.0,NBA,3.1,0.5,0.4,C,1.3,1997,0.0,CLE,0.0,1.0
25.0,0.2,0.2,1.0,0.444,0.444,0.4,0.9,0.0,0.0,0.0,0.444,0.4,0.9,0.667,0.3,0.4,41.0,0.0,NBA,4.6,0.5,1.1,C,1.1,1998,0.1,CLE,0.2,1.4
28.0,0.1,0.2,1.0,0.415,0.415,0.6,1.5,0.0,0.0,0.0,0.415,0.6,1.5,0.409,0.3,0.8,27.0,1.0,NBA,5.3,0.9,0.9,C,1.6,2001,0.2,SAS,0.4,1.9
29.0,0.4,0.3,2.4,0.493,0.493,1.8,3.6,0.0,0.0,0.0,0.493,1.8,3.6,0.4,0.4,1.0,21.0,10.0,NBA,12.0,2.5,2.3,C,3.9,2002,0.1,DEN,0.7,4.9
