age,ast_per_mp,blk_per_mp,drb_per_mp,fg2_pct,fg2_per_mp,fg2a_per_mp,fg3_pct,fg3_per_mp,fg3a_per_mp,fg_pct,fg_per_mp,fga_per_mp,ft_pct,ft_per_mp,fta_per_mp,g,gs,lg_id,mp,orb_per_mp,pf_per_mp,pos,pts_per_mp,season,stl_per_mp,team_id,tov_per_mp,trb_per_mp
24.0,0.0,2.2,5.8,0.5,5.8,11.5,0.0,0.0,0.0,0.5,5.8,11.5,0.364,2.9,7.9,16.0,0.0,NBA,50.0,5.8,4.3,C,14.4,1997,0.0,CLE,0.0,11.5
25.0,1.5,1.5,7.5,0.444,3.1,6.9,0.0,0.0,0.0,0.444,3.1,6.9,0.667,2.3,3.4,41.0,0.0,NBA,188.0,3.8,8.6,C,8.4,1998,1.1,CLE,1.9,11.3
28.0,1.0,1.5,6.8,0.415,4.2,10.2,0.0,0.0,0.0,0.415,4.2,10.2,0.409,2.3,5.5,27.0,1.0,NBA,144.0,5.7,5.7,C,10.7,2001,1.2,SAS,2.7,12.5
29.0,1.1,0.9,7.1,0.493,5.3,10.7,0.0,0.0,0.0,0.493,5.3,10.7,0.4,1.1,2.9,21.0,10.0,NBA,252.0,7.6,7.0,C,11.7,2002,0.4,DEN,2.1,14.7
