age,ast_per_poss,blk_per_poss,def_rtg,drb_per_poss,fg2_pct,fg2_per_poss,fg2a_per_poss,fg3_pct,fg3_per_poss,fg3a_per_poss,fg_pct,fg_per_poss,fga_per_poss,ft_pct,ft_per_poss,fta_per_poss,g,gs,lg_id,mp,off_rtg,orb_per_poss,pf_per_poss,pos,pts_per_poss,season,stl_per_poss,team_id,tov_per_poss,trb_per_poss
24.0,0.0,3.5,102.0,9.3,0.5,9.3,18.5,0.0,0.0,0.0,0.5,9.3,18.5,0.364,4.6,12.7,16.0,0.0,NBA,50.0,113.0,9.3,6.9,C,23.2,1997,0.0,CLE,0.0,18.5
25.0,2.3,2.3,95.0,11.1,0.444,4.5,10.2,0.0,0.0,0.0,0.444,4.5,10.2,0.667,3.4,5.1,41.0,0.0,NBA,188.0,102.0,5.7,12.8,C,12.5,1998,1.7,CLE,2.8,16.8
28.0,1.5,2.2,95.0,10.0,0.415,6.3,15.3,0.0,0.0,0.0,0.415,6.3,15.3,0.409,3.3,8.2,27.0,1.0,NBA,144.0,90.0,8.6,8.6,C,16.0,2001,1.9,SAS,4.1,18.6
29.0,1.7,1.3,107.0,10.5,0.493,7.8,15.8,0.0,0.0,0.0,0.493,7.8,15.8,0.4,1.7,4.2,21.0,10.0,NBA,252.0,104.0,11.2,10.3,C,17.3,2002,0.6,DEN,3.2,21.7
