age,ast,blk,drb,efg_pct,fg,fg2,fg2_pct,fg2a,fg3,fg3_pct,fg3a,fg_pct,fga,ft,ft_pct,fta,g,gs,lg_id,mp,orb,pf,pos,pts,season,stl,team_id,tov,trb
23.0,1.0,0.0,1.0,0.417,2.0,1.0,0.333,3.0,1.0,0.333,3.0,0.333,6.0,3.0,0.75,4.0,6.0,0.0,NBA,16.0,0.0,1.0,SG,8.0,2015,0.0,CLE,1.0,1.0
27.0,3.0,0.0,15.0,0.419,16.0,12.0,0.545,22.0,4.0,0.19,21.0,0.372,43.0,8.0,1.0,8.0,5.0,5.0,NBA,149.0,6.0,12.0,SG,44.0,2019,3.0,BRK,9.0,21.0
