age,ast_pct,blk_pct,bpm,bpm-dum,dbpm,drb_pct,dws,fg3a_per_fga_pct,fta_per_fga_pct,g,lg_id,mp,obpm,orb_pct,ows,per,pos,season,stl_pct,team_id,tov_pct,trb_pct,ts_pct,usg_pct,vorp,ws,ws-dum,ws_per_48
23.0,12.7,0.6,-4.1,0.0,-0.6,7.3,0.4,0.036,0.206,55.0,NBA,819.0,-3.6,3.9,-0.3,7.7,SG,1992,2.1,CHH,15.3,5.6,0.46,14.2,-0.4,0.2,0.0,0.011
24.0,9.7,1.1,-3.6,0.0,-0.3,7.3,0.2,0.017,0.644,40.0,NBA,324.0,-3.2,4.2,0.0,7.6,SG,1993,1.6,CHH,24.1,5.8,0.568,12.7,-0.1,0.2,0.0,0.031
