age,ast_per_g,blk_per_g,drb_per_g,efg_pct,fg2_pct,fg2_per_g,fg2a_per_g,fg3_pct,fg3_per_g,fg3a_per_g,fg_pct,fg_per_g,fga_per_g,ft_pct,ft_per_g,fta_per_g,g,gs,lg_id,mp_per_g,orb_per_g,pf_per_g,pos,pts_per_g,season,stl_per_g,team_id,tov_per_g,trb_per_g
22.0,0.2,0.0,1.2,0.483,0.483,1.3,2.8,0.0,0.0,0.0,0.483,1.3,2.8,0.882,0.7,0.8,43.0,2.0,NBA,9.6,0.9,1.6,PF,3.4,2006,0.3,MIA,0.6,2.0
23.0,0.5,0.0,0.8,0.391,0.391,1.1,2.9,0.0,0.0,0.0,0.391,1.1,2.9,0.714,0.6,0.9,8.0,0.0,NBA,11.6,0.6,1.6,PF,2.9,2007,0.3,MIA,0.4,1.4
