age,ast_per_poss,blk_per_poss,def_rtg,drb_per_poss,fg2_pct,fg2_per_poss,fg2a_per_poss,fg3_pct,fg3_per_poss,fg3a_per_poss,fg_pct,fg_per_poss,fga_per_poss,ft_pct,ft_per_poss,fta_per_poss,g,gs,lg_id,mp,off_rtg,orb_per_poss,pf_per_poss,pos,pts_per_poss,season,stl_per_poss,team_id,tov_per_poss,trb_per_poss
28.0,2.9,1.8,106.0,5.0,0.474,3.2,6.8,0.462,2.2,4.7,0.469,5.4,11.5,0.444,1.4,3.2,12.0,0.0,NBA,143.0,106.0,0.4,6.5,SF,14.4,2011,3.2,TOT,1.8,5.4
28.0,1.7,0.0,103.0,6.7,0.667,3.4,5.0,0.333,1.7,5.0,0.5,5.0,10.1,0.5,3.4,6.7,7.0,0.0,NBA,31.0,124.0,0.0,6.7,SF,15.1,2011,3.4,SAS,0.0,6.7
28.0,3.2,2.3,107.0,4.6,0.438,3.2,7.3,0.5,2.3,4.6,0.462,5.5,11.9,0.4,0.9,2.3,5.0,0.0,NBA,112.0,102.0,0.5,6.4,SF,14.2,2011,3.2,WAS,2.3,5.0
29.0,2.8,0.7,112.0,7.8,0.333,1.4,4.3,0.4,1.4,3.6,0.364,2.8,7.8,0.75,2.1,2.8,7.0,0.0,NBA,75.0,107.0,1.4,7.1,SF,9.2,2012,0.0,NJN,1.4,9.2
