age,ast_per_g,blk_per_g,drb_per_g,efg_pct,fg2_pct,fg2_per_g,fg2a_per_g,fg3_pct,fg3_per_g,fg3a_per_g,fg_pct,fg_per_g,fga_per_g,ft_pct,ft_per_g,fta_per_g,g,gs,lg_id,mp_per_g,orb_per_g,pf_per_g,pos,pts_per_g,season,stl_per_g,team_id,tov_per_g,trb_per_g
28.0,0.7,0.4,1.2,0.563,0.474,0.8,1.6,0.462,0.5,1.1,0.469,1.3,2.7,0.444,0.3,0.8,12.0,0.0,NBA,11.9,0.1,1.5,SF,3.3,2011,0.8,TOT,0.4,1.3
28.0,0.1,0.0,0.6,0.583,0.667,0.3,0.4,0.333,0.1,0.4,0.5,0.4,0.9,0.5,0.3,0.6,7.0,0.0,NBA,4.4,0.0,0.6,SF,1.3,2011,0.3,SAS,0.0,0.6
28.0,1.4,1.0,2.0,0.558,0.438,1.4,3.2,0.5,1.0,2.0,0.462,2.4,5.2,0.4,0.4,1.0,5.0,0.0,NBA,22.4,0.2,2.8,SF,6.2,2011,1.4,WAS,1.0,2.2
29.0,0.6,0.1,1.6,0.455,0.333,0.3,0.9,0.4,0.3,0.7,0.364,0.6,1.6,0.75,0.4,0.6,7.0,0.0,NBA,10.7,0.3,1.4,SF,1.9,2012,0.0,NJN,0.3,1.9
