age,ast,ast_per_g,blk,college_id,fg,fg3,fg3_pct,fg3a,fg_pct,fga,ft,ft_pct,fta,g,mp,mp_per_g,orb,pf,pts,pts_per_g,season,stl,tov,trb,trb_per_g
18.0,15.0,0.5,16.0,KENTUCKY,30.0,0.0,0.0,0.0,0.667,45.0,18.0,0.514,35.0,32.0,0.0,0.0,0.0,0.0,78.0,2.4,1998,7.0,0.0,55.0,1.7
19.0,37.0,1.0,30.0,KENTUCKY,157.0,0.0,0.0,0.0,0.657,239.0,50.0,0.455,110.0,37.0,811.0,21.9,0.0,72.0,364.0,9.8,1999,29.0,64.0,182.0,4.9
21.0,81.0,2.6,56.0,VILLANOVA,254.0,12.0,0.353,34.0,0.692,367.0,125.0,0.59,212.0,31.0,1053.0,34.0,0.0,89.0,645.0,20.8,2001,28.0,88.0,303.0,9.8
