age,ast_per_g,blk_per_g,drb_per_g,efg_pct,fg2_pct,fg2_per_g,fg2a_per_g,fg3_pct,fg3_per_g,fg3a_per_g,fg_pct,fg_per_g,fga_per_g,ft_pct,ft_per_g,fta_per_g,g,gs,lg_id,mp_per_g,orb_per_g,pf_per_g,pos,pts_per_g,season,stl_per_g,team_id,tov_per_g,trb_per_g
22.0,3.9,0.4,1.8,0.464,0.469,3.1,6.5,0.167,0.0,0.1,0.462,3.1,6.7,0.785,3.1,4.0,81.0,47.0,NBA,23.9,0.9,3.5,PG,9.3,1984,1.6,ATL,2.1,2.7
23.0,5.9,0.8,2.1,0.487,0.48,4.6,9.6,0.417,0.2,0.5,0.476,4.8,10.2,0.77,4.2,5.5,69.0,58.0,NBA,30.8,1.0,3.6,PG,14.1,1985,2.4,ATL,2.6,3.1
24.0,8.4,0.2,2.1,0.474,0.491,4.2,8.5,0.0,0.0,0.3,0.474,4.2,8.8,0.608,3.2,5.3,53.0,50.0,NBA,29.6,0.9,3.5,PG,11.5,1986,2.3,ATL,2.7,3.1
25.0,10.0,0.4,2.6,0.454,0.459,4.1,9.0,0.19,0.0,0.3,0.451,4.2,9.2,0.828,4.5,5.4,82.0,82.0,NBA,31.6,1.0,3.5,PG,12.8,1987,2.1,ATL,2.6,3.6
26.0,9.3,0.5,3.5,0.458,0.46,4.9,10.7,0.273,0.1,0.4,0.453,5.0,11.1,0.758,4.0,5.3,80.0,80.0,NBA,31.3,1.0,3.4,PG,14.2,1988,1.8,ATL,2.6,4.6
27.0,6.9,0.5,2.6,0.481,0.474,4.3,9.1,0.347,0.6,1.6,0.455,4.9,10.7,0.861,3.3,3.8,76.0,76.0,NBA,32.4,1.2,3.5,PG,13.6,1989,2.4,ATL,2.1,3.8
28.0,5.5,0.5,3.2,0.479,0.469,4.0,8.6,0.364,0.5,1.4,0.454,4.5,10.0,0.812,2.9,3.5,48.0,44.0,NBA,31.8,1.0,3.1,PG,12.5,1990,2.4,ATL,2.0,4.2
29.0,4.3,0.6,2.6,0.478,0.47,4.5,9.6,0.336,1.1,3.3,0.435,5.6,12.9,0.844,2.8,3.3,79.0,79.0,NBA,32.7,0.6,2.7,PG,15.2,1991,1.9,ATL,1.6,3.2
30.0,3.9,0.3,2.1,0.448,0.454,3.4,7.5,0.283,0.4,1.6,0.424,3.8,9.0,0.832,2.8,3.3,59.0,25.0,NBA,28.1,0.4,2.8,PG,10.9,1992,1.9,LAC,1.6,2.5
31.0,5.3,0.1,2.2,0.477,0.477,2.3,4.8,0.317,0.5,1.6,0.437,2.8,6.4,0.821,1.7,2.1,77.0,45.0,NBA,24.5,0.3,2.8,PG,7.8,1993,1.6,NYK,1.5,2.5
32.0,5.3,0.3,1.8,0.508,0.48,1.9,3.9,0.365,1.0,2.7,0.433,2.9,6.7,0.636,0.7,1.2,19.0,19.0,NBA,26.3,0.2,2.3,PG,7.5,1994,1.3,NYK,1.5,2.1
33.0,2.6,0.3,1.5,0.432,0.36,1.0,2.8,0.354,0.7,2.0,0.358,1.7,4.8,0.732,1.0,1.3,63.0,0.0,NBA,15.7,0.2,2.4,PG,5.1,1995,1.0,TOT,1.0,1.7
33.0,2.7,0.0,2.3,0.423,0.125,0.3,2.7,0.6,1.0,1.7,0.308,1.3,4.3,0.727,2.7,3.7,3.0,0.0,NBA,15.7,0.7,2.7,PG,6.3,1995,1.3,NYK,1.3,3.0
33.0,2.6,0.4,1.5,0.433,0.371,1.0,2.8,0.344,0.7,2.0,0.36,1.7,4.8,0.732,0.9,1.2,60.0,0.0,NBA,15.7,0.2,2.4,PG,5.0,1995,1.0,SAS,0.9,1.7
34.0,1.6,0.3,1.4,0.453,0.399,0.8,2.0,0.343,0.6,1.8,0.372,1.4,3.7,0.75,0.6,0.8,78.0,0.0,NBA,15.8,0.4,2.2,PG,4.0,1996,0.9,SAS,0.7,1.8
