age,ast_per_mp,blk_per_mp,drb_per_mp,fg2_pct,fg2_per_mp,fg2a_per_mp,fg3_pct,fg3_per_mp,fg3a_per_mp,fg_pct,fg_per_mp,fga_per_mp,ft_pct,ft_per_mp,fta_per_mp,g,gs,lg_id,mp,orb_per_mp,pf_per_mp,pos,pts_per_mp,season,stl_per_mp,team_id,tov_per_mp,trb_per_mp
22.0,4.4,1.1,0.8,0.552,4.4,8.0,0.0,0.0,0.8,0.5,4.4,8.9,0.878,10.0,11.4,5.0,0.0,NBA,130.0,1.9,4.4,PG,18.8,1984,3.3,ATL,2.5,2.8
24.0,10.7,0.0,4.4,0.43,5.1,11.8,0.5,0.4,0.8,0.435,5.5,12.6,0.738,4.3,5.8,9.0,9.0,NBA,262.0,1.4,5.2,PG,15.7,1986,2.5,ATL,3.6,5.8
25.0,13.2,0.4,3.1,0.383,2.6,6.9,0.0,0.0,0.0,0.383,2.6,6.9,0.5,3.8,7.6,8.0,8.0,NBA,245.0,0.9,4.7,PG,9.1,1987,1.3,ATL,3.7,4.0
26.0,10.1,0.2,4.5,0.547,5.6,10.3,0.318,0.6,1.9,0.511,6.2,12.2,0.907,3.4,3.8,12.0,12.0,NBA,409.0,0.7,3.5,PG,16.5,1988,2.2,ATL,2.2,5.2
27.0,6.4,0.4,3.8,0.421,3.0,7.2,0.316,1.1,3.6,0.386,4.1,10.7,0.708,3.2,4.5,5.0,5.0,NBA,191.0,0.8,4.1,PG,12.6,1989,1.3,ATL,2.3,4.5
29.0,3.1,0.4,2.9,0.547,6.0,11.0,0.091,0.2,2.3,0.469,6.2,13.3,0.895,3.5,4.0,5.0,5.0,NBA,173.0,1.2,2.9,PG,16.2,1991,1.0,ATL,0.8,4.2
30.0,4.0,0.0,2.9,0.438,4.0,9.2,0.5,0.8,1.5,0.446,4.8,10.8,0.815,4.2,5.2,5.0,4.0,NBA,187.0,0.8,3.1,PG,14.6,1992,1.2,LAC,0.6,3.7
31.0,6.8,0.1,2.6,0.493,2.9,5.9,0.355,0.9,2.4,0.453,3.8,8.3,0.767,3.6,4.7,15.0,15.0,NBA,458.0,0.5,3.5,PG,12.0,1993,2.3,NYK,2.4,3.1
33.0,2.7,1.0,2.9,0.408,2.3,5.5,0.37,1.9,5.2,0.389,4.2,10.8,0.839,2.9,3.5,15.0,0.0,NBA,318.0,0.3,4.5,PG,13.2,1995,1.6,SAS,2.0,3.3
34.0,0.0,0.0,1.8,0.0,0.0,1.8,0.5,1.8,3.6,0.333,1.8,5.4,0.0,0.0,0.0,2.0,0.0,NBA,20.0,0.0,5.4,PG,5.4,1996,0.0,SAS,1.8,1.8
