age,ast,blk,drb,fg,fg2,fg2a,fg3,fg3a,fga,ft,fta,game_score,lg_id,mp,orb,pf,pts,season,stl,team_id,tov,trb
22.0,13.0,1.0,7.0,10.0,9.0,16.0,5.0,8.0,19.0,7.0,8.0,29.5,NBA,0.0,3.0,6.0,30.0,2005,7.0,ORL,7.0,8.0
23.0,13.0,2.0,7.0,12.0,11.0,20.0,4.0,7.0,20.0,12.0,14.0,31.4,NBA,43.0,2.0,6.0,32.0,2006,4.0,ORL,7.0,7.0
24.0,9.0,1.0,6.0,12.0,11.0,18.0,4.0,7.0,21.0,9.0,9.0,26.0,NBA,43.0,4.0,6.0,31.0,2007,3.0,ORL,7.0,8.0
25.0,11.0,1.0,8.0,9.0,7.0,14.0,5.0,6.0,18.0,10.0,11.0,26.0,NBA,42.0,2.0,6.0,24.0,2008,3.0,ORL,6.0,8.0
26.0,11.0,1.0,10.0,13.0,10.0,16.0,5.0,9.0,25.0,7.0,8.0,30.3,NBA,40.0,2.0,6.0,32.0,2009,5.0,ORL,5.0,10.0
27.0,11.0,1.0,6.0,9.0,9.0,14.0,5.0,9.0,20.0,9.0,10.0,24.2,NBA,39.0,3.0,5.0,30.0,2010,3.0,ORL,6.0,9.0
28.0,14.0,2.0,8.0,11.0,10.0,15.0,5.0,8.0,19.0,8.0,8.0,24.4,NBA,43.0,3.0,6.0,26.0,2011,5.0,ORL,6.0,9.0
29.0,14.0,1.0,9.0,11.0,9.0,14.0,5.0,9.0,21.0,6.0,7.0,23.2,NBA,39.0,2.0,6.0,27.0,2012,3.0,ORL,6.0,9.0
30.0,15.0,2.0,6.0,11.0,8.0,13.0,6.0,12.0,22.0,5.0,6.0,24.3,NBA,48.0,2.0,6.0,32.0,2013,4.0,ORL,6.0,7.0
31.0,13.0,1.0,7.0,13.0,10.0,17.0,5.0,13.0,30.0,9.0,10.0,21.4,NBA,55.0,2.0,6.0,31.0,2014,3.0,ORL,7.0,8.0
32.0,11.0,1.0,5.0,11.0,9.0,13.0,4.0,8.0,20.0,2.0,4.0,16.7,NBA,42.0,3.0,6.0,24.0,2015,4.0,TOT,5.0,5.0
32.0,8.0,1.0,4.0,6.0,2.0,7.0,4.0,8.0,12.0,2.0,2.0,15.2,NBA,31.0,3.0,4.0,18.0,2015,2.0,DAL,5.0,5.0
32.0,11.0,0.0,4.0,3.0,2.0,5.0,1.0,6.0,9.0,2.0,4.0,15.4,NBA,30.0,2.0,3.0,9.0,2015,4.0,BOS,3.0,4.0
32.0,9.0,1.0,5.0,11.0,9.0,13.0,4.0,8.0,20.0,2.0,3.0,16.7,NBA,42.0,2.0,6.0,24.0,2015,4.0,DEN,4.0,5.0
33.0,9.0,1.0,7.0,8.0,6.0,8.0,4.0,10.0,18.0,9.0,10.0,19.1,NBA,46.0,4.0,6.0,20.0,2016,2.0,DEN,4.0,8.0
34.0,13.0,1.0,7.0,9.0,7.0,15.0,5.0,7.0,19.0,7.0,8.0,20.1,NBA,42.0,3.0,5.0,23.0,2017,5.0,DEN,5.0,8.0
35.0,9.0,1.0,6.0,7.0,4.0,6.0,4.0,8.0,13.0,4.0,4.0,15.4,NBA,36.0,2.0,5.0,18.0,2018,4.0,TOT,5.0,6.0
35.0,9.0,1.0,6.0,7.0,3.0,5.0,4.0,8.0,13.0,4.0,4.0,15.4,NBA,36.0,2.0,4.0,18.0,2018,4.0,NOP,5.0,6.0
35.0,5.0,1.0,2.0,5.0,4.0,6.0,1.0,6.0,12.0,2.0,2.0,9.0,NBA,26.0,1.0,5.0,12.0,2018,2.0,DET,4.0,3.0
