age,ast_pct,blk_pct,bpm,bpm-dum,dbpm,drb_pct,dws,fg3a_per_fga_pct,fta_per_fga_pct,g,lg_id,mp,obpm,orb_pct,ows,per,pos,season,stl_pct,team_id,tov_pct,trb_pct,ts_pct,usg_pct,vorp,ws,ws-dum,ws_per_48
23.0,11.3,3.0,-7.2,0.0,-1.1,11.3,0.1,0.02,0.327,16.0,NBA,107.0,-6.1,7.2,-0.2,9.4,PF,1994,1.0,ATL,9.7,9.2,0.384,24.9,-0.1,0.0,0.0,-0.009
24.0,9.5,1.4,-4.8,0.0,0.2,16.3,0.3,0.021,0.667,38.0,NBA,212.0,-5.0,10.2,-0.1,10.1,PF,1995,1.3,ATL,26.2,13.2,0.54,18.0,-0.2,0.2,0.0,0.043
25.0,11.8,2.6,-4.0,0.0,1.4,12.2,0.4,0.044,0.418,31.0,NBA,519.0,-5.4,7.6,-0.3,7.5,PF,1996,1.0,VAN,21.2,9.8,0.432,12.0,-0.3,0.1,0.0,0.005
