age,ast,ast_per_g,blk,college_id,fg,fg3,fg3_pct,fg3a,fg_pct,fga,ft,ft_pct,fta,g,mp,mp_per_g,orb,pf,pts,pts_per_g,season,stl,tov,trb,trb_per_g
20.0,61.0,1.9,36.0,FLORIDAST,200.0,12.0,0.333,36.0,0.519,385.0,112.0,0.709,158.0,32.0,1046.0,32.7,0.0,97.0,524.0,16.4,1991,32.0,83.0,227.0,7.1
21.0,80.0,2.7,41.0,FLORIDAST,197.0,12.0,0.226,53.0,0.512,385.0,106.0,0.746,142.0,30.0,1076.0,35.9,0.0,95.0,512.0,17.1,1992,48.0,90.0,271.0,9.0
22.0,91.0,2.9,44.0,FLORIDAST,224.0,6.0,0.24,25.0,0.528,424.0,114.0,0.722,158.0,31.0,1085.0,35.0,0.0,102.0,568.0,18.3,1993,43.0,84.0,290.0,9.4
