age,ast_per_g,blk_per_g,drb_per_g,efg_pct,fg2_pct,fg2_per_g,fg2a_per_g,fg3_pct,fg3_per_g,fg3a_per_g,fg_pct,fg_per_g,fga_per_g,ft_pct,ft_per_g,fta_per_g,g,gs,lg_id,mp_per_g,orb_per_g,pf_per_g,pos,pts_per_g,season,stl_per_g,team_id,tov_per_g,trb_per_g
20.0,3.8,0.2,2.7,0.483,0.434,3.2,7.5,0.38,1.6,4.2,0.415,4.8,11.7,0.759,1.6,2.1,66.0,60.0,NBA,32.3,0.5,2.3,PG,12.8,2012,0.7,DET,2.6,3.2
21.0,4.0,0.1,2.6,0.475,0.43,3.2,7.3,0.367,1.6,4.4,0.407,4.8,11.7,0.733,2.2,3.0,75.0,75.0,NBA,31.5,0.7,2.1,PG,13.3,2013,0.8,DET,2.7,3.3
22.0,4.9,0.2,2.9,0.473,0.466,4.9,10.5,0.325,1.5,4.7,0.422,6.4,15.2,0.802,3.6,4.5,72.0,69.0,NBA,33.3,0.6,2.0,PG,17.9,2014,1.0,MIL,2.6,3.5
23.0,5.2,0.2,3.4,0.493,0.441,4.0,9.0,0.389,2.0,5.1,0.422,6.0,14.1,0.874,3.1,3.5,63.0,61.0,NBA,32.3,0.4,1.8,PG-SG,17.0,2015,1.4,TOT,3.0,3.9
23.0,5.4,0.2,3.8,0.505,0.448,4.2,9.4,0.409,2.0,4.9,0.435,6.2,14.3,0.881,3.3,3.7,52.0,52.0,NBA,32.5,0.5,1.8,PG,17.8,2015,1.6,MIL,3.2,4.3
23.0,4.5,0.1,1.9,0.43,0.395,2.7,6.9,0.313,1.9,6.1,0.357,4.6,13.0,0.828,2.2,2.6,11.0,9.0,NBA,31.5,0.2,1.9,SG,13.4,2015,0.5,PHO,2.1,2.1
24.0,5.1,0.4,3.2,0.482,0.461,4.8,10.5,0.342,2.3,6.8,0.415,7.1,17.2,0.852,3.0,3.5,52.0,50.0,NBA,36.0,0.7,2.4,SG,19.6,2016,1.2,PHO,3.4,3.9
25.0,2.4,0.1,1.7,0.441,0.425,3.0,7.1,0.324,0.8,2.6,0.398,3.9,9.7,0.857,2.4,2.9,54.0,5.0,NBA,21.1,0.5,1.6,SG,11.0,2017,0.5,PHO,1.6,2.2
27.0,1.8,0.1,1.3,0.46,0.443,1.5,3.4,0.318,1.1,3.3,0.381,2.5,6.7,0.794,0.7,0.9,39.0,26.0,NBA,18.9,0.3,1.6,PG,6.8,2019,0.5,TOT,0.8,1.5
27.0,0.8,0.0,0.7,0.287,0.4,0.5,1.3,0.156,0.4,2.7,0.234,0.9,3.9,0.818,0.8,0.9,12.0,0.0,NBA,9.8,0.1,1.2,PG,3.0,2019,0.2,HOU,0.4,0.8
27.0,2.3,0.1,1.5,0.498,0.448,1.9,4.3,0.371,1.3,3.6,0.413,3.3,7.9,0.783,0.7,0.9,27.0,26.0,NBA,22.9,0.3,1.8,PG,8.5,2019,0.7,CLE,0.9,1.9
28.0,2.3,0.0,1.0,0.5,0.0,0.0,0.7,0.385,1.7,4.3,0.333,1.7,5.0,0.5,0.3,0.7,3.0,0.0,NBA,12.7,0.0,2.0,PG,5.3,2020,0.3,CLE,1.0,1.0
