age,ast_per_mp,blk_per_mp,drb_per_mp,fg2_pct,fg2_per_mp,fg2a_per_mp,fg3_pct,fg3_per_mp,fg3a_per_mp,fg_pct,fg_per_mp,fga_per_mp,ft_pct,ft_per_mp,fta_per_mp,g,gs,lg_id,mp,orb_per_mp,pf_per_mp,pos,pts_per_mp,season,stl_per_mp,team_id,tov_per_mp,trb_per_mp
20.0,4.2,0.2,3.0,0.434,3.6,8.3,0.38,1.8,4.7,0.415,5.4,13.0,0.759,1.8,2.3,66.0,60.0,NBA,2129.0,0.6,2.6,PG,14.3,2012,0.8,DET,2.9,3.6
21.0,4.6,0.1,2.9,0.43,3.6,8.4,0.367,1.8,5.0,0.407,5.4,13.4,0.733,2.5,3.4,75.0,75.0,NBA,2365.0,0.8,2.4,PG,15.2,2013,0.9,DET,3.1,3.8
22.0,5.3,0.3,3.1,0.466,5.3,11.3,0.325,1.6,5.1,0.422,6.9,16.4,0.802,3.9,4.8,72.0,69.0,NBA,2400.0,0.7,2.2,PG,19.4,2014,1.0,MIL,2.8,3.8
23.0,5.8,0.2,3.8,0.441,4.4,10.0,0.389,2.2,5.7,0.422,6.6,15.7,0.874,3.4,3.9,63.0,61.0,NBA,2035.0,0.5,2.0,PG-SG,18.9,2015,1.6,TOT,3.3,4.3
23.0,6.0,0.2,4.2,0.448,4.7,10.5,0.409,2.2,5.4,0.435,6.9,15.9,0.881,3.6,4.1,52.0,52.0,NBA,1688.0,0.6,2.0,PG,19.7,2015,1.8,MIL,3.5,4.7
23.0,5.1,0.1,2.2,0.395,3.1,7.9,0.313,2.2,7.0,0.357,5.3,14.8,0.828,2.5,3.0,11.0,9.0,NBA,347.0,0.2,2.2,SG,15.3,2015,0.6,PHO,2.4,2.4
24.0,5.1,0.4,3.2,0.461,4.8,10.5,0.342,2.3,6.8,0.415,7.1,17.2,0.852,3.0,3.5,52.0,50.0,NBA,1870.0,0.7,2.4,SG,19.6,2016,1.2,PHO,3.4,3.9
25.0,4.1,0.2,2.9,0.425,5.2,12.2,0.324,1.4,4.4,0.398,6.6,16.6,0.857,4.2,4.9,54.0,5.0,NBA,1140.0,0.8,2.7,SG,18.8,2017,0.9,PHO,2.8,3.7
27.0,3.5,0.1,2.4,0.443,2.8,6.4,0.318,2.0,6.3,0.381,4.8,12.7,0.794,1.3,1.7,39.0,26.0,NBA,736.0,0.5,3.0,PG,13.0,2019,1.0,TOT,1.5,2.9
27.0,2.7,0.0,2.4,0.4,1.8,4.6,0.156,1.5,9.8,0.234,3.4,14.3,0.818,2.7,3.4,12.0,0.0,NBA,118.0,0.3,4.3,PG,11.0,2019,0.6,HOU,1.5,2.7
27.0,3.6,0.1,2.4,0.448,3.0,6.8,0.371,2.1,5.7,0.413,5.1,12.4,0.783,1.0,1.3,27.0,26.0,NBA,618.0,0.5,2.8,PG,13.4,2019,1.1,CLE,1.5,2.9
28.0,6.6,0.0,2.8,0.0,0.0,1.9,0.385,4.7,12.3,0.333,4.7,14.2,0.5,0.9,1.9,3.0,0.0,NBA,38.0,0.0,5.7,PG,15.2,2020,0.9,CLE,2.8,2.8
