age,ast_per_poss,blk_per_poss,def_rtg,drb_per_poss,fg2_pct,fg2_per_poss,fg2a_per_poss,fg3_pct,fg3_per_poss,fg3a_per_poss,fg_pct,fg_per_poss,fga_per_poss,ft_pct,ft_per_poss,fta_per_poss,g,gs,lg_id,mp,off_rtg,orb_per_poss,pf_per_poss,pos,pts_per_poss,season,stl_per_poss,team_id,tov_per_poss,trb_per_poss
24.0,2.7,5.2,97.0,11.0,0.532,11.2,21.1,0.0,0.0,0.0,0.531,11.2,21.1,0.732,10.0,13.6,82.0,81.0,NBA,3002.0,116.0,4.9,4.2,C,32.4,1990,2.2,SAS,4.2,16.0
25.0,3.3,5.0,96.0,11.5,0.554,11.8,21.4,0.143,0.0,0.1,0.552,11.9,21.5,0.762,9.3,12.2,82.0,81.0,NBA,3095.0,119.0,5.3,4.2,C,33.1,1991,2.0,SAS,4.2,16.7
26.0,3.5,5.9,94.0,11.1,0.554,11.5,20.7,0.125,0.0,0.2,0.551,11.5,20.9,0.701,7.6,10.9,68.0,68.0,NBA,2564.0,118.0,5.1,4.3,C,30.7,1992,3.1,SAS,3.5,16.1
27.0,4.7,4.1,100.0,11.4,0.506,10.5,20.9,0.176,0.0,0.3,0.501,10.6,21.1,0.732,8.8,12.0,82.0,82.0,NBA,3211.0,113.0,3.6,3.7,C,30.0,1993,2.0,SAS,3.8,15.0
28.0,6.3,4.4,98.0,10.1,0.51,13.6,26.8,0.345,0.2,0.5,0.507,13.8,27.2,0.749,11.4,15.2,80.0,80.0,NBA,3241.0,119.0,4.0,3.7,C,39.2,1994,2.3,SAS,4.2,14.1
29.0,3.9,4.3,99.0,10.6,0.533,12.9,24.2,0.3,0.1,0.3,0.53,13.0,24.5,0.774,10.8,14.0,81.0,81.0,NBA,3074.0,120.0,3.9,3.8,C,36.9,1995,2.2,SAS,3.8,14.5
30.0,4.2,4.6,96.0,11.6,0.517,12.1,23.3,0.333,0.1,0.2,0.516,12.1,23.5,0.761,10.7,14.0,82.0,82.0,NBA,3019.0,120.0,5.4,4.5,C,34.9,1996,1.9,SAS,3.2,17.0
31.0,3.0,2.2,106.0,12.0,0.5,13.5,26.9,0.0,0.0,0.0,0.5,13.5,26.9,0.654,12.7,19.4,6.0,6.0,NBA,147.0,117.0,7.1,3.4,C,39.6,1997,2.2,SAS,3.0,19.1
32.0,4.4,4.2,94.0,11.8,0.512,12.0,23.4,0.25,0.0,0.1,0.511,12.0,23.5,0.735,10.7,14.6,73.0,73.0,NBA,2457.0,114.0,5.3,4.5,C,34.8,1998,1.4,SAS,4.5,17.1
33.0,3.6,4.1,88.0,12.0,0.51,9.3,18.3,0.0,0.0,0.0,0.509,9.3,18.4,0.658,8.3,12.6,49.0,49.0,NBA,1554.0,111.0,5.2,5.0,C,27.0,1999,2.4,SAS,3.8,17.1
34.0,2.9,3.8,92.0,11.9,0.513,10.9,21.3,0.0,0.0,0.0,0.512,10.9,21.3,0.726,7.7,10.6,80.0,80.0,NBA,2557.0,112.0,4.0,5.1,C,29.5,2000,2.0,SAS,3.4,15.9
35.0,2.6,4.5,92.0,10.9,0.487,9.0,18.6,0.0,0.0,0.0,0.486,9.0,18.6,0.747,7.9,10.6,80.0,80.0,NBA,2371.0,114.0,4.7,4.8,C,26.0,2001,1.8,SAS,2.8,15.6
36.0,2.2,3.2,95.0,10.6,0.507,7.9,15.6,0.0,0.0,0.0,0.507,7.9,15.6,0.681,6.2,9.1,78.0,78.0,NBA,2303.0,114.0,4.4,4.5,C,22.0,2002,2.0,SAS,2.4,15.0
37.0,1.9,3.5,95.0,11.0,0.469,6.3,13.4,0.0,0.0,0.0,0.469,6.3,13.4,0.71,4.8,6.8,64.0,64.0,NBA,1676.0,109.0,5.2,4.0,C,17.4,2003,1.7,SAS,2.6,16.2
