age,ast,blk,drb,efg_pct,fg,fg2,fg2_pct,fg2a,fg3,fg3_pct,fg3a,fg_pct,fga,ft,ft_pct,fta,g,gs,lg_id,mp,orb,pf,pos,pts,season,stl,team_id,tov,trb
24.0,23.0,40.0,84.0,0.533,89.0,89.0,0.533,167.0,0.0,0.0,0.0,0.533,167.0,65.0,0.677,96.0,10.0,10.0,NBA,375.0,36.0,35.0,C,243.0,1990,11.0,SAS,24.0,120.0
25.0,8.0,15.0,43.0,0.686,35.0,35.0,0.7,50.0,0.0,0.0,1.0,0.686,51.0,33.0,0.868,38.0,4.0,4.0,NBA,166.0,11.0,11.0,C,103.0,1991,6.0,SAS,15.0,54.0
27.0,40.0,36.0,97.0,0.465,79.0,79.0,0.467,169.0,0.0,0.0,1.0,0.465,170.0,73.0,0.664,110.0,10.0,10.0,NBA,421.0,29.0,39.0,C,231.0,1993,10.0,SAS,25.0,126.0
28.0,14.0,10.0,27.0,0.411,30.0,30.0,0.417,72.0,0.0,0.0,1.0,0.411,73.0,20.0,0.741,27.0,4.0,4.0,NBA,146.0,13.0,14.0,C,80.0,1994,3.0,SAS,9.0,40.0
29.0,47.0,39.0,125.0,0.448,129.0,128.0,0.451,284.0,1.0,0.2,5.0,0.446,289.0,121.0,0.812,149.0,15.0,15.0,NBA,623.0,57.0,63.0,C,380.0,1995,22.0,SAS,56.0,182.0
30.0,24.0,25.0,64.0,0.516,83.0,83.0,0.516,161.0,0.0,0.0,0.0,0.516,161.0,70.0,0.667,105.0,10.0,10.0,NBA,353.0,37.0,38.0,C,236.0,1996,15.0,SAS,24.0,101.0
32.0,23.0,30.0,86.0,0.425,57.0,57.0,0.425,134.0,0.0,0.0,0.0,0.425,134.0,61.0,0.635,96.0,9.0,9.0,NBA,353.0,41.0,28.0,C,175.0,1998,11.0,SAS,25.0,127.0
33.0,43.0,40.0,132.0,0.483,87.0,87.0,0.483,180.0,0.0,0.0,0.0,0.483,180.0,91.0,0.722,126.0,17.0,17.0,NBA,600.0,36.0,61.0,C,265.0,1999,28.0,SAS,40.0,168.0
34.0,10.0,12.0,38.0,0.373,31.0,31.0,0.378,82.0,0.0,0.0,1.0,0.373,83.0,32.0,0.762,42.0,4.0,4.0,NBA,155.0,17.0,15.0,C,94.0,2000,7.0,SAS,8.0,55.0
35.0,22.0,31.0,114.0,0.472,75.0,75.0,0.475,158.0,0.0,0.0,1.0,0.472,159.0,66.0,0.695,95.0,13.0,13.0,NBA,409.0,39.0,42.0,C,216.0,2001,17.0,SAS,28.0,153.0
36.0,5.0,3.0,17.0,0.474,9.0,9.0,0.474,19.0,0.0,0.0,0.0,0.474,19.0,0.0,0.0,4.0,4.0,4.0,NBA,81.0,6.0,14.0,C,18.0,2002,3.0,SAS,2.0,23.0
37.0,21.0,31.0,107.0,0.542,64.0,64.0,0.542,118.0,0.0,0.0,0.0,0.542,118.0,52.0,0.667,78.0,23.0,23.0,NBA,539.0,45.0,63.0,C,180.0,2003,18.0,SAS,24.0,152.0
