age,ast,blk,drb,fg,fg2,fg2a,fg3,fg3a,fga,ft,fta,game_score,lg_id,mp,orb,pf,pts,season,stl,team_id,tov,trb
24.0,7.0,12.0,15.0,16.0,16.0,29.0,0.0,1.0,29.0,17.0,22.0,40.3,NBA,0.0,11.0,6.0,41.0,1990,5.0,SAS,8.0,21.0
25.0,6.0,11.0,16.0,16.0,16.0,28.0,1.0,1.0,28.0,15.0,18.0,46.6,NBA,0.0,14.0,6.0,43.0,1991,6.0,SAS,9.0,23.0
26.0,11.0,11.0,14.0,16.0,16.0,30.0,1.0,1.0,30.0,13.0,16.0,42.9,NBA,0.0,12.0,6.0,39.0,1992,6.0,SAS,8.0,24.0
27.0,10.0,10.0,15.0,20.0,19.0,26.0,1.0,2.0,28.0,16.0,21.0,48.0,NBA,0.0,8.0,6.0,52.0,1993,5.0,SAS,7.0,21.0
28.0,10.0,10.0,15.0,26.0,25.0,39.0,1.0,4.0,41.0,18.0,25.0,51.8,NBA,0.0,11.0,6.0,71.0,1994,6.0,SAS,8.0,18.0
29.0,9.0,7.0,19.0,18.0,18.0,31.0,1.0,2.0,32.0,18.0,23.0,36.9,NBA,0.0,11.0,6.0,43.0,1995,5.0,SAS,9.0,20.0
30.0,7.0,8.0,15.0,18.0,18.0,30.0,1.0,2.0,31.0,18.0,21.0,43.4,NBA,0.0,11.0,6.0,45.0,1996,6.0,SAS,6.0,21.0
31.0,4.0,2.0,7.0,10.0,10.0,14.0,0.0,0.0,14.0,8.0,11.0,27.0,NBA,0.0,5.0,3.0,27.0,1997,2.0,SAS,4.0,10.0
32.0,9.0,8.0,13.0,15.0,15.0,25.0,1.0,2.0,25.0,18.0,20.0,34.9,NBA,0.0,11.0,6.0,39.0,1998,3.0,SAS,6.0,18.0
33.0,7.0,8.0,16.0,11.0,11.0,19.0,0.0,1.0,19.0,12.0,20.0,32.1,NBA,0.0,8.0,5.0,29.0,1999,4.0,SAS,6.0,20.0
34.0,5.0,7.0,15.0,18.0,18.0,27.0,0.0,1.0,27.0,13.0,16.0,33.1,NBA,0.0,8.0,6.0,38.0,2000,7.0,SAS,6.0,19.0
35.0,5.0,8.0,17.0,14.0,14.0,18.0,0.0,1.0,18.0,14.0,19.0,30.6,NBA,0.0,7.0,6.0,34.0,2001,5.0,SAS,6.0,22.0
36.0,5.0,7.0,14.0,12.0,12.0,19.0,0.0,0.0,19.0,12.0,15.0,30.0,NBA,0.0,8.0,6.0,27.0,2002,5.0,SAS,4.0,17.0
37.0,4.0,5.0,14.0,7.0,7.0,13.0,0.0,0.0,13.0,10.0,10.0,24.4,NBA,0.0,8.0,6.0,20.0,2003,4.0,SAS,4.0,19.0
