age,ast_pct,blk_pct,bpm,bpm-dum,dbpm,drb_pct,dws,fg3a_per_fga_pct,fta_per_fga_pct,g,lg_id,mp,obpm,orb_pct,ows,per,pos,season,stl_pct,team_id,tov_pct,trb_pct,ts_pct,usg_pct,vorp,ws,ws-dum,ws_per_48
24.0,8.7,6.5,6.5,0.0,3.8,24.8,7.2,0.002,0.644,82.0,NBA,3002.0,2.7,11.7,7.9,26.3,C,1990,2.2,SAS,13.3,18.5,0.597,26.6,6.4,15.1,0.0,0.241
25.0,10.9,6.2,8.4,0.0,4.4,24.7,7.6,0.005,0.569,82.0,NBA,3095.0,4.0,12.6,9.4,27.4,C,1991,2.0,SAS,13.7,19.0,0.615,26.6,8.1,17.0,0.0,0.264
26.0,11.3,7.4,10.0,0.0,6.1,24.0,6.9,0.007,0.522,68.0,NBA,2564.0,3.8,11.2,7.0,27.5,C,1992,3.1,SAS,12.1,17.7,0.597,24.7,7.8,13.9,0.0,0.26
27.0,15.0,5.1,6.7,0.0,4.3,24.8,6.4,0.013,0.568,82.0,NBA,3211.0,2.4,8.6,6.7,24.2,C,1993,2.0,SAS,12.5,17.1,0.569,26.4,7.0,13.2,0.0,0.197
28.0,21.6,5.4,10.9,0.0,4.2,20.3,6.7,0.017,0.558,80.0,NBA,3241.0,6.8,8.8,13.3,30.7,C,1994,2.3,SAS,10.9,14.8,0.577,32.0,10.6,20.0,0.0,0.296
29.0,13.7,5.9,8.4,0.0,4.3,22.6,6.7,0.013,0.57,81.0,NBA,3074.0,4.1,9.1,10.7,29.1,C,1995,2.2,SAS,11.1,16.2,0.602,29.9,8.1,17.5,0.0,0.273
30.0,14.6,6.4,9.2,0.0,4.9,24.2,7.2,0.007,0.597,82.0,NBA,3019.0,4.3,12.3,11.1,29.4,C,1996,1.9,SAS,9.8,18.4,0.589,28.8,8.5,18.3,0.0,0.29
31.0,11.5,3.3,2.0,0.0,-1.1,27.0,0.2,0.0,0.722,6.0,NBA,147.0,3.2,15.0,0.5,31.0,C,1997,2.2,SAS,7.8,20.8,0.559,32.6,0.2,0.7,0.0,0.227
32.0,15.9,5.5,7.8,0.0,4.1,23.7,6.0,0.004,0.62,73.0,NBA,2457.0,3.7,12.0,7.8,27.8,C,1998,1.4,SAS,13.0,18.2,0.581,29.7,6.1,13.8,0.0,0.269
33.0,12.1,5.3,7.4,0.0,5.3,23.4,4.4,0.002,0.689,49.0,NBA,1554.0,2.2,11.4,4.0,24.9,C,1999,2.4,SAS,13.6,17.8,0.564,23.8,3.7,8.4,0.0,0.261
34.0,10.3,4.9,5.5,0.0,3.9,24.5,6.4,0.002,0.496,80.0,NBA,2557.0,1.6,9.0,6.2,24.6,C,2000,2.0,SAS,11.6,17.1,0.568,25.6,4.8,12.7,0.0,0.238
35.0,8.8,5.8,5.5,0.0,4.1,22.0,5.7,0.001,0.571,80.0,NBA,2371.0,1.4,10.4,6.4,23.7,C,2001,1.8,SAS,10.6,16.5,0.559,22.8,4.5,12.1,0.0,0.246
36.0,7.0,4.3,3.9,0.0,3.5,22.0,5.1,0.0,0.588,78.0,NBA,2303.0,0.4,9.9,5.0,20.3,C,2002,2.0,SAS,10.9,16.2,0.562,19.2,3.4,10.1,0.0,0.211
37.0,5.9,4.6,2.1,0.0,3.3,22.8,3.6,0.0,0.51,64.0,NBA,1676.0,-1.2,11.8,2.5,17.8,C,2003,1.7,SAS,13.9,17.6,0.531,16.5,1.7,6.0,0.0,0.172
