age,and1s,astd_pts,drawn_offensive,drawn_shooting,fouls_offensive,fouls_shooting,g,lg_id,mp,own_shots_blk,pct_1,pct_2,pct_3,pct_4,pct_5,plus_minus_net,plus_minus_on,pos,season,team_id,tov_bad_pass,tov_lost_ball
35.0,33.0,260.0,0.0,208.0,22.0,118.0,80.0,NBA,2371.0,68.0,0.0,0.0,0.0,0.0,100.0,8.9,12.5,C,2001,SAS,47.0,29.0
36.0,33.0,207.0,0.0,178.0,16.0,86.0,78.0,NBA,2303.0,59.0,0.0,0.0,0.0,0.0,100.0,5.1,9.3,C,2002,SAS,38.0,38.0
37.0,16.0,132.0,0.0,95.0,6.0,77.0,64.0,NBA,1676.0,38.0,0.0,0.0,0.0,0.0,100.0,7.6,10.6,C,2003,SAS,32.0,28.0
