age,ast_per_mp,blk_per_mp,drb_per_mp,fg2_pct,fg2_per_mp,fg2a_per_mp,fg3_pct,fg3_per_mp,fg3a_per_mp,fg_pct,fg_per_mp,fga_per_mp,ft_pct,ft_per_mp,fta_per_mp,g,gs,lg_id,mp,orb_per_mp,pf_per_mp,pos,pts_per_mp,season,stl_per_mp,team_id,tov_per_mp,trb_per_mp
24.0,0.0,0.0,4.5,0.0,0.0,0.0,0.0,0.0,0.0,0.0,0.0,0.0,1.0,9.0,9.0,6.0,0.0,NBA,8.0,0.0,0.0,C,9.0,1987,0.0,HOU,0.0,4.5
29.0,0.0,0.0,12.0,0.5,12.0,24.0,0.0,0.0,0.0,0.5,12.0,24.0,0.0,0.0,0.0,1.0,0.0,NBA,3.0,0.0,0.0,C,24.0,1992,0.0,NJN,12.0,12.0
