age,ast_per_poss,blk_per_poss,def_rtg,drb_per_poss,fg2_pct,fg2_per_poss,fg2a_per_poss,fg3_pct,fg3_per_poss,fg3a_per_poss,fg_pct,fg_per_poss,fga_per_poss,ft_pct,ft_per_poss,fta_per_poss,g,gs,lg_id,mp,off_rtg,orb_per_poss,pf_per_poss,pos,pts_per_poss,season,stl_per_poss,team_id,tov_per_poss,trb_per_poss
24.0,0.0,0.0,113.0,6.2,0.0,0.0,0.0,0.0,0.0,0.0,0.0,0.0,0.0,1.0,12.4,12.4,6.0,0.0,NBA,8.0,250.0,0.0,0.0,C,12.4,1987,0.0,HOU,0.0,6.2
29.0,0.0,0.0,110.0,16.5,0.5,16.5,33.0,0.0,0.0,0.0,0.5,16.5,33.0,0.0,0.0,0.0,1.0,0.0,NBA,3.0,59.0,0.0,0.0,C,33.0,1992,0.0,NJN,16.5,16.5
