age,ast_pct,blk_pct,bpm,bpm-dum,dbpm,drb_pct,dws,fg3a_per_fga_pct,fta_per_fga_pct,g,lg_id,mp,obpm,orb_pct,ows,per,pos,season,stl_pct,team_id,tov_pct,trb_pct,ts_pct,usg_pct,vorp,ws,ws-dum,ws_per_48
23.0,14.6,0.4,-9.5,0.0,-2.9,6.1,0.1,0.087,0.145,30.0,NBA,157.0,-6.7,6.3,-0.4,4.4,SG,1988,0.9,DAL,23.1,6.2,0.416,25.1,-0.3,-0.4,0.0,-0.111
24.0,10.2,0.0,-3.9,0.0,-0.9,8.3,0.5,0.141,0.289,37.0,NBA,412.0,-3.0,6.4,-0.1,8.4,SG,1989,1.1,UTA,14.0,7.4,0.475,19.1,-0.2,0.4,0.0,0.045
25.0,9.6,0.2,-3.3,0.0,-3.2,7.9,0.3,0.133,0.394,38.0,NBA,400.0,0.0,4.8,0.5,15.5,SG,1990,2.1,SEA,10.2,6.3,0.51,27.7,-0.1,0.7,0.0,0.087
26.0,10.9,0.2,-5.4,0.0,-3.6,9.0,-0.1,0.103,0.291,27.0,NBA,456.0,-1.8,5.6,0.2,12.2,SG,1991,1.2,TOT,13.1,7.1,0.507,22.5,-0.4,0.1,0.0,0.01
26.0,0.0,0.0,-20.6,0.0,-10.9,25.4,0.0,0.143,0.286,2.0,NBA,13.0,-9.7,17.6,0.0,10.9,SG,1991,0.0,PHI,11.3,21.6,0.381,29.8,-0.1,0.0,0.0,-0.068
26.0,11.2,0.2,-4.9,0.0,-3.4,8.5,-0.1,0.102,0.292,25.0,NBA,443.0,-1.5,5.2,0.2,12.3,SG,1991,1.2,DEN,13.2,6.7,0.511,22.3,-0.3,0.1,0.0,0.012
29.0,18.9,0.0,-14.3,0.0,-2.8,7.4,0.0,0.333,0.0,4.0,NBA,29.0,-11.5,0.0,-0.1,-3.7,SG,1994,0.0,DEN,45.5,3.8,0.333,16.2,-0.1,-0.1,0.0,-0.21
