age,ast_per_mp,blk_per_mp,drb_per_mp,fg2_pct,fg2_per_mp,fg2a_per_mp,fg3_pct,fg3_per_mp,fg3a_per_mp,fg_pct,fg_per_mp,fga_per_mp,ft_pct,ft_per_mp,fta_per_mp,g,gs,lg_id,mp,orb_per_mp,pf_per_mp,pos,pts_per_mp,season,stl_per_mp,team_id,tov_per_mp,trb_per_mp
23.0,3.7,0.2,2.1,0.413,6.0,14.4,0.0,0.0,1.4,0.377,6.0,15.8,0.9,2.1,2.3,30.0,0.0,NBA,157.0,2.1,4.1,SG,14.0,1988,0.7,DAL,5.0,4.1
24.0,2.4,0.0,2.9,0.393,4.2,10.7,0.45,0.8,1.7,0.401,5.0,12.4,0.707,2.5,3.6,37.0,0.0,NBA,412.0,1.9,3.6,SG,13.3,1989,0.8,UTA,2.3,4.8
25.0,2.3,0.1,2.3,0.46,7.3,15.8,0.296,0.7,2.4,0.438,8.0,18.3,0.713,5.1,7.2,38.0,0.0,NBA,400.0,1.5,4.0,SG,21.9,1990,1.5,SEA,2.4,3.9
26.0,3.0,0.2,3.1,0.48,7.6,15.8,0.217,0.4,1.8,0.453,8.0,17.6,0.738,3.8,5.1,27.0,1.0,NBA,456.0,2.3,4.6,SG,20.1,1991,1.0,TOT,3.0,5.4
26.0,0.0,0.0,8.3,0.333,5.5,16.6,0.0,0.0,2.8,0.286,5.5,19.4,1.0,5.5,5.5,2.0,0.0,NBA,13.0,5.5,0.0,SG,16.6,1991,0.0,PHI,2.8,13.8
26.0,3.1,0.2,2.9,0.485,7.6,15.8,0.227,0.4,1.8,0.458,8.0,17.6,0.73,3.7,5.1,25.0,1.0,NBA,443.0,2.2,4.7,SG,20.2,1991,1.1,DEN,3.0,5.1
29.0,5.0,0.0,2.5,0.5,2.5,5.0,0.0,0.0,2.5,0.333,2.5,7.4,0.0,0.0,0.0,4.0,0.0,NBA,29.0,0.0,3.7,SG,5.0,1994,0.0,DEN,6.2,2.5
