age,ast,blk,drb,efg_pct,fg,fg2,fg2_pct,fg2a,fg3,fg3_pct,fg3a,fg_pct,fga,ft,ft_pct,fta,g,gs,lg_id,mp,orb,pf,pos,pts,season,stl,team_id,tov,trb
23.0,1.0,0.0,1.0,0.333,2.0,2.0,0.333,6.0,0.0,0.0,0.0,0.333,6.0,0.0,0.0,0.0,3.0,0.0,NBA,11.0,3.0,2.0,SG,4.0,1988,0.0,DAL,2.0,4.0
24.0,0.0,0.0,0.0,0.0,0.0,0.0,0.0,1.0,0.0,0.0,1.0,0.0,2.0,0.0,0.0,0.0,2.0,0.0,NBA,3.0,0.0,0.0,SG,0.0,1989,0.0,UTA,0.0,0.0
