age,ast,blk,drb,fg,fg2,fg2a,fg3,fg3a,fga,ft,fta,game_score,lg_id,mp,orb,pf,pts,season,stl,team_id,tov,trb
23.0,1.0,0.0,1.0,1.0,1.0,3.0,0.0,0.0,3.0,0.0,0.0,1.0,NBA,0.0,2.0,1.0,2.0,1988,0.0,DAL,1.0,2.0
24.0,0.0,0.0,0.0,0.0,0.0,1.0,0.0,1.0,1.0,0.0,0.0,-0.7,NBA,0.0,0.0,0.0,0.0,1989,0.0,UTA,0.0,0.0
