age,ast,ast_per_g,blk,college_id,fg,fg3,fg3_pct,fg3a,fg_pct,fga,ft,ft_pct,fta,g,mp,mp_per_g,orb,pf,pts,pts_per_g,season,stl,tov,trb,trb_per_g
19.0,16.0,0.4,17.0,KENTUCKY,71.0,35.0,0.432,81.0,0.438,162.0,22.0,0.815,27.0,40.0,462.0,11.6,26.0,44.0,199.0,5.0,2012,5.0,27.0,70.0,1.8
20.0,50.0,1.5,14.0,KENTUCKY,117.0,55.0,0.367,150.0,0.421,278.0,47.0,0.81,58.0,33.0,784.0,23.8,35.0,51.0,336.0,10.2,2013,12.0,42.0,137.0,4.2
22.0,71.0,1.9,25.0,GONZAGA,242.0,68.0,0.466,146.0,0.54,448.0,86.0,0.789,109.0,38.0,1049.0,27.6,51.0,62.0,638.0,16.8,2015,18.0,43.0,235.0,6.2
23.0,53.0,1.5,29.0,GONZAGA,260.0,90.0,0.437,206.0,0.491,529.0,126.0,0.857,147.0,36.0,1209.0,33.6,61.0,66.0,736.0,20.4,2016,13.0,74.0,228.0,6.3
