article_url,date,headline
https://sircharlesincharge.com/2019/09/02/boston-celtics-rick-pitino-what-if/,2019/09/02,Sir Charles In Charge: Boston Celtics: What could have been for Rick Pitino's Celtics
https://valleyofthesuns.com/2019/07/11/the-phoenix-suns-should-give-amare-stoudemire-the-sendoff-he-deserves/,2019/07/11,Sun-N-Gun: The Phoenix Suns should give Amar'e Stoudemire the sendoff he deserves
