age,ast_per_g,blk_per_g,drb_per_g,efg_pct,fg2_pct,fg2_per_g,fg2a_per_g,fg3_pct,fg3_per_g,fg3a_per_g,fg_pct,fg_per_g,fga_per_g,ft_pct,ft_per_g,fta_per_g,g,gs,lg_id,mp_per_g,orb_per_g,pf_per_g,pos,pts_per_g,season,stl_per_g,team_id,tov_per_g,trb_per_g
22.0,1.3,0.5,1.1,0.449,0.433,1.1,2.5,0.316,0.5,1.6,0.388,1.6,4.1,0.63,1.4,2.3,12.0,0.0,NBA,15.8,0.7,2.1,SF,5.1,1994,0.6,DEN,0.7,1.8
23.0,1.7,1.3,3.7,0.568,0.611,3.7,6.0,0.25,0.3,1.3,0.545,4.0,7.3,0.25,0.3,1.3,3.0,3.0,NBA,25.3,0.3,4.3,PF,8.7,1995,1.0,DEN,1.7,4.0
25.0,2.0,1.0,1.3,0.448,0.526,3.3,6.3,0.2,0.7,3.3,0.414,4.0,9.7,0.75,2.0,2.7,3.0,3.0,NBA,28.3,1.0,4.3,SF,10.7,1997,1.3,LAC,2.3,2.3
28.0,1.6,1.1,5.0,0.452,0.506,4.4,8.8,0.222,0.9,4.0,0.417,5.3,12.8,0.742,2.6,3.4,9.0,0.0,NBA,29.2,1.8,3.4,PF,14.1,2000,1.1,PHO,1.7,6.8
29.0,0.5,0.8,2.8,0.325,0.333,2.5,7.5,0.2,0.5,2.5,0.3,3.0,10.0,0.643,2.3,3.5,4.0,0.0,NBA,20.5,0.8,4.0,SF,8.8,2001,0.5,PHO,1.3,3.5
30.0,2.1,0.4,3.8,0.514,0.482,1.7,3.5,0.365,1.2,3.3,0.426,2.9,6.8,0.886,1.9,2.2,16.0,0.0,NBA,24.6,1.8,2.6,SF,8.9,2002,1.0,BOS,1.4,5.5
31.0,1.4,0.2,1.7,0.442,0.354,1.4,4.0,0.405,0.9,2.1,0.372,2.3,6.1,0.711,1.4,1.9,20.0,0.0,NBA,17.5,1.1,2.6,PF,6.7,2003,0.3,NJN,1.3,2.8
32.0,1.1,0.3,4.2,0.354,0.36,1.6,4.5,0.227,0.5,2.0,0.319,2.1,6.5,0.8,1.5,1.8,11.0,0.0,NBA,20.7,0.8,2.8,PF,6.1,2004,0.5,NJN,1.5,5.0
33.0,0.3,0.5,1.0,0.577,0.6,0.8,1.3,0.375,0.8,2.0,0.462,1.5,3.3,0.714,1.3,1.8,4.0,0.0,NBA,12.3,0.0,1.0,PF,5.0,2005,0.0,PHI,0.3,1.0
