age,ast,blk,drb,fg,fg2,fg2a,fg3,fg3a,fga,ft,fta,game_score,lg_id,mp,orb,pf,pts,season,stl,team_id,tov,trb
22.0,5.0,2.0,6.0,12.0,10.0,23.0,6.0,12.0,26.0,6.0,7.0,20.3,NBA,0.0,2.0,6.0,31.0,1994,3.0,DET,6.0,7.0
23.0,8.0,2.0,7.0,15.0,12.0,17.0,8.0,15.0,30.0,9.0,10.0,31.0,NBA,0.0,3.0,5.0,36.0,1995,4.0,DET,6.0,7.0
24.0,8.0,2.0,11.0,13.0,11.0,23.0,6.0,12.0,25.0,14.0,15.0,27.1,NBA,0.0,4.0,6.0,38.0,1996,4.0,DET,7.0,11.0
25.0,6.0,1.0,7.0,12.0,9.0,16.0,6.0,11.0,25.0,11.0,12.0,23.9,NBA,0.0,3.0,6.0,32.0,1997,3.0,NYK,6.0,7.0
26.0,6.0,1.0,10.0,16.0,15.0,21.0,4.0,6.0,26.0,12.0,12.0,26.8,NBA,0.0,4.0,6.0,34.0,1998,3.0,NYK,6.0,10.0
27.0,5.0,2.0,7.0,10.0,8.0,18.0,5.0,8.0,20.0,9.0,10.0,25.6,NBA,0.0,2.0,6.0,30.0,1999,3.0,NYK,7.0,7.0
28.0,7.0,3.0,7.0,14.0,14.0,20.0,5.0,8.0,25.0,12.0,13.0,27.2,NBA,0.0,3.0,6.0,37.0,2000,4.0,NYK,6.0,9.0
29.0,7.0,2.0,8.0,16.0,14.0,20.0,5.0,9.0,27.0,11.0,12.0,30.0,NBA,0.0,2.0,6.0,39.0,2001,4.0,NYK,6.0,9.0
30.0,6.0,2.0,10.0,13.0,11.0,20.0,6.0,12.0,29.0,14.0,15.0,31.8,NBA,0.0,3.0,5.0,44.0,2002,4.0,NYK,6.0,12.0
31.0,8.0,1.0,7.0,18.0,14.0,24.0,6.0,14.0,30.0,18.0,18.0,44.6,NBA,0.0,3.0,6.0,53.0,2003,3.0,NYK,5.0,9.0
32.0,7.0,1.0,6.0,15.0,12.0,23.0,6.0,12.0,29.0,12.0,12.0,34.2,NBA,0.0,2.0,6.0,39.0,2004,3.0,NYK,6.0,6.0
33.0,5.0,1.0,3.0,8.0,5.0,12.0,4.0,8.0,20.0,7.0,8.0,21.9,NBA,0.0,1.0,4.0,25.0,2005,2.0,NYK,3.0,3.0
