age,ast,blk,drb,fg,fg2,fg2a,fg3,fg3a,fga,ft,fta,game_score,lg_id,mp,orb,pf,pts,season,stl,team_id,tov,trb
19.0,1.0,1.0,3.0,4.0,4.0,8.0,1.0,1.0,8.0,3.0,4.0,3.9,NBA,0.0,3.0,3.0,8.0,1999,3.0,SEA,5.0,5.0
20.0,5.0,4.0,9.0,14.0,14.0,24.0,4.0,6.0,27.0,5.0,7.0,29.0,NBA,0.0,7.0,5.0,30.0,2000,5.0,SEA,4.0,13.0
21.0,6.0,3.0,11.0,12.0,10.0,16.0,5.0,8.0,20.0,8.0,8.0,30.5,NBA,0.0,5.0,6.0,28.0,2001,5.0,SEA,5.0,14.0
22.0,5.0,3.0,12.0,15.0,12.0,20.0,6.0,10.0,28.0,9.0,11.0,32.5,NBA,0.0,7.0,6.0,36.0,2002,6.0,SEA,4.0,19.0
23.0,6.0,3.0,11.0,16.0,13.0,19.0,4.0,7.0,22.0,11.0,15.0,32.1,NBA,0.0,7.0,6.0,37.0,2003,5.0,SEA,5.0,15.0
24.0,8.0,4.0,12.0,18.0,14.0,21.0,6.0,11.0,26.0,10.0,13.0,44.8,NBA,0.0,7.0,6.0,50.0,2004,5.0,SEA,5.0,13.0
25.0,4.0,5.0,10.0,14.0,12.0,17.0,7.0,12.0,26.0,12.0,12.0,30.7,NBA,0.0,5.0,6.0,37.0,2005,5.0,SEA,6.0,13.0
26.0,6.0,4.0,9.0,12.0,12.0,21.0,6.0,10.0,23.0,17.0,20.0,38.2,NBA,48.0,6.0,5.0,45.0,2006,7.0,SEA,5.0,12.0
27.0,7.0,4.0,12.0,14.0,11.0,20.0,6.0,13.0,30.0,16.0,17.0,28.7,NBA,53.0,6.0,6.0,36.0,2007,4.0,SEA,6.0,15.0
28.0,7.0,3.0,9.0,10.0,7.0,13.0,7.0,14.0,20.0,10.0,12.0,27.1,NBA,50.0,4.0,6.0,27.0,2008,5.0,ORL,5.0,11.0
29.0,9.0,3.0,9.0,11.0,9.0,15.0,6.0,13.0,23.0,10.0,11.0,25.0,NBA,44.0,9.0,6.0,30.0,2009,6.0,ORL,6.0,12.0
30.0,9.0,3.0,11.0,8.0,6.0,12.0,5.0,13.0,17.0,9.0,9.0,21.7,NBA,44.0,4.0,6.0,26.0,2010,5.0,ORL,5.0,11.0
31.0,6.0,3.0,10.0,8.0,7.0,14.0,5.0,10.0,20.0,4.0,6.0,22.5,NBA,51.0,5.0,6.0,22.0,2011,3.0,TOT,5.0,13.0
31.0,4.0,1.0,6.0,8.0,5.0,10.0,5.0,8.0,17.0,4.0,6.0,18.7,NBA,43.0,3.0,6.0,22.0,2011,3.0,ORL,4.0,8.0
31.0,6.0,3.0,10.0,8.0,7.0,14.0,4.0,10.0,20.0,4.0,4.0,22.5,NBA,51.0,5.0,6.0,22.0,2011,3.0,WAS,5.0,13.0
32.0,3.0,1.0,6.0,8.0,6.0,10.0,3.0,4.0,14.0,5.0,6.0,17.9,NBA,40.0,5.0,5.0,20.0,2012,2.0,WAS,5.0,8.0
33.0,3.0,4.0,8.0,7.0,5.0,6.0,4.0,8.0,14.0,6.0,9.0,15.0,NBA,37.0,3.0,5.0,19.0,2013,3.0,MIA,4.0,8.0
34.0,5.0,2.0,7.0,6.0,3.0,7.0,4.0,7.0,11.0,4.0,4.0,17.6,NBA,34.0,2.0,5.0,18.0,2014,5.0,MIA,3.0,9.0
