age,ast_pct,blk_pct,bpm,bpm-dum,dbpm,drb_pct,dws,fg3a_per_fga_pct,fta_per_fga_pct,g,lg_id,mp,obpm,orb_pct,ows,per,pos,season,stl_pct,team_id,tov_pct,trb_pct,ts_pct,usg_pct,vorp,ws,ws-dum,ws_per_48
19.0,4.6,0.5,-9.9,0.0,-2.1,9.7,0.1,0.115,0.269,20.0,NBA,145.0,-7.8,10.2,-0.5,4.5,SF,1999,3.0,SEA,25.6,9.9,0.404,24.4,-0.3,-0.4,0.0,-0.136
20.0,7.3,1.6,-0.4,0.0,-0.4,14.7,1.7,0.212,0.217,82.0,NBA,1575.0,0.0,8.7,2.4,16.5,SF,2000,2.0,SEA,11.2,11.7,0.543,19.6,0.6,4.1,0.0,0.125
21.0,7.6,1.2,2.5,0.0,-0.2,16.7,2.1,0.321,0.24,78.0,NBA,2720.0,2.6,6.1,5.9,17.3,PF,2001,1.8,SEA,11.6,11.4,0.587,18.4,3.1,8.0,0.0,0.142
22.0,7.8,1.2,2.9,0.0,-0.1,16.1,2.7,0.325,0.206,71.0,NBA,2585.0,2.9,6.5,5.9,18.5,SF,2002,2.2,SEA,8.4,11.4,0.564,20.8,3.2,8.6,0.0,0.16
23.0,7.9,0.9,0.9,0.0,-0.2,13.8,2.8,0.189,0.3,77.0,NBA,3044.0,1.1,5.8,5.0,16.7,SF,2003,1.8,SEA,9.9,9.7,0.537,22.2,2.3,7.8,0.0,0.122
24.0,10.7,1.4,1.4,0.0,-0.9,15.4,1.3,0.314,0.22,80.0,NBA,2931.0,2.2,5.4,5.2,17.5,SF,2004,1.8,SEA,9.1,10.4,0.527,23.4,2.5,6.5,0.0,0.107
25.0,6.5,1.8,2.8,0.0,-1.0,12.6,1.5,0.375,0.246,71.0,NBA,2697.0,3.8,5.0,6.9,19.4,SF,2005,1.5,SEA,8.8,8.8,0.571,24.0,3.3,8.4,0.0,0.15
26.0,10.7,1.3,2.5,0.0,-1.8,11.9,0.1,0.321,0.372,78.0,NBA,2876.0,4.3,4.6,8.2,20.0,SF,2006,1.9,SEA,9.5,8.2,0.585,23.1,3.3,8.3,0.0,0.138
27.0,10.8,1.3,3.3,0.0,-1.1,15.7,1.3,0.385,0.313,60.0,NBA,2348.0,4.4,4.6,6.3,20.7,SF,2007,1.5,SEA,9.4,10.1,0.587,24.4,3.1,7.6,0.0,0.155
28.0,10.5,0.9,4.0,0.0,0.6,12.2,3.7,0.487,0.229,81.0,NBA,3076.0,3.4,3.8,6.1,16.7,PF,2008,1.7,ORL,10.1,8.2,0.591,20.7,4.6,9.8,0.0,0.153
29.0,12.5,1.3,4.2,0.0,1.5,13.9,4.8,0.509,0.247,79.0,NBA,2859.0,2.7,3.7,4.7,16.8,PF,2009,1.5,ORL,11.6,8.9,0.58,22.0,4.5,9.5,0.0,0.16
30.0,7.4,0.9,2.7,0.0,0.9,12.1,3.4,0.525,0.224,72.0,NBA,2369.0,1.8,3.1,3.1,14.0,PF,2010,1.7,ORL,10.9,7.8,0.573,19.4,2.8,6.5,0.0,0.132
31.0,8.1,1.3,0.2,0.0,0.3,14.0,1.9,0.419,0.165,57.0,NBA,1824.0,-0.2,4.4,1.2,12.0,SF-PF,2011,1.5,TOT,12.2,9.1,0.535,17.6,1.0,3.0,0.0,0.079
31.0,5.9,1.0,0.2,0.0,0.8,11.7,1.2,0.444,0.167,25.0,NBA,810.0,-0.6,3.4,0.3,11.0,PF,2011,1.4,ORL,10.8,7.6,0.524,18.6,0.4,1.5,0.0,0.091
31.0,9.9,1.5,0.1,0.0,0.0,15.9,0.7,0.397,0.163,32.0,NBA,1014.0,0.2,5.2,0.8,12.8,SF,2011,1.5,WAS,13.5,10.4,0.544,16.8,0.5,1.5,0.0,0.07
32.0,5.7,1.1,-3.0,0.0,-0.8,11.7,0.4,0.303,0.167,28.0,NBA,729.0,-2.2,5.2,-0.2,9.3,SF,2012,1.6,WAS,11.9,8.4,0.457,16.5,-0.2,0.3,0.0,0.018
33.0,5.7,1.4,-3.2,0.0,-1.7,15.0,0.9,0.526,0.181,55.0,NBA,792.0,-1.5,3.1,0.3,11.1,PF,2013,1.4,MIA,10.9,9.4,0.53,18.2,-0.2,1.2,0.0,0.071
34.0,8.5,0.7,0.1,0.0,0.2,10.7,1.1,0.568,0.14,60.0,NBA,971.0,-0.2,3.2,0.5,10.7,SF,2014,2.9,MIA,12.3,7.1,0.535,14.1,0.5,1.7,0.0,0.083
