age,ast_per_poss,blk_per_poss,def_rtg,drb_per_poss,fg2_pct,fg2_per_poss,fg2a_per_poss,fg3_pct,fg3_per_poss,fg3a_per_poss,fg_pct,fg_per_poss,fga_per_poss,ft_pct,ft_per_poss,fta_per_poss,g,gs,lg_id,mp,off_rtg,orb_per_poss,pf_per_poss,pos,pts_per_poss,season,stl_per_poss,team_id,tov_per_poss,trb_per_poss
20.0,1.0,1.0,106.0,6.5,0.425,5.8,13.7,0.474,3.1,6.5,0.441,8.9,20.2,0.8,5.5,6.9,5.0,5.0,NBA,157.0,109.0,4.1,3.8,SF,26.4,2000,1.7,SEA,3.4,10.6
22.0,1.4,0.0,117.0,5.0,0.423,7.9,18.6,0.167,0.7,4.3,0.375,8.6,22.9,1.0,9.3,9.3,3.0,2.0,NBA,79.0,110.0,2.9,7.2,SF,27.2,2002,0.7,SEA,1.4,7.9
25.0,2.3,0.5,116.0,5.5,0.469,6.6,14.0,0.2,0.9,4.3,0.406,7.5,18.4,0.88,7.6,8.7,8.0,8.0,NBA,312.0,110.0,1.9,4.3,SF,23.4,2005,0.5,SEA,2.8,7.5
28.0,4.5,0.7,110.0,6.3,0.526,6.6,12.5,0.309,2.8,8.9,0.436,9.3,21.4,0.821,4.2,5.1,10.0,10.0,NBA,417.0,113.0,3.2,2.4,PF,25.7,2008,1.4,ORL,3.0,9.5
29.0,3.8,0.7,106.0,6.8,0.481,5.7,11.8,0.394,2.8,7.2,0.448,8.5,19.0,0.784,5.0,6.3,24.0,24.0,NBA,986.0,111.0,1.6,2.7,PF,24.8,2009,1.4,ORL,2.7,8.4
30.0,3.5,1.1,101.0,6.9,0.559,4.1,7.4,0.373,3.0,8.1,0.462,7.2,15.5,0.8,2.2,2.7,14.0,14.0,NBA,512.0,112.0,1.6,4.1,PF,19.5,2010,1.6,ORL,2.7,8.6
33.0,4.7,2.3,101.0,7.0,0.5,9.4,18.7,0.0,0.0,4.7,0.4,9.4,23.4,0.5,1.2,2.3,11.0,0.0,NBA,47.0,72.0,1.2,5.8,PF,19.9,2013,2.3,MIA,7.0,8.2
34.0,0.9,1.0,112.0,5.8,0.5,2.3,4.5,0.373,3.8,10.3,0.412,6.1,14.8,0.75,0.5,0.7,18.0,8.0,NBA,319.0,106.0,0.7,5.1,SF,16.6,2014,1.2,MIA,0.9,6.5
