age,ast_per_poss,blk_per_poss,def_rtg,drb_per_poss,fg2_pct,fg2_per_poss,fg2a_per_poss,fg3_pct,fg3_per_poss,fg3a_per_poss,fg_pct,fg_per_poss,fga_per_poss,ft_pct,ft_per_poss,fta_per_poss,g,gs,lg_id,mp,off_rtg,orb_per_poss,pf_per_poss,pos,pts_per_poss,season,stl_per_poss,team_id,tov_per_poss,trb_per_poss
19.0,8.3,0.5,111.0,4.0,0.465,5.0,10.7,0.39,1.8,4.7,0.442,6.8,15.4,0.756,1.9,2.6,73.0,51.0,NBA,1767.0,100.0,1.7,4.5,PG,17.4,2010,2.3,PHI,4.6,5.7
20.0,9.6,0.5,106.0,4.8,0.47,6.6,14.0,0.365,1.5,4.0,0.446,8.0,18.0,0.823,3.1,3.8,82.0,82.0,NBA,2901.0,104.0,1.2,3.7,PG,20.7,2011,2.2,PHI,3.9,6.0
21.0,7.1,0.4,101.0,3.8,0.445,7.2,16.2,0.38,1.6,4.2,0.432,8.8,20.3,0.783,2.3,2.9,65.0,65.0,NBA,2196.0,99.0,1.4,3.3,PG,21.4,2012,2.5,PHI,3.3,5.2
22.0,11.3,0.6,107.0,4.3,0.446,8.4,18.8,0.368,1.6,4.5,0.431,10.0,23.2,0.752,3.3,4.4,78.0,78.0,NBA,2926.0,99.0,1.6,3.1,PG,24.9,2013,2.2,PHI,5.3,5.9
23.0,12.2,0.5,110.0,5.2,0.459,7.9,17.2,0.39,1.4,3.5,0.447,9.2,20.7,0.81,2.3,2.9,34.0,34.0,NBA,1143.0,103.0,1.3,4.2,PG,22.2,2014,2.6,NOP,4.8,6.5
24.0,11.0,0.9,107.0,4.2,0.469,7.5,16.1,0.378,2.1,5.4,0.446,9.6,21.5,0.855,2.6,3.1,40.0,37.0,NBA,1303.0,109.0,1.3,4.4,PG,23.9,2015,2.5,NOP,3.7,5.4
25.0,10.6,0.6,109.0,4.6,0.478,8.7,18.3,0.336,2.4,7.0,0.439,11.1,25.3,0.843,4.9,5.9,65.0,23.0,NBA,1831.0,105.0,0.7,4.0,PG,29.5,2016,2.4,NOP,4.5,5.3
26.0,10.9,1.0,108.0,4.9,0.498,6.8,13.7,0.356,2.2,6.3,0.454,9.1,20.0,0.708,2.7,3.8,67.0,61.0,NBA,2190.0,104.0,1.0,3.0,PG,23.0,2017,2.2,NOP,4.3,5.9
27.0,7.9,1.0,109.0,4.9,0.557,8.1,14.5,0.337,2.0,5.8,0.494,10.0,20.3,0.786,3.0,3.9,81.0,81.0,NBA,2927.0,110.0,1.0,3.3,SG,25.1,2018,2.0,NOP,3.5,6.0
28.0,10.0,1.0,112.0,5.0,0.539,8.3,15.4,0.325,2.3,7.0,0.472,10.6,22.4,0.768,4.0,5.2,67.0,67.0,NBA,2402.0,111.0,1.5,2.9,SG,27.5,2019,2.1,NOP,4.1,6.5
29.0,9.2,1.0,111.0,5.4,0.438,5.9,13.6,0.306,2.1,6.9,0.393,8.1,20.5,0.75,3.4,4.5,9.0,9.0,NBA,317.0,101.0,1.3,3.0,SG,21.6,2020,3.0,NOP,4.2,6.6
