age,avg_dist,fg2_dunk,fg2_pct,fg2_pct_ast,fg2a_pct_fga,fg3_heave,fg3_pct,fg3_pct_ast,fg3_pct_corner,fg3a_heave,fg3a_pct_fga,fg_pct,fg_pct_00_03,fg_pct_03_10,fg_pct_10_16,fg_pct_16_xx,g,lg_id,mp,pct_fg2_dunk,pct_fg3a_corner,pct_fga_00_03,pct_fga_03_10,pct_fga_10_16,pct_fga_16_xx,pos,season,team_id
19.0,13.7,7.0,0.465,0.292,0.694,0.0,0.39,0.661,0.455,3.0,0.306,0.442,0.547,0.438,0.49,0.347,73.0,NBA,1767.0,0.017,0.208,0.285,0.123,0.098,0.188,PG,2010,PHI
20.0,12.6,13.0,0.47,0.274,0.778,0.0,0.365,0.716,0.379,2.0,0.222,0.446,0.6,0.346,0.389,0.468,82.0,NBA,2901.0,0.017,0.261,0.265,0.182,0.144,0.186,PG,2011,PHI
21.0,12.7,21.0,0.445,0.281,0.795,0.0,0.38,0.754,0.286,0.0,0.205,0.432,0.539,0.343,0.429,0.431,65.0,NBA,2196.0,0.028,0.246,0.247,0.171,0.159,0.217,PG,2012,PHI
22.0,12.6,16.0,0.446,0.252,0.808,0.0,0.368,0.473,0.432,3.0,0.192,0.431,0.592,0.322,0.423,0.381,78.0,NBA,2926.0,0.014,0.15,0.261,0.161,0.161,0.224,PG,2013,PHI
23.0,12.2,3.0,0.459,0.162,0.83,0.0,0.39,0.467,0.308,0.0,0.17,0.447,0.56,0.349,0.462,0.423,34.0,NBA,1143.0,0.007,0.169,0.275,0.183,0.143,0.229,PG,2014,NOP
24.0,12.6,2.0,0.469,0.16,0.747,0.0,0.378,0.549,0.4,0.0,0.253,0.446,0.561,0.438,0.457,0.347,40.0,NBA,1303.0,0.004,0.259,0.26,0.18,0.172,0.135,PG,2015,NOP
25.0,12.3,10.0,0.478,0.207,0.723,1.0,0.336,0.517,0.212,2.0,0.277,0.439,0.576,0.418,0.446,0.363,65.0,NBA,1831.0,0.011,0.127,0.29,0.164,0.149,0.121,PG,2016,NOP
26.0,13.3,16.0,0.498,0.23,0.686,0.0,0.356,0.48,0.378,1.0,0.314,0.453,0.598,0.461,0.506,0.328,67.0,NBA,2190.0,0.02,0.132,0.292,0.158,0.095,0.14,PG,2017,NOP
27.0,11.6,31.0,0.557,0.345,0.714,0.0,0.337,0.708,0.293,2.0,0.286,0.494,0.671,0.487,0.438,0.5,81.0,NBA,2927.0,0.03,0.163,0.298,0.219,0.11,0.085,SG,2018,NOP
28.0,12.3,25.0,0.539,0.305,0.687,0.0,0.325,0.593,0.41,1.0,0.313,0.472,0.655,0.446,0.475,0.338,67.0,NBA,2402.0,0.024,0.107,0.318,0.192,0.122,0.056,SG,2019,NOP
29.0,12.2,1.0,0.438,0.31,0.662,0.0,0.306,0.6,0.625,0.0,0.338,0.393,0.692,0.273,0.4,0.125,9.0,NBA,317.0,0.007,0.163,0.269,0.303,0.034,0.055,SG,2020,NOP
