age,ast,blk,drb,efg_pct,fg,fg2,fg2_pct,fg2a,fg3,fg3_pct,fg3a,fg_pct,fga,ft,ft_pct,fta,g,gs,lg_id,mp,orb,pf,pos,pts,season,stl,team_id,tov,trb
23.0,133.0,2.0,70.0,0.417,177.0,156.0,0.417,374.0,21.0,0.276,76.0,0.393,450.0,66.0,0.776,85.0,65.0,2.0,NBA,1260.0,21.0,124.0,PG,441.0,2012,44.0,MIA,105.0,91.0
24.0,164.0,7.0,112.0,0.462,179.0,144.0,0.44,327.0,35.0,0.357,98.0,0.421,425.0,52.0,0.65,80.0,80.0,4.0,NBA,1590.0,18.0,155.0,PG,445.0,2013,57.0,MIA,104.0,130.0
25.0,248.0,5.0,143.0,0.474,207.0,147.0,0.451,326.0,60.0,0.345,174.0,0.414,500.0,53.0,0.779,68.0,82.0,6.0,NBA,2014.0,17.0,156.0,PG,527.0,2014,77.0,MIA,127.0,160.0
26.0,255.0,15.0,146.0,0.461,230.0,175.0,0.458,382.0,55.0,0.313,176.0,0.412,558.0,58.0,0.716,81.0,75.0,25.0,NBA,1831.0,13.0,124.0,PG,573.0,2015,57.0,TOT,99.0,159.0
26.0,165.0,8.0,96.0,0.43,118.0,91.0,0.446,204.0,27.0,0.265,102.0,0.386,306.0,32.0,0.696,46.0,47.0,23.0,NBA,1148.0,12.0,75.0,PG,295.0,2015,42.0,MIA,58.0,108.0
26.0,90.0,7.0,50.0,0.5,112.0,84.0,0.472,178.0,28.0,0.378,74.0,0.444,252.0,26.0,0.743,35.0,28.0,2.0,NBA,683.0,1.0,49.0,PG,278.0,2015,15.0,NOP,41.0,51.0
27.0,167.0,5.0,141.0,0.439,196.0,163.0,0.427,382.0,33.0,0.324,102.0,0.405,484.0,52.0,0.8,65.0,45.0,23.0,NBA,1198.0,10.0,102.0,PG,477.0,2016,37.0,NOP,75.0,151.0
28.0,14.0,0.0,11.0,0.337,16.0,13.0,0.333,39.0,3.0,0.231,13.0,0.308,52.0,8.0,0.8,10.0,13.0,0.0,NBA,125.0,0.0,18.0,PG,43.0,2017,8.0,OKC,7.0,11.0
