age,ast_per_mp,blk_per_mp,drb_per_mp,fg2_pct,fg2_per_mp,fg2a_per_mp,fg3_pct,fg3_per_mp,fg3a_per_mp,fg_pct,fg_per_mp,fga_per_mp,ft_pct,ft_per_mp,fta_per_mp,g,gs,lg_id,mp,orb_per_mp,pf_per_mp,pos,pts_per_mp,season,stl_per_mp,team_id,tov_per_mp,trb_per_mp
23.0,2.6,2.6,12.7,0.417,5.3,12.7,0.0,0.0,0.0,0.417,5.3,12.7,0.643,4.8,7.4,10.0,0.0,NBA,68.0,7.4,7.9,PF,15.4,2016,2.1,PHO,3.2,20.1
24.0,1.2,1.6,10.1,0.519,7.0,13.5,0.0,0.0,0.1,0.517,7.0,13.6,0.625,3.6,5.7,47.0,0.0,NBA,708.0,4.8,6.4,C,17.6,2017,1.4,PHO,1.9,14.8
25.0,4.1,0.5,9.8,0.389,3.6,9.3,0.0,0.0,0.0,0.389,3.6,9.3,0.667,3.1,4.6,5.0,0.0,NBA,70.0,1.5,6.7,PF,10.3,2018,2.6,PHO,3.6,11.3
26.0,4.2,0.0,20.8,0.667,11.1,16.6,0.0,0.0,1.4,0.615,11.1,18.0,0.5,2.8,5.5,5.0,0.0,NBA,26.0,5.5,2.8,PF,24.9,2019,1.4,BRK,1.4,26.3
