age,ast_per_mp,blk_per_mp,drb_per_mp,fg2_pct,fg2_per_mp,fg2a_per_mp,fg3_pct,fg3_per_mp,fg3a_per_mp,fg_pct,fg_per_mp,fga_per_mp,ft_pct,ft_per_mp,fta_per_mp,g,gs,lg_id,mp,orb_per_mp,pf_per_mp,pos,pts_per_mp,season,stl_per_mp,team_id,tov_per_mp,trb_per_mp
20.0,9.1,0.1,3.0,0.5,3.2,6.4,0.282,1.0,3.5,0.423,4.2,10.0,0.808,0.9,1.1,67.0,1.0,NBA,862.0,0.8,3.0,PG,10.3,2007,1.5,POR,3.2,3.8
21.0,7.1,0.0,2.6,0.377,3.0,7.9,0.293,1.0,3.3,0.352,4.0,11.2,0.658,1.4,2.2,72.0,0.0,NBA,628.0,0.7,3.3,PG,10.3,2008,1.4,POR,3.0,3.3
22.0,8.4,0.1,2.6,0.428,2.7,6.3,0.325,1.1,3.4,0.392,3.8,9.7,0.792,1.8,2.3,80.0,13.0,NBA,1225.0,1.3,3.9,PG,10.5,2009,1.6,POR,3.5,3.8
23.0,7.3,0.2,2.2,0.519,4.6,8.9,0.352,1.1,3.1,0.476,5.7,12.1,0.731,2.3,3.2,66.0,8.0,NBA,1048.0,0.8,2.9,PG,14.9,2010,1.7,TOT,3.9,3.1
23.0,8.4,0.2,2.4,0.493,5.1,10.3,0.357,1.0,2.9,0.463,6.1,13.2,0.694,3.0,4.3,39.0,0.0,NBA,517.0,1.0,3.2,PG,16.3,2010,2.0,SAC,4.1,3.5
23.0,6.2,0.1,2.0,0.554,4.2,7.6,0.347,1.2,3.3,0.491,5.4,10.9,0.806,1.7,2.1,27.0,8.0,NBA,531.0,0.6,2.6,PG,13.6,2010,1.4,NYK,3.7,2.6
30.0,8.2,0.1,3.2,0.415,2.8,6.7,0.365,2.2,6.0,0.392,5.0,12.7,0.667,0.4,0.6,68.0,30.0,NBA,1518.0,0.5,2.3,PG,12.6,2017,1.2,PHI,3.0,3.7
