age,ast,blk,drb,fg,fg2,fg2a,fg3,fg3a,fga,ft,fta,game_score,lg_id,mp,orb,pf,pts,season,stl,team_id,tov,trb
21.0,4.0,1.0,4.0,6.0,6.0,10.0,3.0,6.0,14.0,7.0,8.0,11.9,NBA,28,2.0,3.0,16.0,2018,2.0,CHI,2.0,4.0
22.0,4.0,2.0,6.0,9.0,7.0,17.0,4.0,6.0,19.0,5.0,7.0,16.4,NBA,33,1.0,4.0,22.0,2019,2.0,CHI,4.0,6.0
