age,ast_per_g,blk_per_g,drb_per_g,efg_pct,fg2_pct,fg2_per_g,fg2a_per_g,fg3_pct,fg3_per_g,fg3a_per_g,fg_pct,fg_per_g,fga_per_g,ft_pct,ft_per_g,fta_per_g,g,gs,lg_id,mp_per_g,orb_per_g,pf_per_g,pos,pts_per_g,season,stl_per_g,team_id,tov_per_g,trb_per_g
22.0,0.3,0.0,2.3,0.448,0.481,4.3,9.0,0.0,0.0,0.7,0.448,4.3,9.7,0.8,4.0,5.0,3.0,3.0,NBA,25.7,0.7,2.3,PF,12.7,1998,0.0,NJN,0.7,3.0
26.0,2.1,0.5,5.1,0.479,0.382,3.0,7.9,0.44,1.9,4.2,0.402,4.9,12.1,0.714,1.8,2.5,20.0,20.0,NBA,32.2,1.6,2.8,SF,13.3,2002,1.0,NJN,1.8,6.7
27.0,0.8,0.2,5.5,0.445,0.359,2.3,6.5,0.438,1.2,2.7,0.382,3.5,9.2,0.9,2.3,2.5,12.0,12.0,NBA,33.5,2.0,3.4,PF,10.4,2003,0.8,PHI,2.2,7.5
28.0,1.4,0.6,3.6,0.375,0.324,2.4,7.4,0.364,0.8,2.2,0.333,3.2,9.6,0.667,0.8,1.2,5.0,2.0,NBA,27.4,1.0,3.0,SF,8.0,2004,1.4,MIL,2.0,4.6
29.0,0.3,0.0,1.0,0.467,0.636,2.3,3.7,0.0,0.0,1.3,0.467,2.3,5.0,0.889,2.7,3.0,3.0,0.0,NBA,11.0,1.0,2.0,PF,7.3,2005,0.3,DAL,0.3,2.0
30.0,0.1,0.3,1.7,0.407,0.387,0.9,2.2,0.286,0.6,2.0,0.339,1.4,4.2,1.0,0.2,0.2,14.0,3.0,NBA,12.3,0.6,1.7,SF,3.6,2006,0.0,DAL,0.4,2.3
