age,and1s,astd_pts,drawn_offensive,drawn_shooting,fouls_offensive,fouls_shooting,g,lg_id,mp,own_shots_blk,pct_1,pct_2,pct_3,pct_4,pct_5,plus_minus_net,plus_minus_on,pos,season,team_id,tov_bad_pass,tov_lost_ball
21.0,0.0,0.0,0.0,0.0,0.0,1.0,2.0,NBA,3.0,0.0,100.0,0.0,0.0,0.0,0.0,-40.0,-36.7,PG,2018,OKC,0.0,0.0
22.0,0.0,11.0,1.0,1.0,0.0,1.0,6.0,NBA,51.0,0.0,0.0,45.0,56.0,0.0,0.0,16.8,21.3,SG,2019,BOS,0.0,0.0
