age,ast_per_poss,blk_per_poss,def_rtg,drb_per_poss,fg2_pct,fg2_per_poss,fg2a_per_poss,fg3_pct,fg3_per_poss,fg3a_per_poss,fg_pct,fg_per_poss,fga_per_poss,ft_pct,ft_per_poss,fta_per_poss,g,gs,lg_id,mp,off_rtg,orb_per_poss,pf_per_poss,pos,pts_per_poss,season,stl_per_poss,team_id,tov_per_poss,trb_per_poss
22.0,8.3,0.4,109.0,3.5,0.435,5.6,12.8,0.176,0.2,1.2,0.412,5.8,14.0,0.747,2.5,3.4,82.0,9.0,NBA,1355.0,98.0,2.0,5.3,PG,14.3,1991,2.3,MIA,3.5,5.5
23.0,9.1,0.3,113.0,3.0,0.477,7.1,14.8,0.192,0.2,1.3,0.455,7.3,16.1,0.824,5.4,6.5,81.0,28.0,NBA,1976.0,108.0,1.7,3.8,PG,20.3,1992,1.8,MIA,4.2,4.7
24.0,8.5,0.3,111.0,2.5,0.503,6.3,12.5,0.307,1.0,3.1,0.464,7.2,15.6,0.805,4.0,5.0,81.0,37.0,NBA,2232.0,117.0,1.3,4.5,PG,19.4,1993,1.8,MIA,2.5,3.8
25.0,7.8,0.4,108.0,3.2,0.507,6.3,12.5,0.202,0.6,2.9,0.449,6.9,15.4,0.779,3.0,3.9,76.0,4.0,NBA,1726.0,108.0,1.5,3.9,PG,17.4,1994,2.2,MIA,3.2,4.7
26.0,9.7,0.3,111.0,3.4,0.461,5.7,12.4,0.211,0.4,1.8,0.43,6.1,14.2,0.81,3.3,4.1,68.0,65.0,NBA,2207.0,105.0,1.1,4.3,PG,15.9,1995,2.3,MIA,3.7,4.5
27.0,8.4,0.3,107.0,4.2,0.44,4.6,10.5,0.346,1.8,5.1,0.409,6.4,15.5,0.796,3.4,4.2,81.0,55.0,NBA,2615.0,107.0,1.0,5.1,PG,17.8,1996,1.9,TOT,3.4,5.2
27.0,8.3,0.3,106.0,4.6,0.434,4.7,10.8,0.366,1.8,4.8,0.413,6.5,15.6,0.803,3.9,4.8,52.0,52.0,NBA,1882.0,108.0,1.1,4.9,PG,18.6,1996,1.8,MIA,3.4,5.6
27.0,8.8,0.4,112.0,3.4,0.456,4.3,9.5,0.305,1.8,5.7,0.399,6.1,15.3,0.763,2.0,2.7,29.0,3.0,NBA,733.0,103.0,0.8,5.5,PG,16.0,1996,2.2,GSW,3.4,4.1
28.0,6.6,0.3,115.0,3.5,0.434,4.1,9.4,0.294,1.3,4.5,0.389,5.4,13.9,0.755,1.6,2.2,51.0,13.0,NBA,1183.0,102.0,1.7,4.2,PG,13.7,1997,1.5,GSW,2.6,5.2
29.0,8.9,0.5,108.0,3.8,0.402,5.5,13.6,0.228,0.5,2.0,0.379,5.9,15.6,0.886,2.8,3.1,53.0,44.0,NBA,1471.0,96.0,0.6,4.8,PG,15.1,1998,1.8,GSW,3.2,4.4
30.0,9.4,0.5,104.0,4.1,0.455,7.5,16.5,0.24,0.3,1.1,0.442,7.8,17.6,0.822,3.5,4.3,48.0,32.0,NBA,1272.0,104.0,0.9,4.8,PG,19.3,1999,1.9,GSW,3.5,5.0
31.0,7.9,0.3,110.0,3.9,0.472,7.3,15.4,0.205,0.2,1.1,0.455,7.5,16.5,0.817,2.3,2.8,80.0,54.0,NBA,1924.0,104.0,0.8,4.8,PG,17.5,2000,1.6,ATL,2.8,4.7
32.0,9.0,0.4,108.0,2.6,0.399,5.8,14.6,0.125,0.1,1.0,0.381,6.0,15.6,0.857,3.1,3.7,47.0,0.0,NBA,804.0,92.0,0.6,5.7,PG,15.2,2001,1.8,CLE,3.9,3.1
33.0,8.2,0.3,113.0,3.3,0.413,4.0,9.7,0.2,0.3,1.5,0.384,4.3,11.2,0.892,2.5,2.8,47.0,1.0,NBA,693.0,102.0,0.9,4.5,PG,11.4,2002,1.0,CLE,2.4,4.2
34.0,5.4,0.3,109.0,3.6,0.36,3.7,10.1,0.219,0.5,2.4,0.333,4.2,12.5,0.833,2.6,3.1,35.0,11.0,NBA,691.0,92.0,0.8,4.5,PG,11.5,2003,1.3,TOT,2.1,4.4
34.0,5.5,0.4,111.0,3.8,0.287,2.7,9.3,0.28,0.7,2.5,0.286,3.4,11.8,0.794,2.7,3.4,21.0,11.0,NBA,516.0,91.0,1.0,4.3,PG,10.1,2003,1.1,CLE,1.8,4.8
34.0,4.8,0.0,105.0,3.0,0.524,6.6,12.7,0.0,0.0,2.1,0.449,6.6,14.8,1.0,2.4,2.4,14.0,0.0,NBA,175.0,95.0,0.3,5.1,PG,15.7,2003,1.8,BOS,3.0,3.3
35.0,4.8,0.0,107.0,2.6,0.353,3.9,10.9,0.0,0.0,0.0,0.353,3.9,10.9,0.667,1.3,1.9,22.0,1.0,NBA,170.0,79.0,0.6,8.7,PG,9.0,2004,1.0,MIA,2.9,3.2
