age,ast,blk,drb,efg_pct,fg,fg2,fg2_pct,fg2a,fg3,fg3_pct,fg3a,fg_pct,fga,ft,ft_pct,fta,g,gs,lg_id,mp,orb,pf,pos,pts,season,stl,team_id,tov,trb
22.0,25.0,13.0,116.0,0.478,82.0,50.0,0.439,114.0,32.0,0.352,91.0,0.4,205.0,21.0,0.875,24.0,54.0,4.0,NBA,776.0,27.0,80.0,SG,217.0,2018,31.0,MIL,25.0,143.0
23.0,84.0,8.0,155.0,0.55,145.0,92.0,0.558,165.0,53.0,0.361,147.0,0.465,312.0,29.0,0.69,42.0,58.0,7.0,NBA,1034.0,29.0,88.0,SG,372.0,2019,25.0,MIL,46.0,184.0
24.0,2.0,0.0,14.0,0.75,7.0,3.0,0.6,5.0,4.0,0.571,7.0,0.583,12.0,2.0,0.667,3.0,5.0,0.0,NBA,44.0,3.0,4.0,SG,20.0,2020,0.0,MIL,3.0,17.0
