age,ast,blk,drb,efg_pct,fg,fg2,fg2_pct,fg2a,fg3,fg3_pct,fg3a,fg_pct,fga,ft,ft_pct,fta,g,gs,lg_id,mp,orb,pf,pos,pts,season,stl,team_id,tov,trb
22.0,0.0,0.0,1.0,0.7,3.0,2.0,1.0,2.0,1.0,0.333,3.0,0.6,5.0,0.0,0.0,0.0,3.0,0.0,NBA,13.0,1.0,2.0,SG,7.0,2018,1.0,MIL,0.0,2.0
23.0,19.0,3.0,26.0,0.487,15.0,8.0,0.471,17.0,7.0,0.333,21.0,0.395,38.0,8.0,0.727,11.0,11.0,5.0,NBA,162.0,4.0,17.0,SG,45.0,2019,6.0,MIL,8.0,30.0
