age,ast,ast_per_g,blk,college_id,fg,fg3,fg3_pct,fg3a,fg_pct,fga,ft,ft_pct,fta,g,mp,mp_per_g,orb,pf,pts,pts_per_g,season,stl,tov,trb,trb_per_g
18.0,40.0,1.1,11.0,SMETHODIST,60.0,17.0,0.362,47.0,0.469,128.0,24.0,0.571,42.0,37.0,719.0,19.4,45.0,60.0,161.0,4.4,2014,27.0,43.0,139.0,3.8
19.0,70.0,2.1,8.0,SMETHODIST,64.0,20.0,0.444,45.0,0.525,122.0,29.0,0.784,37.0,34.0,814.0,23.9,51.0,63.0,177.0,5.2,2015,29.0,31.0,155.0,4.6
20.0,79.0,2.6,13.0,SMETHODIST,109.0,30.0,0.536,56.0,0.602,181.0,54.0,0.857,63.0,30.0,816.0,27.2,39.0,90.0,302.0,10.1,2016,33.0,67.0,132.0,4.4
21.0,105.0,3.0,19.0,SMETHODIST,161.0,61.0,0.449,136.0,0.459,351.0,87.0,0.791,110.0,35.0,1143.0,32.7,55.0,91.0,470.0,13.4,2017,50.0,69.0,227.0,6.5
