age,ast,blk,drb,fg,fg2,fg2a,fg3,fg3a,fga,ft,fta,game_score,lg_id,mp,orb,pf,pts,season,stl,team_id,tov,trb
22.0,4.0,2.0,6.0,6.0,6.0,10.0,0.0,1.0,11.0,2.0,2.0,9.9,NBA,26,2.0,4.0,12.0,2011,0.0,PHI,1.0,8.0
23.0,3.0,3.0,12.0,9.0,8.0,14.0,1.0,2.0,15.0,6.0,6.0,20.7,NBA,37,3.0,5.0,22.0,2012,1.0,PHI,4.0,14.0
26.0,2.0,2.0,3.0,5.0,4.0,5.0,2.0,2.0,7.0,2.0,2.0,9.5,NBA,20,2.0,4.0,11.0,2015,1.0,LAC,1.0,5.0
27.0,1.0,1.0,6.0,3.0,3.0,4.0,1.0,2.0,5.0,3.0,4.0,4.9,NBA,16,2.0,3.0,6.0,2016,1.0,CHO,3.0,8.0
28.0,1.0,1.0,1.0,1.0,1.0,2.0,1.0,1.0,3.0,0.0,0.0,2.3,NBA,7,1.0,2.0,3.0,2017,0.0,TOT,1.0,2.0
28.0,1.0,1.0,1.0,1.0,1.0,2.0,1.0,1.0,3.0,0.0,0.0,2.3,NBA,7,1.0,2.0,3.0,2017,0.0,MIL,1.0,2.0
