age,avg_dist,fg2_dunk,fg2_pct,fg2_pct_ast,fg2a_pct_fga,fg3_heave,fg3_pct,fg3_pct_ast,fg3_pct_corner,fg3a_heave,fg3a_pct_fga,fg_pct,fg_pct_00_03,fg_pct_03_10,fg_pct_10_16,fg_pct_16_xx,g,lg_id,mp,pct_fg2_dunk,pct_fg3a_corner,pct_fga_00_03,pct_fga_03_10,pct_fga_10_16,pct_fga_16_xx,pos,season,team_id
23.0,9.1,3.0,0.4,0.682,0.982,0.0,0.0,0.0,0.0,0.0,0.018,0.393,0.611,0.222,0.438,0.167,16.0,NBA,258.0,0.054,0.0,0.321,0.161,0.286,0.214,C,2004,UTA
24.0,4.3,21.0,0.43,0.608,1.0,0.0,0.0,0.0,0.0,0.0,0.0,0.43,0.519,0.229,0.357,0.368,67.0,NBA,859.0,0.145,0.0,0.605,0.203,0.081,0.11,C,2005,UTA
