age,ast_per_mp,blk_per_mp,drb_per_mp,fg2_pct,fg2_per_mp,fg2a_per_mp,fg3_pct,fg3_per_mp,fg3a_per_mp,fg_pct,fg_per_mp,fga_per_mp,ft_pct,ft_per_mp,fta_per_mp,g,gs,lg_id,mp,orb_per_mp,pf_per_mp,pos,pts_per_mp,season,stl_per_mp,team_id,tov_per_mp,trb_per_mp
23.0,2.1,2.0,5.7,0.4,3.1,7.7,0.0,0.0,0.1,0.393,3.1,7.8,0.778,2.0,2.5,16.0,0.0,NBA,258.0,1.8,5.6,C,8.1,2004,0.6,UTA,2.5,7.5
24.0,2.1,1.3,5.8,0.43,3.1,7.2,0.0,0.0,0.0,0.43,3.1,7.2,0.732,2.2,3.0,67.0,23.0,NBA,859.0,3.6,6.7,C,8.4,2005,0.4,UTA,2.2,9.4
