age,ast_pct,blk_pct,bpm,bpm-dum,dbpm,drb_pct,dws,fg3a_per_fga_pct,fta_per_fga_pct,g,lg_id,mp,obpm,orb_pct,ows,per,pos,season,stl_pct,team_id,tov_pct,trb_pct,ts_pct,usg_pct,vorp,ws,ws-dum,ws_per_48
23.0,9.8,4.6,-3.2,0.0,1.8,20.0,0.3,0.018,0.321,16.0,NBA,258.0,-5.0,6.2,-0.2,7.9,C,2004,0.9,UTA,22.0,13.0,0.454,14.8,-0.1,0.1,0.0,0.026
24.0,9.1,3.2,-2.2,0.0,0.8,20.5,0.6,0.0,0.413,67.0,NBA,859.0,-2.9,12.1,0.2,9.4,C,2005,0.6,UTA,20.4,16.2,0.492,13.7,0.0,0.8,0.0,0.046
