age,ast,ast_per_g,blk,college_id,fg,fg3,fg3_pct,fg3a,fg_pct,fga,ft,ft_pct,fta,g,mp,mp_per_g,orb,pf,pts,pts_per_g,season,stl,tov,trb,trb_per_g
18.0,11.0,0.4,43.0,STANFORD,137.0,0.0,0.0,0.0,0.5,274.0,83.0,0.692,120.0,29.0,733.0,25.3,0.0,85.0,357.0,12.3,1995,14.0,44.0,156.0,5.4
19.0,8.0,1.6,2.0,STANFORD,16.0,0.0,0.0,0.0,0.421,38.0,18.0,0.72,25.0,5.0,137.0,27.4,0.0,14.0,50.0,10.0,1996,4.0,12.0,30.0,6.0
20.0,42.0,1.4,50.0,STANFORD,140.0,0.0,0.0,0.0,0.504,278.0,131.0,0.794,165.0,30.0,782.0,26.1,0.0,86.0,411.0,13.7,1997,20.0,67.0,171.0,5.7
21.0,59.0,1.7,41.0,STANFORD,148.0,0.0,0.0,0.0,0.514,288.0,100.0,0.763,131.0,35.0,947.0,27.1,0.0,106.0,396.0,11.3,1998,8.0,64.0,196.0,5.6
22.0,67.0,2.0,31.0,STANFORD,118.0,0.0,0.0,0.0,0.506,233.0,94.0,0.825,114.0,33.0,821.0,24.9,0.0,84.0,330.0,10.0,1999,12.0,60.0,158.0,4.8
