age,ast_per_mp,blk_per_mp,drb_per_mp,fg2_pct,fg2_per_mp,fg2a_per_mp,fg3_pct,fg3_per_mp,fg3a_per_mp,fg_pct,fg_per_mp,fga_per_mp,ft_pct,ft_per_mp,fta_per_mp,g,gs,lg_id,mp,orb_per_mp,pf_per_mp,pos,pts_per_mp,season,stl_per_mp,team_id,tov_per_mp,trb_per_mp
22.0,1.3,0.7,6.0,0.479,5.1,10.6,0.283,1.2,4.2,0.423,6.2,14.7,0.883,7.5,8.5,10.0,10.0,NBA,399.0,1.3,3.3,PF,21.1,2001,1.0,DAL,1.3,7.3
23.0,1.8,0.6,8.9,0.419,5.7,13.7,0.571,1.6,2.8,0.445,7.4,16.5,0.878,6.6,7.5,8.0,8.0,NBA,357.0,1.7,2.7,C,22.9,2002,1.6,DAL,2.2,10.6
24.0,1.8,0.8,9.0,0.488,6.1,12.6,0.443,1.3,3.0,0.479,7.5,15.6,0.912,5.1,5.6,17.0,17.0,NBA,722.0,0.7,2.6,PF,21.4,2003,1.0,DAL,2.0,9.8
25.0,1.2,2.2,7.8,0.447,6.5,14.4,0.467,1.2,2.5,0.45,7.6,17.0,0.857,6.1,7.1,5.0,5.0,NBA,212.0,2.2,2.7,C,22.6,2004,1.2,DAL,1.0,10.0
26.0,2.8,1.4,6.9,0.412,6.1,14.8,0.333,0.7,2.0,0.402,6.7,16.7,0.829,6.0,7.3,13.0,13.0,NBA,551.0,1.6,2.7,PF,20.1,2005,1.2,DAL,2.2,8.6
27.0,2.5,0.5,8.1,0.491,6.3,12.9,0.343,0.8,2.5,0.468,7.2,15.3,0.895,7.5,8.4,23.0,23.0,NBA,983.0,1.7,2.3,PF,22.7,2006,0.9,DAL,1.8,9.8
28.0,2.1,1.2,6.5,0.427,4.8,11.3,0.211,0.6,2.9,0.383,5.4,14.2,0.84,6.3,7.5,6.0,6.0,NBA,239.0,3.8,3.0,PF,17.8,2007,1.7,DAL,2.1,10.2
29.0,3.4,1.2,8.5,0.507,6.3,12.5,0.333,1.0,3.1,0.473,7.3,15.5,0.808,7.2,8.9,5.0,5.0,NBA,211.0,1.7,2.2,PF,22.9,2008,0.2,DAL,1.7,10.2
30.0,2.8,0.7,8.1,0.55,7.5,13.6,0.286,0.5,1.9,0.518,8.0,15.5,0.925,7.9,8.5,10.0,10.0,NBA,394.0,1.1,1.9,PF,24.5,2009,0.8,DAL,2.1,9.2
31.0,2.8,0.6,6.5,0.545,8.3,15.3,0.571,0.6,1.1,0.547,9.0,16.4,0.952,6.2,6.5,6.0,6.0,NBA,233.0,1.1,2.3,PF,24.7,2010,0.8,DAL,1.5,7.6
32.0,2.3,0.6,6.9,0.488,7.4,15.1,0.46,1.0,2.2,0.485,8.4,17.3,0.941,7.6,8.1,21.0,21.0,NBA,826.0,0.5,2.0,PF,25.4,2011,0.5,DAL,2.8,7.5
33.0,1.6,0.0,5.1,0.465,7.7,16.6,0.167,0.2,1.4,0.442,7.9,18.0,0.905,8.9,9.8,4.0,4.0,NBA,154.0,0.7,2.1,PF,25.0,2012,0.7,DAL,2.3,5.8
35.0,1.5,0.8,7.0,0.465,7.3,15.6,0.083,0.1,1.6,0.429,7.4,17.2,0.806,3.4,4.2,7.0,7.0,NBA,263.0,0.7,2.7,PF,18.3,2014,0.8,DAL,2.1,7.7
36.0,2.4,0.4,9.5,0.507,6.8,13.3,0.235,0.8,3.4,0.452,7.6,16.7,0.929,5.2,5.6,5.0,5.0,NBA,181.0,0.8,3.2,PF,21.1,2015,0.4,DAL,2.0,10.3
37.0,1.7,0.6,4.4,0.514,7.8,15.2,0.364,0.8,2.3,0.494,8.7,17.6,0.941,3.4,3.6,5.0,5.0,NBA,170.0,0.6,1.9,PF,21.6,2016,0.4,DAL,1.5,5.1
