age,ast,blk,fg,fg3,fg3_pct,fg3a,fg_pct,fga,ft,ft_pct,fta,g,gs,lg_id,mp,orb,pf,pos,pts,season,stl,team_id,tov,trb
23.0,3.0,0.0,5.0,1.0,0.25,4.0,0.455,11.0,1.0,1.0,1.0,1.0,0.0,NBA,25,2.0,1.0,C,12.0,2002,0.0,DAL,2.0,8.0
24.0,1.0,0.0,4.0,1.0,0.25,4.0,0.5,8.0,0.0,0.0,0.0,1.0,0.0,NBA,17,0.0,1.0,PF,9.0,2003,0.0,DAL,2.0,1.0
25.0,1.0,0.0,1.0,0.0,0.0,1.0,0.333,3.0,0.0,0.0,0.0,1.0,0.0,NBA,14,0.0,0.0,C,2.0,2004,2.0,DAL,2.0,0.0
26.0,2.0,4.0,4.0,1.0,0.333,3.0,0.4,10.0,1.0,0.5,2.0,1.0,0.0,NBA,22,3.0,1.0,PF,10.0,2005,4.0,DAL,3.0,8.0
27.0,0.0,0.0,4.0,0.0,0.0,3.0,0.5,8.0,2.0,0.667,3.0,1.0,0.0,NBA,17,3.0,2.0,PF,10.0,2006,0.0,DAL,0.0,6.0
28.0,2.0,0.0,4.0,1.0,0.5,2.0,0.444,9.0,0.0,0.0,0.0,1.0,1.0,NBA,17,2.0,0.0,PF,9.0,2007,0.0,DAL,0.0,5.0
29.0,2.0,0.0,5.0,1.0,0.25,4.0,0.357,14.0,2.0,1.0,2.0,1.0,0.0,NBA,26,1.0,0.0,PF,13.0,2008,0.0,DAL,2.0,4.0
30.0,1.0,0.0,3.0,0.0,0.0,0.0,0.6,5.0,2.0,1.0,2.0,1.0,0.0,NBA,15,0.0,0.0,PF,8.0,2009,0.0,DAL,0.0,1.0
31.0,2.0,0.0,8.0,0.0,0.0,1.0,0.533,15.0,6.0,1.0,6.0,1.0,1.0,NBA,28,0.0,2.0,PF,22.0,2010,1.0,DAL,2.0,4.0
32.0,1.0,1.0,3.0,0.0,0.0,1.0,0.375,8.0,0.0,0.0,0.0,1.0,0.0,NBA,15,0.0,0.0,PF,6.0,2011,1.0,DAL,0.0,5.0
33.0,1.0,0.0,3.0,1.0,0.2,5.0,0.375,8.0,0.0,0.0,0.0,1.0,0.0,NBA,14,2.0,1.0,PF,7.0,2012,0.0,DAL,0.0,4.0
35.0,0.0,0.0,0.0,0.0,0.0,1.0,0.0,2.0,0.0,0.0,0.0,1.0,0.0,NBA,9,0.0,0.0,PF,0.0,2014,0.0,DAL,0.0,1.0
36.0,0.0,0.0,2.0,1.0,0.5,2.0,0.4,5.0,0.0,0.0,0.0,1.0,0.0,NBA,13,2.0,0.0,PF,5.0,2015,2.0,DAL,0.0,5.0
40.0,0.0,0.0,3.0,3.0,1.0,3.0,1.0,3.0,0.0,0.0,0.0,1.0,0.0,NBA,4,0.0,0.0,PF,9.0,2019,0.0,DAL,1.0,0.0
