age,ast,blk,drb,fg,fg2,fg2a,fg3,fg3a,fga,ft,fta,game_score,lg_id,mp,orb,pf,pts,season,stl,team_id,tov,trb
21.0,6.0,6.0,11.0,11.0,10.0,18.0,1.0,2.0,19.0,6.0,6.0,26.4,NBA,0.0,8.0,5.0,27.0,2000,3.0,PHO,3.0,14.0
22.0,8.0,5.0,16.0,16.0,16.0,23.0,4.0,8.0,23.0,11.0,13.0,34.9,NBA,0.0,8.0,6.0,38.0,2001,6.0,PHO,6.0,19.0
23.0,6.0,5.0,16.0,13.0,13.0,25.0,4.0,8.0,28.0,11.0,11.0,30.8,NBA,0.0,7.0,5.0,32.0,2002,7.0,PHO,5.0,18.0
24.0,7.0,5.0,15.0,14.0,14.0,22.0,5.0,10.0,26.0,9.0,11.0,32.1,NBA,0.0,8.0,5.0,36.0,2003,7.0,PHO,7.0,18.0
25.0,8.0,5.0,13.0,14.0,12.0,24.0,4.0,8.0,27.0,10.0,10.0,32.8,NBA,0.0,7.0,6.0,32.0,2004,6.0,PHO,5.0,17.0
26.0,5.0,6.0,16.0,13.0,12.0,20.0,5.0,9.0,26.0,9.0,10.0,40.3,NBA,0.0,8.0,5.0,37.0,2005,6.0,PHO,5.0,20.0
27.0,7.0,6.0,19.0,15.0,13.0,22.0,5.0,10.0,30.0,10.0,10.0,44.8,NBA,61.0,9.0,6.0,44.0,2006,8.0,PHO,6.0,24.0
28.0,5.0,6.0,16.0,13.0,12.0,18.0,3.0,7.0,22.0,11.0,11.0,31.3,NBA,50.0,7.0,6.0,35.0,2007,5.0,PHO,5.0,23.0
29.0,5.0,6.0,18.0,12.0,11.0,24.0,5.0,9.0,26.0,7.0,11.0,31.0,NBA,48.0,7.0,5.0,27.0,2008,6.0,TOT,5.0,24.0
29.0,5.0,6.0,18.0,12.0,11.0,20.0,5.0,9.0,22.0,7.0,10.0,31.0,NBA,48.0,7.0,5.0,27.0,2008,6.0,PHO,4.0,24.0
29.0,5.0,3.0,13.0,11.0,11.0,24.0,3.0,7.0,26.0,4.0,11.0,22.2,NBA,48.0,7.0,4.0,24.0,2008,5.0,MIA,5.0,18.0
30.0,6.0,4.0,13.0,15.0,15.0,23.0,1.0,4.0,23.0,8.0,9.0,34.4,NBA,45.0,7.0,6.0,34.0,2009,6.0,TOT,5.0,16.0
30.0,6.0,4.0,13.0,10.0,10.0,15.0,1.0,4.0,17.0,6.0,7.0,23.3,NBA,45.0,7.0,6.0,25.0,2009,6.0,MIA,5.0,16.0
30.0,6.0,3.0,13.0,15.0,15.0,23.0,1.0,3.0,23.0,8.0,9.0,34.4,NBA,44.0,6.0,4.0,34.0,2009,3.0,TOR,4.0,15.0
31.0,5.0,3.0,11.0,14.0,14.0,25.0,1.0,2.0,25.0,8.0,8.0,24.7,NBA,46.0,7.0,6.0,29.0,2010,5.0,DAL,5.0,15.0
32.0,5.0,3.0,10.0,12.0,12.0,20.0,2.0,4.0,20.0,7.0,8.0,22.9,NBA,39.0,7.0,4.0,25.0,2011,4.0,DAL,5.0,13.0
33.0,6.0,3.0,14.0,11.0,10.0,16.0,4.0,6.0,21.0,6.0,6.0,21.5,NBA,42.0,8.0,5.0,29.0,2012,3.0,DAL,4.0,15.0
34.0,7.0,4.0,13.0,11.0,10.0,17.0,2.0,3.0,19.0,4.0,6.0,25.5,NBA,45.0,6.0,5.0,26.0,2013,4.0,DAL,5.0,17.0
35.0,5.0,3.0,10.0,14.0,11.0,15.0,4.0,8.0,19.0,9.0,10.0,29.5,NBA,42.0,6.0,4.0,32.0,2014,4.0,DAL,4.0,14.0
36.0,3.0,3.0,8.0,6.0,5.0,10.0,1.0,4.0,11.0,4.0,4.0,13.0,NBA,33.0,5.0,4.0,13.0,2015,2.0,CLE,3.0,11.0
