age,and1s,astd_pts,drawn_offensive,drawn_shooting,fouls_offensive,fouls_shooting,g,lg_id,mp,own_shots_blk,pct_1,pct_2,pct_3,pct_4,pct_5,plus_minus_net,plus_minus_on,pos,season,team_id,tov_bad_pass,tov_lost_ball
22.0,31.0,352.0,0.0,130.0,12.0,123.0,79.0,NBA,2857.0,59.0,0.0,4.0,91.0,6.0,0.0,9.2,4.9,SF,2001,PHO,53.0,51.0
23.0,20.0,352.0,0.0,92.0,12.0,115.0,81.0,NBA,3109.0,63.0,0.0,1.0,83.0,17.0,0.0,3.5,-0.1,SF,2002,PHO,67.0,52.0
24.0,27.0,424.0,0.0,104.0,10.0,115.0,81.0,NBA,3373.0,57.0,0.0,1.0,85.0,14.0,0.0,-1.5,1.0,SF,2003,PHO,69.0,56.0
25.0,23.0,477.0,0.0,107.0,13.0,125.0,79.0,NBA,3217.0,49.0,0.0,2.0,59.0,39.0,0.0,2.6,-3.7,SF,2004,PHO,83.0,53.0
26.0,27.0,373.0,0.0,113.0,5.0,129.0,81.0,NBA,3146.0,51.0,0.0,0.0,10.0,90.0,0.0,13.4,10.2,PF,2005,PHO,71.0,35.0
27.0,29.0,348.0,19.0,130.0,10.0,133.0,81.0,NBA,3263.0,55.0,0.0,1.0,32.0,65.0,2.0,4.2,6.8,PF,2006,PHO,49.0,39.0
28.0,23.0,329.0,11.0,105.0,13.0,115.0,80.0,NBA,3010.0,45.0,0.0,4.0,72.0,24.0,0.0,8.3,9.7,SF,2007,PHO,50.0,24.0
29.0,10.0,334.0,4.0,63.0,10.0,95.0,63.0,NBA,2315.0,44.0,0.0,0.0,33.0,67.0,1.0,9.7,5.2,PF,2008,TOT,34.0,23.0
29.0,6.0,241.0,3.0,43.0,7.0,74.0,47.0,NBA,1713.0,29.0,0.0,0.0,38.0,62.0,0.0,7.0,9.6,PF,2008,PHO,19.0,12.0
29.0,4.0,93.0,1.0,20.0,3.0,21.0,16.0,NBA,602.0,15.0,0.0,0.0,20.0,79.0,1.0,1.6,-8.1,PF,2008,MIA,15.0,11.0
30.0,17.0,313.0,7.0,71.0,4.0,82.0,69.0,NBA,2470.0,43.0,0.0,1.0,81.0,18.0,0.0,2.1,0.0,SF,2009,TOT,49.0,40.0
30.0,11.0,177.0,6.0,44.0,2.0,59.0,42.0,NBA,1516.0,21.0,0.0,1.0,76.0,23.0,0.0,1.9,1.3,SF,2009,MIA,29.0,18.0
30.0,6.0,136.0,1.0,27.0,2.0,23.0,27.0,NBA,954.0,22.0,0.0,1.0,90.0,9.0,0.0,1.4,-2.0,SF,2009,TOR,20.0,22.0
31.0,7.0,251.0,4.0,62.0,13.0,86.0,75.0,NBA,2385.0,61.0,0.0,0.0,73.0,27.0,0.0,6.4,5.4,SF,2010,DAL,38.0,37.0
32.0,11.0,257.0,2.0,67.0,13.0,74.0,80.0,NBA,2253.0,44.0,0.0,0.0,83.0,17.0,0.0,-9.6,0.7,SF,2011,DAL,64.0,37.0
33.0,6.0,307.0,6.0,39.0,3.0,50.0,63.0,NBA,1919.0,42.0,0.0,1.0,87.0,12.0,0.0,-5.9,-1.1,SF,2012,DAL,49.0,32.0
34.0,12.0,383.0,3.0,49.0,8.0,67.0,67.0,NBA,2010.0,26.0,0.0,0.0,40.0,59.0,2.0,-5.6,-3.4,PF,2013,DAL,50.0,33.0
35.0,2.0,300.0,2.0,23.0,2.0,84.0,76.0,NBA,2409.0,28.0,0.0,0.0,54.0,46.0,0.0,-9.9,-1.4,SF,2014,DAL,58.0,24.0
36.0,2.0,119.0,4.0,16.0,1.0,44.0,57.0,NBA,1101.0,22.0,1.0,52.0,42.0,6.0,0.0,-2.6,2.8,SF,2015,CLE,17.0,9.0
