age,ast,blk,drb,fg,fg2,fg2a,fg3,fg3a,fga,ft,fta,game_score,lg_id,mp,orb,pf,pts,season,stl,team_id,tov,trb
24.0,4.0,1.0,3.0,2.0,2.0,7.0,1.0,1.0,7.0,2.0,2.0,5.9,NBA,0.0,1.0,2.0,7.0,1999,1.0,ATL,1.0,4.0
27.0,4.0,0.0,2.0,3.0,3.0,7.0,1.0,3.0,8.0,2.0,2.0,7.6,NBA,0.0,1.0,3.0,8.0,2002,3.0,NJN,2.0,2.0
28.0,5.0,0.0,2.0,4.0,2.0,4.0,2.0,2.0,4.0,2.0,2.0,9.7,NBA,0.0,2.0,3.0,10.0,2003,1.0,NJN,2.0,2.0
29.0,7.0,1.0,4.0,4.0,4.0,6.0,2.0,3.0,9.0,2.0,4.0,11.5,NBA,0.0,3.0,4.0,9.0,2004,2.0,IND,3.0,4.0
30.0,9.0,2.0,7.0,4.0,3.0,11.0,1.0,4.0,14.0,5.0,6.0,10.7,NBA,0.0,1.0,4.0,13.0,2005,3.0,IND,6.0,7.0
31.0,8.0,0.0,5.0,16.0,13.0,18.0,3.0,5.0,23.0,7.0,9.0,33.3,NBA,46.0,2.0,4.0,40.0,2006,2.0,IND,6.0,6.0
34.0,7.0,0.0,3.0,5.0,4.0,7.0,1.0,5.0,12.0,2.0,4.0,11.9,NBA,28.0,2.0,4.0,13.0,2009,2.0,ORL,3.0,4.0
35.0,2.0,0.0,0.0,1.0,1.0,1.0,0.0,1.0,2.0,0.0,0.0,2.4,NBA,5.0,0.0,0.0,2.0,2010,0.0,ORL,0.0,0.0
