article_url,date,headline
https://thunderousintentions.com/2019/08/12/former-okc-thunder-hasheem-thabeet/,2019/08/12,Thunderous Intentions: Former OKC Thunder player Hasheem Thabeet surfaces in a bid to make the Bucks roster
https://pistonpowered.com/2019/07/03/detroit-pistons-sign-markieff-morris/,2019/07/03,"Piston Powered: Detroit Pistons sign Markieff Morris to two-year, $7.4 million contract"
https://hoopshabit.com/2019/05/21/oklahoma-city-thunder-look-back-nba-draft-history-before-2019/,2019/05/21,Hoops Habit: Oklahoma City Thunder: A look back at NBA Draft history before 2019
