age,ast_per_g,blk_per_g,drb_per_g,efg_pct,fg2_pct,fg2_per_g,fg2a_per_g,fg3_pct,fg3_per_g,fg3a_per_g,fg_pct,fg_per_g,fga_per_g,ft_pct,ft_per_g,fta_per_g,g,gs,lg_id,mp_per_g,orb_per_g,pf_per_g,pos,pts_per_g,season,stl_per_g,team_id,tov_per_g,trb_per_g
22.0,1.2,0.1,0.8,0.417,0.417,1.5,3.5,0.278,0.1,0.2,0.408,1.5,3.7,0.732,0.7,1.0,73.0,4.0,NBA,11.0,0.2,1.0,SG,3.8,1991,0.5,PHI,0.7,1.1
23.0,0.6,0.1,0.6,0.33,0.344,1.0,2.8,0.0,0.0,0.1,0.33,1.0,2.9,0.682,0.4,0.6,34.0,0.0,NBA,8.2,0.3,1.0,SG,2.4,1992,0.3,PHI,0.7,0.9
26.0,0.7,0.0,0.7,0.444,0.444,0.7,1.5,0.0,0.0,0.0,0.444,0.7,1.5,0.75,1.0,1.3,6.0,0.0,NBA,7.0,0.0,1.3,SG,2.3,1995,0.0,WSB,0.5,0.7
29.0,0.4,0.0,1.2,0.368,0.368,1.4,3.8,0.0,0.0,0.0,0.368,1.4,3.8,0.25,0.2,0.8,5.0,0.0,NBA,12.2,0.6,0.8,SG,3.0,1998,0.2,ATL,0.2,1.8
