age,ast,blk,drb,fg,fg2,fg2a,fg3,fg3a,fga,ft,fta,game_score,lg_id,mp,orb,pf,pts,season,stl,team_id,tov,trb
25.0,1.0,3.0,4.0,6.0,6.0,8.0,0.0,0.0,8.0,5.0,6.0,9.2,NBA,29,6.0,4.0,12.0,2008,2.0,TOT,4.0,9.0
25.0,0.0,0.0,0.0,0.0,0.0,0.0,0.0,0.0,0.0,0.0,0.0,0.0,NBA,1,0.0,0.0,0.0,2008,0.0,GSW,0.0,0.0
25.0,1.0,3.0,4.0,6.0,6.0,8.0,0.0,0.0,8.0,5.0,6.0,9.2,NBA,29,6.0,4.0,12.0,2008,2.0,MIA,4.0,9.0
