age,ast_per_mp,blk_per_mp,drb_per_mp,fg2_pct,fg2_per_mp,fg2a_per_mp,fg3_pct,fg3_per_mp,fg3a_per_mp,fg_pct,fg_per_mp,fga_per_mp,ft_pct,ft_per_mp,fta_per_mp,g,gs,lg_id,mp,orb_per_mp,pf_per_mp,pos,pts_per_mp,season,stl_per_mp,team_id,tov_per_mp,trb_per_mp
24.0,1.8,1.2,4.5,0.356,1.7,4.9,0.0,0.0,0.0,0.356,1.7,4.9,0.364,0.9,2.4,34.0,0.0,NBA,331.0,4.4,6.5,SF,4.4,1995,1.3,DET,1.3,8.8
26.0,1.0,0.6,5.4,0.44,1.7,3.9,0.0,0.0,0.0,0.44,1.7,3.9,0.385,0.8,2.2,72.0,2.0,NBA,850.0,3.2,4.9,PF,4.2,1997,1.2,ATL,1.8,8.6
27.0,1.3,0.4,6.5,0.339,2.7,8.1,1.0,0.1,0.1,0.351,2.9,8.2,0.567,2.5,4.3,28.0,2.0,NBA,249.0,3.5,5.5,PF,8.4,1998,1.4,VAN,2.5,10.0
