age,ast_pct,blk_pct,bpm,bpm-dum,dbpm,drb_pct,dws,fg3a_per_fga_pct,fta_per_fga_pct,g,lg_id,mp,obpm,orb_pct,ows,per,pos,season,stl_pct,team_id,tov_pct,trb_pct,ts_pct,usg_pct,vorp,ws,ws-dum,ws_per_48
27.0,5.0,0.6,-1.3,0.0,-2.4,14.5,0.6,0.348,0.161,48.0,NBA,936.0,1.1,3.4,1.8,16.1,PF,2007,0.9,CHA,8.3,8.8,0.625,18.7,0.2,2.4,0.0,0.125
28.0,8.0,0.2,-3.5,0.0,-2.8,16.1,0.4,0.444,0.174,45.0,NBA,373.0,-0.7,6.9,0.3,13.2,PF,2008,1.0,TOT,7.2,11.5,0.494,20.8,-0.1,0.7,0.0,0.086
28.0,3.8,0.0,-5.8,0.0,-3.7,17.3,0.1,0.4,0.154,17.0,NBA,174.0,-2.1,6.6,0.1,12.1,PF,2008,1.2,CHA,5.4,11.9,0.49,19.3,-0.2,0.2,0.0,0.061
28.0,11.6,0.4,-1.6,0.0,-2.0,15.1,0.2,0.481,0.19,28.0,NBA,199.0,0.5,7.2,0.2,14.0,PF,2008,0.8,DET,8.5,11.1,0.496,22.2,0.0,0.4,0.0,0.108
29.0,5.6,0.5,-3.2,0.0,-2.6,15.1,0.5,0.58,0.121,59.0,NBA,630.0,-0.6,5.2,0.5,11.4,SF,2009,0.6,DET,7.2,10.1,0.514,17.8,-0.2,1.0,0.0,0.074
