age,ast,blk,drb,fg,fg2,fg2a,fg3,fg3a,fga,ft,fta,game_score,lg_id,mp,orb,pf,pts,season,stl,team_id,tov,trb
20.0,5.0,1.0,3.0,8.0,6.0,10.0,3.0,6.0,14.0,6.0,6.0,21.0,NBA,36,2.0,5.0,24.0,2013,3.0,DEN,4.0,4.0
21.0,6.0,2.0,7.0,9.0,6.0,12.0,6.0,10.0,21.0,7.0,8.0,25.1,NBA,45,3.0,6.0,27.0,2014,3.0,DEN,7.0,8.0
22.0,8.0,1.0,6.0,9.0,6.0,12.0,4.0,7.0,18.0,10.0,14.0,23.0,NBA,41,2.0,5.0,28.0,2015,4.0,ORL,4.0,6.0
23.0,8.0,1.0,6.0,12.0,8.0,15.0,5.0,11.0,21.0,12.0,15.0,24.6,NBA,47,2.0,6.0,30.0,2016,5.0,ORL,5.0,7.0
24.0,8.0,1.0,7.0,11.0,10.0,17.0,4.0,11.0,22.0,8.0,10.0,23.2,NBA,44,3.0,6.0,29.0,2017,3.0,ORL,6.0,10.0
25.0,5.0,2.0,7.0,12.0,10.0,18.0,6.0,12.0,22.0,9.0,10.0,26.5,NBA,41,3.0,5.0,32.0,2018,5.0,ORL,5.0,9.0
26.0,10.0,2.0,8.0,12.0,10.0,14.0,6.0,10.0,23.0,8.0,10.0,22.6,NBA,40,3.0,6.0,31.0,2019,4.0,ORL,4.0,8.0
27.0,5.0,1.0,5.0,8.0,7.0,12.0,4.0,8.0,18.0,6.0,7.0,13.7,NBA,33,1.0,6.0,23.0,2020,2.0,ORL,4.0,5.0
