age,ast_per_mp,blk_per_mp,drb_per_mp,fg2_pct,fg2_per_mp,fg2a_per_mp,fg3_pct,fg3_per_mp,fg3a_per_mp,fg_pct,fg_per_mp,fga_per_mp,ft_pct,ft_per_mp,fta_per_mp,g,gs,lg_id,mp,orb_per_mp,pf_per_mp,pos,pts_per_mp,season,stl_per_mp,team_id,tov_per_mp,trb_per_mp
22.0,2.0,1.2,3.3,0.465,2.7,5.9,0.426,1.7,3.9,0.449,4.4,9.8,0.647,0.9,1.4,42.0,5.0,NBA,435.0,0.4,2.1,SF,11.3,2003,0.8,DET,1.7,3.7
23.0,2.5,0.9,4.0,0.496,3.7,7.5,0.363,0.8,2.1,0.467,4.5,9.6,0.766,1.4,1.9,82.0,80.0,NBA,2701.0,1.2,2.0,SF,11.2,2004,0.8,DET,1.6,5.2
24.0,2.9,0.8,3.6,0.512,5.0,9.8,0.341,0.6,1.6,0.487,5.6,11.4,0.807,2.6,3.2,82.0,82.0,NBA,3039.0,1.6,1.9,SF,14.3,2005,0.7,DET,1.6,5.2
25.0,2.3,0.5,3.0,0.479,4.9,10.1,0.35,0.8,2.3,0.455,5.7,12.4,0.765,2.3,3.0,82.0,82.0,NBA,2898.0,1.3,1.2,SF,14.4,2006,0.8,DET,1.1,4.3
26.0,2.7,0.7,3.4,0.48,4.5,9.4,0.386,1.0,2.5,0.46,5.5,12.0,0.768,2.1,2.7,82.0,82.0,NBA,3001.0,1.7,1.4,SF,14.0,2007,0.6,DET,1.2,5.1
27.0,3.6,0.4,3.9,0.463,4.9,10.6,0.363,0.7,2.0,0.448,5.6,12.6,0.768,2.5,3.2,82.0,82.0,NBA,2694.0,1.5,1.2,SF,14.4,2008,0.6,DET,1.2,5.3
28.0,3.0,0.6,4.1,0.458,4.7,10.4,0.397,0.7,1.7,0.45,5.4,12.0,0.778,2.2,2.9,82.0,82.0,NBA,3057.0,1.5,1.2,SF,13.7,2009,0.5,DET,1.2,5.6
29.0,3.5,0.5,3.8,0.503,5.5,11.0,0.37,0.6,1.6,0.486,6.1,12.5,0.714,1.5,2.1,49.0,49.0,NBA,1664.0,1.5,1.7,SF,14.3,2010,0.7,DET,1.3,5.4
30.0,3.0,0.6,3.5,0.486,6.2,12.7,0.347,0.5,1.4,0.473,6.6,14.1,0.702,1.7,2.4,78.0,78.0,NBA,2562.0,1.1,1.3,SF,15.4,2011,0.4,DET,1.2,4.6
31.0,2.6,0.6,3.6,0.431,5.2,12.0,0.356,0.6,1.8,0.421,5.8,13.8,0.774,1.5,2.0,63.0,63.0,NBA,2087.0,1.2,1.3,SF,13.8,2012,0.5,DET,1.3,4.8
32.0,2.7,0.3,4.0,0.442,4.4,9.9,0.404,0.5,1.3,0.438,4.9,11.2,0.738,1.3,1.8,82.0,81.0,NBA,2631.0,1.0,1.2,SF,11.7,2013,0.7,TOT,1.2,5.0
32.0,2.7,0.3,4.1,0.445,4.7,10.6,0.434,0.6,1.3,0.444,5.3,12.0,0.796,1.8,2.3,45.0,45.0,NBA,1457.0,1.1,1.1,SF,13.0,2013,0.5,DET,1.3,5.2
32.0,2.6,0.4,3.9,0.437,4.0,9.0,0.366,0.5,1.3,0.429,4.4,10.3,0.595,0.7,1.1,37.0,36.0,NBA,1174.0,0.9,1.3,SF,10.0,2013,0.8,MEM,1.1,4.8
33.0,2.2,0.4,3.7,0.426,3.3,7.8,0.29,0.4,1.3,0.407,3.7,9.1,0.567,0.6,1.1,76.0,76.0,NBA,1948.0,0.6,1.2,SF,8.4,2014,0.7,MEM,0.8,4.3
34.0,2.4,0.4,4.1,0.436,3.8,8.6,0.463,0.8,1.7,0.44,4.6,10.4,0.754,1.3,1.7,58.0,16.0,NBA,1397.0,1.3,1.4,SF,11.2,2015,0.7,TOT,0.9,5.4
34.0,2.1,0.3,3.6,0.4,3.4,8.6,0.455,0.9,1.9,0.41,4.3,10.5,0.833,1.4,1.7,26.0,9.0,NBA,628.0,1.2,1.3,SF,10.9,2015,0.5,MEM,0.9,4.8
34.0,3.3,0.4,4.4,0.549,5.1,9.3,0.625,0.9,1.5,0.559,6.0,10.7,0.833,0.9,1.1,9.0,0.0,NBA,198.0,1.1,1.3,SF,13.8,2015,0.9,BOS,0.7,5.5
34.0,2.4,0.5,4.5,0.433,3.7,8.4,0.423,0.7,1.6,0.431,4.4,10.1,0.655,1.2,1.8,23.0,7.0,NBA,571.0,1.6,1.6,SF,10.6,2015,0.9,DET,1.0,6.1
35.0,1.8,0.3,2.8,0.476,2.4,5.1,0.174,0.1,0.6,0.445,2.5,5.6,0.684,0.3,0.5,77.0,44.0,NBA,1462.0,0.8,1.5,SF,5.4,2016,0.9,MIN,0.7,3.6
