age,ast,blk,drb,fg,fg2,fg2a,fg3,fg3a,fga,ft,fta,game_score,lg_id,mp,orb,pf,pts,season,stl,team_id,tov,trb
22.0,3.0,2.0,5.0,5.0,5.0,7.0,3.0,5.0,10.0,3.0,4.0,13.0,NBA,0.0,1.0,3.0,13.0,2003,2.0,DET,4.0,6.0
23.0,7.0,4.0,11.0,11.0,10.0,15.0,4.0,7.0,17.0,6.0,6.0,24.3,NBA,0.0,4.0,5.0,25.0,2004,3.0,DET,4.0,11.0
24.0,7.0,4.0,10.0,13.0,13.0,21.0,2.0,6.0,24.0,10.0,11.0,25.4,NBA,0.0,5.0,6.0,31.0,2005,3.0,DET,5.0,11.0
25.0,6.0,3.0,8.0,10.0,10.0,18.0,4.0,6.0,21.0,8.0,10.0,26.5,NBA,56.0,6.0,6.0,29.0,2006,3.0,DET,4.0,12.0
26.0,9.0,3.0,10.0,13.0,12.0,19.0,6.0,7.0,24.0,7.0,10.0,29.6,NBA,50.0,8.0,5.0,33.0,2007,3.0,DET,6.0,12.0
27.0,10.0,2.0,11.0,13.0,12.0,19.0,5.0,6.0,23.0,9.0,9.0,28.0,NBA,44.0,4.0,4.0,34.0,2008,2.0,DET,6.0,12.0
28.0,12.0,3.0,15.0,13.0,13.0,23.0,3.0,4.0,26.0,10.0,11.0,29.1,NBA,56.0,5.0,4.0,28.0,2009,3.0,DET,4.0,16.0
29.0,8.0,3.0,9.0,13.0,12.0,21.0,3.0,6.0,22.0,6.0,7.0,29.6,NBA,45.0,4.0,4.0,29.0,2010,3.0,DET,7.0,10.0
30.0,8.0,3.0,11.0,13.0,13.0,22.0,3.0,5.0,22.0,6.0,8.0,30.3,NBA,47.0,3.0,4.0,31.0,2011,2.0,DET,4.0,13.0
31.0,7.0,3.0,8.0,13.0,11.0,21.0,4.0,5.0,23.0,6.0,6.0,24.4,NBA,42.0,4.0,4.0,29.0,2012,3.0,DET,4.0,10.0
32.0,7.0,1.0,11.0,10.0,9.0,15.0,3.0,4.0,18.0,5.0,6.0,18.1,NBA,45.0,4.0,5.0,24.0,2013,3.0,TOT,4.0,14.0
32.0,6.0,1.0,10.0,10.0,8.0,15.0,2.0,4.0,18.0,5.0,6.0,18.1,NBA,45.0,4.0,5.0,24.0,2013,2.0,DET,4.0,10.0
32.0,7.0,1.0,11.0,9.0,9.0,15.0,3.0,4.0,15.0,3.0,4.0,15.1,NBA,44.0,3.0,4.0,18.0,2013,3.0,MEM,3.0,14.0
33.0,5.0,2.0,8.0,8.0,7.0,11.0,2.0,4.0,13.0,4.0,5.0,19.4,NBA,40.0,3.0,4.0,21.0,2014,3.0,MEM,3.0,9.0
34.0,5.0,2.0,10.0,10.0,9.0,14.0,4.0,4.0,15.0,4.0,6.0,21.5,NBA,35.0,6.0,4.0,23.0,2015,2.0,TOT,3.0,10.0
34.0,5.0,1.0,6.0,8.0,6.0,10.0,4.0,4.0,12.0,4.0,4.0,19.5,NBA,35.0,6.0,4.0,20.0,2015,2.0,MEM,3.0,9.0
34.0,5.0,2.0,5.0,7.0,6.0,9.0,2.0,3.0,10.0,3.0,4.0,18.1,NBA,31.0,2.0,2.0,19.0,2015,2.0,BOS,2.0,6.0
34.0,3.0,1.0,10.0,10.0,9.0,14.0,2.0,3.0,15.0,3.0,6.0,21.5,NBA,32.0,4.0,3.0,23.0,2015,2.0,DET,2.0,10.0
35.0,4.0,2.0,5.0,5.0,5.0,9.0,1.0,2.0,10.0,2.0,4.0,10.8,NBA,39.0,4.0,3.0,10.0,2016,3.0,MIN,2.0,6.0
