age,ast_per_g,blk_per_g,drb_per_g,efg_pct,fg2_pct,fg2_per_g,fg2a_per_g,fg3_pct,fg3_per_g,fg3a_per_g,fg_pct,fg_per_g,fga_per_g,ft_pct,ft_per_g,fta_per_g,g,gs,lg_id,mp_per_g,orb_per_g,pf_per_g,pos,pts_per_g,season,stl_per_g,team_id,tov_per_g,trb_per_g
22.0,1.8,0.4,1.8,0.524,0.529,1.4,2.7,0.344,0.6,1.7,0.459,2.0,4.4,0.707,0.7,1.0,56.0,19.0,NBA,20.8,0.6,1.4,SG,5.3,2009,0.8,OKC,1.2,2.3
23.0,0.9,0.5,1.4,0.47,0.357,0.4,1.2,0.368,0.6,1.6,0.364,1.0,2.8,0.833,0.4,0.5,12.0,0.0,NBA,12.0,0.1,1.1,SG,3.0,2010,0.5,OKC,0.3,1.5
24.0,1.4,0.4,1.6,0.42,0.333,1.2,3.6,0.429,0.6,1.4,0.36,1.8,5.0,0.875,1.4,1.6,5.0,0.0,NBA,13.8,0.4,0.6,SG,5.6,2011,0.4,UTA,1.4,2.0
