age,ast_pct,blk_pct,bpm,bpm-dum,dbpm,drb_pct,dws,fg3a_per_fga_pct,fta_per_fga_pct,g,lg_id,mp,obpm,orb_pct,ows,per,pos,season,stl_pct,team_id,tov_pct,trb_pct,ts_pct,usg_pct,vorp,ws,ws-dum,ws_per_48
22.0,13.1,1.6,-1.1,0.0,0.8,9.9,1.0,0.378,0.236,56.0,NBA,1166.0,-1.9,3.0,0.2,10.2,SG,2009,2.1,OKC,20.3,6.4,0.551,12.9,0.3,1.2,0.0,0.049
23.0,11.1,3.1,0.0,0.0,1.8,13.2,0.2,0.576,0.182,12.0,NBA,144.0,-1.7,0.8,0.1,10.7,SG,2010,2.1,OKC,10.1,7.2,0.505,12.4,0.1,0.3,0.0,0.106
24.0,15.8,2.4,-5.6,0.0,-1.7,14.1,0.0,0.28,0.32,5.0,NBA,69.0,-4.0,3.5,-0.1,11.3,SG,2011,1.5,UTA,19.7,8.7,0.491,23.6,-0.1,0.0,0.0,-0.018
