age,ast_per_g,blk_per_g,drb_per_g,efg_pct,fg2_pct,fg2_per_g,fg2a_per_g,fg3_pct,fg3_per_g,fg3a_per_g,fg_pct,fg_per_g,fga_per_g,ft_pct,ft_per_g,fta_per_g,g,gs,lg_id,mp_per_g,orb_per_g,pf_per_g,pos,pts_per_g,season,stl_per_g,team_id,tov_per_g,trb_per_g
23.0,0.6,0.0,0.3,0.396,0.39,0.4,1.1,0.286,0.1,0.2,0.375,0.5,1.3,0.615,0.2,0.4,36.0,0.0,NBA,6.3,0.1,1.2,SG,1.3,1988,0.2,UTA,0.5,0.4
24.0,1.1,0.0,0.4,0.364,0.375,0.6,1.7,0.0,0.0,0.1,0.364,0.6,1.7,0.545,0.3,0.6,19.0,0.0,NBA,9.3,0.2,1.2,SG,1.6,1989,0.5,UTA,0.7,0.6
26.0,0.8,0.0,0.2,0.0,0.0,0.0,0.6,0.0,0.0,0.0,0.0,0.0,0.6,0.5,0.6,1.2,5.0,0.0,NBA,4.2,0.4,0.8,SG,0.6,1991,0.0,GSW,0.4,0.6
27.0,1.2,0.0,0.5,0.481,0.522,0.5,1.0,0.143,0.0,0.2,0.472,0.6,1.2,0.577,0.3,0.6,44.0,0.0,NBA,5.4,0.1,0.6,SG,1.5,1992,0.0,SEA,0.5,0.6
28.0,1.4,0.1,0.1,0.231,0.25,0.4,1.7,0.0,0.0,0.1,0.231,0.4,1.9,0.786,1.6,2.0,7.0,0.0,NBA,5.9,0.0,0.1,SG,2.4,1993,0.3,BOS,0.4,0.1
