age,ast_per_g,blk_per_g,drb_per_g,efg_pct,fg2_pct,fg2_per_g,fg2a_per_g,fg3_pct,fg3_per_g,fg3a_per_g,fg_pct,fg_per_g,fga_per_g,ft_pct,ft_per_g,fta_per_g,g,gs,lg_id,mp_per_g,orb_per_g,pf_per_g,pos,pts_per_g,season,stl_per_g,team_id,tov_per_g,trb_per_g
23.0,4.5,0.1,2.6,0.503,0.499,2.3,4.6,0.348,0.4,1.1,0.47,2.7,5.7,0.634,0.3,0.5,81.0,17.0,NBA,19.8,0.5,1.4,PG,6.1,2016,1.2,PHI,1.7,3.1
24.0,6.6,0.1,2.6,0.472,0.492,2.8,5.6,0.2,0.1,0.7,0.461,2.9,6.3,0.811,0.9,1.1,81.0,51.0,NBA,26.3,0.5,1.7,PG,6.9,2017,1.7,PHI,2.0,3.1
25.0,4.0,0.2,2.5,0.531,0.51,2.4,4.7,0.435,0.4,0.8,0.499,2.8,5.5,0.795,0.4,0.5,76.0,1.0,NBA,22.4,0.5,1.6,PG,6.3,2018,1.2,PHI,1.5,3.0
26.0,3.4,0.2,1.9,0.542,0.546,2.7,5.0,0.333,0.2,0.6,0.525,2.9,5.5,0.784,0.4,0.5,76.0,3.0,NBA,19.3,0.4,1.4,PG,6.4,2019,1.0,PHI,1.2,2.3
27.0,4.5,0.3,2.5,0.485,0.492,2.9,5.9,0.0,0.0,0.1,0.485,2.9,6.0,1.0,0.4,0.4,11.0,0.0,NBA,17.0,0.5,1.3,PG,6.2,2020,0.5,IND,1.3,3.0
