age,ast_per_g,blk_per_g,drb_per_g,efg_pct,fg2_pct,fg2_per_g,fg2a_per_g,fg3_pct,fg3_per_g,fg3a_per_g,fg_pct,fg_per_g,fga_per_g,ft_pct,ft_per_g,fta_per_g,g,gs,lg_id,mp_per_g,orb_per_g,pf_per_g,pos,pts_per_g,season,stl_per_g,team_id,tov_per_g,trb_per_g
22.0,2.9,0.1,3.9,0.425,0.417,2.9,7.1,0.31,0.4,1.3,0.401,3.3,8.3,0.715,1.3,1.8,78.0,9.0,NBA,22.6,0.6,1.6,SF,8.4,2010,0.6,NJN,1.6,4.5
23.0,1.8,0.0,2.2,0.4,0.398,1.8,4.4,0.273,0.3,1.0,0.374,2.0,5.5,0.667,0.7,1.0,21.0,0.0,NBA,13.8,0.2,1.2,SG,5.0,2011,0.4,TOT,1.6,2.4
23.0,3.1,0.0,3.3,0.425,0.41,2.5,6.1,0.333,0.4,1.2,0.397,2.9,7.3,0.5,0.5,1.0,10.0,0.0,NBA,20.6,0.3,2.1,SG,6.7,2011,0.5,NJN,2.5,3.6
23.0,0.6,0.0,1.3,0.357,0.375,1.1,2.9,0.2,0.2,0.9,0.333,1.3,3.8,0.818,0.8,1.0,11.0,0.0,NBA,7.6,0.1,0.4,SG,3.5,2011,0.4,HOU,0.7,1.4
24.0,2.2,0.2,3.0,0.47,0.454,2.3,5.1,0.348,0.5,1.5,0.429,2.8,6.6,0.587,0.9,1.5,30.0,0.0,NBA,18.3,0.4,1.2,SG,7.1,2012,0.7,TOT,1.4,3.4
24.0,0.8,0.1,2.2,0.421,0.316,1.0,3.2,0.421,0.7,1.6,0.351,1.7,4.8,0.5,0.5,1.0,12.0,0.0,NBA,15.1,0.2,1.3,SG,4.5,2012,0.3,HOU,0.8,2.3
24.0,3.1,0.3,3.5,0.489,0.5,3.2,6.3,0.296,0.4,1.5,0.461,3.6,7.8,0.618,1.2,1.9,18.0,0.0,NBA,20.5,0.6,1.1,SG,8.8,2012,0.9,SAC,1.8,4.1
25.0,1.6,0.1,1.7,0.521,0.524,1.8,3.4,0.333,0.2,0.6,0.495,2.0,4.0,0.429,0.4,0.9,24.0,0.0,NBA,13.3,0.2,0.5,SF,4.6,2013,0.5,BOS,0.9,1.8
