age,ast,blk,drb,fg,fg2,fg2a,fg3,fg3a,fga,ft,fta,game_score,lg_id,mp,orb,pf,pts,season,stl,team_id,tov,trb
22.0,14.0,1.0,12.0,12.0,11.0,22.0,3.0,7.0,25.0,5.0,8.0,22.4,NBA,49,3.0,5.0,27.0,2010,4.0,NJN,5.0,13.0
23.0,9.0,0.0,7.0,6.0,5.0,13.0,3.0,4.0,14.0,2.0,2.0,8.5,NBA,33,1.0,5.0,15.0,2011,2.0,TOT,5.0,7.0
23.0,9.0,0.0,7.0,6.0,5.0,13.0,3.0,4.0,14.0,2.0,2.0,8.5,NBA,33,1.0,5.0,15.0,2011,2.0,NJN,5.0,7.0
23.0,3.0,0.0,3.0,4.0,3.0,8.0,1.0,3.0,11.0,2.0,2.0,6.1,NBA,22,1.0,2.0,11.0,2011,1.0,HOU,2.0,3.0
24.0,9.0,2.0,10.0,7.0,7.0,14.0,2.0,5.0,16.0,6.0,11.0,14.9,NBA,33,2.0,3.0,21.0,2012,3.0,TOT,5.0,12.0
24.0,2.0,1.0,6.0,5.0,4.0,7.0,2.0,5.0,12.0,2.0,4.0,9.4,NBA,28,1.0,3.0,13.0,2012,2.0,HOU,3.0,6.0
24.0,9.0,2.0,10.0,7.0,7.0,14.0,2.0,4.0,16.0,6.0,11.0,14.9,NBA,33,2.0,3.0,21.0,2012,3.0,SAC,5.0,12.0
25.0,5.0,1.0,5.0,6.0,6.0,12.0,2.0,3.0,14.0,3.0,4.0,15.3,NBA,31,1.0,2.0,14.0,2013,2.0,BOS,3.0,6.0
