age,ast_per_poss,blk_per_poss,def_rtg,drb_per_poss,fg2_pct,fg2_per_poss,fg2a_per_poss,fg3_pct,fg3_per_poss,fg3a_per_poss,fg_pct,fg_per_poss,fga_per_poss,ft_pct,ft_per_poss,fta_per_poss,g,gs,lg_id,mp,off_rtg,orb_per_poss,pf_per_poss,pos,pts_per_poss,season,stl_per_poss,team_id,tov_per_poss,trb_per_poss
22.0,10.8,0.4,107.0,4.4,0.444,5.4,12.0,0.31,0.9,2.9,0.418,6.2,14.9,0.722,2.1,2.9,81.0,2.0,NBA,1269.0,103.0,0.9,4.7,PG,15.5,2010,1.6,TOT,3.4,5.2
22.0,11.4,0.3,108.0,3.9,0.431,6.6,15.4,0.208,0.7,3.4,0.391,7.3,18.7,0.758,3.5,4.7,26.0,2.0,NBA,363.0,99.0,1.4,4.7,PG,18.9,2010,1.8,UTA,3.9,5.4
22.0,10.5,0.5,107.0,4.6,0.452,4.8,10.7,0.362,1.0,2.7,0.434,5.8,13.4,0.692,1.5,2.2,55.0,0.0,NBA,906.0,105.0,0.6,4.7,PG,14.1,2010,1.5,OKC,3.2,5.2
23.0,10.3,0.3,110.0,4.1,0.409,4.2,10.2,0.385,1.6,4.1,0.402,5.8,14.4,0.729,1.9,2.5,82.0,0.0,NBA,1200.0,104.0,1.1,4.1,PG,15.0,2011,1.5,OKC,3.3,5.2
24.0,8.3,0.0,107.0,3.8,0.364,3.0,8.3,0.353,2.3,6.4,0.359,5.3,14.7,1.0,1.5,1.5,9.0,0.0,NBA,137.0,96.0,1.1,4.9,PG,14.3,2012,1.9,OKC,4.1,4.9
25.0,9.8,0.1,112.0,2.0,0.389,3.9,10.0,0.354,1.8,5.2,0.377,5.7,15.2,0.726,2.4,3.4,64.0,0.0,NBA,963.0,96.0,0.5,3.0,PG-SG,15.7,2013,1.2,TOT,4.3,2.5
25.0,9.6,0.0,109.0,1.7,0.304,2.8,9.1,0.326,2.0,6.0,0.313,4.7,15.1,0.81,2.2,2.8,37.0,0.0,NBA,391.0,92.0,0.7,2.5,PG,13.7,2013,1.3,OKC,4.1,2.4
25.0,10.0,0.1,114.0,2.2,0.44,4.7,10.7,0.38,1.7,4.6,0.422,6.4,15.2,0.683,2.6,3.8,27.0,0.0,NBA,572.0,100.0,0.4,3.3,SG,17.2,2013,1.1,POR,4.4,2.6
26.0,8.0,0.5,109.0,4.6,0.313,3.1,9.9,0.324,1.8,5.7,0.317,4.9,15.6,0.545,0.9,1.7,31.0,0.0,NBA,327.0,82.0,1.4,2.6,PG,12.6,2014,1.4,TOT,4.5,6.0
26.0,9.6,0.2,108.0,4.1,0.277,3.1,11.3,0.32,1.9,6.0,0.292,5.0,17.2,0.667,0.5,0.7,23.0,0.0,NBA,215.0,83.0,1.7,3.1,PG,12.5,2014,1.2,WAS,4.1,5.7
26.0,5.2,0.9,111.0,5.6,0.412,3.0,7.3,0.333,1.7,5.2,0.379,4.8,12.5,0.5,1.7,3.5,8.0,0.0,NBA,112.0,79.0,0.9,1.7,PG,13.0,2014,1.7,PHI,5.2,6.5
