age,ast_pct,blk_pct,bpm,bpm-dum,dbpm,drb_pct,dws,fg3a_per_fga_pct,fta_per_fga_pct,g,lg_id,mp,obpm,orb_pct,ows,per,pos,season,stl_pct,team_id,tov_pct,trb_pct,ts_pct,usg_pct,vorp,ws,ws-dum,ws_per_48
22.0,31.5,0.6,-3.3,0.0,-1.4,9.6,1.4,0.193,0.196,81.0,NBA,1269.0,-2.0,2.0,0.5,11.8,PG,2010,1.6,TOT,17.5,5.9,0.478,17.1,-0.4,1.9,0.0,0.071
22.0,33.1,0.4,-3.7,0.0,-1.8,8.9,0.4,0.18,0.248,26.0,NBA,363.0,-1.9,3.4,0.0,12.3,PG,2010,1.8,UTA,16.0,6.2,0.454,21.7,-0.2,0.4,0.0,0.051
22.0,30.9,0.7,-3.2,0.0,-1.2,9.9,1.0,0.2,0.166,55.0,NBA,906.0,-2.0,1.4,0.5,11.6,PG,2010,1.5,OKC,18.4,5.8,0.492,15.3,-0.3,1.5,0.0,0.079
23.0,30.3,0.4,-3.4,0.0,-2.1,9.1,0.8,0.288,0.177,82.0,NBA,1200.0,-1.2,2.5,0.7,11.7,PG,2011,1.5,OKC,17.7,5.9,0.485,16.5,-0.4,1.5,0.0,0.061
24.0,24.1,0.0,-4.0,0.0,-2.2,7.8,0.1,0.436,0.103,9.0,NBA,137.0,-1.8,2.7,0.0,9.1,PG,2012,1.9,OKC,21.3,5.4,0.466,17.1,-0.1,0.1,0.0,0.037
25.0,28.7,0.1,-7.4,0.0,-4.4,4.4,0.3,0.342,0.221,64.0,NBA,963.0,-3.0,1.1,-0.1,9.3,PG-SG,2013,1.2,TOT,20.4,2.8,0.472,18.4,-1.3,0.2,0.0,0.008
25.0,26.8,0.0,-8.4,0.0,-4.5,3.6,0.2,0.4,0.183,37.0,NBA,391.0,-3.9,1.6,-0.3,7.5,PG,2013,1.3,OKC,20.0,2.6,0.419,18.1,-0.6,0.0,0.0,-0.003
25.0,30.0,0.1,-6.7,0.0,-4.3,4.9,0.0,0.301,0.247,27.0,NBA,572.0,-2.4,0.8,0.2,10.6,SG,2013,1.1,POR,20.7,2.8,0.508,18.6,-0.7,0.2,0.0,0.016
26.0,23.0,0.7,-7.6,0.0,-1.9,10.6,0.2,0.366,0.109,31.0,NBA,327.0,-5.8,3.1,-0.6,6.2,PG,2014,1.4,TOT,21.5,6.7,0.387,18.2,-0.5,-0.4,0.0,-0.058
26.0,26.8,0.4,-7.5,0.0,-2.1,9.3,0.2,0.347,0.042,23.0,NBA,215.0,-5.4,3.7,-0.4,6.0,PG,2014,1.2,WAS,18.8,6.5,0.355,19.0,-0.3,-0.2,0.0,-0.052
26.0,15.7,1.4,-7.8,0.0,-1.4,13.0,0.1,0.414,0.276,8.0,NBA,112.0,-6.5,1.9,-0.2,6.6,PG,2014,1.7,PHI,27.0,7.2,0.461,16.8,-0.2,-0.2,0.0,-0.07
