article_url,date,headline
https://elitesportsny.com/2019/11/14/kristaps-porzingis-doesnt-deserve-boos-from-new-york-knicks-fans/,2019/11/14,ESNY: Kristaps Porzingis doesn’t deserve boos from New York Knicks fans
https://hardwoodhoudini.com/2019/11/06/boston-celtics-plan-tacko-fall/,2019/11/06,Hardwood Houdini: Boston Celtics: Brad Stevens' plan for Tacko Fall is the exact right plan to have -- here's why
https://bluemanhoop.com/2019/10/22/golden-state-warriors-a-culture-shift-could-be-deadly/,2019/10/22,Blue Man Hoop: Golden State Warriors: A culture shift could be deadly
https://bluemanhoop.com/2019/10/12/golden-state-warriors-addressing-lack-center-depth/,2019/10/12,Blue Man Hoop: Golden State Warriors: Addressing lack of center depth
https://pistonpowered.com/2019/10/06/who-detroit-pistons-should-have-taken-every-draft-since-darko-milicic/,2019/10/06,Piston Powered: Who the Detroit Pistons should have taken in every draft since Darko Milicic
