age,ast_per_g,blk_per_g,drb_per_g,efg_pct,fg2_pct,fg2_per_g,fg2a_per_g,fg3_pct,fg3_per_g,fg3a_per_g,fg_pct,fg_per_g,fga_per_g,ft_pct,ft_per_g,fta_per_g,g,gs,lg_id,mp_per_g,orb_per_g,pf_per_g,pos,pts_per_g,season,stl_per_g,team_id,tov_per_g,trb_per_g
29.0,0.8,0.2,3.7,0.394,0.394,2.2,5.5,0.0,0.0,0.0,0.394,2.2,5.5,0.667,0.7,1.0,6.0,1.0,NBA,10.8,1.0,0.8,PF,5.0,2013,0.5,GSW,0.8,4.7
30.0,2.6,0.0,5.7,0.532,0.532,5.9,11.0,0.0,0.0,0.0,0.532,5.9,11.0,0.789,2.1,2.7,7.0,7.0,NBA,31.0,3.4,4.0,PF,13.9,2014,0.6,GSW,2.4,9.1
31.0,0.6,0.2,1.8,0.4,0.4,1.2,3.1,0.0,0.0,0.0,0.4,1.2,3.1,0.533,0.6,1.2,13.0,0.0,NBA,8.2,0.8,1.3,PF,3.1,2015,0.2,GSW,0.2,2.6
32.0,0.5,0.0,2.5,0.75,0.75,3.0,4.0,0.0,0.0,0.0,0.75,3.0,4.0,0.0,0.0,0.0,2.0,0.0,NBA,16.5,0.5,3.5,PF,6.0,2016,0.0,DAL,0.0,3.0
33.0,0.7,0.3,2.5,0.521,0.532,1.7,3.1,0.0,0.0,0.1,0.521,1.7,3.2,0.647,0.7,1.1,15.0,4.0,NBA,16.3,1.3,1.3,PF,4.1,2017,0.3,SAS,0.4,3.8
