age,ast,blk,drb,fg,fg2,fg2a,fg3,fg3a,fga,ft,fta,game_score,lg_id,mp,orb,pf,pts,season,stl,team_id,tov,trb
24.0,2.0,2.0,3.0,8.0,6.0,15.0,2.0,3.0,15.0,6.0,7.0,13.2,NBA,0.0,3.0,4.0,18.0,1991,3.0,HOU,3.0,5.0
25.0,1.0,1.0,2.0,2.0,2.0,4.0,1.0,1.0,4.0,2.0,2.0,5.1,NBA,0.0,3.0,1.0,4.0,1992,1.0,TOT,1.0,3.0
25.0,0.0,0.0,0.0,1.0,1.0,1.0,0.0,0.0,1.0,0.0,0.0,1.7,NBA,0.0,0.0,1.0,2.0,1992,0.0,HOU,0.0,0.0
25.0,1.0,1.0,2.0,2.0,2.0,4.0,1.0,1.0,4.0,2.0,2.0,5.1,NBA,0.0,3.0,1.0,4.0,1992,1.0,NYK,1.0,3.0
26.0,2.0,2.0,4.0,6.0,6.0,8.0,1.0,3.0,10.0,3.0,5.0,13.5,NBA,0.0,2.0,4.0,15.0,1993,2.0,HOU,2.0,5.0
