age,ast,ast_per_g,blk,college_id,fg,fg3,fg3_pct,fg3a,fg_pct,fga,ft,ft_pct,fta,g,mp,mp_per_g,orb,pf,pts,pts_per_g,season,stl,tov,trb,trb_per_g
18.0,4.0,0.2,11.0,OREGONST,29.0,0.0,0.0,0.0,0.492,59.0,16.0,0.571,28.0,24.0,279.0,11.6,0.0,56.0,74.0,3.1,1989,5.0,21.0,59.0,2.5
19.0,19.0,0.7,42.0,OREGONST,93.0,0.0,0.0,0.0,0.497,187.0,51.0,0.785,65.0,29.0,693.0,23.9,0.0,103.0,237.0,8.2,1990,10.0,31.0,140.0,4.8
21.0,35.0,1.1,68.0,OREGONST,226.0,0.0,0.0,0.0,0.612,369.0,106.0,0.779,136.0,31.0,907.0,29.3,0.0,86.0,558.0,18.0,1992,9.0,59.0,201.0,6.5
22.0,19.0,0.7,51.0,OREGONST,176.0,0.0,0.0,0.0,0.521,338.0,98.0,0.645,152.0,27.0,834.0,30.9,0.0,80.0,450.0,16.7,1993,15.0,69.0,220.0,8.1
