age,ast_per_g,blk_per_g,drb_per_g,efg_pct,fg2_pct,fg2_per_g,fg2a_per_g,fg3_pct,fg3_per_g,fg3a_per_g,fg_pct,fg_per_g,fga_per_g,ft_pct,ft_per_g,fta_per_g,g,gs,lg_id,mp_per_g,orb_per_g,pf_per_g,pos,pts_per_g,season,stl_per_g,team_id,tov_per_g,trb_per_g
20.0,5.2,0.3,3.0,0.446,0.435,4.3,9.9,0.313,1.5,4.9,0.395,5.9,14.8,0.694,1.9,2.8,69.0,69.0,NBA,29.7,0.7,2.2,PG,15.2,2018,1.0,DAL,2.8,3.8
21.0,4.8,0.4,2.3,0.479,0.477,4.0,8.3,0.322,1.3,3.9,0.428,5.2,12.3,0.635,1.9,2.9,53.0,50.0,NBA,28.5,0.6,2.4,PG,13.6,2019,1.3,TOT,2.9,2.9
21.0,4.3,0.3,2.5,0.5,0.491,3.6,7.3,0.344,1.3,3.9,0.44,4.9,11.2,0.695,1.8,2.6,32.0,32.0,NBA,28.4,0.6,2.6,PG,12.9,2019,1.3,DAL,3.1,3.0
21.0,5.4,0.4,2.1,0.454,0.462,4.6,10.0,0.289,1.1,4.0,0.413,5.8,14.0,0.568,2.0,3.5,21.0,18.0,NBA,28.6,0.7,2.2,PG,14.7,2019,1.3,NYK,2.6,2.8
22.0,2.6,0.2,0.6,0.269,0.222,0.8,3.6,0.25,0.4,1.6,0.231,1.2,5.2,0.5,0.4,0.8,5.0,0.0,NBA,14.0,0.8,2.4,PG,3.2,2020,0.6,NYK,1.4,1.4
