age,avg_dist,fg2_dunk,fg2_pct,fg2_pct_ast,fg2a_pct_fga,fg3_heave,fg3_pct,fg3_pct_ast,fg3_pct_corner,fg3a_heave,fg3a_pct_fga,fg_pct,fg_pct_00_03,fg_pct_03_10,fg_pct_10_16,fg_pct_16_xx,g,lg_id,mp,pct_fg2_dunk,pct_fg3a_corner,pct_fga_00_03,pct_fga_03_10,pct_fga_10_16,pct_fga_16_xx,pos,season,team_id
22.0,16.1,0.0,0.357,0.4,0.636,0.0,0.375,0.667,0.0,0.0,0.364,0.364,0.5,0.0,0.5,0.167,8.0,NBA,38.0,0.0,0.125,0.273,0.0,0.091,0.273,PG,2001,POR
23.0,12.6,0.0,0.377,0.609,0.897,0.0,0.143,1.0,1.0,0.0,0.103,0.353,0.545,0.5,0.75,0.172,19.0,NBA,228.0,0.0,0.143,0.324,0.088,0.059,0.426,PG,2002,POR
