age,ast,blk,drb,fg,fg2,fg2a,fg3,fg3a,fga,ft,fta,game_score,lg_id,mp,orb,pf,pts,season,stl,team_id,tov,trb
21.0,4.0,1.0,5.0,4.0,3.0,7.0,2.0,6.0,13.0,2.0,2.0,8.4,NBA,28,1.0,5.0,10.0,2019,5.0,LAC,2.0,5.0
22.0,3.0,2.0,2.0,4.0,3.0,5.0,1.0,3.0,7.0,0.0,0.0,2.6,NBA,19,0.0,2.0,9.0,2020,1.0,LAC,5.0,2.0
