age,ast_per_poss,blk_per_poss,def_rtg,drb_per_poss,fg2_pct,fg2_per_poss,fg2a_per_poss,fg3_pct,fg3_per_poss,fg3a_per_poss,fg_pct,fg_per_poss,fga_per_poss,ft_pct,ft_per_poss,fta_per_poss,g,gs,lg_id,mp,off_rtg,orb_per_poss,pf_per_poss,pos,pts_per_poss,season,stl_per_poss,team_id,tov_per_poss,trb_per_poss
21.0,2.8,0.4,112.0,5.6,0.491,3.8,7.8,0.316,2.7,8.4,0.4,6.5,16.2,0.667,0.9,1.3,33.0,0.0,NBA,320.0,96.0,0.4,6.8,SG,16.5,2019,1.6,LAC,1.9,6.0
22.0,4.0,1.6,109.0,4.0,0.333,3.2,9.7,0.286,1.6,5.7,0.316,4.8,15.3,0.0,0.0,0.0,7.0,0.0,NBA,58.0,61.0,0.0,3.2,SG,11.3,2020,0.8,LAC,6.5,4.0
