age,ast_per_poss,blk_per_poss,def_rtg,drb_per_poss,fg2_pct,fg2_per_poss,fg2a_per_poss,fg3_pct,fg3_per_poss,fg3a_per_poss,fg_pct,fg_per_poss,fga_per_poss,ft_pct,ft_per_poss,fta_per_poss,g,gs,lg_id,mp,off_rtg,orb_per_poss,pf_per_poss,pos,pts_per_poss,season,stl_per_poss,team_id,tov_per_poss,trb_per_poss
22.0,4.7,0.3,114.0,2.5,0.418,6.1,14.6,0.301,1.8,6.0,0.384,7.9,20.7,0.649,4.1,6.4,58.0,0.0,NBA,613.0,97.0,2.6,6.4,SG,21.8,1995,1.1,DAL,4.1,5.1
23.0,3.9,0.5,114.0,2.2,0.446,7.8,17.6,0.357,2.9,8.1,0.418,10.7,25.7,0.599,6.0,10.1,67.0,12.0,NBA,1284.0,105.0,2.3,5.0,SG,30.4,1996,1.6,DAL,3.0,4.5
24.0,4.8,0.4,111.0,2.5,0.426,5.6,13.1,0.143,0.8,5.4,0.344,6.3,18.5,0.64,3.1,4.8,24.0,1.0,NBA,278.0,84.0,0.6,8.7,SG,16.5,1997,1.9,TOT,3.1,3.1
24.0,5.2,0.2,110.0,2.6,0.453,5.7,12.6,0.125,0.7,5.7,0.351,6.4,18.3,0.652,3.6,5.5,18.0,0.0,NBA,227.0,85.0,0.7,8.6,SG,17.1,1997,2.4,DAL,3.6,3.3
24.0,3.0,1.0,115.0,2.0,0.333,5.0,15.1,0.25,1.0,4.0,0.316,6.1,19.2,0.5,1.0,2.0,6.0,1.0,NBA,51.0,79.0,0.0,9.1,SG,14.1,1997,0.0,PHO,1.0,2.0
25.0,5.7,0.0,106.0,4.5,0.5,4.5,9.1,0.5,2.3,4.5,0.5,6.8,13.6,0.0,0.0,3.4,7.0,0.0,NBA,47.0,83.0,1.1,5.7,SG,15.9,1998,0.0,CLE,5.7,5.7
