age,ast_per_poss,blk_per_poss,def_rtg,drb_per_poss,fg2_pct,fg2_per_poss,fg2a_per_poss,fg3_pct,fg3_per_poss,fg3a_per_poss,fg_pct,fg_per_poss,fga_per_poss,ft_pct,ft_per_poss,fta_per_poss,g,gs,lg_id,mp,off_rtg,orb_per_poss,pf_per_poss,pos,pts_per_poss,season,stl_per_poss,team_id,tov_per_poss,trb_per_poss
24.0,12.1,0.3,117.0,3.5,0.415,5.4,13.0,0.364,2.5,7.0,0.397,7.9,20.0,1.0,4.1,4.1,4.0,4.0,NBA,166.0,107.0,1.9,4.1,PG,22.5,1998,1.6,POR,5.1,5.4
25.0,10.3,0.1,106.0,4.8,0.364,5.5,15.1,0.455,1.4,3.1,0.38,6.9,18.2,0.706,3.4,4.8,13.0,13.0,NBA,403.0,90.0,1.0,4.4,PG,18.6,1999,1.1,POR,5.4,5.8
26.0,7.3,0.5,106.0,4.3,0.438,5.8,13.1,0.333,1.3,3.8,0.415,7.0,16.9,0.833,2.5,3.0,16.0,16.0,NBA,447.0,104.0,1.0,5.4,PG,17.8,2000,1.0,POR,2.4,5.3
27.0,6.0,0.5,117.0,3.7,0.515,7.8,15.2,0.154,0.9,6.0,0.413,8.7,21.2,1.0,6.0,6.0,3.0,3.0,NBA,114.0,98.0,0.5,2.8,PG,24.4,2001,0.9,POR,4.1,4.1
28.0,5.3,0.0,110.0,3.2,0.111,1.1,9.5,0.75,1.6,2.1,0.227,2.6,11.6,0.667,1.1,1.6,3.0,3.0,NBA,99.0,75.0,0.5,2.6,PG,7.9,2002,1.1,POR,2.1,3.7
29.0,9.2,0.5,115.0,6.8,0.438,4.9,11.3,0.484,3.5,7.3,0.456,8.5,18.6,0.952,4.7,4.9,7.0,6.0,NBA,232.0,128.0,1.6,5.2,PG,25.2,2003,1.4,POR,2.8,8.5
34.0,3.1,0.0,105.0,7.7,0.364,6.1,16.9,0.25,1.5,6.1,0.333,7.7,23.0,0.667,3.1,4.6,7.0,0.0,NBA,35.0,89.0,3.1,0.0,PG,19.9,2008,1.5,SAS,1.5,10.7
