age,ast,blk,drb,fg,fg2,fg2a,fg3,fg3a,fga,ft,fta,game_score,lg_id,mp,orb,pf,pts,season,stl,team_id,tov,trb
22.0,19.0,2.0,12.0,14.0,13.0,25.0,6.0,12.0,27.0,14.0,15.0,29.5,NBA,0.0,4.0,5.0,30.0,1996,5.0,TOR,9.0,12.0
23.0,17.0,1.0,10.0,13.0,11.0,28.0,6.0,11.0,37.0,11.0,14.0,31.7,NBA,0.0,3.0,6.0,35.0,1997,5.0,TOR,12.0,10.0
24.0,16.0,1.0,7.0,15.0,13.0,22.0,7.0,13.0,31.0,11.0,12.0,35.5,NBA,0.0,6.0,5.0,36.0,1998,5.0,TOT,7.0,11.0
24.0,16.0,1.0,7.0,15.0,13.0,22.0,7.0,13.0,31.0,11.0,12.0,35.5,NBA,0.0,6.0,5.0,36.0,1998,5.0,TOR,7.0,11.0
24.0,15.0,1.0,6.0,9.0,9.0,14.0,3.0,9.0,18.0,7.0,8.0,20.0,NBA,0.0,3.0,4.0,24.0,1998,5.0,POR,5.0,8.0
25.0,11.0,1.0,6.0,14.0,13.0,18.0,3.0,7.0,21.0,9.0,10.0,25.8,NBA,0.0,3.0,4.0,31.0,1999,4.0,POR,5.0,7.0
26.0,11.0,1.0,7.0,13.0,10.0,15.0,7.0,12.0,19.0,8.0,10.0,28.9,NBA,0.0,3.0,4.0,31.0,2000,5.0,POR,6.0,8.0
27.0,11.0,1.0,9.0,12.0,10.0,16.0,4.0,7.0,20.0,12.0,15.0,29.4,NBA,0.0,5.0,6.0,32.0,2001,4.0,POR,8.0,10.0
28.0,14.0,1.0,7.0,12.0,9.0,16.0,5.0,9.0,22.0,10.0,11.0,23.8,NBA,0.0,4.0,5.0,29.0,2002,4.0,POR,5.0,8.0
29.0,11.0,2.0,6.0,8.0,7.0,11.0,3.0,6.0,15.0,5.0,5.0,24.2,NBA,0.0,3.0,3.0,21.0,2003,3.0,POR,5.0,7.0
30.0,14.0,2.0,9.0,12.0,9.0,15.0,6.0,11.0,22.0,7.0,7.0,27.5,NBA,0.0,4.0,6.0,32.0,2004,4.0,POR,5.0,9.0
31.0,14.0,1.0,10.0,20.0,12.0,18.0,8.0,21.0,32.0,9.0,9.0,40.1,NBA,0.0,5.0,5.0,54.0,2005,5.0,POR,7.0,12.0
32.0,9.0,1.0,5.0,11.0,8.0,12.0,6.0,9.0,19.0,8.0,9.0,21.3,NBA,46.0,2.0,5.0,26.0,2006,2.0,MEM,5.0,6.0
33.0,16.0,1.0,5.0,8.0,5.0,11.0,3.0,8.0,15.0,6.0,6.0,27.3,NBA,42.0,3.0,5.0,19.0,2007,4.0,MEM,6.0,6.0
34.0,7.0,1.0,5.0,7.0,4.0,8.0,4.0,8.0,14.0,4.0,6.0,18.9,NBA,35.0,2.0,4.0,19.0,2008,2.0,TOT,4.0,6.0
34.0,7.0,0.0,5.0,7.0,4.0,8.0,4.0,8.0,14.0,4.0,6.0,18.9,NBA,35.0,2.0,4.0,19.0,2008,2.0,MEM,4.0,6.0
34.0,4.0,1.0,4.0,4.0,3.0,8.0,3.0,7.0,11.0,2.0,2.0,7.8,NBA,24.0,1.0,3.0,11.0,2008,1.0,SAS,4.0,4.0
