age,ast_pct,blk_pct,bpm,bpm-dum,dbpm,drb_pct,dws,fg3a_per_fga_pct,fta_per_fga_pct,g,lg_id,mp,obpm,orb_pct,ows,per,pos,season,stl_pct,team_id,tov_pct,trb_pct,ts_pct,usg_pct,vorp,ws,ws-dum,ws_per_48
22.0,37.4,0.5,-0.6,0.0,-2.7,9.3,0.6,0.298,0.262,70.0,NBA,2865.0,2.2,2.4,3.7,16.7,PG,1996,1.8,TOR,17.5,5.8,0.528,23.5,1.0,4.3,0.0,0.072
23.0,38.2,0.3,1.3,0.0,-2.1,8.9,1.8,0.353,0.285,81.0,NBA,3311.0,3.4,3.0,5.8,18.1,PG,1997,2.0,TOR,15.4,5.8,0.516,25.3,2.8,7.6,0.0,0.11
24.0,35.1,0.2,-0.1,0.0,-2.5,8.6,0.8,0.279,0.263,71.0,NBA,2839.0,2.5,3.4,3.9,16.8,PG,1998,2.1,TOT,15.5,5.9,0.503,22.4,1.4,4.7,0.0,0.079
24.0,34.4,0.2,-0.1,0.0,-3.2,8.8,-0.1,0.246,0.255,49.0,NBA,2033.0,3.0,3.3,3.2,17.7,PG,1998,2.0,TOR,14.7,6.0,0.514,23.4,1.0,3.2,0.0,0.074
24.0,36.8,0.2,0.1,0.0,-1.0,7.9,0.9,0.384,0.291,22.0,NBA,806.0,1.1,3.6,0.7,14.5,PG,1998,2.2,POR,18.0,5.8,0.469,19.9,0.4,1.5,0.0,0.091
25.0,32.8,0.2,0.1,0.0,-0.8,8.4,1.8,0.226,0.194,50.0,NBA,1673.0,0.9,2.9,1.7,14.7,PG,1999,1.6,POR,13.9,5.8,0.462,21.7,0.9,3.6,0.0,0.102
26.0,28.4,0.0,0.7,0.0,-1.0,8.6,2.5,0.237,0.162,78.0,NBA,2372.0,1.7,3.2,3.6,15.5,PG,2000,1.7,POR,13.5,6.0,0.508,21.5,1.6,6.1,0.0,0.124
27.0,29.1,0.2,1.1,0.0,-0.7,10.2,2.5,0.234,0.221,82.0,NBA,2655.0,1.8,3.2,4.1,16.3,PG,2001,2.1,POR,15.7,6.8,0.519,21.3,2.1,6.7,0.0,0.121
28.0,28.0,0.2,0.6,0.0,-1.3,9.1,1.7,0.321,0.214,75.0,NBA,2796.0,1.9,3.2,4.9,14.7,PG,2002,1.3,POR,12.9,6.1,0.506,18.8,1.8,6.6,0.0,0.113
29.0,24.5,0.3,-1.9,0.0,-1.0,10.6,1.1,0.275,0.161,59.0,NBA,1315.0,-0.9,3.7,0.6,12.1,PG,2003,1.6,POR,15.6,7.1,0.46,18.5,0.0,1.6,0.0,0.059
30.0,27.0,0.2,0.6,0.0,-1.5,9.7,1.4,0.419,0.142,82.0,NBA,3118.0,2.2,2.0,4.5,14.8,PG,2004,1.8,POR,14.3,5.9,0.508,19.2,2.1,5.9,0.0,0.091
31.0,29.2,0.1,1.1,0.0,-2.0,10.2,1.4,0.421,0.171,81.0,NBA,2762.0,3.2,2.4,4.2,16.6,PG,2005,1.7,POR,11.6,6.5,0.51,23.6,2.2,5.7,0.0,0.099
32.0,26.6,0.1,-0.6,0.0,-1.0,10.0,1.0,0.362,0.216,27.0,NBA,862.0,0.5,3.3,0.7,13.7,PG,2006,1.2,MEM,14.9,6.7,0.504,20.8,0.3,1.7,0.0,0.093
33.0,31.3,0.1,-2.6,0.0,-2.9,8.6,0.1,0.4,0.19,62.0,NBA,1501.0,0.3,2.5,1.1,12.6,PG,2007,1.6,MEM,17.6,5.5,0.493,17.3,-0.2,1.1,0.0,0.036
34.0,24.6,0.1,-4.1,0.0,-1.4,10.8,0.8,0.442,0.101,60.0,NBA,1037.0,-2.7,2.2,-0.9,8.9,PG,2008,1.5,TOT,18.5,6.5,0.45,19.1,-0.6,-0.1,0.0,-0.004
34.0,27.7,0.0,-2.7,0.0,-2.3,10.3,0.2,0.485,0.134,29.0,NBA,624.0,-0.4,2.5,0.2,11.8,PG,2008,1.5,MEM,19.6,6.4,0.514,18.2,-0.1,0.4,0.0,0.033
34.0,20.0,0.4,-6.2,0.0,-0.1,11.6,0.6,0.385,0.056,31.0,NBA,413.0,-6.1,1.7,-1.1,4.6,PG,2008,1.4,SAS,17.0,6.7,0.362,20.5,-0.4,-0.5,0.0,-0.06
