age,ast,blk,drb,fg,fg2,fg2a,fg3,fg3a,fga,ft,fta,game_score,lg_id,mp,orb,pf,pts,season,stl,team_id,tov,trb
24.0,1.0,1.0,3.0,2.0,2.0,2.0,0.0,0.0,2.0,1.0,2.0,4.1,NBA,15,1.0,4.0,4.0,2013,1.0,TOT,2.0,4.0
24.0,1.0,0.0,1.0,2.0,2.0,2.0,0.0,0.0,2.0,1.0,2.0,4.1,NBA,7,1.0,1.0,4.0,2013,1.0,BOS,1.0,1.0
24.0,1.0,1.0,3.0,1.0,1.0,1.0,0.0,0.0,1.0,0.0,0.0,2.0,NBA,15,1.0,4.0,2.0,2013,0.0,MIA,2.0,4.0
25.0,4.0,6.0,8.0,4.0,4.0,8.0,0.0,0.0,8.0,3.0,7.0,9.6,NBA,22,4.0,5.0,9.0,2014,2.0,TOT,2.0,9.0
25.0,0.0,0.0,0.0,0.0,0.0,0.0,0.0,0.0,0.0,0.0,0.0,-0.4,NBA,3,0.0,1.0,0.0,2014,0.0,CHI,0.0,0.0
25.0,4.0,6.0,8.0,4.0,4.0,8.0,0.0,0.0,8.0,3.0,7.0,9.6,NBA,22,4.0,5.0,9.0,2014,2.0,PHI,2.0,9.0
