age,ast_pct,blk_pct,bpm,bpm-dum,dbpm,drb_pct,dws,fg3a_per_fga_pct,fta_per_fga_pct,g,lg_id,mp,obpm,orb_pct,ows,per,pos,season,stl_pct,team_id,tov_pct,trb_pct,ts_pct,usg_pct,vorp,ws,ws-dum,ws_per_48
22.0,6.9,1.1,-8.5,0.0,-3.0,11.1,0.3,0.011,0.313,53.0,NBA,609.0,-5.5,10.6,-1.1,8.5,SF,1996,0.9,SAC,19.9,10.8,0.487,27.5,-1.0,-0.8,0.0,-0.062
23.0,10.9,1.9,-1.9,0.0,-0.5,11.1,1.5,0.004,0.337,79.0,NBA,1992.0,-1.4,8.1,1.2,14.3,SF,1997,1.6,SAC,15.5,9.5,0.535,22.8,0.0,2.7,0.0,0.064
24.0,14.8,1.2,-0.2,0.0,-0.5,11.5,1.8,0.008,0.391,79.0,NBA,2819.0,0.3,6.3,2.6,16.0,SF,1998,1.4,SAC,13.0,8.8,0.527,24.1,1.3,4.4,0.0,0.076
25.0,8.1,0.4,-2.9,0.0,-2.0,9.2,0.6,0.009,0.339,50.0,NBA,1374.0,-0.9,6.6,1.9,14.7,SF,1999,1.1,SAC,10.5,7.9,0.517,22.1,-0.3,2.5,0.0,0.086
26.0,7.4,0.7,-1.9,0.0,-0.8,10.3,1.4,0.0,0.341,76.0,NBA,1707.0,-1.0,7.4,2.2,14.0,SF,2000,1.1,SAC,13.3,8.9,0.549,20.2,0.1,3.6,0.0,0.102
27.0,6.5,0.9,-2.3,0.0,-1.1,14.0,1.6,0.003,0.366,69.0,NBA,1686.0,-1.2,7.0,1.6,15.1,SF,2001,1.5,TOT,12.8,10.4,0.533,22.5,-0.1,3.2,0.0,0.092
27.0,6.3,1.0,-4.5,0.0,-2.1,12.5,0.6,0.006,0.4,42.0,NBA,886.0,-2.4,7.1,0.3,12.1,SF,2001,0.9,TOR,14.5,9.7,0.51,22.6,-0.6,0.8,0.0,0.045
27.0,6.7,0.7,0.2,0.0,0.0,15.7,1.1,0.0,0.332,27.0,NBA,800.0,0.3,7.0,1.3,18.4,SF,2001,2.2,DET,10.9,11.2,0.557,22.4,0.4,2.4,0.0,0.144
28.0,11.5,1.1,-1.3,0.0,-1.8,13.9,1.9,0.006,0.37,78.0,NBA,1701.0,0.4,8.2,3.2,20.0,SF,2002,1.5,DET,12.8,11.1,0.567,29.8,0.3,5.1,0.0,0.144
29.0,10.2,1.0,-1.6,0.0,-0.7,12.3,2.5,0.013,0.363,82.0,NBA,2061.0,-0.9,8.3,2.4,15.7,SF,2003,1.2,DET,11.6,10.3,0.515,25.3,0.2,4.9,0.0,0.115
30.0,7.2,1.0,-2.6,0.0,-1.0,12.2,2.5,0.0,0.327,79.0,NBA,1574.0,-1.6,6.6,1.6,14.4,PF,2004,1.0,DET,14.1,9.4,0.546,23.8,-0.2,4.1,0.0,0.124
31.0,8.6,0.8,-3.4,0.0,-1.8,11.5,1.2,0.003,0.418,72.0,NBA,1527.0,-1.7,7.6,2.0,14.7,PF,2005,1.3,TOT,11.1,9.5,0.536,22.6,-0.6,3.3,0.0,0.103
31.0,7.3,0.9,-3.8,0.0,-1.7,11.3,1.0,0.005,0.396,48.0,NBA,1056.0,-2.2,7.7,1.1,14.4,PF,2005,1.2,PHI,10.9,9.5,0.529,23.0,-0.5,2.1,0.0,0.094
31.0,11.6,0.4,-2.6,0.0,-2.1,11.9,0.3,0.0,0.473,24.0,NBA,471.0,-0.5,7.4,0.9,15.4,PF,2005,1.3,SAC,11.4,9.6,0.553,21.5,-0.1,1.2,0.0,0.122
32.0,6.2,0.8,-7.1,0.0,-1.5,14.7,0.4,0.019,0.476,37.0,NBA,362.0,-5.6,6.9,-0.2,8.1,SF,2006,1.0,SAC,19.4,10.8,0.506,19.6,-0.5,0.2,0.0,0.021
33.0,5.2,0.9,-5.1,0.0,-1.9,14.2,0.9,0.004,0.447,68.0,NBA,1337.0,-3.2,5.4,0.6,12.7,PF,2007,1.1,SAC,14.9,9.7,0.559,21.9,-1.1,1.5,0.0,0.054
