article_url,date,headline
https://raptorsrapture.com/2019/08/08/toronto-raptors-favourite-jerome-williams/,2019/08/08,Raptors Rapture: Toronto Raptors fan favourite week: Jerome Williams
https://thesixersense.com/2019/06/19/philadelphia-76ers-2019-nba-draft-profile-grant-williams/,2019/06/19,The Sixer Sense: Philadelphia 76ers 2019 NBA Draft profile: Grant Williams
https://airalamo.com/2019/05/29/san-antonio-spurs-2019-nba-draft-prospects-grant-williams/,2019/05/29,Air Alamo: San Antonio Spurs 2019 NBA Draft Prospects: Grant Williams
https://allucanheat.com/2019/05/21/miami-heat-best-13-picks-history/,2019/05/21,All U Can Heat: Miami Heat: A look back at the best 13 picks in NBA history
