age,ast_per_mp,blk_per_mp,drb_per_mp,fg2_pct,fg2_per_mp,fg2a_per_mp,fg3_pct,fg3_per_mp,fg3a_per_mp,fg_pct,fg_per_mp,fga_per_mp,ft_pct,ft_per_mp,fta_per_mp,g,gs,lg_id,mp,orb_per_mp,pf_per_mp,pos,pts_per_mp,season,stl_per_mp,team_id,tov_per_mp,trb_per_mp
22.0,2.9,1.8,5.9,0.457,2.3,5.1,0.354,3.1,8.7,0.392,5.4,13.8,0.727,0.9,1.2,20.0,1.0,NBA,326.0,1.2,3.1,PF,14.8,2018,0.7,NYK,1.3,7.1
23.0,2.5,1.9,4.9,0.411,1.7,4.1,0.363,3.2,8.9,0.378,4.9,13.0,0.826,1.7,2.1,46.0,18.0,NBA,784.0,1.3,1.9,PF,14.8,2019,1.2,NYK,1.1,6.2
24.0,1.9,2.2,4.3,0.5,3.1,6.2,0.217,1.6,7.1,0.349,4.7,13.3,1.0,1.6,1.6,10.0,0.0,NBA,116.0,1.6,3.1,C,12.4,2020,0.3,CHI,0.9,5.9
