age,ast,blk,drb,fg,fg2,fg2a,fg3,fg3a,fga,ft,fta,game_score,lg_id,mp,orb,pf,pts,season,stl,team_id,tov,trb
22.0,4.0,4.0,9.0,9.0,5.0,8.0,4.0,7.0,15.0,2.0,3.0,16.2,NBA,34,4.0,4.0,23.0,2018,2.0,NYK,3.0,10.0
23.0,5.0,6.0,9.0,8.0,4.0,7.0,7.0,13.0,17.0,6.0,8.0,23.7,NBA,39,4.0,3.0,24.0,2019,5.0,NYK,2.0,13.0
24.0,2.0,2.0,2.0,4.0,3.0,4.0,1.0,5.0,9.0,2.0,2.0,8.8,NBA,19,2.0,2.0,9.0,2020,1.0,CHI,1.0,4.0
