age,ast,blk,drb,efg_pct,fg,fg2,fg2_pct,fg2a,fg3,fg3_pct,fg3a,fg_pct,fga,ft,ft_pct,fta,g,gs,lg_id,mp,orb,pf,pos,pts,season,stl,team_id,tov,trb
23.0,4.0,1.0,3.0,0.375,2.0,0.0,0.0,3.0,2.0,0.4,5.0,0.25,8.0,0.0,0.0,0.0,7.0,0.0,NBA,33.0,1.0,2.0,PG,6.0,2019,1.0,HOU,1.0,4.0
24.0,7.0,2.0,4.0,0.333,2.0,0.0,0.0,5.0,2.0,0.5,4.0,0.222,9.0,0.0,0.0,0.0,2.0,0.0,NBA,35.0,0.0,6.0,PG,6.0,2020,2.0,WAS,3.0,4.0
