age,ast,blk,drb,fg,fg2,fg2a,fg3,fg3a,fga,ft,fta,game_score,lg_id,mp,orb,pf,pts,season,stl,team_id,tov,trb
20.0,2.0,6.0,13.0,11.0,11.0,12.0,0.0,0.0,12.0,7.0,13.0,26.6,NBA,44,7.0,5.0,23.0,2009,3.0,LAC,3.0,20.0
21.0,2.0,5.0,12.0,9.0,9.0,11.0,0.0,1.0,11.0,5.0,9.0,20.1,NBA,44,7.0,6.0,23.0,2010,2.0,LAC,4.0,15.0
22.0,3.0,7.0,12.0,9.0,9.0,10.0,0.0,1.0,10.0,4.0,10.0,24.0,NBA,41,9.0,6.0,21.0,2011,3.0,LAC,4.0,20.0
23.0,2.0,8.0,11.0,9.0,9.0,13.0,0.0,1.0,13.0,7.0,12.0,21.6,NBA,41,10.0,6.0,19.0,2012,3.0,LAC,4.0,16.0
24.0,2.0,7.0,19.0,10.0,10.0,15.0,0.0,0.0,15.0,6.0,11.0,23.5,NBA,40,8.0,6.0,21.0,2013,3.0,LAC,9.0,22.0
25.0,4.0,9.0,16.0,11.0,11.0,14.0,0.0,0.0,14.0,10.0,22.0,26.8,NBA,44,10.0,6.0,25.0,2014,3.0,LAC,5.0,24.0
26.0,3.0,7.0,20.0,10.0,10.0,13.0,1.0,1.0,13.0,12.0,28.0,30.0,NBA,46,11.0,6.0,26.0,2015,5.0,LAC,4.0,27.0
27.0,4.0,7.0,18.0,9.0,9.0,13.0,0.0,1.0,13.0,12.0,34.0,28.6,NBA,43,9.0,6.0,23.0,2016,4.0,LAC,5.0,24.0
28.0,6.0,4.0,20.0,12.0,12.0,15.0,0.0,1.0,15.0,12.0,18.0,28.4,NBA,45,9.0,5.0,29.0,2017,4.0,LAC,5.0,25.0
29.0,5.0,3.0,18.0,11.0,11.0,15.0,0.0,0.0,15.0,9.0,16.0,32.7,NBA,41,12.0,6.0,30.0,2018,4.0,LAC,7.0,24.0
30.0,9.0,5.0,19.0,8.0,8.0,12.0,0.0,0.0,12.0,8.0,10.0,26.8,NBA,42,10.0,6.0,22.0,2019,2.0,TOT,6.0,23.0
30.0,9.0,5.0,19.0,8.0,8.0,12.0,0.0,0.0,12.0,8.0,10.0,26.8,NBA,42,10.0,6.0,22.0,2019,2.0,DAL,6.0,23.0
30.0,9.0,3.0,16.0,7.0,7.0,10.0,0.0,0.0,10.0,6.0,8.0,23.7,NBA,36,8.0,6.0,20.0,2019,2.0,NYK,5.0,19.0
31.0,4.0,4.0,12.0,8.0,8.0,9.0,0.0,0.0,9.0,3.0,4.0,21.9,NBA,31,7.0,4.0,16.0,2020,2.0,BRK,3.0,17.0
