age,ast_pct,blk_pct,bpm,bpm-dum,dbpm,drb_pct,dws,fg3a_per_fga_pct,fta_per_fga_pct,g,lg_id,mp,obpm,orb_pct,ows,per,pos,season,stl_pct,team_id,tov_pct,trb_pct,ts_pct,usg_pct,vorp,ws,ws-dum,ws_per_48
20.0,2.3,5.7,-4.0,0.0,0.6,25.5,0.9,0.0,0.741,53.0,NBA,771.0,-4.7,10.5,0.4,14.1,C,2009,0.7,LAC,17.4,17.8,0.585,13.9,-0.4,1.3,0.0,0.079
21.0,2.9,4.0,-3.7,0.0,0.3,23.6,1.2,0.008,0.538,70.0,NBA,1137.0,-3.9,12.4,0.2,12.7,C,2010,0.7,LAC,20.3,17.9,0.571,14.7,-0.5,1.5,0.0,0.061
22.0,3.2,5.4,1.3,0.0,2.5,20.9,2.6,0.003,0.636,80.0,NBA,2047.0,-1.2,11.9,2.6,14.8,C,2011,1.0,LAC,18.8,16.5,0.648,11.7,1.7,5.2,0.0,0.122
23.0,1.5,6.2,1.0,0.0,2.1,23.0,2.4,0.003,0.433,66.0,NBA,1798.0,-1.1,13.2,3.2,16.4,C,2012,0.9,LAC,16.0,18.1,0.626,11.9,1.4,5.6,0.0,0.15
24.0,2.2,4.7,0.3,0.0,1.1,22.4,3.2,0.0,0.51,82.0,NBA,2010.0,-0.8,12.7,3.0,17.2,C,2013,1.3,LAC,14.3,17.6,0.606,15.9,1.2,6.2,0.0,0.148
25.0,3.7,5.4,4.1,0.0,4.2,29.3,5.8,0.0,0.726,82.0,NBA,2870.0,-0.1,13.3,5.3,18.2,C,2014,1.4,LAC,15.3,21.6,0.63,12.4,4.4,11.1,0.0,0.186
26.0,3.2,5.4,4.1,0.0,3.2,32.4,5.4,0.007,0.882,82.0,NBA,2820.0,0.9,16.2,7.4,21.0,C,2015,1.5,LAC,12.8,24.5,0.638,13.6,4.3,12.8,0.0,0.217
27.0,5.3,5.4,3.4,0.0,3.8,32.7,5.5,0.002,1.219,77.0,NBA,2598.0,-0.4,11.4,6.0,20.6,C,2016,1.0,LAC,12.1,22.2,0.628,15.4,3.5,11.5,0.0,0.213
28.0,5.7,4.3,4.1,0.0,3.0,34.6,4.6,0.003,0.737,81.0,NBA,2570.0,1.0,13.3,7.2,21.8,C,2017,1.0,LAC,13.1,24.2,0.673,15.3,3.9,11.8,0.0,0.221
29.0,7.1,2.4,2.1,0.0,1.6,37.6,3.4,0.0,0.54,77.0,NBA,2424.0,0.5,15.1,6.0,20.2,C,2018,0.8,LAC,16.1,26.5,0.648,15.2,2.5,9.4,0.0,0.186
30.0,11.6,3.0,2.4,0.0,3.3,35.2,3.1,0.0,0.592,69.0,NBA,2047.0,-0.9,11.7,4.0,19.0,C,2019,1.0,TOT,21.4,23.5,0.674,15.0,2.3,7.1,0.0,0.167
30.0,9.5,2.9,2.0,0.0,3.4,35.9,2.5,0.0,0.613,50.0,NBA,1554.0,-1.4,11.2,2.7,18.0,C,2019,1.0,DAL,21.3,23.6,0.672,14.4,1.6,5.3,0.0,0.162
30.0,18.2,3.4,3.6,0.0,2.9,33.0,0.6,0.0,0.537,19.0,NBA,493.0,0.6,13.3,1.3,22.1,C,2019,0.9,NYK,21.6,22.9,0.681,16.8,0.7,1.9,0.0,0.181
31.0,13.2,4.2,2.6,0.0,3.3,38.3,0.3,0.0,0.38,10.0,NBA,220.0,-0.8,11.0,0.5,19.7,C,2020,1.0,BRK,17.1,24.8,0.634,12.9,0.3,0.8,0.0,0.172
