lg_id,salary,season,team_name
NBA,550000.0,2009,Los Angeles Clippers
NBA,736420.0,2010,Los Angeles Clippers
NBA,854389.0,2011,Los Angeles Clippers
NBA,10079404.0,2012,Los Angeles Clippers
NBA,10532977.0,2013,Los Angeles Clippers
NBA,10986550.0,2014,Los Angeles Clippers
NBA,11440124.0,2015,Los Angeles Clippers
NBA,19500000.0,2016,Los Angeles Clippers
NBA,21165675.0,2017,Los Angeles Clippers
NBA,22642350.0,2018,Los Angeles Clippers
NBA,22897200.0,2019,New York Knicks
