age,ast,blk,drb,fg,fg2,fg2a,fg3,fg3a,fga,ft,fta,game_score,lg_id,mp,orb,pf,pts,season,stl,team_id,tov,trb
22.0,3.0,4.0,10.0,9.0,9.0,10.0,0.0,1.0,10.0,6.0,10.0,17.1,NBA,0.0,6.0,6.0,19.0,1992,3.0,IND,4.0,13.0
23.0,3.0,5.0,15.0,9.0,9.0,15.0,0.0,0.0,15.0,8.0,10.0,22.8,NBA,0.0,9.0,6.0,20.0,1993,3.0,IND,5.0,19.0
24.0,6.0,6.0,16.0,11.0,11.0,15.0,0.0,1.0,15.0,11.0,18.0,27.5,NBA,0.0,12.0,6.0,28.0,1994,5.0,IND,4.0,22.0
25.0,4.0,7.0,12.0,10.0,10.0,15.0,0.0,1.0,15.0,5.0,9.0,26.3,NBA,0.0,9.0,6.0,25.0,1995,3.0,IND,5.0,20.0
26.0,5.0,5.0,16.0,9.0,9.0,14.0,0.0,0.0,14.0,9.0,12.0,20.9,NBA,0.0,9.0,5.0,21.0,1996,3.0,IND,5.0,20.0
27.0,4.0,4.0,15.0,10.0,10.0,17.0,0.0,0.0,17.0,5.0,10.0,23.7,NBA,0.0,9.0,6.0,23.0,1997,3.0,IND,5.0,21.0
28.0,4.0,4.0,10.0,10.0,10.0,13.0,0.0,0.0,13.0,5.0,8.0,22.5,NBA,0.0,11.0,6.0,22.0,1998,3.0,IND,4.0,17.0
29.0,3.0,4.0,10.0,8.0,8.0,12.0,0.0,0.0,12.0,7.0,9.0,21.0,NBA,0.0,7.0,5.0,21.0,1999,2.0,IND,6.0,16.0
30.0,3.0,6.0,15.0,10.0,10.0,15.0,0.0,0.0,15.0,7.0,14.0,23.1,NBA,0.0,9.0,6.0,23.0,2000,3.0,IND,5.0,20.0
31.0,5.0,7.0,12.0,8.0,8.0,13.0,0.0,2.0,13.0,7.0,10.0,18.1,NBA,0.0,7.0,5.0,18.0,2001,3.0,POR,3.0,17.0
32.0,6.0,3.0,14.0,12.0,12.0,16.0,0.0,0.0,16.0,6.0,8.0,30.1,NBA,0.0,11.0,6.0,25.0,2002,6.0,POR,3.0,18.0
33.0,4.0,3.0,9.0,7.0,7.0,14.0,0.0,0.0,14.0,7.0,8.0,21.0,NBA,0.0,8.0,6.0,17.0,2003,4.0,POR,4.0,17.0
34.0,6.0,5.0,11.0,7.0,7.0,12.0,0.0,0.0,12.0,5.0,8.0,19.4,NBA,0.0,10.0,6.0,15.0,2004,4.0,POR,3.0,14.0
35.0,5.0,4.0,9.0,7.0,7.0,10.0,0.0,0.0,10.0,6.0,8.0,15.5,NBA,0.0,9.0,6.0,16.0,2005,3.0,TOT,3.0,16.0
35.0,2.0,3.0,7.0,7.0,7.0,10.0,0.0,0.0,10.0,3.0,5.0,14.5,NBA,0.0,5.0,6.0,16.0,2005,2.0,GSW,3.0,11.0
35.0,5.0,4.0,9.0,5.0,5.0,10.0,0.0,0.0,10.0,6.0,8.0,15.5,NBA,0.0,9.0,5.0,13.0,2005,3.0,IND,3.0,16.0
36.0,2.0,2.0,4.0,2.0,2.0,5.0,0.0,1.0,5.0,2.0,2.0,4.4,NBA,24.0,3.0,4.0,4.0,2006,0.0,DET,2.0,5.0
37.0,1.0,3.0,7.0,4.0,4.0,9.0,0.0,0.0,9.0,4.0,4.0,16.5,NBA,32.0,8.0,4.0,12.0,2007,3.0,DET,2.0,13.0
