age,ast,blk,drb,efg_pct,fg,fg2,fg2_pct,fg2a,fg3,fg3_pct,fg3a,fg_pct,fga,ft,ft_pct,fta,g,gs,lg_id,mp,orb,pf,pos,pts,season,stl,team_id,tov,trb
24.0,25.0,1.0,8.0,0.48,20.0,12.0,0.364,33.0,8.0,0.471,17.0,0.4,50.0,9.0,0.6,15.0,34.0,0.0,NBA,150.0,3.0,12.0,PG,57.0,1998,6.0,MIN,9.0,11.0
25.0,102.0,2.0,34.0,0.435,73.0,51.0,0.383,133.0,22.0,0.367,60.0,0.378,193.0,40.0,0.727,55.0,46.0,0.0,NBA,590.0,11.0,59.0,PG,208.0,1999,26.0,VAN,48.0,45.0
