age,ast_per_g,blk_per_g,drb_per_g,efg_pct,fg2_pct,fg2_per_g,fg2a_per_g,fg3_pct,fg3_per_g,fg3a_per_g,fg_pct,fg_per_g,fga_per_g,ft_pct,ft_per_g,fta_per_g,g,gs,lg_id,mp_per_g,orb_per_g,pf_per_g,pos,pts_per_g,season,stl_per_g,team_id,tov_per_g,trb_per_g
24.0,0.7,0.0,0.2,0.48,0.364,0.4,1.0,0.471,0.2,0.5,0.4,0.6,1.5,0.6,0.3,0.4,34.0,0.0,NBA,4.4,0.1,0.4,PG,1.7,1998,0.2,MIN,0.3,0.3
25.0,2.2,0.0,0.7,0.435,0.383,1.1,2.9,0.367,0.5,1.3,0.378,1.6,4.2,0.727,0.9,1.2,46.0,0.0,NBA,12.8,0.2,1.3,PG,4.5,1999,0.6,VAN,1.0,1.0
