age,ast,blk,drb,efg_pct,fg,fg2,fg2_pct,fg2a,fg3,fg3_pct,fg3a,fg_pct,fga,ft,ft_pct,fta,g,gs,lg_id,mp,orb,pf,pos,pts,season,stl,team_id,tov,trb
22.0,6.0,0.0,4.0,0.143,1.0,1.0,0.2,5.0,0.0,0.0,2.0,0.143,7.0,0.0,0.0,0.0,10.0,0.0,NBA,24.0,0.0,3.0,PG,2.0,1996,2.0,SEA,4.0,4.0
23.0,12.0,0.0,2.0,0.545,5.0,3.0,0.429,7.0,2.0,0.5,4.0,0.455,11.0,1.0,0.5,2.0,8.0,0.0,NBA,48.0,0.0,7.0,PG,13.0,1997,4.0,SEA,0.0,2.0
25.0,57.0,1.0,30.0,0.438,37.0,34.0,0.453,75.0,3.0,0.231,13.0,0.42,88.0,22.0,0.815,27.0,8.0,8.0,NBA,306.0,3.0,26.0,PG,99.0,1999,8.0,PHI,25.0,33.0
26.0,35.0,1.0,10.0,0.532,15.0,12.0,0.444,27.0,3.0,0.75,4.0,0.484,31.0,4.0,1.0,4.0,5.0,4.0,NBA,138.0,0.0,14.0,PG,37.0,2000,4.0,PHI,7.0,10.0
27.0,104.0,2.0,60.0,0.414,87.0,87.0,0.429,203.0,0.0,0.0,7.0,0.414,210.0,40.0,0.727,55.0,23.0,9.0,NBA,717.0,26.0,63.0,PG,214.0,2001,27.0,PHI,45.0,86.0
28.0,27.0,0.0,19.0,0.33,18.0,17.0,0.34,50.0,1.0,0.167,6.0,0.321,56.0,17.0,0.773,22.0,5.0,5.0,NBA,171.0,3.0,13.0,PG,54.0,2002,6.0,PHI,15.0,22.0
29.0,67.0,0.0,31.0,0.426,43.0,42.0,0.457,92.0,1.0,0.1,10.0,0.422,102.0,51.0,0.879,58.0,12.0,12.0,NBA,415.0,9.0,47.0,PG,138.0,2003,18.0,PHI,30.0,40.0
32.0,36.0,3.0,33.0,0.421,32.0,32.0,0.427,75.0,0.0,0.0,1.0,0.421,76.0,22.0,0.759,29.0,13.0,13.0,NBA,408.0,10.0,36.0,PG,86.0,2006,11.0,CLE,21.0,43.0
33.0,29.0,2.0,21.0,0.316,12.0,12.0,0.343,35.0,0.0,0.0,3.0,0.316,38.0,8.0,0.571,14.0,19.0,0.0,NBA,244.0,7.0,22.0,PG,32.0,2007,11.0,CLE,8.0,28.0
