age,ast_per_poss,blk_per_poss,def_rtg,drb_per_poss,fg2_pct,fg2_per_poss,fg2a_per_poss,fg3_pct,fg3_per_poss,fg3a_per_poss,fg_pct,fg_per_poss,fga_per_poss,ft_pct,ft_per_poss,fta_per_poss,g,gs,lg_id,mp,off_rtg,orb_per_poss,pf_per_poss,pos,pts_per_poss,season,stl_per_poss,team_id,tov_per_poss,trb_per_poss
22.0,13.6,0.0,97.0,9.1,0.2,2.3,11.3,0.0,0.0,4.5,0.143,2.3,15.9,0.0,0.0,0.0,10.0,0.0,NBA,24.0,47.0,0.0,6.8,PG,4.5,1996,4.5,SEA,9.1,9.1
23.0,13.2,0.0,108.0,2.2,0.429,3.3,7.7,0.5,2.2,4.4,0.455,5.5,12.1,0.5,1.1,2.2,8.0,0.0,NBA,48.0,146.0,0.0,7.7,PG,14.3,1997,4.4,SEA,0.0,2.2
25.0,10.4,0.2,107.0,5.5,0.453,6.2,13.7,0.231,0.5,2.4,0.42,6.8,16.1,0.815,4.0,4.9,8.0,8.0,NBA,306.0,101.0,0.5,4.7,PG,18.1,1999,1.5,PHI,4.6,6.0
26.0,13.9,0.4,111.0,4.0,0.444,4.8,10.7,0.75,1.2,1.6,0.484,6.0,12.3,1.0,1.6,1.6,5.0,4.0,NBA,138.0,120.0,0.0,5.6,PG,14.7,2000,1.6,PHI,2.8,4.0
27.0,8.0,0.2,108.0,4.6,0.429,6.7,15.6,0.0,0.0,0.5,0.414,6.7,16.2,0.727,3.1,4.2,23.0,9.0,NBA,717.0,98.0,2.0,4.8,PG,16.5,2001,2.1,PHI,3.5,6.6
28.0,8.7,0.0,114.0,6.1,0.34,5.5,16.1,0.167,0.3,1.9,0.321,5.8,18.0,0.773,5.5,7.1,5.0,5.0,NBA,171.0,86.0,1.0,4.2,PG,17.4,2002,1.9,PHI,4.8,7.1
29.0,9.1,0.0,106.0,4.2,0.457,5.7,12.4,0.1,0.1,1.4,0.422,5.8,13.8,0.879,6.9,7.8,12.0,12.0,NBA,415.0,109.0,1.2,6.4,PG,18.7,2003,2.4,PHI,4.1,5.4
32.0,4.9,0.4,110.0,4.5,0.427,4.4,10.3,0.0,0.0,0.1,0.421,4.4,10.4,0.759,3.0,4.0,13.0,13.0,NBA,408.0,98.0,1.4,4.9,PG,11.8,2006,1.5,CLE,2.9,5.9
33.0,6.7,0.5,100.0,4.8,0.343,2.8,8.0,0.0,0.0,0.7,0.316,2.8,8.7,0.571,1.8,3.2,19.0,0.0,NBA,244.0,91.0,1.6,5.0,PG,7.3,2007,2.5,CLE,1.8,6.4
