age,ast,blk,drb,fg,fg2,fg2a,fg3,fg3a,fga,ft,fta,game_score,lg_id,mp,orb,pf,pts,season,stl,team_id,tov,trb
22.0,13.0,0.0,4.0,4.0,4.0,7.0,1.0,1.0,7.0,3.0,4.0,10.4,NBA,0.0,1.0,5.0,9.0,1996,3.0,SEA,4.0,5.0
23.0,13.0,1.0,5.0,5.0,5.0,7.0,1.0,1.0,8.0,6.0,8.0,14.8,NBA,0.0,2.0,4.0,11.0,1997,3.0,SEA,3.0,6.0
24.0,10.0,3.0,6.0,4.0,4.0,7.0,1.0,2.0,8.0,4.0,4.0,14.5,NBA,0.0,3.0,5.0,9.0,1998,4.0,TOT,3.0,6.0
24.0,4.0,1.0,1.0,2.0,2.0,3.0,0.0,1.0,3.0,2.0,3.0,4.7,NBA,0.0,0.0,4.0,4.0,1998,0.0,SEA,2.0,1.0
24.0,10.0,3.0,6.0,4.0,4.0,7.0,1.0,2.0,8.0,4.0,4.0,14.5,NBA,0.0,3.0,5.0,9.0,1998,4.0,PHI,3.0,6.0
25.0,12.0,1.0,7.0,9.0,8.0,16.0,1.0,3.0,18.0,7.0,10.0,20.6,NBA,0.0,3.0,6.0,20.0,1999,6.0,PHI,5.0,8.0
26.0,15.0,1.0,7.0,9.0,9.0,16.0,2.0,3.0,19.0,7.0,9.0,21.1,NBA,0.0,3.0,6.0,21.0,2000,5.0,PHI,5.0,8.0
27.0,13.0,2.0,8.0,9.0,9.0,16.0,1.0,2.0,17.0,10.0,11.0,20.6,NBA,0.0,3.0,6.0,25.0,2001,4.0,PHI,7.0,8.0
28.0,14.0,1.0,10.0,10.0,10.0,19.0,1.0,3.0,20.0,9.0,9.0,23.5,NBA,0.0,3.0,6.0,26.0,2002,4.0,PHI,5.0,11.0
29.0,15.0,4.0,10.0,8.0,8.0,15.0,1.0,2.0,16.0,17.0,19.0,24.7,NBA,0.0,5.0,6.0,25.0,2003,5.0,PHI,6.0,10.0
30.0,14.0,1.0,6.0,8.0,8.0,16.0,1.0,2.0,16.0,11.0,13.0,23.4,NBA,0.0,3.0,6.0,22.0,2004,4.0,PHI,6.0,8.0
31.0,13.0,2.0,7.0,7.0,5.0,14.0,2.0,4.0,16.0,7.0,8.0,17.1,NBA,0.0,3.0,5.0,16.0,2005,4.0,CLE,4.0,8.0
32.0,11.0,3.0,8.0,7.0,7.0,11.0,1.0,2.0,12.0,7.0,8.0,17.1,NBA,47.0,4.0,6.0,14.0,2006,4.0,CLE,5.0,8.0
33.0,11.0,3.0,8.0,7.0,7.0,14.0,0.0,1.0,14.0,9.0,10.0,16.0,NBA,42.0,4.0,5.0,18.0,2007,4.0,CLE,5.0,8.0
34.0,6.0,1.0,3.0,1.0,1.0,6.0,0.0,2.0,6.0,3.0,6.0,5.5,NBA,33.0,3.0,4.0,5.0,2008,5.0,CLE,2.0,6.0
