age,ast_per_poss,blk_per_poss,def_rtg,drb_per_poss,fg2_pct,fg2_per_poss,fg2a_per_poss,fg3_pct,fg3_per_poss,fg3a_per_poss,fg_pct,fg_per_poss,fga_per_poss,ft_pct,ft_per_poss,fta_per_poss,g,gs,lg_id,mp,off_rtg,orb_per_poss,pf_per_poss,pos,pts_per_poss,season,stl_per_poss,team_id,tov_per_poss,trb_per_poss
20.0,1.7,0.6,108.0,6.5,0.482,5.9,12.2,0.365,2.1,5.8,0.444,8.0,17.9,0.857,3.3,3.9,12.0,12.0,NBA,461.0,111.0,2.0,3.7,SF,21.4,2013,0.8,GSW,1.8,8.5
21.0,2.5,1.0,117.0,6.7,0.407,3.5,8.6,0.381,2.5,6.7,0.396,6.1,15.3,0.563,2.9,5.1,7.0,0.0,NBA,156.0,107.0,2.2,4.1,SF,17.5,2014,0.3,GSW,1.6,8.9
22.0,2.4,0.8,104.0,4.9,0.478,5.0,10.4,0.355,1.7,4.7,0.44,6.6,15.1,0.735,1.9,2.6,21.0,21.0,NBA,681.0,109.0,3.4,3.4,SF,16.8,2015,1.3,GSW,1.7,8.3
23.0,2.0,0.3,109.0,5.7,0.409,3.7,9.1,0.342,1.7,5.1,0.385,5.5,14.2,0.765,1.7,2.3,24.0,23.0,NBA,743.0,101.0,1.8,3.1,SF,14.4,2016,1.1,GSW,1.2,7.5
