age,ast_per_poss,blk_per_poss,def_rtg,drb_per_poss,fg2_pct,fg2_per_poss,fg2a_per_poss,fg3_pct,fg3_per_poss,fg3a_per_poss,fg_pct,fg_per_poss,fga_per_poss,ft_pct,ft_per_poss,fta_per_poss,g,gs,lg_id,mp,off_rtg,orb_per_poss,pf_per_poss,pos,pts_per_poss,season,stl_per_poss,team_id,tov_per_poss,trb_per_poss
20.0,2.4,0.3,107.0,6.9,0.464,5.5,11.9,0.359,1.3,3.6,0.439,6.8,15.5,0.758,3.6,4.7,81.0,81.0,NBA,2058.0,102.0,1.3,3.5,SF,18.5,2013,1.3,GSW,2.5,8.2
21.0,2.6,0.5,105.0,5.5,0.419,4.6,11.1,0.347,1.5,4.3,0.399,6.1,15.4,0.718,2.9,4.1,78.0,24.0,NBA,2204.0,100.0,1.5,3.6,SF,16.7,2014,1.5,GSW,1.9,7.0
22.0,2.4,0.4,104.0,7.1,0.519,4.8,9.3,0.405,1.8,4.5,0.482,6.7,13.8,0.72,2.3,3.2,82.0,82.0,NBA,2318.0,116.0,2.5,3.1,SF,17.4,2015,1.3,GSW,1.5,9.5
23.0,2.8,0.2,107.0,5.9,0.508,5.0,9.9,0.383,1.9,5.1,0.466,7.0,15.0,0.761,2.4,3.2,66.0,59.0,NBA,2042.0,114.0,1.8,3.2,SF,18.3,2016,1.0,GSW,1.3,7.7
24.0,2.2,0.3,111.0,5.6,0.492,9.7,19.6,0.351,1.4,4.1,0.468,11.1,23.8,0.861,4.5,5.2,79.0,79.0,NBA,2803.0,106.0,1.7,2.4,PF,28.2,2017,1.2,DAL,1.9,7.3
25.0,2.9,0.3,111.0,7.5,0.478,8.0,16.7,0.357,2.3,6.3,0.445,10.2,23.0,0.827,4.9,6.0,77.0,77.0,NBA,2634.0,105.0,1.5,1.8,PF,27.7,2018,0.9,DAL,2.2,8.9
26.0,2.2,0.2,114.0,5.7,0.439,4.8,11.0,0.395,3.3,8.3,0.42,8.1,19.4,0.824,4.3,5.2,77.0,77.0,NBA,2533.0,108.0,1.1,2.3,PF-SF,23.8,2019,0.9,TOT,1.8,6.8
26.0,1.9,0.3,113.0,5.2,0.416,5.2,12.4,0.389,3.7,9.5,0.404,8.9,22.0,0.833,5.1,6.1,49.0,49.0,NBA,1584.0,106.0,1.1,2.4,PF,26.5,2019,1.0,DAL,2.1,6.3
26.0,2.6,0.1,114.0,6.5,0.489,4.3,8.8,0.408,2.6,6.4,0.455,6.9,15.2,0.8,3.1,3.9,28.0,28.0,NBA,949.0,115.0,1.0,2.1,SF,19.6,2019,0.8,SAC,1.5,7.6
27.0,2.0,0.4,113.0,5.7,0.556,6.3,11.3,0.364,2.1,5.9,0.49,8.4,17.2,0.783,3.2,4.1,8.0,8.0,NBA,268.0,119.0,2.0,2.0,SF,22.2,2020,1.8,SAC,1.3,7.7
