age,ast,blk,drb,efg_pct,fg,fg2,fg2_pct,fg2a,fg3,fg3_pct,fg3a,fg_pct,fga,ft,ft_pct,fta,g,gs,lg_id,mp,orb,pf,pos,pts,season,stl,team_id,tov,trb
22.0,20.0,2.0,11.0,0.493,28.0,15.0,0.395,38.0,13.0,0.406,32.0,0.4,70.0,13.0,0.684,19.0,21.0,0.0,NBA,184.0,4.0,26.0,PG,82.0,1997,8.0,POR,13.0,15.0
25.0,3.0,0.0,4.0,0.286,4.0,4.0,0.571,7.0,0.0,0.0,7.0,0.286,14.0,2.0,1.0,2.0,6.0,0.0,NBA,45.0,3.0,8.0,SG,10.0,2000,0.0,DET,3.0,7.0
