article_url,date,headline
https://pippenainteasy.com/2019/08/16/chicago-bulls-players-awful-post-jordan-era-now/,2019/08/16,"Pippen Ain't Easy: Chicago Bulls players from the awful post-Jordan era, where are they now?"
https://allucanheat.com/2019/08/02/miami-heat-bombed-d-wades-interview/,2019/08/02,All U Can Heat: Miami Heat: That one time Gabrielle Union bombed D-Wade's interview
https://pippenainteasy.com/2019/06/16/chicago-bulls-are-the-kawhi-leonard-michael-jordan-comparisons-valid/,2019/06/16,Pippen Ain't Easy: Chicago Bulls: Are the Kawhi Leonard-Michael Jordan comparisons reasonable?
https://thejnotes.com/2019/06/14/utah-jazz-counting-top-15-draft-picks/,2019/06/14,Purple and Blues: Utah Jazz: Counting down the team's Top 15 all-time draft picks
https://sircharlesincharge.com/2019/06/14/kawhi-leonard-comparisons-michael-jordan/,2019/06/14,Sir Charles In Charge: Does Kawhi Leonard deserve comparisons to Michael Jordan?
