age,ast,ast_per_g,blk,college_id,fg,fg3,fg3_pct,fg3a,fg_pct,fga,ft,ft_pct,fta,g,mp,mp_per_g,orb,pf,pts,pts_per_g,season,stl,tov,trb,trb_per_g
20.0,41.0,1.5,8.0,LONGBEACH,83.0,9.0,0.321,28.0,0.43,193.0,45.0,0.652,69.0,28.0,552.0,19.7,0.0,87.0,220.0,7.9,1991,8.0,62.0,162.0,5.8
21.0,30.0,1.2,26.0,LONGBEACH,126.0,11.0,0.393,28.0,0.555,227.0,99.0,0.656,151.0,26.0,776.0,29.8,0.0,96.0,362.0,13.9,1992,55.0,57.0,192.0,7.4
22.0,66.0,2.1,14.0,LONGBEACH,153.0,11.0,0.324,34.0,0.537,285.0,104.0,0.727,143.0,32.0,1006.0,31.4,0.0,95.0,421.0,13.2,1993,54.0,65.0,213.0,6.7
