article_url,date,headline
https://nothinbutnets.com/2019/07/03/brooklyn-nets-breaking-nets-entry-las-vegas-summer-league/,2019/07/03,From Russia With Dunk: Brooklyn Nets: Breaking down Nets entry in Las Vegas Summer League
https://nothinbutnets.com/2019/07/03/brooklyn-nets-sean-marks-rebuilt-brooklyn-claimed-new-york/,2019/07/03,From Russia With Dunk: Brooklyn Nets: How Sean Marks rebuilt Brooklyn and claimed New York
https://nothinbutnets.com/2019/06/22/brooklyn-nets-summer-league-schedule-set-team-coming-together/,2019/06/22,"From Russia With Dunk: Brooklyn Nets: Summer League schedule set, team coming together"
https://nothinbutnets.com/2019/06/20/brooklyn-nets-add-rim-protector-project-nicolas-claxton-no-31-overall/,2019/06/20,From Russia With Dunk: Brooklyn Nets add rim protector in project Nicolas Claxton at No. 31 overall
https://nothinbutnets.com/2019/06/04/brooklyn-nets-3-bigs-available-31st-pick/,2019/06/04,From Russia With Dunk: Brooklyn Nets: 3 bigs that could be available with 31st pick
