age,ast_per_poss,blk_per_poss,def_rtg,drb_per_poss,fg2_pct,fg2_per_poss,fg2a_per_poss,fg3_pct,fg3_per_poss,fg3a_per_poss,fg_pct,fg_per_poss,fga_per_poss,ft_pct,ft_per_poss,fta_per_poss,g,gs,lg_id,mp,off_rtg,orb_per_poss,pf_per_poss,pos,pts_per_poss,season,stl_per_poss,team_id,tov_per_poss,trb_per_poss
23.0,3.2,0.2,112.0,7.8,0.538,5.2,9.7,0.324,2.3,7.1,0.447,7.5,16.8,0.696,1.7,2.4,44.0,2.0,NBA,474.0,106.0,0.9,3.6,SG,19.0,2018,1.3,NYK,1.8,8.8
24.0,3.2,0.2,116.0,5.5,0.461,3.9,8.6,0.368,3.0,8.2,0.415,7.0,16.8,0.745,1.8,2.4,73.0,40.0,NBA,2004.0,105.0,0.8,3.2,SG,18.7,2019,1.4,NYK,1.7,6.3
25.0,3.9,0.0,118.0,3.9,0.5,1.9,3.9,0.5,1.9,3.9,0.5,3.9,7.8,0.667,3.9,5.8,4.0,0.0,NBA,25.0,103.0,0.0,1.9,SG,13.6,2020,0.0,NYK,3.9,3.9
