age,ast_pct,blk_pct,bpm,bpm-dum,dbpm,drb_pct,dws,fg3a_per_fga_pct,fta_per_fga_pct,g,lg_id,mp,obpm,orb_pct,ows,per,pos,season,stl_pct,team_id,tov_pct,trb_pct,ts_pct,usg_pct,vorp,ws,ws-dum,ws_per_48
23.0,9.5,0.4,-3.1,0.0,-1.7,17.5,0.3,0.422,0.143,44.0,NBA,474.0,-1.4,2.1,0.3,11.6,SG,2018,1.3,NYK,9.0,9.8,0.532,17.3,-0.1,0.6,0.0,0.06
24.0,10.4,0.4,-2.3,0.0,-1.4,12.2,0.9,0.49,0.14,73.0,NBA,2004.0,-0.9,1.7,0.7,10.8,SG,2019,1.4,NYK,8.7,6.8,0.526,17.3,-0.2,1.5,0.0,0.037
25.0,11.8,0.0,-8.2,0.0,-4.4,9.0,0.0,0.5,0.75,4.0,NBA,25.0,-3.7,0.0,0.0,7.2,SG,2020,0.0,NYK,27.3,4.2,0.658,12.4,0.0,0.0,0.0,-0.001
