age,ast_per_poss,blk_per_poss,def_rtg,drb_per_poss,fg2_pct,fg2_per_poss,fg2a_per_poss,fg3_pct,fg3_per_poss,fg3a_per_poss,fg_pct,fg_per_poss,fga_per_poss,ft_pct,ft_per_poss,fta_per_poss,g,gs,lg_id,mp,off_rtg,orb_per_poss,pf_per_poss,pos,pts_per_poss,season,stl_per_poss,team_id,tov_per_poss,trb_per_poss
23.0,0.0,0.0,120.0,0.0,1.0,18.0,18.0,0.0,0.0,0.0,1.0,18.0,18.0,0.0,0.0,0.0,1.0,0.0,NBA,3.0,202.0,18.0,0.0,PF,36.0,1993,0.0,BOS,0.0,18.0
27.0,0.0,0.0,124.0,0.0,0.0,0.0,0.0,0.0,0.0,0.0,0.0,0.0,0.0,0.0,0.0,0.0,2.0,0.0,NBA,5.0,0.0,0.0,10.9,C,0.0,1997,0.0,WSB,0.0,0.0
