age,ast,ast_per_g,blk,college_id,fg,fg3,fg3_pct,fg3a,fg_pct,fga,ft,ft_pct,fta,g,mp,mp_per_g,orb,pf,pts,pts_per_g,season,stl,tov,trb,trb_per_g
18.0,43.0,1.4,10.0,STJOHNS,79.0,15.0,0.333,45.0,0.446,177.0,60.0,0.706,85.0,30.0,0.0,0.0,0.0,0.0,233.0,7.8,2008,37.0,56.0,173.0,5.8
19.0,101.0,3.0,14.0,STJOHNS,134.0,36.0,0.333,108.0,0.402,333.0,137.0,0.733,187.0,34.0,0.0,0.0,0.0,0.0,441.0,13.0,2009,52.0,73.0,226.0,6.6
20.0,102.0,3.1,22.0,STJOHNS,158.0,51.0,0.383,133.0,0.45,351.0,130.0,0.756,172.0,33.0,1037.0,31.4,58.0,57.0,497.0,15.1,2010,38.0,82.0,202.0,6.1
21.0,65.0,2.0,15.0,STJOHNS,104.0,20.0,0.364,55.0,0.456,228.0,105.0,0.778,135.0,32.0,919.0,28.7,44.0,68.0,333.0,10.4,2011,56.0,55.0,180.0,5.6
