age,and1s,astd_pts,drawn_offensive,drawn_shooting,fouls_offensive,fouls_shooting,g,lg_id,mp,own_shots_blk,pct_1,pct_2,pct_3,pct_4,pct_5,plus_minus_net,plus_minus_on,pos,season,team_id,tov_bad_pass,tov_lost_ball
24.0,0.0,14.0,0.0,4.0,3.0,7.0,10.0,NBA,93.0,1.0,11.0,78.0,12.0,0.0,0.0,-8.3,-9.8,SG,2003,TOT,1.0,3.0
24.0,0.0,4.0,0.0,1.0,2.0,1.0,7.0,NBA,22.0,1.0,44.0,46.0,10.0,0.0,0.0,11.9,17.9,SG,2003,SAS,0.0,2.0
24.0,0.0,10.0,0.0,3.0,1.0,6.0,3.0,NBA,71.0,0.0,0.0,87.0,13.0,0.0,0.0,-10.1,-19.4,SG,2003,DEN,1.0,1.0
25.0,4.0,71.0,0.0,24.0,4.0,34.0,58.0,NBA,627.0,18.0,15.0,76.0,9.0,0.0,0.0,-6.2,2.9,SG,2004,SAS,16.0,13.0
26.0,12.0,209.0,0.0,47.0,6.0,45.0,67.0,NBA,1238.0,30.0,0.0,60.0,38.0,2.0,0.0,-9.1,2.8,SG,2005,SAS,26.0,17.0
27.0,11.0,217.0,25.0,86.0,18.0,69.0,81.0,NBA,1711.0,38.0,0.0,79.0,21.0,0.0,0.0,-1.9,-4.3,SG,2006,UTA,35.0,31.0
28.0,14.0,326.0,13.0,73.0,12.0,75.0,58.0,NBA,1662.0,36.0,15.0,78.0,7.0,0.0,0.0,3.0,0.0,SG,2007,NOK,35.0,29.0
29.0,13.0,392.0,14.0,65.0,13.0,76.0,78.0,NBA,1762.0,39.0,1.0,70.0,29.0,0.0,0.0,0.3,0.0,SG,2008,CLE,37.0,27.0
30.0,11.0,129.0,4.0,51.0,8.0,33.0,63.0,NBA,869.0,30.0,25.0,74.0,1.0,0.0,0.0,-0.3,1.7,SG,2009,NOH,20.0,12.0
31.0,8.0,140.0,8.0,36.0,9.0,35.0,50.0,NBA,1060.0,23.0,0.0,98.0,2.0,0.0,0.0,1.8,-0.7,SG,2010,TOT,22.0,15.0
31.0,8.0,125.0,8.0,36.0,8.0,30.0,39.0,NBA,967.0,21.0,0.0,98.0,2.0,0.0,0.0,0.8,-2.4,SG,2010,NOH,21.0,14.0
31.0,0.0,15.0,0.0,0.0,1.0,5.0,11.0,NBA,93.0,2.0,0.0,94.0,6.0,0.0,0.0,18.0,16.0,SG,2010,CHI,1.0,1.0
