age,ast_pct,blk_pct,bpm,bpm-dum,dbpm,drb_pct,dws,fg3a_per_fga_pct,fta_per_fga_pct,g,lg_id,mp,obpm,orb_pct,ows,per,pos,season,stl_pct,team_id,tov_pct,trb_pct,ts_pct,usg_pct,vorp,ws,ws-dum,ws_per_48
24.0,13.5,0.9,-5.9,0.0,0.0,12.8,0.1,0.029,0.229,10.0,NBA,93.0,-5.9,10.0,-0.2,6.9,SG,2003,2.3,TOT,18.9,11.2,0.389,23.0,-0.1,-0.1,0.0,-0.043
24.0,18.0,0.0,-5.5,0.0,-2.4,15.1,0.0,0.0,0.2,7.0,NBA,22.0,-3.1,22.1,0.0,13.8,SG,2003,0.0,SAS,31.5,18.4,0.551,33.5,0.0,0.0,0.0,-0.023
24.0,12.1,1.1,-6.0,0.0,0.7,12.1,0.1,0.04,0.24,3.0,NBA,71.0,-6.7,6.3,-0.2,4.8,SG,2003,3.0,DEN,12.6,9.0,0.326,19.8,-0.1,-0.1,0.0,-0.05
25.0,9.0,0.5,-2.4,0.0,0.3,16.2,1.2,0.071,0.378,58.0,NBA,627.0,-2.7,6.9,0.5,13.1,SG,2004,1.3,SAS,14.3,11.6,0.512,19.7,-0.1,1.7,0.0,0.133
26.0,12.4,0.7,0.4,0.0,0.6,13.2,2.1,0.296,0.318,67.0,NBA,1238.0,-0.2,3.5,1.6,14.6,SG,2005,1.7,SAS,10.2,8.3,0.53,19.5,0.7,3.7,0.0,0.145
27.0,10.7,0.7,-3.7,0.0,-1.7,9.6,1.1,0.224,0.402,81.0,NBA,1711.0,-1.9,5.1,0.4,10.3,SG,2006,1.4,UTA,13.8,7.3,0.493,19.5,-0.7,1.4,0.0,0.041
28.0,14.8,0.4,1.0,0.0,-0.3,13.9,1.5,0.409,0.279,58.0,NBA,1662.0,1.3,3.7,2.1,14.3,SG,2007,1.4,NOK,12.7,8.7,0.538,19.6,1.2,3.5,0.0,0.102
29.0,16.1,0.3,-2.2,0.0,-0.4,13.2,1.7,0.275,0.267,78.0,NBA,1762.0,-1.8,4.1,0.6,11.3,SG,2008,1.6,CLE,14.3,8.5,0.494,17.8,-0.1,2.4,0.0,0.064
30.0,10.2,0.5,-5.0,0.0,-1.3,12.2,1.0,0.31,0.319,63.0,NBA,869.0,-3.8,4.3,-0.8,9.7,SG,2009,2.0,NOH,13.1,8.3,0.459,22.8,-0.7,0.1,0.0,0.007
31.0,9.1,0.4,-3.0,0.0,-1.4,10.6,0.6,0.454,0.238,50.0,NBA,1060.0,-1.6,3.2,-0.2,10.0,SG,2010,1.6,TOT,13.5,6.8,0.5,19.8,-0.3,0.4,0.0,0.017
31.0,9.0,0.4,-2.5,0.0,-1.5,10.1,0.5,0.452,0.265,39.0,NBA,967.0,-1.0,3.2,0.1,10.9,SG,2010,1.6,NOH,13.6,6.6,0.522,19.8,-0.1,0.6,0.0,0.031
31.0,10.9,0.8,-8.9,0.0,-0.9,15.3,0.1,0.472,0.0,11.0,NBA,93.0,-8.0,2.4,-0.4,0.4,SG,2010,1.7,CHI,12.2,9.0,0.278,19.8,-0.2,-0.3,0.0,-0.129
