age,avg_dist,fg2_dunk,fg2_pct,fg2_pct_ast,fg2a_pct_fga,fg3_heave,fg3_pct,fg3_pct_ast,fg3_pct_corner,fg3a_heave,fg3a_pct_fga,fg_pct,fg_pct_00_03,fg_pct_03_10,fg_pct_10_16,fg_pct_16_xx,g,lg_id,mp,pct_fg2_dunk,pct_fg3a_corner,pct_fga_00_03,pct_fga_03_10,pct_fga_10_16,pct_fga_16_xx,pos,season,team_id
24.0,11.8,0.0,0.353,0.583,0.971,0.0,0.0,0.0,0.0,0.0,0.029,0.343,0.6,0.0,0.333,0.294,10.0,NBA,93.0,0.0,1.0,0.286,0.114,0.086,0.486,SG,2003,TOT
24.0,8.8,0.0,0.5,0.4,1.0,0.0,0.0,0.0,0.0,0.0,0.0,0.5,0.75,0.0,0.5,0.333,7.0,NBA,22.0,0.0,0.0,0.4,0.1,0.2,0.3,SG,2003,SAS
24.0,12.9,0.0,0.292,0.714,0.96,0.0,0.0,0.0,0.0,0.0,0.04,0.28,0.5,0.0,0.0,0.286,3.0,NBA,71.0,0.0,1.0,0.24,0.12,0.04,0.56,SG,2003,DEN
25.0,12.2,3.0,0.445,0.593,0.929,0.0,0.286,1.0,0.364,1.0,0.071,0.434,0.568,0.412,0.5,0.361,58.0,NBA,627.0,0.026,0.786,0.224,0.173,0.163,0.367,SG,2004,SAS
26.0,13.8,16.0,0.444,0.703,0.704,0.0,0.372,0.933,0.386,1.0,0.296,0.423,0.604,0.388,0.345,0.323,67.0,NBA,1238.0,0.039,0.471,0.271,0.12,0.071,0.242,SG,2005,SAS
27.0,12.6,6.0,0.411,0.619,0.776,0.0,0.331,1.0,0.371,2.0,0.224,0.393,0.556,0.283,0.195,0.336,81.0,NBA,1711.0,0.013,0.297,0.338,0.101,0.078,0.26,SG,2006,UTA
28.0,14.3,13.0,0.463,0.421,0.591,0.0,0.357,0.914,0.413,3.0,0.409,0.42,0.541,0.455,0.353,0.348,58.0,NBA,1662.0,0.023,0.203,0.286,0.119,0.061,0.124,SG,2007,NOK
29.0,12.5,8.0,0.447,0.5,0.725,0.0,0.308,0.978,0.333,3.0,0.275,0.409,0.525,0.438,0.328,0.36,78.0,NBA,1762.0,0.017,0.39,0.337,0.137,0.109,0.141,SG,2008,CLE
30.0,12.1,4.0,0.384,0.41,0.69,0.0,0.289,0.964,0.318,0.0,0.31,0.355,0.473,0.417,0.185,0.244,63.0,NBA,869.0,0.013,0.227,0.358,0.115,0.086,0.131,SG,2009,NOH
31.0,15.3,5.0,0.396,0.551,0.546,0.0,0.354,0.862,0.385,0.0,0.454,0.377,0.554,0.276,0.105,0.25,50.0,NBA,1060.0,0.014,0.159,0.28,0.08,0.053,0.133,SG,2010,TOT
31.0,15.1,5.0,0.416,0.554,0.548,0.0,0.367,0.87,0.455,0.0,0.452,0.394,0.559,0.276,0.133,0.293,39.0,NBA,967.0,0.015,0.15,0.286,0.089,0.046,0.126,SG,2010,NOH
31.0,17.2,0.0,0.211,0.5,0.528,0.0,0.235,0.75,0.0,0.0,0.472,0.222,0.5,0.0,0.0,0.0,11.0,NBA,93.0,0.0,0.235,0.222,0.0,0.111,0.194,SG,2010,CHI
