article_url,date,headline
https://dailyknicks.com/2019/08/15/new-york-knicks-revisiting-draft-night-trade-acquire-nate-robinson/,2019/08/15,Daily Knicks: New York Knicks: Revisiting the draft-night trade to acquire Nate Robinson
https://dailyknicks.com/2019/05/20/new-york-knicks-ranking-isiah-thomas-nba-draft-picks/,2019/05/20,Daily Knicks: New York Knicks: Ranking Isiah Thomas' NBA draft picks as president
