lg_id,salary,season,team_name
NBA,1645440.0,2011,Portland Trail Blazers
NBA,1768800.0,2012,Portland Trail Blazers
NBA,1892280.0,2013,Portland Trail Blazers
NBA,981084.0,2015,New Orleans Pelicans
NBA,1100000.0,2016,New Orleans Pelicans
NBA,1227000.0,2017,Miami Heat
NBA,1974159.0,2018,Miami Heat
