age,and1s,astd_pts,drawn_offensive,drawn_shooting,fouls_offensive,fouls_shooting,g,lg_id,mp,own_shots_blk,pct_1,pct_2,pct_3,pct_4,pct_5,plus_minus_net,plus_minus_on,pos,season,team_id,tov_bad_pass,tov_lost_ball
26.0,46.0,900.0,0.0,250.0,32.0,46.0,80.0,NBA,3215.0,103.0,0.0,50.0,49.0,0.0,0.0,2.6,-1.3,SG,2001,DET,131.0,127.0
27.0,32.0,932.0,0.0,184.0,35.0,61.0,76.0,NBA,2685.0,74.0,0.0,15.0,84.0,1.0,0.0,-2.1,2.1,SF,2002,DET,117.0,91.0
28.0,25.0,673.0,0.0,158.0,26.0,45.0,70.0,NBA,2747.0,65.0,1.0,90.0,9.0,0.0,0.0,1.3,-0.7,SG,2003,WAS,86.0,71.0
29.0,8.0,237.0,0.0,37.0,5.0,20.0,26.0,NBA,774.0,22.0,0.0,6.0,93.0,1.0,0.0,-5.1,-10.1,SF,2004,WAS,55.0,28.0
30.0,18.0,296.0,0.0,94.0,18.0,38.0,56.0,NBA,1617.0,49.0,1.0,71.0,27.0,1.0,0.0,-3.9,3.9,SG,2005,DAL,50.0,30.0
31.0,11.0,367.0,9.0,76.0,18.0,26.0,55.0,NBA,1525.0,33.0,0.0,46.0,50.0,3.0,0.0,-5.2,3.4,SG,2006,DAL,59.0,38.0
32.0,15.0,438.0,9.0,75.0,13.0,29.0,67.0,NBA,1615.0,39.0,0.0,49.0,49.0,2.0,0.0,-2.0,7.0,SF,2007,DAL,53.0,37.0
33.0,7.0,329.0,6.0,50.0,8.0,37.0,58.0,NBA,1412.0,25.0,0.0,66.0,33.0,1.0,0.0,-5.0,2.0,SG,2008,DAL,47.0,26.0
34.0,1.0,28.0,0.0,4.0,0.0,3.0,10.0,NBA,162.0,3.0,0.0,67.0,33.0,0.0,0.0,-27.8,-24.2,SG,2009,DAL,5.0,3.0
35.0,1.0,159.0,8.0,30.0,10.0,21.0,42.0,NBA,855.0,12.0,0.0,70.0,30.0,0.0,0.0,1.5,3.1,SG,2010,MIL,32.0,13.0
36.0,1.0,7.0,0.0,4.0,0.0,2.0,7.0,NBA,50.0,2.0,0.0,47.0,53.0,0.0,0.0,-10.9,-2.1,SG,2011,MIA,0.0,2.0
37.0,0.0,33.0,0.0,3.0,0.0,7.0,30.0,NBA,273.0,8.0,1.0,43.0,56.0,1.0,0.0,-2.8,1.3,SF,2012,ATL,6.0,6.0
38.0,1.0,85.0,2.0,5.0,2.0,15.0,37.0,NBA,544.0,4.0,0.0,7.0,89.0,4.0,0.0,-3.5,-1.0,SF,2013,BRK,11.0,9.0
