age,avg_dist,fg2_dunk,fg2_pct,fg2_pct_ast,fg2a_pct_fga,fg3_heave,fg3_pct,fg3_pct_ast,fg3_pct_corner,fg3a_heave,fg3a_pct_fga,fg_pct,fg_pct_00_03,fg_pct_03_10,fg_pct_10_16,fg_pct_16_xx,g,lg_id,mp,pct_fg2_dunk,pct_fg3a_corner,pct_fga_00_03,pct_fga_03_10,pct_fga_10_16,pct_fga_16_xx,pos,season,team_id
26.0,14.5,45.0,0.418,0.431,0.755,0.0,0.351,0.777,0.338,0.0,0.245,0.402,0.592,0.234,0.348,0.355,80.0,NBA,3215.0,0.025,0.288,0.231,0.049,0.179,0.295,SG,2001,DET
27.0,13.9,64.0,0.43,0.443,0.773,0.0,0.287,0.756,0.367,1.0,0.227,0.397,0.565,0.333,0.335,0.391,76.0,NBA,2685.0,0.055,0.363,0.249,0.05,0.19,0.283,SF,2002,DET
28.0,13.9,42.0,0.439,0.474,0.796,0.0,0.29,0.845,0.272,0.0,0.204,0.409,0.637,0.347,0.371,0.388,70.0,NBA,2747.0,0.036,0.376,0.197,0.12,0.204,0.275,SG,2003,WAS
29.0,13.8,9.0,0.41,0.476,0.798,0.0,0.354,0.913,0.5,0.0,0.202,0.399,0.641,0.278,0.38,0.318,26.0,NBA,774.0,0.028,0.277,0.199,0.112,0.221,0.265,SF,2004,WAS
30.0,12.9,30.0,0.446,0.426,0.819,0.0,0.267,0.906,0.34,3.0,0.181,0.414,0.539,0.426,0.39,0.399,56.0,NBA,1617.0,0.047,0.417,0.272,0.092,0.178,0.276,SG,2005,DAL
31.0,14.2,17.0,0.436,0.383,0.784,0.0,0.277,1.0,0.323,1.0,0.216,0.401,0.53,0.407,0.383,0.42,55.0,NBA,1525.0,0.032,0.477,0.194,0.09,0.221,0.28,SG,2006,DAL
32.0,15.1,17.0,0.443,0.427,0.752,0.0,0.383,0.984,0.375,1.0,0.248,0.428,0.595,0.347,0.331,0.463,67.0,NBA,1615.0,0.026,0.494,0.17,0.075,0.217,0.291,SF,2007,DAL
33.0,15.2,21.0,0.447,0.549,0.65,0.0,0.326,0.85,0.36,2.0,0.35,0.405,0.608,0.35,0.307,0.404,58.0,NBA,1412.0,0.042,0.467,0.228,0.038,0.167,0.217,SG,2008,DAL
34.0,14.8,2.0,0.317,0.462,0.683,0.0,0.158,1.0,0.125,0.0,0.317,0.267,0.5,0.0,0.3,0.2,10.0,NBA,162.0,0.033,0.421,0.233,0.033,0.167,0.25,SG,2009,DAL
35.0,17.4,4.0,0.452,0.655,0.589,0.0,0.346,0.978,0.391,1.0,0.411,0.408,0.488,0.375,0.483,0.423,42.0,NBA,855.0,0.016,0.492,0.13,0.051,0.184,0.225,SG,2010,MIL
36.0,18.1,0.0,0.25,0.0,0.667,0.0,0.25,1.0,0.5,1.0,0.333,0.25,1.0,0.0,0.25,0.0,7.0,NBA,50.0,0.0,0.5,0.083,0.083,0.333,0.167,SG,2011,MIA
37.0,16.3,4.0,0.387,0.708,0.62,0.0,0.342,0.923,0.296,0.0,0.38,0.37,0.444,0.667,0.231,0.36,30.0,NBA,273.0,0.04,0.711,0.18,0.06,0.13,0.25,SF,2012,ATL
38.0,18.9,2.0,0.434,0.5,0.483,0.0,0.337,0.967,0.39,0.0,0.517,0.384,0.6,0.364,0.516,0.323,37.0,NBA,544.0,0.012,0.663,0.058,0.064,0.18,0.18,SF,2013,BRK
