age,ast,blk,drb,fg,fg2,fg2a,fg3,fg3a,fga,ft,fta,game_score,lg_id,mp,orb,pf,pts,season,stl,team_id,tov,trb
21.0,10.0,5.0,11.0,13.0,11.0,20.0,5.0,9.0,27.0,18.0,19.0,26.8,NBA,0.0,6.0,5.0,34.0,1996,3.0,PHI,8.0,15.0
22.0,9.0,5.0,6.0,14.0,11.0,20.0,5.0,12.0,24.0,15.0,20.0,26.5,NBA,0.0,6.0,6.0,39.0,1997,3.0,PHI,9.0,10.0
23.0,8.0,3.0,6.0,13.0,13.0,20.0,3.0,7.0,22.0,13.0,14.0,26.3,NBA,0.0,6.0,6.0,35.0,1998,4.0,TOT,8.0,8.0
23.0,6.0,3.0,5.0,12.0,10.0,17.0,2.0,4.0,20.0,10.0,11.0,24.5,NBA,0.0,5.0,6.0,32.0,1998,4.0,PHI,8.0,7.0
23.0,8.0,3.0,6.0,13.0,13.0,20.0,3.0,7.0,22.0,13.0,14.0,26.3,NBA,0.0,6.0,6.0,35.0,1998,4.0,DET,7.0,8.0
24.0,10.0,2.0,5.0,9.0,8.0,18.0,3.0,7.0,23.0,15.0,17.0,26.3,NBA,0.0,3.0,5.0,34.0,1999,4.0,DET,6.0,7.0
25.0,11.0,3.0,8.0,14.0,13.0,25.0,6.0,10.0,31.0,17.0,21.0,32.9,NBA,0.0,5.0,6.0,40.0,2000,7.0,DET,9.0,9.0
26.0,11.0,4.0,8.0,21.0,17.0,32.0,6.0,13.0,36.0,18.0,20.0,40.3,NBA,0.0,4.0,6.0,57.0,2001,5.0,DET,11.0,12.0
27.0,13.0,2.0,7.0,17.0,16.0,27.0,4.0,11.0,30.0,15.0,17.0,29.6,NBA,0.0,5.0,5.0,40.0,2002,4.0,DET,10.0,9.0
28.0,10.0,2.0,9.0,15.0,11.0,22.0,5.0,8.0,25.0,15.0,17.0,32.3,NBA,0.0,4.0,6.0,38.0,2003,5.0,WAS,6.0,10.0
29.0,11.0,1.0,8.0,11.0,9.0,22.0,3.0,5.0,26.0,8.0,11.0,24.8,NBA,0.0,2.0,4.0,29.0,2004,5.0,WAS,6.0,8.0
30.0,7.0,2.0,8.0,11.0,10.0,19.0,4.0,7.0,21.0,11.0,14.0,25.4,NBA,0.0,5.0,5.0,29.0,2005,5.0,DAL,7.0,12.0
31.0,8.0,2.0,6.0,11.0,10.0,16.0,3.0,6.0,18.0,12.0,12.0,22.7,NBA,41.0,4.0,6.0,29.0,2006,3.0,DAL,5.0,7.0
32.0,9.0,1.0,4.0,12.0,10.0,16.0,5.0,8.0,20.0,11.0,12.0,22.0,NBA,43.0,4.0,3.0,33.0,2007,3.0,DAL,5.0,6.0
33.0,6.0,2.0,5.0,9.0,7.0,11.0,3.0,7.0,15.0,11.0,11.0,20.7,NBA,37.0,4.0,5.0,23.0,2008,2.0,DAL,3.0,8.0
34.0,3.0,1.0,3.0,5.0,5.0,8.0,3.0,5.0,12.0,4.0,4.0,10.9,NBA,24.0,3.0,1.0,17.0,2009,2.0,DAL,2.0,4.0
35.0,5.0,2.0,5.0,7.0,7.0,12.0,4.0,7.0,14.0,8.0,8.0,14.3,NBA,32.0,4.0,4.0,20.0,2010,3.0,MIL,5.0,6.0
36.0,1.0,1.0,3.0,2.0,1.0,2.0,1.0,2.0,4.0,2.0,2.0,3.9,NBA,20.0,1.0,2.0,5.0,2011,0.0,MIA,1.0,3.0
37.0,5.0,1.0,2.0,4.0,3.0,7.0,2.0,4.0,8.0,4.0,4.0,8.7,NBA,24.0,2.0,2.0,11.0,2012,2.0,ATL,3.0,2.0
38.0,4.0,1.0,4.0,5.0,5.0,7.0,5.0,7.0,11.0,4.0,4.0,17.4,NBA,30.0,1.0,3.0,17.0,2013,3.0,BRK,3.0,4.0
