age,ast_per_poss,blk_per_poss,def_rtg,drb_per_poss,fg2_pct,fg2_per_poss,fg2a_per_poss,fg3_pct,fg3_per_poss,fg3a_per_poss,fg_pct,fg_per_poss,fga_per_poss,ft_pct,ft_per_poss,fta_per_poss,g,gs,lg_id,mp,off_rtg,orb_per_poss,pf_per_poss,pos,pts_per_poss,season,stl_per_poss,team_id,tov_per_poss,trb_per_poss
21.0,5.4,1.5,115.0,3.4,0.449,6.9,15.4,0.318,1.8,5.6,0.414,8.7,21.0,0.747,7.5,10.0,72.0,71.0,NBA,2701.0,101.0,1.7,3.4,SG,26.7,1996,1.5,PHI,4.9,5.1
22.0,4.0,1.0,115.0,2.9,0.446,6.9,15.4,0.298,1.6,5.4,0.407,8.5,20.8,0.766,8.1,10.6,81.0,81.0,NBA,3166.0,102.0,2.5,3.5,SG,26.7,1997,1.5,PHI,5.0,5.4
23.0,5.1,1.3,106.0,3.4,0.483,8.0,16.6,0.241,1.0,4.1,0.435,9.0,20.7,0.787,7.5,9.6,79.0,37.0,NBA,2545.0,103.0,2.2,3.7,SG-SF,26.5,1998,1.9,TOT,4.8,5.6
23.0,4.8,1.5,107.0,3.4,0.473,7.9,16.8,0.348,1.1,3.3,0.452,9.1,20.1,0.802,5.7,7.2,22.0,22.0,NBA,748.0,99.0,2.0,4.0,SF,25.0,1998,2.2,PHI,5.3,5.4
23.0,5.3,1.2,106.0,3.4,0.488,8.0,16.4,0.208,0.9,4.5,0.428,9.0,21.0,0.782,8.3,10.6,57.0,15.0,NBA,1797.0,104.0,2.3,3.6,SG,27.1,1998,1.8,DET,4.5,5.8
24.0,5.5,0.9,104.0,3.8,0.403,6.8,16.9,0.278,1.6,5.9,0.371,8.5,22.8,0.85,9.8,11.6,42.0,9.0,NBA,1188.0,98.0,1.2,3.7,SG,28.4,1999,1.6,DET,5.7,5.0
25.0,5.8,0.6,108.0,3.1,0.462,8.5,18.5,0.288,1.3,4.6,0.428,9.9,23.1,0.815,9.9,12.1,82.0,82.0,NBA,3148.0,106.0,1.9,3.0,SG,30.9,2000,1.6,DET,5.0,5.0
26.0,6.5,0.9,105.0,3.4,0.418,9.6,22.9,0.351,2.6,7.5,0.402,12.2,30.4,0.822,10.5,12.8,80.0,80.0,NBA,3215.0,104.0,1.6,2.5,SG,37.5,2001,1.5,DET,5.1,5.0
27.0,8.0,0.7,105.0,4.7,0.43,8.7,20.2,0.287,1.7,6.0,0.397,10.4,26.2,0.858,9.8,11.5,76.0,76.0,NBA,2685.0,102.0,1.5,3.2,SF,32.4,2002,1.5,DET,5.3,6.3
28.0,6.3,0.6,108.0,3.9,0.439,8.3,18.9,0.29,1.4,4.9,0.409,9.7,23.8,0.878,9.0,10.3,70.0,70.0,NBA,2747.0,106.0,1.2,2.6,SG,29.9,2003,1.3,WAS,3.8,5.1
29.0,6.9,0.2,107.0,5.2,0.41,7.1,17.2,0.354,1.5,4.4,0.399,8.6,21.6,0.806,5.6,6.9,26.0,17.0,NBA,774.0,93.0,1.1,3.3,SF,24.3,2004,1.6,WAS,5.9,6.3
30.0,4.1,0.3,107.0,4.6,0.446,7.7,17.4,0.267,1.0,3.8,0.414,8.8,21.2,0.849,8.1,9.5,56.0,7.0,NBA,1617.0,106.0,1.2,3.3,SG,26.7,2005,1.7,DAL,3.4,5.9
31.0,5.7,0.4,108.0,4.3,0.436,7.4,17.0,0.277,1.3,4.7,0.401,8.7,21.6,0.882,7.0,7.9,55.0,11.0,NBA,1525.0,103.0,1.1,3.4,SG,25.6,2006,1.3,DAL,4.3,5.5
32.0,6.2,0.3,106.0,3.5,0.443,7.2,16.3,0.383,2.1,5.4,0.428,9.3,21.7,0.847,6.0,7.1,67.0,8.0,NBA,1615.0,108.0,1.3,2.6,SF,26.7,2007,1.7,DAL,3.9,4.8
33.0,5.5,0.4,110.0,3.8,0.447,5.8,12.9,0.326,2.3,6.9,0.405,8.0,19.8,0.892,5.0,5.6,58.0,13.0,NBA,1412.0,105.0,1.2,3.1,SG,23.3,2008,1.1,DAL,3.2,5.0
34.0,3.9,0.3,112.0,3.9,0.317,4.2,13.3,0.158,1.0,6.2,0.267,5.2,19.4,1.0,2.3,2.3,10.0,1.0,NBA,162.0,75.0,1.6,1.9,SG,13.6,2009,1.3,DAL,2.9,5.5
35.0,4.3,0.6,105.0,5.0,0.452,5.1,11.4,0.346,2.8,8.0,0.408,7.9,19.3,0.797,3.4,4.2,42.0,0.0,NBA,855.0,97.0,1.2,3.4,SG,21.9,2010,1.3,MIL,4.0,6.1
36.0,3.2,2.1,106.0,6.3,0.25,2.1,8.4,0.25,1.1,4.2,0.25,3.2,12.7,0.714,5.3,7.4,7.0,1.0,NBA,50.0,88.0,1.1,3.2,SG,12.7,2011,0.0,MIA,2.1,7.4
37.0,2.7,0.6,104.0,3.3,0.387,4.7,12.1,0.342,2.5,7.4,0.37,7.2,19.5,0.913,4.1,4.5,30.0,0.0,NBA,273.0,97.0,1.2,2.3,SF,21.0,2012,1.9,ATL,2.5,4.5
38.0,3.5,0.4,112.0,2.8,0.434,3.6,8.3,0.337,3.0,8.8,0.384,6.6,17.1,0.87,2.0,2.3,37.0,0.0,NBA,544.0,102.0,0.5,3.1,SF,18.1,2013,0.7,BRK,2.4,3.3
