age,ast_per_poss,blk_per_poss,def_rtg,drb_per_poss,fg2_pct,fg2_per_poss,fg2a_per_poss,fg3_pct,fg3_per_poss,fg3a_per_poss,fg_pct,fg_per_poss,fga_per_poss,ft_pct,ft_per_poss,fta_per_poss,g,gs,lg_id,mp,off_rtg,orb_per_poss,pf_per_poss,pos,pts_per_poss,season,stl_per_poss,team_id,tov_per_poss,trb_per_poss
23.0,1.6,0.0,107.0,3.9,0.462,4.7,10.2,0.333,0.8,2.4,0.438,5.5,12.6,0.667,3.1,4.7,16.0,0.0,NBA,70.0,82.0,0.8,6.3,SG,14.9,2004,0.8,TOT,4.7,4.7
23.0,1.2,0.0,112.0,3.5,0.5,4.6,9.3,0.333,1.2,3.5,0.455,5.8,12.8,1.0,2.3,2.3,13.0,0.0,NBA,48.0,100.0,0.0,3.5,SG,15.1,2004,0.0,POR,2.3,3.5
23.0,2.4,0.0,96.0,4.9,0.4,4.9,12.2,0.0,0.0,0.0,0.4,4.9,12.2,0.5,4.9,9.8,3.0,0.0,NBA,22.0,63.0,2.4,12.2,SG,14.7,2004,2.4,SAS,9.8,7.3
24.0,2.1,0.2,108.0,5.7,0.404,6.9,17.1,0.333,1.6,4.7,0.389,8.5,21.8,0.855,8.6,10.0,25.0,0.0,NBA,430.0,104.0,1.6,4.5,SG,27.1,2005,2.1,CHA,3.0,7.3
25.0,1.4,0.4,108.0,5.0,0.412,4.8,11.7,0.389,2.9,7.5,0.403,7.7,19.2,0.821,5.6,6.8,78.0,6.0,NBA,1275.0,108.0,1.4,4.8,SG,23.9,2006,1.9,CHA,1.9,6.3
26.0,2.5,0.2,110.0,4.8,0.445,4.8,10.9,0.416,3.1,7.4,0.433,7.9,18.3,0.904,5.2,5.8,72.0,47.0,NBA,1878.0,114.0,1.0,4.9,SG,24.1,2007,1.5,CHA,2.0,5.7
27.0,1.9,0.5,112.0,5.0,0.422,3.8,9.0,0.436,2.7,6.2,0.428,6.5,15.3,0.804,2.9,3.6,80.0,18.0,NBA,2016.0,110.0,0.9,4.8,SG,18.7,2008,1.2,CHA,1.5,5.9
28.0,2.4,0.5,108.0,5.4,0.441,4.6,10.3,0.245,1.1,4.6,0.38,5.7,15.0,0.84,1.8,2.2,55.0,10.0,NBA,616.0,86.0,0.6,5.9,SG,14.4,2009,1.8,TOT,2.9,6.0
28.0,2.7,0.6,106.0,5.7,0.473,5.0,10.6,0.267,1.4,5.1,0.406,6.4,15.8,0.789,1.7,2.2,34.0,10.0,NBA,475.0,90.0,0.6,6.1,SG,15.9,2009,2.1,CHA,3.0,6.3
28.0,1.1,0.4,112.0,4.5,0.32,3.0,9.3,0.125,0.4,3.0,0.273,3.3,12.3,1.0,2.2,2.2,21.0,0.0,NBA,141.0,69.0,0.7,5.2,SG,9.3,2009,1.1,DAL,2.6,5.2
29.0,2.6,0.0,108.0,3.4,0.452,6.0,13.3,0.211,1.7,8.1,0.36,7.7,21.4,1.0,2.6,2.6,25.0,0.0,NBA,121.0,87.0,1.7,5.6,SG,19.7,2010,2.1,DAL,3.0,5.1
30.0,2.1,0.6,109.0,5.2,0.471,6.6,14.1,0.37,1.6,4.2,0.447,8.2,18.3,0.769,3.7,4.8,54.0,1.0,NBA,582.0,103.0,1.1,4.0,SG,21.6,2011,1.6,CHA,2.1,6.3
31.0,3.4,0.6,112.0,4.4,0.386,3.9,10.1,0.186,0.7,3.8,0.331,4.6,13.9,0.789,2.7,3.4,53.0,2.0,NBA,596.0,84.0,0.7,4.6,SG,12.6,2012,1.4,CHA,2.1,5.1
32.0,8.7,0.0,121.0,0.0,0.0,0.0,0.0,0.0,0.0,0.0,0.0,0.0,0.0,0.0,0.0,0.0,1.0,0.0,NBA,6.0,217.0,0.0,8.7,SG,0.0,2013,0.0,CHA,0.0,0.0
