age,ast,ast_per_g,blk,college_id,fg,fg3,fg3_pct,fg3a,fg_pct,fga,ft,ft_pct,fta,g,mp,mp_per_g,orb,pf,pts,pts_per_g,season,stl,tov,trb,trb_per_g
19.0,78.0,2.1,10.0,NOTREDAME,125.0,64.0,0.35,183.0,0.403,310.0,50.0,0.769,65.0,37.0,968.0,26.2,0.0,0.0,364.0,9.8,2000,26.0,0.0,98.0,2.6
20.0,114.0,3.8,5.0,NOTREDAME,128.0,65.0,0.409,159.0,0.467,274.0,51.0,0.836,61.0,30.0,991.0,33.0,0.0,0.0,372.0,12.4,2001,28.0,0.0,150.0,5.0
21.0,67.0,2.1,4.0,NOTREDAME,160.0,73.0,0.412,177.0,0.469,341.0,57.0,0.826,69.0,32.0,1034.0,32.3,0.0,0.0,450.0,14.1,2002,28.0,0.0,153.0,4.8
22.0,55.0,1.6,5.0,NOTREDAME,215.0,99.0,0.407,243.0,0.441,487.0,135.0,0.844,160.0,34.0,1154.0,33.9,0.0,0.0,664.0,19.5,2003,37.0,0.0,169.0,5.0
