age,ast_per_poss,blk_per_poss,def_rtg,drb_per_poss,fg2_pct,fg2_per_poss,fg2a_per_poss,fg3_pct,fg3_per_poss,fg3a_per_poss,fg_pct,fg_per_poss,fga_per_poss,ft_pct,ft_per_poss,fta_per_poss,g,gs,lg_id,mp,off_rtg,orb_per_poss,pf_per_poss,pos,pts_per_poss,season,stl_per_poss,team_id,tov_per_poss,trb_per_poss
20.0,1.6,0.8,98.0,11.1,0.571,6.3,11.1,0.0,0.0,0.0,0.571,6.3,11.1,0.375,4.8,12.7,18.0,0.0,NBA,65.0,88.0,4.8,11.9,PF,17.4,2001,2.4,DAL,5.5,15.8
21.0,2.3,1.5,106.0,9.2,0.498,6.8,13.6,0.0,0.0,0.0,0.498,6.8,13.6,0.6,3.4,5.7,47.0,4.0,NBA,841.0,110.0,5.0,7.2,PF,17.0,2002,1.3,TOT,2.1,14.3
21.0,1.6,1.6,104.0,10.9,0.538,4.5,8.3,0.0,0.0,0.0,0.538,4.5,8.3,0.455,3.2,7.0,18.0,0.0,NBA,162.0,103.0,3.8,8.6,PF,12.1,2002,1.3,DAL,2.6,14.7
21.0,2.5,1.5,106.0,8.8,0.492,7.4,14.9,0.0,0.0,0.0,0.492,7.4,14.9,0.647,3.4,5.3,29.0,4.0,NBA,679.0,111.0,5.3,6.9,PF,18.2,2002,1.3,DEN,2.0,14.2
22.0,3.3,0.9,100.0,9.3,0.45,8.0,17.8,0.143,0.0,0.2,0.446,8.0,18.0,0.67,3.9,5.8,77.0,27.0,NBA,1613.0,94.0,4.1,6.6,SF,20.0,2003,1.6,DEN,4.0,13.4
23.0,1.4,1.8,106.0,7.7,0.449,5.9,13.2,0.0,0.0,0.2,0.443,5.9,13.4,0.735,4.1,5.5,60.0,8.0,NBA,783.0,97.0,3.2,8.6,PF,16.0,2004,1.6,TOT,3.0,10.9
23.0,1.2,1.7,109.0,6.6,0.419,5.5,13.2,0.0,0.0,0.5,0.404,5.5,13.6,0.667,4.0,6.0,24.0,1.0,NBA,345.0,91.0,4.4,6.7,PF,15.0,2004,1.5,ORL,3.4,11.0
23.0,1.5,1.9,103.0,8.6,0.473,6.3,13.3,0.0,0.0,0.0,0.473,6.3,13.3,0.795,4.1,5.2,36.0,7.0,NBA,438.0,102.0,2.2,10.1,PF,16.7,2004,1.7,PHO,2.7,10.9
24.0,3.4,3.4,90.0,16.8,1.0,6.7,6.7,0.0,0.0,0.0,1.0,6.7,6.7,1.0,13.5,13.5,3.0,0.0,NBA,16.0,175.0,6.7,6.7,PF,26.9,2005,3.4,NJN,3.4,23.6
