age,ast_per_mp,blk_per_mp,drb_per_mp,fg2_pct,fg2_per_mp,fg2a_per_mp,fg3_pct,fg3_per_mp,fg3a_per_mp,fg_pct,fg_per_mp,fga_per_mp,ft_pct,ft_per_mp,fta_per_mp,g,gs,lg_id,mp,orb_per_mp,pf_per_mp,pos,pts_per_mp,season,stl_per_mp,team_id,tov_per_mp,trb_per_mp
24.0,4.6,1.0,5.6,0.385,2.5,6.6,0.308,2.0,6.6,0.346,4.6,13.2,0.8,4.1,5.1,17.0,0.0,NBA,71.0,1.5,2.0,SG,15.2,2008,2.0,LAL,2.5,7.1
26.0,4.8,0.3,4.5,0.429,2.9,6.7,0.182,0.6,3.5,0.344,3.5,10.2,0.667,1.3,1.9,7.0,1.0,NBA,113.0,1.3,4.5,SF-SG,8.9,2010,1.0,TOT,3.2,5.7
26.0,0.0,0.0,14.4,0.0,0.0,0.0,0.0,0.0,0.0,0.0,0.0,0.0,0.0,0.0,0.0,3.0,0.0,NBA,5.0,0.0,0.0,SG,0.0,2010,0.0,CLE,28.8,14.4
26.0,5.0,0.3,4.0,0.429,3.0,7.0,0.182,0.7,3.7,0.344,3.7,10.7,0.667,1.3,2.0,4.0,1.0,NBA,108.0,1.3,4.7,SF,9.3,2010,1.0,GSW,2.0,5.3
