age,ast,blk,drb,efg_pct,fg,fg2,fg2_pct,fg2a,fg3,fg3_pct,fg3a,fg_pct,fga,ft,ft_pct,fta,g,gs,lg_id,mp,orb,pf,pos,pts,season,stl,team_id,tov,trb
24.0,9.0,2.0,11.0,0.423,9.0,5.0,0.385,13.0,4.0,0.308,13.0,0.346,26.0,8.0,0.8,10.0,17.0,0.0,NBA,71.0,3.0,4.0,SG,30.0,2008,4.0,LAL,5.0,14.0
26.0,15.0,1.0,14.0,0.375,11.0,9.0,0.429,21.0,2.0,0.182,11.0,0.344,32.0,4.0,0.667,6.0,7.0,1.0,NBA,113.0,4.0,14.0,SF-SG,28.0,2010,3.0,TOT,10.0,18.0
26.0,0.0,0.0,2.0,0.0,0.0,0.0,0.0,0.0,0.0,0.0,0.0,0.0,0.0,0.0,0.0,0.0,3.0,0.0,NBA,5.0,0.0,0.0,SG,0.0,2010,0.0,CLE,4.0,2.0
26.0,15.0,1.0,12.0,0.375,11.0,9.0,0.429,21.0,2.0,0.182,11.0,0.344,32.0,4.0,0.667,6.0,4.0,1.0,NBA,108.0,4.0,14.0,SF,28.0,2010,3.0,GSW,6.0,16.0
