age,ast_per_mp,blk_per_mp,drb_per_mp,fg2_pct,fg2_per_mp,fg2a_per_mp,fg3_pct,fg3_per_mp,fg3a_per_mp,fg_pct,fg_per_mp,fga_per_mp,ft_pct,ft_per_mp,fta_per_mp,g,gs,lg_id,mp,orb_per_mp,pf_per_mp,pos,pts_per_mp,season,stl_per_mp,team_id,tov_per_mp,trb_per_mp
23.0,0.0,0.0,9.0,0.5,9.0,18.0,0.0,0.0,0.0,0.5,9.0,18.0,0.75,27.0,36.0,1.0,0.0,NBA,4.0,9.0,9.0,C,45.0,1999,0.0,SAC,9.0,18.0
26.0,2.1,2.6,4.1,0.391,4.6,11.8,0.0,0.0,0.0,0.391,4.6,11.8,0.0,0.0,1.0,5.0,1.0,NBA,70.0,2.1,9.3,C,9.3,2002,0.0,SEA,2.1,6.2
29.0,0.6,2.4,5.1,0.514,7.0,13.5,0.0,0.0,0.0,0.514,7.0,13.5,0.767,2.8,3.7,11.0,11.0,NBA,295.0,4.0,5.9,C,16.7,2005,0.7,SEA,1.7,9.2
