age,ast,blk,drb,fg,fg2,fg2a,fg3,fg3a,fga,ft,fta,game_score,lg_id,mp,orb,pf,pts,season,stl,team_id,tov,trb
23.0,1.0,1.0,2.0,2.0,2.0,4.0,0.0,0.0,4.0,2.0,3.0,4.9,NBA,0.0,2.0,3.0,5.0,1999,1.0,SAC,3.0,4.0
26.0,4.0,6.0,6.0,8.0,8.0,12.0,0.0,0.0,12.0,4.0,4.0,17.0,NBA,0.0,6.0,5.0,18.0,2002,2.0,SEA,4.0,12.0
27.0,3.0,5.0,8.0,6.0,6.0,11.0,0.0,0.0,11.0,4.0,6.0,15.9,NBA,0.0,8.0,6.0,13.0,2003,2.0,SEA,4.0,10.0
28.0,3.0,4.0,8.0,7.0,7.0,11.0,0.0,0.0,11.0,6.0,8.0,16.1,NBA,0.0,3.0,6.0,16.0,2004,2.0,SEA,4.0,10.0
29.0,2.0,5.0,7.0,9.0,9.0,13.0,0.0,1.0,13.0,6.0,7.0,19.8,NBA,0.0,4.0,6.0,22.0,2005,2.0,SEA,5.0,7.0
30.0,1.0,2.0,6.0,6.0,6.0,11.0,0.0,0.0,11.0,4.0,6.0,11.7,NBA,18.0,4.0,5.0,13.0,2006,1.0,NYK,4.0,8.0
31.0,1.0,2.0,6.0,4.0,4.0,6.0,0.0,0.0,6.0,2.0,2.0,8.6,NBA,19.0,2.0,5.0,10.0,2007,1.0,NYK,3.0,7.0
32.0,0.0,0.0,2.0,1.0,1.0,1.0,0.0,0.0,1.0,2.0,2.0,4.0,NBA,3.0,0.0,0.0,4.0,2008,0.0,NYK,0.0,2.0
33.0,0.0,1.0,2.0,2.0,2.0,5.0,0.0,0.0,5.0,0.0,0.0,1.5,NBA,6.0,1.0,1.0,4.0,2009,1.0,NYK,1.0,2.0
