age,ast,ast_per_g,blk,college_id,fg,fg3,fg3_pct,fg3a,fg_pct,fga,ft,ft_pct,fta,g,mp,mp_per_g,orb,pf,pts,pts_per_g,season,stl,tov,trb,trb_per_g
19.0,56.0,2.7,1.0,OREGON,46.0,28.0,0.368,76.0,0.371,124.0,26.0,0.788,33.0,21.0,541.0,25.8,0.0,0.0,146.0,7.0,2004,17.0,0.0,50.0,2.4
20.0,125.0,4.6,4.0,OREGON,126.0,52.0,0.371,140.0,0.429,294.0,94.0,0.855,110.0,27.0,893.0,33.1,0.0,0.0,398.0,14.7,2005,27.0,0.0,88.0,3.3
21.0,140.0,4.4,5.0,OREGON,115.0,45.0,0.336,134.0,0.406,283.0,71.0,0.807,88.0,32.0,1036.0,32.4,0.0,0.0,346.0,10.8,2006,35.0,0.0,110.0,3.4
22.0,149.0,4.3,6.0,OREGON,213.0,80.0,0.404,198.0,0.46,463.0,115.0,0.846,136.0,35.0,1289.0,36.8,0.0,0.0,621.0,17.7,2007,48.0,0.0,149.0,4.3
