age,ast_per_poss,blk_per_poss,def_rtg,drb_per_poss,fg2_pct,fg2_per_poss,fg2a_per_poss,fg3_pct,fg3_per_poss,fg3a_per_poss,fg_pct,fg_per_poss,fga_per_poss,ft_pct,ft_per_poss,fta_per_poss,g,gs,lg_id,mp,off_rtg,orb_per_poss,pf_per_poss,pos,pts_per_poss,season,stl_per_poss,team_id,tov_per_poss,trb_per_poss
23.0,3.4,0.0,111.0,6.8,0.533,9.1,17.0,0.0,0.0,11.3,0.32,9.1,28.3,0.818,10.2,12.5,6.0,0.0,NBA,50.0,89.0,0.0,12.5,PG,28.3,2008,0.0,HOU,3.4,6.8
24.0,5.4,0.4,111.0,3.7,0.472,6.2,13.1,0.422,3.3,7.9,0.453,9.5,21.0,0.804,4.6,5.7,13.0,13.0,NBA,444.0,109.0,0.5,3.6,PG,27.0,2009,0.6,HOU,3.6,4.2
28.0,8.3,0.8,115.0,4.5,0.48,9.1,18.9,0.111,0.8,6.8,0.382,9.8,25.6,0.6,2.3,3.8,6.0,0.0,NBA,67.0,89.0,2.3,2.3,PG,22.6,2013,0.8,HOU,4.5,6.8
30.0,4.4,0.4,104.0,6.0,0.371,5.2,14.1,0.308,3.2,10.5,0.344,8.4,24.5,0.571,1.6,2.8,12.0,0.0,NBA,132.0,85.0,1.2,6.4,PG,21.7,2015,1.2,CHI,3.6,7.2
32.0,7.2,0.0,124.0,7.2,1.0,7.2,7.2,0.5,7.2,14.5,0.667,14.5,21.7,0.0,0.0,0.0,1.0,0.0,NBA,7.0,121.0,0.0,0.0,PG,36.2,2017,0.0,IND,7.2,7.2
33.0,0.0,0.0,124.0,0.0,1.0,33.7,33.7,0.0,0.0,16.8,0.667,33.7,50.5,0.0,0.0,33.7,2.0,0.0,NBA,3.0,88.0,0.0,0.0,PG,67.4,2018,0.0,MIN,0.0,0.0
