age,ast,blk,drb,efg_pct,fg,fg2,fg2_pct,fg2a,fg3,fg3_pct,fg3a,fg_pct,fga,ft,ft_pct,fta,g,gs,lg_id,mp,orb,pf,pos,pts,season,stl,team_id,tov,trb
21.0,36.0,1.0,26.0,0.5,43.0,38.0,0.481,79.0,5.0,0.417,12.0,0.473,91.0,32.0,0.842,38.0,6.0,6.0,NBA,212.0,10.0,13.0,PG,123.0,2010,10.0,OKC,14.0,36.0
22.0,108.0,6.0,55.0,0.414,135.0,121.0,0.41,295.0,14.0,0.292,48.0,0.394,343.0,121.0,0.852,142.0,17.0,17.0,NBA,638.0,36.0,56.0,PG,405.0,2011,24.0,OKC,78.0,91.0
23.0,117.0,8.0,87.0,0.457,177.0,159.0,0.465,342.0,18.0,0.277,65.0,0.435,407.0,89.0,0.802,111.0,20.0,20.0,NBA,767.0,22.0,49.0,PG,461.0,2012,31.0,OKC,45.0,109.0
24.0,14.0,0.0,12.0,0.439,17.0,15.0,0.469,32.0,2.0,0.222,9.0,0.415,41.0,12.0,0.857,14.0,2.0,2.0,NBA,68.0,1.0,5.0,PG,48.0,2013,6.0,OKC,8.0,13.0
25.0,153.0,6.0,93.0,0.455,167.0,139.0,0.466,298.0,28.0,0.28,100.0,0.42,398.0,145.0,0.884,164.0,19.0,19.0,NBA,735.0,45.0,62.0,PG,507.0,2014,41.0,OKC,83.0,138.0
27.0,198.0,2.0,83.0,0.448,159.0,125.0,0.434,288.0,34.0,0.324,105.0,0.405,393.0,116.0,0.829,140.0,18.0,18.0,NBA,674.0,41.0,43.0,PG,468.0,2016,46.0,OKC,78.0,124.0
28.0,54.0,2.0,49.0,0.431,59.0,46.0,0.447,103.0,13.0,0.265,49.0,0.388,152.0,56.0,0.8,70.0,5.0,5.0,NBA,194.0,9.0,16.0,PG,187.0,2017,12.0,OKC,30.0,58.0
29.0,45.0,0.0,61.0,0.444,64.0,49.0,0.412,119.0,15.0,0.357,42.0,0.398,161.0,33.0,0.825,40.0,6.0,6.0,NBA,235.0,11.0,21.0,PG,176.0,2018,9.0,OKC,31.0,72.0
30.0,53.0,3.0,37.0,0.41,40.0,29.0,0.377,77.0,11.0,0.324,34.0,0.36,111.0,23.0,0.885,26.0,5.0,5.0,NBA,197.0,7.0,19.0,PG,114.0,2019,5.0,OKC,23.0,44.0
