age,ast_per_g,blk_per_g,drb_per_g,efg_pct,fg2_pct,fg2_per_g,fg2a_per_g,fg3_pct,fg3_per_g,fg3a_per_g,fg_pct,fg_per_g,fga_per_g,ft_pct,ft_per_g,fta_per_g,g,gs,lg_id,mp_per_g,orb_per_g,pf_per_g,pos,pts_per_g,season,stl_per_g,team_id,tov_per_g,trb_per_g
20.0,5.3,0.2,2.7,0.414,0.415,4.9,11.8,0.271,0.4,1.6,0.398,5.3,13.4,0.815,4.3,5.2,82.0,65.0,NBA,32.5,2.2,2.3,PG,15.3,2009,1.3,OKC,3.3,4.9
21.0,8.0,0.4,3.1,0.428,0.438,5.6,12.9,0.221,0.3,1.3,0.418,5.9,14.1,0.78,4.0,5.1,82.0,82.0,NBA,34.3,1.7,2.5,PG,16.1,2010,1.3,OKC,3.3,4.9
22.0,8.2,0.4,3.1,0.454,0.451,7.1,15.7,0.33,0.4,1.3,0.442,7.5,17.0,0.842,6.5,7.7,82.0,82.0,NBA,34.7,1.5,2.5,PG,21.9,2011,1.9,OKC,3.9,4.6
23.0,5.5,0.3,3.1,0.481,0.482,7.8,16.2,0.316,0.9,3.0,0.457,8.8,19.2,0.823,5.2,6.3,66.0,66.0,NBA,35.3,1.5,2.2,PG,23.6,2012,1.7,OKC,3.6,4.6
24.0,7.4,0.3,3.9,0.47,0.466,7.0,15.1,0.323,1.2,3.7,0.438,8.2,18.7,0.8,5.6,7.0,82.0,82.0,NBA,34.9,1.4,2.3,PG,23.2,2013,1.8,OKC,3.3,5.2
25.0,6.9,0.2,4.5,0.48,0.482,6.0,12.5,0.318,1.5,4.7,0.437,7.5,17.2,0.826,5.3,6.4,46.0,46.0,NBA,30.7,1.2,2.3,PG,21.8,2014,1.9,OKC,3.8,5.7
26.0,8.6,0.2,5.4,0.455,0.457,8.1,17.7,0.299,1.3,4.3,0.426,9.4,22.0,0.835,8.1,9.8,67.0,67.0,NBA,34.4,1.9,2.7,PG,28.1,2015,2.1,OKC,4.4,7.3
27.0,10.4,0.3,6.0,0.489,0.503,6.9,13.8,0.296,1.3,4.3,0.454,8.2,18.1,0.812,5.8,7.2,80.0,80.0,NBA,34.4,1.8,2.5,PG,23.5,2016,2.0,OKC,4.3,7.8
28.0,10.4,0.4,9.0,0.476,0.459,7.7,16.8,0.343,2.5,7.2,0.425,10.2,24.0,0.845,8.8,10.4,81.0,81.0,NBA,34.6,1.7,2.3,PG,31.6,2017,1.6,OKC,5.4,10.7
29.0,10.3,0.3,8.2,0.477,0.485,8.3,17.0,0.298,1.2,4.1,0.449,9.5,21.1,0.737,5.2,7.1,80.0,80.0,NBA,36.4,1.9,2.5,PG,25.4,2018,1.8,OKC,4.8,10.1
30.0,10.7,0.5,9.6,0.468,0.481,7.0,14.5,0.29,1.6,5.6,0.428,8.6,20.2,0.656,4.1,6.2,73.0,73.0,NBA,36.0,1.5,3.4,PG,22.9,2019,1.9,OKC,4.5,11.1
31.0,6.9,0.4,6.7,0.483,0.538,7.1,13.2,0.224,1.1,4.9,0.453,8.2,18.1,0.661,3.9,5.9,10.0,10.0,NBA,32.6,1.3,3.5,PG,21.4,2020,1.8,HOU,4.3,8.0
