age,ast,blk,drb,fg,fg2,fg2a,fg3,fg3a,fga,ft,fta,game_score,lg_id,mp,orb,pf,pts,season,stl,team_id,tov,trb
21.0,9.0,1.0,6.0,11.0,10.0,20.0,2.0,6.0,21.0,8.0,8.0,22.8,NBA,42,2.0,4.0,27.0,2010,3.0,OKC,8.0,8.0
22.0,14.0,2.0,7.0,15.0,15.0,31.0,3.0,7.0,33.0,14.0,18.0,27.3,NBA,52,6.0,6.0,40.0,2011,3.0,OKC,7.0,10.0
23.0,12.0,2.0,7.0,20.0,20.0,29.0,3.0,7.0,32.0,11.0,13.0,31.4,NBA,46,3.0,4.0,43.0,2012,4.0,OKC,6.0,9.0
24.0,10.0,0.0,8.0,10.0,9.0,19.0,1.0,7.0,26.0,8.0,10.0,17.9,NBA,38,1.0,3.0,29.0,2013,4.0,OKC,4.0,8.0
25.0,16.0,1.0,9.0,13.0,11.0,24.0,4.0,13.0,31.0,17.0,18.0,38.0,NBA,49,6.0,5.0,40.0,2014,6.0,OKC,7.0,13.0
27.0,15.0,1.0,9.0,13.0,10.0,22.0,4.0,10.0,31.0,11.0,14.0,33.4,NBA,46,6.0,5.0,36.0,2016,7.0,OKC,8.0,14.0
28.0,14.0,1.0,14.0,17.0,15.0,32.0,5.0,18.0,43.0,15.0,18.0,38.9,NBA,42,5.0,5.0,51.0,2017,4.0,OKC,9.0,14.0
29.0,13.0,0.0,12.0,18.0,12.0,30.0,7.0,19.0,43.0,9.0,11.0,28.9,NBA,45,4.0,5.0,46.0,2018,4.0,OKC,8.0,15.0
30.0,14.0,2.0,10.0,11.0,8.0,20.0,4.0,11.0,31.0,8.0,8.0,25.3,NBA,45,3.0,5.0,33.0,2019,4.0,OKC,6.0,11.0
