age,ast,blk,drb,efg_pct,fg,fg2,fg2_pct,fg2a,fg3,fg3_pct,fg3a,fg_pct,fga,ft,ft_pct,fta,g,gs,lg_id,mp,orb,pf,pos,pts,season,stl,team_id,tov,trb
20.0,435.0,16.0,221.0,0.414,436.0,401.0,0.415,966.0,35.0,0.271,129.0,0.398,1095.0,349.0,0.815,428.0,82.0,65.0,NBA,2668.0,178.0,191.0,PG,1256.0,2009,110.0,OKC,274.0,399.0
21.0,652.0,34.0,258.0,0.428,485.0,462.0,0.438,1056.0,23.0,0.221,104.0,0.418,1160.0,329.0,0.78,422.0,82.0,82.0,NBA,2813.0,143.0,204.0,PG,1322.0,2010,108.0,OKC,268.0,401.0
22.0,670.0,30.0,258.0,0.454,614.0,580.0,0.451,1287.0,34.0,0.33,103.0,0.442,1390.0,531.0,0.842,631.0,82.0,82.0,NBA,2847.0,121.0,207.0,PG,1793.0,2011,155.0,OKC,316.0,379.0
23.0,362.0,21.0,205.0,0.481,578.0,516.0,0.482,1070.0,62.0,0.316,196.0,0.457,1266.0,340.0,0.823,413.0,66.0,66.0,NBA,2331.0,96.0,147.0,PG,1558.0,2012,112.0,OKC,239.0,301.0
24.0,607.0,24.0,317.0,0.47,673.0,576.0,0.466,1235.0,97.0,0.323,300.0,0.438,1535.0,460.0,0.8,575.0,82.0,82.0,NBA,2861.0,111.0,189.0,PG,1903.0,2013,145.0,OKC,273.0,428.0
25.0,319.0,7.0,208.0,0.48,346.0,278.0,0.482,577.0,68.0,0.318,214.0,0.437,791.0,242.0,0.826,293.0,46.0,46.0,NBA,1412.0,55.0,104.0,PG,1002.0,2014,88.0,OKC,177.0,263.0
26.0,574.0,14.0,364.0,0.455,627.0,541.0,0.457,1183.0,86.0,0.299,288.0,0.426,1471.0,546.0,0.835,654.0,67.0,67.0,NBA,2302.0,124.0,184.0,PG,1886.0,2015,140.0,OKC,293.0,488.0
27.0,834.0,20.0,481.0,0.489,656.0,555.0,0.503,1103.0,101.0,0.296,341.0,0.454,1444.0,465.0,0.812,573.0,80.0,80.0,NBA,2750.0,145.0,200.0,PG,1878.0,2016,163.0,OKC,342.0,626.0
28.0,840.0,31.0,727.0,0.476,824.0,624.0,0.459,1358.0,200.0,0.343,583.0,0.425,1941.0,710.0,0.845,840.0,81.0,81.0,NBA,2802.0,137.0,190.0,PG,2558.0,2017,132.0,OKC,438.0,864.0
29.0,820.0,20.0,652.0,0.477,757.0,660.0,0.485,1361.0,97.0,0.298,326.0,0.449,1687.0,417.0,0.737,566.0,80.0,80.0,NBA,2914.0,152.0,200.0,PG,2028.0,2018,147.0,OKC,381.0,804.0
30.0,784.0,33.0,698.0,0.468,630.0,511.0,0.481,1062.0,119.0,0.29,411.0,0.428,1473.0,296.0,0.656,451.0,73.0,73.0,NBA,2630.0,109.0,245.0,PG,1675.0,2019,142.0,OKC,325.0,807.0
31.0,69.0,4.0,67.0,0.483,82.0,71.0,0.538,132.0,11.0,0.224,49.0,0.453,181.0,39.0,0.661,59.0,10.0,10.0,NBA,326.0,13.0,35.0,PG,214.0,2020,18.0,HOU,43.0,80.0
