age,ast_per_poss,blk_per_poss,def_rtg,drb_per_poss,fg2_pct,fg2_per_poss,fg2a_per_poss,fg3_pct,fg3_per_poss,fg3a_per_poss,fg_pct,fg_per_poss,fga_per_poss,ft_pct,ft_per_poss,fta_per_poss,g,gs,lg_id,mp,off_rtg,orb_per_poss,pf_per_poss,pos,pts_per_poss,season,stl_per_poss,team_id,tov_per_poss,trb_per_poss
24.0,10.4,0.6,106.0,4.5,0.4,5.1,12.9,0.378,1.9,5.0,0.394,7.0,17.9,0.865,7.2,8.3,22.0,0.0,NBA,478.0,105.0,2.1,6.9,PG,23.1,1994,2.3,HOU,5.3,6.6
25.0,9.6,0.2,114.0,3.7,0.459,5.4,11.7,0.4,2.6,6.5,0.438,8.0,18.2,0.835,7.6,9.1,22.0,0.0,NBA,485.0,118.0,0.9,7.1,PG,26.1,1995,2.3,HOU,3.5,4.5
26.0,8.5,0.2,112.0,4.0,0.346,4.5,13.0,0.276,2.0,7.2,0.321,6.5,20.2,0.793,5.7,7.2,8.0,0.0,NBA,206.0,89.0,0.2,5.0,PG,20.7,1996,1.5,HOU,4.5,4.2
28.0,10.8,2.2,118.0,4.3,0.333,6.5,19.4,0.0,0.0,0.0,0.333,6.5,19.4,0.0,0.0,0.0,3.0,1.0,NBA,26.0,83.0,2.2,15.1,PG,13.0,1998,0.0,NJN,4.3,6.5
29.0,13.9,0.0,120.0,3.2,0.516,8.5,16.5,0.0,0.0,0.5,0.5,8.5,17.1,0.875,7.5,8.5,3.0,3.0,NBA,102.0,121.0,0.0,7.5,PG,24.5,1999,1.6,MIL,3.7,3.2
30.0,13.6,0.0,109.0,5.1,0.433,8.8,20.2,0.2,0.3,1.5,0.417,9.1,21.7,0.857,5.4,6.3,5.0,5.0,NBA,178.0,111.0,0.0,5.7,PG,23.9,2000,1.2,MIL,2.7,5.1
31.0,9.6,0.2,108.0,5.7,0.403,8.0,19.8,0.333,0.8,2.4,0.396,8.8,22.2,0.866,6.7,7.7,18.0,18.0,NBA,682.0,104.0,1.0,6.1,PG,25.0,2001,1.5,MIL,4.1,6.6
33.0,3.9,0.2,115.0,3.9,0.452,6.8,15.1,0.524,2.7,5.1,0.47,9.5,20.2,0.933,3.4,3.7,6.0,6.0,NBA,217.0,102.0,0.7,4.9,PG,25.1,2003,0.7,MIL,4.1,4.6
34.0,7.5,0.3,105.0,4.0,0.486,7.4,15.3,0.417,2.7,6.5,0.465,10.1,21.7,0.852,5.6,6.6,16.0,15.0,NBA,497.0,107.0,0.3,5.7,PG,28.5,2004,1.3,MIN,4.6,4.3
36.0,8.8,0.3,111.0,5.0,0.468,7.4,15.8,0.349,1.9,5.5,0.437,9.3,21.3,0.809,7.0,8.7,12.0,12.0,NBA,404.0,114.0,1.1,4.5,PG,27.6,2006,1.0,LAC,3.6,6.1
38.0,5.3,0.2,107.0,2.8,0.373,6.6,17.6,0.214,1.3,5.9,0.333,7.8,23.5,0.824,3.0,3.6,21.0,0.0,NBA,264.0,87.0,0.4,6.3,PG,19.9,2008,1.7,BOS,2.5,3.2
