age,ast,blk,drb,fg,fg2,fg2a,fg3,fg3a,fga,ft,fta,game_score,lg_id,mp,orb,pf,pts,season,stl,team_id,tov,trb
24.0,2.0,2.0,3.0,4.0,4.0,9.0,1.0,1.0,9.0,4.0,6.0,11.0,NBA,0.0,8.0,5.0,12.0,2000,4.0,DEN,2.0,11.0
25.0,2.0,2.0,4.0,5.0,5.0,8.0,1.0,2.0,9.0,3.0,5.0,15.4,NBA,0.0,4.0,5.0,12.0,2001,5.0,DEN,2.0,7.0
26.0,4.0,3.0,8.0,7.0,7.0,12.0,1.0,2.0,12.0,6.0,7.0,17.7,NBA,0.0,8.0,6.0,18.0,2002,5.0,DEN,3.0,12.0
27.0,4.0,3.0,5.0,7.0,7.0,11.0,1.0,2.0,11.0,3.0,4.0,16.5,NBA,0.0,6.0,4.0,14.0,2003,7.0,DEN,4.0,9.0
28.0,3.0,2.0,6.0,3.0,3.0,6.0,0.0,0.0,6.0,2.0,2.0,6.0,NBA,0.0,4.0,4.0,6.0,2004,3.0,DEN,2.0,9.0
29.0,3.0,2.0,6.0,5.0,5.0,11.0,1.0,2.0,11.0,4.0,5.0,10.2,NBA,0.0,3.0,5.0,14.0,2005,3.0,HOU,1.0,7.0
30.0,3.0,1.0,5.0,5.0,5.0,11.0,1.0,2.0,11.0,3.0,3.0,10.8,NBA,32.0,5.0,5.0,13.0,2006,2.0,HOU,2.0,8.0
32.0,4.0,2.0,3.0,4.0,4.0,8.0,0.0,1.0,8.0,3.0,4.0,11.3,NBA,35.0,4.0,4.0,9.0,2008,3.0,NOH,3.0,5.0
33.0,3.0,2.0,3.0,3.0,3.0,5.0,0.0,0.0,5.0,2.0,2.0,6.1,NBA,18.0,2.0,5.0,6.0,2009,2.0,NOH,2.0,3.0
34.0,0.0,0.0,1.0,1.0,1.0,1.0,0.0,0.0,1.0,2.0,2.0,4.9,NBA,8.0,1.0,2.0,4.0,2010,1.0,OKC,0.0,2.0
