age,ast_per_g,blk_per_g,drb_per_g,efg_pct,fg2_pct,fg2_per_g,fg2a_per_g,fg3_pct,fg3_per_g,fg3a_per_g,fg_pct,fg_per_g,fga_per_g,ft_pct,ft_per_g,fta_per_g,g,gs,lg_id,mp_per_g,orb_per_g,pf_per_g,pos,pts_per_g,season,stl_per_g,team_id,tov_per_g,trb_per_g
28.0,0.0,0.0,0.0,1.0,1.0,0.3,0.3,0.0,0.0,0.0,1.0,0.3,0.3,0.0,0.0,0.0,4.0,0.0,NBA,1.5,0.0,0.0,PF,0.5,2004,0.0,DEN,0.0,0.0
29.0,0.9,0.0,1.0,0.32,0.32,1.1,3.6,0.0,0.0,0.0,0.32,1.1,3.6,0.667,0.3,0.4,7.0,3.0,NBA,17.9,1.0,3.3,SF,2.6,2005,0.9,HOU,0.9,2.0
32.0,0.2,0.0,1.2,0.167,0.2,0.1,0.6,0.0,0.0,0.1,0.167,0.1,0.7,1.0,0.2,0.2,9.0,0.0,NBA,4.3,0.3,0.1,SF,0.4,2008,0.1,NOH,0.1,1.6
33.0,0.0,0.0,0.0,0.0,0.0,0.0,1.0,0.0,0.0,0.0,0.0,0.0,1.0,0.0,0.0,0.0,1.0,0.0,NBA,2.0,0.0,1.0,SF,0.0,2009,0.0,NOH,0.0,0.0
