age,ast,blk,drb,efg_pct,fg,fg2,fg2_pct,fg2a,fg3,fg3_pct,fg3a,fg_pct,fga,ft,ft_pct,fta,g,gs,lg_id,mp,orb,pf,pos,pts,season,stl,team_id,tov,trb
24.0,132.0,8.0,51.0,0.45,108.0,106.0,0.459,231.0,2.0,0.182,11.0,0.446,242.0,47.0,0.588,80.0,47.0,16.0,NBA,674.0,20.0,65.0,PG,265.0,1991,32.0,ATL,76.0,71.0
25.0,446.0,24.0,155.0,0.474,423.0,389.0,0.472,824.0,34.0,0.327,104.0,0.456,928.0,175.0,0.636,275.0,81.0,64.0,NBA,2220.0,64.0,178.0,PG,1055.0,1992,105.0,ATL,206.0,219.0
26.0,323.0,12.0,110.0,0.439,270.0,250.0,0.43,582.0,20.0,0.357,56.0,0.423,638.0,112.0,0.574,195.0,80.0,28.0,NBA,1585.0,49.0,169.0,PG,672.0,1993,96.0,NJN,140.0,159.0
27.0,63.0,3.0,26.0,0.388,55.0,47.0,0.356,132.0,8.0,0.4,20.0,0.362,152.0,13.0,0.448,29.0,31.0,0.0,NBA,396.0,6.0,48.0,PG,131.0,1994,18.0,TOT,43.0,32.0
27.0,45.0,3.0,20.0,0.382,42.0,35.0,0.337,104.0,7.0,0.467,15.0,0.353,119.0,10.0,0.5,20.0,17.0,0.0,NBA,301.0,4.0,33.0,PG,101.0,1994,15.0,NJN,25.0,24.0
27.0,18.0,0.0,6.0,0.409,13.0,12.0,0.429,28.0,1.0,0.2,5.0,0.394,33.0,3.0,0.333,9.0,14.0,0.0,NBA,95.0,2.0,15.0,PG,30.0,1994,3.0,CHH,18.0,8.0
29.0,142.0,5.0,59.0,0.484,92.0,62.0,0.437,142.0,30.0,0.38,79.0,0.416,221.0,33.0,0.647,51.0,43.0,14.0,NBA,715.0,19.0,79.0,PG,247.0,1996,26.0,POR,72.0,78.0
30.0,73.0,2.0,41.0,0.457,66.0,48.0,0.444,108.0,18.0,0.321,56.0,0.402,164.0,26.0,0.743,35.0,54.0,3.0,NBA,508.0,6.0,60.0,PG,176.0,1997,24.0,TOT,43.0,47.0
30.0,13.0,2.0,8.0,0.417,17.0,11.0,0.44,25.0,6.0,0.261,23.0,0.354,48.0,5.0,0.625,8.0,15.0,3.0,NBA,126.0,2.0,12.0,PG,45.0,1997,5.0,LAL,11.0,10.0
30.0,8.0,0.0,6.0,0.515,16.0,13.0,0.542,24.0,3.0,0.3,10.0,0.471,34.0,1.0,0.25,4.0,12.0,0.0,NBA,87.0,1.0,8.0,PG,36.0,1997,1.0,PHO,5.0,7.0
30.0,52.0,0.0,27.0,0.457,33.0,24.0,0.407,59.0,9.0,0.391,23.0,0.402,82.0,20.0,0.87,23.0,27.0,0.0,NBA,295.0,3.0,40.0,PG,95.0,1997,18.0,POR,27.0,30.0
