age,ast_per_mp,blk_per_mp,drb_per_mp,fg2_pct,fg2_per_mp,fg2a_per_mp,fg3_pct,fg3_per_mp,fg3a_per_mp,fg_pct,fg_per_mp,fga_per_mp,ft_pct,ft_per_mp,fta_per_mp,g,gs,lg_id,mp,orb_per_mp,pf_per_mp,pos,pts_per_mp,season,stl_per_mp,team_id,tov_per_mp,trb_per_mp
24.0,0.0,0.0,0.0,0.0,0.0,0.0,0.0,0.0,0.0,0.0,0.0,0.0,0.0,0.0,0.0,1.0,0.0,NBA,1.0,0.0,0.0,PG,0.0,1981,36.0,IND,0.0,0.0
29.0,5.3,0.0,1.4,0.45,3.5,7.9,0.0,0.0,0.1,0.443,3.5,8.0,0.429,0.4,0.9,18.0,0.0,NBA,274.0,0.7,2.4,PG,7.5,1986,0.7,BOS,1.1,2.1
30.0,3.5,0.0,1.6,0.447,3.6,8.1,0.167,0.1,0.6,0.427,3.7,8.7,0.8,0.9,1.1,23.0,4.0,NBA,338.0,0.5,3.8,PG,8.4,1987,1.0,BOS,1.1,2.1
31.0,5.8,0.0,1.2,0.286,2.3,8.1,0.0,0.0,0.0,0.286,2.3,8.1,0.0,0.0,0.0,4.0,0.0,NBA,31.0,1.2,4.6,PG,4.6,1988,1.2,POR,0.0,2.3
32.0,3.3,0.0,3.3,0.0,0.0,9.8,0.0,0.0,0.0,0.0,0.0,9.8,0.0,0.0,0.0,1.0,0.0,NBA,11.0,0.0,3.3,PG,0.0,1989,0.0,POR,0.0,3.3
