age,ast,ast_per_g,blk,college_id,fg,fg3,fg3_pct,fg3a,fg_pct,fga,ft,ft_pct,fta,g,mp,mp_per_g,orb,pf,pts,pts_per_g,season,stl,tov,trb,trb_per_g
19.0,0.0,0.0,0.0,PURDUE,67.0,0.0,0.0,0.0,0.545,123.0,31.0,0.816,38.0,27.0,436.0,16.1,0.0,0.0,165.0,6.1,1976,0.0,0.0,42.0,1.6
20.0,0.0,0.0,0.0,PURDUE,71.0,0.0,0.0,0.0,0.542,131.0,61.0,0.884,69.0,28.0,536.0,19.1,0.0,0.0,203.0,7.3,1977,0.0,0.0,36.0,1.3
21.0,0.0,0.0,0.0,PURDUE,120.0,0.0,0.0,0.0,0.515,233.0,78.0,0.867,90.0,27.0,975.0,36.1,0.0,0.0,318.0,11.8,1978,0.0,0.0,67.0,2.5
22.0,0.0,0.0,0.0,PURDUE,186.0,0.0,0.0,0.0,0.507,367.0,103.0,0.873,118.0,35.0,1202.0,34.3,0.0,0.0,475.0,13.6,1979,0.0,0.0,97.0,2.8
