age,ast,blk,drb,fg,fg2,fg2a,fg3,fg3a,fga,ft,fta,game_score,lg_id,mp,orb,pf,pts,season,stl,team_id,tov,trb
24.0,0.0,0.0,0.0,0.0,0.0,0.0,0.0,0.0,0.0,0.0,0.0,1.0,NBA,0.0,0.0,0.0,0.0,1981,1.0,IND,0.0,0.0
29.0,8.0,0.0,2.0,5.0,5.0,8.0,0.0,1.0,8.0,1.0,2.0,8.1,NBA,0.0,2.0,3.0,10.0,1986,1.0,BOS,2.0,4.0
30.0,4.0,0.0,2.0,5.0,5.0,10.0,1.0,2.0,11.0,2.0,2.0,9.1,NBA,0.0,1.0,5.0,12.0,1987,2.0,BOS,2.0,3.0
31.0,3.0,0.0,1.0,1.0,1.0,3.0,0.0,0.0,3.0,0.0,0.0,1.3,NBA,0.0,1.0,2.0,2.0,1988,1.0,TOT,0.0,2.0
31.0,3.0,0.0,1.0,1.0,1.0,3.0,0.0,0.0,3.0,0.0,0.0,1.3,NBA,0.0,1.0,2.0,2.0,1988,1.0,POR,0.0,2.0
32.0,1.0,0.0,1.0,0.0,0.0,3.0,0.0,0.0,3.0,0.0,0.0,-1.5,NBA,0.0,0.0,1.0,0.0,1989,0.0,POR,0.0,1.0
