age,ast,blk,drb,efg_pct,fg,fg2,fg2_pct,fg2a,fg3,fg3_pct,fg3a,fg_pct,fga,ft,ft_pct,fta,g,gs,lg_id,mp,orb,pf,pos,pts,season,stl,team_id,tov,trb
24.0,70.0,1.0,32.0,0.358,34.0,34.0,0.378,90.0,0.0,0.0,5.0,0.358,95.0,25.0,0.781,32.0,47.0,0.0,NBA,450.0,11.0,38.0,PG,93.0,1981,23.0,IND,28.0,43.0
25.0,117.0,1.0,41.0,0.472,91.0,90.0,0.486,185.0,1.0,0.111,9.0,0.469,194.0,29.0,0.763,38.0,51.0,0.0,NBA,800.0,14.0,63.0,PG,212.0,1982,33.0,IND,42.0,55.0
26.0,433.0,2.0,122.0,0.48,316.0,313.0,0.487,643.0,3.0,0.167,18.0,0.478,661.0,92.0,0.86,107.0,78.0,58.0,NBA,2435.0,33.0,185.0,PG,727.0,1983,104.0,IND,138.0,155.0
27.0,457.0,8.0,127.0,0.536,397.0,391.0,0.539,726.0,6.0,0.3,20.0,0.532,746.0,117.0,0.867,135.0,80.0,80.0,NBA,2497.0,44.0,179.0,PG,917.0,1984,90.0,IND,144.0,171.0
28.0,264.0,4.0,90.0,0.528,325.0,316.0,0.538,587.0,9.0,0.243,37.0,0.521,624.0,112.0,0.875,128.0,70.0,25.0,NBA,1808.0,24.0,116.0,PG,771.0,1985,47.0,IND,102.0,114.0
29.0,188.0,0.0,77.0,0.578,235.0,229.0,0.578,396.0,6.0,0.375,16.0,0.57,412.0,61.0,0.924,66.0,82.0,7.0,NBA,1596.0,27.0,118.0,PG,537.0,1986,50.0,BOS,73.0,104.0
30.0,187.0,1.0,69.0,0.516,202.0,195.0,0.524,372.0,7.0,0.269,26.0,0.508,398.0,37.0,0.881,42.0,78.0,15.0,NBA,1566.0,22.0,124.0,PG,448.0,1987,40.0,BOS,61.0,91.0
31.0,93.0,0.0,27.0,0.57,93.0,83.0,0.553,150.0,10.0,0.455,22.0,0.541,172.0,17.0,0.739,23.0,52.0,1.0,NBA,694.0,9.0,60.0,PG,213.0,1988,21.0,TOT,22.0,36.0
31.0,60.0,0.0,16.0,0.549,44.0,42.0,0.568,74.0,2.0,0.25,8.0,0.537,82.0,8.0,0.667,12.0,24.0,1.0,NBA,370.0,5.0,30.0,PG,98.0,1988,14.0,BOS,14.0,21.0
31.0,33.0,0.0,11.0,0.589,49.0,41.0,0.539,76.0,8.0,0.571,14.0,0.544,90.0,9.0,0.818,11.0,28.0,0.0,NBA,324.0,4.0,30.0,PG,115.0,1988,7.0,POR,8.0,15.0
32.0,59.0,0.0,20.0,0.457,46.0,43.0,0.467,92.0,3.0,0.25,12.0,0.442,104.0,7.0,0.875,8.0,25.0,1.0,NBA,390.0,9.0,17.0,PG,102.0,1989,15.0,POR,25.0,29.0
33.0,94.0,2.0,16.0,0.412,50.0,47.0,0.416,113.0,3.0,0.25,12.0,0.4,125.0,18.0,0.818,22.0,35.0,8.0,NBA,496.0,3.0,40.0,PG,121.0,1990,16.0,TOT,22.0,19.0
33.0,92.0,2.0,16.0,0.433,50.0,47.0,0.439,107.0,3.0,0.25,12.0,0.42,119.0,15.0,0.833,18.0,34.0,8.0,NBA,469.0,3.0,39.0,PG,118.0,1990,16.0,CHH,22.0,19.0
33.0,2.0,0.0,0.0,0.0,0.0,0.0,0.0,6.0,0.0,0.0,0.0,0.0,6.0,3.0,0.75,4.0,1.0,0.0,NBA,27.0,0.0,1.0,PG,3.0,1990,0.0,MIL,0.0,0.0
