age,ast,blk,drb,fg,fg2,fg2a,fg3,fg3a,fga,ft,fta,game_score,lg_id,mp,orb,pf,pts,season,stl,team_id,tov,trb
23.0,3.0,3.0,6.0,4.0,4.0,9.0,1.0,3.0,10.0,3.0,6.0,10.6,NBA,26,3.0,6.0,11.0,2015,2.0,DEN,3.0,9.0
24.0,4.0,1.0,9.0,10.0,9.0,14.0,2.0,4.0,15.0,4.0,4.0,18.3,NBA,31,6.0,6.0,22.0,2016,2.0,DEN,4.0,13.0
25.0,4.0,1.0,7.0,7.0,6.0,10.0,3.0,4.0,14.0,4.0,8.0,17.1,NBA,30,4.0,6.0,17.0,2017,2.0,TOT,3.0,11.0
25.0,4.0,1.0,7.0,6.0,6.0,10.0,3.0,4.0,14.0,4.0,8.0,17.1,NBA,30,4.0,6.0,17.0,2017,2.0,OKC,3.0,11.0
25.0,4.0,0.0,7.0,7.0,6.0,10.0,3.0,4.0,13.0,2.0,4.0,13.7,NBA,29,3.0,3.0,17.0,2017,1.0,CHI,3.0,9.0
26.0,3.0,1.0,7.0,12.0,12.0,15.0,0.0,1.0,15.0,3.0,4.0,24.1,NBA,26,5.0,6.0,26.0,2018,2.0,SAS,3.0,11.0
