age,avg_dist,fg2_dunk,fg2_pct,fg2_pct_ast,fg2a_pct_fga,fg3_heave,fg3_pct,fg3_pct_ast,fg3_pct_corner,fg3a_heave,fg3a_pct_fga,fg_pct,fg_pct_00_03,fg_pct_03_10,fg_pct_10_16,fg_pct_16_xx,g,lg_id,mp,pct_fg2_dunk,pct_fg3a_corner,pct_fga_00_03,pct_fga_03_10,pct_fga_10_16,pct_fga_16_xx,pos,season,team_id
23.0,8.4,9.0,0.452,0.636,0.82,0.0,0.188,1.0,0.0,1.0,0.18,0.404,0.667,0.125,0.0,0.143,24.0,NBA,268.0,0.112,0.438,0.506,0.18,0.056,0.079,C,2015,DEN
24.0,8.4,37.0,0.557,0.714,0.861,0.0,0.245,0.923,0.2,0.0,0.139,0.513,0.643,0.489,0.35,0.508,59.0,NBA,1041.0,0.116,0.377,0.405,0.247,0.053,0.155,C,2016,DEN
25.0,10.9,27.0,0.483,0.696,0.708,0.0,0.337,1.0,0.429,1.0,0.292,0.44,0.6,0.348,0.583,0.231,70.0,NBA,980.0,0.086,0.286,0.387,0.205,0.036,0.077,PF-C,2017,TOT
25.0,11.4,22.0,0.506,0.69,0.68,0.0,0.346,1.0,0.455,1.0,0.32,0.455,0.607,0.38,0.625,0.316,50.0,NBA,739.0,0.09,0.282,0.365,0.205,0.033,0.078,PF,2017,OKC
25.0,9.4,5.0,0.431,0.71,0.783,0.0,0.3,1.0,0.333,0.0,0.217,0.402,0.585,0.263,0.5,0.0,20.0,NBA,241.0,0.076,0.3,0.446,0.207,0.043,0.076,C,2017,CHI
26.0,4.5,21.0,0.53,0.643,0.974,0.0,0.0,0.0,0.0,1.0,0.026,0.516,0.66,0.353,0.333,0.6,55.0,NBA,534.0,0.132,0.6,0.542,0.358,0.047,0.026,C,2018,SAS
