age,ast,blk,drb,fg,fg2,fg2a,fg3,fg3a,fga,ft,fta,game_score,lg_id,mp,orb,pf,pts,season,stl,team_id,tov,trb
20.0,1.0,2.0,3.0,6.0,6.0,9.0,0.0,0.0,9.0,2.0,4.0,10.3,NBA,0.0,5.0,4.0,13.0,1996,0.0,BOS,1.0,6.0
24.0,4.0,3.0,8.0,6.0,6.0,11.0,0.0,0.0,11.0,3.0,3.0,14.0,NBA,0.0,6.0,3.0,12.0,2000,1.0,HOU,3.0,13.0
