age,ast,blk,drb,fg,fg2,fg2a,fg3,fg3a,fga,ft,fta,game_score,lg_id,mp,orb,pf,pts,season,stl,team_id,tov,trb
22.0,3.0,1.0,4.0,2.0,2.0,3.0,0.0,2.0,5.0,1.0,2.0,1.1,NBA,22,1.0,0.0,4.0,2011,2.0,NYK,3.0,4.0
23.0,2.0,0.0,4.0,5.0,5.0,7.0,1.0,3.0,8.0,2.0,3.0,10.5,NBA,35,2.0,2.0,12.0,2012,3.0,NYK,3.0,5.0
25.0,1.0,1.0,3.0,0.0,0.0,2.0,0.0,0.0,2.0,0.0,0.0,3.6,NBA,18,1.0,1.0,0.0,2014,2.0,TOR,1.0,4.0
