age,ast_per_poss,blk_per_poss,def_rtg,drb_per_poss,fg2_pct,fg2_per_poss,fg2a_per_poss,fg3_pct,fg3_per_poss,fg3a_per_poss,fg_pct,fg_per_poss,fga_per_poss,ft_pct,ft_per_poss,fta_per_poss,g,gs,lg_id,mp,off_rtg,orb_per_poss,pf_per_poss,pos,pts_per_poss,season,stl_per_poss,team_id,tov_per_poss,trb_per_poss
23.0,1.8,0.0,113.0,3.6,0.385,2.2,5.8,0.444,3.6,8.0,0.419,5.8,13.8,0.833,2.2,2.7,5.0,5.0,NBA,125.0,116.0,0.9,2.7,SG,17.4,2011,1.3,PHI,0.9,4.5
24.0,2.1,0.5,103.0,1.1,0.462,3.2,6.9,0.231,1.6,6.9,0.346,4.8,13.8,1.0,7.4,7.4,13.0,1.0,NBA,102.0,108.0,1.1,5.9,SG,18.6,2012,1.6,PHI,2.1,2.1
25.0,0.0,0.0,114.0,2.6,0.5,2.6,5.2,0.0,0.0,5.2,0.25,2.6,10.4,1.0,5.2,5.2,1.0,0.0,NBA,20.0,68.0,2.6,5.2,SG,10.4,2013,2.6,LAL,5.2,5.2
28.0,0.0,0.0,128.0,0.0,1.0,27.6,27.6,0.0,0.0,0.0,1.0,27.6,27.6,0.0,0.0,0.0,1.0,0.0,NBA,2.0,200.0,0.0,0.0,SG,55.3,2016,0.0,DET,0.0,0.0
31.0,0.8,0.8,102.0,6.8,0.438,5.3,12.1,0.154,1.5,9.8,0.31,6.8,22.0,0.667,1.5,2.3,14.0,0.0,NBA,66.0,68.0,0.0,5.3,SG,16.7,2019,3.0,TOR,2.3,6.8
