age,ast_per_poss,blk_per_poss,def_rtg,drb_per_poss,fg2_pct,fg2_per_poss,fg2a_per_poss,fg3_pct,fg3_per_poss,fg3a_per_poss,fg_pct,fg_per_poss,fga_per_poss,ft_pct,ft_per_poss,fta_per_poss,g,gs,lg_id,mp,off_rtg,orb_per_poss,pf_per_poss,pos,pts_per_poss,season,stl_per_poss,team_id,tov_per_poss,trb_per_poss
22.0,2.8,0.4,107.0,6.6,0.456,4.5,9.9,0.318,3.1,9.6,0.388,7.6,19.5,0.795,2.3,2.8,60.0,0.0,NBA,719.0,100.0,0.7,3.8,SG,20.5,2010,1.3,TOT,1.8,7.2
22.0,2.4,0.4,104.0,7.2,0.432,4.4,10.2,0.28,2.5,8.8,0.362,6.9,19.1,0.857,1.9,2.3,41.0,0.0,NBA,486.0,91.0,0.5,3.6,SG,18.2,2010,1.4,MIL,2.2,7.8
22.0,3.8,0.2,114.0,5.2,0.512,4.7,9.2,0.38,4.3,11.2,0.44,9.0,20.5,0.722,2.9,4.0,19.0,0.0,NBA,233.0,119.0,0.9,4.3,SG,25.2,2010,1.1,PHI,1.1,6.1
23.0,2.0,0.1,108.0,3.8,0.468,2.6,5.6,0.397,3.5,8.8,0.425,6.1,14.5,0.894,3.9,4.3,74.0,64.0,NBA,2062.0,116.0,0.5,2.5,SG,19.7,2011,1.6,PHI,1.5,4.3
24.0,1.8,0.1,103.0,4.7,0.468,3.1,6.5,0.365,3.2,8.7,0.409,6.2,15.2,0.906,2.5,2.8,66.0,50.0,NBA,1644.0,111.0,0.6,2.7,SG,18.1,2012,1.3,PHI,0.9,5.2
25.0,2.1,0.2,109.0,4.1,0.441,2.5,5.7,0.357,3.7,10.5,0.387,6.3,16.2,0.896,2.6,2.9,78.0,10.0,NBA,1663.0,109.0,1.1,3.1,SG,18.9,2013,1.8,LAL,1.6,5.2
26.0,2.6,0.1,113.0,3.1,0.514,4.8,9.3,0.401,3.1,7.7,0.463,7.9,17.0,0.857,4.2,4.9,77.0,70.0,NBA,2556.0,112.0,0.6,2.3,SG,23.0,2014,2.1,LAL,2.1,3.7
27.0,2.8,0.2,109.0,3.3,0.46,5.2,11.4,0.349,2.6,7.5,0.416,7.9,18.9,0.906,5.1,5.7,60.0,0.0,NBA,1462.0,110.0,0.4,2.7,SG,23.5,2015,2.1,DET,2.0,3.7
28.0,3.5,0.0,111.0,4.7,0.273,3.5,12.9,0.444,4.7,10.6,0.35,8.2,23.5,1.0,4.7,4.7,3.0,0.0,NBA,43.0,111.0,1.2,2.3,SG,25.8,2016,0.0,DET,1.2,5.9
29.0,3.0,0.3,111.0,4.8,0.395,3.2,8.0,0.409,3.8,9.2,0.402,6.9,17.2,0.878,4.4,5.0,36.0,10.0,NBA,738.0,107.0,0.3,2.8,SG,22.0,2017,2.3,ORL,2.4,5.2
30.0,3.1,0.2,112.0,4.9,0.464,3.8,8.1,0.343,3.2,9.3,0.399,7.0,17.4,0.863,4.5,5.2,77.0,0.0,NBA,1119.0,111.0,0.7,2.4,SG,21.6,2018,1.3,WAS,1.6,5.6
31.0,3.7,0.5,112.0,5.1,0.619,6.0,9.7,0.444,3.7,8.3,0.538,9.7,18.0,1.0,0.5,0.5,8.0,0.0,NBA,104.0,127.0,0.5,2.3,SG,23.5,2019,0.5,TOR,0.9,5.5
