age,and1s,astd_pts,drawn_offensive,drawn_shooting,fouls_offensive,fouls_shooting,g,lg_id,mp,own_shots_blk,pct_1,pct_2,pct_3,pct_4,pct_5,plus_minus_net,plus_minus_on,pos,season,team_id,tov_bad_pass,tov_lost_ball
22.0,2.0,90.0,5.0,11.0,0.0,34.0,60.0,NBA,719.0,14.0,1.0,63.0,35.0,1.0,0.0,-1.5,-2.8,SG,2010,TOT,13.0,8.0
22.0,1.0,51.0,4.0,5.0,0.0,21.0,41.0,NBA,486.0,13.0,0.0,61.0,38.0,1.0,0.0,-2.1,0.1,SG,2010,MIL,8.0,8.0
22.0,1.0,39.0,1.0,6.0,0.0,13.0,19.0,NBA,233.0,1.0,2.0,68.0,30.0,0.0,0.0,-4.7,-9.2,SG,2010,PHI,5.0,0.0
23.0,10.0,175.0,15.0,53.0,4.0,45.0,74.0,NBA,2062.0,30.0,4.0,92.0,4.0,0.0,0.0,2.1,2.7,SG,2011,PHI,27.0,22.0
24.0,8.0,118.0,7.0,35.0,5.0,25.0,66.0,NBA,1644.0,24.0,6.0,89.0,5.0,0.0,0.0,1.2,5.4,SG,2012,PHI,17.0,4.0
25.0,6.0,158.0,10.0,31.0,0.0,51.0,78.0,NBA,1663.0,34.0,7.0,84.0,9.0,0.0,0.0,1.6,2.6,SG,2013,LAL,22.0,19.0
26.0,33.0,325.0,9.0,108.0,7.0,49.0,77.0,NBA,2556.0,56.0,19.0,79.0,2.0,0.0,0.0,-8.3,-9.0,SG,2014,LAL,53.0,41.0
27.0,16.0,179.0,4.0,68.0,3.0,33.0,60.0,NBA,1462.0,20.0,0.0,100.0,0.0,0.0,0.0,-3.5,-3.6,SG,2015,DET,24.0,27.0
28.0,0.0,7.0,0.0,2.0,0.0,0.0,3.0,NBA,43.0,2.0,0.0,100.0,0.0,0.0,0.0,7.1,7.4,SG,2016,DET,0.0,1.0
29.0,3.0,111.0,7.0,32.0,1.0,26.0,36.0,NBA,738.0,12.0,0.0,91.0,9.0,0.0,0.0,1.4,-5.7,SG,2017,ORL,22.0,9.0
30.0,6.0,158.0,5.0,46.0,1.0,26.0,77.0,NBA,1119.0,20.0,39.0,57.0,4.0,0.0,0.0,-9.0,-5.7,SG,2018,WAS,22.0,10.0
31.0,0.0,19.0,0.0,0.0,0.0,3.0,8.0,NBA,104.0,2.0,1.0,56.0,42.0,0.0,0.0,0.3,6.2,SG,2019,TOR,1.0,1.0
