age,ast,ast_per_g,blk,college_id,fg,fg3,fg3_pct,fg3a,fg_pct,fga,ft,ft_pct,fta,g,mp,mp_per_g,orb,pf,pts,pts_per_g,season,stl,tov,trb,trb_per_g
18.0,4.0,0.2,0.0,CALSTFULL,9.0,3.0,0.6,5.0,0.409,22.0,10.0,0.769,13.0,18.0,98.0,5.4,0.0,0.0,31.0,1.7,1990,0.0,0.0,18.0,1.0
19.0,75.0,2.7,0.0,CALSTFULL,89.0,14.0,0.233,60.0,0.377,236.0,83.0,0.692,120.0,28.0,849.0,30.3,0.0,0.0,275.0,9.8,1991,0.0,0.0,169.0,6.0
20.0,75.0,2.7,0.0,CALSTFULL,138.0,12.0,0.273,44.0,0.444,311.0,120.0,0.745,161.0,28.0,969.0,34.6,0.0,0.0,408.0,14.6,1992,0.0,0.0,196.0,7.0
21.0,62.0,2.3,0.0,CALSTFULL,148.0,14.0,0.326,43.0,0.465,318.0,131.0,0.652,201.0,27.0,987.0,36.6,0.0,0.0,441.0,16.3,1993,0.0,0.0,176.0,6.5
