age,ast,blk,drb,efg_pct,fg,fg2,fg2_pct,fg2a,fg3,fg3_pct,fg3a,fg_pct,fga,ft,ft_pct,fta,g,gs,lg_id,mp,orb,pf,pos,pts,season,stl,team_id,tov,trb
25.0,0.0,1.0,0.0,0.0,0.0,0.0,0.0,0.0,0.0,0.0,0.0,0.0,0.0,0.0,0.0,0.0,1.0,0.0,NBA,1.0,0.0,0.0,SF,0.0,1997,0.0,MIA,0.0,0.0
26.0,81.0,29.0,95.0,0.443,122.0,102.0,0.427,239.0,20.0,0.339,59.0,0.409,298.0,76.0,0.623,122.0,61.0,9.0,NBA,1305.0,79.0,174.0,SF,340.0,1998,87.0,BOS,52.0,174.0
27.0,28.0,9.0,37.0,0.317,26.0,19.0,0.284,67.0,7.0,0.269,26.0,0.28,93.0,11.0,0.458,24.0,30.0,1.0,NBA,494.0,15.0,51.0,SF,70.0,1999,21.0,BOS,13.0,52.0
28.0,34.0,15.0,69.0,0.441,72.0,45.0,0.331,136.0,27.0,0.466,58.0,0.371,194.0,25.0,0.581,43.0,69.0,2.0,NBA,878.0,27.0,118.0,SF,196.0,2000,23.0,TOT,19.0,96.0
28.0,16.0,5.0,22.0,0.363,26.0,25.0,0.352,71.0,1.0,0.5,2.0,0.356,73.0,6.0,0.5,12.0,42.0,0.0,NBA,311.0,14.0,37.0,SF,59.0,2000,9.0,PHI,5.0,36.0
28.0,18.0,10.0,47.0,0.488,46.0,20.0,0.308,65.0,26.0,0.464,56.0,0.38,121.0,19.0,0.613,31.0,27.0,2.0,NBA,567.0,13.0,81.0,SF,137.0,2000,14.0,MIA,14.0,60.0
29.0,132.0,53.0,200.0,0.452,211.0,108.0,0.394,274.0,103.0,0.336,307.0,0.363,581.0,98.0,0.609,161.0,82.0,72.0,NBA,2685.0,45.0,269.0,SF,623.0,2001,83.0,MIA,74.0,245.0
30.0,88.0,25.0,120.0,0.46,155.0,99.0,0.396,250.0,56.0,0.378,148.0,0.389,398.0,46.0,0.479,96.0,59.0,59.0,NBA,1699.0,42.0,116.0,SF,412.0,2002,62.0,SAS,66.0,162.0
31.0,113.0,42.0,180.0,0.571,223.0,122.0,0.488,250.0,101.0,0.441,229.0,0.466,479.0,36.0,0.404,89.0,82.0,82.0,NBA,2566.0,59.0,195.0,SF,583.0,2003,66.0,SAS,72.0,239.0
32.0,113.0,33.0,208.0,0.497,211.0,134.0,0.462,290.0,77.0,0.363,212.0,0.42,502.0,66.0,0.579,114.0,82.0,82.0,NBA,2624.0,45.0,166.0,SF,565.0,2004,84.0,SAS,90.0,253.0
33.0,126.0,39.0,235.0,0.505,251.0,149.0,0.432,345.0,102.0,0.403,253.0,0.42,598.0,71.0,0.634,112.0,82.0,82.0,NBA,2627.0,50.0,175.0,SF,675.0,2005,55.0,SAS,57.0,285.0
34.0,126.0,30.0,285.0,0.53,232.0,128.0,0.44,291.0,104.0,0.424,245.0,0.433,536.0,51.0,0.607,84.0,82.0,82.0,NBA,2755.0,35.0,191.0,SF,619.0,2006,79.0,SAS,67.0,320.0
35.0,117.0,25.0,200.0,0.5,189.0,100.0,0.426,235.0,89.0,0.384,232.0,0.405,467.0,43.0,0.589,73.0,82.0,82.0,NBA,2464.0,23.0,175.0,SF,510.0,2007,62.0,SAS,65.0,223.0
36.0,91.0,22.0,201.0,0.512,174.0,84.0,0.394,213.0,90.0,0.419,215.0,0.407,428.0,45.0,0.652,69.0,81.0,81.0,NBA,2448.0,33.0,177.0,SF,483.0,2008,54.0,SAS,46.0,234.0
37.0,40.0,13.0,129.0,0.535,79.0,37.0,0.416,89.0,42.0,0.429,98.0,0.422,187.0,14.0,0.538,26.0,80.0,10.0,NBA,1506.0,16.0,123.0,SF,214.0,2009,36.0,SAS,25.0,145.0
