age,ast,blk,drb,fg,fg2,fg2a,fg3,fg3a,fga,ft,fta,game_score,lg_id,mp,orb,pf,pts,season,stl,team_id,tov,trb
25.0,0.0,1.0,0.0,0.0,0.0,0.0,0.0,0.0,0.0,0.0,0.0,0.7,NBA,0.0,0.0,0.0,0.0,1997,0.0,MIA,0.0,0.0
26.0,5.0,4.0,5.0,6.0,6.0,10.0,2.0,4.0,12.0,6.0,9.0,17.1,NBA,0.0,5.0,5.0,16.0,1998,5.0,BOS,3.0,9.0
27.0,5.0,2.0,5.0,4.0,3.0,5.0,1.0,3.0,7.0,3.0,5.0,7.1,NBA,0.0,2.0,6.0,10.0,1999,3.0,BOS,4.0,7.0
28.0,3.0,2.0,5.0,6.0,4.0,7.0,4.0,5.0,8.0,4.0,6.0,16.9,NBA,0.0,2.0,5.0,16.0,2000,3.0,TOT,3.0,6.0
28.0,3.0,2.0,3.0,4.0,4.0,7.0,1.0,1.0,7.0,2.0,4.0,9.1,NBA,0.0,2.0,4.0,10.0,2000,2.0,PHI,1.0,3.0
28.0,2.0,2.0,5.0,6.0,4.0,5.0,4.0,5.0,8.0,4.0,6.0,16.9,NBA,0.0,2.0,5.0,16.0,2000,3.0,MIA,3.0,6.0
29.0,5.0,4.0,7.0,7.0,5.0,11.0,6.0,12.0,16.0,6.0,8.0,13.4,NBA,0.0,4.0,6.0,20.0,2001,6.0,MIA,4.0,8.0
30.0,6.0,3.0,6.0,8.0,4.0,13.0,4.0,5.0,15.0,3.0,6.0,22.0,NBA,0.0,3.0,5.0,21.0,2002,4.0,SAS,4.0,7.0
31.0,7.0,2.0,6.0,9.0,6.0,8.0,4.0,7.0,13.0,3.0,6.0,18.9,NBA,0.0,4.0,5.0,21.0,2003,5.0,SAS,4.0,7.0
32.0,5.0,2.0,8.0,7.0,5.0,8.0,3.0,8.0,12.0,4.0,7.0,14.3,NBA,0.0,4.0,6.0,16.0,2004,4.0,SAS,5.0,11.0
33.0,8.0,2.0,6.0,9.0,5.0,10.0,5.0,11.0,19.0,5.0,7.0,18.4,NBA,0.0,3.0,5.0,24.0,2005,3.0,SAS,3.0,8.0
34.0,5.0,3.0,11.0,7.0,6.0,10.0,5.0,9.0,14.0,4.0,6.0,15.1,NBA,44.0,3.0,5.0,17.0,2006,5.0,SAS,3.0,11.0
35.0,6.0,2.0,8.0,7.0,4.0,7.0,6.0,9.0,12.0,5.0,6.0,20.8,NBA,44.0,3.0,6.0,23.0,2007,4.0,SAS,5.0,9.0
36.0,3.0,2.0,8.0,8.0,4.0,7.0,6.0,7.0,13.0,4.0,6.0,18.9,NBA,43.0,3.0,5.0,23.0,2008,3.0,SAS,3.0,9.0
37.0,4.0,2.0,6.0,5.0,3.0,6.0,3.0,5.0,8.0,6.0,8.0,11.2,NBA,39.0,3.0,6.0,13.0,2009,3.0,SAS,2.0,7.0
