age,ast_per_g,blk_per_g,drb_per_g,efg_pct,fg2_pct,fg2_per_g,fg2a_per_g,fg3_pct,fg3_per_g,fg3a_per_g,fg_pct,fg_per_g,fga_per_g,ft_pct,ft_per_g,fta_per_g,g,gs,lg_id,mp_per_g,orb_per_g,pf_per_g,pos,pts_per_g,season,stl_per_g,team_id,tov_per_g,trb_per_g
25.0,0.0,1.0,0.0,0.0,0.0,0.0,0.0,0.0,0.0,0.0,0.0,0.0,0.0,0.0,0.0,0.0,1.0,0.0,NBA,1.0,0.0,0.0,SF,0.0,1997,0.0,MIA,0.0,0.0
26.0,1.3,0.5,1.6,0.443,0.427,1.7,3.9,0.339,0.3,1.0,0.409,2.0,4.9,0.623,1.2,2.0,61.0,9.0,NBA,21.4,1.3,2.9,SF,5.6,1998,1.4,BOS,0.9,2.9
27.0,0.9,0.3,1.2,0.317,0.284,0.6,2.2,0.269,0.2,0.9,0.28,0.9,3.1,0.458,0.4,0.8,30.0,1.0,NBA,16.5,0.5,1.7,SF,2.3,1999,0.7,BOS,0.4,1.7
28.0,0.5,0.2,1.0,0.441,0.331,0.7,2.0,0.466,0.4,0.8,0.371,1.0,2.8,0.581,0.4,0.6,69.0,2.0,NBA,12.7,0.4,1.7,SF,2.8,2000,0.3,TOT,0.3,1.4
28.0,0.4,0.1,0.5,0.363,0.352,0.6,1.7,0.5,0.0,0.0,0.356,0.6,1.7,0.5,0.1,0.3,42.0,0.0,NBA,7.4,0.3,0.9,SF,1.4,2000,0.2,PHI,0.1,0.9
28.0,0.7,0.4,1.7,0.488,0.308,0.7,2.4,0.464,1.0,2.1,0.38,1.7,4.5,0.613,0.7,1.1,27.0,2.0,NBA,21.0,0.5,3.0,SF,5.1,2000,0.5,MIA,0.5,2.2
29.0,1.6,0.6,2.4,0.452,0.394,1.3,3.3,0.336,1.3,3.7,0.363,2.6,7.1,0.609,1.2,2.0,82.0,72.0,NBA,32.7,0.5,3.3,SF,7.6,2001,1.0,MIA,0.9,3.0
30.0,1.5,0.4,2.0,0.46,0.396,1.7,4.2,0.378,0.9,2.5,0.389,2.6,6.7,0.479,0.8,1.6,59.0,59.0,NBA,28.8,0.7,2.0,SF,7.0,2002,1.1,SAS,1.1,2.7
31.0,1.4,0.5,2.2,0.571,0.488,1.5,3.0,0.441,1.2,2.8,0.466,2.7,5.8,0.404,0.4,1.1,82.0,82.0,NBA,31.3,0.7,2.4,SF,7.1,2003,0.8,SAS,0.9,2.9
32.0,1.4,0.4,2.5,0.497,0.462,1.6,3.5,0.363,0.9,2.6,0.42,2.6,6.1,0.579,0.8,1.4,82.0,82.0,NBA,32.0,0.5,2.0,SF,6.9,2004,1.0,SAS,1.1,3.1
33.0,1.5,0.5,2.9,0.505,0.432,1.8,4.2,0.403,1.2,3.1,0.42,3.1,7.3,0.634,0.9,1.4,82.0,82.0,NBA,32.0,0.6,2.1,SF,8.2,2005,0.7,SAS,0.7,3.5
34.0,1.5,0.4,3.5,0.53,0.44,1.6,3.5,0.424,1.3,3.0,0.433,2.8,6.5,0.607,0.6,1.0,82.0,82.0,NBA,33.6,0.4,2.3,SF,7.5,2006,1.0,SAS,0.8,3.9
35.0,1.4,0.3,2.4,0.5,0.426,1.2,2.9,0.384,1.1,2.8,0.405,2.3,5.7,0.589,0.5,0.9,82.0,82.0,NBA,30.0,0.3,2.1,SF,6.2,2007,0.8,SAS,0.8,2.7
36.0,1.1,0.3,2.5,0.512,0.394,1.0,2.6,0.419,1.1,2.7,0.407,2.1,5.3,0.652,0.6,0.9,81.0,81.0,NBA,30.2,0.4,2.2,SF,6.0,2008,0.7,SAS,0.6,2.9
37.0,0.5,0.2,1.6,0.535,0.416,0.5,1.1,0.429,0.5,1.2,0.422,1.0,2.3,0.538,0.2,0.3,80.0,10.0,NBA,18.8,0.2,1.5,SF,2.7,2009,0.5,SAS,0.3,1.8
