age,ast,ast_per_g,blk,college_id,fg,fg3,fg3_pct,fg3a,fg_pct,fga,ft,ft_pct,fta,g,mp,mp_per_g,orb,pf,pts,pts_per_g,season,stl,tov,trb,trb_per_g
19.0,18.0,0.5,16.0,STANFORD,44.0,1.0,0.2,5.0,0.53,83.0,39.0,0.609,64.0,34.0,0.0,0.0,0.0,0.0,128.0,3.8,1998,17.0,0.0,119.0,3.5
20.0,53.0,1.8,9.0,STANFORD,58.0,0.0,0.0,1.0,0.496,117.0,60.0,0.594,101.0,30.0,516.0,17.2,0.0,70.0,176.0,5.9,1999,16.0,30.0,157.0,5.2
21.0,53.0,1.7,24.0,STANFORD,114.0,1.0,0.25,4.0,0.485,235.0,113.0,0.72,157.0,31.0,850.0,27.4,0.0,76.0,342.0,11.0,2000,19.0,46.0,201.0,6.5
22.0,47.0,1.4,19.0,STANFORD,154.0,2.0,0.333,6.0,0.558,276.0,125.0,0.687,182.0,34.0,963.0,28.3,0.0,86.0,435.0,12.8,2001,21.0,50.0,229.0,6.7
