age,ast_per_poss,blk_per_poss,def_rtg,drb_per_poss,fg2_pct,fg2_per_poss,fg2a_per_poss,fg3_pct,fg3_per_poss,fg3a_per_poss,fg_pct,fg_per_poss,fga_per_poss,ft_pct,ft_per_poss,fta_per_poss,g,gs,lg_id,mp,off_rtg,orb_per_poss,pf_per_poss,pos,pts_per_poss,season,stl_per_poss,team_id,tov_per_poss,trb_per_poss
23.0,0.0,0.0,108.0,3.4,0.556,11.4,20.6,0.0,0.0,0.0,0.556,11.4,20.6,1.0,2.3,2.3,4.0,4.0,NBA,47.0,98.0,4.6,12.6,C,25.2,2002,0.0,UTA,4.6,8.0
28.0,2.4,0.0,107.0,5.8,0.333,1.4,4.3,0.0,0.0,0.0,0.333,1.4,4.3,0.529,4.3,8.2,13.0,0.0,NBA,110.0,118.0,3.8,10.1,C,7.2,2007,1.9,UTA,0.5,9.6
29.0,2.7,2.7,105.0,8.1,0.0,0.0,8.1,0.0,0.0,0.0,0.0,0.0,8.1,0.0,0.0,0.0,5.0,0.0,NBA,20.0,74.0,8.1,5.4,C,0.0,2008,2.7,UTA,0.0,16.2
30.0,1.5,0.0,114.0,8.8,0.2,1.5,7.3,0.0,0.0,0.0,0.2,1.5,7.3,0.75,8.8,11.7,3.0,3.0,NBA,35.0,128.0,5.9,13.2,C,11.7,2009,1.5,UTA,0.0,14.7
31.0,0.0,0.5,117.0,3.7,0.333,2.3,6.9,0.0,0.0,0.0,0.333,2.3,6.9,1.0,0.9,0.9,11.0,10.0,NBA,115.0,93.0,4.1,10.1,C,5.5,2010,0.5,PHO,1.4,7.8
