age,ast_per_mp,blk_per_mp,drb_per_mp,fg2_pct,fg2_per_mp,fg2a_per_mp,fg3_pct,fg3_per_mp,fg3a_per_mp,fg_pct,fg_per_mp,fga_per_mp,ft_pct,ft_per_mp,fta_per_mp,g,gs,lg_id,mp,orb_per_mp,pf_per_mp,pos,pts_per_mp,season,stl_per_mp,team_id,tov_per_mp,trb_per_mp
28.0,1.1,0.9,3.4,0.341,3.2,9.4,0.222,0.4,1.9,0.321,3.6,11.3,0.795,6.6,8.3,27.0,2.0,NBA,169.0,3.4,4.9,C,14.3,1998,2.1,CHH,1.9,6.8
30.0,2.2,0.5,5.3,0.444,3.6,8.0,0.182,0.2,1.3,0.407,3.8,9.4,0.766,6.1,8.0,74.0,9.0,NBA,1199.0,3.5,5.0,PF,14.0,2000,2.0,GSW,2.5,8.9
