age,ast_per_poss,blk_per_poss,def_rtg,drb_per_poss,fg2_pct,fg2_per_poss,fg2a_per_poss,fg3_pct,fg3_per_poss,fg3a_per_poss,fg_pct,fg_per_poss,fga_per_poss,ft_pct,ft_per_poss,fta_per_poss,g,gs,lg_id,mp,off_rtg,orb_per_poss,pf_per_poss,pos,pts_per_poss,season,stl_per_poss,team_id,tov_per_poss,trb_per_poss
28.0,1.6,1.3,103.0,5.1,0.341,4.8,14.0,0.222,0.6,2.9,0.321,5.4,16.8,0.795,9.8,12.4,27.0,2.0,NBA,169.0,104.0,5.1,7.3,C,21.3,1998,3.2,CHH,2.9,10.2
30.0,3.1,0.7,106.0,7.4,0.444,5.0,11.2,0.182,0.3,1.8,0.407,5.3,13.1,0.766,8.5,11.1,74.0,9.0,NBA,1199.0,109.0,5.0,7.0,PF,19.5,2000,2.8,GSW,3.4,12.4
