age,and1s,astd_pts,drawn_offensive,drawn_shooting,fouls_offensive,fouls_shooting,g,lg_id,mp,own_shots_blk,pct_1,pct_2,pct_3,pct_4,pct_5,plus_minus_net,plus_minus_on,pos,season,team_id,tov_bad_pass,tov_lost_ball
34.0,13.0,636.0,0.0,71.0,11.0,36.0,54.0,NBA,1371.0,27.0,95.0,6.0,0.0,0.0,0.0,-6.6,-6.9,PG,2001,TOT,61.0,27.0
34.0,13.0,483.0,0.0,63.0,7.0,29.0,33.0,NBA,1020.0,20.0,98.0,2.0,0.0,0.0,0.0,0.3,-7.0,PG,2001,WAS,47.0,22.0
34.0,0.0,153.0,0.0,8.0,4.0,7.0,21.0,NBA,351.0,7.0,84.0,16.0,0.0,0.0,0.0,-11.9,-6.3,PG,2001,POR,14.0,5.0
35.0,22.0,1005.0,0.0,75.0,7.0,47.0,76.0,NBA,2294.0,32.0,83.0,16.0,1.0,0.0,0.0,8.6,1.8,PG,2002,MIA,100.0,40.0
36.0,5.0,455.0,0.0,41.0,7.0,20.0,47.0,NBA,956.0,11.0,90.0,10.0,0.0,0.0,0.0,0.4,2.6,PG,2003,MIN,42.0,16.0
37.0,2.0,531.0,0.0,37.0,4.0,36.0,61.0,NBA,1197.0,12.0,99.0,1.0,0.0,0.0,0.0,-0.4,-6.0,PG,2004,TOT,51.0,27.0
37.0,2.0,402.0,0.0,29.0,2.0,30.0,46.0,NBA,915.0,10.0,99.0,1.0,0.0,0.0,0.0,3.0,-5.5,PG,2004,ORL,40.0,23.0
37.0,0.0,129.0,0.0,8.0,2.0,6.0,15.0,NBA,282.0,2.0,100.0,0.0,0.0,0.0,0.0,-4.6,-7.7,PG,2004,TOR,11.0,4.0
38.0,0.0,87.0,0.0,3.0,0.0,6.0,16.0,NBA,196.0,3.0,100.0,0.0,0.0,0.0,0.0,2.8,7.5,PG,2005,HOU,12.0,4.0
