article_url,date,headline
https://spacecityscoop.com/2019/11/07/houston-rockets-russell-westbrook-assists/,2019/11/07,Space City Scoop: Rockets: How high can Russell Westbrook climb up the all-time assists list?
https://ripcityproject.com/2019/08/16/best-portland-trail-blazers-player-never-become-star/,2019/08/16,Rip City Project: Who is the best Portland Trail Blazer to never become an All-Star?
