age,ast_pct,blk_pct,bpm,bpm-dum,dbpm,drb_pct,dws,fg3a_per_fga_pct,fta_per_fga_pct,g,lg_id,mp,obpm,orb_pct,ows,per,pos,season,stl_pct,team_id,tov_pct,trb_pct,ts_pct,usg_pct,vorp,ws,ws-dum,ws_per_48
22.0,31.8,0.1,0.5,0.0,-0.7,9.1,1.5,0.104,0.407,81.0,NBA,1358.0,1.2,4.1,2.2,18.0,PG,1989,3.3,NYK,18.1,6.5,0.539,23.3,0.9,3.7,0.0,0.131
23.0,31.2,0.4,0.7,0.0,0.2,8.6,2.6,0.04,0.368,82.0,NBA,2140.0,0.4,4.8,1.6,15.7,PG,1990,2.9,TOT,16.2,6.8,0.494,20.4,1.4,4.3,0.0,0.095
23.0,30.7,0.5,0.0,0.0,0.1,8.8,1.2,0.054,0.337,51.0,NBA,1019.0,-0.2,4.8,0.6,15.9,PG,1990,3.4,NYK,16.1,6.9,0.484,21.6,0.5,1.8,0.0,0.083
23.0,31.5,0.3,1.3,0.0,0.3,8.4,1.5,0.024,0.4,31.0,NBA,1121.0,1.0,4.9,1.0,15.4,PG,1990,2.5,SAS,16.3,6.7,0.504,19.2,0.9,2.5,0.0,0.107
24.0,31.5,0.3,1.8,0.0,0.7,8.2,3.1,0.051,0.324,58.0,NBA,2076.0,1.2,3.2,2.7,16.2,PG,1991,2.7,SAS,17.3,5.8,0.538,18.1,2.0,5.7,0.0,0.132
25.0,33.8,0.5,2.5,0.0,1.1,9.1,2.9,0.023,0.402,57.0,NBA,2053.0,1.4,4.9,2.3,16.9,PG,1992,2.9,SAS,17.1,7.0,0.507,19.2,2.4,5.2,0.0,0.123
26.0,33.0,0.6,2.8,0.0,0.9,9.9,3.3,0.037,0.467,78.0,NBA,2474.0,1.9,5.1,4.1,18.0,SG,1993,2.6,POR,16.8,7.4,0.543,19.7,3.0,7.4,0.0,0.143
27.0,38.2,0.5,3.4,0.0,0.2,9.8,3.0,0.009,0.431,82.0,NBA,2889.0,3.2,4.4,6.3,19.8,PG,1994,2.5,POR,16.5,7.0,0.543,22.0,3.9,9.3,0.0,0.155
28.0,39.9,0.3,5.0,0.0,1.0,12.8,3.2,0.13,0.402,64.0,NBA,2267.0,4.1,3.5,5.3,21.6,PG,1995,2.8,POR,15.8,7.9,0.544,24.6,4.0,8.5,0.0,0.179
29.0,43.4,0.5,3.0,0.0,0.3,9.3,3.3,0.109,0.413,67.0,NBA,2526.0,2.6,4.0,3.8,19.1,PG,1996,2.0,POR,17.4,6.7,0.519,25.4,3.2,7.1,0.0,0.136
30.0,38.1,0.3,1.9,0.0,-0.3,9.2,3.3,0.07,0.45,82.0,NBA,2997.0,2.2,3.8,5.5,19.7,PG,1997,2.5,WSB,16.9,6.5,0.533,23.9,2.9,8.8,0.0,0.141
31.0,43.1,0.6,2.6,0.0,0.1,11.4,3.0,0.042,0.435,76.0,NBA,3020.0,2.5,4.1,5.1,19.6,PG,1998,2.2,WAS,16.5,7.6,0.501,23.7,3.5,8.1,0.0,0.129
32.0,45.9,0.2,2.8,0.0,-0.3,11.4,1.3,0.07,0.391,44.0,NBA,1632.0,3.1,3.9,2.8,20.2,PG,1999,2.5,WAS,16.7,7.6,0.488,24.0,2.0,4.1,0.0,0.12
33.0,38.9,0.6,0.5,0.0,-0.7,9.9,1.3,0.028,0.4,69.0,NBA,2188.0,1.2,3.8,2.4,17.1,PG,2000,2.2,WAS,17.3,6.8,0.485,22.0,1.4,3.7,0.0,0.081
34.0,37.1,0.3,-1.8,0.0,-2.2,9.0,0.5,0.04,0.403,54.0,NBA,1371.0,0.4,3.1,1.7,16.1,PG,2001,2.0,TOT,17.5,6.0,0.493,20.1,0.1,2.2,0.0,0.076
34.0,38.9,0.3,-0.8,0.0,-2.1,9.4,0.3,0.048,0.444,33.0,NBA,1020.0,1.3,2.8,1.5,17.4,PG,2001,2.2,WAS,17.3,6.0,0.507,20.9,0.3,1.8,0.0,0.084
34.0,31.9,0.2,-4.6,0.0,-2.2,7.9,0.2,0.01,0.265,21.0,NBA,351.0,-2.4,3.9,0.1,12.2,PG,2001,1.5,POR,18.0,6.0,0.443,17.7,-0.2,0.4,0.0,0.053
35.0,35.7,0.4,-0.4,0.0,-0.1,9.2,3.0,0.036,0.282,76.0,NBA,2294.0,-0.3,2.5,1.9,15.6,PG,2002,2.0,MIA,16.5,5.9,0.495,20.0,0.9,4.9,0.0,0.103
36.0,33.3,0.5,-2.2,0.0,-1.2,8.7,0.9,0.04,0.385,47.0,NBA,956.0,-1.0,2.4,0.8,15.4,PG,2003,2.5,MIN,18.9,5.6,0.492,19.0,0.0,1.7,0.0,0.084
37.0,34.5,0.7,-3.2,0.0,-2.2,11.7,0.3,0.102,0.278,61.0,NBA,1197.0,-0.9,3.2,1.0,14.9,PG,2004,1.6,TOT,17.7,7.4,0.482,18.5,-0.4,1.3,0.0,0.052
37.0,33.8,0.6,-2.8,0.0,-2.7,11.9,0.0,0.123,0.283,46.0,NBA,915.0,0.0,2.9,1.2,15.8,PG,2004,1.6,ORL,18.1,7.3,0.514,18.3,-0.2,1.2,0.0,0.062
37.0,37.0,1.0,-4.5,0.0,-0.6,11.1,0.3,0.036,0.262,15.0,NBA,282.0,-3.9,4.1,-0.2,11.8,PG,2004,1.6,TOR,16.1,7.5,0.379,19.2,-0.2,0.1,0.0,0.019
38.0,29.7,0.8,-7.7,0.0,0.2,13.9,0.2,0.047,0.233,16.0,NBA,196.0,-8.0,1.8,-0.5,4.6,PG,2005,0.8,HOU,25.2,8.0,0.295,15.2,-0.3,-0.2,0.0,-0.051
