age,ast_per_poss,blk_per_poss,def_rtg,drb_per_poss,fg2_pct,fg2_per_poss,fg2a_per_poss,fg3_pct,fg3_per_poss,fg3a_per_poss,fg_pct,fg_per_poss,fga_per_poss,ft_pct,ft_per_poss,fta_per_poss,g,gs,lg_id,mp,off_rtg,orb_per_poss,pf_per_poss,pos,pts_per_poss,season,stl_per_poss,team_id,tov_per_poss,trb_per_poss
27.0,3.5,0.5,101.0,3.5,0.591,6.4,10.9,0.5,1.5,3.0,0.571,7.9,13.8,0.75,4.4,5.9,16.0,0.0,NBA,112.0,119.0,1.5,8.9,PG,21.7,1996,2.5,CHI,3.5,4.9
28.0,3.4,1.1,98.0,4.0,0.3,5.2,17.2,0.0,0.0,0.0,0.3,5.2,17.2,0.6,1.7,2.9,17.0,0.0,NBA,98.0,78.0,1.7,12.6,PG,12.0,1997,4.6,CHI,2.3,5.7
29.0,7.2,0.0,105.0,4.8,0.167,1.6,9.6,0.0,0.0,0.0,0.167,1.6,9.6,0.833,4.0,4.8,14.0,0.0,NBA,71.0,69.0,2.4,4.8,PG,7.2,1998,1.6,CHI,5.6,7.2
