age,ast_per_mp,blk_per_mp,drb_per_mp,fg2_pct,fg2_per_mp,fg2a_per_mp,fg3_pct,fg3_per_mp,fg3a_per_mp,fg_pct,fg_per_mp,fga_per_mp,ft_pct,ft_per_mp,fta_per_mp,g,gs,lg_id,mp,orb_per_mp,pf_per_mp,pos,pts_per_mp,season,stl_per_mp,team_id,tov_per_mp,trb_per_mp
28.0,5.5,0.6,3.1,0.538,4.3,7.9,0.0,0.0,0.0,0.538,4.3,7.9,0.429,1.8,4.3,10.0,0.0,NBA,59.0,0.6,4.3,PG,10.4,1996,3.1,ATL,1.8,3.7
30.0,3.7,0.0,7.4,0.571,5.0,8.7,1.0,1.2,1.2,0.625,6.2,9.9,0.5,1.2,2.5,2.0,0.0,NBA,29.0,3.7,6.2,SG,14.9,1998,1.2,MIN,0.0,11.2
