age,ast_per_mp,blk_per_mp,drb_per_mp,fg2_pct,fg2_per_mp,fg2a_per_mp,fg3_pct,fg3_per_mp,fg3a_per_mp,fg_pct,fg_per_mp,fga_per_mp,ft_pct,ft_per_mp,fta_per_mp,g,gs,lg_id,mp,orb_per_mp,pf_per_mp,pos,pts_per_mp,season,stl_per_mp,team_id,tov_per_mp,trb_per_mp
24.0,4.2,0.0,6.4,0.333,2.1,6.4,0.0,0.0,2.1,0.25,2.1,8.5,0.0,0.0,0.0,4.0,0.0,NBA,17.0,0.0,6.4,PG,4.2,2005,0.0,WAS,2.1,6.4
26.0,4.6,0.0,2.2,0.4,1.2,3.0,0.5,1.6,3.2,0.452,2.8,6.2,0.0,0.0,0.0,5.0,5.0,NBA,180.0,0.2,1.6,PG,7.2,2007,0.6,DEN,2.0,2.4
28.0,5.8,0.0,3.1,0.571,1.9,3.3,0.417,1.6,3.7,0.489,3.4,7.0,0.714,0.8,1.1,6.0,6.0,NBA,231.0,0.6,1.7,PG,9.2,2009,0.8,POR,1.4,3.7
30.0,5.0,0.0,3.2,0.2,0.2,1.2,0.333,1.5,4.5,0.304,1.7,5.7,0.0,0.0,0.0,9.0,0.0,NBA,145.0,0.2,2.0,PG,5.0,2011,1.2,LAL,1.2,3.5
31.0,3.2,0.2,3.1,0.421,0.9,2.2,0.419,2.1,5.1,0.419,3.1,7.3,0.714,0.6,0.8,12.0,0.0,NBA,306.0,0.9,2.5,PG,8.8,2012,0.9,LAL,1.8,4.0
32.0,2.4,1.4,3.8,0.375,2.9,7.7,0.417,2.4,5.8,0.393,5.3,13.4,1.0,0.5,0.5,2.0,2.0,NBA,75.0,0.0,3.8,PG,13.4,2013,1.9,LAL,1.9,3.8
33.0,1.6,0.0,2.4,0.5,0.8,1.6,0.3,2.4,8.0,0.333,3.2,9.6,0.0,0.0,0.8,6.0,0.0,NBA,45.0,0.8,1.6,PG,8.8,2014,0.0,GSW,1.6,3.2
34.0,6.7,0.8,0.8,0.333,0.8,2.5,0.125,0.8,6.7,0.182,1.7,9.2,1.0,1.7,1.7,5.0,0.0,NBA,43.0,0.0,3.3,PG,5.9,2015,0.0,POR,1.7,0.8
35.0,8.4,0.0,3.3,0.0,0.0,2.5,0.5,0.8,1.7,0.2,0.8,4.2,0.5,0.8,1.7,4.0,0.0,NBA,43.0,0.0,5.9,PG,3.3,2016,0.0,DET,4.2,3.3
