age,ast_per_g,blk_per_g,drb_per_g,efg_pct,fg2_pct,fg2_per_g,fg2a_per_g,fg3_pct,fg3_per_g,fg3a_per_g,fg_pct,fg_per_g,fga_per_g,ft_pct,ft_per_g,fta_per_g,g,gs,lg_id,mp_per_g,orb_per_g,pf_per_g,pos,pts_per_g,season,stl_per_g,team_id,tov_per_g,trb_per_g
24.0,0.5,0.0,0.8,0.25,0.333,0.3,0.8,0.0,0.0,0.3,0.25,0.3,1.0,0.0,0.0,0.0,4.0,0.0,NBA,4.3,0.0,0.8,PG,0.5,2005,0.0,WAS,0.3,0.8
26.0,4.6,0.0,2.2,0.581,0.4,1.2,3.0,0.5,1.6,3.2,0.452,2.8,6.2,0.0,0.0,0.0,5.0,5.0,NBA,36.0,0.2,1.6,PG,7.2,2007,0.6,DEN,2.0,2.4
28.0,6.2,0.0,3.3,0.6,0.571,2.0,3.5,0.417,1.7,4.0,0.489,3.7,7.5,0.714,0.8,1.2,6.0,6.0,NBA,38.5,0.7,1.8,PG,9.8,2009,0.8,POR,1.5,4.0
30.0,2.2,0.0,1.4,0.435,0.2,0.1,0.6,0.333,0.7,2.0,0.304,0.8,2.6,0.0,0.0,0.0,9.0,0.0,NBA,16.1,0.1,0.9,PG,2.2,2011,0.6,LAL,0.6,1.6
31.0,2.3,0.2,2.2,0.565,0.421,0.7,1.6,0.419,1.5,3.6,0.419,2.2,5.2,0.714,0.4,0.6,12.0,0.0,NBA,25.5,0.7,1.8,PG,6.3,2012,0.7,LAL,1.3,2.8
32.0,2.5,1.5,4.0,0.482,0.375,3.0,8.0,0.417,2.5,6.0,0.393,5.5,14.0,1.0,0.5,0.5,2.0,2.0,NBA,37.5,0.0,4.0,PG,14.0,2013,2.0,LAL,2.0,4.0
33.0,0.3,0.0,0.5,0.458,0.5,0.2,0.3,0.3,0.5,1.7,0.333,0.7,2.0,0.0,0.0,0.2,6.0,0.0,NBA,7.5,0.2,0.3,PG,1.8,2014,0.0,GSW,0.3,0.7
34.0,1.6,0.2,0.2,0.227,0.333,0.2,0.6,0.125,0.2,1.6,0.182,0.4,2.2,1.0,0.4,0.4,5.0,0.0,NBA,8.6,0.0,0.8,PG,1.4,2015,0.0,POR,0.4,0.2
35.0,2.5,0.0,1.0,0.3,0.0,0.0,0.8,0.5,0.3,0.5,0.2,0.3,1.3,0.5,0.3,0.5,4.0,0.0,NBA,10.8,0.0,1.8,PG,1.0,2016,0.0,DET,1.3,1.0
