age,ast_per_poss,blk_per_poss,def_rtg,drb_per_poss,fg2_pct,fg2_per_poss,fg2a_per_poss,fg3_pct,fg3_per_poss,fg3a_per_poss,fg_pct,fg_per_poss,fga_per_poss,ft_pct,ft_per_poss,fta_per_poss,g,gs,lg_id,mp,off_rtg,orb_per_poss,pf_per_poss,pos,pts_per_poss,season,stl_per_poss,team_id,tov_per_poss,trb_per_poss
20.0,1.6,1.9,107.0,8.7,0.44,6.9,15.8,0.0,0.0,0.1,0.438,6.9,15.9,0.667,1.5,2.2,76.0,64.0,NBA,1464.0,99.0,3.9,7.5,PF,15.3,2009,1.9,MEM,1.7,12.6
21.0,1.7,1.6,108.0,8.2,0.434,7.1,16.3,0.0,0.0,0.1,0.432,7.1,16.4,0.567,1.9,3.4,32.0,1.0,NBA,457.0,96.0,4.2,6.7,PF,16.1,2010,1.6,MEM,2.5,12.3
22.0,1.7,2.0,104.0,7.4,0.502,10.1,20.1,0.0,0.0,0.2,0.497,10.1,20.3,0.813,3.5,4.3,80.0,9.0,NBA,1609.0,106.0,3.7,7.4,PF,23.7,2011,1.7,MEM,2.9,11.1
24.0,1.8,1.8,102.0,5.7,0.46,8.8,19.1,0.278,0.3,1.0,0.451,9.1,20.1,0.717,1.8,2.6,59.0,3.0,NBA,970.0,99.0,3.8,7.1,PF,20.3,2013,1.3,MEM,2.4,9.5
25.0,2.6,2.0,107.0,6.7,0.399,5.8,14.6,0.375,1.0,2.7,0.395,6.8,17.3,0.855,2.2,2.6,68.0,1.0,NBA,1161.0,94.0,2.2,7.8,SF,16.9,2014,1.6,DEN,2.4,8.9
26.0,2.9,1.3,106.0,6.0,0.471,6.5,13.9,0.236,1.3,5.6,0.404,7.8,19.4,0.78,2.3,3.0,58.0,4.0,NBA,988.0,97.0,2.7,7.4,PF,19.3,2015,2.4,DEN,2.4,8.6
27.0,3.2,1.6,108.0,6.8,0.473,5.8,12.3,0.385,1.5,3.9,0.452,7.3,16.2,0.755,1.3,1.8,70.0,16.0,NBA,1516.0,104.0,2.8,6.1,PF,17.4,2016,1.8,DEN,2.2,9.7
28.0,3.2,1.6,112.0,6.6,0.429,3.2,7.5,0.453,4.1,8.9,0.442,7.3,16.4,0.864,1.5,1.7,41.0,7.0,NBA,639.0,110.0,1.9,5.8,PF,20.0,2017,1.5,DEN,2.8,8.6
29.0,3.2,1.1,109.0,4.2,0.583,4.9,8.4,0.348,2.8,8.1,0.468,7.7,16.5,0.667,0.7,1.1,19.0,1.0,NBA,141.0,90.0,1.1,7.7,PF,19.0,2018,2.8,DEN,5.3,5.3
