age,ast_per_g,blk_per_g,drb_per_g,efg_pct,fg2_pct,fg2_per_g,fg2a_per_g,fg3_pct,fg3_per_g,fg3a_per_g,fg_pct,fg_per_g,fga_per_g,ft_pct,ft_per_g,fta_per_g,g,gs,lg_id,mp_per_g,orb_per_g,pf_per_g,pos,pts_per_g,season,stl_per_g,team_id,tov_per_g,trb_per_g
22.0,0.5,0.9,1.2,0.465,0.452,2.9,6.5,1.0,0.1,0.1,0.459,3.0,6.5,0.765,1.0,1.3,13.0,0.0,NBA,15.5,1.1,2.3,PF,7.1,2011,0.5,MEM,0.9,2.2
24.0,0.4,0.3,1.6,0.472,0.49,1.7,3.4,0.0,0.0,0.1,0.472,1.7,3.5,0.889,0.5,0.6,15.0,0.0,NBA,11.7,0.9,2.4,PF,3.9,2013,0.1,MEM,0.5,2.5
