age,ast,blk,drb,efg_pct,fg,fg2,fg2_pct,fg2a,fg3,fg3_pct,fg3a,fg_pct,fga,ft,ft_pct,fta,g,gs,lg_id,mp,orb,pf,pos,pts,season,stl,team_id,tov,trb
23.0,215.0,203.0,449.0,0.537,299.0,299.0,0.537,557.0,0.0,0.0,0.0,0.537,557.0,160.0,0.711,225.0,76.0,62.0,NBA,2216.0,207.0,278.0,C,758.0,1985,55.0,POR,172.0,656.0
24.0,99.0,96.0,234.0,0.484,167.0,167.0,0.484,345.0,0.0,0.0,0.0,0.484,345.0,114.0,0.708,161.0,38.0,34.0,NBA,1132.0,93.0,142.0,C,448.0,1986,21.0,POR,88.0,327.0
25.0,9.0,10.0,19.0,0.455,30.0,30.0,0.455,66.0,0.0,0.0,0.0,0.455,66.0,20.0,0.667,30.0,5.0,5.0,NBA,163.0,14.0,19.0,C,80.0,1987,1.0,POR,15.0,33.0
27.0,36.0,33.0,70.0,0.467,69.0,64.0,0.438,146.0,5.0,0.714,7.0,0.451,153.0,28.0,0.571,49.0,20.0,0.0,NBA,412.0,36.0,43.0,C,171.0,1989,7.0,POR,33.0,106.0
28.0,91.0,121.0,484.0,0.422,347.0,337.0,0.42,803.0,10.0,0.323,31.0,0.416,834.0,294.0,0.776,379.0,68.0,54.0,NBA,2207.0,206.0,211.0,C,998.0,1990,38.0,NJN,125.0,690.0
29.0,147.0,90.0,304.0,0.437,314.0,310.0,0.442,701.0,4.0,0.182,22.0,0.434,723.0,169.0,0.732,231.0,62.0,51.0,NBA,1916.0,176.0,175.0,C,801.0,1991,43.0,NJN,141.0,480.0
30.0,186.0,120.0,375.0,0.449,421.0,413.0,0.448,922.0,8.0,0.32,25.0,0.445,947.0,212.0,0.757,280.0,71.0,61.0,NBA,2179.0,203.0,212.0,C,1062.0,1992,41.0,NJN,150.0,578.0
31.0,127.0,128.0,398.0,0.451,287.0,285.0,0.451,632.0,2.0,0.333,6.0,0.45,638.0,141.0,0.779,181.0,79.0,65.0,NBA,2092.0,158.0,226.0,C,717.0,1993,32.0,NJN,120.0,556.0
32.0,47.0,28.0,104.0,0.439,75.0,74.0,0.44,168.0,1.0,0.25,4.0,0.436,172.0,72.0,0.867,83.0,25.0,7.0,NBA,556.0,27.0,65.0,C,223.0,1994,4.0,LAL,43.0,131.0
33.0,118.0,80.0,216.0,0.446,118.0,116.0,0.453,256.0,2.0,0.182,11.0,0.442,267.0,68.0,0.764,89.0,67.0,10.0,NBA,1225.0,72.0,182.0,C,306.0,1995,21.0,LAL,91.0,288.0
