age,ast_per_poss,blk_per_poss,def_rtg,drb_per_poss,fg2_pct,fg2_per_poss,fg2a_per_poss,fg3_pct,fg3_per_poss,fg3a_per_poss,fg_pct,fg_per_poss,fga_per_poss,ft_pct,ft_per_poss,fta_per_poss,g,gs,lg_id,mp,off_rtg,orb_per_poss,pf_per_poss,pos,pts_per_poss,season,stl_per_poss,team_id,tov_per_poss,trb_per_poss
23.0,3.8,3.8,112.0,10.8,0.441,4.7,10.6,0.0,0.0,0.0,0.441,4.7,10.6,0.56,2.5,4.5,9.0,9.0,NBA,259.0,102.0,2.9,6.5,C,11.9,1985,0.7,POR,2.2,13.7
27.0,2.2,5.1,120.0,7.4,0.423,8.1,19.1,0.5,0.7,1.5,0.429,8.8,20.6,0.75,4.4,5.9,3.0,1.0,NBA,67.0,111.0,7.4,5.9,C,22.8,1989,0.0,POR,2.2,14.7
30.0,4.0,1.3,116.0,4.9,0.419,5.7,13.7,0.5,0.4,0.9,0.424,6.2,14.6,0.667,3.5,5.3,4.0,4.0,NBA,112.0,104.0,3.5,8.4,C,16.4,1992,1.3,NJN,2.2,8.4
31.0,1.5,0.7,100.0,7.4,0.444,2.9,6.6,0.0,0.0,0.0,0.444,2.9,6.6,1.0,1.5,1.5,3.0,3.0,NBA,71.0,83.0,1.5,6.6,C,7.4,1993,4.4,NJN,2.9,8.8
33.0,1.2,3.6,106.0,8.1,0.267,3.2,12.1,0.0,0.0,0.0,0.267,3.2,12.1,1.0,2.0,2.0,10.0,0.0,NBA,135.0,79.0,5.2,10.1,C,8.5,1995,0.4,LAL,2.4,13.3
