lg_id,salary,season,team_name
NBA,650000.0,1995,Phoenix Suns
NBA,845000.0,1996,Phoenix Suns
NBA,1040000.0,1997,Phoenix Suns
NBA,3500000.0,1998,Cleveland Cavaliers
NBA,4200000.0,1999,Cleveland Cavaliers
NBA,4900000.0,2000,Cleveland Cavaliers
NBA,5600000.0,2001,Cleveland Cavaliers
NBA,6300000.0,2002,Cleveland Cavaliers
NBA,7000000.0,2003,Memphis Grizzlies
NBA,7700000.0,2004,Portland Trail Blazers
NBA,1600000.0,2005,Miami Heat
NBA,1760000.0,2006,Miami Heat
