age,and1s,astd_pts,drawn_offensive,drawn_shooting,fouls_offensive,fouls_shooting,g,lg_id,mp,own_shots_blk,pct_1,pct_2,pct_3,pct_4,pct_5,plus_minus_net,plus_minus_on,pos,season,team_id,tov_bad_pass,tov_lost_ball
29.0,1.0,133.0,0.0,9.0,8.0,22.0,44.0,NBA,958.0,11.0,0.0,97.0,3.0,0.0,0.0,3.1,-2.5,SG,2001,CLE,18.0,10.0
30.0,10.0,371.0,0.0,31.0,12.0,34.0,78.0,NBA,2793.0,29.0,2.0,86.0,11.0,0.0,0.0,9.0,-1.1,SG,2002,CLE,38.0,22.0
31.0,1.0,252.0,0.0,22.0,5.0,28.0,66.0,NBA,1941.0,16.0,0.0,95.0,5.0,0.0,0.0,4.6,-1.2,SG,2003,MEM,27.0,21.0
32.0,0.0,143.0,0.0,10.0,5.0,11.0,58.0,NBA,1037.0,6.0,8.0,81.0,11.0,0.0,0.0,-8.0,-8.5,SG,2004,TOT,24.0,6.0
32.0,0.0,51.0,0.0,3.0,3.0,2.0,16.0,NBA,284.0,1.0,7.0,94.0,0.0,0.0,0.0,-11.9,-8.2,SG,2004,MEM,8.0,3.0
32.0,0.0,80.0,0.0,6.0,1.0,7.0,33.0,NBA,621.0,4.0,10.0,79.0,10.0,0.0,0.0,-4.4,-5.3,SG,2004,POR,13.0,3.0
32.0,0.0,12.0,0.0,1.0,1.0,2.0,9.0,NBA,132.0,1.0,0.0,66.0,34.0,0.0,0.0,-19.8,-23.9,SG,2004,ATL,3.0,0.0
33.0,0.0,88.0,0.0,1.0,0.0,19.0,41.0,NBA,667.0,6.0,0.0,32.0,66.0,2.0,0.0,-6.0,-0.8,SF,2005,TOT,13.0,3.0
33.0,0.0,25.0,0.0,0.0,0.0,3.0,16.0,NBA,206.0,1.0,0.0,39.0,59.0,2.0,0.0,-11.2,-3.3,SF,2005,MIA,6.0,1.0
33.0,0.0,63.0,0.0,1.0,0.0,16.0,25.0,NBA,461.0,5.0,0.0,29.0,69.0,2.0,0.0,-2.2,0.2,SF,2005,DEN,7.0,2.0
