age,ast,blk,drb,fg,fg2,fg2a,fg3,fg3a,fga,ft,fta,game_score,lg_id,mp,orb,pf,pts,season,stl,team_id,tov,trb
25.0,4.0,3.0,5.0,8.0,7.0,12.0,2.0,3.0,14.0,6.0,8.0,15.5,NBA,0.0,3.0,6.0,17.0,1990,3.0,ATL,3.0,8.0
27.0,10.0,2.0,6.0,11.0,11.0,16.0,3.0,7.0,17.0,9.0,11.0,24.2,NBA,0.0,4.0,6.0,25.0,1992,6.0,ATL,4.0,10.0
