age,ast,blk,drb,efg_pct,fg,fg2,fg2_pct,fg2a,fg3,fg3_pct,fg3a,fg_pct,fga,ft,ft_pct,fta,g,gs,lg_id,mp,orb,pf,pos,pts,season,stl,team_id,tov,trb
29.0,0.0,1.0,6.0,0.455,5.0,5.0,0.455,11.0,0.0,0.0,0.0,0.455,11.0,11.0,0.786,14.0,5.0,0.0,NBA,69.0,4.0,14.0,C,21.0,2002,1.0,DET,4.0,10.0
30.0,0.0,0.0,3.0,0.353,6.0,6.0,0.353,17.0,0.0,0.0,0.0,0.353,17.0,5.0,0.714,7.0,4.0,0.0,NBA,29.0,2.0,9.0,C,17.0,2003,0.0,DET,1.0,5.0
33.0,0.0,1.0,3.0,0.333,1.0,1.0,0.333,3.0,0.0,0.0,0.0,0.333,3.0,0.0,0.0,0.0,3.0,0.0,NBA,22.0,1.0,6.0,C,2.0,2006,0.0,LAC,2.0,4.0
