age,ast_per_poss,blk_per_poss,def_rtg,drb_per_poss,fg2_pct,fg2_per_poss,fg2a_per_poss,fg3_pct,fg3_per_poss,fg3a_per_poss,fg_pct,fg_per_poss,fga_per_poss,ft_pct,ft_per_poss,fta_per_poss,g,gs,lg_id,mp,off_rtg,orb_per_poss,pf_per_poss,pos,pts_per_poss,season,stl_per_poss,team_id,tov_per_poss,trb_per_poss
29.0,1.7,3.3,100.0,9.3,0.505,8.5,16.9,0.0,0.0,0.0,0.505,8.5,16.9,0.771,6.1,7.9,74.0,4.0,NBA,1179.0,105.0,3.8,8.7,C,23.2,2002,1.3,DET,3.8,13.1
30.0,1.0,1.9,101.0,7.4,0.552,9.1,16.4,0.0,0.0,0.0,0.552,9.1,16.4,0.792,4.3,5.4,30.0,12.0,NBA,488.0,107.0,3.1,9.0,C,22.4,2003,0.7,DET,3.3,10.4
31.0,1.2,2.2,98.0,7.0,0.442,6.8,15.3,0.0,0.0,0.0,0.442,6.8,15.3,0.767,4.6,6.0,24.0,2.0,NBA,273.0,98.0,4.6,10.3,C,18.1,2004,1.0,TOT,3.4,11.5
31.0,1.0,2.2,96.0,7.4,0.407,5.4,13.3,0.0,0.0,0.0,0.407,5.4,13.3,0.786,5.4,6.9,21.0,2.0,NBA,222.0,99.0,4.7,11.1,C,16.2,2004,1.2,DET,3.2,12.1
31.0,2.1,2.1,110.0,5.2,0.522,12.4,23.8,0.0,0.0,0.0,0.522,12.4,23.8,0.5,1.0,2.1,3.0,0.0,NBA,51.0,96.0,4.1,7.3,C,25.9,2004,0.0,ATL,4.1,9.3
32.0,1.5,2.3,106.0,7.8,0.568,7.7,13.6,0.0,0.0,0.0,0.568,7.7,13.6,0.859,4.2,4.9,58.0,2.0,NBA,928.0,114.0,2.8,7.5,C,19.7,2005,0.8,LAC,2.8,10.7
33.0,1.1,2.4,104.0,6.5,0.542,6.6,12.2,0.0,0.0,0.0,0.542,6.6,12.2,0.756,3.9,5.2,29.0,2.0,NBA,412.0,104.0,1.7,7.5,C,17.1,2006,0.6,LAC,3.0,8.1
