age,ast,ast_per_g,blk,college_id,fg,fg3,fg3_pct,fg3a,fg_pct,fga,ft,ft_pct,fta,g,mp,mp_per_g,orb,pf,pts,pts_per_g,season,stl,tov,trb,trb_per_g
18.0,23.0,0.8,0.0,RICE,170.0,0.0,0.0,0.0,0.501,339.0,87.0,0.524,166.0,28.0,805.0,28.8,0.0,0.0,427.0,15.3,1990,0.0,0.0,229.0,8.2
19.0,92.0,3.1,0.0,RICE,200.0,0.0,0.0,0.0,0.58,345.0,106.0,0.549,193.0,30.0,1041.0,34.7,0.0,0.0,506.0,16.9,1991,0.0,0.0,302.0,10.1
20.0,78.0,2.5,0.0,RICE,183.0,0.0,0.0,1.0,0.537,341.0,124.0,0.629,197.0,31.0,959.0,30.9,0.0,0.0,490.0,15.8,1992,0.0,0.0,257.0,8.3
21.0,41.0,1.6,0.0,RICE,169.0,0.0,0.0,0.0,0.591,286.0,97.0,0.599,162.0,25.0,732.0,29.3,0.0,0.0,435.0,17.4,1993,0.0,0.0,233.0,9.3
