age,ast,blk,drb,fg,fg2,fg2a,fg3,fg3a,fga,ft,fta,game_score,lg_id,mp,orb,pf,pts,season,stl,team_id,tov,trb
23.0,4.0,1.0,7.0,6.0,5.0,9.0,1.0,2.0,10.0,3.0,4.0,11.7,NBA,31,2.0,6.0,15.0,2018,1.0,NYK,3.0,8.0
24.0,1.0,2.0,3.0,4.0,4.0,7.0,0.0,0.0,7.0,3.0,3.0,11.9,NBA,22,2.0,3.0,11.0,2019,1.0,NYK,1.0,5.0
