article_url,date,headline
https://dailyknicks.com/2019/09/22/new-york-knicks-brief-history-two-way-contracts/,2019/09/22,Daily Knicks: New York Knicks: A brief history of two-way contracts
https://www.hoopsrumors.com/2019/09/2019-offseason-in-review-new-york-knicks.html,2019/09/20,HoopsRumors: 2019 Offseason In Review: New York Knicks
https://dailyknicks.com/2019/07/30/new-york-knicks-offseason-blocked-kadeem-allens-path/,2019/07/30,Daily Knicks: New York Knicks: The offseason blocked Kadeem Allen's path
