age,avg_dist,fg2_dunk,fg2_pct,fg2_pct_ast,fg2a_pct_fga,fg3_heave,fg3_pct,fg3_pct_ast,fg3_pct_corner,fg3a_heave,fg3a_pct_fga,fg_pct,fg_pct_00_03,fg_pct_03_10,fg_pct_10_16,fg_pct_16_xx,g,lg_id,mp,pct_fg2_dunk,pct_fg3a_corner,pct_fga_00_03,pct_fga_03_10,pct_fga_10_16,pct_fga_16_xx,pos,season,team_id
21.0,12.1,2.0,0.373,0.263,0.85,0.0,0.222,0.5,0.0,0.0,0.15,0.35,0.571,0.308,0.143,0.353,16.0,NBA,129.0,0.05,0.222,0.233,0.217,0.117,0.283,SF,2002,DET
22.0,13.1,29.0,0.452,0.61,0.79,0.0,0.239,0.969,0.194,0.0,0.21,0.408,0.6,0.434,0.34,0.371,72.0,NBA,1563.0,0.052,0.269,0.243,0.177,0.078,0.292,SG,2003,DEN
23.0,14.3,28.0,0.478,0.692,0.814,0.0,0.379,0.879,0.375,1.0,0.186,0.459,0.654,0.364,0.375,0.434,72.0,NBA,985.0,0.071,0.092,0.222,0.118,0.085,0.389,SF,2004,DEN
24.0,15.2,10.0,0.424,0.649,0.792,0.0,0.4,0.917,0.25,1.0,0.208,0.419,0.66,0.375,0.4,0.342,58.0,NBA,677.0,0.038,0.133,0.173,0.138,0.087,0.394,SF,2005,TOT
24.0,15.9,6.0,0.432,0.608,0.806,0.0,0.432,0.947,0.25,1.0,0.194,0.432,0.656,0.419,0.5,0.353,42.0,NBA,531.0,0.026,0.091,0.141,0.137,0.079,0.449,SF,2005,DEN
24.0,12.4,4.0,0.391,0.833,0.742,0.0,0.313,0.8,0.25,0.0,0.258,0.371,0.667,0.222,0.143,0.25,16.0,NBA,146.0,0.081,0.25,0.29,0.145,0.113,0.194,SF,2005,GSW
