age,ast_per_g,blk_per_g,drb_per_g,efg_pct,fg2_pct,fg2_per_g,fg2a_per_g,fg3_pct,fg3_per_g,fg3a_per_g,fg_pct,fg_per_g,fga_per_g,ft_pct,ft_per_g,fta_per_g,g,gs,lg_id,mp_per_g,orb_per_g,pf_per_g,pos,pts_per_g,season,stl_per_g,team_id,tov_per_g,trb_per_g
20.0,7.8,0.2,2.1,0.432,0.432,6.1,14.0,0.288,0.2,0.8,0.424,6.3,14.8,0.704,4.2,6.0,72.0,72.0,NBA,33.8,0.8,3.5,PG,17.0,1982,2.1,DET,4.2,2.9
21.0,7.8,0.4,2.8,0.483,0.488,8.5,17.4,0.288,0.4,1.5,0.472,9.0,19.0,0.71,4.5,6.4,81.0,81.0,NBA,38.2,1.3,3.9,PG,22.9,1983,2.5,DET,4.0,4.0
22.0,11.1,0.4,2.7,0.47,0.468,7.9,16.9,0.338,0.3,0.8,0.462,8.2,17.7,0.733,4.7,6.5,82.0,82.0,NBA,36.7,1.3,4.0,PG,21.3,1984,2.5,DET,3.7,4.0
23.0,13.9,0.3,3.0,0.468,0.476,7.6,16.0,0.257,0.4,1.4,0.458,8.0,17.4,0.809,4.9,6.1,81.0,81.0,NBA,38.1,1.4,3.6,PG,21.2,1985,2.3,DET,3.7,4.5
24.0,10.8,0.3,2.5,0.498,0.501,7.6,15.1,0.31,0.3,1.1,0.488,7.9,16.2,0.79,4.7,6.0,77.0,77.0,NBA,36.2,1.1,3.2,PG,20.9,1986,2.2,DET,3.8,3.6
25.0,10.0,0.2,2.9,0.47,0.484,7.5,15.5,0.194,0.2,1.2,0.463,7.7,16.7,0.768,4.9,6.4,81.0,81.0,NBA,37.2,1.0,3.1,PG,20.6,1987,1.9,DET,4.2,3.9
26.0,8.4,0.2,2.6,0.474,0.475,7.3,15.4,0.309,0.4,1.2,0.463,7.7,16.6,0.774,3.8,4.9,81.0,81.0,NBA,36.1,0.8,2.7,PG,19.5,1988,1.7,DET,3.4,3.4
27.0,8.3,0.3,2.8,0.477,0.485,6.7,13.8,0.273,0.4,1.5,0.464,7.1,15.3,0.818,3.6,4.4,80.0,76.0,NBA,36.6,0.6,2.6,PG,18.2,1989,1.7,DET,3.7,3.4
28.0,9.4,0.2,2.9,0.454,0.453,6.6,14.6,0.309,0.5,1.7,0.438,7.1,16.3,0.775,3.6,4.7,81.0,81.0,NBA,37.0,0.9,2.5,PG,18.4,1990,1.7,DET,4.0,3.8
29.0,9.3,0.2,2.6,0.449,0.45,5.6,12.5,0.292,0.4,1.4,0.435,6.0,13.9,0.782,3.7,4.8,48.0,46.0,NBA,34.5,0.7,2.5,PG,16.2,1991,1.6,DET,3.9,3.3
30.0,7.2,0.2,2.3,0.456,0.458,6.9,15.1,0.291,0.3,1.1,0.446,7.2,16.2,0.772,3.7,4.8,78.0,78.0,NBA,37.4,0.9,2.5,PG,18.5,1992,1.5,DET,3.2,3.2
31.0,8.5,0.2,2.0,0.442,0.439,5.9,13.4,0.308,0.8,2.5,0.418,6.7,15.9,0.737,3.5,4.8,79.0,79.0,NBA,37.0,0.9,2.8,PG,17.6,1993,1.6,DET,3.6,2.9
32.0,6.9,0.1,1.9,0.442,0.438,4.8,11.0,0.31,0.7,2.2,0.417,5.5,13.2,0.702,3.1,4.4,58.0,56.0,NBA,30.2,0.8,2.2,PG,14.8,1994,1.2,DET,3.5,2.7
