age,ast,blk,drb,efg_pct,fg,fg2,fg2_pct,fg2a,fg3,fg3_pct,fg3a,fg_pct,fga,ft,ft_pct,fta,g,gs,lg_id,mp,orb,pf,pos,pts,season,stl,team_id,tov,trb
22.0,5.0,1.0,4.0,0.425,16.0,14.0,0.424,33.0,2.0,0.286,7.0,0.4,40.0,4.0,0.8,5.0,3.0,0.0,NBA,64.0,1.0,7.0,PG,38.0,2001,3.0,MIA,5.0,5.0
26.0,4.0,0.0,1.0,0.438,3.0,2.0,0.286,7.0,1.0,1.0,1.0,0.375,8.0,2.0,1.0,2.0,3.0,0.0,NBA,23.0,1.0,2.0,PG,9.0,2005,0.0,SAC,1.0,2.0
27.0,6.0,2.0,9.0,0.394,19.0,16.0,0.421,38.0,3.0,0.214,14.0,0.365,52.0,3.0,0.75,4.0,14.0,0.0,NBA,130.0,0.0,10.0,PG,44.0,2006,1.0,PHO,5.0,9.0
28.0,1.0,0.0,2.0,0.313,2.0,1.0,0.5,2.0,1.0,0.167,6.0,0.25,8.0,0.0,0.0,0.0,4.0,0.0,NBA,18.0,0.0,2.0,SG,5.0,2007,1.0,NJN,2.0,2.0
29.0,18.0,1.0,20.0,0.402,17.0,6.0,0.24,25.0,11.0,0.355,31.0,0.304,56.0,7.0,0.875,8.0,21.0,0.0,NBA,165.0,2.0,13.0,PG,52.0,2008,5.0,BOS,4.0,22.0
30.0,13.0,0.0,18.0,0.636,40.0,22.0,0.55,40.0,18.0,0.486,37.0,0.519,77.0,10.0,0.909,11.0,14.0,0.0,NBA,232.0,2.0,26.0,PG,108.0,2009,11.0,BOS,6.0,20.0
32.0,1.0,0.0,4.0,0.324,4.0,1.0,0.143,7.0,3.0,0.3,10.0,0.235,17.0,0.0,0.0,0.0,7.0,0.0,NBA,48.0,1.0,6.0,SG,11.0,2011,4.0,MIA,4.0,5.0
