age,ast_per_g,blk_per_g,drb_per_g,efg_pct,fg2_pct,fg2_per_g,fg2a_per_g,fg3_pct,fg3_per_g,fg3a_per_g,fg_pct,fg_per_g,fga_per_g,ft_pct,ft_per_g,fta_per_g,g,gs,lg_id,mp_per_g,orb_per_g,pf_per_g,pos,pts_per_g,season,stl_per_g,team_id,tov_per_g,trb_per_g
22.0,1.7,0.3,1.3,0.425,0.424,4.7,11.0,0.286,0.7,2.3,0.4,5.3,13.3,0.8,1.3,1.7,3.0,0.0,NBA,21.3,0.3,2.3,PG,12.7,2001,1.0,MIA,1.7,1.7
26.0,1.3,0.0,0.3,0.438,0.286,0.7,2.3,1.0,0.3,0.3,0.375,1.0,2.7,1.0,0.7,0.7,3.0,0.0,NBA,7.7,0.3,0.7,PG,3.0,2005,0.0,SAC,0.3,0.7
27.0,0.4,0.1,0.6,0.394,0.421,1.1,2.7,0.214,0.2,1.0,0.365,1.4,3.7,0.75,0.2,0.3,14.0,0.0,NBA,9.3,0.0,0.7,PG,3.1,2006,0.1,PHO,0.4,0.6
28.0,0.3,0.0,0.5,0.313,0.5,0.3,0.5,0.167,0.3,1.5,0.25,0.5,2.0,0.0,0.0,0.0,4.0,0.0,NBA,4.5,0.0,0.5,SG,1.3,2007,0.3,NJN,0.5,0.5
29.0,0.9,0.0,1.0,0.402,0.24,0.3,1.2,0.355,0.5,1.5,0.304,0.8,2.7,0.875,0.3,0.4,21.0,0.0,NBA,7.9,0.1,0.6,PG,2.5,2008,0.2,BOS,0.2,1.0
30.0,0.9,0.0,1.3,0.636,0.55,1.6,2.9,0.486,1.3,2.6,0.519,2.9,5.5,0.909,0.7,0.8,14.0,0.0,NBA,16.6,0.1,1.9,PG,7.7,2009,0.8,BOS,0.4,1.4
32.0,0.1,0.0,0.6,0.324,0.143,0.1,1.0,0.3,0.4,1.4,0.235,0.6,2.4,0.0,0.0,0.0,7.0,0.0,NBA,6.9,0.1,0.9,SG,1.6,2011,0.6,MIA,0.6,0.7
