age,ast,blk,drb,fg,fg2,fg2a,fg3,fg3a,fga,ft,fta,game_score,lg_id,mp,orb,pf,pts,season,stl,team_id,tov,trb
22.0,12.0,2.0,7.0,9.0,7.0,12.0,3.0,7.0,14.0,6.0,8.0,22.0,NBA,0.0,2.0,5.0,22.0,2000,6.0,ATL,6.0,8.0
23.0,13.0,1.0,6.0,14.0,14.0,26.0,5.0,12.0,27.0,12.0,12.0,29.3,NBA,0.0,3.0,6.0,38.0,2001,5.0,ATL,7.0,8.0
24.0,13.0,2.0,8.0,16.0,12.0,22.0,6.0,12.0,34.0,13.0,17.0,35.1,NBA,0.0,3.0,5.0,46.0,2002,5.0,ATL,6.0,8.0
25.0,16.0,2.0,9.0,13.0,13.0,22.0,6.0,12.0,24.0,12.0,14.0,29.4,NBA,0.0,3.0,6.0,33.0,2003,6.0,ATL,7.0,10.0
26.0,11.0,1.0,9.0,11.0,10.0,18.0,6.0,10.0,24.0,12.0,13.0,26.7,NBA,0.0,3.0,6.0,30.0,2004,5.0,ATL,6.0,9.0
27.0,14.0,2.0,6.0,11.0,11.0,15.0,5.0,11.0,20.0,13.0,13.0,29.7,NBA,0.0,2.0,5.0,28.0,2005,5.0,DAL,6.0,6.0
28.0,10.0,2.0,5.0,14.0,11.0,18.0,7.0,13.0,23.0,9.0,10.0,29.1,NBA,51.0,2.0,6.0,37.0,2006,5.0,DAL,4.0,6.0
29.0,15.0,2.0,7.0,12.0,10.0,16.0,6.0,11.0,20.0,8.0,11.0,34.7,NBA,55.0,4.0,5.0,35.0,2007,4.0,DAL,8.0,8.0
30.0,7.0,2.0,6.0,12.0,10.0,18.0,6.0,10.0,23.0,7.0,8.0,27.8,NBA,47.0,3.0,6.0,31.0,2008,4.0,DAL,4.0,6.0
31.0,8.0,2.0,8.0,14.0,12.0,18.0,7.0,16.0,24.0,7.0,8.0,26.7,NBA,47.0,2.0,5.0,33.0,2009,4.0,DAL,6.0,9.0
32.0,10.0,3.0,6.0,12.0,10.0,16.0,6.0,10.0,24.0,12.0,13.0,35.0,NBA,43.0,3.0,5.0,36.0,2010,4.0,DAL,4.0,7.0
33.0,11.0,2.0,5.0,13.0,10.0,18.0,6.0,9.0,22.0,7.0,8.0,23.2,NBA,40.0,1.0,4.0,30.0,2011,5.0,DAL,6.0,6.0
34.0,9.0,2.0,7.0,14.0,13.0,20.0,5.0,10.0,25.0,9.0,9.0,25.5,NBA,54.0,3.0,4.0,34.0,2012,4.0,DAL,7.0,7.0
35.0,11.0,1.0,5.0,10.0,5.0,12.0,5.0,14.0,22.0,6.0,7.0,19.0,NBA,48.0,2.0,5.0,26.0,2013,3.0,BOS,4.0,5.0
36.0,7.0,0.0,4.0,6.0,2.0,3.0,6.0,9.0,11.0,2.0,2.0,15.6,NBA,26.0,1.0,3.0,18.0,2014,3.0,BRK,4.0,4.0
37.0,6.0,2.0,4.0,8.0,4.0,8.0,5.0,10.0,16.0,4.0,5.0,18.1,NBA,43.0,2.0,4.0,21.0,2015,4.0,HOU,4.0,6.0
38.0,6.0,1.0,4.0,6.0,4.0,6.0,5.0,9.0,13.0,4.0,5.0,13.7,NBA,32.0,2.0,5.0,19.0,2016,3.0,HOU,3.0,6.0
39.0,5.0,2.0,7.0,5.0,2.0,3.0,5.0,7.0,7.0,3.0,3.0,14.2,NBA,30.0,2.0,5.0,15.0,2017,3.0,MIL,3.0,7.0
40.0,5.0,3.0,2.0,4.0,3.0,3.0,4.0,6.0,8.0,2.0,2.0,14.0,NBA,37.0,1.0,5.0,14.0,2018,5.0,MIL,2.0,3.0
