age,ast_per_mp,blk_per_mp,drb_per_mp,fg2_pct,fg2_per_mp,fg2a_per_mp,fg3_pct,fg3_per_mp,fg3a_per_mp,fg_pct,fg_per_mp,fga_per_mp,ft_pct,ft_per_mp,fta_per_mp,g,gs,lg_id,mp,orb_per_mp,pf_per_mp,pos,pts_per_mp,season,stl_per_mp,team_id,tov_per_mp,trb_per_mp
27.0,4.3,0.5,3.2,0.514,3.9,7.5,0.491,1.9,4.0,0.506,5.8,11.5,0.884,2.7,3.1,13.0,13.0,NBA,501.0,0.6,2.0,PG,16.3,2005,1.2,DAL,2.2,3.9
28.0,3.5,0.0,2.2,0.493,5.6,11.4,0.307,1.3,4.3,0.442,7.0,15.7,0.831,2.5,3.0,22.0,22.0,NBA,844.0,0.5,2.3,PG,17.7,2006,1.1,DAL,1.9,2.7
29.0,3.5,0.3,1.7,0.5,4.7,9.4,0.281,1.4,5.0,0.424,6.1,14.5,0.833,2.4,2.8,6.0,6.0,NBA,229.0,0.5,1.9,SG,16.0,2007,0.8,DAL,2.7,2.2
30.0,4.8,0.2,1.4,0.429,2.4,5.6,0.438,2.8,6.4,0.433,5.2,12.0,0.867,2.6,3.0,5.0,3.0,NBA,180.0,0.2,3.0,SG,15.8,2008,0.4,DAL,1.0,1.6
31.0,2.1,0.3,2.4,0.403,3.0,7.4,0.373,2.4,6.5,0.389,5.4,14.0,0.767,2.5,3.3,10.0,1.0,NBA,325.0,0.7,2.0,SG,15.8,2009,0.7,DAL,1.8,3.1
32.0,2.5,0.2,2.7,0.359,2.9,8.1,0.4,2.5,6.2,0.377,5.4,14.3,0.75,2.5,3.3,6.0,0.0,NBA,174.0,0.4,3.3,SG,15.7,2010,0.8,DAL,1.2,3.1
33.0,3.5,0.2,1.8,0.497,4.5,9.1,0.442,2.2,5.0,0.478,6.7,14.1,0.843,3.7,4.4,21.0,0.0,NBA,684.0,0.3,2.3,SG,19.4,2011,1.4,DAL,1.7,2.1
34.0,3.9,0.0,2.1,0.417,2.6,6.2,0.5,2.6,5.2,0.455,5.2,11.4,0.625,1.3,2.1,4.0,1.0,NBA,139.0,0.3,2.8,SG,14.2,2012,0.3,DAL,2.1,2.3
35.0,2.3,0.4,2.5,0.45,1.7,3.8,0.441,2.9,6.5,0.444,4.6,10.3,0.818,1.7,2.1,6.0,1.0,NBA,189.0,0.0,1.7,SG,13.7,2013,0.8,BOS,1.0,2.5
37.0,3.5,0.1,2.4,0.538,2.1,3.8,0.354,2.1,6.1,0.425,4.2,9.9,0.813,1.0,1.2,17.0,17.0,NBA,487.0,0.4,3.4,SG,11.5,2015,1.1,HOU,1.5,2.8
38.0,1.7,0.3,2.9,0.368,2.0,5.5,0.316,1.7,5.5,0.342,3.8,11.0,1.0,0.9,0.9,5.0,0.0,NBA,124.0,0.3,3.8,SG,10.2,2016,0.6,HOU,0.9,3.2
39.0,2.6,0.5,3.2,0.5,2.1,4.2,0.2,1.1,5.3,0.333,3.2,9.5,1.0,0.5,0.5,6.0,0.0,NBA,68.0,1.1,3.7,SG,7.9,2017,1.6,MIL,1.1,4.2
40.0,1.6,0.0,0.8,0.0,0.0,0.0,0.4,1.6,4.1,0.4,1.6,4.1,0.0,0.0,0.0,3.0,0.0,NBA,44.0,0.8,1.6,SG,4.9,2018,0.8,MIL,0.8,1.6
