lg_id,salary,season,team_name
NBA,1468920.0,2000,Atlanta Hawks
NBA,1579080.0,2001,Atlanta Hawks
NBA,1689360.0,2002,Atlanta Hawks
NBA,2153934.0,2003,Atlanta Hawks
NBA,8333333.0,2004,Atlanta Hawks
NBA,7500000.0,2005,Dallas Mavericks
NBA,6666667.0,2006,Dallas Mavericks
NBA,8100000.0,2007,Dallas Mavericks
NBA,8898000.0,2008,Dallas Mavericks
NBA,9196000.0,2009,Dallas Mavericks
NBA,9862500.0,2010,Dallas Mavericks
NBA,10650000.0,2011,Dallas Mavericks
NBA,11158000.0,2012,Dallas Mavericks
NBA,5000000.0,2013,Boston Celtics
NBA,5625313.0,2014,Brooklyn Nets
NBA,5850313.0,2015,Houston Rockets
NBA,1499187.0,2016,Houston Rockets
NBA,1551659.0,2017,Milwaukee Bucks
NBA,1471382.0,2018,Milwaukee Bucks
