age,ast_per_mp,blk_per_mp,drb_per_mp,fg2_pct,fg2_per_mp,fg2a_per_mp,fg3_pct,fg3_per_mp,fg3a_per_mp,fg_pct,fg_per_mp,fga_per_mp,ft_pct,ft_per_mp,fta_per_mp,g,gs,lg_id,mp,orb_per_mp,pf_per_mp,pos,pts_per_mp,season,stl_per_mp,team_id,tov_per_mp,trb_per_mp
22.0,6.6,0.2,2.7,0.458,3.9,8.4,0.293,0.9,3.0,0.415,4.7,11.4,0.807,2.2,2.7,81.0,27.0,NBA,1888.0,0.5,2.5,PG,12.5,2000,1.7,ATL,3.0,3.2
23.0,4.7,0.1,2.6,0.448,5.5,12.3,0.395,1.4,3.7,0.436,6.9,15.9,0.846,3.5,4.2,82.0,77.0,NBA,3089.0,0.5,2.4,SG,18.9,2001,1.2,ATL,2.8,3.1
24.0,5.4,0.2,2.8,0.454,4.3,9.4,0.387,2.1,5.4,0.43,6.4,14.8,0.835,3.4,4.1,78.0,78.0,NBA,2967.0,0.5,1.9,SG,18.2,2002,1.7,ATL,2.2,3.3
25.0,7.0,0.2,2.8,0.462,3.8,8.3,0.371,1.9,5.0,0.428,5.7,13.3,0.887,3.0,3.4,81.0,81.0,NBA,3081.0,0.4,2.0,PG,16.3,2003,1.5,ATL,2.9,3.3
26.0,5.2,0.2,3.4,0.455,4.2,9.2,0.347,1.7,5.0,0.417,6.0,14.3,0.827,2.6,3.1,81.0,78.0,NBA,3018.0,0.6,2.3,PG,16.2,2004,1.5,ATL,2.7,4.0
27.0,6.4,0.2,2.2,0.54,4.0,7.5,0.42,1.5,3.7,0.501,5.6,11.1,0.844,2.2,2.6,80.0,57.0,NBA,2401.0,0.6,2.7,PG,14.9,2005,1.6,DAL,2.2,2.8
28.0,3.9,0.3,1.6,0.505,4.4,8.8,0.411,2.2,5.4,0.47,6.6,14.1,0.8,2.2,2.7,80.0,80.0,NBA,2798.0,0.4,2.5,PG,17.6,2006,1.3,DAL,1.7,2.0
29.0,5.3,0.2,2.4,0.508,4.5,8.8,0.438,2.0,4.7,0.484,6.5,13.4,0.804,2.0,2.5,81.0,80.0,NBA,2846.0,0.5,2.2,SG,17.1,2007,1.0,DAL,1.9,2.9
30.0,3.7,0.3,2.5,0.519,4.7,9.0,0.375,1.9,5.1,0.467,6.6,14.1,0.857,2.7,3.1,82.0,34.0,NBA,2579.0,0.4,2.4,SG,17.7,2008,1.2,DAL,1.3,2.9
31.0,3.6,0.3,2.0,0.525,5.4,10.3,0.366,2.4,6.6,0.463,7.8,16.9,0.88,2.9,3.3,74.0,11.0,NBA,2491.0,0.6,2.0,SG,20.9,2009,1.4,DAL,1.7,2.6
32.0,4.1,0.2,1.7,0.479,4.5,9.5,0.365,1.9,5.3,0.438,6.5,14.8,0.866,3.3,3.8,77.0,12.0,NBA,2540.0,0.3,2.0,SG,18.1,2010,1.3,DAL,1.5,2.0
33.0,4.7,0.2,1.8,0.493,5.1,10.4,0.362,1.8,4.9,0.451,6.9,15.3,0.85,2.6,3.0,82.0,10.0,NBA,2564.0,0.3,2.0,SG,18.2,2011,1.3,DAL,2.3,2.1
34.0,4.1,0.2,2.4,0.471,3.9,8.4,0.378,2.5,6.6,0.43,6.4,14.9,0.883,1.8,2.0,63.0,1.0,NBA,2000.0,0.3,1.2,SG,17.1,2012,1.3,DAL,2.3,2.7
35.0,3.4,0.2,2.4,0.498,2.7,5.4,0.372,2.1,5.6,0.434,4.8,11.0,0.87,1.9,2.2,79.0,24.0,NBA,2124.0,0.3,1.9,SG,13.5,2013,1.1,BOS,1.7,2.7
36.0,3.5,0.0,2.1,0.327,1.0,3.1,0.379,2.5,6.5,0.362,3.5,9.6,0.667,0.6,0.9,35.0,0.0,NBA,570.0,0.3,3.0,PG,10.0,2014,0.8,BRK,1.7,2.3
37.0,3.2,0.4,2.3,0.504,1.4,2.7,0.39,2.8,7.1,0.422,4.1,9.8,0.813,0.9,1.1,77.0,18.0,NBA,1641.0,0.3,2.5,SG,11.9,2015,1.4,HOU,1.6,2.7
38.0,2.9,0.3,1.9,0.504,1.7,3.3,0.356,2.7,7.5,0.402,4.3,10.8,0.818,0.8,0.9,72.0,7.0,NBA,1258.0,0.4,2.6,SG,12.1,2016,1.3,HOU,1.4,2.3
39.0,2.6,0.5,2.4,0.444,0.8,1.9,0.427,1.9,4.5,0.432,2.8,6.4,0.828,0.6,0.8,74.0,0.0,NBA,1365.0,0.4,2.5,SG,8.1,2017,1.2,MIL,0.9,2.8
40.0,2.6,0.6,1.9,0.487,0.8,1.7,0.348,1.8,5.1,0.383,2.6,6.8,0.889,0.4,0.4,51.0,4.0,NBA,814.0,0.2,2.3,SG,7.3,2018,1.9,MIL,1.1,2.1
