age,ast_per_g,blk_per_g,drb_per_g,efg_pct,fg2_pct,fg2_per_g,fg2a_per_g,fg3_pct,fg3_per_g,fg3a_per_g,fg_pct,fg_per_g,fga_per_g,ft_pct,ft_per_g,fta_per_g,g,gs,lg_id,mp_per_g,orb_per_g,pf_per_g,pos,pts_per_g,season,stl_per_g,team_id,tov_per_g,trb_per_g
20.0,0.2,0.1,1.0,0.537,0.489,0.9,1.8,0.429,0.3,0.8,0.471,1.2,2.6,0.625,0.2,0.3,53.0,0.0,NBA,8.7,0.5,0.8,PF,2.9,2018,0.1,IND,0.2,1.5
21.0,0.4,0.3,1.4,0.563,0.599,1.6,2.6,0.258,0.1,0.5,0.541,1.7,3.2,0.613,0.3,0.5,58.0,1.0,NBA,9.0,0.7,0.6,PF,3.9,2019,0.2,IND,0.2,2.2
22.0,0.4,0.3,2.4,0.41,0.394,1.4,3.7,0.333,0.2,0.7,0.385,1.7,4.3,0.75,0.3,0.4,9.0,1.0,NBA,12.4,1.4,1.4,PF,3.9,2020,0.4,IND,0.6,3.9
