age,ast_per_poss,blk_per_poss,def_rtg,drb_per_poss,fg2_pct,fg2_per_poss,fg2a_per_poss,fg3_pct,fg3_per_poss,fg3a_per_poss,fg_pct,fg_per_poss,fga_per_poss,ft_pct,ft_per_poss,fta_per_poss,g,gs,lg_id,mp,off_rtg,orb_per_poss,pf_per_poss,pos,pts_per_poss,season,stl_per_poss,team_id,tov_per_poss,trb_per_poss
24.0,3.2,0.2,112.0,6.1,0.461,4.7,10.2,0.391,3.9,10.0,0.426,8.6,20.1,0.842,1.7,2.0,82.0,55.0,NBA,1888.0,100.0,0.9,3.0,SG,22.7,2017,1.0,TOT,2.7,7.1
24.0,3.2,0.3,111.0,6.2,0.417,4.0,9.7,0.369,3.8,10.2,0.393,7.8,19.9,0.879,1.2,1.4,57.0,37.0,NBA,1161.0,97.0,0.8,3.4,SG,20.6,2017,0.8,NOP,2.0,7.0
24.0,3.1,0.1,113.0,6.1,0.525,5.8,11.0,0.428,4.1,9.6,0.48,9.9,20.6,0.814,2.4,3.0,25.0,18.0,NBA,727.0,105.0,1.1,2.4,SG,26.3,2017,1.4,SAC,3.7,7.2
25.0,3.9,0.5,111.0,6.3,0.457,6.0,13.1,0.431,4.4,10.2,0.446,10.4,23.3,0.877,1.8,2.0,80.0,12.0,NBA,2024.0,104.0,1.4,3.7,SG,27.0,2018,2.1,SAC,3.1,7.7
26.0,3.6,0.6,114.0,5.4,0.487,6.1,12.6,0.427,4.9,11.6,0.458,11.1,24.2,0.886,3.0,3.4,82.0,82.0,NBA,2615.0,113.0,1.9,3.6,SG,30.2,2019,1.0,SAC,2.6,7.3
27.0,2.4,0.8,114.0,5.5,0.453,5.3,11.8,0.378,5.3,14.1,0.412,10.7,25.9,0.867,2.0,2.4,10.0,10.0,NBA,309.0,97.0,1.3,3.9,SG,28.7,2020,0.9,SAC,4.4,6.8
