age,and1s,astd_pts,drawn_offensive,drawn_shooting,fouls_offensive,fouls_shooting,g,lg_id,mp,own_shots_blk,pct_1,pct_2,pct_3,pct_4,pct_5,plus_minus_net,plus_minus_on,pos,season,team_id,tov_bad_pass,tov_lost_ball
24.0,3.0,286.0,1.0,26.0,5.0,48.0,82.0,NBA,1888.0,43.0,1.0,71.0,27.0,0.0,0.0,-4.1,-6.0,SG,2017,TOT,46.0,39.0
24.0,3.0,179.0,1.0,15.0,4.0,35.0,57.0,NBA,1161.0,33.0,1.0,71.0,28.0,0.0,0.0,-7.4,-7.2,SG,2017,NOP,23.0,15.0
24.0,0.0,107.0,0.0,11.0,1.0,13.0,25.0,NBA,727.0,10.0,2.0,72.0,26.0,1.0,0.0,-0.2,-4.1,SG,2017,SAC,23.0,24.0
25.0,8.0,358.0,5.0,26.0,10.0,58.0,80.0,NBA,2024.0,54.0,13.0,83.0,4.0,0.0,0.0,7.3,-4.1,SG,2018,SAC,53.0,47.0
26.0,17.0,483.0,15.0,67.0,13.0,86.0,82.0,NBA,2615.0,54.0,6.0,92.0,2.0,0.0,0.0,2.1,-0.2,SG,2019,SAC,70.0,51.0
27.0,1.0,35.0,1.0,4.0,2.0,9.0,10.0,NBA,309.0,8.0,1.0,96.0,3.0,0.0,0.0,-2.8,-6.0,SG,2020,SAC,13.0,10.0
