article_url,date,headline
https://lastwordonprobasketball.com/2019/09/20/make-it-or-break-it-for-brett-brown/,2019/09/20,Last Word on Sports: Make It Or Break It For Brett Brown
https://sircharlesincharge.com/2019/07/27/philadelphia-76ers-trust-process-contender/,2019/07/27,Sir Charles In Charge: Trust The Process: How the Philadelphia 76ers built a contender
https://section215.com/2019/06/26/philadelphia-76ers-evan-turner-weird/,2019/06/26,Section 215: Philadelphia 76ers: The Evan Turner-era was WEIRD
