lg_id,salary,season,team_name
NBA,473604.0,2012,Philadelphia 76ers
NBA,3000000.0,2013,Philadelphia 76ers
NBA,3060000.0,2014,Philadelphia 76ers
NBA,948163.0,2015,Indiana Pacers
NBA,3700000.0,2016,Indiana Pacers
NBA,4000000.0,2017,Indiana Pacers
