age,ast_per_mp,blk_per_mp,drb_per_mp,fg2_pct,fg2_per_mp,fg2a_per_mp,fg3_pct,fg3_per_mp,fg3a_per_mp,fg_pct,fg_per_mp,fga_per_mp,ft_pct,ft_per_mp,fta_per_mp,g,gs,lg_id,mp,orb_per_mp,pf_per_mp,pos,pts_per_mp,season,stl_per_mp,team_id,tov_per_mp,trb_per_mp
22.0,1.2,0.7,6.9,0.49,5.3,10.9,0.0,0.0,0.1,0.487,5.3,11.0,0.662,1.5,2.3,73.0,0.0,NBA,1178.0,3.8,4.1,PF,12.2,1991,0.6,LAC,1.5,10.7
23.0,1.5,0.7,7.5,0.489,5.7,11.7,0.8,0.1,0.1,0.492,5.8,11.8,0.797,1.2,1.5,79.0,38.0,NBA,1687.0,3.4,3.5,PF,12.8,1992,0.8,LAC,1.4,10.9
24.0,1.2,0.8,7.1,0.51,6.8,13.3,0.25,0.0,0.1,0.508,6.8,13.4,0.748,2.5,3.4,79.0,4.0,NBA,1653.0,3.6,3.7,PF,16.2,1993,1.2,LAC,1.8,10.7
25.0,1.3,0.4,7.4,0.541,6.3,11.7,0.0,0.0,0.1,0.537,6.3,11.8,0.72,2.2,3.1,75.0,56.0,NBA,2118.0,3.7,3.8,PF,14.9,1994,1.3,LAC,1.6,11.2
26.0,1.7,0.4,6.2,0.523,7.3,14.0,0.212,0.1,0.4,0.514,7.4,14.4,0.71,2.1,3.0,80.0,79.0,NBA,2966.0,3.2,2.9,PF,17.0,1995,1.3,LAC,2.0,9.4
27.0,1.4,0.5,7.3,0.528,6.8,13.0,0.368,0.1,0.2,0.525,6.9,13.2,0.727,1.8,2.5,80.0,78.0,NBA,2966.0,2.5,2.9,PF,15.8,1996,1.1,LAC,1.9,9.8
28.0,1.4,0.3,7.5,0.504,6.8,13.6,0.167,0.0,0.2,0.5,6.9,13.8,0.702,1.7,2.4,82.0,82.0,NBA,2838.0,2.8,3.1,PF,15.5,1997,1.1,LAC,1.7,10.4
29.0,1.0,0.3,6.7,0.439,4.9,11.1,0.0,0.0,0.3,0.429,4.9,11.4,0.375,0.4,1.1,10.0,6.0,NBA,265.0,2.2,4.5,PF,10.2,1998,0.5,LAC,1.8,8.8
30.0,0.8,0.4,8.2,0.383,4.4,11.5,0.0,0.0,0.1,0.381,4.4,11.6,0.643,0.7,1.0,37.0,10.0,NBA,481.0,2.7,4.0,PF,9.5,1999,1.1,DET,1.3,10.9
31.0,1.4,0.5,8.0,0.372,3.9,10.6,0.0,0.0,0.4,0.36,3.9,11.0,0.688,1.4,2.0,43.0,0.0,NBA,292.0,3.2,5.5,PF,9.2,2000,0.7,DET,1.4,11.2
32.0,1.5,0.5,8.0,0.473,5.2,11.1,0.0,0.0,0.0,0.473,5.2,11.1,0.8,0.5,0.7,51.0,1.0,NBA,549.0,3.3,4.9,PF,11.0,2001,1.4,TOT,1.7,11.3
32.0,1.5,0.5,8.1,0.455,5.1,11.1,0.0,0.0,0.0,0.455,5.1,11.1,0.667,0.4,0.6,37.0,1.0,NBA,392.0,3.2,5.6,PF,10.5,2001,1.4,DAL,1.7,11.3
32.0,1.6,0.5,7.8,0.521,5.7,11.0,0.0,0.0,0.0,0.521,5.7,11.0,1.0,0.9,0.9,14.0,0.0,NBA,157.0,3.7,3.0,PF,12.4,2001,1.4,WAS,1.8,11.5
