age,ast,blk,drb,fg,fg2,fg2a,fg3,fg3a,fga,ft,fta,game_score,lg_id,mp,orb,pf,pts,season,stl,team_id,tov,trb
23.0,7.0,1.0,5.0,4.0,3.0,6.0,2.0,2.0,8.0,5.0,7.0,12.6,NBA,0.0,2.0,4.0,12.0,1994,2.0,NJN,3.0,5.0
24.0,5.0,2.0,4.0,8.0,7.0,11.0,4.0,6.0,14.0,5.0,8.0,18.9,NBA,0.0,2.0,5.0,20.0,1995,5.0,NJN,4.0,5.0
25.0,12.0,1.0,4.0,10.0,7.0,12.0,3.0,6.0,16.0,6.0,7.0,25.7,NBA,0.0,3.0,5.0,23.0,1996,4.0,TOT,5.0,6.0
25.0,3.0,0.0,3.0,3.0,2.0,8.0,1.0,6.0,14.0,2.0,2.0,4.7,NBA,0.0,1.0,2.0,9.0,1996,1.0,NJN,3.0,3.0
25.0,12.0,1.0,4.0,10.0,7.0,12.0,3.0,5.0,16.0,6.0,7.0,25.7,NBA,0.0,3.0,5.0,23.0,1996,4.0,PHI,5.0,6.0
26.0,11.0,1.0,8.0,11.0,8.0,10.0,5.0,11.0,17.0,4.0,4.0,29.6,NBA,0.0,3.0,6.0,27.0,1997,3.0,PHI,3.0,9.0
27.0,5.0,1.0,3.0,4.0,4.0,4.0,1.0,3.0,6.0,8.0,8.0,8.3,NBA,0.0,1.0,4.0,11.0,1998,2.0,TOT,3.0,3.0
27.0,5.0,0.0,3.0,2.0,2.0,2.0,1.0,3.0,4.0,8.0,8.0,5.7,NBA,0.0,1.0,3.0,11.0,1998,2.0,PHI,3.0,3.0
27.0,4.0,1.0,3.0,4.0,4.0,4.0,1.0,2.0,6.0,2.0,2.0,8.3,NBA,0.0,1.0,4.0,9.0,1998,1.0,MIA,3.0,3.0
28.0,9.0,2.0,3.0,4.0,3.0,6.0,2.0,4.0,7.0,4.0,4.0,8.4,NBA,0.0,2.0,5.0,9.0,1999,3.0,MIA,6.0,5.0
29.0,8.0,0.0,3.0,5.0,5.0,10.0,1.0,4.0,10.0,2.0,2.0,7.1,NBA,0.0,1.0,5.0,10.0,2000,1.0,MIA,3.0,3.0
