age,ast_per_mp,blk_per_mp,drb_per_mp,fg2_pct,fg2_per_mp,fg2a_per_mp,fg3_pct,fg3_per_mp,fg3a_per_mp,fg_pct,fg_per_mp,fga_per_mp,ft_pct,ft_per_mp,fta_per_mp,g,gs,lg_id,mp,orb_per_mp,pf_per_mp,pos,pts_per_mp,season,stl_per_mp,team_id,tov_per_mp,trb_per_mp
23.0,6.6,0.3,3.0,0.529,4.3,8.1,0.5,1.3,2.6,0.522,5.6,10.7,0.824,2.6,3.2,48.0,0.0,NBA,386.0,0.6,3.8,SG,15.1,1994,1.4,NJN,2.8,3.5
24.0,3.0,0.4,1.9,0.495,3.4,6.8,0.362,1.8,4.9,0.439,5.2,11.8,0.769,1.0,1.3,80.0,30.0,NBA,1435.0,0.5,3.4,SG,13.1,1995,0.9,NJN,1.8,2.3
25.0,6.3,0.2,2.5,0.476,2.3,4.8,0.333,1.3,3.9,0.412,3.6,8.7,0.808,2.5,3.1,44.0,8.0,NBA,610.0,0.8,3.1,SG,11.0,1996,1.5,TOT,2.4,3.2
25.0,4.6,0.0,2.1,0.429,3.7,8.7,0.25,1.2,5.0,0.364,5.0,13.7,1.0,2.5,2.5,11.0,0.0,NBA,87.0,0.8,1.7,SG,13.7,1996,1.2,NJN,2.9,2.9
25.0,6.5,0.3,2.5,0.492,2.1,4.2,0.352,1.3,3.7,0.426,3.4,7.9,0.783,2.5,3.2,33.0,8.0,NBA,523.0,0.8,3.4,SG,10.5,1996,1.5,PHI,2.3,3.3
26.0,3.9,0.1,3.0,0.514,3.1,6.1,0.385,2.0,5.1,0.455,5.1,11.2,0.79,1.7,2.1,59.0,16.0,NBA,1041.0,0.7,2.6,SG,13.9,1997,1.0,PHI,2.1,3.7
27.0,5.4,0.2,2.9,0.581,2.8,4.7,0.273,0.9,3.4,0.453,3.7,8.1,0.929,4.0,4.3,38.0,0.0,NBA,235.0,0.8,4.3,SG,12.3,1998,1.2,TOT,4.1,3.7
27.0,6.0,0.0,1.7,0.533,2.3,4.3,0.214,0.9,4.0,0.379,3.1,8.2,1.0,4.8,4.8,19.0,0.0,NBA,127.0,0.9,4.8,SG,11.9,1998,1.4,PHI,4.8,2.6
27.0,4.7,0.3,4.3,0.625,3.3,5.3,0.375,1.0,2.7,0.542,4.3,8.0,0.818,3.0,3.7,19.0,0.0,NBA,108.0,0.7,3.7,SG,12.7,1998,1.0,MIA,3.3,5.0
28.0,4.1,0.2,2.8,0.404,1.6,4.1,0.316,0.9,2.7,0.368,2.5,6.8,0.826,1.4,1.6,33.0,13.0,NBA,506.0,0.7,4.5,SG,7.2,1999,0.7,MIA,2.3,3.6
29.0,6.0,0.0,2.6,0.465,3.1,6.6,0.25,0.5,1.9,0.418,3.5,8.4,0.75,1.1,1.5,33.0,0.0,NBA,389.0,0.7,4.1,PG,8.6,2000,0.6,MIA,2.7,3.3
