age,ast_per_mp,blk_per_mp,drb_per_mp,fg2_pct,fg2_per_mp,fg2a_per_mp,fg3_pct,fg3_per_mp,fg3a_per_mp,fg_pct,fg_per_mp,fga_per_mp,ft_pct,ft_per_mp,fta_per_mp,g,gs,lg_id,mp,orb_per_mp,pf_per_mp,pos,pts_per_mp,season,stl_per_mp,team_id,tov_per_mp,trb_per_mp
26.0,0.0,0.0,4.7,0.571,6.3,11.0,0.0,0.0,0.0,0.571,6.3,11.0,0.0,0.0,0.0,4.0,1.0,NBA,23.0,3.1,6.3,C,12.5,2013,0.0,SAS,1.6,7.8
27.0,0.0,0.0,6.8,0.522,4.3,8.2,0.0,0.0,0.4,0.5,4.3,8.6,0.8,2.9,3.6,14.0,0.0,NBA,101.0,4.3,5.3,C,11.4,2014,1.1,SAS,2.5,11.0
28.0,0.9,0.0,6.3,0.3,2.7,9.0,0.0,0.0,0.0,0.3,2.7,9.0,1.0,2.7,2.7,4.0,0.0,NBA,40.0,2.7,8.1,C,8.1,2015,0.0,SAS,2.7,9.0
29.0,1.6,0.0,4.1,0.444,3.3,7.4,0.0,0.0,0.0,0.444,3.3,7.4,0.667,1.6,2.5,4.0,0.0,NBA,44.0,2.5,3.3,C,8.2,2016,0.0,DET,2.5,6.5
31.0,1.8,1.0,6.8,0.515,3.1,6.1,0.478,1.0,2.1,0.506,4.2,8.2,0.722,1.2,1.7,19.0,12.0,NBA,389.0,4.2,4.0,C,10.6,2018,0.4,BOS,0.7,10.9
32.0,0.9,0.9,5.9,0.75,1.9,2.5,0.333,0.6,1.9,0.571,2.5,4.4,0.5,0.3,0.6,9.0,5.0,NBA,115.0,1.9,6.3,C,5.9,2019,0.9,BOS,1.6,7.8
