age,and1s,astd_pts,drawn_offensive,drawn_shooting,fouls_offensive,fouls_shooting,g,lg_id,mp,own_shots_blk,pct_1,pct_2,pct_3,pct_4,pct_5,plus_minus_net,plus_minus_on,pos,season,team_id,tov_bad_pass,tov_lost_ball
26.0,2.0,11.0,0.0,7.0,6.0,11.0,16.0,NBA,141.0,0.0,0.0,0.0,0.0,0.0,100.0,-6.3,0.7,C,2013,SAS,2.0,2.0
27.0,2.0,77.0,2.0,10.0,8.0,32.0,53.0,NBA,491.0,17.0,0.0,0.0,0.0,10.0,90.0,-5.0,3.8,C,2014,SAS,12.0,8.0
28.0,11.0,84.0,3.0,39.0,21.0,56.0,70.0,NBA,1122.0,34.0,0.0,0.0,0.0,21.0,79.0,0.1,6.6,C,2015,SAS,18.0,21.0
29.0,11.0,124.0,4.0,64.0,28.0,73.0,81.0,NBA,1233.0,26.0,0.0,0.0,0.0,2.0,98.0,-6.0,-3.8,C,2016,DET,9.0,20.0
30.0,6.0,74.0,9.0,40.0,19.0,89.0,75.0,NBA,1163.0,22.0,0.0,0.0,0.0,2.0,98.0,10.5,5.9,C,2017,DET,12.0,11.0
31.0,8.0,225.0,4.0,33.0,23.0,94.0,81.0,NBA,1485.0,33.0,0.0,0.0,0.0,1.0,99.0,5.3,7.0,C,2018,BOS,27.0,9.0
32.0,4.0,144.0,20.0,23.0,20.0,71.0,51.0,NBA,821.0,12.0,0.0,0.0,0.0,0.0,100.0,4.2,8.1,C,2019,BOS,9.0,7.0
33.0,3.0,67.0,7.0,7.0,5.0,17.0,8.0,NBA,199.0,6.0,0.0,0.0,0.0,19.0,81.0,13.9,13.9,C,2020,PHO,2.0,1.0
