age,ast_per_g,blk_per_g,drb_per_g,efg_pct,fg2_pct,fg2_per_g,fg2a_per_g,fg3_pct,fg3_per_g,fg3a_per_g,fg_pct,fg_per_g,fga_per_g,ft_pct,ft_per_g,fta_per_g,g,gs,lg_id,mp_per_g,orb_per_g,pf_per_g,pos,pts_per_g,season,stl_per_g,team_id,tov_per_g,trb_per_g
24.0,0.0,0.0,0.0,1.5,0.0,0.0,0.0,1.0,1.0,1.0,1.0,1.0,1.0,0.0,0.0,0.0,1.0,0.0,NBA,1.0,0.0,0.0,SG,3.0,2018,0.0,UTA,0.0,0.0
25.0,1.1,0.1,0.4,0.35,0.444,0.3,0.6,0.182,0.1,0.8,0.3,0.4,1.4,1.0,0.1,0.1,14.0,0.0,NBA,6.0,0.1,0.7,SG,1.1,2019,0.1,UTA,0.6,0.4
26.0,1.0,1.0,0.0,0.0,0.0,0.0,0.0,0.0,0.0,1.0,0.0,0.0,1.0,0.0,0.0,0.0,1.0,0.0,NBA,3.0,0.0,0.0,SG,0.0,2020,0.0,IND,0.0,0.0
