age,ast_per_g,blk_per_g,drb_per_g,efg_pct,fg2_pct,fg2_per_g,fg2a_per_g,fg3_pct,fg3_per_g,fg3a_per_g,fg_pct,fg_per_g,fga_per_g,ft_pct,ft_per_g,fta_per_g,g,gs,lg_id,mp_per_g,orb_per_g,pf_per_g,pos,pts_per_g,season,stl_per_g,team_id,tov_per_g,trb_per_g
19.0,1.7,1.9,4.2,0.458,0.466,3.6,7.8,0.174,0.1,0.3,0.455,3.7,8.1,0.688,2.2,3.2,74.0,59.0,NBA,27.7,2.0,2.1,SF,9.7,2005,0.8,ATL,1.8,6.2
20.0,2.4,2.6,4.4,0.447,0.444,3.7,8.3,0.309,0.4,1.4,0.425,4.1,9.7,0.719,2.6,3.7,80.0,73.0,NBA,32.0,2.2,3.3,SF,11.3,2006,0.8,ATL,2.0,6.6
21.0,3.3,2.9,6.3,0.458,0.473,5.5,11.7,0.25,0.5,2.1,0.439,6.1,13.8,0.693,3.7,5.4,72.0,72.0,NBA,36.8,2.3,3.3,SF,16.4,2007,1.4,ATL,3.2,8.6
22.0,3.4,2.8,6.2,0.468,0.477,6.1,12.8,0.253,0.3,1.2,0.457,6.4,14.0,0.71,4.1,5.8,81.0,81.0,NBA,35.5,2.0,3.3,PF,17.2,2008,1.5,ATL,3.0,8.2
23.0,2.4,1.6,5.3,0.508,0.514,5.7,11.0,0.299,0.4,1.3,0.492,6.1,12.3,0.588,3.1,5.2,69.0,69.0,NBA,35.1,1.9,2.7,PF,15.6,2009,1.4,ATL,2.3,7.2
24.0,4.2,2.1,6.0,0.505,0.508,6.2,12.2,0.0,0.0,0.1,0.505,6.2,12.3,0.618,3.2,5.2,81.0,81.0,NBA,35.4,2.8,3.0,PF,15.7,2010,1.6,ATL,2.4,8.7
25.0,3.3,1.6,6.8,0.502,0.503,5.8,11.5,0.331,0.7,2.0,0.477,6.5,13.5,0.725,3.0,4.1,77.0,77.0,NBA,34.4,1.7,2.8,PF,16.5,2011,1.3,ATL,2.6,8.5
26.0,3.9,1.7,7.5,0.47,0.48,7.2,15.0,0.257,0.4,1.7,0.458,7.6,16.7,0.63,3.1,4.9,66.0,66.0,NBA,35.3,2.1,2.6,PF,18.8,2012,1.4,ATL,2.5,9.6
27.0,4.2,1.8,6.7,0.491,0.498,6.4,12.9,0.303,0.8,2.6,0.465,7.2,15.6,0.517,2.2,4.2,76.0,76.0,NBA,35.3,1.8,2.3,PF,17.5,2013,1.2,ATL,3.0,8.4
28.0,3.3,1.4,5.4,0.448,0.462,5.8,12.6,0.264,0.9,3.4,0.419,6.7,16.0,0.532,2.1,3.9,77.0,76.0,NBA,35.5,1.3,2.6,SF,16.4,2014,1.4,DET,2.6,6.8
29.0,3.3,1.4,4.6,0.456,0.451,4.1,9.1,0.316,0.9,2.7,0.419,5.0,11.9,0.498,1.5,3.1,83.0,35.0,NBA,27.7,1.8,2.7,PF,12.4,2015,1.0,TOT,2.5,6.4
29.0,4.7,1.7,5.4,0.403,0.407,5.1,12.6,0.243,0.3,1.3,0.391,5.5,14.0,0.468,1.9,4.0,28.0,28.0,NBA,32.0,1.9,2.9,PF,13.1,2015,1.3,DET,2.6,7.2
29.0,2.6,1.2,4.1,0.491,0.489,3.6,7.4,0.33,1.1,3.5,0.438,4.7,10.8,0.521,1.4,2.6,55.0,7.0,NBA,25.5,1.8,2.7,PF,12.0,2015,0.9,HOU,2.4,6.0
30.0,1.6,0.9,2.6,0.423,0.417,1.6,3.7,0.287,0.7,2.6,0.364,2.3,6.3,0.552,0.7,1.2,55.0,7.0,NBA,16.0,0.9,2.1,PF,6.0,2016,0.6,TOT,1.4,3.5
30.0,1.3,1.1,2.9,0.433,0.418,1.6,3.8,0.31,0.6,1.8,0.383,2.2,5.6,0.595,0.8,1.3,32.0,1.0,NBA,14.3,1.0,1.9,PF,5.7,2016,0.6,LAC,1.3,3.9
30.0,2.1,0.6,2.1,0.411,0.417,1.5,3.7,0.271,1.0,3.7,0.343,2.5,7.3,0.48,0.5,1.1,23.0,6.0,NBA,18.3,0.8,2.4,PF,6.6,2016,0.7,HOU,1.6,2.9
32.0,0.0,0.0,0.3,0.25,0.25,0.3,1.3,0.0,0.0,0.0,0.25,0.3,1.3,0.0,0.0,0.0,3.0,0.0,NBA,4.0,1.0,1.0,PF,0.7,2018,0.0,NOP,0.0,1.3
