article_url,date,headline
https://spacecityscoop.com/2019/11/08/houston-rockets-ranking-14-moves-daryl-morey/,2019/11/08,Space City Scoop: Ranking the 14 best moves by Houston Rockets GM Daryl Morey
https://pistonpowered.com/2019/11/05/3-things-detroit-pistons-would-like-re-do-last-10-years/,2019/11/05,Piston Powered: 3 things the Detroit Pistons would like to re-do in the last 10 years
https://pistonpowered.com/2019/09/23/detroit-pistons-stan-van-gundy-era-dwane-casey/,2019/09/23,Piston Powered: How the Detroit Pistons transitioned from Stan Van Gundy era to Dwane Casey's new reign
https://soaringdownsouth.com/2019/09/22/atlanta-hawks-goals-deandre-bembry/,2019/09/22,Soaring Down South: Atlanta Hawks: 3 Goals for DeAndre’ Bembry in 2019-20
