age,ast,blk,drb,fg,fg2,fg2a,fg3,fg3a,fga,ft,fta,game_score,lg_id,mp,orb,pf,pts,season,stl,team_id,tov,trb
21.0,0.0,0.0,0.0,17.0,17.0,0.0,0.0,0.0,28.0,11.0,12.0,0.0,NBA,0.0,0.0,0.0,39.0,1983,0.0,SDC,0.0,0.0
22.0,6.0,4.0,14.0,15.0,15.0,27.0,0.0,1.0,27.0,13.0,20.0,33.3,NBA,0.0,9.0,6.0,37.0,1984,4.0,SDC,6.0,19.0
23.0,9.0,3.0,13.0,17.0,17.0,29.0,0.0,1.0,29.0,10.0,13.0,33.2,NBA,0.0,9.0,6.0,39.0,1985,5.0,MIL,6.0,16.0
24.0,6.0,3.0,13.0,17.0,17.0,29.0,0.0,1.0,29.0,10.0,13.0,30.4,NBA,0.0,7.0,6.0,35.0,1986,4.0,MIL,7.0,17.0
25.0,10.0,4.0,13.0,16.0,16.0,26.0,0.0,1.0,26.0,13.0,14.0,39.3,NBA,0.0,11.0,6.0,39.0,1987,6.0,MIL,6.0,24.0
26.0,7.0,3.0,10.0,16.0,16.0,32.0,1.0,1.0,32.0,10.0,18.0,30.2,NBA,0.0,8.0,6.0,36.0,1988,5.0,MIL,7.0,15.0
27.0,6.0,5.0,14.0,15.0,15.0,31.0,2.0,2.0,31.0,12.0,13.0,34.7,NBA,0.0,10.0,6.0,38.0,1989,5.0,MIL,6.0,22.0
28.0,7.0,4.0,10.0,19.0,19.0,31.0,2.0,4.0,32.0,14.0,17.0,40.3,NBA,0.0,16.0,6.0,52.0,1990,6.0,SAS,7.0,24.0
29.0,5.0,3.0,11.0,14.0,14.0,25.0,1.0,2.0,27.0,7.0,10.0,26.1,NBA,0.0,11.0,6.0,31.0,1991,3.0,SAS,9.0,18.0
30.0,4.0,3.0,16.0,15.0,14.0,26.0,2.0,2.0,28.0,10.0,14.0,27.7,NBA,0.0,12.0,6.0,35.0,1992,3.0,SAS,5.0,24.0
31.0,1.0,1.0,4.0,3.0,3.0,7.0,0.0,0.0,7.0,2.0,6.0,6.4,NBA,0.0,2.0,4.0,7.0,1993,1.0,SAS,1.0,6.0
32.0,3.0,2.0,8.0,10.0,10.0,20.0,0.0,1.0,20.0,5.0,6.0,18.5,NBA,0.0,8.0,5.0,22.0,1994,4.0,SAS,3.0,12.0
33.0,4.0,2.0,12.0,8.0,8.0,13.0,0.0,0.0,13.0,5.0,8.0,16.4,NBA,0.0,7.0,6.0,19.0,1995,3.0,SAS,5.0,16.0
34.0,5.0,3.0,8.0,9.0,9.0,17.0,1.0,1.0,17.0,7.0,8.0,17.8,NBA,0.0,6.0,6.0,24.0,1996,5.0,MIL,3.0,12.0
35.0,3.0,1.0,7.0,9.0,9.0,14.0,1.0,1.0,14.0,7.0,9.0,18.2,NBA,0.0,5.0,5.0,18.0,1997,4.0,SEA,5.0,9.0
36.0,3.0,2.0,9.0,11.0,11.0,18.0,0.0,1.0,18.0,6.0,8.0,19.6,NBA,0.0,8.0,6.0,23.0,1998,4.0,TOT,4.0,11.0
36.0,3.0,1.0,6.0,7.0,7.0,14.0,0.0,1.0,14.0,3.0,6.0,14.2,NBA,0.0,8.0,6.0,16.0,1998,4.0,PHI,2.0,11.0
36.0,3.0,2.0,9.0,11.0,11.0,18.0,0.0,0.0,18.0,6.0,8.0,19.6,NBA,0.0,6.0,5.0,23.0,1998,2.0,NYK,4.0,11.0
37.0,5.0,2.0,9.0,8.0,8.0,16.0,1.0,1.0,16.0,7.0,8.0,25.0,NBA,0.0,7.0,6.0,24.0,1999,3.0,GSW,3.0,15.0
38.0,3.0,2.0,10.0,7.0,7.0,15.0,0.0,0.0,15.0,4.0,6.0,12.9,NBA,0.0,6.0,5.0,18.0,2000,3.0,GSW,4.0,10.0
