age,ast,blk,drb,fg,fg2,fg2a,fg3,fg3a,fga,ft,fta,game_score,lg_id,mp,orb,pf,pts,season,stl,team_id,tov,trb
22.0,5.0,2.0,5.0,10.0,8.0,13.0,4.0,7.0,16.0,9.0,12.0,26.8,NBA,0.0,5.0,5.0,31.0,1988,3.0,IND,4.0,7.0
23.0,9.0,3.0,8.0,11.0,11.0,15.0,6.0,11.0,20.0,13.0,14.0,34.2,NBA,0.0,4.0,6.0,36.0,1989,4.0,IND,5.0,10.0
24.0,10.0,2.0,7.0,15.0,13.0,24.0,7.0,10.0,28.0,15.0,17.0,36.2,NBA,0.0,5.0,6.0,44.0,1990,5.0,IND,6.0,9.0
25.0,11.0,2.0,8.0,14.0,13.0,18.0,6.0,11.0,22.0,15.0,16.0,38.3,NBA,0.0,6.0,6.0,40.0,1991,4.0,IND,6.0,10.0
26.0,9.0,2.0,7.0,14.0,11.0,18.0,5.0,9.0,27.0,14.0,15.0,34.2,NBA,0.0,4.0,6.0,37.0,1992,5.0,IND,6.0,10.0
27.0,8.0,2.0,7.0,16.0,12.0,20.0,8.0,16.0,29.0,21.0,23.0,50.4,NBA,0.0,4.0,5.0,57.0,1993,6.0,IND,7.0,9.0
28.0,10.0,2.0,7.0,14.0,12.0,18.0,5.0,11.0,22.0,15.0,16.0,34.0,NBA,0.0,3.0,6.0,38.0,1994,5.0,IND,8.0,8.0
29.0,9.0,2.0,9.0,12.0,9.0,15.0,7.0,13.0,22.0,12.0,13.0,36.0,NBA,0.0,2.0,5.0,40.0,1995,4.0,IND,6.0,9.0
30.0,8.0,2.0,6.0,14.0,11.0,20.0,7.0,11.0,26.0,14.0,15.0,32.3,NBA,0.0,3.0,5.0,40.0,1996,4.0,IND,8.0,9.0
31.0,8.0,2.0,9.0,14.0,9.0,20.0,8.0,14.0,28.0,14.0,15.0,33.3,NBA,0.0,3.0,6.0,40.0,1997,4.0,IND,6.0,12.0
32.0,7.0,1.0,6.0,12.0,9.0,16.0,7.0,11.0,21.0,13.0,15.0,29.0,NBA,0.0,3.0,6.0,35.0,1998,6.0,IND,5.0,7.0
33.0,6.0,1.0,7.0,11.0,6.0,16.0,6.0,13.0,23.0,13.0,14.0,23.6,NBA,0.0,5.0,6.0,34.0,1999,3.0,IND,5.0,12.0
34.0,8.0,3.0,7.0,12.0,9.0,16.0,6.0,11.0,22.0,19.0,21.0,26.9,NBA,0.0,3.0,5.0,32.0,2000,5.0,IND,5.0,9.0
35.0,8.0,3.0,9.0,13.0,9.0,17.0,7.0,12.0,23.0,10.0,11.0,34.9,NBA,0.0,3.0,5.0,41.0,2001,5.0,IND,4.0,10.0
36.0,7.0,2.0,8.0,9.0,7.0,11.0,6.0,12.0,19.0,10.0,12.0,23.9,NBA,0.0,3.0,5.0,30.0,2002,5.0,IND,4.0,8.0
37.0,7.0,1.0,7.0,10.0,7.0,11.0,7.0,11.0,21.0,11.0,11.0,23.0,NBA,0.0,3.0,5.0,28.0,2003,5.0,IND,4.0,10.0
38.0,8.0,1.0,5.0,10.0,5.0,8.0,7.0,12.0,17.0,8.0,8.0,30.0,NBA,0.0,2.0,5.0,31.0,2004,4.0,IND,4.0,6.0
39.0,7.0,1.0,7.0,13.0,10.0,15.0,5.0,10.0,21.0,14.0,15.0,31.5,NBA,0.0,2.0,4.0,39.0,2005,4.0,IND,5.0,7.0
