age,avg_dist,fg2_dunk,fg2_pct,fg2_pct_ast,fg2a_pct_fga,fg3_heave,fg3_pct,fg3_pct_ast,fg3_pct_corner,fg3a_heave,fg3a_pct_fga,fg_pct,fg_pct_00_03,fg_pct_03_10,fg_pct_10_16,fg_pct_16_xx,g,lg_id,mp,pct_fg2_dunk,pct_fg3a_corner,pct_fga_00_03,pct_fga_03_10,pct_fga_10_16,pct_fga_16_xx,pos,season,team_id
20.0,11.1,29.0,0.536,0.532,0.73,0.0,0.376,0.976,0.469,0.0,0.27,0.493,0.698,0.394,0.324,0.368,64.0,NBA,1534.0,0.082,0.45,0.369,0.176,0.092,0.094,SF,2012,SAS
21.0,12.7,47.0,0.554,0.544,0.669,0.0,0.374,0.985,0.43,0.0,0.331,0.494,0.659,0.438,0.51,0.424,58.0,NBA,1810.0,0.105,0.695,0.329,0.122,0.093,0.125,SF,2013,SAS
22.0,12.5,59.0,0.579,0.519,0.718,0.0,0.379,0.884,0.372,0.0,0.282,0.522,0.694,0.505,0.468,0.505,66.0,NBA,1923.0,0.098,0.429,0.304,0.147,0.119,0.147,SF,2014,SAS
23.0,13.1,49.0,0.519,0.45,0.766,0.0,0.349,0.97,0.459,0.0,0.234,0.479,0.724,0.426,0.481,0.416,64.0,NBA,2033.0,0.066,0.385,0.212,0.18,0.187,0.187,SF,2015,SAS
24.0,13.3,64.0,0.528,0.45,0.733,0.0,0.443,0.86,0.484,0.0,0.267,0.506,0.73,0.472,0.498,0.376,72.0,NBA,2380.0,0.061,0.22,0.207,0.148,0.201,0.178,SF,2016,SAS
25.0,14.8,67.0,0.529,0.384,0.706,0.0,0.381,0.782,0.483,0.0,0.294,0.485,0.664,0.527,0.441,0.493,74.0,NBA,2474.0,0.055,0.155,0.172,0.143,0.18,0.211,SF,2017,SAS
26.0,14.0,2.0,0.539,0.122,0.685,0.0,0.314,0.636,0.2,0.0,0.315,0.468,0.739,0.417,0.5,0.385,9.0,NBA,210.0,0.027,0.143,0.207,0.108,0.252,0.117,SF,2018,SAS
27.0,13.3,54.0,0.542,0.283,0.733,0.0,0.371,0.67,0.42,0.0,0.267,0.496,0.701,0.464,0.472,0.44,60.0,NBA,2040.0,0.05,0.166,0.249,0.147,0.188,0.149,SF,2019,TOR
28.0,14.5,8.0,0.493,0.183,0.746,0.0,0.286,0.5,0.5,0.0,0.254,0.44,0.75,0.293,0.531,0.5,9.0,NBA,292.0,0.047,0.082,0.124,0.212,0.254,0.155,SF,2020,LAC
