age,ast_per_poss,blk_per_poss,def_rtg,drb_per_poss,fg2_pct,fg2_per_poss,fg2a_per_poss,fg3_pct,fg3_per_poss,fg3a_per_poss,fg_pct,fg_per_poss,fga_per_poss,ft_pct,ft_per_poss,fta_per_poss,g,gs,lg_id,mp,off_rtg,orb_per_poss,pf_per_poss,pos,pts_per_poss,season,stl_per_poss,team_id,tov_per_poss,trb_per_poss
20.0,2.4,0.8,101.0,7.5,0.536,5.3,9.9,0.376,1.4,3.7,0.493,6.7,13.6,0.773,2.3,3.0,64.0,39.0,NBA,1534.0,119.0,3.5,3.0,SF,17.1,2012,2.9,SAS,1.5,11.0
21.0,2.6,0.9,99.0,8.0,0.554,5.5,9.9,0.374,1.8,4.9,0.494,7.3,14.8,0.825,2.9,3.5,58.0,57.0,NBA,1810.0,114.0,1.8,2.8,SF,19.4,2013,2.7,SAS,1.7,9.7
22.0,3.5,1.3,98.0,8.8,0.579,7.0,12.2,0.379,1.8,4.8,0.522,8.9,17.0,0.802,2.7,3.3,66.0,65.0,NBA,1923.0,116.0,2.0,3.3,SF,22.2,2014,3.0,SAS,2.1,10.8
23.0,4.1,1.2,96.0,9.5,0.519,8.2,15.9,0.349,1.7,4.8,0.479,9.9,20.7,0.802,5.1,6.3,64.0,64.0,NBA,2033.0,113.0,2.1,3.2,SF,26.6,2015,3.7,SAS,2.4,11.6
24.0,4.0,1.5,96.0,8.6,0.528,9.1,17.2,0.443,2.8,6.3,0.506,11.9,23.4,0.874,6.3,7.2,72.0,72.0,NBA,2380.0,121.0,2.0,2.9,SF,32.8,2016,2.8,SAS,2.3,10.6
25.0,5.4,1.1,102.0,7.2,0.529,10.1,19.1,0.38,3.0,8.0,0.485,13.1,27.0,0.88,9.7,11.0,74.0,74.0,NBA,2474.0,121.0,1.6,2.5,SF,38.9,2017,2.7,SAS,3.2,8.9
26.0,5.1,2.2,97.0,8.7,0.539,9.9,18.3,0.314,2.6,8.4,0.468,12.5,26.7,0.816,7.5,9.1,9.0,9.0,NBA,210.0,109.0,1.4,2.2,SF,35.1,2018,4.3,SAS,3.8,10.1
27.0,4.7,0.6,105.0,8.5,0.542,10.5,19.4,0.371,2.6,7.1,0.496,13.2,26.5,0.854,8.6,10.0,60.0,60.0,NBA,2040.0,119.0,1.8,2.0,SF,37.5,2019,2.5,TOR,2.8,10.3
28.0,8.7,1.4,100.0,10.9,0.493,11.4,23.1,0.286,2.2,7.9,0.44,13.6,31.0,0.851,9.1,10.7,9.0,9.0,NBA,292.0,106.0,1.9,3.5,SF,38.7,2020,3.0,LAC,5.9,12.8
