age,ast,blk,fg,fg3,fg3_pct,fg3a,fg_pct,fga,ft,ft_pct,fta,g,gs,lg_id,mp,orb,pf,pos,pts,season,stl,team_id,tov,trb
24.0,3.0,0.0,8.0,1.0,0.167,6.0,0.533,15.0,0.0,0.0,0.0,1.0,1.0,NBA,26,3.0,0.0,SF,17.0,2016,2.0,SAS,2.0,6.0
25.0,2.0,0.0,2.0,0.0,0.0,2.0,0.5,4.0,0.0,0.0,0.0,1.0,1.0,NBA,15,0.0,0.0,SF,4.0,2017,1.0,SAS,0.0,2.0
27.0,2.0,1.0,7.0,5.0,0.455,11.0,0.5,14.0,0.0,0.0,0.0,1.0,1.0,NBA,19,1.0,1.0,SF,19.0,2019,0.0,TOR,0.0,5.0
