age,ast,ast_per_g,blk,college_id,fg,fg3,fg3_pct,fg3a,fg_pct,fga,ft,ft_pct,fta,g,mp,mp_per_g,orb,pf,pts,pts_per_g,season,stl,tov,trb,trb_per_g
18.0,65.0,1.9,24.0,SANDIEGOST,166.0,16.0,0.205,78.0,0.455,365.0,85.0,0.726,117.0,34.0,1064.0,31.3,119.0,85.0,433.0,12.7,2010,47.0,77.0,336.0,9.9
19.0,91.0,2.5,21.0,SANDIEGOST,211.0,25.0,0.291,86.0,0.444,475.0,110.0,0.759,145.0,36.0,1172.0,32.6,111.0,89.0,557.0,15.5,2011,51.0,76.0,380.0,10.6
