age,ast,blk,drb,efg_pct,fg,fg2,fg2_pct,fg2a,fg3,fg3_pct,fg3a,fg_pct,fga,ft,ft_pct,fta,g,gs,lg_id,mp,orb,pf,pos,pts,season,stl,team_id,tov,trb
21.0,8.0,6.0,17.0,0.404,25.0,20.0,0.435,46.0,5.0,0.227,22.0,0.368,68.0,12.0,0.667,18.0,10.0,10.0,NBA,248.0,3.0,20.0,PG,67.0,2012,8.0,BOS,10.0,20.0
22.0,8.0,1.0,10.0,0.429,17.0,15.0,0.441,34.0,2.0,0.25,8.0,0.405,42.0,4.0,1.0,4.0,6.0,6.0,NBA,191.0,3.0,11.0,PG,40.0,2013,11.0,BOS,11.0,13.0
24.0,3.0,0.0,12.0,0.43,19.0,14.0,0.452,31.0,5.0,0.263,19.0,0.38,50.0,6.0,0.857,7.0,4.0,4.0,NBA,133.0,3.0,13.0,SG,49.0,2015,3.0,BOS,3.0,15.0
25.0,1.0,1.0,1.0,0.469,7.0,6.0,0.667,9.0,1.0,0.143,7.0,0.438,16.0,3.0,1.0,3.0,1.0,1.0,NBA,33.0,2.0,2.0,SG,18.0,2016,1.0,BOS,1.0,3.0
26.0,41.0,3.0,53.0,0.515,120.0,80.0,0.506,158.0,40.0,0.351,114.0,0.441,272.0,21.0,0.778,27.0,18.0,18.0,NBA,645.0,18.0,40.0,SG,301.0,2017,23.0,BOS,31.0,71.0
