age,ast,ast_per_g,blk,college_id,fg,fg3,fg3_pct,fg3a,fg_pct,fga,ft,ft_pct,fta,g,mp,mp_per_g,orb,pf,pts,pts_per_g,season,stl,tov,trb,trb_per_g
20.0,169.0,5.1,35.0,NCSTATE,94.0,0.0,0.0,0.0,0.454,207.0,64.0,0.674,95.0,33.0,973.0,29.5,0.0,92.0,252.0,7.6,1985,59.0,86.0,189.0,5.7
21.0,233.0,6.9,27.0,NCSTATE,127.0,0.0,0.0,0.0,0.485,262.0,66.0,0.733,90.0,34.0,1208.0,35.5,0.0,88.0,320.0,9.4,1986,90.0,98.0,155.0,4.6
