age,ast,blk,drb,efg_pct,fg,fg2,fg2_pct,fg2a,fg3,fg3_pct,fg3a,fg_pct,fga,ft,ft_pct,fta,g,gs,lg_id,mp,orb,pf,pos,pts,season,stl,team_id,tov,trb
22.0,112.0,10.0,41.0,0.435,27.0,27.0,0.435,62.0,0.0,0.0,0.0,0.435,62.0,17.0,0.708,24.0,14.0,14.0,NBA,356.0,13.0,42.0,PG,71.0,1987,14.0,SEA,26.0,54.0
23.0,33.0,3.0,15.0,0.343,12.0,12.0,0.353,34.0,0.0,0.0,1.0,0.343,35.0,9.0,0.643,14.0,5.0,5.0,NBA,127.0,6.0,11.0,PG,33.0,1988,2.0,SEA,8.0,21.0
24.0,63.0,5.0,16.0,0.475,19.0,19.0,0.5,38.0,0.0,0.0,2.0,0.475,40.0,16.0,0.64,25.0,8.0,7.0,NBA,200.0,9.0,21.0,PG,54.0,1989,10.0,SEA,19.0,25.0
26.0,22.0,1.0,12.0,0.261,6.0,6.0,0.286,21.0,0.0,0.0,2.0,0.261,23.0,2.0,0.5,4.0,5.0,0.0,NBA,95.0,6.0,15.0,SG,14.0,1991,6.0,SEA,3.0,18.0
27.0,63.0,3.0,19.0,0.458,35.0,29.0,0.509,57.0,6.0,0.231,26.0,0.422,83.0,10.0,0.714,14.0,9.0,2.0,NBA,246.0,14.0,35.0,PG,86.0,1992,16.0,SEA,22.0,33.0
28.0,103.0,11.0,46.0,0.364,35.0,30.0,0.38,79.0,5.0,0.208,24.0,0.34,103.0,16.0,0.533,30.0,19.0,2.0,NBA,415.0,21.0,54.0,PG,91.0,1993,40.0,SEA,25.0,67.0
29.0,10.0,1.0,10.0,0.4,8.0,4.0,0.286,14.0,4.0,0.364,11.0,0.32,25.0,1.0,0.25,4.0,5.0,0.0,NBA,109.0,6.0,18.0,PG,21.0,1994,6.0,SEA,5.0,16.0
30.0,29.0,2.0,11.0,0.37,8.0,7.0,0.467,15.0,1.0,0.125,8.0,0.348,23.0,2.0,1.0,2.0,4.0,4.0,NBA,113.0,7.0,13.0,PG,19.0,1995,10.0,SEA,7.0,18.0
31.0,52.0,5.0,57.0,0.543,28.0,9.0,0.31,29.0,19.0,0.475,40.0,0.406,69.0,9.0,0.643,14.0,19.0,0.0,NBA,385.0,13.0,34.0,PG,84.0,1996,23.0,SEA,20.0,70.0
32.0,3.0,0.0,4.0,0.0,0.0,0.0,0.0,0.0,0.0,0.0,2.0,0.0,2.0,0.0,0.0,0.0,3.0,0.0,NBA,41.0,1.0,11.0,PG,0.0,1997,1.0,SEA,2.0,5.0
33.0,15.0,2.0,14.0,0.389,6.0,4.0,0.667,6.0,2.0,0.167,12.0,0.333,18.0,2.0,1.0,2.0,7.0,0.0,NBA,99.0,2.0,17.0,SG,16.0,1998,3.0,SEA,2.0,16.0
