lg_id,salary,season,team_name
NBA,129000.0,1988,Seattle SuperSonics
NBA,159000.0,1989,Seattle SuperSonics
NBA,658000.0,1991,Seattle SuperSonics
NBA,733000.0,1992,Seattle SuperSonics
NBA,750000.0,1993,Seattle SuperSonics
NBA,850000.0,1994,Seattle SuperSonics
NBA,1060000.0,1995,Seattle SuperSonics
NBA,1265000.0,1996,Seattle SuperSonics
NBA,1355000.0,1997,Seattle SuperSonics
NBA,3500000.0,1998,Seattle SuperSonics
