age,ast_pct,blk_pct,bpm,bpm-dum,dbpm,drb_pct,dws,fg3a_per_fga_pct,fta_per_fga_pct,g,lg_id,mp,obpm,orb_pct,ows,per,pos,season,stl_pct,team_id,tov_pct,trb_pct,ts_pct,usg_pct,vorp,ws,ws-dum,ws_per_48
23.0,7.0,1.0,-7.0,0.0,-1.8,12.4,0.1,0.543,0.196,13.0,NBA,165.0,-5.2,0.7,-0.2,6.1,SF,2014,1.8,TOT,12.3,6.4,0.44,15.1,-0.2,-0.1,0.0,-0.021
23.0,5.6,1.5,-8.1,0.0,-2.2,14.9,0.0,0.556,0.222,4.0,NBA,54.0,-5.9,2.2,-0.1,6.2,SF,2014,0.9,ATL,16.8,8.6,0.455,20.0,-0.1,-0.1,0.0,-0.055
23.0,7.7,0.7,-6.4,0.0,-1.6,11.1,0.1,0.536,0.179,9.0,NBA,111.0,-4.8,0.0,-0.1,6.1,SF,2014,2.2,PHI,9.0,5.4,0.43,12.7,-0.1,0.0,0.0,-0.005
28.0,9.5,0.0,-6.4,0.0,-4.8,5.3,0.0,0.735,0.118,15.0,NBA,102.0,-1.6,0.0,0.1,7.3,SF,2019,0.5,TOT,2.7,2.6,0.503,15.3,-0.1,0.1,0.0,0.035
28.0,10.9,0.0,-4.2,0.0,-4.5,6.8,0.0,0.619,0.19,13.0,NBA,64.0,0.3,0.0,0.1,12.1,SF,2019,0.7,MIN,4.2,3.3,0.593,15.6,0.0,0.1,0.0,0.097
28.0,7.2,0.0,-10.2,0.0,-5.3,3.0,0.0,0.923,0.0,2.0,NBA,38.0,-4.9,0.0,-0.1,-0.8,SF,2019,0.0,HOU,0.0,1.5,0.346,14.8,-0.1,-0.1,0.0,-0.068
