age,ast_pct,blk_pct,bpm,bpm-dum,dbpm,drb_pct,dws,fg3a_per_fga_pct,fta_per_fga_pct,g,lg_id,mp,obpm,orb_pct,ows,per,pos,season,stl_pct,team_id,tov_pct,trb_pct,ts_pct,usg_pct,vorp,ws,ws-dum,ws_per_48
22.0,7.4,3.8,0.2,0.0,1.6,19.5,3.4,0.005,0.449,80.0,NBA,2289.0,-1.4,10.7,1.9,16.5,PF,1995,1.1,SAC,14.4,15.2,0.546,22.0,1.3,5.3,0.0,0.112
23.0,9.2,3.2,-0.2,0.0,0.8,17.9,2.3,0.02,0.425,78.0,NBA,2398.0,-0.9,8.4,2.4,15.8,PF,1996,0.9,SAC,15.6,13.2,0.56,21.7,1.1,4.7,0.0,0.094
24.0,7.6,3.1,-2.4,0.0,0.4,18.1,0.7,0.0,0.435,24.0,NBA,607.0,-2.9,9.3,0.3,14.5,PF,1997,1.7,SAC,15.1,13.6,0.511,21.5,-0.1,1.0,0.0,0.075
25.0,7.7,1.7,1.3,0.0,1.2,20.9,3.0,0.002,0.409,61.0,NBA,1921.0,0.1,12.4,3.3,16.7,SF,1998,1.2,POR,14.3,16.8,0.561,18.1,1.6,6.3,0.0,0.157
26.0,7.4,1.7,1.9,0.0,1.3,21.7,2.5,0.0,0.592,48.0,NBA,1525.0,0.6,13.6,3.4,17.0,PF,1999,0.7,POR,16.6,17.8,0.571,17.3,1.5,5.9,0.0,0.185
27.0,7.7,1.6,-0.2,0.0,0.9,18.9,2.0,0.006,0.472,63.0,NBA,1322.0,-1.1,11.4,1.5,14.0,PF,2000,1.3,POR,16.5,15.3,0.54,17.8,0.6,3.5,0.0,0.128
28.0,7.2,2.0,-0.2,0.0,1.0,21.5,5.0,0.001,0.35,82.0,NBA,2771.0,-1.2,9.3,3.7,17.5,C,2001,1.2,MIA,12.7,15.4,0.536,23.4,1.2,8.7,0.0,0.151
29.0,10.5,1.1,0.3,0.0,2.2,20.9,3.7,0.003,0.195,72.0,NBA,2256.0,-1.9,8.8,1.1,12.7,PF,2002,1.2,MIA,15.6,14.9,0.508,16.6,1.3,4.8,0.0,0.103
30.0,7.2,1.4,0.9,0.0,2.1,26.8,4.1,0.0,0.303,82.0,NBA,2641.0,-1.1,10.2,3.5,15.6,C,2003,1.3,MIA,14.4,18.3,0.552,16.0,2.0,7.7,0.0,0.139
31.0,5.3,1.2,-1.4,0.0,0.6,17.9,2.8,0.002,0.179,76.0,NBA,2303.0,-2.0,8.7,2.1,12.1,C,2004,1.2,MIA,11.0,13.3,0.502,15.2,0.4,4.9,0.0,0.101
32.0,4.7,1.5,-2.6,0.0,-0.4,15.4,0.4,0.0,0.378,69.0,NBA,1136.0,-2.2,10.1,1.2,10.0,C,2005,1.1,LAL,15.0,12.8,0.539,11.4,-0.2,1.6,0.0,0.068
33.0,3.8,0.8,-5.9,0.0,-0.3,20.1,0.3,0.0,0.123,21.0,NBA,248.0,-5.6,5.0,-0.1,6.6,C,2006,1.0,PHO,9.3,12.8,0.445,13.6,-0.2,0.2,0.0,0.041
