age,ast,blk,drb,efg_pct,fg,fg2,fg2_pct,fg2a,fg3,fg3_pct,fg3a,fg_pct,fga,ft,ft_pct,fta,g,gs,lg_id,mp,orb,pf,pos,pts,season,stl,team_id,tov,trb
23.0,4.0,7.0,13.0,0.381,16.0,16.0,0.381,42.0,0.0,0.0,0.0,0.381,42.0,7.0,0.5,14.0,4.0,4.0,NBA,124.0,7.0,14.0,PF,39.0,1996,2.0,SAC,13.0,20.0
25.0,6.0,3.0,25.0,0.528,19.0,19.0,0.528,36.0,0.0,0.0,0.0,0.528,36.0,15.0,0.833,18.0,4.0,4.0,NBA,135.0,18.0,20.0,SF,53.0,1998,4.0,POR,5.0,43.0
26.0,14.0,16.0,85.0,0.529,63.0,63.0,0.529,119.0,0.0,0.0,0.0,0.529,119.0,45.0,0.625,72.0,13.0,13.0,NBA,482.0,34.0,48.0,PF,171.0,1999,10.0,POR,21.0,119.0
27.0,8.0,6.0,55.0,0.446,29.0,29.0,0.446,65.0,0.0,0.0,0.0,0.446,65.0,29.0,0.744,39.0,16.0,0.0,NBA,320.0,37.0,53.0,PF,87.0,2000,6.0,POR,17.0,92.0
28.0,1.0,5.0,18.0,0.417,10.0,10.0,0.417,24.0,0.0,0.0,0.0,0.417,24.0,10.0,0.714,14.0,3.0,0.0,NBA,84.0,6.0,9.0,C,30.0,2001,0.0,MIA,6.0,24.0
31.0,10.0,8.0,67.0,0.429,42.0,42.0,0.433,97.0,0.0,0.0,1.0,0.429,98.0,8.0,0.571,14.0,13.0,13.0,NBA,399.0,45.0,52.0,C,92.0,2004,7.0,MIA,18.0,112.0
33.0,0.0,0.0,0.0,0.333,1.0,1.0,0.333,3.0,0.0,0.0,0.0,0.333,3.0,0.0,0.0,2.0,5.0,0.0,NBA,12.0,2.0,7.0,C,2.0,2006,0.0,PHO,0.0,2.0
