age,ast_per_mp,blk_per_mp,drb_per_mp,fg2_pct,fg2_per_mp,fg2a_per_mp,fg3_pct,fg3_per_mp,fg3a_per_mp,fg_pct,fg_per_mp,fga_per_mp,ft_pct,ft_per_mp,fta_per_mp,g,gs,lg_id,mp,orb_per_mp,pf_per_mp,pos,pts_per_mp,season,stl_per_mp,team_id,tov_per_mp,trb_per_mp
18.0,0.0,9.0,9.0,0.0,0.0,9.0,0.0,0.0,9.0,0.0,0.0,18.0,0.0,0.0,18.0,2.0,0.0,NBA,4.0,0.0,0.0,PF,0.0,1997,0.0,POR,0.0,9.0
19.0,0.0,24.0,0.0,0.0,0.0,24.0,0.0,0.0,12.0,0.0,0.0,36.0,0.0,0.0,0.0,1.0,0.0,NBA,3.0,12.0,12.0,PF,0.0,1998,0.0,POR,0.0,12.0
20.0,0.7,2.0,5.9,0.4,2.6,6.5,0.0,0.0,0.0,0.4,2.6,6.5,0.5,3.9,7.9,9.0,0.0,NBA,55.0,5.2,7.2,PF,9.2,1999,0.0,POR,1.3,11.1
21.0,0.9,2.8,4.7,0.273,2.8,10.4,0.0,0.0,0.0,0.273,2.8,10.4,0.667,5.7,8.5,8.0,0.0,NBA,38.0,1.9,8.5,C,11.4,2000,0.0,POR,0.0,6.6
22.0,1.6,2.3,8.7,0.447,3.9,8.7,0.0,0.0,0.2,0.436,3.9,8.9,0.5,1.1,2.3,4.0,4.0,NBA,157.0,2.8,3.0,C,8.9,2001,0.0,IND,1.6,11.5
23.0,0.9,1.5,6.0,0.453,6.4,14.1,0.0,0.0,0.2,0.447,6.4,14.2,0.75,3.4,4.5,5.0,5.0,NBA,192.0,1.1,4.5,PF,16.1,2002,0.7,IND,2.6,7.1
24.0,0.5,2.4,10.7,0.483,5.7,11.8,0.0,0.0,0.4,0.467,5.7,12.2,0.785,6.8,8.6,6.0,6.0,NBA,272.0,3.2,2.9,PF,18.1,2003,0.4,IND,2.4,13.9
25.0,1.1,2.1,7.0,0.429,6.9,16.0,0.0,0.0,0.2,0.423,6.9,16.2,0.7,4.6,6.6,16.0,16.0,NBA,604.0,1.7,3.2,PF,18.3,2004,0.5,IND,1.7,8.7
26.0,2.2,2.6,6.3,0.37,5.8,15.7,0.0,0.0,0.2,0.365,5.8,16.0,0.75,4.1,5.4,13.0,13.0,NBA,476.0,1.6,3.6,PF,15.7,2005,0.5,IND,2.7,7.9
27.0,1.7,2.3,6.0,0.537,7.3,13.7,0.0,0.0,0.3,0.524,7.3,14.0,0.717,6.3,8.8,6.0,6.0,NBA,216.0,1.5,4.7,PF,21.0,2006,0.5,IND,4.3,7.5
30.0,2.0,2.0,4.4,0.549,6.2,11.3,0.0,0.0,0.0,0.549,6.2,11.3,0.75,5.3,7.1,6.0,5.0,NBA,162.0,1.6,4.0,C,17.8,2009,0.7,MIA,2.2,6.0
31.0,1.5,3.1,5.5,0.205,2.8,13.5,0.0,0.0,0.0,0.205,2.8,13.5,0.429,0.9,2.2,5.0,5.0,NBA,117.0,3.1,4.0,C,6.5,2010,1.2,MIA,2.2,8.6
32.0,1.5,2.9,4.2,0.488,3.8,7.9,0.0,0.0,0.0,0.488,3.8,7.9,0.909,1.8,2.0,9.0,9.0,NBA,197.0,2.7,6.2,C,9.5,2011,0.4,BOS,1.5,6.9
35.0,0.4,1.3,5.1,0.563,7.7,13.7,0.0,0.0,0.0,0.563,7.7,13.7,0.75,2.6,3.4,7.0,3.0,NBA,84.0,5.1,5.1,PF,18.0,2014,0.4,GSW,1.7,10.3
