age,ast_per_poss,blk_per_poss,def_rtg,drb_per_poss,fg2_pct,fg2_per_poss,fg2a_per_poss,fg3_pct,fg3_per_poss,fg3a_per_poss,fg_pct,fg_per_poss,fga_per_poss,ft_pct,ft_per_poss,fta_per_poss,g,gs,lg_id,mp,off_rtg,orb_per_poss,pf_per_poss,pos,pts_per_poss,season,stl_per_poss,team_id,tov_per_poss,trb_per_poss
18.0,0.9,3.0,102.0,9.8,0.454,8.0,17.5,0.0,0.0,0.1,0.451,8.0,17.6,0.603,5.4,9.0,45.0,0.0,NBA,458.0,100.0,4.5,5.3,PF,21.3,1997,0.2,POR,3.1,14.3
19.0,1.1,3.8,100.0,8.0,0.489,7.4,15.1,0.0,0.0,0.1,0.485,7.4,15.2,0.506,3.0,5.9,60.0,9.0,NBA,808.0,96.0,5.3,6.7,PF,17.8,1998,1.0,POR,3.6,13.3
20.0,2.2,2.4,97.0,9.5,0.439,6.2,14.2,0.0,0.0,0.2,0.434,6.2,14.4,0.514,3.1,6.1,36.0,1.0,NBA,311.0,102.0,7.3,7.1,PF,15.6,1999,0.7,POR,2.4,16.8
21.0,1.1,3.4,100.0,8.2,0.489,6.7,13.7,0.0,0.0,0.1,0.486,6.7,13.8,0.582,3.5,6.1,70.0,8.0,NBA,859.0,104.0,6.0,7.9,C,17.0,2000,0.7,POR,2.9,14.2
22.0,2.0,4.6,97.0,11.1,0.468,8.2,17.5,0.0,0.0,0.1,0.465,8.2,17.6,0.601,4.7,7.9,81.0,80.0,NBA,2641.0,100.0,5.1,5.7,C,21.2,2001,1.0,IND,3.3,16.1
23.0,2.3,3.2,101.0,11.0,0.484,10.5,21.6,0.071,0.0,0.3,0.479,10.5,21.9,0.688,5.5,8.0,72.0,72.0,NBA,2707.0,102.0,3.6,5.2,PF,26.4,2002,0.9,IND,3.4,14.6
24.0,2.8,3.3,97.0,10.9,0.487,11.0,22.7,0.333,0.1,0.4,0.484,11.2,23.1,0.731,6.8,9.3,77.0,76.0,NBA,2864.0,107.0,3.7,5.1,PF,29.3,2003,1.2,IND,3.3,14.6
25.0,3.2,3.9,93.0,11.5,0.438,11.9,27.2,0.111,0.0,0.4,0.434,12.0,27.5,0.757,6.8,9.1,78.0,78.0,NBA,2788.0,100.0,3.8,4.9,PF,30.8,2004,1.2,IND,3.6,15.3
26.0,3.0,3.2,101.0,10.9,0.454,13.9,30.5,0.167,0.0,0.2,0.452,13.9,30.7,0.754,10.6,14.1,44.0,41.0,NBA,1530.0,102.0,3.1,6.2,PF,38.4,2005,0.9,IND,4.7,14.0
27.0,4.0,3.5,99.0,11.1,0.474,11.2,23.6,0.3,0.1,0.3,0.472,11.3,23.9,0.709,7.8,10.9,51.0,47.0,NBA,1802.0,102.0,3.0,5.3,PF,30.4,2006,0.8,IND,4.5,14.1
28.0,3.5,3.8,101.0,10.7,0.439,10.5,23.9,0.0,0.0,0.1,0.436,10.5,24.1,0.767,7.2,9.4,69.0,69.0,NBA,2459.0,99.0,3.2,4.9,C,28.3,2007,1.1,IND,4.3,14.0
29.0,3.8,3.5,105.0,8.2,0.444,9.2,20.7,0.0,0.0,0.2,0.439,9.2,20.9,0.742,4.9,6.6,42.0,34.0,NBA,1206.0,95.0,3.3,5.3,C,23.3,2008,0.8,IND,4.3,11.5
30.0,3.2,3.5,107.0,8.0,0.475,9.5,20.0,0.0,0.0,0.0,0.474,9.5,20.0,0.788,4.5,5.8,68.0,61.0,NBA,2027.0,100.0,3.3,5.5,C,23.5,2009,0.8,TOT,3.7,11.2
30.0,2.9,3.5,107.0,9.3,0.474,9.4,19.9,0.0,0.0,0.0,0.473,9.4,20.0,0.81,4.9,6.1,41.0,34.0,NBA,1216.0,99.0,3.0,5.6,C,23.8,2009,0.8,TOR,3.9,12.4
30.0,3.6,3.6,108.0,5.9,0.475,9.5,20.1,0.0,0.0,0.0,0.475,9.5,20.1,0.75,4.0,5.3,27.0,27.0,NBA,811.0,102.0,3.6,5.3,C,23.0,2009,0.7,MIA,3.4,9.5
31.0,2.5,2.6,103.0,9.7,0.53,10.6,20.0,0.0,0.0,0.1,0.529,10.6,20.0,0.72,4.4,6.1,70.0,70.0,NBA,1991.0,108.0,3.3,5.7,C,25.6,2010,0.7,MIA,3.4,13.1
32.0,1.5,3.7,100.0,7.8,0.463,6.2,13.3,0.0,0.0,0.1,0.459,6.2,13.4,0.674,3.6,5.3,24.0,10.0,NBA,431.0,93.0,3.1,8.0,C,15.9,2011,0.2,BOS,3.3,10.8
33.0,0.9,4.0,96.0,9.1,0.433,4.8,11.2,0.0,0.0,0.0,0.433,4.8,11.2,0.677,2.0,2.9,25.0,24.0,NBA,570.0,94.0,3.4,7.5,C,11.6,2012,0.7,BOS,2.0,12.6
34.0,2.1,3.9,104.0,10.5,0.482,8.9,18.5,0.0,0.0,0.0,0.482,8.9,18.5,0.835,4.8,5.7,55.0,4.0,NBA,1029.0,103.0,4.1,6.3,C,22.7,2013,0.9,PHO,3.6,14.6
35.0,1.4,2.3,102.0,8.9,0.504,7.1,14.0,0.0,0.0,0.0,0.504,7.1,14.0,0.75,5.6,7.5,44.0,13.0,NBA,883.0,111.0,4.8,5.8,PF,19.7,2014,0.8,GSW,2.9,13.7
