age,ast_per_g,blk_per_g,drb_per_g,efg_pct,fg2_pct,fg2_per_g,fg2a_per_g,fg3_pct,fg3_per_g,fg3a_per_g,fg_pct,fg_per_g,fga_per_g,ft_pct,ft_per_g,fta_per_g,g,gs,lg_id,mp_per_g,orb_per_g,pf_per_g,pos,pts_per_g,season,stl_per_g,team_id,tov_per_g,trb_per_g
18.0,0.2,0.6,1.9,0.451,0.454,1.5,3.4,0.0,0.0,0.0,0.451,1.5,3.4,0.603,1.0,1.7,45.0,0.0,NBA,10.2,0.9,1.0,PF,4.1,1997,0.0,POR,0.6,2.8
19.0,0.3,1.0,2.0,0.485,0.489,1.9,3.8,0.0,0.0,0.0,0.485,1.9,3.9,0.506,0.8,1.5,60.0,9.0,NBA,13.5,1.3,1.7,PF,4.5,1998,0.3,POR,0.9,3.4
20.0,0.4,0.4,1.5,0.434,0.439,1.0,2.3,0.0,0.0,0.0,0.434,1.0,2.3,0.514,0.5,1.0,36.0,1.0,NBA,8.6,1.2,1.1,PF,2.5,1999,0.1,POR,0.4,2.7
21.0,0.3,0.8,1.9,0.486,0.489,1.5,3.2,0.0,0.0,0.0,0.486,1.5,3.2,0.582,0.8,1.4,70.0,8.0,NBA,12.3,1.4,1.8,C,3.9,2000,0.2,POR,0.7,3.3
22.0,1.2,2.8,6.7,0.465,0.468,5.0,10.7,0.0,0.0,0.1,0.465,5.0,10.7,0.601,2.9,4.8,81.0,80.0,NBA,32.6,3.1,3.5,C,12.9,2001,0.6,IND,2.0,9.8
23.0,1.6,2.3,7.9,0.48,0.484,7.5,15.5,0.071,0.0,0.2,0.479,7.5,15.7,0.688,3.9,5.7,72.0,72.0,NBA,37.6,2.6,3.7,PF,19.0,2002,0.6,IND,2.4,10.5
24.0,2.0,2.3,7.7,0.487,0.487,7.8,16.1,0.333,0.1,0.3,0.484,7.9,16.4,0.731,4.8,6.6,77.0,76.0,NBA,37.2,2.6,3.6,PF,20.8,2003,0.9,IND,2.3,10.3
25.0,2.1,2.6,7.5,0.435,0.438,7.8,17.7,0.111,0.0,0.2,0.434,7.8,17.9,0.757,4.5,5.9,78.0,78.0,NBA,35.7,2.5,3.2,PF,20.1,2004,0.8,IND,2.3,10.0
26.0,1.9,2.0,6.9,0.453,0.454,8.8,19.3,0.167,0.0,0.1,0.452,8.8,19.4,0.754,6.7,8.9,44.0,41.0,NBA,34.8,1.9,3.9,PF,24.3,2005,0.6,IND,3.0,8.8
27.0,2.6,2.3,7.3,0.474,0.474,7.4,15.6,0.3,0.1,0.2,0.472,7.5,15.8,0.709,5.1,7.2,51.0,47.0,NBA,35.3,2.0,3.5,PF,20.1,2006,0.5,IND,3.0,9.3
28.0,2.4,2.6,7.4,0.436,0.439,7.2,16.4,0.0,0.0,0.1,0.436,7.2,16.5,0.767,5.0,6.5,69.0,69.0,NBA,35.6,2.2,3.4,C,19.4,2007,0.7,IND,2.9,9.6
29.0,2.2,2.1,4.8,0.439,0.444,5.4,12.1,0.0,0.0,0.1,0.439,5.4,12.2,0.742,2.9,3.9,42.0,34.0,NBA,28.7,2.0,3.1,C,13.6,2008,0.5,IND,2.5,6.7
30.0,1.8,2.0,4.5,0.474,0.475,5.4,11.3,0.0,0.0,0.0,0.474,5.4,11.3,0.788,2.6,3.3,68.0,61.0,NBA,29.8,1.9,3.1,C,13.3,2009,0.4,TOT,2.1,6.4
30.0,1.6,2.0,5.3,0.473,0.474,5.4,11.3,0.0,0.0,0.0,0.473,5.4,11.3,0.81,2.8,3.5,41.0,34.0,NBA,29.7,1.7,3.2,C,13.5,2009,0.4,TOR,2.2,7.0
30.0,2.0,2.0,3.3,0.475,0.475,5.4,11.3,0.0,0.0,0.0,0.475,5.4,11.3,0.75,2.2,3.0,27.0,27.0,NBA,30.0,2.0,3.0,C,13.0,2009,0.4,MIA,1.9,5.4
31.0,1.3,1.4,5.2,0.529,0.53,5.6,10.6,0.0,0.0,0.0,0.529,5.6,10.6,0.72,2.3,3.2,70.0,70.0,NBA,28.4,1.8,3.0,C,13.6,2010,0.4,MIA,1.8,6.9
32.0,0.5,1.3,2.6,0.459,0.463,2.1,4.5,0.0,0.0,0.0,0.459,2.1,4.5,0.674,1.2,1.8,24.0,10.0,NBA,18.0,1.0,2.7,C,5.4,2011,0.1,BOS,1.1,3.7
33.0,0.4,1.7,3.9,0.433,0.433,2.1,4.8,0.0,0.0,0.0,0.433,2.1,4.8,0.677,0.8,1.2,25.0,24.0,NBA,22.8,1.5,3.2,C,5.0,2012,0.3,BOS,0.8,5.4
34.0,0.8,1.4,3.8,0.482,0.482,3.3,6.7,0.0,0.0,0.0,0.482,3.3,6.7,0.835,1.7,2.1,55.0,4.0,NBA,18.7,1.5,2.3,C,8.3,2013,0.3,PHO,1.3,5.3
35.0,0.6,0.9,3.6,0.504,0.504,2.8,5.6,0.0,0.0,0.0,0.504,2.8,5.6,0.75,2.3,3.0,44.0,13.0,NBA,20.1,1.9,2.3,PF,7.9,2014,0.3,GSW,1.2,5.5
