age,ast_per_g,blk_per_g,drb_per_g,efg_pct,fg2_pct,fg2_per_g,fg2a_per_g,fg3_pct,fg3_per_g,fg3a_per_g,fg_pct,fg_per_g,fga_per_g,ft_pct,ft_per_g,fta_per_g,g,gs,lg_id,mp_per_g,orb_per_g,pf_per_g,pos,pts_per_g,season,stl_per_g,team_id,tov_per_g,trb_per_g
23.0,3.0,1.8,9.8,0.464,0.477,6.5,13.6,0.276,1.0,3.6,0.435,7.5,17.3,0.705,5.4,7.6,8.0,8.0,NBA,34.8,2.9,3.9,C,21.4,2018,0.9,PHI,3.6,12.6
24.0,3.4,2.3,8.5,0.465,0.467,5.1,10.9,0.308,1.1,3.5,0.428,6.2,14.5,0.822,6.7,8.2,11.0,11.0,NBA,30.4,1.9,3.1,C,20.2,2019,0.7,PHI,3.6,10.5
