age,ast_per_g,blk_per_g,drb_per_g,efg_pct,fg2_pct,fg2_per_g,fg2a_per_g,fg3_pct,fg3_per_g,fg3a_per_g,fg_pct,fg_per_g,fga_per_g,ft_pct,ft_per_g,fta_per_g,g,gs,lg_id,mp_per_g,orb_per_g,pf_per_g,pos,pts_per_g,season,stl_per_g,team_id,tov_per_g,trb_per_g
22.0,2.1,2.5,5.9,0.508,0.495,5.3,10.7,0.367,1.2,3.2,0.466,6.5,13.8,0.783,6.2,7.9,31.0,31.0,NBA,25.4,2.0,3.6,C,20.2,2017,0.9,PHI,3.8,7.8
23.0,3.2,1.8,8.7,0.514,0.527,7.0,13.4,0.308,1.0,3.4,0.483,8.1,16.8,0.769,5.7,7.4,63.0,63.0,NBA,30.3,2.3,3.3,C,22.9,2018,0.6,PHI,3.7,11.0
24.0,3.7,1.9,11.1,0.517,0.535,7.8,14.6,0.3,1.2,4.1,0.484,9.1,18.7,0.804,8.2,10.1,64.0,64.0,NBA,33.7,2.5,3.3,C,27.5,2019,0.7,PHI,3.5,13.6
25.0,3.3,1.8,8.8,0.5,0.511,6.0,11.8,0.313,1.3,4.0,0.46,7.3,15.8,0.85,8.5,10.0,4.0,4.0,NBA,28.0,3.0,4.3,C,24.3,2020,1.0,PHI,2.8,11.8
