age,ast,blk,drb,fg,fg2,fg2a,fg3,fg3a,fga,ft,fta,game_score,lg_id,mp,orb,pf,pts,season,stl,team_id,tov,trb
24.0,3.0,5.0,12.0,11.0,11.0,18.0,0.0,0.0,18.0,7.0,7.0,24.6,NBA,0.0,6.0,6.0,24.0,1985,4.0,CLE,6.0,17.0
25.0,3.0,6.0,11.0,13.0,13.0,23.0,0.0,1.0,23.0,14.0,15.0,31.2,NBA,0.0,7.0,6.0,32.0,1986,3.0,CLE,6.0,15.0
26.0,4.0,4.0,9.0,9.0,9.0,18.0,0.0,0.0,18.0,6.0,6.0,17.2,NBA,0.0,4.0,6.0,20.0,1987,2.0,CLE,6.0,11.0
27.0,3.0,4.0,6.0,10.0,10.0,13.0,1.0,1.0,13.0,6.0,7.0,21.5,NBA,0.0,5.0,6.0,22.0,1988,4.0,UTA,4.0,11.0
29.0,3.0,5.0,8.0,7.0,7.0,13.0,0.0,1.0,13.0,5.0,6.0,15.7,NBA,0.0,11.0,5.0,17.0,1990,4.0,WSB,3.0,13.0
