age,and1s,astd_pts,drawn_offensive,drawn_shooting,fouls_offensive,fouls_shooting,g,lg_id,mp,own_shots_blk,pct_1,pct_2,pct_3,pct_4,pct_5,plus_minus_net,plus_minus_on,pos,season,team_id,tov_bad_pass,tov_lost_ball
20.0,3.0,10.0,0.0,13.0,4.0,34.0,42.0,NBA,362.0,7.0,0.0,0.0,0.0,0.0,100.0,-12.0,-8.4,C,2014,PHO,9.0,5.0
21.0,18.0,77.0,7.0,55.0,19.0,115.0,69.0,NBA,1518.0,31.0,0.0,0.0,0.0,0.0,100.0,0.7,-0.6,C,2015,PHO,26.0,17.0
22.0,21.0,231.0,2.0,113.0,31.0,111.0,78.0,NBA,1821.0,60.0,0.0,0.0,0.0,0.0,100.0,-1.3,-8.0,C,2016,PHO,37.0,52.0
23.0,20.0,99.0,1.0,96.0,34.0,110.0,77.0,NBA,1560.0,47.0,0.0,0.0,0.0,0.0,100.0,-8.9,-11.3,C,2017,PHO,34.0,22.0
24.0,28.0,196.0,2.0,110.0,26.0,75.0,69.0,NBA,1395.0,43.0,0.0,0.0,0.0,0.0,100.0,1.6,-8.6,C,2018,PHO,31.0,14.0
25.0,19.0,205.0,0.0,101.0,29.0,108.0,77.0,NBA,1544.0,45.0,0.0,0.0,0.0,0.0,100.0,1.6,-4.9,C,2019,ATL,28.0,14.0
26.0,1.0,25.0,0.0,12.0,3.0,12.0,11.0,NBA,204.0,5.0,0.0,0.0,0.0,0.0,100.0,-15.1,-14.1,C,2020,ATL,2.0,3.0
