age,ast,blk,drb,efg_pct,fg,fg2,fg2_pct,fg2a,fg3,fg3_pct,fg3a,fg_pct,fga,ft,ft_pct,fta,g,gs,lg_id,mp,orb,pf,pos,pts,season,stl,team_id,tov,trb
27.0,13.0,0.0,2.0,0.37,8.0,7.0,0.438,16.0,1.0,0.143,7.0,0.348,23.0,1.0,0.5,2.0,5.0,0.0,NBA,45.0,1.0,10.0,PG,18.0,1990,1.0,UTA,3.0,3.0
28.0,17.0,0.0,0.0,0.524,9.0,5.0,0.556,9.0,4.0,0.333,12.0,0.429,21.0,2.0,0.5,4.0,9.0,0.0,NBA,58.0,2.0,6.0,PG,24.0,1991,3.0,UTA,3.0,2.0
29.0,19.0,0.0,4.0,0.524,10.0,8.0,0.571,14.0,2.0,0.286,7.0,0.476,21.0,3.0,0.75,4.0,10.0,0.0,NBA,84.0,0.0,11.0,SG,25.0,1992,3.0,UTA,4.0,4.0
