age,ast_per_mp,blk_per_mp,drb_per_mp,fg2_pct,fg2_per_mp,fg2a_per_mp,fg3_pct,fg3_per_mp,fg3a_per_mp,fg_pct,fg_per_mp,fga_per_mp,ft_pct,ft_per_mp,fta_per_mp,g,gs,lg_id,mp,orb_per_mp,pf_per_mp,pos,pts_per_mp,season,stl_per_mp,team_id,tov_per_mp,trb_per_mp
23.0,2.4,0.5,3.3,0.434,3.5,8.0,0.25,0.0,0.1,0.432,3.5,8.1,0.673,1.6,2.4,78.0,19.0,NBA,1659.0,1.3,3.6,SG,8.6,2005,1.1,LAC,1.2,4.6
24.0,1.9,0.4,3.1,0.432,3.1,7.2,0.0,0.0,0.2,0.422,3.1,7.3,0.76,1.4,1.8,67.0,45.0,NBA,1515.0,0.9,3.7,SF,7.5,2006,1.2,LAC,1.1,4.0
25.0,1.8,0.7,2.8,0.474,3.7,7.8,0.2,0.0,0.2,0.467,3.7,8.0,0.782,1.4,1.8,81.0,43.0,NBA,1700.0,1.3,3.8,SG,9.0,2007,1.5,LAC,0.7,4.0
26.0,2.1,0.8,2.8,0.389,2.9,7.5,0.429,0.2,0.5,0.391,3.1,8.0,0.667,1.0,1.4,76.0,44.0,NBA,1505.0,1.3,3.2,SG,7.4,2008,1.0,LAC,0.7,4.1
27.0,1.5,0.4,3.0,0.386,2.0,5.3,0.375,1.0,2.7,0.382,3.1,8.0,0.81,1.1,1.3,68.0,7.0,NBA,1164.0,0.9,3.5,SF,8.2,2009,1.0,MEM,1.1,3.9
28.0,0.8,0.4,2.0,0.4,2.3,5.8,0.19,0.3,1.3,0.36,2.6,7.1,0.571,0.5,0.9,52.0,7.0,NBA,562.0,1.1,4.4,SF-SG,5.9,2010,0.8,TOT,0.7,3.1
28.0,0.8,0.5,1.9,0.465,2.4,5.1,0.231,0.4,1.6,0.411,2.8,6.7,0.625,0.6,1.0,27.0,7.0,NBA,301.0,1.3,4.1,SF,6.5,2010,0.8,DAL,0.4,3.2
28.0,0.7,0.3,2.2,0.34,2.2,6.5,0.125,0.1,1.1,0.309,2.3,7.6,0.5,0.4,0.8,25.0,0.0,NBA,261.0,0.8,4.8,SG,5.2,2010,0.8,WAS,1.1,3.0
29.0,1.0,0.6,2.0,0.464,2.7,5.7,0.0,0.0,0.3,0.441,2.7,6.0,0.357,0.5,1.4,36.0,4.0,NBA,353.0,1.0,4.1,SF,5.8,2011,0.3,NJN,0.7,3.1
