age,ast,blk,drb,fg,fg2,fg2a,fg3,fg3a,fga,ft,fta,game_score,lg_id,mp,orb,pf,pts,season,stl,team_id,tov,trb
23.0,5.0,2.0,6.0,7.0,7.0,14.0,1.0,1.0,14.0,5.0,8.0,13.1,NBA,0.0,3.0,5.0,15.0,2005,3.0,LAC,3.0,7.0
24.0,4.0,2.0,6.0,5.0,5.0,11.0,0.0,2.0,11.0,5.0,5.0,10.9,NBA,45.0,3.0,5.0,12.0,2006,3.0,LAC,3.0,8.0
25.0,4.0,4.0,5.0,11.0,11.0,19.0,1.0,1.0,19.0,7.0,8.0,19.6,NBA,48.0,4.0,5.0,24.0,2007,5.0,LAC,3.0,7.0
26.0,5.0,3.0,5.0,7.0,6.0,11.0,3.0,4.0,13.0,4.0,5.0,14.5,NBA,41.0,4.0,5.0,17.0,2008,3.0,LAC,2.0,7.0
27.0,3.0,2.0,6.0,5.0,4.0,6.0,2.0,4.0,9.0,4.0,4.0,10.3,NBA,39.0,3.0,4.0,11.0,2009,4.0,MEM,3.0,6.0
28.0,2.0,1.0,2.0,4.0,4.0,6.0,1.0,2.0,7.0,2.0,2.0,4.9,NBA,29.0,3.0,6.0,8.0,2010,2.0,TOT,2.0,4.0
28.0,2.0,1.0,2.0,3.0,3.0,4.0,1.0,2.0,5.0,2.0,2.0,4.8,NBA,27.0,3.0,4.0,6.0,2010,2.0,DAL,1.0,4.0
28.0,1.0,1.0,2.0,4.0,4.0,6.0,1.0,2.0,7.0,1.0,2.0,4.9,NBA,29.0,2.0,6.0,8.0,2010,1.0,WAS,2.0,4.0
29.0,2.0,1.0,6.0,3.0,3.0,4.0,0.0,1.0,5.0,3.0,6.0,6.3,NBA,31.0,3.0,3.0,7.0,2011,1.0,NJN,1.0,9.0
