lg_id,salary,season,team_name
NBA,620046.0,2005,Los Angeles Clippers
NBA,700000.0,2006,Los Angeles Clippers
NBA,771331.0,2007,Los Angeles Clippers
NBA,826046.0,2008,Los Angeles Clippers
NBA,854957.0,2009,Memphis Grizzlies
NBA,1033342.0,2010,Washington Wizards
NBA,1146337.0,2011,New Jersey Nets
