age,ast_per_poss,blk_per_poss,def_rtg,drb_per_poss,fg2_pct,fg2_per_poss,fg2a_per_poss,fg3_pct,fg3_per_poss,fg3a_per_poss,fg_pct,fg_per_poss,fga_per_poss,ft_pct,ft_per_poss,fta_per_poss,g,gs,lg_id,mp,off_rtg,orb_per_poss,pf_per_poss,pos,pts_per_poss,season,stl_per_poss,team_id,tov_per_poss,trb_per_poss
23.0,3.5,0.7,108.0,4.9,0.434,5.2,12.0,0.25,0.0,0.1,0.432,5.2,12.1,0.673,2.4,3.6,78.0,19.0,NBA,1659.0,101.0,1.9,5.4,SG,12.9,2005,1.7,LAC,1.8,6.8
24.0,2.7,0.6,105.0,4.6,0.432,4.5,10.4,0.0,0.0,0.2,0.422,4.5,10.6,0.76,2.0,2.6,67.0,45.0,NBA,1515.0,96.0,1.3,5.4,SF,10.9,2006,1.8,LAC,1.6,5.9
25.0,2.7,1.0,106.0,4.0,0.474,5.4,11.5,0.2,0.1,0.3,0.467,5.5,11.8,0.782,2.1,2.7,81.0,43.0,NBA,1700.0,110.0,1.9,5.6,SG,13.2,2007,2.2,LAC,1.0,5.9
26.0,3.0,1.1,111.0,4.1,0.389,4.2,10.9,0.429,0.3,0.7,0.391,4.5,11.6,0.667,1.4,2.1,76.0,44.0,NBA,1505.0,96.0,1.9,4.6,SG,10.8,2008,1.5,LAC,1.0,6.0
27.0,2.1,0.6,112.0,4.4,0.386,3.0,7.8,0.375,1.5,4.0,0.382,4.5,11.8,0.81,1.6,1.9,68.0,7.0,NBA,1164.0,98.0,1.3,5.2,SF,12.1,2009,1.5,MEM,1.6,5.8
28.0,1.1,0.6,111.0,3.0,0.4,3.3,8.3,0.19,0.4,1.9,0.36,3.7,10.3,0.571,0.7,1.3,52.0,7.0,NBA,562.0,86.0,1.6,6.4,SF-SG,8.5,2010,1.2,TOT,1.0,4.5
28.0,1.2,0.7,110.0,2.8,0.465,3.4,7.4,0.231,0.5,2.2,0.411,4.0,9.7,0.625,0.9,1.4,27.0,7.0,NBA,301.0,102.0,1.9,5.9,SF,9.3,2010,1.2,DAL,0.5,4.7
28.0,1.0,0.4,113.0,3.2,0.34,3.2,9.4,0.125,0.2,1.6,0.309,3.4,11.0,0.5,0.6,1.2,25.0,0.0,NBA,261.0,71.0,1.2,7.0,SG,7.6,2010,1.2,WAS,1.6,4.4
29.0,1.5,0.9,114.0,3.0,0.464,3.9,8.5,0.0,0.0,0.5,0.441,3.9,8.9,0.357,0.8,2.1,36.0,4.0,NBA,353.0,92.0,1.5,6.1,SF,8.6,2011,0.5,NJN,1.1,4.5
