age,avg_dist,fg2_dunk,fg2_pct,fg2_pct_ast,fg2a_pct_fga,fg3_heave,fg3_pct,fg3_pct_ast,fg3_pct_corner,fg3a_heave,fg3a_pct_fga,fg_pct,fg_pct_00_03,fg_pct_03_10,fg_pct_10_16,fg_pct_16_xx,g,lg_id,mp,pct_fg2_dunk,pct_fg3a_corner,pct_fga_00_03,pct_fga_03_10,pct_fga_10_16,pct_fga_16_xx,pos,season,team_id
22.0,21.9,0.0,0.385,0.8,0.419,0.0,0.333,0.833,0.667,0.0,0.581,0.355,0.0,0.0,0.667,0.429,17.0,NBA,113.0,0.0,0.333,0.0,0.097,0.097,0.226,SF,2003,CHI
23.0,15.4,0.0,0.322,0.684,0.602,0.0,0.333,0.923,0.533,0.0,0.398,0.327,0.462,0.2,0.167,0.227,26.0,NBA,328.0,0.0,0.385,0.265,0.051,0.061,0.224,SG,2004,TOT
23.0,20.5,0.0,0.0,0.0,0.455,0.0,0.167,1.0,0.0,0.0,0.545,0.091,0.0,0.0,0.0,0.0,3.0,NBA,43.0,0.0,0.0,0.091,0.0,0.091,0.273,SG,2004,CHI
23.0,14.8,0.0,0.352,0.684,0.621,0.0,0.364,0.917,0.533,0.0,0.379,0.356,0.48,0.2,0.2,0.263,23.0,NBA,285.0,0.0,0.455,0.287,0.057,0.057,0.218,SG,2004,TOR
26.0,19.5,0.0,0.338,0.538,0.43,0.0,0.324,0.848,0.464,0.0,0.57,0.33,0.429,0.5,0.0,0.295,62.0,NBA,492.0,0.0,0.275,0.156,0.011,0.017,0.246,SG,2007,WAS
27.0,20.3,1.0,0.498,0.426,0.455,0.0,0.398,0.738,0.407,0.0,0.545,0.443,0.644,0.357,0.45,0.467,80.0,NBA,1708.0,0.002,0.165,0.098,0.023,0.033,0.3,PG,2008,WAS
28.0,19.7,1.0,0.428,0.53,0.521,0.0,0.421,0.759,0.418,0.0,0.479,0.425,0.468,0.348,0.526,0.41,82.0,NBA,2496.0,0.001,0.279,0.096,0.028,0.046,0.35,SG,2009,SAS
29.0,20.2,1.0,0.453,0.514,0.468,0.0,0.333,0.807,0.379,0.0,0.532,0.389,0.535,0.25,0.304,0.462,79.0,NBA,1515.0,0.004,0.33,0.087,0.016,0.046,0.319,SG,2010,SAS
30.0,21.1,0.0,0.303,0.7,0.429,0.0,0.364,0.813,0.467,0.0,0.571,0.338,0.2,1.0,0.333,0.261,26.0,NBA,319.0,0.0,0.341,0.065,0.026,0.039,0.299,SG,2011,NYK
31.0,21.4,0.0,0.423,0.727,0.403,0.0,0.383,0.881,0.5,0.0,0.597,0.399,0.579,0.0,0.0,0.434,52.0,NBA,697.0,0.0,0.26,0.074,0.019,0.016,0.295,SG,2012,WAS
32.0,19.3,0.0,0.452,0.727,0.479,0.0,0.415,0.955,0.354,0.0,0.521,0.433,0.513,0.077,0.267,0.519,69.0,NBA,1219.0,0.0,0.302,0.128,0.043,0.049,0.259,SG,2013,NOH
33.0,22.2,0.0,0.421,0.625,0.284,0.0,0.354,0.882,0.381,0.0,0.716,0.373,0.0,0.0,0.0,0.533,25.0,NBA,260.0,0.0,0.438,0.06,0.0,0.0,0.224,SG,2014,MIA
