age,ast_per_poss,blk_per_poss,def_rtg,drb_per_poss,fg2_pct,fg2_per_poss,fg2a_per_poss,fg3_pct,fg3_per_poss,fg3a_per_poss,fg_pct,fg_per_poss,fga_per_poss,ft_pct,ft_per_poss,fta_per_poss,g,gs,lg_id,mp,off_rtg,orb_per_poss,pf_per_poss,pos,pts_per_poss,season,stl_per_poss,team_id,tov_per_poss,trb_per_poss
22.0,0.8,2.0,108.0,6.3,0.571,11.1,19.3,0.0,0.0,0.0,0.571,11.1,19.3,0.52,5.1,9.9,4.0,4.0,NBA,147.0,105.0,5.5,8.7,C,27.2,1998,0.8,CLE,3.9,11.8
30.0,1.6,4.3,105.0,7.7,0.454,8.5,18.8,0.0,0.0,0.0,0.454,8.5,18.8,0.75,4.3,5.7,13.0,13.0,NBA,354.0,100.0,5.2,7.3,C,21.3,2006,0.8,CLE,3.8,13.0
31.0,1.5,1.4,99.0,11.0,0.492,8.4,17.0,0.0,0.0,0.0,0.492,8.4,17.0,0.838,4.9,5.9,20.0,20.0,NBA,649.0,112.0,5.7,5.2,C,21.7,2007,0.8,CLE,2.8,16.6
32.0,3.0,2.0,101.0,9.2,0.479,9.5,19.9,0.0,0.0,0.0,0.479,9.5,19.9,0.818,5.1,6.3,13.0,13.0,NBA,393.0,108.0,4.7,5.0,C,24.2,2008,0.7,CLE,3.0,13.9
33.0,2.3,1.8,102.0,11.2,0.48,8.2,17.1,0.154,0.3,1.8,0.449,8.5,18.9,0.636,2.9,4.5,14.0,14.0,NBA,407.0,108.0,3.7,6.4,C,20.1,2009,0.7,CLE,1.2,14.9
34.0,2.3,5.3,108.0,3.0,0.385,3.8,9.8,0.0,0.0,0.0,0.385,3.8,9.8,0.667,1.5,2.3,7.0,0.0,NBA,69.0,109.0,5.3,7.5,C,9.0,2010,0.0,CLE,0.8,8.3
35.0,1.6,1.6,105.0,9.1,0.467,7.5,16.0,0.0,0.0,0.0,0.467,7.5,16.0,0.667,2.1,3.2,9.0,8.0,NBA,104.0,95.0,8.0,8.6,C,17.1,2011,0.0,MIA,4.8,17.1
