age,ast_per_mp,blk_per_mp,drb_per_mp,fg2_pct,fg2_per_mp,fg2a_per_mp,fg3_pct,fg3_per_mp,fg3a_per_mp,fg_pct,fg_per_mp,fga_per_mp,ft_pct,ft_per_mp,fta_per_mp,g,gs,lg_id,mp,orb_per_mp,pf_per_mp,pos,pts_per_mp,season,stl_per_mp,team_id,tov_per_mp,trb_per_mp
22.0,1.1,2.0,6.7,0.519,6.9,13.2,0.25,0.0,0.1,0.518,6.9,13.3,0.762,3.5,4.6,82.0,81.0,NBA,2379.0,4.2,4.4,C,17.2,1998,0.8,CLE,2.2,10.9
23.0,0.8,1.5,5.7,0.509,6.1,12.0,0.0,0.0,0.0,0.509,6.1,12.0,0.6,3.8,6.3,5.0,5.0,NBA,171.0,3.6,5.1,C,16.0,1999,0.8,CLE,1.9,9.3
25.0,1.1,2.2,5.6,0.491,6.7,13.6,0.0,0.0,0.1,0.487,6.7,13.7,0.679,3.1,4.6,24.0,24.0,NBA,616.0,3.8,4.6,C,16.4,2001,0.9,CLE,3.5,9.4
26.0,1.9,2.3,5.4,0.429,6.5,15.2,0.0,0.0,0.1,0.425,6.5,15.4,0.754,5.6,7.5,62.0,23.0,NBA,1329.0,3.7,5.1,C,18.7,2002,0.5,CLE,2.5,9.0
27.0,1.9,2.3,5.5,0.443,7.3,16.5,0.0,0.0,0.1,0.441,7.3,16.6,0.781,5.9,7.6,81.0,81.0,NBA,2432.0,3.6,4.1,C,20.6,2003,0.8,CLE,3.1,9.0
28.0,1.5,2.8,5.3,0.484,6.6,13.6,0.286,0.0,0.1,0.483,6.6,13.7,0.746,4.3,5.8,81.0,81.0,NBA,2539.0,4.0,3.9,C,17.5,2004,0.6,CLE,2.3,9.3
29.0,1.4,2.3,5.1,0.469,6.3,13.4,0.286,0.0,0.1,0.468,6.3,13.5,0.799,5.5,6.9,78.0,78.0,NBA,2615.0,4.1,4.3,C,18.2,2005,0.7,CLE,2.6,9.3
30.0,1.4,2.1,5.5,0.509,7.1,13.9,0.0,0.0,0.1,0.506,7.1,14.0,0.834,5.0,6.0,78.0,78.0,NBA,2283.0,3.9,4.4,C,19.2,2006,0.6,CLE,2.4,9.3
31.0,2.1,1.7,6.0,0.486,6.5,13.4,0.0,0.0,0.0,0.485,6.5,13.4,0.807,2.6,3.2,78.0,78.0,NBA,2130.0,4.1,4.3,C,15.6,2007,0.8,CLE,2.4,10.1
32.0,1.7,1.9,6.8,0.475,6.8,14.2,0.0,0.0,0.0,0.474,6.8,14.2,0.802,3.2,3.9,73.0,73.0,NBA,2222.0,4.3,4.0,C,16.7,2008,0.6,CLE,2.2,11.0
33.0,1.3,1.7,6.8,0.477,6.7,14.0,0.385,0.3,0.8,0.472,7.0,14.8,0.799,2.8,3.5,65.0,65.0,NBA,1765.0,3.2,3.7,C,17.1,2009,0.6,CLE,1.8,10.0
34.0,1.3,1.3,6.2,0.441,4.9,11.2,0.478,0.3,0.6,0.443,5.2,11.8,0.743,2.0,2.7,64.0,6.0,NBA,1339.0,3.1,4.9,C,12.7,2010,0.4,CLE,1.7,9.3
35.0,0.8,1.8,5.6,0.509,5.1,10.0,0.0,0.0,0.0,0.508,5.1,10.0,0.783,1.1,1.4,72.0,51.0,NBA,1145.0,3.4,5.8,C,11.3,2011,0.7,MIA,1.6,9.0
