age,ast_per_g,blk_per_g,drb_per_g,efg_pct,fg2_pct,fg2_per_g,fg2a_per_g,fg3_pct,fg3_per_g,fg3a_per_g,fg_pct,fg_per_g,fga_per_g,ft_pct,ft_per_g,fta_per_g,g,gs,lg_id,mp_per_g,orb_per_g,pf_per_g,pos,pts_per_g,season,stl_per_g,team_id,tov_per_g,trb_per_g
24.0,3.7,0.4,1.7,0.439,0.435,2.0,4.5,0.295,1.1,3.7,0.372,3.1,8.2,0.72,1.4,1.9,77.0,16.0,NBA,23.9,0.5,1.5,SG,8.6,2013,0.7,MIN,1.9,2.3
25.0,1.1,0.3,1.0,0.384,0.341,0.7,2.1,0.294,0.5,1.6,0.321,1.2,3.8,0.756,1.1,1.4,63.0,0.0,NBA,10.5,0.3,0.6,SG,4.0,2014,0.4,MIN,0.8,1.3
26.0,2.5,0.1,1.8,0.467,0.439,2.0,4.7,0.338,1.1,3.3,0.397,3.2,8.0,0.807,2.9,3.6,42.0,9.0,NBA,18.3,0.5,1.1,SG,10.3,2015,0.7,TOT,1.1,2.4
26.0,2.7,0.1,0.8,0.465,0.479,2.1,4.3,0.298,1.0,3.4,0.4,3.1,7.6,0.842,2.8,3.4,17.0,0.0,NBA,16.8,0.5,1.2,SG,9.9,2015,0.8,PHI,1.1,1.3
26.0,0.3,0.0,0.3,0.417,0.333,0.4,1.3,0.333,0.4,1.3,0.333,0.9,2.7,0.818,1.0,1.2,9.0,0.0,NBA,6.6,0.1,0.2,SG,3.2,2015,0.1,HOU,0.6,0.4
26.0,3.6,0.3,3.7,0.475,0.423,2.9,6.9,0.371,1.6,4.4,0.403,4.6,11.3,0.78,4.0,5.1,16.0,9.0,NBA,26.4,0.9,1.6,SG,14.8,2015,0.9,NYK,1.6,4.6
