age,and1s,astd_pts,drawn_offensive,drawn_shooting,fouls_offensive,fouls_shooting,g,lg_id,mp,own_shots_blk,pct_1,pct_2,pct_3,pct_4,pct_5,plus_minus_net,plus_minus_on,pos,season,team_id,tov_bad_pass,tov_lost_ball
24.0,11.0,636.0,14.0,61.0,8.0,52.0,77.0,NBA,1840.0,38.0,2.0,77.0,22.0,0.0,0.0,1.0,-1.7,SG,2013,MIN,85.0,36.0
25.0,10.0,153.0,5.0,44.0,2.0,15.0,63.0,NBA,664.0,15.0,11.0,87.0,3.0,0.0,0.0,-5.7,-2.2,SG,2014,MIN,28.0,14.0
26.0,9.0,234.0,4.0,63.0,1.0,27.0,42.0,NBA,767.0,26.0,26.0,71.0,3.0,0.0,0.0,-4.9,-9.8,SG,2015,TOT,30.0,14.0
26.0,4.0,103.0,1.0,26.0,1.0,12.0,17.0,NBA,285.0,5.0,56.0,41.0,3.0,0.0,0.0,-8.9,-17.7,SG,2015,PHI,10.0,6.0
26.0,1.0,7.0,0.0,4.0,0.0,1.0,9.0,NBA,59.0,3.0,46.0,45.0,9.0,0.0,0.0,-4.5,-0.8,SG,2015,HOU,1.0,3.0
26.0,4.0,124.0,3.0,33.0,0.0,14.0,16.0,NBA,423.0,18.0,3.0,95.0,2.0,0.0,0.0,5.2,-5.6,SG,2015,NYK,19.0,5.0
