age,ast_pct,blk_pct,bpm,bpm-dum,dbpm,drb_pct,dws,fg3a_per_fga_pct,fta_per_fga_pct,g,lg_id,mp,obpm,orb_pct,ows,per,pos,season,stl_pct,team_id,tov_pct,trb_pct,ts_pct,usg_pct,vorp,ws,ws-dum,ws_per_48
22.0,19.4,2.3,-2.2,0.0,1.5,12.6,1.3,0.233,0.188,78.0,NBA,1333.0,-3.7,2.1,-1.2,8.1,PG,2017,3.0,MIN,20.8,7.3,0.432,14.2,-0.1,0.1,0.0,0.004
23.0,33.3,1.6,-0.1,0.0,1.4,14.4,1.9,0.201,0.171,52.0,NBA,1525.0,-1.4,1.6,-1.0,14.5,PG,2018,3.3,CHI,17.3,7.8,0.488,24.7,0.7,0.9,0.0,0.027
24.0,30.0,1.3,-1.8,0.0,0.3,13.3,1.2,0.19,0.136,46.0,NBA,1389.0,-2.0,1.5,-0.5,12.4,PG,2019,2.4,CHI,16.2,7.3,0.484,20.1,0.1,0.6,0.0,0.022
25.0,19.3,1.0,1.4,0.0,2.6,10.1,0.3,0.218,0.127,9.0,NBA,183.0,-1.2,2.7,0.1,13.7,PG,2020,5.1,CHI,10.8,6.3,0.473,14.9,0.2,0.4,0.0,0.098
