age,ast,ast_per_g,blk,college_id,fg,fg3,fg3_pct,fg3a,fg_pct,fga,ft,ft_pct,fta,g,mp,mp_per_g,orb,pf,pts,pts_per_g,season,stl,tov,trb,trb_per_g
18.0,62.0,1.8,21.0,MICHIGAN,150.0,0.0,0.0,2.0,0.45,333.0,77.0,0.688,112.0,34.0,956.0,28.1,0.0,107.0,377.0,11.1,1992,15.0,99.0,212.0,6.2
19.0,69.0,1.9,14.0,MICHIGAN,206.0,0.0,0.0,2.0,0.506,407.0,112.0,0.7,160.0,36.0,1095.0,30.4,0.0,99.0,524.0,14.6,1993,21.0,92.0,267.0,7.4
20.0,71.0,2.4,21.0,MICHIGAN,261.0,1.0,0.143,7.0,0.557,469.0,102.0,0.675,151.0,30.0,1020.0,34.0,0.0,99.0,625.0,20.8,1994,44.0,78.0,266.0,8.9
