age,and1s,astd_pts,drawn_offensive,drawn_shooting,fouls_offensive,fouls_shooting,g,lg_id,mp,own_shots_blk,pct_1,pct_2,pct_3,pct_4,pct_5,plus_minus_net,plus_minus_on,pos,season,team_id,tov_bad_pass,tov_lost_ball
27.0,33.0,502.0,0.0,163.0,54.0,106.0,81.0,NBA,2974.0,94.0,0.0,0.0,19.0,67.0,15.0,-0.9,-1.9,PF,2001,TOT,97.0,50.0
27.0,22.0,346.0,0.0,105.0,38.0,57.0,54.0,NBA,1981.0,68.0,0.0,0.0,0.0,80.0,21.0,2.2,-6.1,PF,2001,WAS,56.0,43.0
27.0,11.0,156.0,0.0,58.0,16.0,49.0,27.0,NBA,993.0,26.0,0.0,0.0,57.0,41.0,3.0,2.5,6.4,PF,2001,DAL,41.0,7.0
28.0,21.0,380.0,0.0,143.0,43.0,111.0,81.0,NBA,2635.0,89.0,0.0,0.0,18.0,54.0,27.0,-2.3,-2.4,PF,2002,TOT,53.0,39.0
28.0,13.0,211.0,0.0,84.0,22.0,75.0,53.0,NBA,1659.0,52.0,0.0,0.0,28.0,66.0,6.0,-7.1,0.4,PF,2002,DAL,34.0,12.0
28.0,8.0,169.0,0.0,59.0,21.0,36.0,28.0,NBA,976.0,37.0,0.0,0.0,2.0,35.0,63.0,-1.0,-7.3,PF,2002,DEN,19.0,27.0
29.0,31.0,505.0,0.0,146.0,35.0,86.0,77.0,NBA,2730.0,102.0,0.0,0.0,5.0,89.0,5.0,-4.2,-10.7,PF,2003,DEN,82.0,51.0
30.0,40.0,363.0,0.0,176.0,41.0,120.0,81.0,NBA,2877.0,104.0,0.0,0.0,13.0,83.0,4.0,4.1,-6.8,PF,2004,ORL,53.0,63.0
31.0,11.0,213.0,0.0,49.0,18.0,53.0,61.0,NBA,1624.0,26.0,0.0,0.0,0.0,95.0,5.0,-5.2,1.7,PF,2005,HOU,27.0,23.0
32.0,23.0,263.0,12.0,86.0,35.0,81.0,80.0,NBA,2537.0,63.0,0.0,0.0,0.0,90.0,9.0,-10.7,-5.3,PF,2006,HOU,47.0,29.0
33.0,9.0,321.0,18.0,80.0,21.0,65.0,80.0,NBA,2123.0,38.0,0.0,0.0,0.0,76.0,24.0,-7.9,2.0,PF,2007,HOU,43.0,24.0
34.0,2.0,38.0,6.0,7.0,6.0,43.0,50.0,NBA,353.0,8.0,0.0,0.0,12.0,83.0,5.0,-13.2,-6.8,PF,2008,DAL,5.0,4.0
35.0,4.0,61.0,2.0,18.0,4.0,31.0,42.0,NBA,472.0,11.0,0.0,0.0,40.0,59.0,1.0,-12.6,-10.7,SF-PF,2009,TOT,10.0,6.0
35.0,0.0,4.0,0.0,0.0,0.0,3.0,3.0,NBA,22.0,1.0,0.0,0.0,0.0,99.0,1.0,0.2,3.8,PF,2009,DEN,0.0,0.0
35.0,4.0,57.0,2.0,18.0,4.0,28.0,39.0,NBA,450.0,10.0,0.0,0.0,42.0,57.0,1.0,-11.4,-11.6,SF,2009,CHA,10.0,6.0
36.0,6.0,139.0,14.0,33.0,18.0,90.0,73.0,NBA,1632.0,27.0,0.0,0.0,0.0,20.0,80.0,-9.6,-1.8,C,2010,POR,31.0,14.0
37.0,1.0,59.0,2.0,13.0,8.0,28.0,57.0,NBA,592.0,7.0,0.0,0.0,3.0,94.0,3.0,-6.8,2.8,PF,2011,MIA,4.0,9.0
38.0,1.0,24.0,0.0,5.0,4.0,8.0,28.0,NBA,190.0,12.0,0.0,0.0,3.0,72.0,26.0,-21.8,-13.8,PF,2012,MIA,8.0,4.0
39.0,1.0,16.0,0.0,1.0,0.0,5.0,7.0,NBA,51.0,2.0,0.0,0.0,0.0,60.0,41.0,-18.3,-9.0,PF,2013,MIA,3.0,0.0
