age,ast,blk,drb,fg,fg2,fg2a,fg3,fg3a,fga,ft,fta,game_score,lg_id,mp,orb,pf,pts,season,stl,team_id,tov,trb
24.0,8.0,1.0,8.0,10.0,10.0,22.0,2.0,3.0,23.0,11.0,12.0,23.8,NBA,0.0,9.0,6.0,28.0,1984,5.0,CHI,5.0,10.0
25.0,9.0,1.0,6.0,10.0,10.0,17.0,1.0,2.0,17.0,6.0,8.0,21.0,NBA,0.0,6.0,6.0,23.0,1985,5.0,HOU,4.0,8.0
26.0,5.0,2.0,4.0,9.0,9.0,17.0,1.0,2.0,17.0,7.0,9.0,20.5,NBA,0.0,5.0,6.0,22.0,1986,4.0,HOU,4.0,7.0
27.0,8.0,1.0,6.0,13.0,13.0,22.0,0.0,1.0,22.0,5.0,6.0,26.6,NBA,0.0,6.0,6.0,30.0,1987,5.0,HOU,4.0,10.0
30.0,6.0,1.0,6.0,15.0,15.0,26.0,0.0,1.0,26.0,12.0,12.0,25.7,NBA,0.0,6.0,5.0,34.0,1990,4.0,HOU,4.0,10.0
32.0,2.0,1.0,4.0,8.0,8.0,13.0,0.0,1.0,13.0,5.0,8.0,16.3,NBA,0.0,5.0,4.0,19.0,1992,3.0,PHI,2.0,9.0
