age,ast_per_poss,blk_per_poss,def_rtg,drb_per_poss,fg2_pct,fg2_per_poss,fg2a_per_poss,fg3_pct,fg3_per_poss,fg3a_per_poss,fg_pct,fg_per_poss,fga_per_poss,ft_pct,ft_per_poss,fta_per_poss,g,gs,lg_id,mp,off_rtg,orb_per_poss,pf_per_poss,pos,pts_per_poss,season,stl_per_poss,team_id,tov_per_poss,trb_per_poss
20.0,3.1,2.6,106.0,12.1,0.559,11.4,20.4,0.341,0.6,1.7,0.542,12.0,22.1,0.811,4.3,5.3,82.0,82.0,NBA,2627.0,112.0,4.4,4.7,C,28.8,2016,1.1,MIN,3.5,16.5
21.0,3.7,1.7,110.0,11.9,0.582,11.7,20.2,0.367,1.7,4.6,0.542,13.4,24.8,0.832,6.0,7.2,82.0,82.0,NBA,3030.0,121.0,5.0,4.0,C,34.5,2017,0.9,MIN,3.5,16.9
22.0,3.4,2.0,107.0,13.3,0.585,8.9,15.2,0.421,2.1,4.9,0.545,11.0,20.1,0.858,5.9,6.9,82.0,82.0,NBA,2918.0,127.0,4.1,4.9,C,29.9,2018,1.1,MIN,2.7,17.3
23.0,4.9,2.4,108.0,13.0,0.562,10.1,18.1,0.4,2.7,6.7,0.518,12.8,24.7,0.836,7.1,8.5,77.0,77.0,NBA,2545.0,118.0,5.0,5.5,C,35.4,2019,1.3,MIN,4.5,18.0
24.0,5.9,2.2,102.0,12.8,0.564,6.8,12.0,0.407,5.1,12.5,0.484,11.9,24.5,0.738,6.9,9.4,9.0,9.0,NBA,295.0,122.0,3.9,4.8,C,35.7,2020,2.0,MIN,3.5,16.6
