age,ast_per_g,blk_per_g,drb_per_g,efg_pct,fg2_pct,fg2_per_g,fg2a_per_g,fg3_pct,fg3_per_g,fg3a_per_g,fg_pct,fg_per_g,fga_per_g,ft_pct,ft_per_g,fta_per_g,g,gs,lg_id,mp_per_g,orb_per_g,pf_per_g,pos,pts_per_g,season,stl_per_g,team_id,tov_per_g,trb_per_g
23.0,0.3,0.3,2.0,0.286,0.286,0.7,2.3,0.0,0.0,0.0,0.286,0.7,2.3,0.5,1.0,2.0,3.0,0.0,NBA,8.0,0.7,1.7,C,2.3,2000,0.7,TOR,1.7,2.7
28.0,0.5,0.2,1.6,0.316,0.316,0.5,1.6,0.0,0.0,0.0,0.316,0.5,1.6,0.7,0.6,0.8,12.0,6.0,NBA,10.7,0.8,2.7,C,1.6,2005,0.0,UTA,1.3,2.3
