age,ast_per_poss,blk_per_poss,def_rtg,drb_per_poss,fg2_pct,fg2_per_poss,fg2a_per_poss,fg3_pct,fg3_per_poss,fg3a_per_poss,fg_pct,fg_per_poss,fga_per_poss,ft_pct,ft_per_poss,fta_per_poss,g,gs,lg_id,mp,off_rtg,orb_per_poss,pf_per_poss,pos,pts_per_poss,season,stl_per_poss,team_id,tov_per_poss,trb_per_poss
23.0,2.2,2.2,94.0,13.0,0.286,4.3,15.1,0.0,0.0,0.0,0.286,4.3,15.1,0.5,6.5,13.0,3.0,0.0,NBA,24.0,59.0,4.3,10.8,C,15.1,2000,4.3,TOR,10.8,17.3
28.0,2.5,0.8,111.0,8.1,0.316,2.5,8.1,0.0,0.0,0.0,0.316,2.5,8.1,0.7,3.0,4.2,12.0,6.0,NBA,128.0,67.0,3.8,13.6,C,8.1,2005,0.0,UTA,6.4,11.9
