age,ast_per_g,blk_per_g,drb_per_g,efg_pct,fg2_pct,fg2_per_g,fg2a_per_g,fg3_pct,fg3_per_g,fg3a_per_g,fg_pct,fg_per_g,fga_per_g,ft_pct,ft_per_g,fta_per_g,g,gs,lg_id,mp_per_g,orb_per_g,pf_per_g,pos,pts_per_g,season,stl_per_g,team_id,tov_per_g,trb_per_g
22.0,0.4,0.1,0.4,0.429,0.462,1.2,2.6,0.0,0.0,0.2,0.429,1.2,2.8,0.636,0.7,1.1,10.0,0.0,NBA,6.5,0.4,0.3,SG,3.1,1992,0.3,CLE,0.8,0.8
23.0,0.3,0.1,0.4,0.476,0.468,1.2,2.5,0.4,0.1,0.2,0.463,1.2,2.6,0.6,0.5,0.8,31.0,0.0,NBA,4.5,0.2,0.6,SG,3.0,1993,0.3,CLE,0.6,0.5
24.0,1.8,0.2,2.0,0.472,0.48,3.3,7.0,0.083,0.0,0.2,0.471,3.4,7.1,0.72,1.6,2.2,72.0,53.0,NBA,21.3,1.0,1.9,SG,8.3,1994,0.9,CLE,0.9,2.9
25.0,2.3,0.3,2.2,0.426,0.419,4.0,9.5,0.345,0.2,0.7,0.414,4.2,10.2,0.779,2.3,2.9,80.0,79.0,NBA,31.3,1.1,2.6,SG,11.0,1995,1.4,CLE,1.4,3.3
26.0,3.8,0.4,2.8,0.524,0.476,4.1,8.5,0.441,1.3,2.9,0.467,5.4,11.5,0.775,2.6,3.3,72.0,69.0,NBA,35.1,0.9,2.7,SG,14.6,1996,1.4,CLE,1.8,3.6
27.0,3.4,0.3,2.6,0.484,0.442,3.5,8.0,0.394,1.2,3.1,0.428,4.8,11.1,0.718,1.8,2.5,69.0,65.0,NBA,34.4,0.9,2.5,SG,12.6,1997,1.6,CLE,2.0,3.6
28.0,3.0,0.3,2.5,0.486,0.461,3.3,7.1,0.386,0.7,1.8,0.446,4.0,8.9,0.757,1.7,2.3,62.0,61.0,NBA,30.4,1.0,2.9,SG,10.4,1998,1.3,CHH,1.7,3.5
29.0,3.5,0.6,3.1,0.501,0.452,3.4,7.6,0.395,1.6,4.0,0.433,5.0,11.6,0.685,2.7,3.9,43.0,43.0,NBA,36.6,0.9,2.9,SG,14.3,1999,1.4,CHH,2.1,4.0
30.0,2.8,0.3,1.9,0.499,0.5,4.4,8.7,0.33,1.1,3.3,0.454,5.4,12.0,0.723,1.7,2.3,28.0,9.0,NBA,29.5,0.6,2.6,SG,13.6,2000,1.5,CHH,1.7,2.5
