lg_id,salary,season,team_name
NBA,130000.0,1992,Milwaukee Bucks
NBA,250000.0,1993,Cleveland Cavaliers
NBA,313000.0,1994,Cleveland Cavaliers
NBA,1458000.0,1995,Cleveland Cavaliers
NBA,1658000.0,1996,Cleveland Cavaliers
NBA,1808000.0,1997,Cleveland Cavaliers
NBA,2900000.0,1998,Charlotte Hornets
NBA,3480000.0,1999,Charlotte Hornets
NBA,4060000.0,2000,Charlotte Hornets
NBA,4640000.0,2001,Charlotte Hornets
NBA,5220000.0,2002,Charlotte Hornets
