age,ast,blk,drb,fg,fg2,fg2a,fg3,fg3a,fga,ft,fta,game_score,lg_id,mp,orb,pf,pts,season,stl,team_id,tov,trb
22.0,2.0,0.0,2.0,2.0,2.0,4.0,0.0,1.0,4.0,2.0,2.0,3.4,NBA,0.0,1.0,1.0,4.0,1992,1.0,CLE,1.0,2.0
23.0,0.0,0.0,0.0,1.0,1.0,2.0,0.0,0.0,2.0,2.0,2.0,3.7,NBA,0.0,0.0,0.0,4.0,1993,0.0,CLE,1.0,0.0
24.0,4.0,0.0,5.0,5.0,5.0,11.0,1.0,1.0,11.0,1.0,2.0,6.9,NBA,0.0,2.0,4.0,11.0,1994,2.0,CLE,2.0,7.0
25.0,2.0,0.0,3.0,8.0,6.0,10.0,3.0,5.0,15.0,9.0,10.0,18.2,NBA,0.0,1.0,3.0,21.0,1995,4.0,CLE,4.0,4.0
26.0,4.0,1.0,4.0,5.0,4.0,11.0,1.0,4.0,13.0,1.0,3.0,8.0,NBA,0.0,3.0,3.0,11.0,1996,1.0,CLE,2.0,6.0
28.0,4.0,1.0,5.0,5.0,4.0,9.0,2.0,5.0,10.0,1.0,3.0,8.0,NBA,0.0,2.0,5.0,11.0,1998,3.0,CHH,3.0,7.0
