age,ast_per_mp,blk_per_mp,drb_per_mp,fg2_pct,fg2_per_mp,fg2a_per_mp,fg3_pct,fg3_per_mp,fg3a_per_mp,fg_pct,fg_per_mp,fga_per_mp,ft_pct,ft_per_mp,fta_per_mp,g,gs,lg_id,mp,orb_per_mp,pf_per_mp,pos,pts_per_mp,season,stl_per_mp,team_id,tov_per_mp,trb_per_mp
23.0,2.1,2.1,6.6,0.477,7.8,16.4,0.0,0.0,0.1,0.474,7.8,16.5,0.739,4.6,6.2,50.0,50.0,NBA,1771.0,2.5,3.9,C,20.3,1986,1.1,NYK,3.5,9.2
24.0,1.7,2.4,6.5,0.507,8.6,17.1,0.0,0.0,0.1,0.503,8.6,17.2,0.713,4.8,6.8,63.0,63.0,NBA,2206.0,2.6,4.0,PF,22.1,1987,1.5,NYK,3.7,9.1
25.0,1.8,3.5,6.1,0.556,9.3,16.7,0.0,0.0,0.0,0.555,9.3,16.7,0.716,4.8,6.7,82.0,82.0,NBA,2546.0,3.5,4.7,C,23.4,1988,1.5,NYK,4.1,9.6
26.0,2.3,3.5,6.6,0.57,9.0,15.9,0.0,0.0,0.1,0.567,9.0,15.9,0.746,4.5,6.0,80.0,80.0,NBA,2896.0,2.6,3.9,C,22.6,1989,1.5,NYK,3.3,9.2
27.0,2.1,3.7,7.5,0.552,10.5,19.0,0.25,0.0,0.0,0.551,10.5,19.0,0.775,5.7,7.4,82.0,82.0,NBA,3165.0,2.7,3.7,C,26.7,1990,0.9,NYK,3.2,10.2
28.0,2.8,3.0,8.2,0.516,9.8,19.0,0.0,0.0,0.1,0.514,9.8,19.1,0.745,5.4,7.2,81.0,81.0,NBA,3104.0,2.3,3.3,C,25.0,1991,0.9,NYK,3.4,10.5
29.0,1.8,2.8,7.9,0.523,9.1,17.4,0.167,0.0,0.1,0.522,9.1,17.4,0.738,4.3,5.8,82.0,82.0,NBA,3150.0,2.6,3.2,C,22.5,1992,1.0,NYK,2.4,10.5
30.0,1.8,1.9,9.5,0.504,9.3,18.5,0.143,0.0,0.1,0.503,9.3,18.6,0.719,4.8,6.7,81.0,81.0,NBA,3003.0,2.3,3.4,C,23.5,1993,0.9,NYK,3.2,11.7
31.0,2.2,2.6,8.1,0.498,9.0,18.0,0.286,0.0,0.2,0.496,9.0,18.2,0.765,5.4,7.0,79.0,79.0,NBA,2972.0,2.7,3.3,C,23.5,1994,1.1,NYK,3.1,10.7
32.0,2.6,2.0,8.8,0.506,8.9,17.6,0.286,0.1,0.3,0.503,9.0,17.9,0.75,5.2,6.9,79.0,79.0,NBA,2920.0,1.9,3.4,C,23.3,1995,0.8,NYK,3.2,10.7
33.0,2.1,2.4,8.4,0.472,8.7,18.5,0.143,0.1,0.4,0.466,8.8,18.8,0.761,4.5,6.0,76.0,76.0,NBA,2783.0,2.0,3.2,C,22.1,1996,0.9,NYK,2.9,10.4
34.0,1.9,2.4,8.2,0.49,8.1,16.6,0.222,0.0,0.1,0.488,8.2,16.7,0.754,5.5,7.3,78.0,78.0,NBA,2887.0,2.2,3.1,C,21.8,1997,0.9,NYK,3.4,10.4
35.0,1.2,2.5,8.7,0.506,8.6,17.0,0.0,0.0,0.1,0.504,8.6,17.1,0.72,5.7,7.9,26.0,26.0,NBA,848.0,2.5,3.1,C,22.9,1998,0.7,NYK,3.3,11.3
36.0,1.2,2.8,8.4,0.436,6.8,15.7,0.0,0.0,0.1,0.435,6.8,15.7,0.706,4.5,6.4,38.0,38.0,NBA,1300.0,2.0,2.9,C,18.2,1999,0.8,NYK,2.7,10.4
37.0,1.0,1.5,8.2,0.467,6.4,13.7,0.0,0.0,0.0,0.466,6.4,13.7,0.731,3.7,5.0,62.0,62.0,NBA,2035.0,2.5,3.5,C,16.4,2000,0.6,NYK,2.5,10.7
38.0,1.6,1.6,7.9,0.431,5.0,11.7,0.0,0.0,0.0,0.43,5.0,11.7,0.685,2.9,4.3,79.0,79.0,NBA,2107.0,2.1,3.9,C,13.0,2001,0.9,SEA,2.6,10.0
39.0,1.4,1.8,8.1,0.446,5.9,13.3,0.0,0.0,0.0,0.444,5.9,13.3,0.701,3.8,5.4,65.0,4.0,NBA,901.0,2.4,5.2,C,15.6,2002,0.9,ORL,2.6,10.5
