age,and1s,astd_pts,drawn_offensive,drawn_shooting,fouls_offensive,fouls_shooting,g,lg_id,mp,own_shots_blk,pct_1,pct_2,pct_3,pct_4,pct_5,plus_minus_net,plus_minus_on,pos,season,team_id,tov_bad_pass,tov_lost_ball
38.0,23.0,210.0,0.0,120.0,21.0,97.0,79.0,NBA,2107.0,72.0,0.0,0.0,0.0,0.0,100.0,-8.4,-4.0,C,2001,SEA,58.0,57.0
39.0,13.0,84.0,0.0,58.0,11.0,67.0,65.0,NBA,901.0,22.0,0.0,0.0,0.0,0.0,100.0,-4.2,-1.5,C,2002,ORL,20.0,24.0
