lg_id,salary,season,team_name
NBA,3745800.0,2008,Atlanta Hawks
NBA,4026720.0,2009,Atlanta Hawks
NBA,4307640.0,2010,Atlanta Hawks
NBA,5444857.0,2011,Atlanta Hawks
NBA,12000000.0,2012,Atlanta Hawks
NBA,12000000.0,2013,Atlanta Hawks
NBA,12000000.0,2014,Atlanta Hawks
NBA,12000000.0,2015,Atlanta Hawks
NBA,12000000.0,2016,Atlanta Hawks
NBA,26540100.0,2017,Boston Celtics
NBA,27734405.0,2018,Boston Celtics
NBA,28928710.0,2019,Boston Celtics
