age,ast,blk,fg,fg3,fg3_pct,fg3a,fg_pct,fga,ft,ft_pct,fta,g,gs,lg_id,mp,orb,pf,pos,pts,season,stl,team_id,tov,trb
23.0,2.0,1.0,4.0,0.0,0.0,0.0,0.8,5.0,0.0,0.0,1.0,1.0,0.0,NBA,15,0.0,1.0,C,8.0,2010,1.0,ATL,0.0,4.0
24.0,0.0,1.0,1.0,0.0,0.0,0.0,0.333,3.0,0.0,0.0,0.0,1.0,0.0,NBA,11,1.0,2.0,C,2.0,2011,0.0,ATL,0.0,3.0
28.0,2.0,0.0,4.0,0.0,0.0,0.0,0.667,6.0,0.0,0.0,0.0,1.0,0.0,NBA,14,3.0,1.0,C,8.0,2015,0.0,ATL,1.0,7.0
29.0,2.0,0.0,3.0,1.0,0.333,3.0,1.0,3.0,0.0,0.0,0.0,1.0,0.0,NBA,10,0.0,0.0,C,7.0,2016,0.0,ATL,0.0,3.0
31.0,2.0,0.0,2.0,0.0,0.0,2.0,0.5,4.0,2.0,1.0,2.0,1.0,0.0,NBA,13,0.0,0.0,C,6.0,2018,1.0,BOS,0.0,5.0
