age,avg_dist,fg2_dunk,fg2_pct,fg2_pct_ast,fg2a_pct_fga,fg3_heave,fg3_pct,fg3_pct_ast,fg3_pct_corner,fg3a_heave,fg3a_pct_fga,fg_pct,fg_pct_00_03,fg_pct_03_10,fg_pct_10_16,fg_pct_16_xx,g,lg_id,mp,pct_fg2_dunk,pct_fg3a_corner,pct_fga_00_03,pct_fga_03_10,pct_fga_10_16,pct_fga_16_xx,pos,season,team_id
21.0,7.3,68.0,0.502,0.676,0.993,0.0,0.0,0.0,0.0,1.0,0.007,0.499,0.64,0.429,0.429,0.357,81.0,NBA,2540.0,0.108,0.0,0.412,0.251,0.136,0.193,C,2008,ATL
22.0,7.9,69.0,0.526,0.663,0.998,0.0,0.0,0.0,0.0,0.0,0.002,0.525,0.705,0.455,0.448,0.391,67.0,NBA,2242.0,0.131,0.0,0.337,0.281,0.195,0.185,C,2009,ATL
23.0,7.3,86.0,0.551,0.652,0.999,0.0,1.0,1.0,1.0,0.0,0.001,0.551,0.721,0.465,0.424,0.468,81.0,NBA,2845.0,0.105,1.0,0.36,0.305,0.17,0.164,C,2010,ATL
24.0,10.8,60.0,0.557,0.695,0.996,0.0,0.5,0.5,1.0,0.0,0.004,0.557,0.761,0.449,0.486,0.531,77.0,NBA,2704.0,0.068,0.5,0.231,0.244,0.15,0.37,C,2011,ATL
25.0,8.9,10.0,0.559,0.579,0.99,0.0,0.0,0.0,0.0,0.0,0.01,0.553,0.684,0.6,0.444,0.4,11.0,NBA,348.0,0.117,0.0,0.369,0.243,0.087,0.291,C,2012,ATL
26.0,9.5,101.0,0.544,0.771,0.994,0.0,0.5,0.667,0.667,0.0,0.006,0.543,0.752,0.434,0.446,0.423,74.0,NBA,2756.0,0.098,0.5,0.35,0.207,0.114,0.324,C,2013,ATL
27.0,10.2,32.0,0.572,0.709,0.974,0.0,0.364,1.0,0.364,0.0,0.026,0.567,0.754,0.47,0.491,0.496,29.0,NBA,958.0,0.079,1.0,0.31,0.198,0.131,0.336,C,2014,ATL
28.0,10.6,81.0,0.547,0.789,0.963,0.0,0.306,0.909,0.379,0.0,0.037,0.538,0.75,0.408,0.458,0.494,76.0,NBA,2318.0,0.088,0.806,0.286,0.213,0.111,0.352,C,2015,ATL
29.0,12.3,84.0,0.557,0.776,0.756,0.0,0.344,1.0,0.259,0.0,0.244,0.505,0.745,0.385,0.355,0.492,82.0,NBA,2631.0,0.084,0.227,0.3,0.136,0.089,0.231,C,2016,ATL
30.0,13.4,41.0,0.524,0.59,0.698,0.0,0.355,0.977,0.368,0.0,0.302,0.473,0.708,0.472,0.392,0.45,68.0,NBA,2193.0,0.052,0.157,0.213,0.22,0.127,0.136,C,2017,BOS
31.0,12.8,45.0,0.514,0.572,0.7,0.0,0.429,0.948,0.528,0.0,0.3,0.489,0.738,0.438,0.38,0.462,72.0,NBA,2277.0,0.062,0.159,0.198,0.255,0.143,0.104,C,2018,BOS
32.0,13.3,47.0,0.604,0.752,0.719,0.0,0.36,1.0,0.263,1.0,0.281,0.535,0.743,0.54,0.535,0.523,68.0,NBA,1973.0,0.072,0.094,0.242,0.207,0.119,0.151,C,2019,BOS
33.0,14.2,9.0,0.5,0.638,0.653,0.0,0.32,0.938,0.2,0.0,0.347,0.438,0.771,0.364,0.385,0.231,10.0,NBA,316.0,0.069,0.1,0.243,0.229,0.09,0.09,PF,2020,PHI
