age,ast_per_g,blk_per_g,drb_per_g,efg_pct,fg2_pct,fg2_per_g,fg2a_per_g,fg3_pct,fg3_per_g,fg3a_per_g,fg_pct,fg_per_g,fga_per_g,ft_pct,ft_per_g,fta_per_g,g,gs,lg_id,mp_per_g,orb_per_g,pf_per_g,pos,pts_per_g,season,stl_per_g,team_id,tov_per_g,trb_per_g
21.0,1.5,0.9,6.6,0.499,0.502,4.1,8.2,0.0,0.0,0.1,0.499,4.1,8.2,0.731,1.9,2.6,81.0,77.0,NBA,31.4,3.1,3.3,C,10.1,2008,0.7,ATL,1.7,9.7
22.0,2.4,1.4,7.1,0.525,0.526,4.7,8.9,0.0,0.0,0.0,0.525,4.7,8.9,0.727,2.2,3.1,67.0,67.0,NBA,33.5,2.2,2.8,C,11.5,2009,0.8,ATL,1.5,9.3
23.0,2.3,1.1,7.0,0.552,0.551,5.8,10.4,1.0,0.0,0.0,0.551,5.8,10.5,0.789,2.6,3.3,81.0,81.0,NBA,35.1,2.9,2.8,C,14.2,2010,0.7,ATL,1.5,9.9
24.0,3.5,1.0,7.0,0.558,0.557,6.6,11.9,0.5,0.0,0.1,0.557,6.7,12.0,0.798,1.9,2.4,77.0,77.0,NBA,35.1,2.4,2.5,C,15.3,2011,0.8,ATL,1.5,9.3
25.0,2.2,1.3,4.6,0.553,0.559,5.2,9.3,0.0,0.0,0.1,0.553,5.2,9.4,0.733,2.0,2.7,11.0,11.0,NBA,31.6,2.4,1.9,C,12.4,2012,0.9,ATL,1.5,7.0
26.0,3.2,1.1,7.6,0.545,0.544,7.7,14.2,0.5,0.0,0.1,0.543,7.8,14.3,0.644,1.8,2.8,74.0,74.0,NBA,37.2,2.6,2.2,C,17.4,2013,1.1,ATL,2.0,10.2
27.0,2.6,1.5,6.1,0.571,0.572,8.1,14.1,0.364,0.1,0.4,0.567,8.2,14.5,0.682,2.0,2.9,29.0,29.0,NBA,33.0,2.3,1.9,C,18.6,2014,0.9,ATL,2.2,8.4
28.0,3.2,1.3,5.4,0.544,0.547,6.7,12.2,0.306,0.1,0.5,0.538,6.8,12.7,0.759,1.4,1.9,76.0,76.0,NBA,30.5,1.7,1.6,C,15.2,2015,0.9,ATL,1.3,7.2
29.0,3.2,1.5,5.5,0.547,0.557,5.4,9.7,0.344,1.1,3.1,0.505,6.5,12.8,0.798,1.3,1.6,82.0,82.0,NBA,32.1,1.8,2.0,C,15.2,2016,0.8,ATL,1.3,7.3
30.0,5.0,1.3,5.4,0.527,0.524,4.3,8.2,0.355,1.3,3.6,0.473,5.6,11.8,0.8,1.6,2.0,68.0,68.0,NBA,32.3,1.4,2.0,C,14.0,2017,0.8,BOS,1.7,6.8
31.0,4.7,1.1,5.9,0.553,0.514,3.8,7.3,0.429,1.3,3.1,0.489,5.1,10.5,0.783,1.3,1.7,72.0,72.0,NBA,31.6,1.4,1.9,C,12.9,2018,0.6,BOS,1.8,7.4
32.0,4.2,1.3,5.0,0.586,0.604,4.6,7.6,0.36,1.1,3.0,0.535,5.7,10.6,0.821,1.1,1.4,68.0,68.0,NBA,29.0,1.8,1.9,C,13.6,2019,0.9,BOS,1.5,6.7
33.0,3.8,1.0,5.4,0.493,0.5,4.7,9.4,0.32,1.6,5.0,0.438,6.3,14.4,0.625,1.5,2.4,10.0,10.0,NBA,31.6,2.1,3.1,PF,15.7,2020,1.0,PHI,1.3,7.5
