age,ast_pct,blk_pct,bpm,bpm-dum,dbpm,drb_pct,dws,fg3a_per_fga_pct,fta_per_fga_pct,g,lg_id,mp,obpm,orb_pct,ows,per,pos,season,stl_pct,team_id,tov_pct,trb_pct,ts_pct,usg_pct,vorp,ws,ws-dum,ws_per_48
21.0,7.9,2.2,-0.2,0.0,1.1,24.5,3.0,0.007,0.317,81.0,NBA,2540.0,-1.3,11.4,2.4,14.7,C,2008,1.2,ATL,15.3,18.0,0.539,16.0,1.2,5.5,0.0,0.103
22.0,11.9,3.3,2.3,0.0,3.1,25.0,3.5,0.002,0.345,67.0,NBA,2242.0,-0.7,7.6,3.3,17.0,C,2009,1.3,ATL,13.1,16.3,0.565,16.4,2.5,6.8,0.0,0.145
23.0,10.4,2.4,3.3,0.0,1.9,23.3,3.9,0.001,0.319,81.0,NBA,2845.0,1.5,9.6,6.9,19.4,C,2010,1.1,ATL,11.2,16.4,0.594,17.6,3.8,10.9,0.0,0.183
24.0,17.5,2.3,4.4,0.0,2.4,23.7,3.7,0.004,0.204,77.0,NBA,2704.0,2.0,8.2,6.4,20.7,C,2011,1.2,ATL,10.6,16.0,0.587,19.7,4.4,10.1,0.0,0.179
25.0,11.7,3.1,2.8,0.0,2.3,17.1,0.6,0.01,0.291,11.0,NBA,348.0,0.5,8.8,0.8,19.0,C,2012,1.5,ATL,12.1,13.0,0.585,17.9,0.4,1.3,0.0,0.18
26.0,15.3,2.2,3.1,0.0,2.4,23.0,4.1,0.006,0.196,74.0,NBA,2756.0,0.7,8.2,4.7,19.8,C,2013,1.5,ATL,11.3,15.7,0.56,21.8,3.5,8.8,0.0,0.153
27.0,15.2,3.6,2.8,0.0,2.0,21.4,1.3,0.026,0.202,29.0,NBA,958.0,0.8,8.0,1.5,22.0,C,2014,1.4,ATL,12.3,14.8,0.588,24.7,1.1,2.8,0.0,0.141
28.0,18.6,3.5,3.8,0.0,2.5,19.8,3.6,0.037,0.146,76.0,NBA,2318.0,1.3,6.7,5.1,21.4,C,2015,1.5,ATL,8.9,13.4,0.563,22.2,3.4,8.7,0.0,0.179
29.0,16.7,3.6,4.1,0.0,2.6,18.2,4.5,0.244,0.123,82.0,NBA,2631.0,1.5,6.3,4.9,19.4,C,2016,1.3,ATL,8.8,12.4,0.565,20.6,4.1,9.4,0.0,0.172
30.0,24.4,3.2,3.1,0.0,2.0,18.6,2.7,0.302,0.169,68.0,NBA,2193.0,1.0,4.9,3.6,17.7,C,2017,1.2,BOS,11.8,11.8,0.553,19.7,2.8,6.3,0.0,0.138
31.0,23.6,2.9,4.0,0.0,2.9,20.2,3.8,0.3,0.159,72.0,NBA,2277.0,1.1,5.0,4.0,17.6,C,2018,0.9,BOS,14.1,12.7,0.575,18.4,3.5,7.8,0.0,0.165
32.0,21.2,3.9,4.8,0.0,2.7,18.3,2.9,0.281,0.131,68.0,NBA,1973.0,2.1,6.5,4.5,20.2,C,2019,1.4,BOS,11.8,12.4,0.605,18.9,3.4,7.5,0.0,0.181
33.0,18.3,2.7,2.9,0.0,1.5,18.4,0.5,0.347,0.167,10.0,NBA,316.0,1.4,7.3,0.4,17.3,PF,2020,1.5,PHI,7.8,12.9,0.508,21.8,0.4,0.9,0.0,0.139
