age,ast_per_mp,blk_per_mp,drb_per_mp,fg2_pct,fg2_per_mp,fg2a_per_mp,fg3_pct,fg3_per_mp,fg3a_per_mp,fg_pct,fg_per_mp,fga_per_mp,ft_pct,ft_per_mp,fta_per_mp,g,gs,lg_id,mp,orb_per_mp,pf_per_mp,pos,pts_per_mp,season,stl_per_mp,team_id,tov_per_mp,trb_per_mp
21.0,3.2,0.9,6.6,0.472,4.4,9.4,0.0,0.0,0.0,0.472,4.4,9.4,0.741,2.6,3.5,7.0,7.0,NBA,277.0,2.9,3.4,C,11.4,2008,0.4,ATL,1.9,9.5
22.0,2.6,0.9,5.7,0.431,3.6,8.3,0.0,0.0,0.1,0.424,3.6,8.4,0.667,1.7,2.6,9.0,9.0,NBA,252.0,1.7,3.7,C,8.9,2009,0.9,ATL,0.6,7.4
23.0,1.9,1.8,6.6,0.52,6.1,11.8,1.0,0.1,0.1,0.523,6.2,11.9,0.839,2.4,2.9,11.0,11.0,NBA,388.0,2.6,3.2,C,14.9,2010,0.7,ATL,1.4,9.2
24.0,3.2,0.9,6.9,0.43,4.5,10.4,0.0,0.0,0.2,0.423,4.5,10.5,0.769,1.5,2.0,12.0,12.0,NBA,468.0,1.9,2.5,C,10.5,2011,0.4,ATL,1.3,8.8
25.0,2.7,1.3,6.7,0.588,6.7,11.3,0.0,0.0,0.0,0.588,6.7,11.3,0.75,2.0,2.7,3.0,2.0,NBA,108.0,1.7,3.7,C,15.3,2012,1.3,ATL,4.0,8.3
26.0,3.0,0.8,6.8,0.494,6.8,13.7,0.0,0.0,0.0,0.494,6.8,13.7,0.667,3.0,4.5,6.0,6.0,NBA,218.0,2.0,2.8,C,16.5,2013,1.0,ATL,1.5,8.8
28.0,4.1,1.6,6.8,0.52,7.2,13.9,0.222,0.1,0.6,0.507,7.4,14.6,0.75,1.0,1.4,16.0,16.0,NBA,522.0,2.8,2.3,C,15.9,2015,0.9,ATL,1.7,9.5
29.0,3.3,2.6,5.7,0.489,4.7,9.7,0.393,1.2,3.1,0.466,5.9,12.8,0.938,1.7,1.8,10.0,10.0,NBA,327.0,1.4,2.8,C,14.8,2016,1.3,ATL,1.9,7.2
30.0,5.7,0.8,5.1,0.609,5.0,8.1,0.519,1.6,3.1,0.584,6.6,11.2,0.759,1.3,1.7,18.0,18.0,NBA,610.0,1.8,1.9,C,16.0,2017,0.9,BOS,1.9,7.0
31.0,3.3,1.2,6.6,0.596,5.1,8.5,0.349,0.8,2.3,0.544,5.9,10.8,0.827,3.3,4.0,19.0,19.0,NBA,679.0,1.7,2.1,C,15.9,2018,1.0,BOS,1.7,8.3
32.0,4.6,0.8,7.9,0.424,3.3,7.7,0.409,2.1,5.1,0.418,5.3,12.8,0.833,1.7,2.1,9.0,9.0,NBA,310.0,1.5,2.4,C,14.5,2019,0.5,BOS,2.2,9.4
