lg_id,salary,season,team_name
NBA,3374640.0,2013,Houston Rockets
NBA,3526440.0,2014,Portland Trail Blazers
NBA,3678360.0,2015,Philadelphia 76ers
NBA,981300.0,2016,Brooklyn Nets
NBA,1050961.0,2017,Los Angeles Lakers
