age,ast,blk,drb,efg_pct,fg,fg2,fg2_pct,fg2a,fg3,fg3_pct,fg3a,fg_pct,fga,ft,ft_pct,fta,g,gs,lg_id,mp,orb,pf,pos,pts,season,stl,team_id,tov,trb
21.0,46.0,26.0,193.0,0.43,138.0,138.0,0.431,320.0,0.0,0.0,1.0,0.43,321.0,57.0,0.523,109.0,70.0,0.0,NBA,1056.0,122.0,124.0,PF,333.0,2013,41.0,TOT,88.0,315.0
21.0,36.0,21.0,146.0,0.424,103.0,103.0,0.424,243.0,0.0,0.0,0.0,0.424,243.0,41.0,0.577,71.0,51.0,0.0,NBA,809.0,92.0,95.0,PF,247.0,2013,25.0,SAC,65.0,238.0
21.0,10.0,5.0,47.0,0.449,35.0,35.0,0.455,77.0,0.0,0.0,1.0,0.449,78.0,16.0,0.421,38.0,19.0,0.0,NBA,247.0,30.0,29.0,PF,86.0,2013,16.0,HOU,23.0,77.0
22.0,34.0,20.0,202.0,0.481,141.0,141.0,0.483,292.0,0.0,0.0,1.0,0.481,293.0,57.0,0.564,101.0,70.0,0.0,NBA,873.0,105.0,131.0,PF,339.0,2014,23.0,POR,57.0,307.0
23.0,33.0,20.0,208.0,0.485,126.0,126.0,0.488,258.0,0.0,0.0,2.0,0.485,260.0,56.0,0.528,106.0,54.0,4.0,NBA,798.0,95.0,104.0,PF,308.0,2015,32.0,TOT,59.0,303.0
23.0,9.0,11.0,100.0,0.516,47.0,47.0,0.516,91.0,0.0,0.0,0.0,0.516,91.0,21.0,0.438,48.0,32.0,4.0,NBA,391.0,33.0,54.0,PF,115.0,2015,16.0,POR,33.0,133.0
23.0,24.0,9.0,108.0,0.467,79.0,79.0,0.473,167.0,0.0,0.0,2.0,0.467,169.0,35.0,0.603,58.0,22.0,0.0,NBA,407.0,62.0,50.0,PF,193.0,2015,16.0,PHI,26.0,170.0
24.0,46.0,36.0,223.0,0.447,130.0,130.0,0.448,290.0,0.0,0.0,1.0,0.447,291.0,47.0,0.431,109.0,71.0,7.0,NBA,917.0,136.0,111.0,PF,307.0,2016,39.0,BRK,69.0,359.0
25.0,31.0,9.0,139.0,0.536,105.0,105.0,0.538,195.0,0.0,0.0,1.0,0.536,196.0,31.0,0.47,66.0,48.0,1.0,NBA,560.0,84.0,76.0,PF,241.0,2017,26.0,LAL,46.0,223.0
