age,ast_per_poss,blk_per_poss,def_rtg,drb_per_poss,fg2_pct,fg2_per_poss,fg2a_per_poss,fg3_pct,fg3_per_poss,fg3a_per_poss,fg_pct,fg_per_poss,fga_per_poss,ft_pct,ft_per_poss,fta_per_poss,g,gs,lg_id,mp,off_rtg,orb_per_poss,pf_per_poss,pos,pts_per_poss,season,stl_per_poss,team_id,tov_per_poss,trb_per_poss
21.0,2.2,1.3,107.0,9.3,0.431,6.7,15.4,0.0,0.0,0.0,0.43,6.7,15.5,0.523,2.7,5.3,70.0,0.0,NBA,1056.0,90.0,5.9,6.0,PF,16.1,2013,2.0,TOT,4.2,15.2
21.0,2.3,1.3,109.0,9.2,0.424,6.5,15.4,0.0,0.0,0.0,0.424,6.5,15.4,0.577,2.6,4.5,51.0,0.0,NBA,809.0,91.0,5.8,6.0,PF,15.6,2013,1.6,SAC,4.1,15.1
21.0,2.0,1.0,101.0,9.5,0.455,7.1,15.6,0.0,0.0,0.2,0.449,7.1,15.8,0.421,3.2,7.7,19.0,0.0,NBA,247.0,89.0,6.1,5.9,PF,17.4,2013,3.2,HOU,4.7,15.6
22.0,2.0,1.2,104.0,11.7,0.483,8.2,16.9,0.0,0.0,0.1,0.481,8.2,17.0,0.564,3.3,5.9,70.0,0.0,NBA,873.0,102.0,6.1,7.6,PF,19.6,2014,1.3,POR,3.3,17.8
23.0,2.1,1.3,99.0,13.2,0.488,8.0,16.3,0.0,0.0,0.1,0.485,8.0,16.5,0.528,3.5,6.7,54.0,4.0,NBA,798.0,98.0,6.0,6.6,PF,19.5,2015,2.0,TOT,3.7,19.2
23.0,1.2,1.4,98.0,13.0,0.516,6.1,11.9,0.0,0.0,0.0,0.516,6.1,11.9,0.438,2.7,6.3,32.0,4.0,NBA,391.0,90.0,4.3,7.0,PF,15.0,2015,2.1,POR,4.3,17.3
23.0,3.0,1.1,100.0,13.3,0.473,9.7,20.6,0.0,0.0,0.2,0.467,9.7,20.8,0.603,4.3,7.1,22.0,0.0,NBA,407.0,103.0,7.6,6.2,PF,23.8,2015,2.0,PHI,3.2,20.9
24.0,2.5,2.0,105.0,12.3,0.448,7.1,15.9,0.0,0.0,0.1,0.447,7.1,16.0,0.431,2.6,6.0,71.0,7.0,NBA,917.0,94.0,7.5,6.1,PF,16.9,2016,2.1,BRK,3.8,19.7
25.0,2.7,0.8,109.0,12.1,0.538,9.1,17.0,0.0,0.0,0.1,0.536,9.1,17.1,0.47,2.7,5.7,48.0,1.0,NBA,560.0,105.0,7.3,6.6,PF,21.0,2017,2.3,LAL,4.0,19.4
