age,and1s,astd_pts,drawn_offensive,drawn_shooting,fouls_offensive,fouls_shooting,g,lg_id,mp,own_shots_blk,pct_1,pct_2,pct_3,pct_4,pct_5,plus_minus_net,plus_minus_on,pos,season,team_id,tov_bad_pass,tov_lost_ball
23.0,6.0,205.0,0.0,36.0,6.0,60.0,72.0,NBA,1514.0,26.0,1.0,57.0,42.0,0.0,0.0,-3.7,-8.0,SG,2003,MIA,36.0,24.0
24.0,3.0,54.0,0.0,6.0,6.0,42.0,45.0,NBA,675.0,5.0,2.0,23.0,75.0,0.0,0.0,3.6,3.6,SF,2004,MIA,11.0,10.0
25.0,2.0,130.0,0.0,16.0,1.0,49.0,65.0,NBA,1203.0,12.0,0.0,1.0,85.0,14.0,0.0,-2.2,5.8,SF,2005,MIA,26.0,4.0
26.0,7.0,86.0,2.0,46.0,9.0,75.0,79.0,NBA,1875.0,27.0,0.0,31.0,67.0,2.0,0.0,2.9,-1.6,SF,2006,NOK,19.0,22.0
27.0,12.0,143.0,8.0,38.0,9.0,86.0,81.0,NBA,2223.0,28.0,0.0,34.0,65.0,1.0,0.0,-1.7,-2.4,SF,2007,NOK,18.0,19.0
28.0,2.0,82.0,3.0,16.0,3.0,38.0,51.0,NBA,875.0,10.0,0.0,31.0,69.0,0.0,0.0,-4.1,2.9,SF,2008,NOH,1.0,2.0
29.0,12.0,168.0,11.0,47.0,10.0,96.0,82.0,NBA,2614.0,25.0,0.0,46.0,48.0,7.0,0.0,-5.7,0.0,SF,2009,NOH,16.0,18.0
30.0,9.0,250.0,8.0,50.0,7.0,68.0,82.0,NBA,2702.0,28.0,0.0,31.0,67.0,3.0,0.0,4.2,-5.7,SF,2010,LAC,40.0,17.0
31.0,1.0,62.0,0.0,8.0,2.0,22.0,47.0,NBA,770.0,9.0,0.0,66.0,34.0,0.0,0.0,-10.3,-7.1,SG,2011,TOT,9.0,5.0
31.0,1.0,62.0,0.0,8.0,2.0,21.0,41.0,NBA,744.0,9.0,0.0,68.0,32.0,0.0,0.0,-5.6,-8.2,SG,2011,LAC,8.0,5.0
31.0,0.0,0.0,0.0,0.0,0.0,1.0,6.0,NBA,26.0,0.0,0.0,16.0,84.0,0.0,0.0,20.1,28.2,SG,2011,CHI,1.0,0.0
32.0,1.0,44.0,0.0,4.0,4.0,24.0,34.0,NBA,453.0,5.0,0.0,2.0,92.0,6.0,0.0,-9.0,-11.4,SF,2012,TOR,7.0,3.0
34.0,0.0,39.0,0.0,5.0,0.0,19.0,50.0,NBA,378.0,1.0,5.0,69.0,24.0,2.0,0.0,-10.4,-4.7,SG,2014,IND,8.0,2.0
35.0,6.0,134.0,6.0,23.0,6.0,47.0,75.0,NBA,1505.0,12.0,0.0,57.0,43.0,0.0,0.0,-4.9,-2.1,SF,2015,WAS,18.0,19.0
36.0,2.0,58.0,1.0,5.0,0.0,7.0,46.0,NBA,432.0,4.0,0.0,26.0,69.0,5.0,0.0,-1.9,9.8,SF,2016,SAS,6.0,1.0
