age,ast_per_mp,blk_per_mp,drb_per_mp,fg2_pct,fg2_per_mp,fg2a_per_mp,fg3_pct,fg3_per_mp,fg3a_per_mp,fg_pct,fg_per_mp,fga_per_mp,ft_pct,ft_per_mp,fta_per_mp,g,gs,lg_id,mp,orb_per_mp,pf_per_mp,pos,pts_per_mp,season,stl_per_mp,team_id,tov_per_mp,trb_per_mp
24.0,1.2,0.0,6.8,0.462,3.7,8.1,0.333,1.9,5.6,0.409,5.6,13.7,0.0,0.0,0.0,10.0,0.0,NBA,58.0,0.0,7.4,SF,13.0,2004,0.6,MIA,0.6,6.8
25.0,1.4,0.2,3.4,0.379,2.2,5.7,0.367,2.2,5.9,0.373,4.4,11.7,0.333,0.2,0.6,12.0,1.0,NBA,182.0,0.2,4.2,SF,11.1,2005,0.2,MIA,0.4,3.6
29.0,0.2,0.9,2.7,0.389,1.6,4.1,0.526,2.3,4.3,0.459,3.9,8.4,1.0,2.1,2.1,5.0,5.0,NBA,158.0,0.7,3.2,SF,12.1,2009,0.2,NOH,1.4,3.4
31.0,0.0,0.0,5.1,0.0,0.0,0.0,1.0,5.1,5.1,1.0,5.1,5.1,0.0,0.0,0.0,3.0,0.0,NBA,7.0,0.0,0.0,SG,15.4,2011,0.0,CHI,0.0,5.1
34.0,0.5,0.5,3.1,0.333,0.5,1.5,0.417,2.6,6.2,0.4,3.1,7.7,1.0,1.0,1.0,11.0,0.0,NBA,70.0,0.0,1.5,SG,9.8,2014,0.5,IND,0.5,3.1
35.0,5.1,0.0,5.1,0.0,0.0,0.0,0.0,0.0,5.1,0.0,0.0,5.1,0.0,0.0,0.0,2.0,0.0,NBA,7.0,0.0,10.3,SF,0.0,2015,0.0,WAS,0.0,5.1
