age,ast,ast_per_g,blk,college_id,fg,fg3,fg3_pct,fg3a,fg_pct,fga,ft,ft_pct,fta,g,mp,mp_per_g,orb,pf,pts,pts_per_g,season,stl,tov,trb,trb_per_g
19.0,17.0,0.5,50.0,INDIANA,151.0,1.0,0.25,4.0,0.508,297.0,80.0,0.661,121.0,33.0,783.0,23.7,0.0,84.0,383.0,11.6,1992,32.0,32.0,238.0,7.2
20.0,27.0,0.9,43.0,INDIANA,130.0,1.0,0.167,6.0,0.487,267.0,72.0,0.637,113.0,30.0,737.0,24.6,0.0,74.0,333.0,11.1,1993,35.0,45.0,243.0,8.1
21.0,36.0,1.2,56.0,INDIANA,198.0,2.0,0.333,6.0,0.531,373.0,136.0,0.657,207.0,30.0,983.0,32.8,0.0,90.0,534.0,17.8,1994,39.0,60.0,308.0,10.3
22.0,54.0,1.7,64.0,INDIANA,284.0,2.0,0.2,10.0,0.597,476.0,159.0,0.633,251.0,31.0,1093.0,35.3,0.0,97.0,729.0,23.5,1995,42.0,89.0,302.0,9.7
