lg_id,salary,season,team_name
NBA,823440.0,2000,Houston Rockets
NBA,885120.0,2001,Houston Rockets
NBA,946920.0,2002,Houston Rockets
NBA,1557684.0,2003,Philadelphia 76ers
NBA,5500000.0,2004,Philadelphia 76ers
NBA,6000000.0,2005,Philadelphia 76ers
NBA,6500000.0,2006,Sacramento Kings
NBA,7187500.0,2007,Sacramento Kings
NBA,7875000.0,2008,Sacramento Kings
NBA,8562500.0,2009,Sacramento Kings
NBA,8775000.0,2010,Sacramento Kings
