age,ast,blk,drb,fg,fg2,fg2a,fg3,fg3a,fga,ft,fta,game_score,lg_id,mp,orb,pf,pts,season,stl,team_id,tov,trb
25.0,3.0,1.0,13.0,6.0,6.0,13.0,0.0,0.0,13.0,5.0,7.0,18.0,NBA,0.0,7.0,6.0,17.0,2003,2.0,TOT,5.0,19.0
25.0,3.0,1.0,13.0,6.0,6.0,13.0,0.0,0.0,13.0,5.0,7.0,18.0,NBA,0.0,7.0,6.0,17.0,2003,2.0,PHI,5.0,19.0
27.0,4.0,1.0,9.0,8.0,8.0,12.0,0.0,0.0,12.0,6.0,7.0,21.1,NBA,0.0,5.0,6.0,22.0,2005,2.0,TOT,3.0,14.0
27.0,4.0,1.0,9.0,8.0,8.0,12.0,0.0,0.0,12.0,6.0,7.0,21.1,NBA,0.0,5.0,6.0,22.0,2005,2.0,SAC,3.0,14.0
28.0,5.0,0.0,4.0,4.0,4.0,8.0,0.0,0.0,8.0,4.0,4.0,10.9,NBA,44.0,4.0,6.0,12.0,2006,2.0,SAC,3.0,8.0
