age,and1s,astd_pts,drawn_offensive,drawn_shooting,fouls_offensive,fouls_shooting,g,lg_id,mp,own_shots_blk,pct_1,pct_2,pct_3,pct_4,pct_5,plus_minus_net,plus_minus_on,pos,season,team_id,tov_bad_pass,tov_lost_ball
23.0,18.0,179.0,0.0,59.0,19.0,86.0,74.0,NBA,1820.0,47.0,0.0,0.0,10.0,56.0,34.0,3.3,4.3,PF,2001,HOU,51.0,28.0
24.0,30.0,325.0,0.0,154.0,23.0,83.0,72.0,NBA,2484.0,65.0,0.0,0.0,12.0,83.0,6.0,-1.3,-6.1,PF,2002,HOU,59.0,43.0
25.0,25.0,244.0,0.0,90.0,16.0,72.0,66.0,NBA,1978.0,56.0,0.0,0.0,30.0,70.0,1.0,1.4,3.1,PF,2003,TOT,37.0,37.0
25.0,7.0,92.0,0.0,23.0,7.0,23.0,20.0,NBA,586.0,20.0,0.0,0.0,16.0,84.0,1.0,-1.3,0.5,PF,2003,HOU,13.0,12.0
25.0,18.0,152.0,0.0,67.0,9.0,49.0,46.0,NBA,1392.0,36.0,0.0,0.0,36.0,64.0,1.0,2.7,4.2,PF,2003,PHI,24.0,25.0
26.0,30.0,257.0,0.0,141.0,31.0,93.0,74.0,NBA,2699.0,71.0,0.0,0.0,5.0,91.0,5.0,-1.9,-3.3,PF,2004,PHI,55.0,49.0
27.0,19.0,366.0,0.0,91.0,16.0,115.0,73.0,NBA,2167.0,48.0,0.0,0.0,1.0,86.0,13.0,-3.9,-2.0,PF,2005,TOT,59.0,34.0
27.0,9.0,184.0,0.0,47.0,9.0,71.0,47.0,NBA,1344.0,30.0,0.0,0.0,0.0,90.0,10.0,-3.9,-3.4,PF,2005,PHI,35.0,20.0
27.0,10.0,182.0,0.0,44.0,7.0,44.0,26.0,NBA,823.0,18.0,0.0,0.0,2.0,80.0,18.0,-2.8,0.3,PF,2005,SAC,24.0,14.0
28.0,28.0,377.0,22.0,97.0,16.0,83.0,82.0,NBA,2293.0,50.0,0.0,0.0,3.0,95.0,2.0,-5.4,-0.6,PF,2006,SAC,54.0,37.0
29.0,6.0,173.0,11.0,36.0,17.0,69.0,62.0,NBA,1412.0,33.0,0.0,0.0,1.0,83.0,16.0,-6.3,-5.9,PF,2007,SAC,29.0,22.0
30.0,0.0,29.0,0.0,1.0,4.0,20.0,23.0,NBA,281.0,3.0,0.0,0.0,0.0,89.0,11.0,-16.4,-17.6,PF,2008,SAC,11.0,4.0
31.0,0.0,2.0,1.0,0.0,0.0,6.0,8.0,NBA,62.0,0.0,0.0,0.0,0.0,92.0,8.0,2.8,-6.7,PF,2009,SAC,1.0,0.0
32.0,0.0,32.0,1.0,6.0,2.0,26.0,26.0,NBA,313.0,2.0,0.0,0.0,0.0,81.0,19.0,7.7,2.5,PF,2010,SAC,4.0,5.0
