age,ast,blk,drb,fg,fg2,fg2a,fg3,fg3a,fga,ft,fta,game_score,lg_id,mp,orb,pf,pts,season,stl,team_id,tov,trb
21.0,1.0,1.0,5.0,2.0,2.0,5.0,0.0,0.0,5.0,3.0,6.0,6.5,NBA,0.0,3.0,3.0,6.0,2002,2.0,ATL,1.0,5.0
23.0,0.0,0.0,1.0,1.0,1.0,2.0,0.0,0.0,2.0,0.0,0.0,1.6,NBA,0.0,1.0,1.0,2.0,2004,0.0,SEA,0.0,2.0
