lg_id,salary,season,team_name
NBA,949600.0,1999,Houston Rockets
NBA,1224960.0,2000,Vancouver Grizzlies
NBA,1310400.0,2001,Vancouver Grizzlies
NBA,1940702.0,2002,Memphis Grizzlies
NBA,5500000.0,2003,Memphis Grizzlies
NBA,6187500.0,2004,Memphis Grizzlies
