age,ast_pct,blk_pct,bpm,bpm-dum,dbpm,drb_pct,dws,fg3a_per_fga_pct,fta_per_fga_pct,g,lg_id,mp,obpm,orb_pct,ows,per,pos,season,stl_pct,team_id,tov_pct,trb_pct,ts_pct,usg_pct,vorp,ws,ws-dum,ws_per_48
23.0,10.4,0.5,-1.9,0.0,-2.3,4.0,0.2,0.355,0.156,50.0,NBA,1558.0,0.4,2.1,2.0,11.5,SG,1999,0.9,HOU,11.8,3.1,0.554,16.9,0.1,2.2,0.0,0.069
24.0,12.2,1.0,-0.2,0.0,-1.7,7.8,1.0,0.229,0.255,82.0,NBA,3103.0,1.5,3.0,4.5,15.6,SG,2000,2.0,VAN,10.5,5.4,0.53,23.1,1.4,5.5,0.0,0.085
25.0,15.8,0.7,-1.6,0.0,-1.6,6.9,0.7,0.225,0.265,70.0,NBA,2618.0,0.0,3.1,1.2,12.4,SG,2001,1.2,VAN,12.5,5.0,0.501,22.7,0.2,1.8,0.0,0.034
26.0,12.1,0.6,-6.4,0.0,-2.7,8.1,0.0,0.438,0.125,4.0,NBA,124.0,-3.6,2.7,-0.2,6.4,SG,2002,1.3,MEM,13.6,5.4,0.425,21.5,-0.1,-0.1,0.0,-0.05
27.0,14.1,0.8,-2.1,0.0,-1.3,6.4,0.0,0.458,0.208,6.0,NBA,87.0,-0.8,1.3,0.1,10.0,SG,2003,3.0,MEM,18.6,3.9,0.553,16.7,0.0,0.1,0.0,0.054
