age,ast,blk,drb,fg,fg2,fg2a,fg3,fg3a,fga,ft,fta,game_score,lg_id,mp,orb,pf,pts,season,stl,team_id,tov,trb
23.0,6.0,2.0,4.0,11.0,8.0,15.0,7.0,9.0,20.0,5.0,7.0,27.9,NBA,0.0,4.0,5.0,31.0,1999,3.0,HOU,5.0,6.0
24.0,7.0,5.0,7.0,17.0,15.0,25.0,4.0,9.0,28.0,11.0,12.0,30.9,NBA,0.0,4.0,5.0,40.0,2000,4.0,VAN,7.0,8.0
25.0,10.0,3.0,7.0,11.0,10.0,18.0,5.0,9.0,26.0,11.0,12.0,26.9,NBA,0.0,4.0,5.0,32.0,2001,3.0,VAN,6.0,9.0
26.0,4.0,1.0,3.0,6.0,3.0,10.0,3.0,7.0,16.0,3.0,4.0,14.6,NBA,0.0,2.0,5.0,15.0,2002,3.0,MEM,6.0,5.0
27.0,2.0,1.0,2.0,3.0,3.0,4.0,2.0,4.0,7.0,3.0,3.0,7.1,NBA,0.0,1.0,4.0,7.0,2003,2.0,MEM,2.0,2.0
