age,ast,blk,drb,fg,fg2,fg2a,fg3,fg3a,fga,ft,fta,game_score,lg_id,mp,orb,pf,pts,season,stl,team_id,tov,trb
20.0,13.0,3.0,10.0,13.0,13.0,25.0,3.0,7.0,26.0,16.0,19.0,30.8,NBA,47,3.0,6.0,34.0,2010,4.0,SAC,8.0,11.0
21.0,12.0,3.0,10.0,14.0,13.0,26.0,3.0,7.0,29.0,8.0,11.0,29.3,NBA,49,3.0,6.0,35.0,2011,5.0,SAC,6.0,10.0
22.0,10.0,3.0,10.0,12.0,12.0,21.0,2.0,6.0,22.0,14.0,14.0,29.0,NBA,49,4.0,5.0,31.0,2012,6.0,SAC,6.0,11.0
23.0,8.0,3.0,8.0,11.0,10.0,16.0,4.0,6.0,19.0,9.0,12.0,28.2,NBA,45,3.0,5.0,29.0,2013,5.0,SAC,6.0,11.0
24.0,15.0,2.0,9.0,14.0,13.0,20.0,2.0,7.0,26.0,12.0,16.0,37.5,NBA,44,4.0,5.0,41.0,2014,4.0,NOP,7.0,13.0
25.0,16.0,3.0,11.0,14.0,14.0,23.0,4.0,8.0,25.0,8.0,11.0,26.3,NBA,44,3.0,6.0,34.0,2015,4.0,NOP,7.0,12.0
26.0,13.0,1.0,10.0,10.0,8.0,16.0,5.0,7.0,22.0,8.0,8.0,24.7,NBA,41,3.0,5.0,27.0,2016,4.0,NOP,5.0,12.0
27.0,9.0,2.0,6.0,10.0,8.0,13.0,4.0,6.0,16.0,7.0,8.0,27.3,NBA,29,3.0,4.0,29.0,2017,4.0,TOT,4.0,6.0
27.0,9.0,2.0,6.0,10.0,8.0,13.0,4.0,6.0,16.0,7.0,7.0,27.3,NBA,28,3.0,4.0,29.0,2017,4.0,NOP,4.0,6.0
27.0,5.0,2.0,5.0,9.0,6.0,11.0,3.0,6.0,15.0,6.0,8.0,23.1,NBA,29,1.0,3.0,26.0,2017,2.0,SAC,4.0,6.0
28.0,12.0,3.0,11.0,13.0,11.0,18.0,6.0,11.0,24.0,14.0,15.0,31.5,NBA,41,4.0,5.0,32.0,2018,3.0,MEM,6.0,13.0
29.0,7.0,2.0,9.0,9.0,9.0,15.0,5.0,8.0,17.0,7.0,8.0,20.4,NBA,34,3.0,5.0,27.0,2019,4.0,IND,6.0,10.0
