article_url,date,headline
https://hoopshabit.com/2019/06/28/nba-free-agency-30-worst-free-agent-signings-nba-history/,2019/06/28,Hoops Habit: NBA free agency: 30 worst free agent signings in NBA history
https://hoopshabit.com/2019/06/26/nba-free-agency-teams-worst-free-agent-signing-franchise-history/,2019/06/26,Hoops Habit: NBA free agency: Each team's worst free agent signing in franchise history
