age,ast_per_mp,blk_per_mp,drb_per_mp,fg2_pct,fg2_per_mp,fg2a_per_mp,fg3_pct,fg3_per_mp,fg3a_per_mp,fg_pct,fg_per_mp,fga_per_mp,ft_pct,ft_per_mp,fta_per_mp,g,gs,lg_id,mp,orb_per_mp,pf_per_mp,pos,pts_per_mp,season,stl_per_mp,team_id,tov_per_mp,trb_per_mp
22.0,1.2,1.5,6.3,0.508,5.6,11.0,0.0,0.0,0.0,0.507,5.6,11.0,0.607,3.3,5.5,82.0,15.0,NBA,1695.0,3.6,6.3,C,14.5,1986,0.8,ATL,2.4,9.9
23.0,0.7,1.6,7.3,0.481,3.6,7.5,0.0,0.0,0.0,0.48,3.6,7.5,0.654,2.7,4.1,82.0,19.0,NBA,1684.0,3.3,5.6,C,9.9,1987,1.1,ATL,2.0,10.5
24.0,0.6,1.9,7.7,0.488,3.3,6.7,0.0,0.0,0.1,0.483,3.3,6.8,0.61,2.8,4.6,49.0,22.0,NBA,1073.0,3.5,5.4,C,9.4,1988,1.2,ATL,1.8,11.2
25.0,1.3,2.3,7.2,0.53,3.3,6.3,0.0,0.0,0.1,0.524,3.3,6.3,0.553,1.5,2.7,74.0,22.0,NBA,1531.0,3.5,5.6,C,8.1,1989,1.3,ATL,1.4,10.7
26.0,0.8,1.3,6.2,0.619,2.9,4.6,0.0,0.0,0.0,0.614,2.9,4.7,0.532,1.5,2.9,54.0,28.0,NBA,977.0,2.1,6.7,C,7.3,1990,1.4,ATL,1.7,8.3
27.0,2.3,1.4,5.1,0.444,2.6,5.8,0.125,0.0,0.1,0.436,2.6,6.0,0.593,0.6,1.0,77.0,61.0,NBA,1931.0,1.9,4.9,C,5.8,1991,1.4,ATL,0.9,7.0
28.0,3.2,1.6,4.8,0.408,2.7,6.6,0.0,0.0,0.3,0.391,2.7,6.9,0.655,0.5,0.7,77.0,14.0,NBA,1489.0,1.5,5.0,C,5.8,1992,1.2,ATL,1.3,6.3
29.0,2.6,1.8,6.0,0.467,2.2,4.7,0.375,0.1,0.1,0.464,2.3,4.9,0.48,0.4,0.9,78.0,65.0,NBA,1975.0,1.8,4.8,C,5.0,1993,1.4,ATL,0.9,7.8
30.0,2.0,2.5,5.6,0.434,3.1,7.2,0.0,0.0,0.1,0.431,3.1,7.3,0.667,0.5,0.7,82.0,78.0,NBA,1823.0,1.6,4.7,C,6.8,1994,1.2,ATL,0.9,7.2
31.0,2.0,1.8,6.1,0.43,2.5,5.8,0.333,0.5,1.4,0.412,2.9,7.1,0.542,0.5,0.9,62.0,20.0,NBA,943.0,0.9,5.2,C,6.8,1995,1.4,ATL,0.8,7.0
32.0,1.4,1.2,5.8,0.488,2.3,4.6,0.333,0.1,0.3,0.48,2.3,4.9,0.561,0.9,1.6,67.0,35.0,NBA,1288.0,1.8,6.3,C,5.7,1996,0.8,ORL,1.1,7.6
