age,ast_per_g,blk_per_g,drb_per_g,efg_pct,fg2_pct,fg2_per_g,fg2a_per_g,fg3_pct,fg3_per_g,fg3a_per_g,fg_pct,fg_per_g,fga_per_g,ft_pct,ft_per_g,fta_per_g,g,gs,lg_id,mp_per_g,orb_per_g,pf_per_g,pos,pts_per_g,season,stl_per_g,team_id,tov_per_g,trb_per_g
22.0,0.7,0.8,3.6,0.507,0.508,3.2,6.3,0.0,0.0,0.0,0.507,3.2,6.3,0.607,1.9,3.1,82.0,15.0,NBA,20.7,2.1,3.6,C,8.3,1986,0.5,ATL,1.4,5.7
23.0,0.4,0.9,4.1,0.48,0.481,2.1,4.3,0.0,0.0,0.0,0.48,2.1,4.3,0.654,1.5,2.3,82.0,19.0,NBA,20.5,1.9,3.2,C,5.6,1987,0.6,ATL,1.1,6.0
24.0,0.4,1.1,4.7,0.483,0.488,2.0,4.1,0.0,0.0,0.0,0.483,2.0,4.1,0.61,1.7,2.8,49.0,22.0,NBA,21.9,2.1,3.3,C,5.7,1988,0.7,ATL,1.1,6.8
25.0,0.8,1.3,4.1,0.524,0.53,1.9,3.6,0.0,0.0,0.0,0.524,1.9,3.6,0.553,0.9,1.5,74.0,22.0,NBA,20.7,2.0,3.2,C,4.7,1989,0.7,ATL,0.8,6.1
26.0,0.4,0.6,3.1,0.614,0.619,1.4,2.3,0.0,0.0,0.0,0.614,1.4,2.4,0.532,0.8,1.5,54.0,28.0,NBA,18.1,1.1,3.4,C,3.7,1990,0.7,ATL,0.9,4.2
27.0,1.6,1.0,3.6,0.438,0.444,1.8,4.1,0.125,0.0,0.1,0.436,1.8,4.2,0.593,0.4,0.7,77.0,61.0,NBA,25.1,1.3,3.4,C,4.1,1991,1.0,ATL,0.6,4.9
28.0,1.7,0.9,2.6,0.391,0.408,1.4,3.5,0.0,0.0,0.2,0.391,1.4,3.7,0.655,0.2,0.4,77.0,14.0,NBA,19.3,0.8,2.7,C,3.1,1992,0.6,ATL,0.7,3.4
29.0,1.8,1.3,4.2,0.47,0.467,1.6,3.3,0.375,0.0,0.1,0.464,1.6,3.4,0.48,0.3,0.6,78.0,65.0,NBA,25.3,1.3,3.4,C,3.5,1993,1.0,ATL,0.7,5.5
30.0,1.2,1.5,3.4,0.431,0.434,1.9,4.5,0.0,0.0,0.0,0.431,1.9,4.5,0.667,0.3,0.4,82.0,78.0,NBA,22.2,1.0,2.9,C,4.2,1994,0.8,ATL,0.5,4.5
31.0,0.8,0.7,2.6,0.444,0.43,1.0,2.4,0.333,0.2,0.6,0.412,1.2,3.0,0.542,0.2,0.4,62.0,20.0,NBA,15.2,0.4,2.2,C,2.9,1995,0.6,ATL,0.3,3.0
32.0,0.8,0.7,3.1,0.489,0.488,1.2,2.5,0.333,0.0,0.1,0.48,1.3,2.6,0.561,0.5,0.9,67.0,35.0,NBA,19.2,0.9,3.4,C,3.0,1996,0.4,ORL,0.6,4.1
