age,ast,blk,drb,fg,fg2,fg2a,fg3,fg3a,fga,ft,fta,game_score,lg_id,mp,orb,pf,pts,season,stl,team_id,tov,trb
21.0,4.0,1.0,5.0,5.0,5.0,7.0,1.0,5.0,9.0,9.0,11.0,14.4,NBA,0.0,4.0,3.0,17.0,2005,3.0,SAC,3.0,6.0
22.0,5.0,1.0,9.0,10.0,7.0,11.0,4.0,8.0,16.0,11.0,12.0,23.8,NBA,49.0,4.0,5.0,25.0,2006,3.0,SAC,4.0,10.0
23.0,6.0,2.0,9.0,13.0,11.0,17.0,5.0,10.0,23.0,18.0,23.0,31.6,NBA,49.0,3.0,6.0,40.0,2007,4.0,SAC,6.0,12.0
24.0,6.0,1.0,9.0,14.0,12.0,18.0,5.0,9.0,24.0,22.0,24.0,37.0,NBA,50.0,3.0,6.0,48.0,2008,5.0,SAC,6.0,10.0
25.0,8.0,3.0,9.0,13.0,10.0,17.0,7.0,12.0,24.0,23.0,26.0,37.0,NBA,56.0,3.0,5.0,50.0,2009,4.0,SAC,7.0,11.0
26.0,6.0,1.0,9.0,14.0,10.0,19.0,7.0,11.0,29.0,16.0,18.0,38.3,NBA,53.0,3.0,4.0,48.0,2010,4.0,TOT,7.0,11.0
26.0,6.0,1.0,9.0,14.0,9.0,19.0,7.0,11.0,29.0,14.0,18.0,38.3,NBA,53.0,3.0,4.0,48.0,2010,4.0,SAC,5.0,11.0
26.0,5.0,1.0,6.0,11.0,10.0,18.0,5.0,10.0,24.0,16.0,16.0,28.5,NBA,48.0,3.0,4.0,39.0,2010,3.0,HOU,7.0,8.0
27.0,7.0,1.0,7.0,13.0,11.0,21.0,6.0,10.0,26.0,18.0,18.0,35.4,NBA,47.0,3.0,6.0,45.0,2011,4.0,HOU,7.0,7.0
28.0,8.0,1.0,7.0,12.0,8.0,16.0,6.0,12.0,27.0,12.0,13.0,27.3,NBA,50.0,3.0,4.0,35.0,2012,3.0,HOU,4.0,9.0
29.0,5.0,1.0,7.0,9.0,6.0,10.0,6.0,11.0,17.0,8.0,9.0,22.0,NBA,38.0,3.0,6.0,28.0,2013,4.0,OKC,5.0,7.0
30.0,4.0,2.0,8.0,13.0,9.0,20.0,6.0,10.0,26.0,16.0,17.0,28.3,NBA,44.0,2.0,6.0,36.0,2014,4.0,MIN,6.0,10.0
31.0,9.0,1.0,8.0,14.0,10.0,24.0,7.0,11.0,31.0,11.0,11.0,29.9,NBA,45.0,3.0,4.0,37.0,2015,3.0,MIN,6.0,9.0
32.0,6.0,1.0,7.0,14.0,8.0,18.0,6.0,9.0,27.0,11.0,12.0,24.9,NBA,41.0,2.0,5.0,37.0,2016,2.0,TOT,6.0,7.0
32.0,6.0,1.0,7.0,14.0,8.0,18.0,6.0,9.0,27.0,11.0,12.0,24.9,NBA,41.0,2.0,5.0,37.0,2016,2.0,MIN,6.0,7.0
32.0,4.0,1.0,5.0,5.0,3.0,8.0,3.0,8.0,13.0,5.0,5.0,12.7,NBA,34.0,1.0,3.0,17.0,2016,2.0,SAS,3.0,6.0
