age,ast_pct,blk_pct,bpm,bpm-dum,dbpm,drb_pct,dws,fg3a_per_fga_pct,fta_per_fga_pct,g,lg_id,mp,obpm,orb_pct,ows,per,pos,season,stl_pct,team_id,tov_pct,trb_pct,ts_pct,usg_pct,vorp,ws,ws-dum,ws_per_48
22.0,6.1,1.5,-3.7,0.0,-0.1,14.2,0.8,0.448,0.181,44.0,NBA,843.0,-3.6,1.9,-0.3,6.9,SF,2017,0.9,CHI,14.4,8.0,0.503,14.4,-0.4,0.5,0.0,0.03
23.0,8.0,1.6,-5.9,0.0,-0.3,16.0,0.6,0.47,0.107,54.0,NBA,824.0,-5.5,1.6,-1.1,5.2,SF,2018,1.2,CHI,14.9,8.5,0.445,15.2,-0.8,-0.6,0.0,-0.034
