age,ast,blk,drb,efg_pct,fg,fg2,fg2_pct,fg2a,fg3,fg3_pct,fg3a,fg_pct,fga,ft,ft_pct,fta,g,gs,lg_id,mp,orb,pf,pos,pts,season,stl,team_id,tov,trb
19.0,0.0,1.0,1.0,0.417,4.0,2.0,0.222,9.0,2.0,0.667,3.0,0.333,12.0,0.0,0.0,0.0,8.0,0.0,NBA,23.0,1.0,3.0,SF,10.0,2015,0.0,TOR,4.0,2.0
20.0,1.0,1.0,1.0,0.125,1.0,0.0,0.0,5.0,1.0,0.143,7.0,0.083,12.0,0.0,0.0,0.0,6.0,1.0,NBA,43.0,1.0,2.0,SF,3.0,2016,2.0,TOR,4.0,2.0
21.0,4.0,1.0,5.0,0.438,6.0,4.0,0.4,10.0,2.0,0.333,6.0,0.375,16.0,0.0,0.0,0.0,9.0,0.0,NBA,40.0,5.0,4.0,SF,14.0,2017,2.0,TOR,2.0,10.0
22.0,4.0,4.0,15.0,0.339,9.0,6.0,0.429,14.0,3.0,0.176,17.0,0.29,31.0,5.0,0.833,6.0,12.0,0.0,NBA,107.0,7.0,8.0,SF,26.0,2018,3.0,TOT,4.0,22.0
22.0,1.0,0.0,1.0,0.0,0.0,0.0,0.0,0.0,0.0,0.0,2.0,0.0,2.0,0.0,0.0,0.0,2.0,0.0,NBA,7.0,0.0,1.0,SF,0.0,2018,1.0,TOR,0.0,1.0
22.0,3.0,4.0,14.0,0.362,9.0,6.0,0.429,14.0,3.0,0.2,15.0,0.31,29.0,5.0,0.833,6.0,10.0,0.0,NBA,100.0,7.0,7.0,SF,26.0,2018,2.0,SAC,4.0,21.0
23.0,50.0,33.0,116.0,0.533,96.0,48.0,0.505,95.0,48.0,0.369,130.0,0.427,225.0,42.0,0.84,50.0,34.0,19.0,NBA,800.0,42.0,81.0,SF,282.0,2019,14.0,MEM,38.0,158.0
24.0,3.0,6.0,8.0,0.409,8.0,6.0,0.5,12.0,2.0,0.2,10.0,0.364,22.0,0.0,0.0,0.0,5.0,0.0,NBA,56.0,5.0,6.0,SF,18.0,2020,3.0,MEM,2.0,13.0
