article_url,date,headline
https://thunderousintentions.com/2019/11/10/okc-thunder-affiliate-okc-blue-roster/,2019/11/10,Thunderous Intentions: OKC Thunder G-League affiliate OKC Blue 2019-20 roster
https://www.hoopsrumors.com/2019/10/2019-offseason-in-review-oklahoma-city-thunder.html,2019/10/20,HoopsRumors: 2019 Offseason In Review: Oklahoma City Thunder
https://thunderousintentions.com/2019/10/12/roundtable-okc-thunder-lineups-rotations/,2019/10/12,"Thunderous Intentions: Roundtable sessions: OKC Thunder lineups, rotations and reserve units"
https://thunderousintentions.com/2019/10/01/3-okc-thunder-media-day-insights/,2019/10/01,Thunderous Intentions: 3 new things we learned about the 2019-20 OKC Thunder at media day
