age,ast_per_mp,blk_per_mp,drb_per_mp,fg2_pct,fg2_per_mp,fg2a_per_mp,fg3_pct,fg3_per_mp,fg3a_per_mp,fg_pct,fg_per_mp,fga_per_mp,ft_pct,ft_per_mp,fta_per_mp,g,gs,lg_id,mp,orb_per_mp,pf_per_mp,pos,pts_per_mp,season,stl_per_mp,team_id,tov_per_mp,trb_per_mp
23.0,0.0,3.4,3.4,0.333,3.4,10.3,0.0,0.0,0.0,0.333,3.4,10.3,0.0,0.0,0.0,4.0,0.0,NBA,21.0,5.1,5.1,C,6.9,1981,0.0,DEN,3.4,8.6
24.0,0.9,2.9,4.9,0.361,3.8,10.5,0.0,0.0,0.0,0.361,3.8,10.5,0.571,2.3,4.1,22.0,0.0,NBA,124.0,2.0,8.1,C,9.9,1982,0.6,HOU,1.7,7.0
25.0,1.1,2.7,6.1,0.534,6.5,12.2,0.0,0.0,0.0,0.534,6.5,12.2,0.545,2.5,4.6,16.0,0.0,NBA,171.0,3.8,6.3,C,15.6,1983,1.1,CHI,2.7,9.9
26.0,1.4,3.1,6.5,0.505,4.6,9.0,0.0,0.0,0.0,0.505,4.6,9.0,0.591,1.6,2.7,64.0,0.0,NBA,870.0,3.1,5.8,C,10.7,1984,0.6,CHI,3.4,9.6
27.0,1.1,4.6,5.7,0.466,3.2,6.9,0.0,0.0,0.0,0.464,3.2,7.0,0.68,1.2,1.8,63.0,0.0,NBA,993.0,2.9,6.0,C,7.7,1985,0.4,CHI,2.1,8.6
28.0,1.0,3.8,5.5,0.519,4.7,9.1,0.0,0.0,0.0,0.517,4.7,9.1,0.582,1.5,2.6,52.0,47.0,NBA,1276.0,3.2,5.8,C,10.9,1986,0.8,CHI,2.4,8.6
29.0,0.9,3.3,5.9,0.41,3.3,8.0,0.0,0.0,0.0,0.408,3.3,8.1,0.544,1.4,2.6,44.0,9.0,NBA,776.0,2.4,4.4,C,8.0,1987,1.0,NYK,2.2,8.3
30.0,1.3,4.2,8.4,0.476,4.5,9.5,0.0,0.0,0.0,0.476,4.5,9.5,0.678,2.2,3.3,54.0,13.0,NBA,946.0,3.1,5.4,C,11.3,1988,0.5,SAC,2.4,11.6
32.0,0.8,2.4,9.6,0.5,2.4,4.8,0.0,0.0,0.0,0.5,2.4,4.8,0.429,2.4,5.6,6.0,0.0,NBA,45.0,3.2,7.2,C,7.2,1990,1.6,TOT,3.2,12.8
32.0,0.0,3.0,11.0,0.333,1.0,3.0,0.0,0.0,0.0,0.333,1.0,3.0,0.4,2.0,5.0,3.0,0.0,NBA,36.0,4.0,6.0,C,4.0,1990,2.0,ORL,3.0,15.0
32.0,4.0,0.0,4.0,0.667,8.0,12.0,0.0,0.0,0.0,0.667,8.0,12.0,0.5,4.0,8.0,3.0,0.0,NBA,9.0,0.0,12.0,C,20.0,1990,0.0,LAL,4.0,4.0
33.0,0.0,0.0,5.7,0.5,5.7,11.4,0.0,0.0,0.0,0.5,5.7,11.4,0.0,0.0,0.0,4.0,0.0,NBA,19.0,0.0,1.9,C,11.4,1991,0.0,IND,0.0,5.7
