age,ast,blk,drb,efg_pct,fg,fg2,fg2_pct,fg2a,fg3,fg3_pct,fg3a,fg_pct,fga,ft,ft_pct,fta,g,gs,lg_id,mp,orb,pf,pos,pts,season,stl,team_id,tov,trb
23.0,0.0,2.0,2.0,0.333,2.0,2.0,0.333,6.0,0.0,0.0,0.0,0.333,6.0,0.0,0.0,0.0,4.0,0.0,NBA,21.0,3.0,3.0,C,4.0,1981,0.0,DEN,2.0,5.0
24.0,3.0,10.0,17.0,0.361,13.0,13.0,0.361,36.0,0.0,0.0,0.0,0.361,36.0,8.0,0.571,14.0,22.0,0.0,NBA,124.0,7.0,28.0,C,34.0,1982,2.0,HOU,6.0,24.0
25.0,5.0,13.0,29.0,0.534,31.0,31.0,0.534,58.0,0.0,0.0,0.0,0.534,58.0,12.0,0.545,22.0,16.0,0.0,NBA,171.0,18.0,30.0,C,74.0,1983,5.0,CHI,13.0,47.0
26.0,33.0,76.0,158.0,0.505,110.0,110.0,0.505,218.0,0.0,0.0,0.0,0.505,218.0,39.0,0.591,66.0,64.0,0.0,NBA,870.0,75.0,139.0,C,259.0,1984,15.0,CHI,83.0,233.0
27.0,31.0,127.0,157.0,0.464,89.0,89.0,0.466,191.0,0.0,0.0,1.0,0.464,192.0,34.0,0.68,50.0,63.0,0.0,NBA,993.0,79.0,166.0,C,212.0,1985,11.0,CHI,58.0,236.0
28.0,37.0,134.0,194.0,0.517,167.0,167.0,0.519,322.0,0.0,0.0,1.0,0.517,323.0,53.0,0.582,91.0,52.0,47.0,NBA,1276.0,112.0,206.0,C,387.0,1986,28.0,CHI,86.0,306.0
29.0,19.0,71.0,128.0,0.408,71.0,71.0,0.41,173.0,0.0,0.0,1.0,0.408,174.0,31.0,0.544,57.0,44.0,9.0,NBA,776.0,51.0,95.0,C,173.0,1987,22.0,NYK,48.0,179.0
30.0,33.0,110.0,222.0,0.476,119.0,119.0,0.476,250.0,0.0,0.0,0.0,0.476,250.0,59.0,0.678,87.0,54.0,13.0,NBA,946.0,82.0,143.0,C,297.0,1988,12.0,SAC,62.0,304.0
32.0,1.0,3.0,12.0,0.5,3.0,3.0,0.5,6.0,0.0,0.0,0.0,0.5,6.0,3.0,0.429,7.0,6.0,0.0,NBA,45.0,4.0,9.0,C,9.0,1990,2.0,TOT,4.0,16.0
32.0,0.0,3.0,11.0,0.333,1.0,1.0,0.333,3.0,0.0,0.0,0.0,0.333,3.0,2.0,0.4,5.0,3.0,0.0,NBA,36.0,4.0,6.0,C,4.0,1990,2.0,ORL,3.0,15.0
32.0,1.0,0.0,1.0,0.667,2.0,2.0,0.667,3.0,0.0,0.0,0.0,0.667,3.0,1.0,0.5,2.0,3.0,0.0,NBA,9.0,0.0,3.0,C,5.0,1990,0.0,LAL,1.0,1.0
33.0,0.0,0.0,3.0,0.5,3.0,3.0,0.5,6.0,0.0,0.0,0.0,0.5,6.0,0.0,0.0,0.0,4.0,0.0,NBA,19.0,0.0,1.0,C,6.0,1991,0.0,IND,0.0,3.0
