age,ast_per_mp,blk_per_mp,drb_per_mp,fg2_pct,fg2_per_mp,fg2a_per_mp,fg3_pct,fg3_per_mp,fg3a_per_mp,fg_pct,fg_per_mp,fga_per_mp,ft_pct,ft_per_mp,fta_per_mp,g,gs,lg_id,mp,orb_per_mp,pf_per_mp,pos,pts_per_mp,season,stl_per_mp,team_id,tov_per_mp,trb_per_mp
27.0,1.2,2.8,5.5,0.467,2.8,5.9,0.0,0.0,0.0,0.467,2.8,5.9,0.0,0.0,0.0,4.0,0.0,NBA,91.0,3.2,7.5,C,5.5,1985,2.4,CHI,4.4,8.7
28.0,0.0,0.0,9.0,0.0,0.0,9.0,0.0,0.0,0.0,0.0,0.0,9.0,0.0,0.0,0.0,1.0,0.0,NBA,4.0,9.0,0.0,C,0.0,1986,0.0,CHI,9.0,18.0
