age,and1s,astd_pts,drawn_offensive,drawn_shooting,fouls_offensive,fouls_shooting,g,lg_id,mp,own_shots_blk,pct_1,pct_2,pct_3,pct_4,pct_5,plus_minus_net,plus_minus_on,pos,season,team_id,tov_bad_pass,tov_lost_ball
26.0,4.0,28.0,0.0,27.0,1.0,50.0,35.0,NBA,624.0,8.0,0.0,0.0,0.0,0.0,100.0,9.1,10.3,C,2001,HOU,6.0,16.0
27.0,16.0,65.0,0.0,92.0,13.0,116.0,75.0,NBA,1917.0,30.0,0.0,0.0,0.0,0.0,100.0,3.0,-4.0,C,2002,HOU,19.0,16.0
28.0,7.0,43.0,0.0,53.0,15.0,95.0,73.0,NBA,1247.0,19.0,0.0,0.0,0.0,2.0,98.0,-2.1,0.1,C,2003,HOU,21.0,14.0
29.0,16.0,163.0,0.0,72.0,15.0,108.0,69.0,NBA,1743.0,36.0,0.0,0.0,0.0,61.0,39.0,1.8,2.9,PF,2004,HOU,42.0,20.0
30.0,4.0,83.0,0.0,57.0,13.0,105.0,62.0,NBA,1525.0,21.0,0.0,0.0,0.0,1.0,99.0,7.4,1.9,C,2005,ORL,32.0,12.0
31.0,1.0,9.0,7.0,16.0,9.0,27.0,27.0,NBA,333.0,11.0,0.0,0.0,0.0,0.0,100.0,-12.1,-8.2,C,2006,TOT,2.0,4.0
31.0,1.0,4.0,7.0,16.0,9.0,24.0,23.0,NBA,299.0,10.0,0.0,0.0,0.0,0.0,100.0,-5.9,-6.6,C,2006,ORL,2.0,2.0
31.0,0.0,5.0,0.0,0.0,0.0,3.0,4.0,NBA,34.0,1.0,0.0,0.0,0.0,0.0,100.0,-28.2,-19.9,C,2006,DET,0.0,2.0
32.0,0.0,0.0,1.0,4.0,1.0,4.0,18.0,NBA,95.0,2.0,0.0,0.0,0.0,32.0,68.0,-5.0,-8.3,C,2007,NYK,2.0,1.0
