age,ast_per_mp,blk_per_mp,drb_per_mp,fg2_pct,fg2_per_mp,fg2a_per_mp,fg3_pct,fg3_per_mp,fg3a_per_mp,fg_pct,fg_per_mp,fga_per_mp,ft_pct,ft_per_mp,fta_per_mp,g,gs,lg_id,mp,orb_per_mp,pf_per_mp,pos,pts_per_mp,season,stl_per_mp,team_id,tov_per_mp,trb_per_mp
21.0,5.7,0.5,3.0,0.47,3.4,7.2,0.276,0.6,2.3,0.424,4.0,9.5,0.744,1.9,2.6,81.0,25.0,NBA,1841.0,1.3,2.5,PG,10.6,2011,1.8,LAC,3.8,4.4
22.0,5.1,1.1,3.3,0.448,3.3,7.4,0.2,0.5,2.3,0.389,3.8,9.8,0.636,2.2,3.4,40.0,1.0,NBA,464.0,1.7,4.5,PG,10.2,2012,2.4,LAC,3.6,5.0
23.0,5.4,1.3,3.4,0.453,5.1,11.4,0.397,0.7,1.8,0.445,5.9,13.2,0.791,2.5,3.1,76.0,12.0,NBA,1553.0,1.8,2.6,PG,14.9,2013,2.5,LAC,3.2,5.2
24.0,6.0,0.4,4.4,0.517,5.5,10.6,0.357,1.3,3.6,0.477,6.7,14.1,0.772,4.7,6.0,43.0,40.0,NBA,1416.0,0.7,2.5,PG,19.4,2014,1.8,PHO,3.6,5.1
25.0,6.3,0.6,4.5,0.491,4.9,10.0,0.324,1.1,3.5,0.447,6.0,13.4,0.8,4.5,5.7,81.0,81.0,NBA,2800.0,0.9,2.4,PG,17.7,2015,1.6,PHO,3.5,5.4
26.0,6.5,0.6,3.6,0.482,5.9,12.3,0.372,1.6,4.4,0.453,7.6,16.7,0.802,4.7,5.8,31.0,31.0,NBA,1059.0,0.6,2.5,PG,21.5,2016,2.1,PHO,3.7,4.2
27.0,6.9,0.5,4.4,0.477,5.7,12.0,0.335,1.7,5.1,0.434,7.4,17.1,0.847,6.4,7.6,66.0,66.0,NBA,2176.0,0.9,2.7,PG,23.0,2017,1.5,PHO,3.7,5.3
28.0,5.7,0.7,3.6,0.545,5.3,9.8,0.347,1.9,5.6,0.473,7.3,15.3,0.795,3.9,4.9,74.0,74.0,NBA,2322.0,0.8,2.9,PG,20.4,2018,2.3,TOT,3.3,4.4
28.0,3.9,0.9,1.7,0.444,5.2,11.7,0.308,1.7,5.6,0.4,6.9,17.3,0.786,4.8,6.1,3.0,3.0,NBA,83.0,1.3,2.6,PG,20.4,2018,1.7,PHO,4.3,3.0
28.0,5.8,0.6,3.7,0.55,5.3,9.7,0.349,1.9,5.6,0.476,7.3,15.3,0.795,3.9,4.9,71.0,71.0,NBA,2239.0,0.8,2.9,PG,20.4,2018,2.3,MIL,3.3,4.5
29.0,6.8,0.5,4.4,0.582,5.5,9.4,0.329,2.0,6.0,0.484,7.4,15.4,0.75,2.8,3.7,78.0,78.0,NBA,2272.0,1.3,2.5,PG,19.7,2019,1.8,MIL,2.6,5.7
30.0,6.3,0.2,6.7,0.557,6.0,10.7,0.289,1.9,6.7,0.455,7.9,17.4,0.682,2.6,3.9,8.0,8.0,NBA,205.0,1.4,4.2,PG,20.4,2020,1.1,MIL,2.8,8.1
