age,ast_per_poss,blk_per_poss,def_rtg,drb_per_poss,fg2_pct,fg2_per_poss,fg2a_per_poss,fg3_pct,fg3_per_poss,fg3a_per_poss,fg_pct,fg_per_poss,fga_per_poss,ft_pct,ft_per_poss,fta_per_poss,g,gs,lg_id,mp,off_rtg,orb_per_poss,pf_per_poss,pos,pts_per_poss,season,stl_per_poss,team_id,tov_per_poss,trb_per_poss
20.0,9.0,0.6,105.0,3.5,0.396,4.9,12.5,0.279,1.5,5.3,0.361,6.4,17.8,0.714,0.6,0.9,33.0,1.0,NBA,411.0,83.0,0.9,4.5,PG,15.0,2015,2.2,TOT,5.2,4.3
20.0,12.0,1.7,110.0,5.2,0.467,6.0,12.9,0.333,1.7,5.2,0.429,7.7,18.1,1.0,1.7,1.7,8.0,0.0,NBA,58.0,94.0,0.9,2.6,PG,18.9,2015,0.0,PHO,6.9,6.0
20.0,8.5,0.4,104.0,3.2,0.384,4.8,12.4,0.27,1.4,5.3,0.35,6.2,17.8,0.6,0.4,0.7,25.0,1.0,NBA,353.0,80.0,0.9,4.8,PG,14.3,2015,2.6,MIL,4.9,4.0
21.0,7.4,0.1,111.0,4.8,0.48,5.5,11.5,0.333,1.0,3.0,0.449,6.5,14.6,0.735,1.9,2.6,46.0,7.0,NBA,654.0,99.0,1.0,5.0,PG,16.0,2016,1.9,MIL,3.6,5.8
22.0,7.1,0.2,114.0,3.0,0.457,5.2,11.4,0.386,2.2,5.8,0.433,7.4,17.1,0.84,1.7,2.1,53.0,2.0,NBA,588.0,102.0,0.7,4.8,PG,18.8,2017,2.1,TOT,3.7,3.7
22.0,8.3,0.0,112.0,3.7,0.396,4.7,11.8,0.375,1.5,3.9,0.391,6.1,15.7,0.667,0.5,0.7,31.0,0.0,NBA,196.0,85.0,1.0,7.1,PG,14.2,2017,1.5,HOU,5.9,4.7
22.0,6.5,0.2,114.0,2.6,0.489,5.5,11.2,0.389,2.6,6.7,0.451,8.1,17.9,0.864,2.4,2.7,22.0,2.0,NBA,392.0,111.0,0.6,3.6,PG,21.1,2017,2.4,LAL,2.6,3.2
23.0,7.4,0.7,108.0,5.3,0.476,5.6,11.8,0.25,1.0,3.9,0.42,6.6,15.7,0.759,1.5,2.0,54.0,11.0,NBA,683.0,101.0,1.3,5.3,PG,15.7,2018,2.1,LAL,2.7,6.7
