age,ast,blk,drb,efg_pct,fg,fg2,fg2_pct,fg2a,fg3,fg3_pct,fg3a,fg_pct,fga,ft,ft_pct,fta,g,gs,lg_id,mp,orb,pf,pos,pts,season,stl,team_id,tov,trb
20.0,73.0,5.0,28.0,0.403,52.0,40.0,0.396,101.0,12.0,0.279,43.0,0.361,144.0,5.0,0.714,7.0,33.0,1.0,NBA,411.0,7.0,36.0,PG,121.0,2015,18.0,TOT,42.0,35.0
20.0,14.0,2.0,6.0,0.476,9.0,7.0,0.467,15.0,2.0,0.333,6.0,0.429,21.0,2.0,1.0,2.0,8.0,0.0,NBA,58.0,1.0,3.0,PG,22.0,2015,0.0,PHO,8.0,7.0
20.0,59.0,3.0,22.0,0.39,43.0,33.0,0.384,86.0,10.0,0.27,37.0,0.35,123.0,3.0,0.6,5.0,25.0,1.0,NBA,353.0,6.0,33.0,PG,99.0,2015,18.0,MIL,34.0,28.0
21.0,95.0,1.0,62.0,0.484,84.0,71.0,0.48,148.0,13.0,0.333,39.0,0.449,187.0,25.0,0.735,34.0,46.0,7.0,NBA,654.0,13.0,64.0,PG,206.0,2016,25.0,MIL,46.0,75.0
22.0,86.0,2.0,36.0,0.498,90.0,63.0,0.457,138.0,27.0,0.386,70.0,0.433,208.0,21.0,0.84,25.0,53.0,2.0,NBA,588.0,9.0,58.0,PG,228.0,2017,25.0,TOT,45.0,45.0
22.0,34.0,0.0,15.0,0.438,25.0,19.0,0.396,48.0,6.0,0.375,16.0,0.391,64.0,2.0,0.667,3.0,31.0,0.0,NBA,196.0,4.0,29.0,PG,58.0,2017,6.0,HOU,24.0,19.0
22.0,52.0,2.0,21.0,0.524,65.0,44.0,0.489,90.0,21.0,0.389,54.0,0.451,144.0,19.0,0.864,22.0,22.0,2.0,NBA,392.0,5.0,29.0,PG,170.0,2017,19.0,LAL,21.0,26.0
23.0,105.0,10.0,76.0,0.451,94.0,80.0,0.476,168.0,14.0,0.25,56.0,0.42,224.0,22.0,0.759,29.0,54.0,11.0,NBA,683.0,19.0,75.0,PG,224.0,2018,30.0,LAL,38.0,95.0
