age,ast,blk,drb,fg,fg2,fg2a,fg3,fg3a,fga,ft,fta,game_score,lg_id,mp,orb,pf,pts,season,stl,team_id,tov,trb
20.0,3.0,0.0,1.0,2.0,1.0,4.0,1.0,5.0,9.0,0.0,0.0,3.6,NBA,17,3.0,1.0,5.0,2015,0.0,TOT,0.0,4.0
20.0,3.0,0.0,1.0,2.0,1.0,4.0,1.0,5.0,9.0,0.0,0.0,3.6,NBA,17,3.0,1.0,5.0,2015,0.0,MIL,0.0,4.0
