age,ast,ast_per_g,blk,college_id,fg,fg3,fg3_pct,fg3a,fg_pct,fga,ft,ft_pct,fta,g,mp,mp_per_g,orb,pf,pts,pts_per_g,season,stl,tov,trb,trb_per_g
18.0,10.0,0.4,0.0,GEORGETOWN,63.0,0.0,0.0,0.0,0.488,129.0,12.0,0.6,20.0,28.0,349.0,12.5,0.0,0.0,138.0,4.9,1988,0.0,0.0,89.0,3.2
20.0,177.0,6.3,0.0,WAKE,143.0,4.0,0.308,13.0,0.46,311.0,74.0,0.661,112.0,28.0,846.0,30.2,0.0,0.0,364.0,13.0,1990,0.0,0.0,177.0,6.3
21.0,147.0,5.1,0.0,WAKE,134.0,4.0,0.333,12.0,0.547,245.0,59.0,0.67,88.0,29.0,838.0,28.9,0.0,0.0,331.0,11.4,1991,0.0,0.0,147.0,5.1
22.0,121.0,4.3,0.0,WAKE,143.0,0.0,0.0,7.0,0.464,308.0,62.0,0.646,96.0,28.0,862.0,30.8,0.0,0.0,348.0,12.4,1992,0.0,0.0,121.0,4.3
