age,ast_per_mp,blk_per_mp,drb_per_mp,fg2_pct,fg2_per_mp,fg2a_per_mp,fg3_pct,fg3_per_mp,fg3a_per_mp,fg_pct,fg_per_mp,fga_per_mp,ft_pct,ft_per_mp,fta_per_mp,g,gs,lg_id,mp,orb_per_mp,pf_per_mp,pos,pts_per_mp,season,stl_per_mp,team_id,tov_per_mp,trb_per_mp
24.0,0.4,3.2,6.1,0.4,2.4,6.1,0.0,0.0,0.0,0.4,2.4,6.1,0.4,1.6,4.0,11.0,0.0,NBA,89.0,5.3,6.1,PF,6.5,2007,0.4,TOT,2.0,11.3
24.0,0.0,0.0,0.0,0.0,0.0,0.0,0.0,0.0,0.0,0.0,0.0,0.0,0.0,0.0,0.0,1.0,0.0,NBA,2.0,0.0,0.0,PF,0.0,2007,0.0,UTA,0.0,0.0
24.0,0.4,3.3,6.2,0.4,2.5,6.2,0.0,0.0,0.0,0.4,2.5,6.2,0.4,1.7,4.1,10.0,0.0,NBA,87.0,5.4,6.2,PF,6.6,2007,0.4,PHI,2.1,11.6
25.0,0.0,0.6,2.8,0.5,4.5,9.0,0.0,0.0,0.0,0.5,4.5,9.0,0.286,1.1,3.9,16.0,0.0,NBA,64.0,3.9,7.3,PF,10.1,2008,0.6,PHI,1.1,6.8
26.0,1.0,2.2,4.9,0.538,4.6,8.6,0.0,0.0,0.0,0.536,4.6,8.6,0.442,1.8,4.1,76.0,0.0,NBA,1044.0,4.4,5.3,PF,11.1,2009,1.1,PHO,1.9,9.3
27.0,1.0,2.3,6.7,0.553,4.7,8.5,0.0,0.0,0.0,0.551,4.7,8.5,0.545,2.1,3.8,79.0,0.0,NBA,1168.0,3.9,5.2,PF,11.4,2010,0.7,PHO,1.8,10.7
28.0,0.9,1.7,5.4,0.454,4.3,9.5,0.0,0.0,0.0,0.454,4.3,9.5,0.391,1.8,4.5,46.0,7.0,NBA,691.0,4.2,4.5,PF,10.4,2011,0.7,GSW,1.3,9.6
29.0,0.7,2.1,6.1,0.43,4.3,9.9,0.0,0.0,0.0,0.43,4.3,9.9,0.427,1.7,3.9,60.0,0.0,NBA,753.0,4.5,6.0,PF,10.2,2012,1.3,IND,2.2,10.6
30.0,1.1,1.2,5.6,0.395,3.1,7.8,0.0,0.0,0.0,0.395,3.1,7.8,0.333,1.2,3.5,39.0,0.0,NBA,372.0,4.6,5.1,PF,7.4,2013,1.5,TOT,1.8,10.3
30.0,0.7,1.3,5.4,0.368,3.1,8.5,0.0,0.0,0.0,0.368,3.1,8.5,0.2,0.9,4.5,20.0,0.0,NBA,161.0,5.1,5.8,PF,7.2,2013,1.6,MIN,2.5,10.5
30.0,0.0,0.0,0.0,0.0,0.0,18.0,0.0,0.0,0.0,0.0,0.0,18.0,0.0,0.0,0.0,1.0,0.0,NBA,2.0,18.0,0.0,PF,0.0,2013,0.0,CHI,0.0,18.0
30.0,1.4,1.0,5.9,0.429,3.1,7.2,0.0,0.0,0.0,0.429,3.1,7.2,0.5,1.4,2.8,18.0,0.0,NBA,209.0,4.1,4.7,PF,7.6,2013,1.6,NOH,1.4,10.0
31.0,1.2,2.1,5.3,0.5,3.1,6.2,0.0,0.0,0.0,0.5,3.1,6.2,0.25,1.2,4.7,19.0,0.0,NBA,185.0,5.4,9.5,PF,7.4,2014,1.8,TOT,2.7,10.7
31.0,1.2,2.2,5.3,0.5,3.1,6.3,0.0,0.0,0.0,0.5,3.1,6.3,0.25,1.2,4.7,18.0,0.0,NBA,184.0,5.5,9.6,PF,7.4,2014,1.8,NOP,2.7,10.8
31.0,0.0,0.0,0.0,0.0,0.0,0.0,0.0,0.0,0.0,0.0,0.0,0.0,0.0,0.0,0.0,1.0,0.0,NBA,1.0,0.0,0.0,PF,0.0,2014,0.0,CHI,0.0,0.0
32.0,2.7,2.0,6.7,0.429,4.2,9.8,0.0,0.0,0.0,0.427,4.2,9.8,0.471,1.6,3.3,53.0,35.0,NBA,937.0,3.6,4.8,PF,10.0,2015,0.8,TOT,2.4,10.3
32.0,2.3,0.0,6.8,0.333,1.8,5.5,0.0,0.0,0.0,0.333,1.8,5.5,0.6,1.4,2.3,12.0,0.0,NBA,79.0,2.3,5.0,PF,5.0,2015,0.5,CLE,2.3,9.1
32.0,2.7,2.2,6.7,0.434,4.4,10.2,0.0,0.0,0.0,0.432,4.4,10.2,0.463,1.6,3.4,41.0,35.0,NBA,858.0,3.7,4.8,PF,10.4,2015,0.9,NYK,2.4,10.4
33.0,2.1,1.2,4.6,0.358,3.4,9.4,0.0,0.0,0.0,0.358,3.4,9.4,0.519,2.5,4.8,29.0,0.0,NBA,204.0,4.1,7.8,PF,9.2,2016,1.1,NYK,2.6,8.6
