age,ast_pct,blk_pct,bpm,bpm-dum,dbpm,drb_pct,dws,fg3a_per_fga_pct,fta_per_fga_pct,g,lg_id,mp,obpm,orb_pct,ows,per,pos,season,stl_pct,team_id,tov_pct,trb_pct,ts_pct,usg_pct,vorp,ws,ws-dum,ws_per_48
22.0,6.1,2.9,-11.7,0.0,-2.2,17.0,0.0,0.0,0.9,12.0,NBA,72.0,-9.5,9.5,-0.3,2.4,PF,2003,0.0,MEM,20.0,13.3,0.34,21.8,-0.2,-0.2,0.0,-0.158
23.0,7.9,0.9,-3.1,0.0,2.4,14.0,0.4,0.0,0.939,32.0,NBA,256.0,-5.5,9.4,-0.2,5.6,C-PF,2004,3.0,TOT,17.7,11.7,0.343,10.7,-0.1,0.2,0.0,0.039
23.0,22.2,0.0,-16.7,0.0,-2.7,19.1,0.0,0.0,2.0,1.0,NBA,6.0,-14.0,0.0,0.0,-5.1,PF,2004,0.0,PHO,34.7,9.5,0.266,21.7,0.0,0.0,0.0,-0.285
23.0,0.0,0.0,-9.0,0.0,-0.4,29.0,0.0,0.0,1.0,1.0,NBA,4.0,-8.6,0.0,0.0,20.6,PF,2004,13.2,ORL,0.0,14.2,0.347,32.6,0.0,0.0,0.0,-0.08
23.0,7.7,0.9,-2.7,0.0,2.6,13.6,0.4,0.0,0.9,30.0,NBA,246.0,-5.3,9.8,-0.2,5.6,C,2004,2.9,TOR,17.7,11.7,0.346,10.0,0.0,0.2,0.0,0.049
