age,avg_dist,fg2_dunk,fg2_pct,fg2_pct_ast,fg2a_pct_fga,fg3_heave,fg3_pct,fg3_pct_ast,fg3_pct_corner,fg3a_heave,fg3a_pct_fga,fg_pct,fg_pct_00_03,fg_pct_03_10,fg_pct_10_16,fg_pct_16_xx,g,lg_id,mp,pct_fg2_dunk,pct_fg3a_corner,pct_fga_00_03,pct_fga_03_10,pct_fga_10_16,pct_fga_16_xx,pos,season,team_id
23.0,4.1,35.0,0.5,0.64,0.994,0.0,0.0,0.0,0.0,0.0,0.006,0.497,0.68,0.298,0.259,0.154,70.0,NBA,1212.0,0.133,0.5,0.549,0.321,0.083,0.04,C,2001,CLE
24.0,4.6,25.0,0.424,0.674,0.995,0.0,1.0,1.0,0.0,0.0,0.005,0.426,0.545,0.262,0.143,0.25,61.0,NBA,678.0,0.137,0.0,0.603,0.206,0.069,0.118,PF,2002,CHH
25.0,5.7,25.0,0.444,0.596,0.987,0.0,0.333,0.0,0.0,0.0,0.013,0.443,0.557,0.279,0.318,0.316,69.0,NBA,851.0,0.122,0.0,0.553,0.181,0.093,0.16,C,2003,NOH
26.0,7.4,34.0,0.507,0.671,0.983,0.0,0.4,1.0,0.0,1.0,0.017,0.505,0.656,0.54,0.324,0.241,71.0,NBA,942.0,0.125,0.0,0.446,0.22,0.129,0.188,C,2004,NOH
27.0,8.2,46.0,0.453,0.638,0.98,0.0,0.0,0.0,0.0,1.0,0.02,0.444,0.6,0.321,0.345,0.353,74.0,NBA,1327.0,0.12,0.0,0.426,0.195,0.145,0.213,C,2005,CLE
