age,ast,blk,drb,fg,fg2,fg2a,fg3,fg3a,fga,ft,fta,game_score,lg_id,mp,orb,pf,pts,season,stl,team_id,tov,trb
21.0,3.0,4.0,7.0,6.0,6.0,10.0,0.0,1.0,10.0,5.0,12.0,16.8,NBA,0.0,5.0,6.0,15.0,1999,4.0,MIL,4.0,8.0
22.0,3.0,4.0,6.0,4.0,4.0,7.0,0.0,1.0,7.0,5.0,7.0,12.2,NBA,0.0,5.0,5.0,8.0,2000,3.0,MIL,3.0,10.0
23.0,3.0,6.0,8.0,7.0,7.0,11.0,0.0,1.0,11.0,8.0,10.0,19.7,NBA,0.0,5.0,6.0,17.0,2001,4.0,CLE,5.0,10.0
24.0,3.0,6.0,6.0,7.0,7.0,10.0,1.0,1.0,10.0,4.0,5.0,14.5,NBA,0.0,5.0,6.0,15.0,2002,2.0,CHH,3.0,11.0
25.0,3.0,3.0,8.0,6.0,5.0,12.0,1.0,1.0,12.0,11.0,12.0,16.2,NBA,0.0,7.0,6.0,15.0,2003,3.0,NOH,3.0,12.0
26.0,3.0,3.0,7.0,9.0,9.0,12.0,1.0,1.0,12.0,8.0,13.0,20.8,NBA,0.0,7.0,6.0,20.0,2004,3.0,NOH,4.0,10.0
27.0,4.0,3.0,9.0,9.0,9.0,15.0,0.0,1.0,16.0,6.0,9.0,18.1,NBA,0.0,7.0,6.0,22.0,2005,4.0,CLE,3.0,13.0
