age,ast_per_mp,blk_per_mp,drb_per_mp,fg2_pct,fg2_per_mp,fg2a_per_mp,fg3_pct,fg3_per_mp,fg3a_per_mp,fg_pct,fg_per_mp,fga_per_mp,ft_pct,ft_per_mp,fta_per_mp,g,gs,lg_id,mp,orb_per_mp,pf_per_mp,pos,pts_per_mp,season,stl_per_mp,team_id,tov_per_mp,trb_per_mp
21.0,1.6,3.2,4.8,0.778,5.6,7.2,0.0,0.0,0.0,0.778,5.6,7.2,0.5,1.6,3.2,3.0,1.0,NBA,45.0,4.8,12.0,C,12.8,1999,1.6,MIL,3.2,9.6
22.0,9.0,9.0,9.0,0.0,0.0,9.0,0.0,0.0,0.0,0.0,0.0,9.0,0.0,0.0,0.0,1.0,0.0,NBA,4.0,9.0,18.0,PF,0.0,2000,0.0,MIL,0.0,18.0
24.0,1.7,1.2,7.0,0.368,4.1,11.0,0.0,0.0,0.6,0.35,4.1,11.6,0.667,2.3,3.5,8.0,0.0,NBA,62.0,2.3,8.7,PF,10.5,2002,1.2,CHH,2.3,9.3
25.0,1.5,1.9,7.3,0.455,3.8,8.4,0.0,0.0,0.0,0.455,3.8,8.4,0.25,0.4,1.5,6.0,0.0,NBA,94.0,4.2,6.5,C,8.0,2003,1.1,NOH,2.3,11.5
26.0,0.9,0.9,8.1,0.444,3.6,8.1,0.0,0.0,0.0,0.444,3.6,8.1,0.667,1.8,2.7,4.0,0.0,NBA,40.0,0.9,7.2,C,9.0,2004,2.7,NOH,1.8,9.0
