age,ast,ast_per_g,blk,college_id,fg,fg3,fg3_pct,fg3a,fg_pct,fga,ft,ft_pct,fta,g,mp,mp_per_g,orb,pf,pts,pts_per_g,season,stl,tov,trb,trb_per_g
18.0,35.0,0.9,41.0,PITT,168.0,0.0,0.0,0.0,0.537,313.0,93.0,0.624,149.0,37.0,0.0,0.0,0.0,0.0,429.0,11.6,2008,62.0,71.0,337.0,9.1
19.0,42.0,1.2,34.0,PITT,226.0,0.0,0.0,0.0,0.593,381.0,98.0,0.605,162.0,35.0,0.0,0.0,0.0,0.0,550.0,15.7,2009,54.0,44.0,432.0,12.3
