age,ast_pct,blk_pct,bpm,bpm-dum,dbpm,drb_pct,dws,fg3a_per_fga_pct,fta_per_fga_pct,g,lg_id,mp,obpm,orb_pct,ows,per,pos,season,stl_pct,team_id,tov_pct,trb_pct,ts_pct,usg_pct,vorp,ws,ws-dum,ws_per_48
20.0,7.1,1.9,0.7,0.0,1.4,25.1,2.8,0.004,0.325,82.0,NBA,1494.0,-0.7,16.0,1.8,17.7,PF,2010,1.8,SAS,16.5,20.6,0.564,20.8,1.0,4.6,0.0,0.147
21.0,7.1,1.7,1.1,0.0,2.2,22.9,3.2,0.003,0.235,81.0,NBA,1734.0,-1.1,14.8,1.5,17.1,PF,2011,2.8,SAS,14.9,18.9,0.524,20.1,1.3,4.8,0.0,0.132
22.0,9.2,0.6,1.6,0.0,0.8,16.3,1.8,0.002,0.236,64.0,NBA,1363.0,0.8,13.2,2.2,17.6,PF,2012,2.2,SAS,14.2,14.8,0.549,21.7,1.2,4.0,0.0,0.142
23.0,8.3,0.9,-0.8,0.0,1.3,21.1,1.5,0.004,0.258,61.0,NBA,851.0,-2.0,9.5,0.7,14.6,PF,2013,2.2,SAS,14.0,15.6,0.543,19.0,0.3,2.2,0.0,0.126
24.0,8.9,1.4,0.6,0.0,0.8,21.6,1.5,0.005,0.308,78.0,NBA,1214.0,-0.2,13.3,1.8,17.3,PF,2014,2.5,DAL,14.7,17.5,0.557,19.6,0.8,3.4,0.0,0.133
25.0,2.6,0.4,-7.4,0.0,-1.0,24.5,0.3,0.0,0.105,29.0,NBA,180.0,-6.4,10.3,-0.2,7.7,PF,2015,2.0,WAS,17.9,17.5,0.469,18.3,-0.2,0.1,0.0,0.033
26.0,7.3,0.7,-6.4,0.0,-0.1,19.4,0.3,0.015,0.191,29.0,NBA,218.0,-6.3,10.1,-0.3,5.4,C,2016,1.8,WAS,16.9,14.6,0.414,17.8,-0.2,-0.1,0.0,-0.015
