age,ast,blk,drb,efg_pct,fg,fg2,fg2_pct,fg2a,fg3,fg3_pct,fg3a,fg_pct,fga,ft,ft_pct,fta,g,gs,lg_id,mp,orb,pf,pos,pts,season,stl,team_id,tov,trb
20.0,65.0,39.0,326.0,0.556,275.0,275.0,0.558,493.0,0.0,0.0,2.0,0.556,495.0,88.0,0.547,161.0,82.0,23.0,NBA,1494.0,200.0,224.0,PF,638.0,2010,50.0,SAS,112.0,526.0
21.0,77.0,42.0,350.0,0.501,292.0,292.0,0.503,581.0,0.0,0.0,2.0,0.501,583.0,90.0,0.657,137.0,81.0,65.0,NBA,1734.0,215.0,213.0,PF,674.0,2011,95.0,SAS,113.0,565.0
22.0,78.0,12.0,197.0,0.534,269.0,269.0,0.535,503.0,0.0,0.0,1.0,0.534,504.0,73.0,0.613,119.0,64.0,62.0,NBA,1363.0,154.0,168.0,PF,611.0,2012,59.0,SAS,92.0,351.0
23.0,45.0,10.0,164.0,0.524,142.0,142.0,0.526,270.0,0.0,0.0,1.0,0.524,271.0,44.0,0.629,70.0,61.0,16.0,NBA,851.0,66.0,112.0,PF,328.0,2013,37.0,SAS,49.0,230.0
24.0,70.0,21.0,229.0,0.534,210.0,210.0,0.537,391.0,0.0,0.0,2.0,0.534,393.0,77.0,0.636,121.0,78.0,13.0,NBA,1214.0,139.0,192.0,PF,497.0,2014,60.0,DAL,77.0,368.0
25.0,3.0,1.0,40.0,0.456,26.0,26.0,0.456,57.0,0.0,0.0,0.0,0.456,57.0,4.0,0.667,6.0,29.0,0.0,NBA,180.0,16.0,41.0,PF,56.0,2015,7.0,WAS,13.0,56.0
26.0,11.0,2.0,37.0,0.412,28.0,28.0,0.418,67.0,0.0,0.0,1.0,0.412,68.0,5.0,0.385,13.0,29.0,0.0,NBA,218.0,20.0,53.0,C,61.0,2016,8.0,WAS,15.0,57.0
