age,ast_per_mp,blk_per_mp,drb_per_mp,fg2_pct,fg2_per_mp,fg2a_per_mp,fg3_pct,fg3_per_mp,fg3a_per_mp,fg_pct,fg_per_mp,fga_per_mp,ft_pct,ft_per_mp,fta_per_mp,g,gs,lg_id,mp,orb_per_mp,pf_per_mp,pos,pts_per_mp,season,stl_per_mp,team_id,tov_per_mp,trb_per_mp
23.0,2.6,0.2,4.8,0.351,2.5,7.1,0.3,0.4,1.2,0.343,2.9,8.3,0.733,1.4,1.9,28.0,0.0,NBA,290.0,1.5,4.8,PF,7.4,2002,1.1,NJN,3.0,6.3
24.0,2.3,0.9,5.0,0.415,2.7,6.5,0.359,0.7,1.9,0.402,3.4,8.4,0.833,1.5,1.8,59.0,7.0,NBA,724.0,2.0,3.8,PF,9.0,2003,0.8,NJN,2.3,7.0
25.0,2.5,0.5,5.1,0.429,2.9,6.9,0.244,0.4,1.6,0.394,3.3,8.5,0.829,2.3,2.7,69.0,2.0,NBA,928.0,1.6,4.4,PF,9.3,2004,0.8,NJN,1.6,6.7
26.0,2.7,0.6,5.0,0.417,3.4,8.1,0.324,0.7,2.1,0.398,4.1,10.2,0.768,1.6,2.1,54.0,14.0,NBA,1167.0,2.6,3.4,PF,10.5,2005,1.0,NJN,2.0,7.5
27.0,2.0,0.7,3.3,0.406,1.7,4.1,0.356,1.2,3.3,0.383,2.8,7.4,0.722,1.0,1.4,71.0,1.0,NBA,938.0,1.0,4.9,PF,7.9,2006,0.8,BOS,1.9,4.4
28.0,2.1,0.6,2.8,0.407,1.2,2.8,0.4,1.5,3.9,0.403,2.7,6.7,0.783,0.6,0.8,54.0,17.0,NBA,1027.0,0.8,4.6,PF,7.6,2007,0.8,BOS,1.5,3.7
29.0,2.8,0.6,4.0,0.292,1.0,3.4,0.326,1.1,3.2,0.309,2.0,6.6,0.75,1.1,1.4,48.0,9.0,NBA,512.0,1.5,4.4,PF,6.2,2008,0.6,BOS,1.8,5.6
30.0,1.3,0.7,3.1,0.453,1.7,3.8,0.393,1.7,4.4,0.421,3.4,8.1,0.889,1.1,1.3,39.0,8.0,NBA,504.0,0.5,5.2,C,9.7,2009,0.5,BOS,0.9,3.6
31.0,2.1,0.3,3.0,0.361,1.0,2.7,0.327,1.2,3.7,0.341,2.2,6.5,0.667,0.3,0.5,52.0,3.0,NBA,472.0,0.7,4.5,PF,5.9,2010,0.7,BOS,1.3,3.7
32.0,2.5,1.6,2.9,0.714,4.1,5.7,0.0,0.0,2.0,0.526,4.1,7.8,0.0,0.0,0.0,18.0,0.0,NBA,88.0,0.4,7.4,PF,8.2,2011,1.2,CHI,2.0,3.3
33.0,4.4,1.8,3.8,0.565,3.8,6.8,0.143,0.3,2.1,0.467,4.1,8.9,0.5,0.9,1.8,28.0,0.0,NBA,122.0,2.4,2.7,PF,9.4,2012,1.5,CHI,2.7,6.2
