age,ast,blk,drb,fg,fg2,fg2a,fg3,fg3a,fga,ft,fta,game_score,lg_id,mp,orb,pf,pts,season,stl,team_id,tov,trb
23.0,0.0,1.0,2.0,1.0,1.0,1.0,0.0,1.0,1.0,0.0,0.0,1.7,NBA,0.0,1.0,0.0,2.0,2002,0.0,NJN,1.0,2.0
24.0,0.0,0.0,1.0,1.0,1.0,1.0,0.0,1.0,2.0,0.0,0.0,1.3,NBA,0.0,1.0,1.0,2.0,2003,0.0,NJN,1.0,1.0
25.0,1.0,0.0,2.0,6.0,2.0,3.0,4.0,4.0,7.0,2.0,4.0,12.8,NBA,0.0,2.0,5.0,17.0,2004,1.0,NJN,1.0,3.0
26.0,1.0,1.0,2.0,2.0,1.0,3.0,1.0,2.0,4.0,2.0,2.0,4.5,NBA,0.0,1.0,3.0,7.0,2005,1.0,NJN,3.0,2.0
30.0,2.0,2.0,3.0,3.0,2.0,4.0,2.0,4.0,7.0,2.0,2.0,8.8,NBA,35.0,2.0,6.0,10.0,2009,1.0,BOS,1.0,4.0
31.0,0.0,0.0,0.0,0.0,0.0,0.0,0.0,0.0,0.0,0.0,0.0,0.0,NBA,1.0,0.0,0.0,0.0,2010,0.0,BOS,0.0,0.0
