age,ast_per_mp,blk_per_mp,drb_per_mp,fg2_pct,fg2_per_mp,fg2a_per_mp,fg3_pct,fg3_per_mp,fg3a_per_mp,fg_pct,fg_per_mp,fga_per_mp,ft_pct,ft_per_mp,fta_per_mp,g,gs,lg_id,mp,orb_per_mp,pf_per_mp,pos,pts_per_mp,season,stl_per_mp,team_id,tov_per_mp,trb_per_mp
23.0,3.8,0.3,3.1,0.427,2.7,6.2,0.225,0.3,1.2,0.395,2.9,7.4,0.662,1.3,2.0,80.0,5.0,NBA,1235.0,1.1,5.3,PG,7.4,2006,2.2,BOS,3.2,4.2
24.0,3.1,0.6,4.5,0.412,3.0,7.2,0.182,0.3,1.6,0.371,3.3,8.8,0.6,2.1,3.5,41.0,0.0,NBA,254.0,1.7,5.4,SG,8.9,2007,2.4,IND,4.0,6.2
25.0,1.8,0.6,3.5,0.3,1.8,5.9,0.0,0.0,0.6,0.273,1.8,6.5,0.0,0.0,0.0,7.0,2.0,NBA,61.0,0.0,5.3,SG,3.5,2008,1.8,SAC,4.1,3.5
28.0,7.2,0.0,0.0,0.5,7.2,14.4,0.0,0.0,0.0,0.5,7.2,14.4,0.5,7.2,14.4,3.0,0.0,NBA,5.0,0.0,0.0,SG,21.6,2011,7.2,NJN,0.0,0.0
