age,avg_dist,fg2_dunk,fg2_pct,fg2_pct_ast,fg2a_pct_fga,fg3_heave,fg3_pct,fg3_pct_ast,fg3_pct_corner,fg3a_heave,fg3a_pct_fga,fg_pct,fg_pct_00_03,fg_pct_03_10,fg_pct_10_16,fg_pct_16_xx,g,lg_id,mp,pct_fg2_dunk,pct_fg3a_corner,pct_fga_00_03,pct_fga_03_10,pct_fga_10_16,pct_fga_16_xx,pos,season,team_id
23.0,12.0,12.0,0.427,0.473,0.842,0.0,0.225,0.889,0.2,0.0,0.158,0.395,0.474,0.353,0.353,0.402,80.0,NBA,1235.0,0.051,0.125,0.383,0.067,0.067,0.324,PG,2006,BOS
24.0,11.2,1.0,0.412,0.095,0.823,0.0,0.182,0.0,0.0,0.0,0.177,0.371,0.524,0.182,0.0,0.471,41.0,NBA,254.0,0.016,0.091,0.339,0.177,0.032,0.274,SG,2007,IND
25.0,10.2,2.0,0.3,0.667,0.909,0.0,0.0,0.0,0.0,1.0,0.091,0.273,0.5,0.0,0.0,0.0,7.0,NBA,61.0,0.182,0.0,0.545,0.091,0.091,0.182,SG,2008,SAC
28.0,1.5,0.0,0.5,0.0,1.0,0.0,0.0,0.0,0.0,0.0,0.0,0.5,0.5,0.0,0.0,0.0,3.0,NBA,5.0,0.0,0.0,1.0,0.0,0.0,0.0,SG,2011,NJN
