age,ast,blk,drb,efg_pct,fg,fg2,fg2_pct,fg2a,fg3,fg3_pct,fg3a,fg_pct,fga,ft,ft_pct,fta,g,gs,lg_id,mp,orb,pf,pos,pts,season,stl,team_id,tov,trb
22.0,111.0,23.0,235.0,0.428,242.0,242.0,0.429,564.0,0.0,0.0,1.0,0.428,565.0,150.0,0.725,207.0,78.0,29.0,NBA,1597.0,95.0,267.0,PF,634.0,1988,53.0,GSW,109.0,330.0
23.0,15.0,6.0,35.0,0.374,34.0,34.0,0.378,90.0,0.0,0.0,1.0,0.374,91.0,39.0,0.765,51.0,32.0,2.0,NBA,245.0,26.0,59.0,PF,107.0,1989,14.0,GSW,29.0,61.0
24.0,85.0,27.0,234.0,0.458,278.0,278.0,0.458,607.0,0.0,0.0,0.0,0.458,607.0,179.0,0.765,234.0,77.0,39.0,NBA,1762.0,151.0,282.0,PF,735.0,1990,51.0,MIA,134.0,385.0
26.0,8.0,4.0,18.0,0.545,18.0,18.0,0.545,33.0,0.0,0.0,0.0,0.545,33.0,10.0,0.667,15.0,10.0,0.0,NBA,140.0,8.0,24.0,PF,46.0,1992,5.0,MIN,5.0,26.0
28.0,57.0,35.0,137.0,0.419,67.0,67.0,0.424,158.0,0.0,0.0,2.0,0.419,160.0,54.0,0.711,76.0,67.0,11.0,NBA,959.0,83.0,163.0,PF,188.0,1994,35.0,MIN,49.0,220.0
