age,ast,ast_per_g,blk,college_id,fg,fg3,fg3_pct,fg3a,fg_pct,fga,ft,ft_pct,fta,g,mp,mp_per_g,orb,pf,pts,pts_per_g,season,stl,tov,trb,trb_per_g
19.0,151.0,9.4,3.0,LSU,81.0,20.0,0.308,65.0,0.438,185.0,42.0,0.677,62.0,16.0,550.0,34.4,0.0,39.0,224.0,14.0,1995,40.0,86.0,64.0,4.0
20.0,69.0,5.3,2.0,LSU,24.0,1.0,0.05,20.0,0.289,83.0,30.0,0.789,38.0,13.0,318.0,24.5,0.0,23.0,79.0,6.1,1996,27.0,37.0,30.0,2.3
