age,ast,blk,drb,fg,fg2,fg2a,fg3,fg3a,fga,ft,fta,game_score,lg_id,mp,orb,pf,pts,season,stl,team_id,tov,trb
21.0,2.0,0.0,0.0,1.0,0.0,2.0,1.0,1.0,2.0,0.0,0.0,2.0,NBA,0.0,0.0,1.0,3.0,1997,1.0,HOU,1.0,0.0
23.0,2.0,0.0,2.0,4.0,4.0,6.0,0.0,1.0,6.0,4.0,4.0,10.3,NBA,0.0,4.0,3.0,12.0,1999,1.0,PHO,1.0,4.0
24.0,3.0,1.0,3.0,3.0,1.0,5.0,2.0,2.0,6.0,0.0,0.0,4.6,NBA,0.0,1.0,2.0,8.0,2000,2.0,PHO,3.0,3.0
26.0,3.0,0.0,2.0,3.0,3.0,5.0,1.0,1.0,5.0,2.0,2.0,6.5,NBA,0.0,1.0,4.0,6.0,2002,1.0,SEA,1.0,3.0
